[
  {
    "id": "746e9355-5bb9-44d3-a288-716a0c87788b",
    "name": "Budapest",
    "state_id": "0028feb7-14d4-4d6b-a4ae-bacd26dcd04a"
  },
  {
    "id": "d2d4de9e-647d-4f01-b6b2-1dcab2bf47ae",
    "name": "Budapest I. kerület",
    "state_id": "0028feb7-14d4-4d6b-a4ae-bacd26dcd04a"
  },
  {
    "id": "a4c5ec6c-caf4-4aaf-aaf5-3dffed7552bc",
    "name": "Budapest II. kerület",
    "state_id": "0028feb7-14d4-4d6b-a4ae-bacd26dcd04a"
  },
  {
    "id": "b39c6fe1-6e73-4ecc-9afd-595ce9daa63f",
    "name": "Budapest III. kerület",
    "state_id": "0028feb7-14d4-4d6b-a4ae-bacd26dcd04a"
  },
  {
    "id": "f4ec9042-e8fd-4966-af0c-84f10c034e44",
    "name": "Budapest IV. kerület",
    "state_id": "0028feb7-14d4-4d6b-a4ae-bacd26dcd04a"
  },
  {
    "id": "402e2310-9a3c-4e5e-8e2f-8bca56a371b9",
    "name": "Budapest VI. kerület",
    "state_id": "0028feb7-14d4-4d6b-a4ae-bacd26dcd04a"
  },
  {
    "id": "670f34ed-43a1-4f72-9e48-61b497e351a8",
    "name": "Budapest VIII. kerület",
    "state_id": "0028feb7-14d4-4d6b-a4ae-bacd26dcd04a"
  },
  {
    "id": "6917318b-a5b4-4684-9483-3559111e39e3",
    "name": "Budapest X. kerület",
    "state_id": "0028feb7-14d4-4d6b-a4ae-bacd26dcd04a"
  },
  {
    "id": "21dcc224-8b46-432b-bf8f-e5c1b44e2378",
    "name": "Budapest XI. kerület",
    "state_id": "0028feb7-14d4-4d6b-a4ae-bacd26dcd04a"
  },
  {
    "id": "e917d33b-0b77-41fe-8d6e-4f11dd648047",
    "name": "Budapest XII. kerület",
    "state_id": "0028feb7-14d4-4d6b-a4ae-bacd26dcd04a"
  },
  {
    "id": "4545ab3d-524c-4e15-8aa4-ba607e761579",
    "name": "Budapest XIII. kerület",
    "state_id": "0028feb7-14d4-4d6b-a4ae-bacd26dcd04a"
  },
  {
    "id": "4780e6e8-3fa0-4999-b20f-a825bef4ff1e",
    "name": "Budapest XV. kerület",
    "state_id": "0028feb7-14d4-4d6b-a4ae-bacd26dcd04a"
  },
  {
    "id": "a602ea2a-1468-474a-92d3-7caa25bc64d6",
    "name": "Budapest XVI. kerület",
    "state_id": "0028feb7-14d4-4d6b-a4ae-bacd26dcd04a"
  },
  {
    "id": "51748575-c3e4-4906-93de-0578c508d2b9",
    "name": "Budapest XVII. kerület",
    "state_id": "0028feb7-14d4-4d6b-a4ae-bacd26dcd04a"
  },
  {
    "id": "f9665caa-440b-4fec-84cf-e24e015fdde9",
    "name": "Budapest XVIII. kerület",
    "state_id": "0028feb7-14d4-4d6b-a4ae-bacd26dcd04a"
  },
  {
    "id": "6073ab9f-b263-44d6-aa4c-4e2d85c5af39",
    "name": "Budapest XX. kerület",
    "state_id": "0028feb7-14d4-4d6b-a4ae-bacd26dcd04a"
  },
  {
    "id": "f4ad41fc-6908-4668-a3de-293f4a0ad973",
    "name": "Budapest XXI. kerület",
    "state_id": "0028feb7-14d4-4d6b-a4ae-bacd26dcd04a"
  },
  {
    "id": "d3786afe-f46d-45b4-9214-c5a8cff3ac52",
    "name": "Budapest XXII. kerület",
    "state_id": "0028feb7-14d4-4d6b-a4ae-bacd26dcd04a"
  },
  {
    "id": "0247a2ea-1e97-4509-9939-d3bd57f80ca7",
    "name": "Budapest XXIII. kerület",
    "state_id": "0028feb7-14d4-4d6b-a4ae-bacd26dcd04a"
  },
  {
    "id": "0a8e235c-c69f-4647-8620-fdfbab95ea35",
    "name": "Erzsébetváros",
    "state_id": "0028feb7-14d4-4d6b-a4ae-bacd26dcd04a"
  },
  {
    "id": "251cf2e3-6325-41b6-ad3a-1a8fbf4a0934",
    "name": "Józsefváros",
    "state_id": "0028feb7-14d4-4d6b-a4ae-bacd26dcd04a"
  },
  {
    "id": "3d1d4a2b-a433-49a5-8929-bd7ad2140d06",
    "name": "Kispest",
    "state_id": "0028feb7-14d4-4d6b-a4ae-bacd26dcd04a"
  },
  {
    "id": "d3bdafdb-ebae-47bd-9111-c4d3f914f040",
    "name": "Zugló",
    "state_id": "0028feb7-14d4-4d6b-a4ae-bacd26dcd04a"
  }
]