[
  {
    "id": "7bb8feb4-322b-4357-8795-d46e7780299c",
    "name": "Bayramaly",
    "state_id": "007e78ba-64f1-4c88-a647-693af4fde6ba"
  },
  {
    "id": "f136b226-d76f-4a12-97c9-70ce6fea8922",
    "name": "Mary",
    "state_id": "007e78ba-64f1-4c88-a647-693af4fde6ba"
  },
  {
    "id": "30dfe088-2748-46b0-b7be-f5324e7b8905",
    "name": "Serhetabat",
    "state_id": "007e78ba-64f1-4c88-a647-693af4fde6ba"
  },
  {
    "id": "b6e16c57-0598-4c10-86f6-b5d37b30351b",
    "name": "Seydi",
    "state_id": "007e78ba-64f1-4c88-a647-693af4fde6ba"
  },
  {
    "id": "0f5a07a1-1451-4380-bf5a-878e2fd8fe14",
    "name": "Yolöten",
    "state_id": "007e78ba-64f1-4c88-a647-693af4fde6ba"
  }
]