[
  {
    "id": "20fe30bc-9a89-4315-9caa-07ef8009ed38",
    "name": "Abborrberget",
    "state_id": "0140140a-31c5-4c82-bf99-632556037758"
  },
  {
    "id": "741c7ce7-ffbf-44c4-b261-38dcd94376c1",
    "name": "Älvdalen",
    "state_id": "0140140a-31c5-4c82-bf99-632556037758"
  },
  {
    "id": "f34120b8-ca47-4bf8-97cd-98c72e7f87c9",
    "name": "Avesta",
    "state_id": "0140140a-31c5-4c82-bf99-632556037758"
  },
  {
    "id": "a167d490-df39-43bd-8f94-e3094d46db0f",
    "name": "Bjursås",
    "state_id": "0140140a-31c5-4c82-bf99-632556037758"
  },
  {
    "id": "b110ec72-fbc6-482d-b01f-188f9a1af6a4",
    "name": "Borlänge",
    "state_id": "0140140a-31c5-4c82-bf99-632556037758"
  },
  {
    "id": "79a8ec4c-de47-4daa-9d74-c3dbfbe3ef31",
    "name": "Brunna",
    "state_id": "0140140a-31c5-4c82-bf99-632556037758"
  },
  {
    "id": "03782e50-bd7b-4667-98f1-6970697156e3",
    "name": "Djurås",
    "state_id": "0140140a-31c5-4c82-bf99-632556037758"
  },
  {
    "id": "ee860703-484f-4aa5-a964-91097240a00b",
    "name": "Enbacka",
    "state_id": "0140140a-31c5-4c82-bf99-632556037758"
  },
  {
    "id": "24ea4695-9595-400e-b0be-d2967d9f2760",
    "name": "Falun",
    "state_id": "0140140a-31c5-4c82-bf99-632556037758"
  },
  {
    "id": "ad9d01ee-bf2a-42f9-9b04-48a49ea9f011",
    "name": "Gagnef",
    "state_id": "0140140a-31c5-4c82-bf99-632556037758"
  },
  {
    "id": "78c5bfad-77d0-4a91-8dbf-3262dd05452d",
    "name": "Grängesberg",
    "state_id": "0140140a-31c5-4c82-bf99-632556037758"
  },
  {
    "id": "3f510440-295c-457a-901b-f71425725f83",
    "name": "Grycksbo",
    "state_id": "0140140a-31c5-4c82-bf99-632556037758"
  },
  {
    "id": "793411c8-38e4-48d6-97c0-11318e69fefc",
    "name": "Hedemora",
    "state_id": "0140140a-31c5-4c82-bf99-632556037758"
  },
  {
    "id": "f5752b4a-aa1c-420a-841b-d1be7de56884",
    "name": "Horndal",
    "state_id": "0140140a-31c5-4c82-bf99-632556037758"
  },
  {
    "id": "168cdee8-93b8-4628-9e53-0062c46044a1",
    "name": "Insjön",
    "state_id": "0140140a-31c5-4c82-bf99-632556037758"
  },
  {
    "id": "55cbbe75-e313-4b0e-8a55-58bf145be97a",
    "name": "Järna",
    "state_id": "0140140a-31c5-4c82-bf99-632556037758"
  },
  {
    "id": "4f857c49-c249-4b80-919a-1cf0f79ae87b",
    "name": "Krylbo",
    "state_id": "0140140a-31c5-4c82-bf99-632556037758"
  },
  {
    "id": "d95fa32f-4f54-483b-af56-83be5aa4e19a",
    "name": "Långshyttan",
    "state_id": "0140140a-31c5-4c82-bf99-632556037758"
  },
  {
    "id": "d2b727e2-cd41-444b-b083-d84599b63845",
    "name": "Leksand",
    "state_id": "0140140a-31c5-4c82-bf99-632556037758"
  },
  {
    "id": "47462e27-83cd-49c0-866c-51301e98ce46",
    "name": "Ludvika",
    "state_id": "0140140a-31c5-4c82-bf99-632556037758"
  },
  {
    "id": "860af557-521e-448b-be45-dffc6c298eee",
    "name": "Malung",
    "state_id": "0140140a-31c5-4c82-bf99-632556037758"
  },
  {
    "id": "3a6163d4-1344-4210-8ae0-e882059f7f80",
    "name": "Mockfjärd",
    "state_id": "0140140a-31c5-4c82-bf99-632556037758"
  },
  {
    "id": "b9e2cd4c-47ff-4d0a-babb-cdf333861f1a",
    "name": "Mora",
    "state_id": "0140140a-31c5-4c82-bf99-632556037758"
  },
  {
    "id": "c5c67b73-c7a5-488f-8e99-463758ef8fd2",
    "name": "Nyhammar",
    "state_id": "0140140a-31c5-4c82-bf99-632556037758"
  },
  {
    "id": "85bc432b-99ef-402b-a40a-b1761a7172f1",
    "name": "Ornäs",
    "state_id": "0140140a-31c5-4c82-bf99-632556037758"
  },
  {
    "id": "fc890685-8f33-440d-9174-b314601c2113",
    "name": "Orsa",
    "state_id": "0140140a-31c5-4c82-bf99-632556037758"
  },
  {
    "id": "45bcd662-38ca-4113-99f3-560f3d1bd4cc",
    "name": "Rättvik",
    "state_id": "0140140a-31c5-4c82-bf99-632556037758"
  },
  {
    "id": "ddb7b88b-3677-45b4-8d66-7080be614f9f",
    "name": "Romme",
    "state_id": "0140140a-31c5-4c82-bf99-632556037758"
  },
  {
    "id": "7d6e85f1-fe3a-40f5-97c1-babe2ef62b64",
    "name": "Säter",
    "state_id": "0140140a-31c5-4c82-bf99-632556037758"
  },
  {
    "id": "d2a2edc7-228b-4b27-a0ee-84f5e1568760",
    "name": "Siljansnäs",
    "state_id": "0140140a-31c5-4c82-bf99-632556037758"
  },
  {
    "id": "2206a1f3-91f3-484a-b36c-28e2c0bba710",
    "name": "Smedby",
    "state_id": "0140140a-31c5-4c82-bf99-632556037758"
  },
  {
    "id": "efc5e040-2f48-424e-b4a4-0749478f2f09",
    "name": "Smedjebacken",
    "state_id": "0140140a-31c5-4c82-bf99-632556037758"
  },
  {
    "id": "1baf2982-62de-41d4-bc66-f1a1fbb98629",
    "name": "Svärdsjö",
    "state_id": "0140140a-31c5-4c82-bf99-632556037758"
  },
  {
    "id": "96443dba-f473-46c9-ae3e-fd44b257448f",
    "name": "Vansbro",
    "state_id": "0140140a-31c5-4c82-bf99-632556037758"
  },
  {
    "id": "6daaffab-0f64-44e9-aee2-15dcddb84450",
    "name": "Vikarbyn",
    "state_id": "0140140a-31c5-4c82-bf99-632556037758"
  }
]