[
  {
    "id": "9df452ec-a139-43b2-87c2-5fa21b65bb32",
    "name": "Gargždai",
    "state_id": "01b2710f-58df-4f31-8bad-2c971086d9e9"
  },
  {
    "id": "64fd9ba9-79ba-47cd-97f5-85d61e26d3bb",
    "name": "Klaipėda",
    "state_id": "01b2710f-58df-4f31-8bad-2c971086d9e9"
  },
  {
    "id": "2a16ef74-e0ca-4ad0-b084-e2e390f35d9a",
    "name": "Kretinga",
    "state_id": "01b2710f-58df-4f31-8bad-2c971086d9e9"
  },
  {
    "id": "6c76d3f6-89ec-4fef-8584-0c14126dbd55",
    "name": "Neringa",
    "state_id": "01b2710f-58df-4f31-8bad-2c971086d9e9"
  },
  {
    "id": "543fa285-1268-4c67-b957-6e7fe563aa3a",
    "name": "Nida",
    "state_id": "01b2710f-58df-4f31-8bad-2c971086d9e9"
  },
  {
    "id": "c36a0d43-041c-4774-9a2f-424ba1f811fb",
    "name": "Palanga",
    "state_id": "01b2710f-58df-4f31-8bad-2c971086d9e9"
  },
  {
    "id": "72cee804-a06b-4ce0-814e-a32c7481a551",
    "name": "Priekulė",
    "state_id": "01b2710f-58df-4f31-8bad-2c971086d9e9"
  },
  {
    "id": "cdd24783-0a41-4044-bfd7-c0fe554396a9",
    "name": "Rusnė",
    "state_id": "01b2710f-58df-4f31-8bad-2c971086d9e9"
  },
  {
    "id": "94c3bf2d-b053-4bf5-baae-93d35eb251bc",
    "name": "Salantai",
    "state_id": "01b2710f-58df-4f31-8bad-2c971086d9e9"
  },
  {
    "id": "600d8159-c232-4c3d-863a-a3bfd6b9e77e",
    "name": "Silute",
    "state_id": "01b2710f-58df-4f31-8bad-2c971086d9e9"
  },
  {
    "id": "69461bcb-2efb-4984-b146-a713741026e6",
    "name": "Skuodas",
    "state_id": "01b2710f-58df-4f31-8bad-2c971086d9e9"
  },
  {
    "id": "c6361f69-b64a-48b7-8ab0-bbcba433efc4",
    "name": "Šventoji",
    "state_id": "01b2710f-58df-4f31-8bad-2c971086d9e9"
  },
  {
    "id": "e9a7b1f8-57c7-405a-92a8-1514a9a1360a",
    "name": "Žemaičių Naumiestis",
    "state_id": "01b2710f-58df-4f31-8bad-2c971086d9e9"
  }
]