[
  {
    "id": "c2c31f8e-ec42-4c24-b0a7-b6d5d350356a",
    "name": "Anse Chastanet",
    "state_id": "01f76c05-d40c-477c-9869-a43b909bec55"
  },
  {
    "id": "116aac50-4755-4640-ab1f-0764d8ac2b14",
    "name": "Barons Drive/Coin De L'Anse",
    "state_id": "01f76c05-d40c-477c-9869-a43b909bec55"
  },
  {
    "id": "815798e0-175f-4eef-a415-eaf7013d7da3",
    "name": "Beasejour/Myers Bridge",
    "state_id": "01f76c05-d40c-477c-9869-a43b909bec55"
  },
  {
    "id": "2dae7984-fd16-4521-b797-880e6ee85562",
    "name": "Belle Plaine",
    "state_id": "01f76c05-d40c-477c-9869-a43b909bec55"
  },
  {
    "id": "72a2437a-be48-42cd-9c41-1b59c6257df0",
    "name": "Bellefond",
    "state_id": "01f76c05-d40c-477c-9869-a43b909bec55"
  },
  {
    "id": "36fb0ad6-fde4-413d-8216-e5ee5c46713a",
    "name": "Belvedere",
    "state_id": "01f76c05-d40c-477c-9869-a43b909bec55"
  },
  {
    "id": "ef82604e-24f2-43f1-a587-0fde7e327d5b",
    "name": "Bois D'Inde",
    "state_id": "01f76c05-d40c-477c-9869-a43b909bec55"
  },
  {
    "id": "2d6a2876-16ab-449a-9d37-33688444f1dd",
    "name": "Bouton",
    "state_id": "01f76c05-d40c-477c-9869-a43b909bec55"
  },
  {
    "id": "229b7f55-8af0-4804-bf81-34f3760f2e83",
    "name": "Calvary/Calvaire",
    "state_id": "01f76c05-d40c-477c-9869-a43b909bec55"
  },
  {
    "id": "8d42b5a6-8cae-4e88-a2f9-cc3b4de3095a",
    "name": "Cenac",
    "state_id": "01f76c05-d40c-477c-9869-a43b909bec55"
  },
  {
    "id": "8b939156-f651-4a8a-896f-eb4f6935b9a7",
    "name": "Chateau Belair",
    "state_id": "01f76c05-d40c-477c-9869-a43b909bec55"
  },
  {
    "id": "be1c1d4d-0043-4844-ab63-e16dbcba28d7",
    "name": "Colombette",
    "state_id": "01f76c05-d40c-477c-9869-a43b909bec55"
  },
  {
    "id": "3b53c755-e479-40f2-93cf-7133cc670ce6",
    "name": "Compar",
    "state_id": "01f76c05-d40c-477c-9869-a43b909bec55"
  },
  {
    "id": "0c422eb2-a060-45cc-9a1b-8d740b3ab337",
    "name": "Cresslands",
    "state_id": "01f76c05-d40c-477c-9869-a43b909bec55"
  },
  {
    "id": "c6045942-6600-4297-b4ed-74e725a6ee74",
    "name": "Deville",
    "state_id": "01f76c05-d40c-477c-9869-a43b909bec55"
  },
  {
    "id": "1a0a1676-439f-43d0-8300-ccf406b3b120",
    "name": "Diamond/Diamond Estate",
    "state_id": "01f76c05-d40c-477c-9869-a43b909bec55"
  },
  {
    "id": "f17e9caf-85c4-438e-b90a-8c0d2c78105b",
    "name": "Esperance",
    "state_id": "01f76c05-d40c-477c-9869-a43b909bec55"
  },
  {
    "id": "e4ae272d-dbf6-49a2-a88a-324bbfeb83dd",
    "name": "Etangs",
    "state_id": "01f76c05-d40c-477c-9869-a43b909bec55"
  },
  {
    "id": "568ed251-b0da-4675-a8bc-189a5fe3205a",
    "name": "Fond Bernier",
    "state_id": "01f76c05-d40c-477c-9869-a43b909bec55"
  },
  {
    "id": "2d6e8a8f-dd4a-4272-b31c-dc183177762a",
    "name": "Fond Cacoa",
    "state_id": "01f76c05-d40c-477c-9869-a43b909bec55"
  },
  {
    "id": "f71cb8c4-d255-4587-a541-a8c782d2d220",
    "name": "Fond Doux",
    "state_id": "01f76c05-d40c-477c-9869-a43b909bec55"
  },
  {
    "id": "e1168521-d496-40ac-9c92-3cd309475491",
    "name": "Fond Gens Libre",
    "state_id": "01f76c05-d40c-477c-9869-a43b909bec55"
  },
  {
    "id": "a00ae062-7717-47a5-8271-bff57a62a835",
    "name": "Jalousie",
    "state_id": "01f76c05-d40c-477c-9869-a43b909bec55"
  },
  {
    "id": "3cb9c947-6637-4c1f-8818-5d514ecf6e90",
    "name": "La Haut",
    "state_id": "01f76c05-d40c-477c-9869-a43b909bec55"
  },
  {
    "id": "237a7d14-e8a0-44da-a765-4117305a1cc1",
    "name": "La Pearle",
    "state_id": "01f76c05-d40c-477c-9869-a43b909bec55"
  },
  {
    "id": "5ee1130c-d3bf-4c8b-80da-3a40517b230d",
    "name": "Lenny Hill",
    "state_id": "01f76c05-d40c-477c-9869-a43b909bec55"
  },
  {
    "id": "a7e20baa-5b55-496b-aaeb-22e3bd4b12c5",
    "name": "Malgretoute",
    "state_id": "01f76c05-d40c-477c-9869-a43b909bec55"
  },
  {
    "id": "4422431e-3943-428d-b304-a2411a4458f5",
    "name": "Migny",
    "state_id": "01f76c05-d40c-477c-9869-a43b909bec55"
  },
  {
    "id": "cffde820-b3c1-4040-bdee-653354bf8409",
    "name": "Mocha",
    "state_id": "01f76c05-d40c-477c-9869-a43b909bec55"
  },
  {
    "id": "95a5d9cb-0608-4d60-8029-1c23ddb8f29e",
    "name": "Morne Bonin",
    "state_id": "01f76c05-d40c-477c-9869-a43b909bec55"
  },
  {
    "id": "b8f8e2d8-7f6d-4181-a104-ab3730d35699",
    "name": "Morne La Croix",
    "state_id": "01f76c05-d40c-477c-9869-a43b909bec55"
  },
  {
    "id": "8d04a5ea-e3e0-4c68-a585-43f79f1f344b",
    "name": "Morne Lastic/Desruisseaux",
    "state_id": "01f76c05-d40c-477c-9869-a43b909bec55"
  },
  {
    "id": "c790f4ad-cf47-453a-91ac-2d735534671d",
    "name": "New Development",
    "state_id": "01f76c05-d40c-477c-9869-a43b909bec55"
  },
  {
    "id": "9b060770-4102-4a4d-bfff-b93688315ffd",
    "name": "Palmiste",
    "state_id": "01f76c05-d40c-477c-9869-a43b909bec55"
  },
  {
    "id": "7b6f8123-218d-4ec7-9ac2-57a995846dc5",
    "name": "Plat Pays",
    "state_id": "01f76c05-d40c-477c-9869-a43b909bec55"
  },
  {
    "id": "e7da8b5e-5101-4e3c-98e6-7021df1241c3",
    "name": "Rabot",
    "state_id": "01f76c05-d40c-477c-9869-a43b909bec55"
  },
  {
    "id": "555e4083-e2e3-450c-b959-40e817f2c746",
    "name": "Ravine Claire",
    "state_id": "01f76c05-d40c-477c-9869-a43b909bec55"
  },
  {
    "id": "c6141b99-d87d-41e3-acd2-6ab13fe06df5",
    "name": "Ruby Estate",
    "state_id": "01f76c05-d40c-477c-9869-a43b909bec55"
  },
  {
    "id": "009ce2a9-4111-4c53-9404-47e722fce1d0",
    "name": "Soufrière",
    "state_id": "01f76c05-d40c-477c-9869-a43b909bec55"
  },
  {
    "id": "17b75b64-1b02-4404-8611-880527a4225d",
    "name": "Soufriere Estate",
    "state_id": "01f76c05-d40c-477c-9869-a43b909bec55"
  },
  {
    "id": "ac896f88-2d59-4046-8a84-79219889b33a",
    "name": "St Phillip",
    "state_id": "01f76c05-d40c-477c-9869-a43b909bec55"
  },
  {
    "id": "e534967a-09cb-4b84-b382-74313c545923",
    "name": "Stonefield",
    "state_id": "01f76c05-d40c-477c-9869-a43b909bec55"
  },
  {
    "id": "80987d90-1a4d-4969-80b9-76e5b058509d",
    "name": "Sulphur Springs",
    "state_id": "01f76c05-d40c-477c-9869-a43b909bec55"
  },
  {
    "id": "daca7e93-7b59-49fc-99c8-7d2192adf815",
    "name": "Ti Boug",
    "state_id": "01f76c05-d40c-477c-9869-a43b909bec55"
  },
  {
    "id": "0b10cd98-01aa-4b28-a8d8-a79619c9d54b",
    "name": "Ti Delcer",
    "state_id": "01f76c05-d40c-477c-9869-a43b909bec55"
  },
  {
    "id": "98384316-0b98-43b2-b4a7-e4335763b1b2",
    "name": "Toraille",
    "state_id": "01f76c05-d40c-477c-9869-a43b909bec55"
  },
  {
    "id": "c9510ce9-8f6e-4c0d-930d-c94be23d1c65",
    "name": "Town",
    "state_id": "01f76c05-d40c-477c-9869-a43b909bec55"
  },
  {
    "id": "c62b34d3-d371-4ac4-98a7-e1938a72499d",
    "name": "Union Vale",
    "state_id": "01f76c05-d40c-477c-9869-a43b909bec55"
  },
  {
    "id": "94d315b5-bf3a-456f-9df4-8e41a86c048a",
    "name": "Zenon",
    "state_id": "01f76c05-d40c-477c-9869-a43b909bec55"
  }
]