[
  {
    "id": "495ddbb3-fdf7-44bc-98b4-f42e8d39b617",
    "name": "Abadia de Goiás",
    "state_id": "022cf65a-e79f-45e2-8630-868989913979"
  },
  {
    "id": "5af632c8-6338-4eb3-8a0e-aac9a254b962",
    "name": "Abadiânia",
    "state_id": "022cf65a-e79f-45e2-8630-868989913979"
  },
  {
    "id": "3b91cd28-6f48-483f-87fb-330c773e4778",
    "name": "Acreúna",
    "state_id": "022cf65a-e79f-45e2-8630-868989913979"
  },
  {
    "id": "53bfd730-4705-451d-a9cd-8dd99532065f",
    "name": "Adelândia",
    "state_id": "022cf65a-e79f-45e2-8630-868989913979"
  },
  {
    "id": "bcdfa23e-869e-48f9-9348-a2b0666a6497",
    "name": "Água Fria de Goiás",
    "state_id": "022cf65a-e79f-45e2-8630-868989913979"
  },
  {
    "id": "1f778a98-e1e9-4437-baa4-85659d2df0cf",
    "name": "Água Limpa",
    "state_id": "022cf65a-e79f-45e2-8630-868989913979"
  },
  {
    "id": "cecfd284-4938-4f78-b2ae-5786c691a3a1",
    "name": "Águas Lindas de Goiás",
    "state_id": "022cf65a-e79f-45e2-8630-868989913979"
  },
  {
    "id": "3087da66-a0e0-4b5f-b24f-074b17c53cfc",
    "name": "Alexânia",
    "state_id": "022cf65a-e79f-45e2-8630-868989913979"
  },
  {
    "id": "401a4bfb-75cc-45f0-bb3c-3fadccf3cc14",
    "name": "Aloândia",
    "state_id": "022cf65a-e79f-45e2-8630-868989913979"
  },
  {
    "id": "e22cbcf0-9bd3-4cc8-8c5c-b8c88734ea2d",
    "name": "Alto Horizonte",
    "state_id": "022cf65a-e79f-45e2-8630-868989913979"
  },
  {
    "id": "562ef478-a1c4-4e28-aa71-c700c5d0ca73",
    "name": "Alto Paraíso de Goiás",
    "state_id": "022cf65a-e79f-45e2-8630-868989913979"
  },
  {
    "id": "3dffcf2b-ffcc-4757-a460-62eb0e49f143",
    "name": "Alvorada do Norte",
    "state_id": "022cf65a-e79f-45e2-8630-868989913979"
  },
  {
    "id": "438e867f-a784-45dd-862c-ed3eba7216b5",
    "name": "Amaralina",
    "state_id": "022cf65a-e79f-45e2-8630-868989913979"
  },
  {
    "id": "15484216-6141-4598-babb-ff86903ffdc1",
    "name": "Americano do Brasil",
    "state_id": "022cf65a-e79f-45e2-8630-868989913979"
  },
  {
    "id": "7d369658-36ea-40fe-847e-7c0c84330f4a",
    "name": "Amorinópolis",
    "state_id": "022cf65a-e79f-45e2-8630-868989913979"
  },
  {
    "id": "d5eeccca-ceb3-471e-ae6d-a8c2c7e283af",
    "name": "Anápolis",
    "state_id": "022cf65a-e79f-45e2-8630-868989913979"
  },
  {
    "id": "673e8443-a28b-452e-b70b-b84040be9922",
    "name": "Anhanguera",
    "state_id": "022cf65a-e79f-45e2-8630-868989913979"
  },
  {
    "id": "18da42dc-bf6a-4700-bba5-f2991632069a",
    "name": "Anicuns",
    "state_id": "022cf65a-e79f-45e2-8630-868989913979"
  },
  {
    "id": "54b6c076-b8d4-4df9-b3be-7de401c0f228",
    "name": "Aparecida de Goiânia",
    "state_id": "022cf65a-e79f-45e2-8630-868989913979"
  },
  {
    "id": "98e07faf-124e-4a81-90c8-e65023c9b7fa",
    "name": "Aparecida do Rio Doce",
    "state_id": "022cf65a-e79f-45e2-8630-868989913979"
  },
  {
    "id": "710ebf4d-7c15-49ba-ba5f-66cff2126a05",
    "name": "Aporé",
    "state_id": "022cf65a-e79f-45e2-8630-868989913979"
  },
  {
    "id": "87ac2397-70d8-406a-99ea-d3cf7bc8e486",
    "name": "Araçu",
    "state_id": "022cf65a-e79f-45e2-8630-868989913979"
  },
  {
    "id": "e14c4bee-6ed4-44d7-9d2a-55b32fc29707",
    "name": "Aragarças",
    "state_id": "022cf65a-e79f-45e2-8630-868989913979"
  },
  {
    "id": "06a91fc8-dd31-453f-afdc-610419cca2ba",
    "name": "Aragoiânia",
    "state_id": "022cf65a-e79f-45e2-8630-868989913979"
  },
  {
    "id": "520895b2-d7e3-408b-bcd0-13e53e5a11bc",
    "name": "Araguapaz",
    "state_id": "022cf65a-e79f-45e2-8630-868989913979"
  },
  {
    "id": "e4d64764-7f0b-4f9c-95a6-6312455e7a71",
    "name": "Arenópolis",
    "state_id": "022cf65a-e79f-45e2-8630-868989913979"
  },
  {
    "id": "08e62451-1bc9-4597-82a0-5617fab42709",
    "name": "Aruanã",
    "state_id": "022cf65a-e79f-45e2-8630-868989913979"
  },
  {
    "id": "1a31d368-551b-4793-898b-e25f8da5e2e6",
    "name": "Aurilândia",
    "state_id": "022cf65a-e79f-45e2-8630-868989913979"
  },
  {
    "id": "2a96f30e-73a5-44a6-a7f7-e68eaa994e7b",
    "name": "Avelinópolis",
    "state_id": "022cf65a-e79f-45e2-8630-868989913979"
  },
  {
    "id": "c1ff2e01-c1c6-402a-b715-2a5c622daa8b",
    "name": "Baliza",
    "state_id": "022cf65a-e79f-45e2-8630-868989913979"
  },
  {
    "id": "1dbf6383-0af3-4ea2-b412-1d8f20c607f6",
    "name": "Barro Alto",
    "state_id": "022cf65a-e79f-45e2-8630-868989913979"
  },
  {
    "id": "4b1866f5-dced-4559-9c7e-df8251302650",
    "name": "Bela Vista de Goiás",
    "state_id": "022cf65a-e79f-45e2-8630-868989913979"
  },
  {
    "id": "8f3d24c1-c263-447e-af58-20cd3883900b",
    "name": "Bom Jardim de Goiás",
    "state_id": "022cf65a-e79f-45e2-8630-868989913979"
  },
  {
    "id": "ed993bb5-9f8b-455c-9982-6686bbcece1b",
    "name": "Bom Jesus de Goiás",
    "state_id": "022cf65a-e79f-45e2-8630-868989913979"
  },
  {
    "id": "0baa3e86-3552-42d8-9f02-9e0322cd5112",
    "name": "Bonfinópolis",
    "state_id": "022cf65a-e79f-45e2-8630-868989913979"
  },
  {
    "id": "f92fb7d6-db7f-4317-b8a0-98d6d7323ddf",
    "name": "Bonópolis",
    "state_id": "022cf65a-e79f-45e2-8630-868989913979"
  },
  {
    "id": "4c4120fb-7d60-4046-9711-e7833eb4c9ed",
    "name": "Brazabrantes",
    "state_id": "022cf65a-e79f-45e2-8630-868989913979"
  },
  {
    "id": "2614573a-008f-407c-8872-4103acc95f68",
    "name": "Britânia",
    "state_id": "022cf65a-e79f-45e2-8630-868989913979"
  },
  {
    "id": "74fb1d4e-0e4b-4e23-9b52-87b764d5b924",
    "name": "Buriti Alegre",
    "state_id": "022cf65a-e79f-45e2-8630-868989913979"
  },
  {
    "id": "03d02167-e26b-4643-8114-37b4e8ed2263",
    "name": "Buriti de Goiás",
    "state_id": "022cf65a-e79f-45e2-8630-868989913979"
  },
  {
    "id": "a78b74fe-57c1-44a9-87df-d8b779b732a9",
    "name": "Buritinópolis",
    "state_id": "022cf65a-e79f-45e2-8630-868989913979"
  },
  {
    "id": "2db7c193-08ac-4c6a-9176-026bd616ce8c",
    "name": "Cabeceiras",
    "state_id": "022cf65a-e79f-45e2-8630-868989913979"
  },
  {
    "id": "352fb98d-15df-4467-83fe-902982346224",
    "name": "Cachoeira Alta",
    "state_id": "022cf65a-e79f-45e2-8630-868989913979"
  },
  {
    "id": "e11f45f3-1037-414c-a668-0670ac8a765a",
    "name": "Cachoeira de Goiás",
    "state_id": "022cf65a-e79f-45e2-8630-868989913979"
  },
  {
    "id": "e28a83e7-a4e1-46b8-aa8d-fe3f2dd15a1e",
    "name": "Cachoeira Dourada",
    "state_id": "022cf65a-e79f-45e2-8630-868989913979"
  },
  {
    "id": "9771f28a-8694-411e-a59b-b60b8b4110e4",
    "name": "Caçu",
    "state_id": "022cf65a-e79f-45e2-8630-868989913979"
  },
  {
    "id": "3f40d17d-abae-42f3-928d-8ad345488361",
    "name": "Caiapônia",
    "state_id": "022cf65a-e79f-45e2-8630-868989913979"
  },
  {
    "id": "d5192ed2-80aa-4e49-91d9-ab6e220b4fe1",
    "name": "Caldas Novas",
    "state_id": "022cf65a-e79f-45e2-8630-868989913979"
  },
  {
    "id": "d3ed0edf-7fab-42e9-a6cb-7c3ea2499091",
    "name": "Caldazinha",
    "state_id": "022cf65a-e79f-45e2-8630-868989913979"
  },
  {
    "id": "b86cebd3-ed83-47dd-b9e2-b5d9c15e5eb1",
    "name": "Campestre de Goiás",
    "state_id": "022cf65a-e79f-45e2-8630-868989913979"
  },
  {
    "id": "fc1c343e-c662-47cf-830f-bc62ea77dd57",
    "name": "Campinaçu",
    "state_id": "022cf65a-e79f-45e2-8630-868989913979"
  },
  {
    "id": "48802e98-6665-4933-b88b-f31224af0aa7",
    "name": "Campinorte",
    "state_id": "022cf65a-e79f-45e2-8630-868989913979"
  },
  {
    "id": "0804d9b4-a69c-4f85-87e6-36667f50d418",
    "name": "Campo Alegre de Goiás",
    "state_id": "022cf65a-e79f-45e2-8630-868989913979"
  },
  {
    "id": "49cf48c3-e6b8-463f-8753-655cb145edf3",
    "name": "Campo Limpo de Goiás",
    "state_id": "022cf65a-e79f-45e2-8630-868989913979"
  },
  {
    "id": "73b1e7aa-426e-434f-a538-72bb5d6fede2",
    "name": "Campos Belos",
    "state_id": "022cf65a-e79f-45e2-8630-868989913979"
  },
  {
    "id": "643004ec-a9db-4be1-a1d9-e6dce1b78c47",
    "name": "Campos Verdes",
    "state_id": "022cf65a-e79f-45e2-8630-868989913979"
  },
  {
    "id": "96f7fc6e-bca4-446d-a615-6d3e5c0b7f01",
    "name": "Carmo do Rio Verde",
    "state_id": "022cf65a-e79f-45e2-8630-868989913979"
  },
  {
    "id": "85e637bc-4be5-42d1-8b73-529f38314700",
    "name": "Castelândia",
    "state_id": "022cf65a-e79f-45e2-8630-868989913979"
  },
  {
    "id": "b34a2711-1a5b-499f-8248-86890a3f69ea",
    "name": "Catalão",
    "state_id": "022cf65a-e79f-45e2-8630-868989913979"
  },
  {
    "id": "64a3a00a-0ce1-4cac-90f3-3858b3788de0",
    "name": "Caturaí",
    "state_id": "022cf65a-e79f-45e2-8630-868989913979"
  },
  {
    "id": "77da4066-1f34-449a-857a-139d57cde636",
    "name": "Cavalcante",
    "state_id": "022cf65a-e79f-45e2-8630-868989913979"
  },
  {
    "id": "4fcd47eb-9ba9-444d-89a3-419e41757700",
    "name": "Ceres",
    "state_id": "022cf65a-e79f-45e2-8630-868989913979"
  },
  {
    "id": "a6645e19-b65b-4513-b799-efd299e8032d",
    "name": "Cezarina",
    "state_id": "022cf65a-e79f-45e2-8630-868989913979"
  },
  {
    "id": "a07847aa-e96e-49ba-b0ec-33dcbb103d6c",
    "name": "Chapadão do Céu",
    "state_id": "022cf65a-e79f-45e2-8630-868989913979"
  },
  {
    "id": "a1a7ad8f-b256-44be-ad65-45d4c9435831",
    "name": "Cidade Ocidental",
    "state_id": "022cf65a-e79f-45e2-8630-868989913979"
  },
  {
    "id": "b6abce77-1cab-4484-836f-670054814776",
    "name": "Cocalzinho de Goiás",
    "state_id": "022cf65a-e79f-45e2-8630-868989913979"
  },
  {
    "id": "cbe09874-9a07-478c-b8d2-cf43c8e81bab",
    "name": "Colinas do Sul",
    "state_id": "022cf65a-e79f-45e2-8630-868989913979"
  },
  {
    "id": "560fb745-712d-4f66-aa73-b69961f44050",
    "name": "Córrego do Ouro",
    "state_id": "022cf65a-e79f-45e2-8630-868989913979"
  },
  {
    "id": "46eaadee-14c0-47ce-b8c5-b61589aa0218",
    "name": "Corumbá de Goiás",
    "state_id": "022cf65a-e79f-45e2-8630-868989913979"
  },
  {
    "id": "2f34d2d3-c965-409a-b0ea-a01c6d60a379",
    "name": "Corumbaíba",
    "state_id": "022cf65a-e79f-45e2-8630-868989913979"
  },
  {
    "id": "d985314e-8182-4c95-a148-882c3ed772f7",
    "name": "Cristalina",
    "state_id": "022cf65a-e79f-45e2-8630-868989913979"
  },
  {
    "id": "8d1639fc-abaa-4a25-af31-4717ba2a9b95",
    "name": "Cristianópolis",
    "state_id": "022cf65a-e79f-45e2-8630-868989913979"
  },
  {
    "id": "320c6c10-a569-4d63-af8e-9d7fd2329493",
    "name": "Crixás",
    "state_id": "022cf65a-e79f-45e2-8630-868989913979"
  },
  {
    "id": "d85992e8-60cd-4629-9054-c451f9cab752",
    "name": "Cromínia",
    "state_id": "022cf65a-e79f-45e2-8630-868989913979"
  },
  {
    "id": "e681b118-0bf9-4fd8-9315-c324da89315a",
    "name": "Cumari",
    "state_id": "022cf65a-e79f-45e2-8630-868989913979"
  },
  {
    "id": "69b411be-ca4d-49bb-ba37-4953bfc0de64",
    "name": "Damianópolis",
    "state_id": "022cf65a-e79f-45e2-8630-868989913979"
  },
  {
    "id": "5b7f9479-374a-4de3-8ecc-f59e6a8c8673",
    "name": "Damolândia",
    "state_id": "022cf65a-e79f-45e2-8630-868989913979"
  },
  {
    "id": "f5c2a73a-bd07-4bfb-8743-401163300caa",
    "name": "Davinópolis",
    "state_id": "022cf65a-e79f-45e2-8630-868989913979"
  },
  {
    "id": "3df597a5-c4f7-40cb-8f66-1b1ef42ad5e3",
    "name": "Diorama",
    "state_id": "022cf65a-e79f-45e2-8630-868989913979"
  },
  {
    "id": "2c0344c1-562e-4ed7-9b07-0393d5962ea0",
    "name": "Divinópolis de Goiás",
    "state_id": "022cf65a-e79f-45e2-8630-868989913979"
  },
  {
    "id": "3c40ec4b-9230-425e-b5d1-7c095a83bc57",
    "name": "Doverlândia",
    "state_id": "022cf65a-e79f-45e2-8630-868989913979"
  },
  {
    "id": "f0030b46-2db6-4b22-a316-eaf2a6a28458",
    "name": "Edealina",
    "state_id": "022cf65a-e79f-45e2-8630-868989913979"
  },
  {
    "id": "a802fd73-41b0-47c2-be01-9b0cc1c308f2",
    "name": "Edéia",
    "state_id": "022cf65a-e79f-45e2-8630-868989913979"
  },
  {
    "id": "68bcca68-d8a0-4b8e-8f9c-1b80ab8f1878",
    "name": "Estrela do Norte",
    "state_id": "022cf65a-e79f-45e2-8630-868989913979"
  },
  {
    "id": "83dfb3a3-e52c-48fe-a910-5fdea12b60db",
    "name": "Faina",
    "state_id": "022cf65a-e79f-45e2-8630-868989913979"
  },
  {
    "id": "12c58caf-a6d2-4e22-a23b-23d4d491347a",
    "name": "Fazenda Nova",
    "state_id": "022cf65a-e79f-45e2-8630-868989913979"
  },
  {
    "id": "c5c79a87-47d7-45f6-8cc6-418e753ccbf2",
    "name": "Firminópolis",
    "state_id": "022cf65a-e79f-45e2-8630-868989913979"
  },
  {
    "id": "2b0c74e4-f097-43bd-9b84-6f4df5f13a0a",
    "name": "Flores de Goiás",
    "state_id": "022cf65a-e79f-45e2-8630-868989913979"
  },
  {
    "id": "8cf11ce2-daa8-4d45-b47f-4c6662bb881e",
    "name": "Formosa",
    "state_id": "022cf65a-e79f-45e2-8630-868989913979"
  },
  {
    "id": "799a5b50-3122-4d3b-ae64-29f695c0ebd7",
    "name": "Formoso",
    "state_id": "022cf65a-e79f-45e2-8630-868989913979"
  },
  {
    "id": "06947f27-c152-49e8-a0a4-b83734e6aeaa",
    "name": "Gameleira de Goiás",
    "state_id": "022cf65a-e79f-45e2-8630-868989913979"
  },
  {
    "id": "51ee07d8-a849-4bc9-a174-5f6e1914c7a4",
    "name": "Goianápolis",
    "state_id": "022cf65a-e79f-45e2-8630-868989913979"
  },
  {
    "id": "39fcc43f-22b9-4a82-9b66-181588cbeb70",
    "name": "Goiandira",
    "state_id": "022cf65a-e79f-45e2-8630-868989913979"
  },
  {
    "id": "35c5b6b5-15f4-44e4-81f8-02c780f39afd",
    "name": "Goianésia",
    "state_id": "022cf65a-e79f-45e2-8630-868989913979"
  },
  {
    "id": "b1105ee8-8022-4b51-b29d-64c74886283c",
    "name": "Goiânia",
    "state_id": "022cf65a-e79f-45e2-8630-868989913979"
  },
  {
    "id": "ff1c47d0-3a48-4223-885b-88b056bdb92b",
    "name": "Goianira",
    "state_id": "022cf65a-e79f-45e2-8630-868989913979"
  },
  {
    "id": "0a318dfd-4f86-4464-89f8-71d43420be97",
    "name": "Goiás",
    "state_id": "022cf65a-e79f-45e2-8630-868989913979"
  },
  {
    "id": "085d5ed9-f6ac-4b08-908c-6e2e03692cfa",
    "name": "Goiatuba",
    "state_id": "022cf65a-e79f-45e2-8630-868989913979"
  },
  {
    "id": "ea874ee6-9350-4932-b825-5808dc96ff16",
    "name": "Gouvelândia",
    "state_id": "022cf65a-e79f-45e2-8630-868989913979"
  },
  {
    "id": "3f4f3e8f-867b-4565-bf58-48d04caccde9",
    "name": "Guapó",
    "state_id": "022cf65a-e79f-45e2-8630-868989913979"
  },
  {
    "id": "f644d9bd-00b5-4095-99d4-5acbf2cbcea5",
    "name": "Guaraíta",
    "state_id": "022cf65a-e79f-45e2-8630-868989913979"
  },
  {
    "id": "a0f9ed09-eaa4-4b46-8feb-cc87b20dd9a3",
    "name": "Guarani de Goiás",
    "state_id": "022cf65a-e79f-45e2-8630-868989913979"
  },
  {
    "id": "002cc66b-97c4-442a-8c1a-808e428a6589",
    "name": "Guarinos",
    "state_id": "022cf65a-e79f-45e2-8630-868989913979"
  },
  {
    "id": "a11a17af-1984-4dd8-82ed-789bbee578ad",
    "name": "Heitoraí",
    "state_id": "022cf65a-e79f-45e2-8630-868989913979"
  },
  {
    "id": "94307ae0-b22c-448d-b811-abe4ecaa95d9",
    "name": "Hidrolândia",
    "state_id": "022cf65a-e79f-45e2-8630-868989913979"
  },
  {
    "id": "c22ae6d9-8b1a-40e0-b8a5-4eb78ae2f7e9",
    "name": "Hidrolina",
    "state_id": "022cf65a-e79f-45e2-8630-868989913979"
  },
  {
    "id": "b834c507-1735-405f-95e1-fdc0eff7c5cf",
    "name": "Iaciara",
    "state_id": "022cf65a-e79f-45e2-8630-868989913979"
  },
  {
    "id": "c8bbab96-50e3-4ee1-bad7-6d2b699a756c",
    "name": "Inaciolândia",
    "state_id": "022cf65a-e79f-45e2-8630-868989913979"
  },
  {
    "id": "0a1a6107-5393-4538-803f-b7ddf59c552a",
    "name": "Indiara",
    "state_id": "022cf65a-e79f-45e2-8630-868989913979"
  },
  {
    "id": "7e77ca0c-97e3-4186-9640-b7c8cf39c2c7",
    "name": "Inhumas",
    "state_id": "022cf65a-e79f-45e2-8630-868989913979"
  },
  {
    "id": "f7d71d7e-3f7e-42d4-b35c-fb64d805948d",
    "name": "Ipameri",
    "state_id": "022cf65a-e79f-45e2-8630-868989913979"
  },
  {
    "id": "113a3c62-7e9f-431f-b46a-5f3256366e6d",
    "name": "Ipiranga de Goiás",
    "state_id": "022cf65a-e79f-45e2-8630-868989913979"
  },
  {
    "id": "43345755-dd2b-4ea8-9e7d-1f80f959a6b7",
    "name": "Iporá",
    "state_id": "022cf65a-e79f-45e2-8630-868989913979"
  },
  {
    "id": "77313239-71b3-495d-9261-181a456abf8f",
    "name": "Israelândia",
    "state_id": "022cf65a-e79f-45e2-8630-868989913979"
  },
  {
    "id": "dc7cf39e-796e-487e-80a4-a75e9095826b",
    "name": "Itaberaí",
    "state_id": "022cf65a-e79f-45e2-8630-868989913979"
  },
  {
    "id": "661eab61-1395-4b57-acd2-545d818ef816",
    "name": "Itaguari",
    "state_id": "022cf65a-e79f-45e2-8630-868989913979"
  },
  {
    "id": "af4edd43-71cb-4ed1-91cd-c24e7b5e1195",
    "name": "Itaguaru",
    "state_id": "022cf65a-e79f-45e2-8630-868989913979"
  },
  {
    "id": "f22c122d-418c-4ac3-85ff-693a9e285d4b",
    "name": "Itajá",
    "state_id": "022cf65a-e79f-45e2-8630-868989913979"
  },
  {
    "id": "c335ee78-4faf-4b5b-914a-2a03aeba00fa",
    "name": "Itapaci",
    "state_id": "022cf65a-e79f-45e2-8630-868989913979"
  },
  {
    "id": "801e299b-4c17-4023-af7c-709fb762dec9",
    "name": "Itapirapuã",
    "state_id": "022cf65a-e79f-45e2-8630-868989913979"
  },
  {
    "id": "df6b8d32-eca3-484b-a06c-a1012479304f",
    "name": "Itapuranga",
    "state_id": "022cf65a-e79f-45e2-8630-868989913979"
  },
  {
    "id": "a7621b01-392e-465c-8a79-51ca5742f79d",
    "name": "Itarumã",
    "state_id": "022cf65a-e79f-45e2-8630-868989913979"
  },
  {
    "id": "70ca1c13-f823-4ec3-a761-e0f7822c7d47",
    "name": "Itauçu",
    "state_id": "022cf65a-e79f-45e2-8630-868989913979"
  },
  {
    "id": "934e0b4c-9310-450b-85cb-3d5b0d7546d0",
    "name": "Itumbiara",
    "state_id": "022cf65a-e79f-45e2-8630-868989913979"
  },
  {
    "id": "7d329c13-6bc1-444a-8350-2a9639043cb2",
    "name": "Ivolândia",
    "state_id": "022cf65a-e79f-45e2-8630-868989913979"
  },
  {
    "id": "ba814ee5-ab39-47e0-99cf-905fb2cf1ae7",
    "name": "Jandaia",
    "state_id": "022cf65a-e79f-45e2-8630-868989913979"
  },
  {
    "id": "9c2310cc-590c-4dd4-b093-d068bd023234",
    "name": "Jaraguá",
    "state_id": "022cf65a-e79f-45e2-8630-868989913979"
  },
  {
    "id": "ecc7d9a2-93e2-4413-92c7-740064165843",
    "name": "Jataí",
    "state_id": "022cf65a-e79f-45e2-8630-868989913979"
  },
  {
    "id": "2acdb548-9bdc-4714-a245-92e41a82dc19",
    "name": "Jaupaci",
    "state_id": "022cf65a-e79f-45e2-8630-868989913979"
  },
  {
    "id": "b7b71ca3-e2f0-4f5a-a0c0-4cd627a8590d",
    "name": "Jesúpolis",
    "state_id": "022cf65a-e79f-45e2-8630-868989913979"
  },
  {
    "id": "ed9a2a72-3466-46a7-922b-9264c620c5c2",
    "name": "Joviânia",
    "state_id": "022cf65a-e79f-45e2-8630-868989913979"
  },
  {
    "id": "a871cb12-0f78-4966-a8b4-4b299541d928",
    "name": "Jussara",
    "state_id": "022cf65a-e79f-45e2-8630-868989913979"
  },
  {
    "id": "64d57abd-33a0-42c3-8cf0-1ede2289d4ba",
    "name": "Lagoa Santa",
    "state_id": "022cf65a-e79f-45e2-8630-868989913979"
  },
  {
    "id": "ede6b1b0-93a1-4c3d-bf22-3f1d93f83126",
    "name": "Leopoldo de Bulhões",
    "state_id": "022cf65a-e79f-45e2-8630-868989913979"
  },
  {
    "id": "13b8cd8d-8614-4dc4-a128-34d7035ac0a0",
    "name": "Luziânia",
    "state_id": "022cf65a-e79f-45e2-8630-868989913979"
  },
  {
    "id": "a355a176-ad7e-45d5-84dc-aabbd84d6898",
    "name": "Mairipotaba",
    "state_id": "022cf65a-e79f-45e2-8630-868989913979"
  },
  {
    "id": "f2449b5e-a558-4b8f-8bd0-72a8522fb597",
    "name": "Mambaí",
    "state_id": "022cf65a-e79f-45e2-8630-868989913979"
  },
  {
    "id": "03f94b0d-9adc-4309-ba4c-49e7870be206",
    "name": "Mara Rosa",
    "state_id": "022cf65a-e79f-45e2-8630-868989913979"
  },
  {
    "id": "59c947c3-a84c-450f-8310-1d970da74eca",
    "name": "Marzagão",
    "state_id": "022cf65a-e79f-45e2-8630-868989913979"
  },
  {
    "id": "ae334d3c-7937-4f47-a8f5-15e6a8364c2a",
    "name": "Matrinchã",
    "state_id": "022cf65a-e79f-45e2-8630-868989913979"
  },
  {
    "id": "f07b1bcc-5b7c-4023-83b9-835b04eb6a3d",
    "name": "Maurilândia",
    "state_id": "022cf65a-e79f-45e2-8630-868989913979"
  },
  {
    "id": "e2314d00-f75c-4343-830a-ec358f4cbe0d",
    "name": "Mimoso de Goiás",
    "state_id": "022cf65a-e79f-45e2-8630-868989913979"
  },
  {
    "id": "a0846644-59dc-4357-8939-128c6b4eb3c4",
    "name": "Minaçu",
    "state_id": "022cf65a-e79f-45e2-8630-868989913979"
  },
  {
    "id": "cf7f9ca3-e2a5-4c24-aeff-8ac1716143d0",
    "name": "Mineiros",
    "state_id": "022cf65a-e79f-45e2-8630-868989913979"
  },
  {
    "id": "5a0ec563-300f-4c2b-8b28-381ad0d36bc5",
    "name": "Moiporá",
    "state_id": "022cf65a-e79f-45e2-8630-868989913979"
  },
  {
    "id": "ab13180d-b30a-49e3-bbc7-95addbe17a1c",
    "name": "Monte Alegre de Goiás",
    "state_id": "022cf65a-e79f-45e2-8630-868989913979"
  },
  {
    "id": "46109bd9-6479-43c9-84d7-dfed6bc3d5b3",
    "name": "Montes Claros de Goiás",
    "state_id": "022cf65a-e79f-45e2-8630-868989913979"
  },
  {
    "id": "d079c8c5-1b53-4788-bab3-316c1657b86a",
    "name": "Montividiu",
    "state_id": "022cf65a-e79f-45e2-8630-868989913979"
  },
  {
    "id": "6d330aed-2eff-461c-b9b1-6114e21ee8c3",
    "name": "Montividiu do Norte",
    "state_id": "022cf65a-e79f-45e2-8630-868989913979"
  },
  {
    "id": "feb36069-3c93-4aca-b305-976efce0bfc1",
    "name": "Morrinhos",
    "state_id": "022cf65a-e79f-45e2-8630-868989913979"
  },
  {
    "id": "560af600-d496-4753-8afe-160b0e9ce611",
    "name": "Morro Agudo de Goiás",
    "state_id": "022cf65a-e79f-45e2-8630-868989913979"
  },
  {
    "id": "b3ce093c-80fd-49c5-8b5a-745df4a99656",
    "name": "Mossâmedes",
    "state_id": "022cf65a-e79f-45e2-8630-868989913979"
  },
  {
    "id": "318a7377-484a-4675-8021-6f7567663a40",
    "name": "Mozarlândia",
    "state_id": "022cf65a-e79f-45e2-8630-868989913979"
  },
  {
    "id": "b356cbfe-e213-4352-8109-f6a45f10fc90",
    "name": "Mundo Novo",
    "state_id": "022cf65a-e79f-45e2-8630-868989913979"
  },
  {
    "id": "a924ad29-089b-49fc-b785-dfcbe764a67d",
    "name": "Mutunópolis",
    "state_id": "022cf65a-e79f-45e2-8630-868989913979"
  },
  {
    "id": "96ed132d-b2f7-47bc-9cc7-d59ef1a8c31f",
    "name": "Nazário",
    "state_id": "022cf65a-e79f-45e2-8630-868989913979"
  },
  {
    "id": "d123a7c2-46fd-4d0c-b74e-9863fbdd81b9",
    "name": "Nerópolis",
    "state_id": "022cf65a-e79f-45e2-8630-868989913979"
  },
  {
    "id": "e0d35967-63b6-4834-9e75-7492a9fab215",
    "name": "Niquelândia",
    "state_id": "022cf65a-e79f-45e2-8630-868989913979"
  },
  {
    "id": "e1cb25e0-82ad-4a6c-ae31-15ac734263b4",
    "name": "Nova América",
    "state_id": "022cf65a-e79f-45e2-8630-868989913979"
  },
  {
    "id": "c31d2acb-8f0d-4b4f-90a2-161d1470c769",
    "name": "Nova Aurora",
    "state_id": "022cf65a-e79f-45e2-8630-868989913979"
  },
  {
    "id": "647169d7-295e-46b4-9656-1e02b6caf841",
    "name": "Nova Crixás",
    "state_id": "022cf65a-e79f-45e2-8630-868989913979"
  },
  {
    "id": "c7a5bf99-6939-4e63-91a8-b7a94480dc8a",
    "name": "Nova Glória",
    "state_id": "022cf65a-e79f-45e2-8630-868989913979"
  },
  {
    "id": "54745399-e563-4cd7-bb7e-9093ff484af3",
    "name": "Nova Iguaçu de Goiás",
    "state_id": "022cf65a-e79f-45e2-8630-868989913979"
  },
  {
    "id": "e11a4293-e4ad-49c5-a419-5a27348d0bb8",
    "name": "Nova Roma",
    "state_id": "022cf65a-e79f-45e2-8630-868989913979"
  },
  {
    "id": "93168105-59cd-4332-afa2-2c4b079f19f3",
    "name": "Nova Veneza",
    "state_id": "022cf65a-e79f-45e2-8630-868989913979"
  },
  {
    "id": "5342c78c-5e8a-4a5d-bf1f-639d402961c7",
    "name": "Novo Brasil",
    "state_id": "022cf65a-e79f-45e2-8630-868989913979"
  },
  {
    "id": "6182bb5a-f015-4c92-a46f-491babbb3124",
    "name": "Novo Gama",
    "state_id": "022cf65a-e79f-45e2-8630-868989913979"
  },
  {
    "id": "acf97cd9-b982-4743-948c-326816f5bade",
    "name": "Novo Planalto",
    "state_id": "022cf65a-e79f-45e2-8630-868989913979"
  },
  {
    "id": "9be3f58f-5851-44c1-9052-9091a99c0263",
    "name": "Orizona",
    "state_id": "022cf65a-e79f-45e2-8630-868989913979"
  },
  {
    "id": "18e81a1f-ccca-4147-9804-359265baa1a7",
    "name": "Ouro Verde de Goiás",
    "state_id": "022cf65a-e79f-45e2-8630-868989913979"
  },
  {
    "id": "8d3adc78-7195-47d4-b6ab-dd99a3442cee",
    "name": "Ouvidor",
    "state_id": "022cf65a-e79f-45e2-8630-868989913979"
  },
  {
    "id": "568749d4-0727-4045-8202-548f9daaf6b9",
    "name": "Padre Bernardo",
    "state_id": "022cf65a-e79f-45e2-8630-868989913979"
  },
  {
    "id": "8c57c9f6-1eba-4c9a-b7c7-af646b2685b8",
    "name": "Palestina de Goiás",
    "state_id": "022cf65a-e79f-45e2-8630-868989913979"
  },
  {
    "id": "83c99036-270b-451d-b6f6-b44625c28c83",
    "name": "Palmeiras de Goiás",
    "state_id": "022cf65a-e79f-45e2-8630-868989913979"
  },
  {
    "id": "64851b44-e462-4b4c-ab6c-fb07f968ef12",
    "name": "Palmelo",
    "state_id": "022cf65a-e79f-45e2-8630-868989913979"
  },
  {
    "id": "5d74dc43-46ed-4a5e-8711-1fa4182bc284",
    "name": "Palminópolis",
    "state_id": "022cf65a-e79f-45e2-8630-868989913979"
  },
  {
    "id": "56b2df9d-a6a1-4502-8dfb-d38633bee3eb",
    "name": "Panamá",
    "state_id": "022cf65a-e79f-45e2-8630-868989913979"
  },
  {
    "id": "bb3337af-67a9-44d5-acba-91977ab7a7b0",
    "name": "Paranaiguara",
    "state_id": "022cf65a-e79f-45e2-8630-868989913979"
  },
  {
    "id": "a2ac9593-ce81-4488-9b8f-56f22a5cd46b",
    "name": "Paraúna",
    "state_id": "022cf65a-e79f-45e2-8630-868989913979"
  },
  {
    "id": "3556e2ce-b41e-422e-a9ac-27b21ccedcfc",
    "name": "Perolândia",
    "state_id": "022cf65a-e79f-45e2-8630-868989913979"
  },
  {
    "id": "effd6f14-b8eb-425e-9b08-5b8e4109e282",
    "name": "Petrolina de Goiás",
    "state_id": "022cf65a-e79f-45e2-8630-868989913979"
  },
  {
    "id": "82705618-6000-4018-be10-088c6ee795af",
    "name": "Pilar de Goiás",
    "state_id": "022cf65a-e79f-45e2-8630-868989913979"
  },
  {
    "id": "7b0109f4-be13-4ab0-895b-f9a9fd5b2778",
    "name": "Piracanjuba",
    "state_id": "022cf65a-e79f-45e2-8630-868989913979"
  },
  {
    "id": "9a95d584-349c-40c6-9aec-744d3846d978",
    "name": "Piranhas",
    "state_id": "022cf65a-e79f-45e2-8630-868989913979"
  },
  {
    "id": "6c298b92-2bd7-43c0-b8fa-d5acb8548d6c",
    "name": "Pirenópolis",
    "state_id": "022cf65a-e79f-45e2-8630-868989913979"
  },
  {
    "id": "3d5dc9f4-ab06-4391-a2d9-f60f35b1cba1",
    "name": "Pires do Rio",
    "state_id": "022cf65a-e79f-45e2-8630-868989913979"
  },
  {
    "id": "17e45997-7f31-4a9f-8b3a-b578fce6175a",
    "name": "Planaltina",
    "state_id": "022cf65a-e79f-45e2-8630-868989913979"
  },
  {
    "id": "d25437cf-9689-4ab3-a878-c41db397e60d",
    "name": "Pontalina",
    "state_id": "022cf65a-e79f-45e2-8630-868989913979"
  },
  {
    "id": "2d497f88-b7a1-4ef8-887a-d54fd2b8d869",
    "name": "Porangatu",
    "state_id": "022cf65a-e79f-45e2-8630-868989913979"
  },
  {
    "id": "ac6c2942-92d0-412a-ae3a-58fb47679ade",
    "name": "Porteirão",
    "state_id": "022cf65a-e79f-45e2-8630-868989913979"
  },
  {
    "id": "46d10696-3f98-47cb-b739-38abf148f656",
    "name": "Portelândia",
    "state_id": "022cf65a-e79f-45e2-8630-868989913979"
  },
  {
    "id": "3bef27ec-6f3a-443a-a2e6-bebda62aac34",
    "name": "Posse",
    "state_id": "022cf65a-e79f-45e2-8630-868989913979"
  },
  {
    "id": "b7642677-82ac-4dd2-927e-192f55e55d32",
    "name": "Professor Jamil",
    "state_id": "022cf65a-e79f-45e2-8630-868989913979"
  },
  {
    "id": "a74ca55e-97a1-490c-b56b-4d21e9508bbe",
    "name": "Quirinópolis",
    "state_id": "022cf65a-e79f-45e2-8630-868989913979"
  },
  {
    "id": "d91b49be-8466-48fe-81ac-823bf8a72eaf",
    "name": "Rialma",
    "state_id": "022cf65a-e79f-45e2-8630-868989913979"
  },
  {
    "id": "7c3da3f8-b378-4d93-bc97-c9e73cc1af86",
    "name": "Rianápolis",
    "state_id": "022cf65a-e79f-45e2-8630-868989913979"
  },
  {
    "id": "ab36128c-f695-4fb5-96c0-1ed6c9db91cb",
    "name": "Rio Quente",
    "state_id": "022cf65a-e79f-45e2-8630-868989913979"
  },
  {
    "id": "628c887e-8e1f-4f31-9496-3d93a5ee602a",
    "name": "Rio Verde",
    "state_id": "022cf65a-e79f-45e2-8630-868989913979"
  },
  {
    "id": "58aca3e7-409e-4681-96a0-198b2fcfcc5a",
    "name": "Rubiataba",
    "state_id": "022cf65a-e79f-45e2-8630-868989913979"
  },
  {
    "id": "9db93f29-798f-4cad-b7e2-49e832813bed",
    "name": "Sanclerlândia",
    "state_id": "022cf65a-e79f-45e2-8630-868989913979"
  },
  {
    "id": "cfdf087a-5a3b-41a8-89ed-17eeaac72605",
    "name": "Santa Bárbara de Goiás",
    "state_id": "022cf65a-e79f-45e2-8630-868989913979"
  },
  {
    "id": "7f60012b-c08b-4cff-aed6-bd7a4a1cd462",
    "name": "Santa Cruz de Goiás",
    "state_id": "022cf65a-e79f-45e2-8630-868989913979"
  },
  {
    "id": "0f0747e0-181c-4836-bedd-414d9941be38",
    "name": "Santa Fé de Goiás",
    "state_id": "022cf65a-e79f-45e2-8630-868989913979"
  },
  {
    "id": "c60090fa-7a00-4ea5-9465-7713aa7ae0a1",
    "name": "Santa Helena de Goiás",
    "state_id": "022cf65a-e79f-45e2-8630-868989913979"
  },
  {
    "id": "311a7d8c-3732-49be-a3bb-6eda72376dcc",
    "name": "Santa Isabel",
    "state_id": "022cf65a-e79f-45e2-8630-868989913979"
  },
  {
    "id": "b51406d1-484a-4594-b9b3-7767b4f44aa2",
    "name": "Santa Rita do Araguaia",
    "state_id": "022cf65a-e79f-45e2-8630-868989913979"
  },
  {
    "id": "c7eeb91e-8e67-4237-820b-7e62ae96b3ef",
    "name": "Santa Rita do Novo Destino",
    "state_id": "022cf65a-e79f-45e2-8630-868989913979"
  },
  {
    "id": "5628f4e5-30ad-44dd-b3dd-9900d79d178f",
    "name": "Santa Rosa de Goiás",
    "state_id": "022cf65a-e79f-45e2-8630-868989913979"
  },
  {
    "id": "92c54636-61bf-4361-a444-4b87a6e52cd8",
    "name": "Santa Tereza de Goiás",
    "state_id": "022cf65a-e79f-45e2-8630-868989913979"
  },
  {
    "id": "5573e807-2c46-4246-b245-4c085a59b55d",
    "name": "Santa Terezinha de Goiás",
    "state_id": "022cf65a-e79f-45e2-8630-868989913979"
  },
  {
    "id": "7434b2d0-2031-4572-a60a-0f8b117ddb89",
    "name": "Santo Antônio da Barra",
    "state_id": "022cf65a-e79f-45e2-8630-868989913979"
  },
  {
    "id": "c85840df-5f09-44b0-8bd1-8f17bbe1208c",
    "name": "Santo Antônio de Goiás",
    "state_id": "022cf65a-e79f-45e2-8630-868989913979"
  },
  {
    "id": "b12f57e4-8047-4790-a185-af2dca7866a3",
    "name": "Santo Antônio do Descoberto",
    "state_id": "022cf65a-e79f-45e2-8630-868989913979"
  },
  {
    "id": "64bfadc0-81ce-4a36-83f4-5a693926199e",
    "name": "São Domingos",
    "state_id": "022cf65a-e79f-45e2-8630-868989913979"
  },
  {
    "id": "6fe3043c-9dd9-45d2-a3eb-0502a35dceaf",
    "name": "São Francisco de Goiás",
    "state_id": "022cf65a-e79f-45e2-8630-868989913979"
  },
  {
    "id": "6a57a593-73d3-42b0-a733-a821d25181cd",
    "name": "São João d'Aliança",
    "state_id": "022cf65a-e79f-45e2-8630-868989913979"
  },
  {
    "id": "b6a306bc-6878-4046-a752-c21ce1b63cb6",
    "name": "São João da Paraúna",
    "state_id": "022cf65a-e79f-45e2-8630-868989913979"
  },
  {
    "id": "ac747927-f181-4f22-a2c1-7ae68053f482",
    "name": "São Luís de Montes Belos",
    "state_id": "022cf65a-e79f-45e2-8630-868989913979"
  },
  {
    "id": "207c9f68-0227-417e-ad2e-90bd8d8895c7",
    "name": "São Luiz do Norte",
    "state_id": "022cf65a-e79f-45e2-8630-868989913979"
  },
  {
    "id": "1ba4a7e0-3278-462f-9c2a-ff555b2fb59e",
    "name": "São Miguel do Araguaia",
    "state_id": "022cf65a-e79f-45e2-8630-868989913979"
  },
  {
    "id": "214e39f9-6960-423b-96bf-c9926654147d",
    "name": "São Miguel do Passa Quatro",
    "state_id": "022cf65a-e79f-45e2-8630-868989913979"
  },
  {
    "id": "a0fb3773-e28e-4988-b8ed-c1589eef46a2",
    "name": "São Patrício",
    "state_id": "022cf65a-e79f-45e2-8630-868989913979"
  },
  {
    "id": "49d06648-617c-4fc0-9821-ecc4bba5e281",
    "name": "São Simão",
    "state_id": "022cf65a-e79f-45e2-8630-868989913979"
  },
  {
    "id": "5c6fad52-82fb-45a8-8aa6-fc42ddffd17f",
    "name": "Senador Canedo",
    "state_id": "022cf65a-e79f-45e2-8630-868989913979"
  },
  {
    "id": "e05746a0-ca74-48a0-9168-9bdccdf71618",
    "name": "Serranópolis",
    "state_id": "022cf65a-e79f-45e2-8630-868989913979"
  },
  {
    "id": "3b39b97f-1824-4d4f-8eee-07e99ce5e48c",
    "name": "Silvânia",
    "state_id": "022cf65a-e79f-45e2-8630-868989913979"
  },
  {
    "id": "513f1cd1-85e2-4783-97e0-b2b795df4126",
    "name": "Simolândia",
    "state_id": "022cf65a-e79f-45e2-8630-868989913979"
  },
  {
    "id": "55854301-ebf1-4491-98cf-c9f1b37e33ab",
    "name": "Sítio d'Abadia",
    "state_id": "022cf65a-e79f-45e2-8630-868989913979"
  },
  {
    "id": "e56a3620-5cb0-453a-8a01-0dd493b9707d",
    "name": "Taquaral de Goiás",
    "state_id": "022cf65a-e79f-45e2-8630-868989913979"
  },
  {
    "id": "7eecbe6e-83fd-4f3a-8228-b1a26ebc8e65",
    "name": "Teresina de Goiás",
    "state_id": "022cf65a-e79f-45e2-8630-868989913979"
  },
  {
    "id": "f3317bbc-908d-46b5-992c-6afba5b88b31",
    "name": "Terezópolis de Goiás",
    "state_id": "022cf65a-e79f-45e2-8630-868989913979"
  },
  {
    "id": "5c4e204a-407a-4d1d-a671-497aa0b43191",
    "name": "Três Ranchos",
    "state_id": "022cf65a-e79f-45e2-8630-868989913979"
  },
  {
    "id": "a1c0857d-d2b4-40b7-a277-fc47e821b7d5",
    "name": "Trindade",
    "state_id": "022cf65a-e79f-45e2-8630-868989913979"
  },
  {
    "id": "9029fd8f-ab63-4425-9b37-6abe4b57f197",
    "name": "Trombas",
    "state_id": "022cf65a-e79f-45e2-8630-868989913979"
  },
  {
    "id": "b28355df-f0fe-4b9b-b988-fda59a9453cb",
    "name": "Turvânia",
    "state_id": "022cf65a-e79f-45e2-8630-868989913979"
  },
  {
    "id": "10b75622-b530-41d7-ab84-63e82320b49e",
    "name": "Turvelândia",
    "state_id": "022cf65a-e79f-45e2-8630-868989913979"
  },
  {
    "id": "fbba1957-cd24-4d29-8940-6f8eb1fae728",
    "name": "Uirapuru",
    "state_id": "022cf65a-e79f-45e2-8630-868989913979"
  },
  {
    "id": "cf6d41e2-1783-40d5-b71e-74c4aa4ac848",
    "name": "Uruaçu",
    "state_id": "022cf65a-e79f-45e2-8630-868989913979"
  },
  {
    "id": "fe2df079-b0f9-457e-870f-6c71c4b09467",
    "name": "Uruana",
    "state_id": "022cf65a-e79f-45e2-8630-868989913979"
  },
  {
    "id": "a1fdff50-8c1d-4e1a-a254-9a56d341fad5",
    "name": "Urutaí",
    "state_id": "022cf65a-e79f-45e2-8630-868989913979"
  },
  {
    "id": "c845dc0e-b3a4-4b64-9f01-94e33e7aab70",
    "name": "Valparaíso de Goiás",
    "state_id": "022cf65a-e79f-45e2-8630-868989913979"
  },
  {
    "id": "bfd5bc7b-9f90-4683-8c83-14169b8d8c68",
    "name": "Varjão",
    "state_id": "022cf65a-e79f-45e2-8630-868989913979"
  },
  {
    "id": "ae3a243c-3df9-4776-a7e3-98a9c5987190",
    "name": "Vianópolis",
    "state_id": "022cf65a-e79f-45e2-8630-868989913979"
  },
  {
    "id": "07c643ae-795d-4fa6-bb0a-aace42e57cd8",
    "name": "Vicentinópolis",
    "state_id": "022cf65a-e79f-45e2-8630-868989913979"
  },
  {
    "id": "0c4e5f30-8442-4168-97ee-50076559c1c8",
    "name": "Vila Boa",
    "state_id": "022cf65a-e79f-45e2-8630-868989913979"
  },
  {
    "id": "9885d4f1-2414-407e-ae8c-57217d510722",
    "name": "Vila Propício",
    "state_id": "022cf65a-e79f-45e2-8630-868989913979"
  }
]