[
  {
    "id": "7f700f8b-9f6f-4b40-b99f-506d42691747",
    "name": "Sensuntepeque",
    "state_id": "045b6a0a-2750-428c-89ec-d23a49c3ca52"
  },
  {
    "id": "2405396f-6509-4ab6-a5ed-e4b48b7676d5",
    "name": "Victoria",
    "state_id": "045b6a0a-2750-428c-89ec-d23a49c3ca52"
  }
]