[
  {
    "id": "f3eae1b7-cb42-4c8a-b428-7d105fc1287a",
    "name": "Bräkne-Hoby",
    "state_id": "0467ef30-c572-4d9b-b023-ef5a9c66cae5"
  },
  {
    "id": "78a4bf86-318a-4575-ac63-c97a9c07a4da",
    "name": "Hällevik",
    "state_id": "0467ef30-c572-4d9b-b023-ef5a9c66cae5"
  },
  {
    "id": "f65b9072-6697-4b95-bfd9-55c2a6b2d382",
    "name": "Hasslö",
    "state_id": "0467ef30-c572-4d9b-b023-ef5a9c66cae5"
  },
  {
    "id": "89c62a3b-6adf-4190-a202-9800622cac60",
    "name": "Jämjö",
    "state_id": "0467ef30-c572-4d9b-b023-ef5a9c66cae5"
  },
  {
    "id": "ed73b306-b3e6-4933-ad7a-14ed3bda7b67",
    "name": "Jämshög",
    "state_id": "0467ef30-c572-4d9b-b023-ef5a9c66cae5"
  },
  {
    "id": "56bf7966-566d-44f1-be12-6aa82a462c06",
    "name": "Kallinge",
    "state_id": "0467ef30-c572-4d9b-b023-ef5a9c66cae5"
  },
  {
    "id": "2f436fbd-d705-442a-8e7c-9b985996c1c5",
    "name": "Karlshamn",
    "state_id": "0467ef30-c572-4d9b-b023-ef5a9c66cae5"
  },
  {
    "id": "53f66c8d-8a77-41e0-89b6-b80c0a352abb",
    "name": "Karlskrona",
    "state_id": "0467ef30-c572-4d9b-b023-ef5a9c66cae5"
  },
  {
    "id": "d365f587-b7bc-4497-9e46-678133a58a90",
    "name": "Mjällby",
    "state_id": "0467ef30-c572-4d9b-b023-ef5a9c66cae5"
  },
  {
    "id": "fcdaf883-d9e2-4968-b3f0-98ca7e8034af",
    "name": "Mörrum",
    "state_id": "0467ef30-c572-4d9b-b023-ef5a9c66cae5"
  },
  {
    "id": "294a2cf1-bc41-4f74-8f48-d07eaa2d39c0",
    "name": "Nättraby",
    "state_id": "0467ef30-c572-4d9b-b023-ef5a9c66cae5"
  },
  {
    "id": "8f2ae63d-b6f3-481d-8120-1a9c3206ac0d",
    "name": "Olofström",
    "state_id": "0467ef30-c572-4d9b-b023-ef5a9c66cae5"
  },
  {
    "id": "9876d26e-fdc6-45f1-9e0e-41d76776d294",
    "name": "Rödeby",
    "state_id": "0467ef30-c572-4d9b-b023-ef5a9c66cae5"
  },
  {
    "id": "e5f4a195-92c4-4f37-a8b8-7e0de8b1df90",
    "name": "Ronneby",
    "state_id": "0467ef30-c572-4d9b-b023-ef5a9c66cae5"
  },
  {
    "id": "5782aebf-3b14-4073-8426-cc08b660f09b",
    "name": "Sölvesborg",
    "state_id": "0467ef30-c572-4d9b-b023-ef5a9c66cae5"
  },
  {
    "id": "d44bf9ab-2688-442d-85de-f17e613b374c",
    "name": "Sturkö",
    "state_id": "0467ef30-c572-4d9b-b023-ef5a9c66cae5"
  },
  {
    "id": "b244e7e7-8fbd-4a59-9005-b3aa81611e43",
    "name": "Svängsta",
    "state_id": "0467ef30-c572-4d9b-b023-ef5a9c66cae5"
  }
]