[
  {
    "id": "e446779a-2222-4bc8-ac45-03104902447a",
    "name": "Batetskiy",
    "state_id": "04a7633e-eab4-4b56-9c2c-543d2ba6eb8a"
  },
  {
    "id": "0501ced6-48df-4cde-81e6-98fd51e0aea7",
    "name": "Batetskiy Rayon",
    "state_id": "04a7633e-eab4-4b56-9c2c-543d2ba6eb8a"
  },
  {
    "id": "c477249b-bee2-4a81-a016-a06e5ba3f384",
    "name": "Borovichi",
    "state_id": "04a7633e-eab4-4b56-9c2c-543d2ba6eb8a"
  },
  {
    "id": "51e55ada-bb7a-430d-ac53-2cf509ec6643",
    "name": "Borovichskiy Rayon",
    "state_id": "04a7633e-eab4-4b56-9c2c-543d2ba6eb8a"
  },
  {
    "id": "2e036c18-7c16-438e-aa35-fafd6b4362ed",
    "name": "Chudovo",
    "state_id": "04a7633e-eab4-4b56-9c2c-543d2ba6eb8a"
  },
  {
    "id": "902e1602-82b5-49a8-b660-700e39f02841",
    "name": "Chudovskiy Rayon",
    "state_id": "04a7633e-eab4-4b56-9c2c-543d2ba6eb8a"
  },
  {
    "id": "6d98a3ac-784e-4491-b2b3-41069bd3fa02",
    "name": "Demyansk",
    "state_id": "04a7633e-eab4-4b56-9c2c-543d2ba6eb8a"
  },
  {
    "id": "2dd3cd5b-5a42-4a29-bd7e-5f8b2de31605",
    "name": "Demyanskiy Rayon",
    "state_id": "04a7633e-eab4-4b56-9c2c-543d2ba6eb8a"
  },
  {
    "id": "5886771e-bce6-45e5-a3fb-48cf6b5b1441",
    "name": "Kholm",
    "state_id": "04a7633e-eab4-4b56-9c2c-543d2ba6eb8a"
  },
  {
    "id": "4f320dfa-b73e-4b96-a9ba-b4585b398b00",
    "name": "Kholmskiy Rayon",
    "state_id": "04a7633e-eab4-4b56-9c2c-543d2ba6eb8a"
  },
  {
    "id": "1ef4b289-b5be-4846-ad19-0234cad6ed9a",
    "name": "Khvoynaya",
    "state_id": "04a7633e-eab4-4b56-9c2c-543d2ba6eb8a"
  },
  {
    "id": "3c44dfd3-24a6-44aa-8704-85c16142f653",
    "name": "Khvoyninskiy Rayon",
    "state_id": "04a7633e-eab4-4b56-9c2c-543d2ba6eb8a"
  },
  {
    "id": "33002c8d-bc97-4204-a91f-885ecfc78554",
    "name": "Krasnofarfornyy",
    "state_id": "04a7633e-eab4-4b56-9c2c-543d2ba6eb8a"
  },
  {
    "id": "b777b8f8-d691-419d-8eb9-17a6a902041c",
    "name": "Krechevitsy",
    "state_id": "04a7633e-eab4-4b56-9c2c-543d2ba6eb8a"
  },
  {
    "id": "557dae33-88a8-4ace-85eb-279761e364dd",
    "name": "Krestetskiy Rayon",
    "state_id": "04a7633e-eab4-4b56-9c2c-543d2ba6eb8a"
  },
  {
    "id": "f6f55eea-f1fb-4202-b4c8-833e04ae955c",
    "name": "Kresttsy",
    "state_id": "04a7633e-eab4-4b56-9c2c-543d2ba6eb8a"
  },
  {
    "id": "5127d380-2abb-430c-808a-79fd092b3ba1",
    "name": "Kulotino",
    "state_id": "04a7633e-eab4-4b56-9c2c-543d2ba6eb8a"
  },
  {
    "id": "6d06efcb-294e-4aa3-ae05-92f94664f680",
    "name": "Lyubytino",
    "state_id": "04a7633e-eab4-4b56-9c2c-543d2ba6eb8a"
  },
  {
    "id": "f116a6ed-ad2e-4f07-809b-bfd940c7b74e",
    "name": "Lyubytinskiy Rayon",
    "state_id": "04a7633e-eab4-4b56-9c2c-543d2ba6eb8a"
  },
  {
    "id": "8913e2d6-446d-4a52-8ce7-d424a97de9ff",
    "name": "Malaya Vishera",
    "state_id": "04a7633e-eab4-4b56-9c2c-543d2ba6eb8a"
  },
  {
    "id": "fd938aa4-b4c7-4c6d-bd22-825b35c307ca",
    "name": "Malovisherskiy Rayon",
    "state_id": "04a7633e-eab4-4b56-9c2c-543d2ba6eb8a"
  },
  {
    "id": "7b669f31-4de9-467c-820e-6d93cc313ef1",
    "name": "Marevo",
    "state_id": "04a7633e-eab4-4b56-9c2c-543d2ba6eb8a"
  },
  {
    "id": "a6e5c452-ff5c-4cad-be3d-68db1ecbd5a0",
    "name": "Marevskiy Rayon",
    "state_id": "04a7633e-eab4-4b56-9c2c-543d2ba6eb8a"
  },
  {
    "id": "2bf2ef5c-4c87-437e-a998-9960fc988b6b",
    "name": "Moshenskoy Rayon",
    "state_id": "04a7633e-eab4-4b56-9c2c-543d2ba6eb8a"
  },
  {
    "id": "a255e08c-372d-4beb-9a7f-daa4ec0e63e2",
    "name": "Moshenskoye",
    "state_id": "04a7633e-eab4-4b56-9c2c-543d2ba6eb8a"
  },
  {
    "id": "86aa7107-349c-4c5b-8ff9-5f2d8488fccd",
    "name": "Nebolchi",
    "state_id": "04a7633e-eab4-4b56-9c2c-543d2ba6eb8a"
  },
  {
    "id": "9d6baca1-efe4-41aa-bcd8-30ddc99b4b5a",
    "name": "Novgorodskiy Rayon",
    "state_id": "04a7633e-eab4-4b56-9c2c-543d2ba6eb8a"
  },
  {
    "id": "a0716df8-37a6-438e-81a9-9da0ddb7d0e7",
    "name": "Okulovka",
    "state_id": "04a7633e-eab4-4b56-9c2c-543d2ba6eb8a"
  },
  {
    "id": "84b886fb-8e4e-4052-9c84-63fe12b05ec8",
    "name": "Okulovskiy Rayon",
    "state_id": "04a7633e-eab4-4b56-9c2c-543d2ba6eb8a"
  },
  {
    "id": "a017d88c-7e94-49f3-a748-ac7dd3f9a21c",
    "name": "Opechenskiy Posad",
    "state_id": "04a7633e-eab4-4b56-9c2c-543d2ba6eb8a"
  },
  {
    "id": "4920dae3-facd-489f-aed6-8720e7a30d29",
    "name": "Pankovka",
    "state_id": "04a7633e-eab4-4b56-9c2c-543d2ba6eb8a"
  },
  {
    "id": "d88007bd-18e9-432e-ab43-fc9d10c74589",
    "name": "Parfino",
    "state_id": "04a7633e-eab4-4b56-9c2c-543d2ba6eb8a"
  },
  {
    "id": "39944e7d-6683-4aec-adcf-79ea8b1f67fb",
    "name": "Parfinskiy Rayon",
    "state_id": "04a7633e-eab4-4b56-9c2c-543d2ba6eb8a"
  },
  {
    "id": "28784c45-bab2-48b0-904d-dadc876c0365",
    "name": "Pestovo",
    "state_id": "04a7633e-eab4-4b56-9c2c-543d2ba6eb8a"
  },
  {
    "id": "1e9406df-80bc-414f-8acc-e89bd8f057ba",
    "name": "Pestovskiy Rayon",
    "state_id": "04a7633e-eab4-4b56-9c2c-543d2ba6eb8a"
  },
  {
    "id": "a5abf5ef-bad9-4140-960e-3bd4d4dc68b6",
    "name": "Poddor’ye",
    "state_id": "04a7633e-eab4-4b56-9c2c-543d2ba6eb8a"
  },
  {
    "id": "99bd96b2-14b1-4162-a01b-34334ea8d730",
    "name": "Poddorskiy Rayon",
    "state_id": "04a7633e-eab4-4b56-9c2c-543d2ba6eb8a"
  },
  {
    "id": "b3b48640-06df-4277-8b76-a76690c6d9f7",
    "name": "Proletariy",
    "state_id": "04a7633e-eab4-4b56-9c2c-543d2ba6eb8a"
  },
  {
    "id": "c3c15702-5b5f-4ca2-afd1-3b703dba8956",
    "name": "Shimsk",
    "state_id": "04a7633e-eab4-4b56-9c2c-543d2ba6eb8a"
  },
  {
    "id": "55342317-89d5-4048-9cb8-bd6eed64607d",
    "name": "Shimskiy Rayon",
    "state_id": "04a7633e-eab4-4b56-9c2c-543d2ba6eb8a"
  },
  {
    "id": "e7279ece-a0b6-43dd-8f87-82a146ad1c6a",
    "name": "Sol’tsy",
    "state_id": "04a7633e-eab4-4b56-9c2c-543d2ba6eb8a"
  },
  {
    "id": "7f720a4e-3580-4a9d-96bc-59a18de51671",
    "name": "Soletskiy Rayon",
    "state_id": "04a7633e-eab4-4b56-9c2c-543d2ba6eb8a"
  },
  {
    "id": "08407d23-eeb1-4929-9fa7-7075902d3d55",
    "name": "Staraya Russa",
    "state_id": "04a7633e-eab4-4b56-9c2c-543d2ba6eb8a"
  },
  {
    "id": "a5d152ae-7a20-4f4f-bc20-2f568a7a1966",
    "name": "Starorusskiy Rayon",
    "state_id": "04a7633e-eab4-4b56-9c2c-543d2ba6eb8a"
  },
  {
    "id": "8db173bc-1ab3-4c7f-9cc6-79cefd7c04fa",
    "name": "Uglovka",
    "state_id": "04a7633e-eab4-4b56-9c2c-543d2ba6eb8a"
  },
  {
    "id": "af3f23fa-37b9-49b2-910a-cec28d4558db",
    "name": "Utorgosh",
    "state_id": "04a7633e-eab4-4b56-9c2c-543d2ba6eb8a"
  },
  {
    "id": "94b2af66-8649-4011-8ff4-fc49b1a0eb02",
    "name": "Valday",
    "state_id": "04a7633e-eab4-4b56-9c2c-543d2ba6eb8a"
  },
  {
    "id": "8b9eef04-2c08-42e2-9144-ff2a0321f92a",
    "name": "Valdayskiy Rayon",
    "state_id": "04a7633e-eab4-4b56-9c2c-543d2ba6eb8a"
  },
  {
    "id": "fe1d8d7d-2de2-4722-b530-81fe386c70f0",
    "name": "Velikiy Novgorod",
    "state_id": "04a7633e-eab4-4b56-9c2c-543d2ba6eb8a"
  },
  {
    "id": "e0a5c7af-5eda-4aba-bc72-cebb1d54cc37",
    "name": "Volkhovskiy",
    "state_id": "04a7633e-eab4-4b56-9c2c-543d2ba6eb8a"
  },
  {
    "id": "7147e11c-a99e-4299-bd2f-551170ccd598",
    "name": "Volot",
    "state_id": "04a7633e-eab4-4b56-9c2c-543d2ba6eb8a"
  },
  {
    "id": "7a4ec977-ee47-485d-b2aa-7dc03f92459e",
    "name": "Volotovskiy Rayon",
    "state_id": "04a7633e-eab4-4b56-9c2c-543d2ba6eb8a"
  },
  {
    "id": "12d7cf65-26c0-4ee8-ac65-81ef5901aa4b",
    "name": "Yedrovo",
    "state_id": "04a7633e-eab4-4b56-9c2c-543d2ba6eb8a"
  },
  {
    "id": "834226cd-a0a0-413d-a41f-9b086a1688cc",
    "name": "Zarubino",
    "state_id": "04a7633e-eab4-4b56-9c2c-543d2ba6eb8a"
  }
]