[
  {
    "id": "68ba056e-cc23-40b2-b992-92c745d5c374",
    "name": "Kankan",
    "state_id": "05231bda-c016-4442-a072-9248aa388788"
  },
  {
    "id": "839b83ce-0896-4923-836e-f9b73ed11c9f",
    "name": "Kankan Prefecture",
    "state_id": "05231bda-c016-4442-a072-9248aa388788"
  },
  {
    "id": "bb2d5251-99aa-46bc-a5f1-b61ddd29a71c",
    "name": "Kérouané",
    "state_id": "05231bda-c016-4442-a072-9248aa388788"
  },
  {
    "id": "a7783ce0-aeb9-4b49-b479-8890d67c9add",
    "name": "Kerouane Prefecture",
    "state_id": "05231bda-c016-4442-a072-9248aa388788"
  },
  {
    "id": "6b134316-0bea-498e-b668-408ad2bdd01f",
    "name": "Kouroussa",
    "state_id": "05231bda-c016-4442-a072-9248aa388788"
  },
  {
    "id": "97b16a96-86f9-434d-b788-b715bc7383e8",
    "name": "Mandiana",
    "state_id": "05231bda-c016-4442-a072-9248aa388788"
  },
  {
    "id": "146189ff-3692-45b3-b0ab-eee1065c69e1",
    "name": "Mandiana Prefecture",
    "state_id": "05231bda-c016-4442-a072-9248aa388788"
  },
  {
    "id": "d8801b43-4dff-4768-bd3c-16fb5b9b3280",
    "name": "Siguiri",
    "state_id": "05231bda-c016-4442-a072-9248aa388788"
  },
  {
    "id": "99667d59-ede1-47a8-a249-8614cff87131",
    "name": "Siguiri Prefecture",
    "state_id": "05231bda-c016-4442-a072-9248aa388788"
  },
  {
    "id": "7d4bb908-e87c-4920-a5e2-4e192140953b",
    "name": "Tokonou",
    "state_id": "05231bda-c016-4442-a072-9248aa388788"
  }
]