[
  {
    "id": "e23df87c-962c-42c9-a64f-deacfe32a1db",
    "name": "Borovan",
    "state_id": "061912cb-ae31-4895-9149-b663a4fe67d1"
  },
  {
    "id": "377c7ed4-3fae-4428-bb18-c4964465e100",
    "name": "Byala Slatina",
    "state_id": "061912cb-ae31-4895-9149-b663a4fe67d1"
  },
  {
    "id": "a3826588-6e41-4775-a254-a448362ae181",
    "name": "Hayredin",
    "state_id": "061912cb-ae31-4895-9149-b663a4fe67d1"
  },
  {
    "id": "3cc69f4e-8754-49bc-b4ef-79c69a8dd3ff",
    "name": "Kozloduy",
    "state_id": "061912cb-ae31-4895-9149-b663a4fe67d1"
  },
  {
    "id": "da791dde-2e73-4fdb-9b15-9dc068d57adb",
    "name": "Krivodol",
    "state_id": "061912cb-ae31-4895-9149-b663a4fe67d1"
  },
  {
    "id": "88586b33-8351-4592-93a5-ffed5eb3c678",
    "name": "Mezdra",
    "state_id": "061912cb-ae31-4895-9149-b663a4fe67d1"
  },
  {
    "id": "8a37cbff-2c13-4e6b-b441-a66124c45580",
    "name": "Mizia",
    "state_id": "061912cb-ae31-4895-9149-b663a4fe67d1"
  },
  {
    "id": "8b201170-4a13-46d7-b093-ec29ec14f42b",
    "name": "Obshtina Borovan",
    "state_id": "061912cb-ae31-4895-9149-b663a4fe67d1"
  },
  {
    "id": "35eed72c-0079-49b8-adbb-d09aa41e9338",
    "name": "Obshtina Hayredin",
    "state_id": "061912cb-ae31-4895-9149-b663a4fe67d1"
  },
  {
    "id": "22ab8452-3ebc-450b-b1de-e37d9ae13b42",
    "name": "Obshtina Kozloduy",
    "state_id": "061912cb-ae31-4895-9149-b663a4fe67d1"
  },
  {
    "id": "5536e466-e152-47f3-802e-b7c66a8b21dc",
    "name": "Obshtina Krivodol",
    "state_id": "061912cb-ae31-4895-9149-b663a4fe67d1"
  },
  {
    "id": "6e3405b2-7aef-415e-89bf-5999350657a9",
    "name": "Obshtina Mezdra",
    "state_id": "061912cb-ae31-4895-9149-b663a4fe67d1"
  },
  {
    "id": "3264bef2-0d67-4715-9a58-785d6eb5ca59",
    "name": "Obshtina Mizia",
    "state_id": "061912cb-ae31-4895-9149-b663a4fe67d1"
  },
  {
    "id": "3ff03225-c217-4a43-92fe-cce3b745cfdc",
    "name": "Obshtina Oryahovo",
    "state_id": "061912cb-ae31-4895-9149-b663a4fe67d1"
  },
  {
    "id": "7c87ab32-4a99-491c-a7f6-e32c5db735a6",
    "name": "Obshtina Roman",
    "state_id": "061912cb-ae31-4895-9149-b663a4fe67d1"
  },
  {
    "id": "01f4d9d9-fb57-45cb-9b2b-373e0737da79",
    "name": "Obshtina Vratsa",
    "state_id": "061912cb-ae31-4895-9149-b663a4fe67d1"
  },
  {
    "id": "4691800c-2144-4066-bcec-4695a6deb7bf",
    "name": "Oryahovo",
    "state_id": "061912cb-ae31-4895-9149-b663a4fe67d1"
  },
  {
    "id": "2120d771-de21-41c5-85d7-be7311125bef",
    "name": "Roman",
    "state_id": "061912cb-ae31-4895-9149-b663a4fe67d1"
  },
  {
    "id": "8a772a8a-efd4-4e7d-b1ef-5e65cc3df4a3",
    "name": "Vratsa",
    "state_id": "061912cb-ae31-4895-9149-b663a4fe67d1"
  }
]