[
  {
    "id": "a4a4718e-2a56-4fd7-8bc2-a1b9f350de0c",
    "name": "Komo Margarima",
    "state_id": "0619530a-3591-471e-8abc-ca70849fec36"
  },
  {
    "id": "cc78ff3d-67e5-4515-9b23-81e36b6cb3e0",
    "name": "Koroba-Lake Kopiago",
    "state_id": "0619530a-3591-471e-8abc-ca70849fec36"
  },
  {
    "id": "81570ea6-247b-42ff-b0ef-13c2f3592496",
    "name": "Tari",
    "state_id": "0619530a-3591-471e-8abc-ca70849fec36"
  },
  {
    "id": "bd08202a-c475-4c01-9507-66338d34cfd9",
    "name": "Tari Pori",
    "state_id": "0619530a-3591-471e-8abc-ca70849fec36"
  }
]