[
  {
    "id": "5a353a6c-f41e-4ce2-89b3-94c4cb64af08",
    "name": "Agalteca",
    "state_id": "0672865d-1311-4b61-8685-c7491da66fd8"
  },
  {
    "id": "4cc058dc-7cc6-4272-90a9-fa74487c287c",
    "name": "Alubarén",
    "state_id": "0672865d-1311-4b61-8685-c7491da66fd8"
  },
  {
    "id": "22760528-b22d-4975-b013-8d7eca57c2c8",
    "name": "Cedros",
    "state_id": "0672865d-1311-4b61-8685-c7491da66fd8"
  },
  {
    "id": "f9936a80-c4d6-45be-81cf-2004bebeded1",
    "name": "Cerro Grande",
    "state_id": "0672865d-1311-4b61-8685-c7491da66fd8"
  },
  {
    "id": "ab87edbc-9788-49e7-b723-a765bd6c23ff",
    "name": "Cofradía",
    "state_id": "0672865d-1311-4b61-8685-c7491da66fd8"
  },
  {
    "id": "3c18cfd7-33be-435d-86fb-9f2ab4a1090b",
    "name": "Curarén",
    "state_id": "0672865d-1311-4b61-8685-c7491da66fd8"
  },
  {
    "id": "03dd6f19-5cf0-47a2-a276-225588b74ad5",
    "name": "Distrito Central",
    "state_id": "0672865d-1311-4b61-8685-c7491da66fd8"
  },
  {
    "id": "221f72f6-b79f-4fd0-bf37-2489d7731daa",
    "name": "El Chimbo",
    "state_id": "0672865d-1311-4b61-8685-c7491da66fd8"
  },
  {
    "id": "62218964-01a7-4284-bd40-3315fef14cbb",
    "name": "El Escanito",
    "state_id": "0672865d-1311-4b61-8685-c7491da66fd8"
  },
  {
    "id": "8eb4338a-9a52-49aa-a7af-67f24a133162",
    "name": "El Escaño de Tepale",
    "state_id": "0672865d-1311-4b61-8685-c7491da66fd8"
  },
  {
    "id": "9b53717f-8fd5-4e46-95d5-620a019f7968",
    "name": "El Guante",
    "state_id": "0672865d-1311-4b61-8685-c7491da66fd8"
  },
  {
    "id": "40cb09f8-db1d-48fd-b0d9-7e161560168d",
    "name": "El Guantillo",
    "state_id": "0672865d-1311-4b61-8685-c7491da66fd8"
  },
  {
    "id": "7b4cc658-6cc8-49b0-ad72-f03ffda76a21",
    "name": "El Guapinol",
    "state_id": "0672865d-1311-4b61-8685-c7491da66fd8"
  },
  {
    "id": "a825d96c-5172-4ac0-aa75-636208b8d656",
    "name": "El Lolo",
    "state_id": "0672865d-1311-4b61-8685-c7491da66fd8"
  },
  {
    "id": "a525d779-a590-411b-876d-22612f72c751",
    "name": "El Pedernal",
    "state_id": "0672865d-1311-4b61-8685-c7491da66fd8"
  },
  {
    "id": "051cc602-6aff-4361-9308-54dc27e2e4f3",
    "name": "El Porvenir",
    "state_id": "0672865d-1311-4b61-8685-c7491da66fd8"
  },
  {
    "id": "2268df29-75b2-43b8-b90e-f17034a71365",
    "name": "El Suyatal",
    "state_id": "0672865d-1311-4b61-8685-c7491da66fd8"
  },
  {
    "id": "5a6eee44-1064-4908-a3ce-7d2b2eb18363",
    "name": "El Tablón",
    "state_id": "0672865d-1311-4b61-8685-c7491da66fd8"
  },
  {
    "id": "b352eba3-f763-4e6c-a80d-0a6c60de3102",
    "name": "El Terrero",
    "state_id": "0672865d-1311-4b61-8685-c7491da66fd8"
  },
  {
    "id": "19f1030c-acb3-4738-94fb-aa46c04562be",
    "name": "Guaimaca",
    "state_id": "0672865d-1311-4b61-8685-c7491da66fd8"
  },
  {
    "id": "582bff3a-ba81-4953-98a9-550980446071",
    "name": "La Ermita",
    "state_id": "0672865d-1311-4b61-8685-c7491da66fd8"
  },
  {
    "id": "e8312eeb-206d-4567-8c82-3994663d7e8d",
    "name": "La Libertad",
    "state_id": "0672865d-1311-4b61-8685-c7491da66fd8"
  },
  {
    "id": "31d7dbaf-ccac-4297-b767-3e4ea4b84e91",
    "name": "La Venta",
    "state_id": "0672865d-1311-4b61-8685-c7491da66fd8"
  },
  {
    "id": "48eb78b5-1cf6-44a1-97c2-41c2356b0bce",
    "name": "Lepaterique",
    "state_id": "0672865d-1311-4b61-8685-c7491da66fd8"
  },
  {
    "id": "4d71a1c0-9185-4a8a-b9c5-8fcc9e6458cd",
    "name": "Maraita",
    "state_id": "0672865d-1311-4b61-8685-c7491da66fd8"
  },
  {
    "id": "7df877c7-7bb8-42bf-980d-5c70b24723b2",
    "name": "Marale",
    "state_id": "0672865d-1311-4b61-8685-c7491da66fd8"
  },
  {
    "id": "1ece9ba9-cd28-49ee-9b2b-bcc7c8551e74",
    "name": "Mata de Plátano",
    "state_id": "0672865d-1311-4b61-8685-c7491da66fd8"
  },
  {
    "id": "ca865ff9-897e-4a4e-8033-c67f7cfd5b66",
    "name": "Mateo",
    "state_id": "0672865d-1311-4b61-8685-c7491da66fd8"
  },
  {
    "id": "e817234e-4a96-4aa0-9440-593cb8de019f",
    "name": "Nueva Armenia",
    "state_id": "0672865d-1311-4b61-8685-c7491da66fd8"
  },
  {
    "id": "64804bc5-5b1f-4a3a-affe-8a976398fa38",
    "name": "Ojojona",
    "state_id": "0672865d-1311-4b61-8685-c7491da66fd8"
  },
  {
    "id": "ed15ea1c-d6ad-4c82-a3d1-b19b530ba484",
    "name": "Orica",
    "state_id": "0672865d-1311-4b61-8685-c7491da66fd8"
  },
  {
    "id": "60823003-f073-47bb-a998-4d9ca85b08f5",
    "name": "Quebradas",
    "state_id": "0672865d-1311-4b61-8685-c7491da66fd8"
  },
  {
    "id": "51fcfd0c-2559-4c66-8668-e73793f20d93",
    "name": "Reitoca",
    "state_id": "0672865d-1311-4b61-8685-c7491da66fd8"
  },
  {
    "id": "3853d65f-5580-4ad6-8a89-ea688b0c15a0",
    "name": "Río Abajo",
    "state_id": "0672865d-1311-4b61-8685-c7491da66fd8"
  },
  {
    "id": "744d7c76-eec4-427f-beea-76147ce64c6c",
    "name": "Sabanagrande",
    "state_id": "0672865d-1311-4b61-8685-c7491da66fd8"
  },
  {
    "id": "57f2172d-b7f0-4ae5-a9b0-354ab31795da",
    "name": "San Antonio de Oriente",
    "state_id": "0672865d-1311-4b61-8685-c7491da66fd8"
  },
  {
    "id": "726edd93-0de0-4db0-9a68-44766608f689",
    "name": "San Buenaventura",
    "state_id": "0672865d-1311-4b61-8685-c7491da66fd8"
  },
  {
    "id": "d2666ea5-b4f5-481e-bace-2839287d37b0",
    "name": "San Ignacio",
    "state_id": "0672865d-1311-4b61-8685-c7491da66fd8"
  },
  {
    "id": "32310941-0253-44aa-8a0d-acfec7de9088",
    "name": "San Juan de Flores",
    "state_id": "0672865d-1311-4b61-8685-c7491da66fd8"
  },
  {
    "id": "57066fa5-5c41-41c0-b948-b571dafefce7",
    "name": "San Miguelito",
    "state_id": "0672865d-1311-4b61-8685-c7491da66fd8"
  },
  {
    "id": "361ec489-2949-4888-b0f7-0a6d46de1546",
    "name": "Santa Ana",
    "state_id": "0672865d-1311-4b61-8685-c7491da66fd8"
  },
  {
    "id": "3b619f05-dc41-4166-9d64-d6d822e5dc3f",
    "name": "Santa Lucía",
    "state_id": "0672865d-1311-4b61-8685-c7491da66fd8"
  },
  {
    "id": "ebd349c8-1da6-4e09-9376-97b4133d60e7",
    "name": "Talanga",
    "state_id": "0672865d-1311-4b61-8685-c7491da66fd8"
  },
  {
    "id": "03ce4e8a-0c52-4092-9c35-e231c3e15c73",
    "name": "Támara",
    "state_id": "0672865d-1311-4b61-8685-c7491da66fd8"
  },
  {
    "id": "9305e4e2-7fcd-4a90-ac91-fa4601de89a6",
    "name": "Tatumbla",
    "state_id": "0672865d-1311-4b61-8685-c7491da66fd8"
  },
  {
    "id": "90158d31-f118-4cc6-8b18-f4ce42ee2749",
    "name": "Tegucigalpa",
    "state_id": "0672865d-1311-4b61-8685-c7491da66fd8"
  },
  {
    "id": "c2303882-9970-448c-8989-8496910973e3",
    "name": "Valle de Ángeles",
    "state_id": "0672865d-1311-4b61-8685-c7491da66fd8"
  },
  {
    "id": "1b947b77-1730-48dd-bbec-de7e628a0691",
    "name": "Vallecillo",
    "state_id": "0672865d-1311-4b61-8685-c7491da66fd8"
  },
  {
    "id": "6b00820f-552c-426f-aaa4-a3558b012269",
    "name": "Villa de San Francisco",
    "state_id": "0672865d-1311-4b61-8685-c7491da66fd8"
  },
  {
    "id": "d5d792bf-215f-4795-b772-7cafeec861b0",
    "name": "Villa Nueva",
    "state_id": "0672865d-1311-4b61-8685-c7491da66fd8"
  },
  {
    "id": "c2c87574-e28b-4f30-b11b-5dbd2614b9f5",
    "name": "Yaguacire",
    "state_id": "0672865d-1311-4b61-8685-c7491da66fd8"
  },
  {
    "id": "eff0c183-a01c-47c8-aa0b-0f523d7ecc07",
    "name": "Zambrano",
    "state_id": "0672865d-1311-4b61-8685-c7491da66fd8"
  }
]