[
  {
    "id": "c818691f-3ea4-43ef-841f-d24cf9b8cc99",
    "name": "Bukama",
    "state_id": "06b4135f-9c83-4a84-98e4-c31230d7c908"
  },
  {
    "id": "0f9188b3-6bb2-4d8f-9c93-9572f3a75d7f",
    "name": "Kamina",
    "state_id": "06b4135f-9c83-4a84-98e4-c31230d7c908"
  }
]