[
  {
    "id": "439db219-846a-44ed-a443-7997a3a793a8",
    "name": "Bulung’ur",
    "state_id": "06fdd5c6-5cef-4e35-b910-f0b0675fb363"
  },
  {
    "id": "26eadf8b-b83b-4f3d-b682-5d531c91a728",
    "name": "Charxin",
    "state_id": "06fdd5c6-5cef-4e35-b910-f0b0675fb363"
  },
  {
    "id": "6c7cf2be-d187-4fbf-b734-03976075d27f",
    "name": "Chelak",
    "state_id": "06fdd5c6-5cef-4e35-b910-f0b0675fb363"
  },
  {
    "id": "70e0a2de-5682-43af-a221-2e6a1a139c0c",
    "name": "Daxbet",
    "state_id": "06fdd5c6-5cef-4e35-b910-f0b0675fb363"
  },
  {
    "id": "925344e7-31b0-4fc7-b0d6-68629ff39168",
    "name": "Ishtixon",
    "state_id": "06fdd5c6-5cef-4e35-b910-f0b0675fb363"
  },
  {
    "id": "c06f0010-897e-40d8-80df-5f531e4bebe4",
    "name": "Jomboy",
    "state_id": "06fdd5c6-5cef-4e35-b910-f0b0675fb363"
  },
  {
    "id": "71d5b845-6ffe-48c2-8d05-ae627de43c45",
    "name": "Juma",
    "state_id": "06fdd5c6-5cef-4e35-b910-f0b0675fb363"
  },
  {
    "id": "5dcadfda-6f0c-4e5a-b2b3-2e821f983e32",
    "name": "Kattaqo‘rg‘on",
    "state_id": "06fdd5c6-5cef-4e35-b910-f0b0675fb363"
  },
  {
    "id": "50b32d4c-6dd3-4bbe-9c31-6fb7b714007e",
    "name": "Oqtosh",
    "state_id": "06fdd5c6-5cef-4e35-b910-f0b0675fb363"
  },
  {
    "id": "0e514038-03a9-4aa5-9f68-e333b91345c8",
    "name": "Payshanba",
    "state_id": "06fdd5c6-5cef-4e35-b910-f0b0675fb363"
  },
  {
    "id": "08be6c24-2b8a-4853-bcc1-2a51bdc74099",
    "name": "Samarkand",
    "state_id": "06fdd5c6-5cef-4e35-b910-f0b0675fb363"
  },
  {
    "id": "9703a128-2cd9-4954-b047-e20a7035c3ae",
    "name": "Urgut",
    "state_id": "06fdd5c6-5cef-4e35-b910-f0b0675fb363"
  }
]