[
  {
    "id": "3fb523a1-b9fc-431a-a7e2-337b9da2726d",
    "name": "Baborów",
    "state_id": "074735bd-d333-4ff2-b425-8f9f14ccab31"
  },
  {
    "id": "f750048d-ace9-4143-be8a-8e6ebb4b0341",
    "name": "Biała",
    "state_id": "074735bd-d333-4ff2-b425-8f9f14ccab31"
  },
  {
    "id": "f28615d3-272f-47ee-aaf1-c56a3023a5a7",
    "name": "Bierawa",
    "state_id": "074735bd-d333-4ff2-b425-8f9f14ccab31"
  },
  {
    "id": "ee4783cc-dcd4-4746-a703-edaf1632a7f8",
    "name": "Bierdzany",
    "state_id": "074735bd-d333-4ff2-b425-8f9f14ccab31"
  },
  {
    "id": "5e7e0ff9-80fa-41fc-ad1e-ccaafa244c23",
    "name": "Branice",
    "state_id": "074735bd-d333-4ff2-b425-8f9f14ccab31"
  },
  {
    "id": "027c1bf9-fa55-4166-9839-7dd525cd8dda",
    "name": "Brzeg",
    "state_id": "074735bd-d333-4ff2-b425-8f9f14ccab31"
  },
  {
    "id": "8312f4ed-faf4-461d-a554-b895e5580c77",
    "name": "Byczyna",
    "state_id": "074735bd-d333-4ff2-b425-8f9f14ccab31"
  },
  {
    "id": "6ae094a0-133a-47f9-81fd-33e31f4d00b1",
    "name": "Chmielowice",
    "state_id": "074735bd-d333-4ff2-b425-8f9f14ccab31"
  },
  {
    "id": "9763d682-41b1-4339-9dc5-9f51d77c85cb",
    "name": "Chróścice",
    "state_id": "074735bd-d333-4ff2-b425-8f9f14ccab31"
  },
  {
    "id": "22af85d0-9cc6-4638-921c-562b7ae2b9c0",
    "name": "Chrościna",
    "state_id": "074735bd-d333-4ff2-b425-8f9f14ccab31"
  },
  {
    "id": "eaf1c0ce-c496-483d-bd34-71e7e9f2ef75",
    "name": "Chrząstowice",
    "state_id": "074735bd-d333-4ff2-b425-8f9f14ccab31"
  },
  {
    "id": "b34394ca-5f0b-49d3-afff-488d85d52730",
    "name": "Cisek",
    "state_id": "074735bd-d333-4ff2-b425-8f9f14ccab31"
  },
  {
    "id": "868e5fa6-039c-4777-b08e-e73ac1584756",
    "name": "Czarnowąsy",
    "state_id": "074735bd-d333-4ff2-b425-8f9f14ccab31"
  },
  {
    "id": "3a38a371-2253-409a-bd9d-2ec5dc4efbf3",
    "name": "Dąbrowa",
    "state_id": "074735bd-d333-4ff2-b425-8f9f14ccab31"
  },
  {
    "id": "8f0172e8-2ca7-4102-ba4c-afb540612927",
    "name": "Dalachów",
    "state_id": "074735bd-d333-4ff2-b425-8f9f14ccab31"
  },
  {
    "id": "7163ed12-dc93-4c75-838c-b31f06bd694c",
    "name": "Długomiłowice",
    "state_id": "074735bd-d333-4ff2-b425-8f9f14ccab31"
  },
  {
    "id": "389e0a9a-caf4-4ede-9c39-9e7c0b499e89",
    "name": "Dobrodzień",
    "state_id": "074735bd-d333-4ff2-b425-8f9f14ccab31"
  },
  {
    "id": "4cb720cc-37c5-4074-9f18-26d61fc7c419",
    "name": "Dobrzeń Wielki",
    "state_id": "074735bd-d333-4ff2-b425-8f9f14ccab31"
  },
  {
    "id": "bd33091a-2480-45a0-b27c-32fcfca4b475",
    "name": "Domaszowice",
    "state_id": "074735bd-d333-4ff2-b425-8f9f14ccab31"
  },
  {
    "id": "3fea9225-63b8-4b54-8ab7-857c74b9cbfe",
    "name": "Dziergowice",
    "state_id": "074735bd-d333-4ff2-b425-8f9f14ccab31"
  },
  {
    "id": "b04285f2-69bb-49d7-8737-fcde6490ba8f",
    "name": "Głogówek",
    "state_id": "074735bd-d333-4ff2-b425-8f9f14ccab31"
  },
  {
    "id": "e6c8e105-c1bc-40a2-9604-56d72c297e87",
    "name": "Głubczyce",
    "state_id": "074735bd-d333-4ff2-b425-8f9f14ccab31"
  },
  {
    "id": "ae4d62fa-c4e8-4da9-bada-716ed6e1dad0",
    "name": "Głuchołazy",
    "state_id": "074735bd-d333-4ff2-b425-8f9f14ccab31"
  },
  {
    "id": "f0484285-3709-437e-8feb-095fc52dfc87",
    "name": "Gogolin",
    "state_id": "074735bd-d333-4ff2-b425-8f9f14ccab31"
  },
  {
    "id": "3b0f4516-89c9-4ae3-a34c-88f2652edc26",
    "name": "Górażdże",
    "state_id": "074735bd-d333-4ff2-b425-8f9f14ccab31"
  },
  {
    "id": "b9091376-594a-4d27-beb3-7b9fcb14e04a",
    "name": "Gorzów Śląski",
    "state_id": "074735bd-d333-4ff2-b425-8f9f14ccab31"
  },
  {
    "id": "86948f94-46f9-4a33-baf8-b7e0f46d9eb0",
    "name": "Grodków",
    "state_id": "074735bd-d333-4ff2-b425-8f9f14ccab31"
  },
  {
    "id": "1d03c7e3-0fc7-4d51-ada3-00eed19d666e",
    "name": "Izbicko",
    "state_id": "074735bd-d333-4ff2-b425-8f9f14ccab31"
  },
  {
    "id": "e4037c72-c01a-4ca6-a456-ea67ca4614c3",
    "name": "Januszkowice",
    "state_id": "074735bd-d333-4ff2-b425-8f9f14ccab31"
  },
  {
    "id": "2728fc1b-ffe8-411f-be8a-ec00c8b52d92",
    "name": "Jemielnica",
    "state_id": "074735bd-d333-4ff2-b425-8f9f14ccab31"
  },
  {
    "id": "d8de281f-d2d5-4c7c-a055-98e69a8f1125",
    "name": "Kamienica",
    "state_id": "074735bd-d333-4ff2-b425-8f9f14ccab31"
  },
  {
    "id": "9ee3c681-5896-43a6-915f-fe8ab9c4a47c",
    "name": "Kamiennik",
    "state_id": "074735bd-d333-4ff2-b425-8f9f14ccab31"
  },
  {
    "id": "87656002-cc2c-4491-b2d8-49c598d47562",
    "name": "Kędzierzyn-Koźle",
    "state_id": "074735bd-d333-4ff2-b425-8f9f14ccab31"
  },
  {
    "id": "682b5a56-dda7-43c8-a8d5-590d9f693228",
    "name": "Kietrz",
    "state_id": "074735bd-d333-4ff2-b425-8f9f14ccab31"
  },
  {
    "id": "9e24b3a6-a727-4ad3-bc4b-dba0c200ebb0",
    "name": "Kluczbork",
    "state_id": "074735bd-d333-4ff2-b425-8f9f14ccab31"
  },
  {
    "id": "12455eb6-0305-4cca-912c-2f688bf9cdc9",
    "name": "Kolonowskie",
    "state_id": "074735bd-d333-4ff2-b425-8f9f14ccab31"
  },
  {
    "id": "072e64d2-10da-442e-a119-0e54c9c5e39e",
    "name": "Komprachcice",
    "state_id": "074735bd-d333-4ff2-b425-8f9f14ccab31"
  },
  {
    "id": "41cb3494-b1eb-41e7-bc59-84073a5e488e",
    "name": "Korfantów",
    "state_id": "074735bd-d333-4ff2-b425-8f9f14ccab31"
  },
  {
    "id": "0549ef62-02fe-4f31-9461-a5601cdd232a",
    "name": "Koźle",
    "state_id": "074735bd-d333-4ff2-b425-8f9f14ccab31"
  },
  {
    "id": "6771049e-d71c-451f-a375-0ef44f949084",
    "name": "Krapkowice",
    "state_id": "074735bd-d333-4ff2-b425-8f9f14ccab31"
  },
  {
    "id": "d080750c-8655-4947-8897-9fb38699d48d",
    "name": "Kup",
    "state_id": "074735bd-d333-4ff2-b425-8f9f14ccab31"
  },
  {
    "id": "6052cc29-b347-47ba-a328-6c711817d4fc",
    "name": "Leśnica",
    "state_id": "074735bd-d333-4ff2-b425-8f9f14ccab31"
  },
  {
    "id": "353008be-7131-4a11-8a53-91ee9aee0917",
    "name": "Lewin Brzeski",
    "state_id": "074735bd-d333-4ff2-b425-8f9f14ccab31"
  },
  {
    "id": "5c69146f-21f0-4bc8-af23-6a89f10ac9e4",
    "name": "Lubrza",
    "state_id": "074735bd-d333-4ff2-b425-8f9f14ccab31"
  },
  {
    "id": "c61f004b-0b52-40c5-89c5-2ae45fa9e9e7",
    "name": "Lubsza",
    "state_id": "074735bd-d333-4ff2-b425-8f9f14ccab31"
  },
  {
    "id": "9c830e89-b0a5-425a-ae2c-61c4cbd4e4db",
    "name": "Łąka Prudnicka",
    "state_id": "074735bd-d333-4ff2-b425-8f9f14ccab31"
  },
  {
    "id": "30869972-31c1-42c0-ad3d-ab6a4d64eb1c",
    "name": "Łambinowice",
    "state_id": "074735bd-d333-4ff2-b425-8f9f14ccab31"
  },
  {
    "id": "3c85d87a-e816-4731-9b02-f5f8bc86f598",
    "name": "Łosiów",
    "state_id": "074735bd-d333-4ff2-b425-8f9f14ccab31"
  },
  {
    "id": "344f18ab-aefe-4c25-87a0-b8463ec6cafa",
    "name": "Łubniany",
    "state_id": "074735bd-d333-4ff2-b425-8f9f14ccab31"
  },
  {
    "id": "da85bf05-cd12-4330-ba99-52f8a6ce8fc2",
    "name": "Moszczanka",
    "state_id": "074735bd-d333-4ff2-b425-8f9f14ccab31"
  },
  {
    "id": "d6b54ea6-64a1-4359-b55c-13d651d243b5",
    "name": "Murów",
    "state_id": "074735bd-d333-4ff2-b425-8f9f14ccab31"
  },
  {
    "id": "2f205199-7edf-4d59-8ec3-ff052ee069e4",
    "name": "Nakło",
    "state_id": "074735bd-d333-4ff2-b425-8f9f14ccab31"
  },
  {
    "id": "17d7945f-8831-43f3-954e-6ca16e5f4c61",
    "name": "Namysłów",
    "state_id": "074735bd-d333-4ff2-b425-8f9f14ccab31"
  },
  {
    "id": "a05c946b-7b0c-4ad2-9c16-36be034fc5f3",
    "name": "Niemodlin",
    "state_id": "074735bd-d333-4ff2-b425-8f9f14ccab31"
  },
  {
    "id": "781c95c3-def1-4247-94c0-c4aa3d338f36",
    "name": "Nysa",
    "state_id": "074735bd-d333-4ff2-b425-8f9f14ccab31"
  },
  {
    "id": "5d3a6020-2de0-4e39-b05c-895850dd79ce",
    "name": "Olesno",
    "state_id": "074735bd-d333-4ff2-b425-8f9f14ccab31"
  },
  {
    "id": "7c6f3e4e-f0ed-44cc-8b85-41e2d09d24f9",
    "name": "Olszanka",
    "state_id": "074735bd-d333-4ff2-b425-8f9f14ccab31"
  },
  {
    "id": "5513bcc2-974f-4515-9ae3-280ed999b5a7",
    "name": "Opole",
    "state_id": "074735bd-d333-4ff2-b425-8f9f14ccab31"
  },
  {
    "id": "e43abc45-5886-4871-8d51-6c68099cda93",
    "name": "Otmuchów",
    "state_id": "074735bd-d333-4ff2-b425-8f9f14ccab31"
  },
  {
    "id": "c10df82e-6785-4847-8507-bf44240820d4",
    "name": "Ozimek",
    "state_id": "074735bd-d333-4ff2-b425-8f9f14ccab31"
  },
  {
    "id": "d5101429-95fb-489b-880a-1efce0117852",
    "name": "Paczków",
    "state_id": "074735bd-d333-4ff2-b425-8f9f14ccab31"
  },
  {
    "id": "5c7355ee-afb1-46b6-9ca3-fea00bd1cef5",
    "name": "Pakosławice",
    "state_id": "074735bd-d333-4ff2-b425-8f9f14ccab31"
  },
  {
    "id": "e6340c67-4cfc-452e-915d-df35d78460a3",
    "name": "Pawłowiczki",
    "state_id": "074735bd-d333-4ff2-b425-8f9f14ccab31"
  },
  {
    "id": "577fd911-7054-480b-a4f2-839b7707d24a",
    "name": "Pokój",
    "state_id": "074735bd-d333-4ff2-b425-8f9f14ccab31"
  },
  {
    "id": "6bf4ee8c-b13b-4769-bb4b-9394cac0452d",
    "name": "Polska Cerekiew",
    "state_id": "074735bd-d333-4ff2-b425-8f9f14ccab31"
  },
  {
    "id": "569f16a5-7323-4f90-ab56-b414ca73a26b",
    "name": "Popielów",
    "state_id": "074735bd-d333-4ff2-b425-8f9f14ccab31"
  },
  {
    "id": "5b2a12a6-62f3-4467-8260-08605f0df9b2",
    "name": "Powiat brzeski",
    "state_id": "074735bd-d333-4ff2-b425-8f9f14ccab31"
  },
  {
    "id": "e189e29e-895f-40ff-9f74-06113fb4f5aa",
    "name": "Powiat głubczycki",
    "state_id": "074735bd-d333-4ff2-b425-8f9f14ccab31"
  },
  {
    "id": "3a935441-5e66-4cee-942a-d71947a66108",
    "name": "Powiat kędzierzyńsko-kozielski",
    "state_id": "074735bd-d333-4ff2-b425-8f9f14ccab31"
  },
  {
    "id": "2d7c3512-87fc-4cfd-82f8-f7ccc525bc53",
    "name": "Powiat kluczborski",
    "state_id": "074735bd-d333-4ff2-b425-8f9f14ccab31"
  },
  {
    "id": "17277ce3-7b48-463f-bf99-6a0d841bbc91",
    "name": "Powiat krapkowicki",
    "state_id": "074735bd-d333-4ff2-b425-8f9f14ccab31"
  },
  {
    "id": "8e520d63-80a6-4cd7-b515-7ed39ca1a299",
    "name": "Powiat namysłowski",
    "state_id": "074735bd-d333-4ff2-b425-8f9f14ccab31"
  },
  {
    "id": "be8d8c27-c6b1-429e-a3d5-b03a6d174dba",
    "name": "Powiat nyski",
    "state_id": "074735bd-d333-4ff2-b425-8f9f14ccab31"
  },
  {
    "id": "0c6beddd-d745-42fe-8c6a-992923f06670",
    "name": "Powiat oleski",
    "state_id": "074735bd-d333-4ff2-b425-8f9f14ccab31"
  },
  {
    "id": "cc26bf9c-c6c4-4b8f-a356-b6144cf7b225",
    "name": "Powiat opolski",
    "state_id": "074735bd-d333-4ff2-b425-8f9f14ccab31"
  },
  {
    "id": "18843aeb-d4fb-4e16-9d52-d2f1f7f744d3",
    "name": "Powiat prudnicki",
    "state_id": "074735bd-d333-4ff2-b425-8f9f14ccab31"
  },
  {
    "id": "49706e0e-286f-4967-a255-a58b5a7433d8",
    "name": "Powiat strzelecki",
    "state_id": "074735bd-d333-4ff2-b425-8f9f14ccab31"
  },
  {
    "id": "b2206571-7bf5-475a-996c-f61b8366651f",
    "name": "Praszka",
    "state_id": "074735bd-d333-4ff2-b425-8f9f14ccab31"
  },
  {
    "id": "9ffaf5e0-a84b-4d66-9b8a-6407b88cc82b",
    "name": "Prószków",
    "state_id": "074735bd-d333-4ff2-b425-8f9f14ccab31"
  },
  {
    "id": "2b57bed8-5f6a-44e2-bed7-51c1e804a67e",
    "name": "Prudnik",
    "state_id": "074735bd-d333-4ff2-b425-8f9f14ccab31"
  },
  {
    "id": "ba79235d-5577-41ae-9249-efc951646d0d",
    "name": "Racławice Śląskie",
    "state_id": "074735bd-d333-4ff2-b425-8f9f14ccab31"
  },
  {
    "id": "d44f6344-631a-446a-8d0f-c3f7f47ba5f3",
    "name": "Raszowa",
    "state_id": "074735bd-d333-4ff2-b425-8f9f14ccab31"
  },
  {
    "id": "9447807f-4e2b-4482-a42e-7847b0640460",
    "name": "Reńska Wieś",
    "state_id": "074735bd-d333-4ff2-b425-8f9f14ccab31"
  },
  {
    "id": "3357fa6e-53a8-4a63-bb25-d67be7ec21ea",
    "name": "Rozwadza",
    "state_id": "074735bd-d333-4ff2-b425-8f9f14ccab31"
  },
  {
    "id": "5ca3893b-e20d-427e-8665-1f0420267818",
    "name": "Sidzina",
    "state_id": "074735bd-d333-4ff2-b425-8f9f14ccab31"
  },
  {
    "id": "6e2322c6-eaf8-4168-b1c8-f89c4c20af00",
    "name": "Skarbimierz Osiedle",
    "state_id": "074735bd-d333-4ff2-b425-8f9f14ccab31"
  },
  {
    "id": "ce3fc755-5b80-44ff-94d5-24574ec0648b",
    "name": "Skorogoszcz",
    "state_id": "074735bd-d333-4ff2-b425-8f9f14ccab31"
  },
  {
    "id": "37530e36-3d5e-4ee0-a680-1ee269c1c70d",
    "name": "Skoroszyce",
    "state_id": "074735bd-d333-4ff2-b425-8f9f14ccab31"
  },
  {
    "id": "f5d65d93-d597-4fe5-9920-5ce56b406446",
    "name": "Sławięcice",
    "state_id": "074735bd-d333-4ff2-b425-8f9f14ccab31"
  },
  {
    "id": "e2375a2e-f9db-45b9-b1a5-f23bd036cf30",
    "name": "Strzelce Opolskie",
    "state_id": "074735bd-d333-4ff2-b425-8f9f14ccab31"
  },
  {
    "id": "841d36be-a020-4df7-a398-007aece40d43",
    "name": "Strzeleczki",
    "state_id": "074735bd-d333-4ff2-b425-8f9f14ccab31"
  },
  {
    "id": "67c89534-52a8-4a45-9fca-af4064951a33",
    "name": "Świerczów",
    "state_id": "074735bd-d333-4ff2-b425-8f9f14ccab31"
  },
  {
    "id": "c022dd2d-74bc-49a3-a52c-6e9684ec1581",
    "name": "Tarnów Opolski",
    "state_id": "074735bd-d333-4ff2-b425-8f9f14ccab31"
  },
  {
    "id": "7a144fc2-ab8b-42b7-b9d1-db4f4181946b",
    "name": "Tułowice",
    "state_id": "074735bd-d333-4ff2-b425-8f9f14ccab31"
  },
  {
    "id": "001b6997-f335-4fbf-941c-7e590d32906c",
    "name": "Twardawa",
    "state_id": "074735bd-d333-4ff2-b425-8f9f14ccab31"
  },
  {
    "id": "d3bea0b0-aaee-488f-bbc6-e363ae141e2d",
    "name": "Ujazd",
    "state_id": "074735bd-d333-4ff2-b425-8f9f14ccab31"
  },
  {
    "id": "f27f48c3-f7d4-46ef-a4ad-fd97439d7e9d",
    "name": "Walce",
    "state_id": "074735bd-d333-4ff2-b425-8f9f14ccab31"
  },
  {
    "id": "d34cbc3b-5b79-4ae7-9e7d-a05282580f70",
    "name": "Węgry",
    "state_id": "074735bd-d333-4ff2-b425-8f9f14ccab31"
  },
  {
    "id": "3357e5ba-1999-4ef6-aaf5-3f712c1ffc8d",
    "name": "Większyce",
    "state_id": "074735bd-d333-4ff2-b425-8f9f14ccab31"
  },
  {
    "id": "30b722b2-953f-4174-b26e-de205d831983",
    "name": "Wilków",
    "state_id": "074735bd-d333-4ff2-b425-8f9f14ccab31"
  },
  {
    "id": "7fd5043d-3564-4ce0-abf0-8bf7d88b694b",
    "name": "Wołczyn",
    "state_id": "074735bd-d333-4ff2-b425-8f9f14ccab31"
  },
  {
    "id": "22780306-58a4-4a02-8ef3-590e1457adb8",
    "name": "Zawadzkie",
    "state_id": "074735bd-d333-4ff2-b425-8f9f14ccab31"
  },
  {
    "id": "290fb289-512c-4bb5-9dc9-eba203644d46",
    "name": "Zdzieszowice",
    "state_id": "074735bd-d333-4ff2-b425-8f9f14ccab31"
  },
  {
    "id": "fcaa0211-9528-4c9b-9878-46d9c74e06b1",
    "name": "Zębowice",
    "state_id": "074735bd-d333-4ff2-b425-8f9f14ccab31"
  }
]