[
  {
    "id": "b5ecd479-0114-4aea-a8c9-20ecbea85702",
    "name": "'s-Gravenland",
    "state_id": "07bd9339-b3e9-4fb7-af47-2f24ab7b3d9a"
  },
  {
    "id": "1837f828-3b0a-4f26-b2fe-bc583de5edef",
    "name": "'s-Gravenzande",
    "state_id": "07bd9339-b3e9-4fb7-af47-2f24ab7b3d9a"
  },
  {
    "id": "b90702a9-36ef-4bfe-9c71-99a139c7765d",
    "name": "Adegeest",
    "state_id": "07bd9339-b3e9-4fb7-af47-2f24ab7b3d9a"
  },
  {
    "id": "e0bbf08e-7056-4dfe-a4a5-716d01c4b9da",
    "name": "Alblasserdam",
    "state_id": "07bd9339-b3e9-4fb7-af47-2f24ab7b3d9a"
  },
  {
    "id": "319d22ba-6f61-44b3-89a1-504b368b64d5",
    "name": "Alphen aan den Rijn",
    "state_id": "07bd9339-b3e9-4fb7-af47-2f24ab7b3d9a"
  },
  {
    "id": "3fb886ac-d577-42fa-92e5-84c3ff783655",
    "name": "Ammerstol",
    "state_id": "07bd9339-b3e9-4fb7-af47-2f24ab7b3d9a"
  },
  {
    "id": "8cab238b-aabb-4e50-bedc-7c2656c60403",
    "name": "Arkel",
    "state_id": "07bd9339-b3e9-4fb7-af47-2f24ab7b3d9a"
  },
  {
    "id": "c6b20ca4-984d-49d4-a73c-441597e3154f",
    "name": "Barendrecht",
    "state_id": "07bd9339-b3e9-4fb7-af47-2f24ab7b3d9a"
  },
  {
    "id": "65228783-928d-43ae-846b-51c1f4d8adde",
    "name": "Benthuizen",
    "state_id": "07bd9339-b3e9-4fb7-af47-2f24ab7b3d9a"
  },
  {
    "id": "11bf7962-27ca-448f-85a4-3399807189f8",
    "name": "Bergschenhoek",
    "state_id": "07bd9339-b3e9-4fb7-af47-2f24ab7b3d9a"
  },
  {
    "id": "d48c28ab-539d-4b55-993b-c51cbc53386b",
    "name": "Bergstoep",
    "state_id": "07bd9339-b3e9-4fb7-af47-2f24ab7b3d9a"
  },
  {
    "id": "cffa5daf-a572-4943-be1d-5e4cf21fce97",
    "name": "Berkel en Rodenrijs",
    "state_id": "07bd9339-b3e9-4fb7-af47-2f24ab7b3d9a"
  },
  {
    "id": "de1fa3da-9ad2-49b0-818b-253be2341ba7",
    "name": "Berkenwoude",
    "state_id": "07bd9339-b3e9-4fb7-af47-2f24ab7b3d9a"
  },
  {
    "id": "ba52ed6c-8952-4bdf-817d-31594a730369",
    "name": "Binnenhof",
    "state_id": "07bd9339-b3e9-4fb7-af47-2f24ab7b3d9a"
  },
  {
    "id": "ead68f6a-1e93-4e54-be7a-959f2ab28d72",
    "name": "Bleiswijk",
    "state_id": "07bd9339-b3e9-4fb7-af47-2f24ab7b3d9a"
  },
  {
    "id": "c86fe862-3ef1-4bf3-a7bc-65c33a124ba7",
    "name": "Bleskensgraaf",
    "state_id": "07bd9339-b3e9-4fb7-af47-2f24ab7b3d9a"
  },
  {
    "id": "72c6a290-b0b4-4b27-ac3c-e0bbb525c9e0",
    "name": "Bloemendaal",
    "state_id": "07bd9339-b3e9-4fb7-af47-2f24ab7b3d9a"
  },
  {
    "id": "e6c20cb9-e82c-4ba9-be26-44b0f3dae0be",
    "name": "Bloemhof",
    "state_id": "07bd9339-b3e9-4fb7-af47-2f24ab7b3d9a"
  },
  {
    "id": "b34e81ec-7c26-4751-ad00-2f11b24cfea8",
    "name": "Bodegraven",
    "state_id": "07bd9339-b3e9-4fb7-af47-2f24ab7b3d9a"
  },
  {
    "id": "9fc28c1c-b80a-4fe9-9315-01a4a7a878d4",
    "name": "Bodegraven-Reeuwijk",
    "state_id": "07bd9339-b3e9-4fb7-af47-2f24ab7b3d9a"
  },
  {
    "id": "a005fdc5-2d96-4ef3-96da-5b6c41dda42b",
    "name": "Bolnes",
    "state_id": "07bd9339-b3e9-4fb7-af47-2f24ab7b3d9a"
  },
  {
    "id": "000188f3-0039-4deb-bc46-cf26393b9a2b",
    "name": "Boskoop",
    "state_id": "07bd9339-b3e9-4fb7-af47-2f24ab7b3d9a"
  },
  {
    "id": "32ec778c-093b-4085-a348-f1224d6111d2",
    "name": "Boven-Hardinxveld",
    "state_id": "07bd9339-b3e9-4fb7-af47-2f24ab7b3d9a"
  },
  {
    "id": "f2b07903-13c9-4023-aaa7-9f56d91e8e40",
    "name": "Brielle",
    "state_id": "07bd9339-b3e9-4fb7-af47-2f24ab7b3d9a"
  },
  {
    "id": "9bfa36f3-a9d4-4067-9ece-6557cd230334",
    "name": "Capelle aan den IJssel",
    "state_id": "07bd9339-b3e9-4fb7-af47-2f24ab7b3d9a"
  },
  {
    "id": "49765ec7-87d6-47a6-9e02-7238696bf807",
    "name": "Capelle-West",
    "state_id": "07bd9339-b3e9-4fb7-af47-2f24ab7b3d9a"
  },
  {
    "id": "973bf39c-f78a-4486-b85f-616af0dc4bf4",
    "name": "Carnisse",
    "state_id": "07bd9339-b3e9-4fb7-af47-2f24ab7b3d9a"
  },
  {
    "id": "08ec4682-7d92-4355-80c5-fc994e018f2f",
    "name": "De Kieviet",
    "state_id": "07bd9339-b3e9-4fb7-af47-2f24ab7b3d9a"
  },
  {
    "id": "55587826-3ca6-4810-8b1e-bd325300a17f",
    "name": "De Lier",
    "state_id": "07bd9339-b3e9-4fb7-af47-2f24ab7b3d9a"
  },
  {
    "id": "a17a4900-aa3e-450c-8814-b86bb363dcff",
    "name": "De Peulen",
    "state_id": "07bd9339-b3e9-4fb7-af47-2f24ab7b3d9a"
  },
  {
    "id": "2624dedd-38cc-4394-ad43-fe0c4b4890c2",
    "name": "Delfshaven",
    "state_id": "07bd9339-b3e9-4fb7-af47-2f24ab7b3d9a"
  },
  {
    "id": "e6102814-de73-4881-bb83-f22cdea31807",
    "name": "Delft",
    "state_id": "07bd9339-b3e9-4fb7-af47-2f24ab7b3d9a"
  },
  {
    "id": "d39b9ada-4070-46ce-aeee-a7c874d2beb3",
    "name": "Dirksland",
    "state_id": "07bd9339-b3e9-4fb7-af47-2f24ab7b3d9a"
  },
  {
    "id": "fa09169d-047c-4642-bdab-9b748e67753e",
    "name": "Dordrecht",
    "state_id": "07bd9339-b3e9-4fb7-af47-2f24ab7b3d9a"
  },
  {
    "id": "6bd0ab70-75bd-40ea-8373-59079c796cc9",
    "name": "Driebruggen",
    "state_id": "07bd9339-b3e9-4fb7-af47-2f24ab7b3d9a"
  },
  {
    "id": "9494e35b-f14d-4566-9676-0ac6ee85aea2",
    "name": "Driemanspolder",
    "state_id": "07bd9339-b3e9-4fb7-af47-2f24ab7b3d9a"
  },
  {
    "id": "0503bbc8-0cba-4282-bfd3-bc5e5633f913",
    "name": "Duindorp",
    "state_id": "07bd9339-b3e9-4fb7-af47-2f24ab7b3d9a"
  },
  {
    "id": "6380e14c-1994-46a2-ac1e-f0d89f89ccd7",
    "name": "Duinzigt",
    "state_id": "07bd9339-b3e9-4fb7-af47-2f24ab7b3d9a"
  },
  {
    "id": "af258b72-f92a-4284-bd83-11e68f8da14c",
    "name": "Essesteijn",
    "state_id": "07bd9339-b3e9-4fb7-af47-2f24ab7b3d9a"
  },
  {
    "id": "a730513e-2225-4b0b-b77e-511084089189",
    "name": "Feijenoord",
    "state_id": "07bd9339-b3e9-4fb7-af47-2f24ab7b3d9a"
  },
  {
    "id": "9565cea6-0b92-474b-a485-c47f26097fba",
    "name": "Gemeente Alblasserdam",
    "state_id": "07bd9339-b3e9-4fb7-af47-2f24ab7b3d9a"
  },
  {
    "id": "61d1b97c-ec8c-4f45-af34-76e4fc9a23ff",
    "name": "Gemeente Albrandswaard",
    "state_id": "07bd9339-b3e9-4fb7-af47-2f24ab7b3d9a"
  },
  {
    "id": "c7e39dc5-2f05-416f-a70b-7f13eb99582d",
    "name": "Gemeente Alphen aan den Rijn",
    "state_id": "07bd9339-b3e9-4fb7-af47-2f24ab7b3d9a"
  },
  {
    "id": "fde8cf84-ca9d-40ff-9aef-fa6ccdc7b42a",
    "name": "Gemeente Barendrecht",
    "state_id": "07bd9339-b3e9-4fb7-af47-2f24ab7b3d9a"
  },
  {
    "id": "c1f282a5-4e43-4e5f-b8c5-c10b80536610",
    "name": "Gemeente Brielle",
    "state_id": "07bd9339-b3e9-4fb7-af47-2f24ab7b3d9a"
  },
  {
    "id": "9c0adada-392b-41d9-89c5-10a7eba37ce4",
    "name": "Gemeente Capelle aan den IJssel",
    "state_id": "07bd9339-b3e9-4fb7-af47-2f24ab7b3d9a"
  },
  {
    "id": "6666cd47-4931-4d24-aead-a0c009f39b63",
    "name": "Gemeente Delft",
    "state_id": "07bd9339-b3e9-4fb7-af47-2f24ab7b3d9a"
  },
  {
    "id": "36f5faa8-414f-4dcb-822a-a0985bc6cb0c",
    "name": "Gemeente Den Haag",
    "state_id": "07bd9339-b3e9-4fb7-af47-2f24ab7b3d9a"
  },
  {
    "id": "ea65bbb7-91a7-4844-97cf-d37f315132c3",
    "name": "Gemeente Dordrecht",
    "state_id": "07bd9339-b3e9-4fb7-af47-2f24ab7b3d9a"
  },
  {
    "id": "e451f9da-ce0d-4a70-a6a4-1283754ce984",
    "name": "Gemeente Goeree-Overflakkee",
    "state_id": "07bd9339-b3e9-4fb7-af47-2f24ab7b3d9a"
  },
  {
    "id": "0947e022-faf6-4aad-8f0a-5c96619aeb95",
    "name": "Gemeente Gorinchem",
    "state_id": "07bd9339-b3e9-4fb7-af47-2f24ab7b3d9a"
  },
  {
    "id": "e11bf79c-1fdc-4bac-bf00-03f513d6a02e",
    "name": "Gemeente Gouda",
    "state_id": "07bd9339-b3e9-4fb7-af47-2f24ab7b3d9a"
  },
  {
    "id": "a832d492-2ad1-4965-8242-a6bffe2a905d",
    "name": "Gemeente Hardinxveld-Giessendam",
    "state_id": "07bd9339-b3e9-4fb7-af47-2f24ab7b3d9a"
  },
  {
    "id": "ce716957-1e69-4969-8968-43ebdff52e53",
    "name": "Gemeente Hellevoetsluis",
    "state_id": "07bd9339-b3e9-4fb7-af47-2f24ab7b3d9a"
  },
  {
    "id": "c06c1a4d-a7cd-450f-9e81-cd2ec680c110",
    "name": "Gemeente Hendrik-Ido-Ambacht",
    "state_id": "07bd9339-b3e9-4fb7-af47-2f24ab7b3d9a"
  },
  {
    "id": "3b468c43-bb98-45d0-92e7-e7e87cda9e3f",
    "name": "Gemeente Hillegom",
    "state_id": "07bd9339-b3e9-4fb7-af47-2f24ab7b3d9a"
  },
  {
    "id": "9bd824ee-0d6b-4e76-ac3e-180ed66690ac",
    "name": "Gemeente Kaag en Braassem",
    "state_id": "07bd9339-b3e9-4fb7-af47-2f24ab7b3d9a"
  },
  {
    "id": "30aacde3-34eb-4207-a4af-d31ff454e50b",
    "name": "Gemeente Katwijk",
    "state_id": "07bd9339-b3e9-4fb7-af47-2f24ab7b3d9a"
  },
  {
    "id": "6de54d12-f3f2-42d9-8ee8-32d8d889cfcd",
    "name": "Gemeente Krimpen aan den IJssel",
    "state_id": "07bd9339-b3e9-4fb7-af47-2f24ab7b3d9a"
  },
  {
    "id": "6e69ce4c-1a25-4594-9c87-fbeb14b4985d",
    "name": "Gemeente Lansingerland",
    "state_id": "07bd9339-b3e9-4fb7-af47-2f24ab7b3d9a"
  },
  {
    "id": "9401fa36-4670-482c-98dc-471449aa76cd",
    "name": "Gemeente Leiden",
    "state_id": "07bd9339-b3e9-4fb7-af47-2f24ab7b3d9a"
  },
  {
    "id": "2a233bc7-7a6b-4419-a48c-e776f52fa817",
    "name": "Gemeente Leiderdorp",
    "state_id": "07bd9339-b3e9-4fb7-af47-2f24ab7b3d9a"
  },
  {
    "id": "9c4b5409-5c7d-447d-ac59-7e4057538a67",
    "name": "Gemeente Leidschendam-Voorburg",
    "state_id": "07bd9339-b3e9-4fb7-af47-2f24ab7b3d9a"
  },
  {
    "id": "544f1a93-dc84-421b-a908-d4ee2de5d32a",
    "name": "Gemeente Lisse",
    "state_id": "07bd9339-b3e9-4fb7-af47-2f24ab7b3d9a"
  },
  {
    "id": "c8b50e47-b4ae-42a3-8964-1817ee13aec4",
    "name": "Gemeente Maassluis",
    "state_id": "07bd9339-b3e9-4fb7-af47-2f24ab7b3d9a"
  },
  {
    "id": "30344a72-763c-4fef-b00f-8ab0b6e9ae21",
    "name": "Gemeente Midden-Delfland",
    "state_id": "07bd9339-b3e9-4fb7-af47-2f24ab7b3d9a"
  },
  {
    "id": "8561a977-c56f-4714-bc8e-b9550098007b",
    "name": "Gemeente Nieuwkoop",
    "state_id": "07bd9339-b3e9-4fb7-af47-2f24ab7b3d9a"
  },
  {
    "id": "786f12ce-50d7-4226-bc56-b7f17d590ecc",
    "name": "Gemeente Noordwijk",
    "state_id": "07bd9339-b3e9-4fb7-af47-2f24ab7b3d9a"
  },
  {
    "id": "e936f512-f42e-479c-9e21-a342bb1d6652",
    "name": "Gemeente Oegstgeest",
    "state_id": "07bd9339-b3e9-4fb7-af47-2f24ab7b3d9a"
  },
  {
    "id": "5b04b5c0-f986-402e-9a8a-7619933f2ea2",
    "name": "Gemeente Papendrecht",
    "state_id": "07bd9339-b3e9-4fb7-af47-2f24ab7b3d9a"
  },
  {
    "id": "a8f1249a-fe72-4842-813e-b3aa23cc08d6",
    "name": "Gemeente Pijnacker-Nootdorp",
    "state_id": "07bd9339-b3e9-4fb7-af47-2f24ab7b3d9a"
  },
  {
    "id": "475dbf9b-d39a-42a2-9fc5-b78e90b74232",
    "name": "Gemeente Ridderkerk",
    "state_id": "07bd9339-b3e9-4fb7-af47-2f24ab7b3d9a"
  },
  {
    "id": "7a927c5c-8dad-46af-92be-b9f6eb85e6e8",
    "name": "Gemeente Rijswijk",
    "state_id": "07bd9339-b3e9-4fb7-af47-2f24ab7b3d9a"
  },
  {
    "id": "58c27a46-9a66-42ff-b35c-4c54439a8c28",
    "name": "Gemeente Rotterdam",
    "state_id": "07bd9339-b3e9-4fb7-af47-2f24ab7b3d9a"
  },
  {
    "id": "71e98e31-7dc7-49b7-9ccb-283d29bc6cb3",
    "name": "Gemeente Schiedam",
    "state_id": "07bd9339-b3e9-4fb7-af47-2f24ab7b3d9a"
  },
  {
    "id": "9bcb4877-8991-44d7-a7b9-385067f91c20",
    "name": "Gemeente Sliedrecht",
    "state_id": "07bd9339-b3e9-4fb7-af47-2f24ab7b3d9a"
  },
  {
    "id": "34b3f2da-b52e-4744-ae72-a32f15bdf1e5",
    "name": "Gemeente Teylingen",
    "state_id": "07bd9339-b3e9-4fb7-af47-2f24ab7b3d9a"
  },
  {
    "id": "15b25b29-e85d-4af0-a466-18a3de4d1485",
    "name": "Gemeente Vlaardingen",
    "state_id": "07bd9339-b3e9-4fb7-af47-2f24ab7b3d9a"
  },
  {
    "id": "2e43faea-a4b5-4d9c-9a43-fb6beec4db61",
    "name": "Gemeente Voorschoten",
    "state_id": "07bd9339-b3e9-4fb7-af47-2f24ab7b3d9a"
  },
  {
    "id": "1fd8d664-f1c7-4c79-97d2-fe0ac95ab11f",
    "name": "Gemeente Waddinxveen",
    "state_id": "07bd9339-b3e9-4fb7-af47-2f24ab7b3d9a"
  },
  {
    "id": "1348765c-afe7-4d90-94fa-a5c9c98b3ad9",
    "name": "Gemeente Wassenaar",
    "state_id": "07bd9339-b3e9-4fb7-af47-2f24ab7b3d9a"
  },
  {
    "id": "8aa77943-d615-4955-a263-5596e92400c6",
    "name": "Gemeente Westland",
    "state_id": "07bd9339-b3e9-4fb7-af47-2f24ab7b3d9a"
  },
  {
    "id": "406f9b1d-c775-400a-bbac-cf9fd07194b7",
    "name": "Gemeente Westvoorne",
    "state_id": "07bd9339-b3e9-4fb7-af47-2f24ab7b3d9a"
  },
  {
    "id": "26d938e3-54a6-4b45-a75a-8b0862c28bae",
    "name": "Gemeente Zoetermeer",
    "state_id": "07bd9339-b3e9-4fb7-af47-2f24ab7b3d9a"
  },
  {
    "id": "db812edf-ccbe-440b-a757-fb6a1acffe4a",
    "name": "Gemeente Zoeterwoude",
    "state_id": "07bd9339-b3e9-4fb7-af47-2f24ab7b3d9a"
  },
  {
    "id": "94ca4b49-e695-4a8a-a77e-8a4d2cf078a2",
    "name": "Gemeente Zuidplas",
    "state_id": "07bd9339-b3e9-4fb7-af47-2f24ab7b3d9a"
  },
  {
    "id": "e2e210db-f33a-4a3b-88a4-de4084a4b7e1",
    "name": "Gemeente Zwijndrecht",
    "state_id": "07bd9339-b3e9-4fb7-af47-2f24ab7b3d9a"
  },
  {
    "id": "c711b390-61be-452b-95f0-11ae80fbf317",
    "name": "Giessenburg",
    "state_id": "07bd9339-b3e9-4fb7-af47-2f24ab7b3d9a"
  },
  {
    "id": "0865afc4-21dc-4f2a-b4f4-32cc86e97305",
    "name": "Giessendam",
    "state_id": "07bd9339-b3e9-4fb7-af47-2f24ab7b3d9a"
  },
  {
    "id": "096dc5c9-8583-4f58-97c9-9c9cb4112988",
    "name": "Goedereede",
    "state_id": "07bd9339-b3e9-4fb7-af47-2f24ab7b3d9a"
  },
  {
    "id": "53d50391-b248-454f-9a9d-0bd28712a1db",
    "name": "Gorinchem",
    "state_id": "07bd9339-b3e9-4fb7-af47-2f24ab7b3d9a"
  },
  {
    "id": "65eb0a09-1f82-4904-9166-218277c41e00",
    "name": "Gouda",
    "state_id": "07bd9339-b3e9-4fb7-af47-2f24ab7b3d9a"
  },
  {
    "id": "3be30822-a8fe-4bed-a792-fbeb05ad30ff",
    "name": "Gouderak",
    "state_id": "07bd9339-b3e9-4fb7-af47-2f24ab7b3d9a"
  },
  {
    "id": "232b1965-df91-4d31-b454-c9322ff3891c",
    "name": "Goudswaard",
    "state_id": "07bd9339-b3e9-4fb7-af47-2f24ab7b3d9a"
  },
  {
    "id": "a6883a80-7e2d-44cc-b9fa-1966861b3f67",
    "name": "Gouwsluis",
    "state_id": "07bd9339-b3e9-4fb7-af47-2f24ab7b3d9a"
  },
  {
    "id": "80b11616-c459-42e7-87e2-2f4e5abb2479",
    "name": "Groenswaard",
    "state_id": "07bd9339-b3e9-4fb7-af47-2f24ab7b3d9a"
  },
  {
    "id": "736fb11d-0fec-4e7e-b5d1-7cd82f4e0e34",
    "name": "Groot IJsselmonde",
    "state_id": "07bd9339-b3e9-4fb7-af47-2f24ab7b3d9a"
  },
  {
    "id": "4c602a57-cafa-4dd3-99b4-45c1ed237f85",
    "name": "Groot-Ammers",
    "state_id": "07bd9339-b3e9-4fb7-af47-2f24ab7b3d9a"
  },
  {
    "id": "009a1243-9de5-463e-a84c-e6463ae798ae",
    "name": "Haastrecht",
    "state_id": "07bd9339-b3e9-4fb7-af47-2f24ab7b3d9a"
  },
  {
    "id": "e9ff3af5-2469-47fa-a174-6a674bb73df9",
    "name": "Heerjansdam",
    "state_id": "07bd9339-b3e9-4fb7-af47-2f24ab7b3d9a"
  },
  {
    "id": "ca715bc0-223b-4ccf-93a9-f9b11c4cc45c",
    "name": "Heijplaat",
    "state_id": "07bd9339-b3e9-4fb7-af47-2f24ab7b3d9a"
  },
  {
    "id": "605db66c-9762-4fec-a38c-99742d7d6349",
    "name": "Hellevoetsluis",
    "state_id": "07bd9339-b3e9-4fb7-af47-2f24ab7b3d9a"
  },
  {
    "id": "ae4435dd-dd7d-4228-bc4a-cc4c99b3793e",
    "name": "Hendrik-Ido-Ambacht",
    "state_id": "07bd9339-b3e9-4fb7-af47-2f24ab7b3d9a"
  },
  {
    "id": "97b2b36b-467d-4899-820c-5c3ecd79f00f",
    "name": "Hillegom",
    "state_id": "07bd9339-b3e9-4fb7-af47-2f24ab7b3d9a"
  },
  {
    "id": "d1fe451a-a550-4676-8982-1e695ebfa794",
    "name": "Hoek van Holland",
    "state_id": "07bd9339-b3e9-4fb7-af47-2f24ab7b3d9a"
  },
  {
    "id": "872b0e48-cd4f-4e1c-b4d2-c203ba0eb74c",
    "name": "Hoge Mors",
    "state_id": "07bd9339-b3e9-4fb7-af47-2f24ab7b3d9a"
  },
  {
    "id": "e6a9ef91-fe7d-4e07-9c3b-e2b3ac523723",
    "name": "Honselersdijk",
    "state_id": "07bd9339-b3e9-4fb7-af47-2f24ab7b3d9a"
  },
  {
    "id": "f95f3493-97eb-4f4f-acd9-615898b3176c",
    "name": "Hoogblokland",
    "state_id": "07bd9339-b3e9-4fb7-af47-2f24ab7b3d9a"
  },
  {
    "id": "474c169e-82ec-4c28-834e-8285162e8ba9",
    "name": "Hoogmade",
    "state_id": "07bd9339-b3e9-4fb7-af47-2f24ab7b3d9a"
  },
  {
    "id": "d128df72-8216-481c-858a-cb81aab91aff",
    "name": "Katendrecht",
    "state_id": "07bd9339-b3e9-4fb7-af47-2f24ab7b3d9a"
  },
  {
    "id": "d960a8d1-e8c5-409e-9998-21d082abdae0",
    "name": "Katwijk aan den Rijn",
    "state_id": "07bd9339-b3e9-4fb7-af47-2f24ab7b3d9a"
  },
  {
    "id": "41f83a2c-7d8e-4a00-aec4-d1c1e7b16651",
    "name": "Katwijk aan Zee",
    "state_id": "07bd9339-b3e9-4fb7-af47-2f24ab7b3d9a"
  },
  {
    "id": "2df234a1-c2b5-4c67-babe-7f8a12ed3a84",
    "name": "Kerkehout",
    "state_id": "07bd9339-b3e9-4fb7-af47-2f24ab7b3d9a"
  },
  {
    "id": "2a39996b-d4fd-4068-afde-bdf93582cc48",
    "name": "Kijkduin",
    "state_id": "07bd9339-b3e9-4fb7-af47-2f24ab7b3d9a"
  },
  {
    "id": "5f4f14ad-1679-4fc4-80cd-f57159216a7f",
    "name": "Klaaswaal",
    "state_id": "07bd9339-b3e9-4fb7-af47-2f24ab7b3d9a"
  },
  {
    "id": "e3978803-bbbe-453f-96ed-233218de6a8a",
    "name": "Kop van Zuid",
    "state_id": "07bd9339-b3e9-4fb7-af47-2f24ab7b3d9a"
  },
  {
    "id": "02a9b579-3037-4d0d-9e24-e661c9013f1b",
    "name": "Krimpen aan den IJssel",
    "state_id": "07bd9339-b3e9-4fb7-af47-2f24ab7b3d9a"
  },
  {
    "id": "cce218da-6877-46f5-aea5-4babdb5255cf",
    "name": "Krimpenerwaard",
    "state_id": "07bd9339-b3e9-4fb7-af47-2f24ab7b3d9a"
  },
  {
    "id": "27ea37fd-3152-4dd7-bea5-769b70984226",
    "name": "Kwintsheul",
    "state_id": "07bd9339-b3e9-4fb7-af47-2f24ab7b3d9a"
  },
  {
    "id": "b2dda6df-a59e-4242-afa8-1c7ad7d0b250",
    "name": "Leiden",
    "state_id": "07bd9339-b3e9-4fb7-af47-2f24ab7b3d9a"
  },
  {
    "id": "9ba0895c-0127-47ce-a5d7-87e27ff8b036",
    "name": "Leiderdorp",
    "state_id": "07bd9339-b3e9-4fb7-af47-2f24ab7b3d9a"
  },
  {
    "id": "37e7b979-531f-417d-8b09-8e22f1e4dbbf",
    "name": "Leimuiden",
    "state_id": "07bd9339-b3e9-4fb7-af47-2f24ab7b3d9a"
  },
  {
    "id": "01794ce9-dab0-40bf-a241-a9633ef3271d",
    "name": "Liesveld",
    "state_id": "07bd9339-b3e9-4fb7-af47-2f24ab7b3d9a"
  },
  {
    "id": "22728a17-cc4a-4347-938f-9277b81d11a6",
    "name": "Lisse",
    "state_id": "07bd9339-b3e9-4fb7-af47-2f24ab7b3d9a"
  },
  {
    "id": "c295b355-5929-4424-b40e-0294865af0af",
    "name": "Lombardijen",
    "state_id": "07bd9339-b3e9-4fb7-af47-2f24ab7b3d9a"
  },
  {
    "id": "413d30df-0656-4278-aa6f-14b48e7b16e3",
    "name": "Maasdijk",
    "state_id": "07bd9339-b3e9-4fb7-af47-2f24ab7b3d9a"
  },
  {
    "id": "51866db2-5c7b-4fa3-a936-20ddce1b1277",
    "name": "Maasland",
    "state_id": "07bd9339-b3e9-4fb7-af47-2f24ab7b3d9a"
  },
  {
    "id": "7e2884c8-188d-4aa2-8367-bf3d0b1f78d1",
    "name": "Maassluis",
    "state_id": "07bd9339-b3e9-4fb7-af47-2f24ab7b3d9a"
  },
  {
    "id": "0fa95fb0-4b82-4513-bf9b-933003398bce",
    "name": "Merenwijk",
    "state_id": "07bd9339-b3e9-4fb7-af47-2f24ab7b3d9a"
  },
  {
    "id": "9722a8d5-0667-4292-aa64-34771ef0acf0",
    "name": "Middelharnis",
    "state_id": "07bd9339-b3e9-4fb7-af47-2f24ab7b3d9a"
  },
  {
    "id": "1fbb70c9-cd68-4b86-a5bf-234645cadc2a",
    "name": "Middelsluis",
    "state_id": "07bd9339-b3e9-4fb7-af47-2f24ab7b3d9a"
  },
  {
    "id": "4eb544b4-bc83-4b47-8a48-f2eac4d5171d",
    "name": "Mijnsheerenland",
    "state_id": "07bd9339-b3e9-4fb7-af47-2f24ab7b3d9a"
  },
  {
    "id": "0e0b8a6a-13ae-4dc5-8a60-452c8009aff3",
    "name": "Monster",
    "state_id": "07bd9339-b3e9-4fb7-af47-2f24ab7b3d9a"
  },
  {
    "id": "652d042a-8a8d-43c6-bdae-cac4f0d9a919",
    "name": "Naaldwijk",
    "state_id": "07bd9339-b3e9-4fb7-af47-2f24ab7b3d9a"
  },
  {
    "id": "5946cdfb-cc64-4c19-a849-0125c2736046",
    "name": "Neder-Hardinxveld",
    "state_id": "07bd9339-b3e9-4fb7-af47-2f24ab7b3d9a"
  },
  {
    "id": "2808a617-3d54-4753-9287-d182ac8395fe",
    "name": "Nieuw-Beijerland",
    "state_id": "07bd9339-b3e9-4fb7-af47-2f24ab7b3d9a"
  },
  {
    "id": "062bd085-d40e-47b5-9bee-9bdcdda809b4",
    "name": "Nieuw-Lekkerland",
    "state_id": "07bd9339-b3e9-4fb7-af47-2f24ab7b3d9a"
  },
  {
    "id": "fc7add1c-2122-4e7b-84bd-ce1e37eef64f",
    "name": "Nieuwenhoorn",
    "state_id": "07bd9339-b3e9-4fb7-af47-2f24ab7b3d9a"
  },
  {
    "id": "0d01534c-7f82-4ea9-98f8-8c95ad683564",
    "name": "Nieuwkoop",
    "state_id": "07bd9339-b3e9-4fb7-af47-2f24ab7b3d9a"
  },
  {
    "id": "3091d2d2-c71f-4826-b073-e83902edfff8",
    "name": "Nieuwpoort",
    "state_id": "07bd9339-b3e9-4fb7-af47-2f24ab7b3d9a"
  },
  {
    "id": "498edd4a-9c15-48d2-9867-2e981dbe9e6a",
    "name": "Nieuwveen",
    "state_id": "07bd9339-b3e9-4fb7-af47-2f24ab7b3d9a"
  },
  {
    "id": "c69e1975-79e4-4f4d-80aa-063a827c9773",
    "name": "Nissewaard",
    "state_id": "07bd9339-b3e9-4fb7-af47-2f24ab7b3d9a"
  },
  {
    "id": "b20b00f4-a55f-4b9f-b0ea-2f28b3b817ed",
    "name": "Noord-Hofland",
    "state_id": "07bd9339-b3e9-4fb7-af47-2f24ab7b3d9a"
  },
  {
    "id": "f2653728-1cbd-4a15-9f9e-ddc5f604a0fe",
    "name": "Noordeinde",
    "state_id": "07bd9339-b3e9-4fb7-af47-2f24ab7b3d9a"
  },
  {
    "id": "28361d01-427c-4700-8a57-00dd4070ec7e",
    "name": "Noordeloos",
    "state_id": "07bd9339-b3e9-4fb7-af47-2f24ab7b3d9a"
  },
  {
    "id": "0c497572-2dc6-40b5-adc4-d6149be0f546",
    "name": "Noordwijk-Binnen",
    "state_id": "07bd9339-b3e9-4fb7-af47-2f24ab7b3d9a"
  },
  {
    "id": "de241683-8867-4dd3-b1fc-882fd1a994bc",
    "name": "Noordwijkerhout",
    "state_id": "07bd9339-b3e9-4fb7-af47-2f24ab7b3d9a"
  },
  {
    "id": "7a137e50-ea26-4a88-870b-a6595b2636e6",
    "name": "Numansdorp",
    "state_id": "07bd9339-b3e9-4fb7-af47-2f24ab7b3d9a"
  },
  {
    "id": "af0ed1e4-eab5-4c0b-b0d6-530694a408c8",
    "name": "Oegstgeest",
    "state_id": "07bd9339-b3e9-4fb7-af47-2f24ab7b3d9a"
  },
  {
    "id": "1ebf8ed2-23e3-4138-951c-701ebe7df7c8",
    "name": "Ommoord",
    "state_id": "07bd9339-b3e9-4fb7-af47-2f24ab7b3d9a"
  },
  {
    "id": "2e94b6fa-c06b-466a-bc77-c74624e932ef",
    "name": "Oostdorp",
    "state_id": "07bd9339-b3e9-4fb7-af47-2f24ab7b3d9a"
  },
  {
    "id": "9418e44b-acc4-4e86-8aa9-e89f2b0fec42",
    "name": "Oostvoorne",
    "state_id": "07bd9339-b3e9-4fb7-af47-2f24ab7b3d9a"
  },
  {
    "id": "afde8287-31c5-4ab5-ad9d-65e3802db9a7",
    "name": "Oranjewijk",
    "state_id": "07bd9339-b3e9-4fb7-af47-2f24ab7b3d9a"
  },
  {
    "id": "725108b9-1536-49fe-ae5f-0c01de0aa0e7",
    "name": "Oud-Beijerland",
    "state_id": "07bd9339-b3e9-4fb7-af47-2f24ab7b3d9a"
  },
  {
    "id": "aa330150-1308-4881-a898-eb7572ec36f1",
    "name": "Ouddorp",
    "state_id": "07bd9339-b3e9-4fb7-af47-2f24ab7b3d9a"
  },
  {
    "id": "f521b471-eb76-4c06-b6de-502353e4c6df",
    "name": "Oude Wetering",
    "state_id": "07bd9339-b3e9-4fb7-af47-2f24ab7b3d9a"
  },
  {
    "id": "f1726702-814a-4f60-b378-3114b733f0d3",
    "name": "Ouderkerk aan den IJssel",
    "state_id": "07bd9339-b3e9-4fb7-af47-2f24ab7b3d9a"
  },
  {
    "id": "771dc1da-1076-478d-bcb4-fdd7285f205d",
    "name": "Overschie",
    "state_id": "07bd9339-b3e9-4fb7-af47-2f24ab7b3d9a"
  },
  {
    "id": "72a50407-bcb6-4893-a0c5-1c5b6da1bcd1",
    "name": "Palenstein",
    "state_id": "07bd9339-b3e9-4fb7-af47-2f24ab7b3d9a"
  },
  {
    "id": "9ccc2b7e-952e-46c2-887e-5f551e1728c5",
    "name": "Papendrecht",
    "state_id": "07bd9339-b3e9-4fb7-af47-2f24ab7b3d9a"
  },
  {
    "id": "4cb6b1c9-1da2-4315-b32a-a670e90cf377",
    "name": "Papenveer",
    "state_id": "07bd9339-b3e9-4fb7-af47-2f24ab7b3d9a"
  },
  {
    "id": "d0ab244f-ee0e-4e7b-a410-03dd19ea1c3f",
    "name": "Pendrecht",
    "state_id": "07bd9339-b3e9-4fb7-af47-2f24ab7b3d9a"
  },
  {
    "id": "a51f002a-cc2c-4f7e-aea9-eb561de460c3",
    "name": "Pernis",
    "state_id": "07bd9339-b3e9-4fb7-af47-2f24ab7b3d9a"
  },
  {
    "id": "b986c039-aaca-445a-9ee4-3345b57fa2da",
    "name": "Piershil",
    "state_id": "07bd9339-b3e9-4fb7-af47-2f24ab7b3d9a"
  },
  {
    "id": "5752f06d-c65f-4e40-b2f1-c59713e20318",
    "name": "Pijnacker",
    "state_id": "07bd9339-b3e9-4fb7-af47-2f24ab7b3d9a"
  },
  {
    "id": "9fdc9495-5f40-4529-ab65-14ca78ef2558",
    "name": "Poeldijk",
    "state_id": "07bd9339-b3e9-4fb7-af47-2f24ab7b3d9a"
  },
  {
    "id": "f2b6990b-2e9b-4c20-84f3-1a3594d2f61f",
    "name": "Reeuwijk",
    "state_id": "07bd9339-b3e9-4fb7-af47-2f24ab7b3d9a"
  },
  {
    "id": "cbeb4567-2fdc-4053-86fa-27d7730cc5f0",
    "name": "Rhoon",
    "state_id": "07bd9339-b3e9-4fb7-af47-2f24ab7b3d9a"
  },
  {
    "id": "401c637b-a92a-43d0-aa98-93553bdda4d9",
    "name": "Ridderkerk",
    "state_id": "07bd9339-b3e9-4fb7-af47-2f24ab7b3d9a"
  },
  {
    "id": "6cea2eda-062e-41f7-8f36-fe3dfb2d9f32",
    "name": "Rijnsaterwoude",
    "state_id": "07bd9339-b3e9-4fb7-af47-2f24ab7b3d9a"
  },
  {
    "id": "1fbcc15d-0bbd-4809-998b-9612d7e59123",
    "name": "Rijnsburg",
    "state_id": "07bd9339-b3e9-4fb7-af47-2f24ab7b3d9a"
  },
  {
    "id": "f87a04d0-2e4f-468f-ae18-8d2f7c77fb76",
    "name": "Rijpwetering",
    "state_id": "07bd9339-b3e9-4fb7-af47-2f24ab7b3d9a"
  },
  {
    "id": "a10aaa23-7f46-4a85-b471-2f811d7d50da",
    "name": "Rijsoord",
    "state_id": "07bd9339-b3e9-4fb7-af47-2f24ab7b3d9a"
  },
  {
    "id": "8e3d1205-67b9-4133-a965-68292ba386cc",
    "name": "Rijswijk",
    "state_id": "07bd9339-b3e9-4fb7-af47-2f24ab7b3d9a"
  },
  {
    "id": "63e8f1a5-68d2-47f3-98b3-7d16943dd467",
    "name": "Rockanje",
    "state_id": "07bd9339-b3e9-4fb7-af47-2f24ab7b3d9a"
  },
  {
    "id": "55944f0c-f985-4089-bf0e-03ba6b4227ad",
    "name": "Roelofarendsveen",
    "state_id": "07bd9339-b3e9-4fb7-af47-2f24ab7b3d9a"
  },
  {
    "id": "10b63527-e3d0-4e32-90ee-bc0a8894453f",
    "name": "Rotterdam",
    "state_id": "07bd9339-b3e9-4fb7-af47-2f24ab7b3d9a"
  },
  {
    "id": "ee0abba3-b90f-4058-9393-64cdbc76705f",
    "name": "Rozenburg",
    "state_id": "07bd9339-b3e9-4fb7-af47-2f24ab7b3d9a"
  },
  {
    "id": "15f94cbe-ec4a-4ab4-a36c-6fdb3d8528a5",
    "name": "Rugge",
    "state_id": "07bd9339-b3e9-4fb7-af47-2f24ab7b3d9a"
  },
  {
    "id": "14bf3998-ab5e-4094-826f-16de1f2505e6",
    "name": "Sassenheim",
    "state_id": "07bd9339-b3e9-4fb7-af47-2f24ab7b3d9a"
  },
  {
    "id": "2abc4cb5-dde2-48df-ad3b-ea9b9f2627a7",
    "name": "Schelluinen",
    "state_id": "07bd9339-b3e9-4fb7-af47-2f24ab7b3d9a"
  },
  {
    "id": "a7b4a5a5-2f61-4673-b3da-01375833fe02",
    "name": "Scheveningen",
    "state_id": "07bd9339-b3e9-4fb7-af47-2f24ab7b3d9a"
  },
  {
    "id": "a2dafcfe-16bc-4150-a17a-aa9a5b51a318",
    "name": "Schiebroek",
    "state_id": "07bd9339-b3e9-4fb7-af47-2f24ab7b3d9a"
  },
  {
    "id": "7cd6a6c6-c892-4ba3-9083-ffa812b66d3e",
    "name": "Schiedam",
    "state_id": "07bd9339-b3e9-4fb7-af47-2f24ab7b3d9a"
  },
  {
    "id": "4c061d27-adaa-4e26-9e04-331d3ecb703a",
    "name": "Schipluiden",
    "state_id": "07bd9339-b3e9-4fb7-af47-2f24ab7b3d9a"
  },
  {
    "id": "6bef59d8-cd48-4221-9847-e136c223bb13",
    "name": "Schoonhoven",
    "state_id": "07bd9339-b3e9-4fb7-af47-2f24ab7b3d9a"
  },
  {
    "id": "98d667ce-6b82-4f74-b978-ae7d0a240d75",
    "name": "Sliedrecht",
    "state_id": "07bd9339-b3e9-4fb7-af47-2f24ab7b3d9a"
  },
  {
    "id": "2156e9c2-6ca9-4f36-9bc4-373ecfc65915",
    "name": "Slikkerveer",
    "state_id": "07bd9339-b3e9-4fb7-af47-2f24ab7b3d9a"
  },
  {
    "id": "1fb688b8-166e-43b2-859b-1c614dac8d99",
    "name": "Spangen",
    "state_id": "07bd9339-b3e9-4fb7-af47-2f24ab7b3d9a"
  },
  {
    "id": "5cf4e4f9-407c-4518-b13a-994a1d9c92f9",
    "name": "Spijkenisse",
    "state_id": "07bd9339-b3e9-4fb7-af47-2f24ab7b3d9a"
  },
  {
    "id": "e23dc2dd-dc8a-4082-ba12-f429ac86c45e",
    "name": "Spoorwijk",
    "state_id": "07bd9339-b3e9-4fb7-af47-2f24ab7b3d9a"
  },
  {
    "id": "f95236a4-250c-4150-af57-a35ac168c39a",
    "name": "Statenkwartier",
    "state_id": "07bd9339-b3e9-4fb7-af47-2f24ab7b3d9a"
  },
  {
    "id": "d4efe48d-985a-401c-999e-81b72c3b4513",
    "name": "Stein",
    "state_id": "07bd9339-b3e9-4fb7-af47-2f24ab7b3d9a"
  },
  {
    "id": "3509621d-9e04-4284-961c-7a49703a0e43",
    "name": "Stolwijk",
    "state_id": "07bd9339-b3e9-4fb7-af47-2f24ab7b3d9a"
  },
  {
    "id": "934a20ef-0459-4e33-8938-d3eba7cf5ef5",
    "name": "Strijen",
    "state_id": "07bd9339-b3e9-4fb7-af47-2f24ab7b3d9a"
  },
  {
    "id": "22d5465c-e4c7-4980-8b18-6f32bf5d65ee",
    "name": "Strijp",
    "state_id": "07bd9339-b3e9-4fb7-af47-2f24ab7b3d9a"
  },
  {
    "id": "c35c86d7-0cc6-4b39-a420-2014bf36d3a9",
    "name": "Terbregge",
    "state_id": "07bd9339-b3e9-4fb7-af47-2f24ab7b3d9a"
  },
  {
    "id": "5e6054f6-2d79-453e-98d3-ca86bd7e0c02",
    "name": "The Hague",
    "state_id": "07bd9339-b3e9-4fb7-af47-2f24ab7b3d9a"
  },
  {
    "id": "a3108d3f-99e2-4a98-9478-1f075caa6994",
    "name": "Tuindorp",
    "state_id": "07bd9339-b3e9-4fb7-af47-2f24ab7b3d9a"
  },
  {
    "id": "09565d3f-b81b-4959-9eed-8e51152754f9",
    "name": "Valkenburg",
    "state_id": "07bd9339-b3e9-4fb7-af47-2f24ab7b3d9a"
  },
  {
    "id": "7a6b2828-1d9b-40b5-a48a-f5e86962f687",
    "name": "Vierpolders",
    "state_id": "07bd9339-b3e9-4fb7-af47-2f24ab7b3d9a"
  },
  {
    "id": "ceb4d067-f610-4dc0-829f-6fd0cf379dad",
    "name": "Vlaardingen",
    "state_id": "07bd9339-b3e9-4fb7-af47-2f24ab7b3d9a"
  },
  {
    "id": "434d3bfd-6d1e-480d-bf39-4ed36165f0ce",
    "name": "Vlietwijk",
    "state_id": "07bd9339-b3e9-4fb7-af47-2f24ab7b3d9a"
  },
  {
    "id": "51422a6d-4304-430b-bab1-91930a26e4e3",
    "name": "Vogelwijk",
    "state_id": "07bd9339-b3e9-4fb7-af47-2f24ab7b3d9a"
  },
  {
    "id": "351cbba2-e747-4f85-aa20-c1be6ce55d35",
    "name": "Vondelwijk",
    "state_id": "07bd9339-b3e9-4fb7-af47-2f24ab7b3d9a"
  },
  {
    "id": "80ef221c-ccd2-4552-a1b9-fcbd4377fe32",
    "name": "Voorburg",
    "state_id": "07bd9339-b3e9-4fb7-af47-2f24ab7b3d9a"
  },
  {
    "id": "1b1979fe-08cb-4bb2-98f6-a5bd584e2177",
    "name": "Voorhout",
    "state_id": "07bd9339-b3e9-4fb7-af47-2f24ab7b3d9a"
  },
  {
    "id": "2a0e4641-1034-4179-b2fd-c1e9bc7359ab",
    "name": "Voorschoten",
    "state_id": "07bd9339-b3e9-4fb7-af47-2f24ab7b3d9a"
  },
  {
    "id": "4e3339e5-0507-496e-9169-3877991d8ecc",
    "name": "Vreewijk",
    "state_id": "07bd9339-b3e9-4fb7-af47-2f24ab7b3d9a"
  },
  {
    "id": "011dc18b-e029-4224-8310-5ab126fb675f",
    "name": "Waarder",
    "state_id": "07bd9339-b3e9-4fb7-af47-2f24ab7b3d9a"
  },
  {
    "id": "bd615fd3-5acd-4bbf-9725-073e3fa783bc",
    "name": "Waddinxveen",
    "state_id": "07bd9339-b3e9-4fb7-af47-2f24ab7b3d9a"
  },
  {
    "id": "cd7e2b67-4470-4ddc-8c2b-019ce8f84f24",
    "name": "Warmond",
    "state_id": "07bd9339-b3e9-4fb7-af47-2f24ab7b3d9a"
  },
  {
    "id": "63736e1a-29fb-4d1f-83a9-cf36de55ee4c",
    "name": "Wassenaar",
    "state_id": "07bd9339-b3e9-4fb7-af47-2f24ab7b3d9a"
  },
  {
    "id": "a4e8efa3-a761-48c0-a60a-93f121acd3f5",
    "name": "Weerestein",
    "state_id": "07bd9339-b3e9-4fb7-af47-2f24ab7b3d9a"
  },
  {
    "id": "06696fd7-d1f0-4b46-9ac5-cce96bd21e7d",
    "name": "Weijpoort",
    "state_id": "07bd9339-b3e9-4fb7-af47-2f24ab7b3d9a"
  },
  {
    "id": "49954f96-eb82-4cb8-99ad-f5340424cbf3",
    "name": "Westmaas",
    "state_id": "07bd9339-b3e9-4fb7-af47-2f24ab7b3d9a"
  },
  {
    "id": "483c331e-8ebc-4015-9f6c-4a9a12dae451",
    "name": "Woubrugge",
    "state_id": "07bd9339-b3e9-4fb7-af47-2f24ab7b3d9a"
  },
  {
    "id": "e09ee6c4-cced-4d7c-99e8-6ec405211912",
    "name": "Ypenburg",
    "state_id": "07bd9339-b3e9-4fb7-af47-2f24ab7b3d9a"
  },
  {
    "id": "8d0f0fc6-f99c-43fa-9ed6-43497349cd97",
    "name": "Zevenhoven",
    "state_id": "07bd9339-b3e9-4fb7-af47-2f24ab7b3d9a"
  },
  {
    "id": "c0ae17b2-a063-4894-b0b2-e08f47125525",
    "name": "Zoetermeer",
    "state_id": "07bd9339-b3e9-4fb7-af47-2f24ab7b3d9a"
  },
  {
    "id": "22c3d87d-91af-4fa1-9b6c-a0322a05353f",
    "name": "Zoeterwoude-Dorp",
    "state_id": "07bd9339-b3e9-4fb7-af47-2f24ab7b3d9a"
  },
  {
    "id": "65d89b88-08eb-4bdf-9576-7ecdd63e85d2",
    "name": "Zuid-Beijerland",
    "state_id": "07bd9339-b3e9-4fb7-af47-2f24ab7b3d9a"
  },
  {
    "id": "f2dae446-ca0c-4498-b786-32480d896268",
    "name": "Zuidwijk",
    "state_id": "07bd9339-b3e9-4fb7-af47-2f24ab7b3d9a"
  },
  {
    "id": "d827e8a0-b16e-485b-8c69-5b6fcff07db0",
    "name": "Zwijndrecht",
    "state_id": "07bd9339-b3e9-4fb7-af47-2f24ab7b3d9a"
  }
]