[
  {
    "id": "65ff1f5a-945f-46c0-9aa0-d32cb83af202",
    "name": "Kétou",
    "state_id": "0971cbb8-a5ec-4bef-a216-34109ea158f0"
  },
  {
    "id": "f84136fe-524e-48f8-96cc-679e5ca33af0",
    "name": "Pobé",
    "state_id": "0971cbb8-a5ec-4bef-a216-34109ea158f0"
  },
  {
    "id": "136f5f6a-03eb-427a-bb99-fe88f4fafb87",
    "name": "Sakété",
    "state_id": "0971cbb8-a5ec-4bef-a216-34109ea158f0"
  }
]