[
  {
    "id": "1ce4c97d-073f-41fd-8e17-34c69fbdbbf6",
    "name": "Ādīs ‘Alem",
    "state_id": "099738a4-2419-4bfe-9563-c7cb73c94499"
  },
  {
    "id": "8a7141a6-5cd0-443d-9ff9-d6d274aedffa",
    "name": "Āgaro",
    "state_id": "099738a4-2419-4bfe-9563-c7cb73c94499"
  },
  {
    "id": "d7d36a37-3bf3-4909-b241-51197cefdd5a",
    "name": "Arsi Zone",
    "state_id": "099738a4-2419-4bfe-9563-c7cb73c94499"
  },
  {
    "id": "f118cf51-3308-4fb3-8d0c-46c30777f956",
    "name": "Āsasa",
    "state_id": "099738a4-2419-4bfe-9563-c7cb73c94499"
  },
  {
    "id": "1de48ea0-7d01-4324-bc8e-f75aae30e5db",
    "name": "Āsbe Teferī",
    "state_id": "099738a4-2419-4bfe-9563-c7cb73c94499"
  },
  {
    "id": "6f35329d-17e3-4c43-b014-2c193ac5cf44",
    "name": "Bedelē",
    "state_id": "099738a4-2419-4bfe-9563-c7cb73c94499"
  },
  {
    "id": "6b68990c-be63-450d-9ee4-9e2d2cb6023f",
    "name": "Bedēsa",
    "state_id": "099738a4-2419-4bfe-9563-c7cb73c94499"
  },
  {
    "id": "8329643b-27b7-4c12-b2d8-ffd3ebf134bb",
    "name": "Bishoftu",
    "state_id": "099738a4-2419-4bfe-9563-c7cb73c94499"
  },
  {
    "id": "d9ad98af-35ee-4935-bf8e-6460c15294f9",
    "name": "Deder",
    "state_id": "099738a4-2419-4bfe-9563-c7cb73c94499"
  },
  {
    "id": "d25ea693-cb63-4769-85b5-221e39122221",
    "name": "Dembī Dolo",
    "state_id": "099738a4-2419-4bfe-9563-c7cb73c94499"
  },
  {
    "id": "ee0dc987-c69f-430c-a261-3a9079714202",
    "name": "Dodola",
    "state_id": "099738a4-2419-4bfe-9563-c7cb73c94499"
  },
  {
    "id": "d4bcc8ef-00e0-4368-a75a-7aac8e93bf75",
    "name": "East Harerghe Zone",
    "state_id": "099738a4-2419-4bfe-9563-c7cb73c94499"
  },
  {
    "id": "5afae856-bd9c-4c90-a2f0-7523d2cc144b",
    "name": "East Shewa Zone",
    "state_id": "099738a4-2419-4bfe-9563-c7cb73c94499"
  },
  {
    "id": "418ba870-0078-4b7d-83a3-2a6c5e320354",
    "name": "East Wellega Zone",
    "state_id": "099738a4-2419-4bfe-9563-c7cb73c94499"
  },
  {
    "id": "7edf6661-5d1c-47ea-831d-35030fcfa725",
    "name": "Fichē",
    "state_id": "099738a4-2419-4bfe-9563-c7cb73c94499"
  },
  {
    "id": "a222461c-2865-4cee-965c-ab1872c42822",
    "name": "Gebre Guracha",
    "state_id": "099738a4-2419-4bfe-9563-c7cb73c94499"
  },
  {
    "id": "1a8bfda5-334a-483d-8239-b260496bc54d",
    "name": "Gēdo",
    "state_id": "099738a4-2419-4bfe-9563-c7cb73c94499"
  },
  {
    "id": "28fa440c-f753-4774-b84e-775d7108bdcd",
    "name": "Gelemso",
    "state_id": "099738a4-2419-4bfe-9563-c7cb73c94499"
  },
  {
    "id": "9a659652-f48b-4163-ab49-cf99eb5f8adb",
    "name": "Genet",
    "state_id": "099738a4-2419-4bfe-9563-c7cb73c94499"
  },
  {
    "id": "16376e4f-811b-45bb-aecb-7774808bb982",
    "name": "Gimbi",
    "state_id": "099738a4-2419-4bfe-9563-c7cb73c94499"
  },
  {
    "id": "6ca3a23a-1c13-43ec-bf91-5aa77c814148",
    "name": "Ginir",
    "state_id": "099738a4-2419-4bfe-9563-c7cb73c94499"
  },
  {
    "id": "738f3201-d67d-40d0-bdcd-b2045f075713",
    "name": "Goba",
    "state_id": "099738a4-2419-4bfe-9563-c7cb73c94499"
  },
  {
    "id": "4f232d04-ba67-4b08-9563-1e17c6a870c2",
    "name": "Gorē",
    "state_id": "099738a4-2419-4bfe-9563-c7cb73c94499"
  },
  {
    "id": "8d83bdda-95f9-4699-89e6-3e0ecf310e57",
    "name": "Guji Zone",
    "state_id": "099738a4-2419-4bfe-9563-c7cb73c94499"
  },
  {
    "id": "99e805bb-9356-441c-ae02-58fc0819d3a5",
    "name": "Hāgere Hiywet",
    "state_id": "099738a4-2419-4bfe-9563-c7cb73c94499"
  },
  {
    "id": "5b81cd70-82ca-4233-988c-007bd67727a0",
    "name": "Hagere Maryam",
    "state_id": "099738a4-2419-4bfe-9563-c7cb73c94499"
  },
  {
    "id": "4f6edb5b-12ff-4de7-9893-0774b51bec41",
    "name": "Hīrna",
    "state_id": "099738a4-2419-4bfe-9563-c7cb73c94499"
  },
  {
    "id": "dde9773e-7ff1-462a-85f4-2c42db9dc484",
    "name": "Huruta",
    "state_id": "099738a4-2419-4bfe-9563-c7cb73c94499"
  },
  {
    "id": "7c2fe942-884f-447d-9ef0-c91d4339c9f7",
    "name": "Illubabor Zone",
    "state_id": "099738a4-2419-4bfe-9563-c7cb73c94499"
  },
  {
    "id": "a629ab6f-7963-4488-a8a1-fce15e6b0816",
    "name": "Jimma",
    "state_id": "099738a4-2419-4bfe-9563-c7cb73c94499"
  },
  {
    "id": "f7806c1b-beef-452f-8640-b38d3c99c789",
    "name": "Jimma Zone",
    "state_id": "099738a4-2419-4bfe-9563-c7cb73c94499"
  },
  {
    "id": "34cd8895-da92-4419-a115-14f804061367",
    "name": "Kibre Mengist",
    "state_id": "099738a4-2419-4bfe-9563-c7cb73c94499"
  },
  {
    "id": "39f30aa1-69ab-49b4-98fa-6128ca06d6fd",
    "name": "Kofelē",
    "state_id": "099738a4-2419-4bfe-9563-c7cb73c94499"
  },
  {
    "id": "29be8b08-7e7c-402d-9223-b26c034cd9f8",
    "name": "Mēga",
    "state_id": "099738a4-2419-4bfe-9563-c7cb73c94499"
  },
  {
    "id": "c521c605-80af-4024-9522-d0ba98619859",
    "name": "Mendī",
    "state_id": "099738a4-2419-4bfe-9563-c7cb73c94499"
  },
  {
    "id": "092228a4-4b6b-4cc7-9ed3-e82e5b6a784b",
    "name": "Metahāra",
    "state_id": "099738a4-2419-4bfe-9563-c7cb73c94499"
  },
  {
    "id": "d690e19c-dd9b-4023-94cf-6892e0bc66f6",
    "name": "Metu",
    "state_id": "099738a4-2419-4bfe-9563-c7cb73c94499"
  },
  {
    "id": "1c61a394-bc5f-43f7-8b4c-16c77c787b98",
    "name": "Mojo",
    "state_id": "099738a4-2419-4bfe-9563-c7cb73c94499"
  },
  {
    "id": "a52123ba-ffc7-4620-8730-4ba2cbc1d130",
    "name": "Nazrēt",
    "state_id": "099738a4-2419-4bfe-9563-c7cb73c94499"
  },
  {
    "id": "79579a67-1878-4ebe-8859-ff273ce84ac6",
    "name": "Nejo",
    "state_id": "099738a4-2419-4bfe-9563-c7cb73c94499"
  },
  {
    "id": "ede97c00-12a5-435b-a8f5-5901d19c3e0d",
    "name": "North Shewa Zone",
    "state_id": "099738a4-2419-4bfe-9563-c7cb73c94499"
  },
  {
    "id": "96fc90ce-ccd7-4990-aab6-979532a6cc88",
    "name": "Sebeta",
    "state_id": "099738a4-2419-4bfe-9563-c7cb73c94499"
  },
  {
    "id": "aa099358-0d5f-4040-a5a9-36c5ea950281",
    "name": "Sendafa",
    "state_id": "099738a4-2419-4bfe-9563-c7cb73c94499"
  },
  {
    "id": "ffdfb92a-f34d-4b3b-9a69-adcd84d6172b",
    "name": "Shakiso",
    "state_id": "099738a4-2419-4bfe-9563-c7cb73c94499"
  },
  {
    "id": "c0273984-7ef9-41fc-8ff5-1a3a1374dc7f",
    "name": "Shambu",
    "state_id": "099738a4-2419-4bfe-9563-c7cb73c94499"
  },
  {
    "id": "ebc73228-8972-4059-b279-09192f1db37b",
    "name": "Shashemenē",
    "state_id": "099738a4-2419-4bfe-9563-c7cb73c94499"
  },
  {
    "id": "0ee64dd0-9ae3-4409-97a0-af0898d620ea",
    "name": "Sirre",
    "state_id": "099738a4-2419-4bfe-9563-c7cb73c94499"
  },
  {
    "id": "64a4fa47-799f-4dfc-bf04-0568964df4b4",
    "name": "Tulu Bolo",
    "state_id": "099738a4-2419-4bfe-9563-c7cb73c94499"
  },
  {
    "id": "a16d8b48-491b-41c3-b722-7b138b68fb77",
    "name": "Waliso",
    "state_id": "099738a4-2419-4bfe-9563-c7cb73c94499"
  },
  {
    "id": "205b4de3-e62f-4de4-a2e9-72c405d650c3",
    "name": "Wenjī",
    "state_id": "099738a4-2419-4bfe-9563-c7cb73c94499"
  },
  {
    "id": "f1730728-eb7f-4d89-b173-fd0bdb20bc97",
    "name": "West Harerghe Zone",
    "state_id": "099738a4-2419-4bfe-9563-c7cb73c94499"
  },
  {
    "id": "828df287-4222-4138-bead-32107a244b69",
    "name": "West Wellega Zone",
    "state_id": "099738a4-2419-4bfe-9563-c7cb73c94499"
  },
  {
    "id": "7673e9a6-6fda-46c5-8ab1-414f725b8985",
    "name": "Yabēlo",
    "state_id": "099738a4-2419-4bfe-9563-c7cb73c94499"
  },
  {
    "id": "18fffe9d-b17d-4b77-8877-fbb96afb55b7",
    "name": "Ziway",
    "state_id": "099738a4-2419-4bfe-9563-c7cb73c94499"
  }
]