[
  {
    "id": "5c79447e-1723-4861-920d-db1f2bab091a",
    "name": "Bafilo",
    "state_id": "0a907a24-c2fe-43a8-88b8-dd0afa8a42fa"
  },
  {
    "id": "fa0feef8-387a-4886-aa80-cdf9d31ef2b1",
    "name": "Bassar",
    "state_id": "0a907a24-c2fe-43a8-88b8-dd0afa8a42fa"
  },
  {
    "id": "28016f26-69fe-435a-b22b-9be158fca1e1",
    "name": "Kandé",
    "state_id": "0a907a24-c2fe-43a8-88b8-dd0afa8a42fa"
  },
  {
    "id": "a441234a-fb14-4463-875b-e0ce5c48720d",
    "name": "Kara",
    "state_id": "0a907a24-c2fe-43a8-88b8-dd0afa8a42fa"
  },
  {
    "id": "fcbe65f7-9ca3-4abb-9478-7846b5e5444c",
    "name": "Niamtougou",
    "state_id": "0a907a24-c2fe-43a8-88b8-dd0afa8a42fa"
  },
  {
    "id": "fe3e37f3-c847-4c70-9e78-77f93b0ef319",
    "name": "Pagouda",
    "state_id": "0a907a24-c2fe-43a8-88b8-dd0afa8a42fa"
  },
  {
    "id": "b31a9a6f-a593-4901-8790-b17338be98ab",
    "name": "Préfecture de Bassar",
    "state_id": "0a907a24-c2fe-43a8-88b8-dd0afa8a42fa"
  }
]