[
  {
    "id": "acc18053-6308-4198-a4cd-2e2508b1ca33",
    "name": "Aarau",
    "state_id": "0ae54c16-2e5a-4735-ab01-7f450295065b"
  },
  {
    "id": "463bd925-80e0-4d81-b64e-756b66e699e0",
    "name": "Aarburg",
    "state_id": "0ae54c16-2e5a-4735-ab01-7f450295065b"
  },
  {
    "id": "2c838096-91a6-482b-8bbc-182b7f0dab83",
    "name": "Aristau",
    "state_id": "0ae54c16-2e5a-4735-ab01-7f450295065b"
  },
  {
    "id": "d1e08421-586e-4403-bc91-3d69a5118b07",
    "name": "Auw",
    "state_id": "0ae54c16-2e5a-4735-ab01-7f450295065b"
  },
  {
    "id": "3c6a6f75-6707-4df2-8c8d-30709c94af9f",
    "name": "Bad Zurzach",
    "state_id": "0ae54c16-2e5a-4735-ab01-7f450295065b"
  },
  {
    "id": "c445f53a-610f-4443-b48b-045534f3af77",
    "name": "Baden",
    "state_id": "0ae54c16-2e5a-4735-ab01-7f450295065b"
  },
  {
    "id": "d5e558b1-a354-4953-9ed1-ecebb809811d",
    "name": "Berikon",
    "state_id": "0ae54c16-2e5a-4735-ab01-7f450295065b"
  },
  {
    "id": "ac6a2bcb-7e75-4c6b-adff-e4dbb8536dc9",
    "name": "Besenbüren",
    "state_id": "0ae54c16-2e5a-4735-ab01-7f450295065b"
  },
  {
    "id": "b2e049f1-46d1-44b1-8502-54c3c7ae666d",
    "name": "Bezirk Aarau",
    "state_id": "0ae54c16-2e5a-4735-ab01-7f450295065b"
  },
  {
    "id": "fe23b381-f9e1-4537-ac8e-bca9d0460506",
    "name": "Bezirk Baden",
    "state_id": "0ae54c16-2e5a-4735-ab01-7f450295065b"
  },
  {
    "id": "80910a18-36e3-4974-9a09-b94a1cbf2e42",
    "name": "Bezirk Bremgarten",
    "state_id": "0ae54c16-2e5a-4735-ab01-7f450295065b"
  },
  {
    "id": "7e9f7bcf-5eeb-42e1-9e12-e1ed21bc5ae8",
    "name": "Bezirk Brugg",
    "state_id": "0ae54c16-2e5a-4735-ab01-7f450295065b"
  },
  {
    "id": "91486dd6-1a59-47cd-b8d5-5068feb3b396",
    "name": "Bezirk Kulm",
    "state_id": "0ae54c16-2e5a-4735-ab01-7f450295065b"
  },
  {
    "id": "3452892b-1011-4406-b8f2-a4146c0016dc",
    "name": "Bezirk Laufenburg",
    "state_id": "0ae54c16-2e5a-4735-ab01-7f450295065b"
  },
  {
    "id": "f8998c94-b618-4b3e-bf88-3a6b770a9c5e",
    "name": "Bezirk Lenzburg",
    "state_id": "0ae54c16-2e5a-4735-ab01-7f450295065b"
  },
  {
    "id": "d2bc7227-be57-4e37-857d-3c171ff045d5",
    "name": "Bezirk Muri",
    "state_id": "0ae54c16-2e5a-4735-ab01-7f450295065b"
  },
  {
    "id": "2ba95044-60a1-4740-9e93-2740c6d4bede",
    "name": "Bezirk Rheinfelden",
    "state_id": "0ae54c16-2e5a-4735-ab01-7f450295065b"
  },
  {
    "id": "f9c0abfd-a244-4662-b633-8d71b84cf997",
    "name": "Bezirk Zofingen",
    "state_id": "0ae54c16-2e5a-4735-ab01-7f450295065b"
  },
  {
    "id": "705247a4-631f-4e69-85e1-e1ac6922331a",
    "name": "Bezirk Zurzach",
    "state_id": "0ae54c16-2e5a-4735-ab01-7f450295065b"
  },
  {
    "id": "9df9a291-7523-4e7c-acf2-52e531abf8e2",
    "name": "Birmenstorf",
    "state_id": "0ae54c16-2e5a-4735-ab01-7f450295065b"
  },
  {
    "id": "e143510a-ce65-4402-ae18-61982fa2f1d9",
    "name": "Birr",
    "state_id": "0ae54c16-2e5a-4735-ab01-7f450295065b"
  },
  {
    "id": "9fd4bb55-bb4c-452d-a3a4-53015328c562",
    "name": "Boniswil",
    "state_id": "0ae54c16-2e5a-4735-ab01-7f450295065b"
  },
  {
    "id": "84d55541-9244-4e5e-a588-a4bfa979aef9",
    "name": "Bremgarten",
    "state_id": "0ae54c16-2e5a-4735-ab01-7f450295065b"
  },
  {
    "id": "f142aeed-b9f0-47af-8516-68d32c23f35e",
    "name": "Brittnau",
    "state_id": "0ae54c16-2e5a-4735-ab01-7f450295065b"
  },
  {
    "id": "5071cd3c-92e8-4209-b708-88f14d254b9e",
    "name": "Brugg",
    "state_id": "0ae54c16-2e5a-4735-ab01-7f450295065b"
  },
  {
    "id": "eb62308e-bffb-43be-b10a-189cb950ab2e",
    "name": "Buchs",
    "state_id": "0ae54c16-2e5a-4735-ab01-7f450295065b"
  },
  {
    "id": "f9a377d3-fb72-43aa-be35-c1e7f69a66a9",
    "name": "Buttwil",
    "state_id": "0ae54c16-2e5a-4735-ab01-7f450295065b"
  },
  {
    "id": "327f1578-c10f-416b-bb47-5490857cc91c",
    "name": "Densbüren",
    "state_id": "0ae54c16-2e5a-4735-ab01-7f450295065b"
  },
  {
    "id": "fd0030ae-2835-4ada-bf9b-dffd12e99ae2",
    "name": "Dottikon",
    "state_id": "0ae54c16-2e5a-4735-ab01-7f450295065b"
  },
  {
    "id": "a8d94b58-9c43-40c2-bc94-04ee7fd741be",
    "name": "Dürrenäsch",
    "state_id": "0ae54c16-2e5a-4735-ab01-7f450295065b"
  },
  {
    "id": "4a847f89-808d-4039-ba40-a553b57b6777",
    "name": "Egliswil",
    "state_id": "0ae54c16-2e5a-4735-ab01-7f450295065b"
  },
  {
    "id": "6c188b44-7e67-4882-a8e9-d22e46aebc8e",
    "name": "Ehrendingen",
    "state_id": "0ae54c16-2e5a-4735-ab01-7f450295065b"
  },
  {
    "id": "bbbd2c3c-f633-4d59-b451-0352ae923500",
    "name": "Eiken",
    "state_id": "0ae54c16-2e5a-4735-ab01-7f450295065b"
  },
  {
    "id": "208baac3-0011-413e-bd56-81cf97817854",
    "name": "Endingen",
    "state_id": "0ae54c16-2e5a-4735-ab01-7f450295065b"
  },
  {
    "id": "3497d007-7cea-48fa-8873-b8820a1b40ae",
    "name": "Frick",
    "state_id": "0ae54c16-2e5a-4735-ab01-7f450295065b"
  },
  {
    "id": "edfc9dc4-899c-49f2-bd78-03eb576a3a10",
    "name": "Gebenstorf",
    "state_id": "0ae54c16-2e5a-4735-ab01-7f450295065b"
  },
  {
    "id": "34c583de-c035-4a23-a681-5a4e8c6332c3",
    "name": "Gipf-Oberfrick",
    "state_id": "0ae54c16-2e5a-4735-ab01-7f450295065b"
  },
  {
    "id": "25649b8c-1c2a-4955-9395-de9e9bbc6bf3",
    "name": "Gontenschwil",
    "state_id": "0ae54c16-2e5a-4735-ab01-7f450295065b"
  },
  {
    "id": "9dace33e-9142-4631-86e4-e9dca24139b0",
    "name": "Gränichen",
    "state_id": "0ae54c16-2e5a-4735-ab01-7f450295065b"
  },
  {
    "id": "405d53ec-c8b1-4a75-bb65-3c194d6a48b4",
    "name": "Hägglingen",
    "state_id": "0ae54c16-2e5a-4735-ab01-7f450295065b"
  },
  {
    "id": "fa9f4185-1e80-4841-9057-b77d8f8ab03f",
    "name": "Hausen",
    "state_id": "0ae54c16-2e5a-4735-ab01-7f450295065b"
  },
  {
    "id": "9279203b-c1f5-4046-8d42-6ff4a6fd761f",
    "name": "Jonen",
    "state_id": "0ae54c16-2e5a-4735-ab01-7f450295065b"
  },
  {
    "id": "5440ccfb-00fc-4116-afa6-4287127a13c7",
    "name": "Kaiseraugst",
    "state_id": "0ae54c16-2e5a-4735-ab01-7f450295065b"
  },
  {
    "id": "76cf47c2-1403-41af-afb4-6d4a5dd0d28a",
    "name": "Kaisten",
    "state_id": "0ae54c16-2e5a-4735-ab01-7f450295065b"
  },
  {
    "id": "e8f819b4-b58c-4655-8e0f-6347c42b97aa",
    "name": "Killwangen",
    "state_id": "0ae54c16-2e5a-4735-ab01-7f450295065b"
  },
  {
    "id": "6d8f01e6-6a31-443a-ade7-61fefbf897e3",
    "name": "Klingnau",
    "state_id": "0ae54c16-2e5a-4735-ab01-7f450295065b"
  },
  {
    "id": "ad5cba51-3b45-492c-b099-90d7d48e57db",
    "name": "Koblenz",
    "state_id": "0ae54c16-2e5a-4735-ab01-7f450295065b"
  },
  {
    "id": "82eaed08-f981-44b6-be15-f657cd8fbfaa",
    "name": "Kölliken",
    "state_id": "0ae54c16-2e5a-4735-ab01-7f450295065b"
  },
  {
    "id": "cf9e66b3-0b6e-4225-9af8-916d16103967",
    "name": "Künten",
    "state_id": "0ae54c16-2e5a-4735-ab01-7f450295065b"
  },
  {
    "id": "5a5a6e3f-c1ca-4139-8b3c-a30f56840500",
    "name": "Küttigen",
    "state_id": "0ae54c16-2e5a-4735-ab01-7f450295065b"
  },
  {
    "id": "7dc325cd-0265-4114-b354-8768f5b1f490",
    "name": "Laufenburg",
    "state_id": "0ae54c16-2e5a-4735-ab01-7f450295065b"
  },
  {
    "id": "ed16d9ea-94f0-40b0-9137-bfd3a3b0e6ff",
    "name": "Lauffohr (Brugg)",
    "state_id": "0ae54c16-2e5a-4735-ab01-7f450295065b"
  },
  {
    "id": "e60ab2f3-fca6-476f-89f8-f291c9aea194",
    "name": "Leibstadt",
    "state_id": "0ae54c16-2e5a-4735-ab01-7f450295065b"
  },
  {
    "id": "2eecfdb3-477d-4369-80a6-e6e96993a881",
    "name": "Lenzburg",
    "state_id": "0ae54c16-2e5a-4735-ab01-7f450295065b"
  },
  {
    "id": "d86f31f1-47ca-4548-865d-e5b7cd581949",
    "name": "Magden",
    "state_id": "0ae54c16-2e5a-4735-ab01-7f450295065b"
  },
  {
    "id": "3b19e4a8-c2ff-4226-bfbe-b74a40fbedeb",
    "name": "Meisterschwanden",
    "state_id": "0ae54c16-2e5a-4735-ab01-7f450295065b"
  },
  {
    "id": "fcc62841-1a77-43fa-a1a4-16ce5eae83d2",
    "name": "Mellingen",
    "state_id": "0ae54c16-2e5a-4735-ab01-7f450295065b"
  },
  {
    "id": "ef95951b-52d6-4126-a222-c70ed8fe15f5",
    "name": "Menziken",
    "state_id": "0ae54c16-2e5a-4735-ab01-7f450295065b"
  },
  {
    "id": "c039b595-ef55-4cd9-8973-b31c9fc2815c",
    "name": "Merenschwand",
    "state_id": "0ae54c16-2e5a-4735-ab01-7f450295065b"
  },
  {
    "id": "855d6f40-78a9-46d5-857d-d59cd952ab96",
    "name": "Möhlin",
    "state_id": "0ae54c16-2e5a-4735-ab01-7f450295065b"
  },
  {
    "id": "f26f0adb-ea72-4900-a1a3-5b9b0ea9d89f",
    "name": "Muhen",
    "state_id": "0ae54c16-2e5a-4735-ab01-7f450295065b"
  },
  {
    "id": "4d670225-a25a-4b8c-8759-f5580064c234",
    "name": "Mumpf",
    "state_id": "0ae54c16-2e5a-4735-ab01-7f450295065b"
  },
  {
    "id": "364d68b3-8595-4c18-a529-7eae1c83caad",
    "name": "Murgenthal",
    "state_id": "0ae54c16-2e5a-4735-ab01-7f450295065b"
  },
  {
    "id": "b03c99c7-8249-49f1-9240-b983ebcfd38c",
    "name": "Muri",
    "state_id": "0ae54c16-2e5a-4735-ab01-7f450295065b"
  },
  {
    "id": "b287811a-85c8-4165-bee1-a8a65d90fbf9",
    "name": "Neuenhof",
    "state_id": "0ae54c16-2e5a-4735-ab01-7f450295065b"
  },
  {
    "id": "ee3bb6a5-cf09-4ca4-b261-8693346cbcb7",
    "name": "Niederlenz",
    "state_id": "0ae54c16-2e5a-4735-ab01-7f450295065b"
  },
  {
    "id": "e1f40722-ef3e-4ef9-94c2-6e4635ecb1a6",
    "name": "Niederrohrdorf",
    "state_id": "0ae54c16-2e5a-4735-ab01-7f450295065b"
  },
  {
    "id": "3a16a5ab-bb4b-4619-b8e4-2bcfe74e007e",
    "name": "Oberentfelden",
    "state_id": "0ae54c16-2e5a-4735-ab01-7f450295065b"
  },
  {
    "id": "51586730-d614-4ba6-85d2-ffabeed55c21",
    "name": "Oberlunkhofen",
    "state_id": "0ae54c16-2e5a-4735-ab01-7f450295065b"
  },
  {
    "id": "a3a7cb0d-4681-49cc-b40a-04b949a74268",
    "name": "Oberrohrdorf",
    "state_id": "0ae54c16-2e5a-4735-ab01-7f450295065b"
  },
  {
    "id": "e3dfdd47-444a-40cf-9c37-cddb2328ee31",
    "name": "Oberrüti",
    "state_id": "0ae54c16-2e5a-4735-ab01-7f450295065b"
  },
  {
    "id": "c4745cab-aeed-4d46-b66a-514015da99e0",
    "name": "Obersiggenthal",
    "state_id": "0ae54c16-2e5a-4735-ab01-7f450295065b"
  },
  {
    "id": "d2acd8bb-2883-46d3-8231-fb8910dad7e9",
    "name": "Oftringen",
    "state_id": "0ae54c16-2e5a-4735-ab01-7f450295065b"
  },
  {
    "id": "fac8bb15-a6ef-4aaa-8293-d1d4d6050ae6",
    "name": "Othmarsingen",
    "state_id": "0ae54c16-2e5a-4735-ab01-7f450295065b"
  },
  {
    "id": "fe057882-0174-4b8a-9578-d1829e099068",
    "name": "Reinach",
    "state_id": "0ae54c16-2e5a-4735-ab01-7f450295065b"
  },
  {
    "id": "0bc33d0c-2837-47a2-a9bf-8bd39a4ad9ab",
    "name": "Rheinfelden",
    "state_id": "0ae54c16-2e5a-4735-ab01-7f450295065b"
  },
  {
    "id": "4b13d00e-1622-4183-a15d-0d9ae86fd106",
    "name": "Rothrist",
    "state_id": "0ae54c16-2e5a-4735-ab01-7f450295065b"
  },
  {
    "id": "f91a76d8-39c8-4c63-a605-46a9e2bc3744",
    "name": "Rudolfstetten",
    "state_id": "0ae54c16-2e5a-4735-ab01-7f450295065b"
  },
  {
    "id": "a6b65c51-3e51-41f3-b564-15dd708e2d3b",
    "name": "Rupperswil",
    "state_id": "0ae54c16-2e5a-4735-ab01-7f450295065b"
  },
  {
    "id": "11e9bcf4-953d-44ce-b7f9-6a24f31ce847",
    "name": "Safenwil",
    "state_id": "0ae54c16-2e5a-4735-ab01-7f450295065b"
  },
  {
    "id": "af4f9366-5d89-4324-af4e-4cc4d2557de1",
    "name": "Sarmenstorf",
    "state_id": "0ae54c16-2e5a-4735-ab01-7f450295065b"
  },
  {
    "id": "9244efb7-a2d2-4d61-b3db-0acd188b4a6d",
    "name": "Schafisheim",
    "state_id": "0ae54c16-2e5a-4735-ab01-7f450295065b"
  },
  {
    "id": "828a4c80-0f48-49be-af92-e3fd087f34ed",
    "name": "Schinznach Bad",
    "state_id": "0ae54c16-2e5a-4735-ab01-7f450295065b"
  },
  {
    "id": "537687f8-d116-4358-b130-5d3d1311e75c",
    "name": "Schinznach Dorf",
    "state_id": "0ae54c16-2e5a-4735-ab01-7f450295065b"
  },
  {
    "id": "a3d86144-0000-4caf-9ad6-26ed9e67c27f",
    "name": "Schöftland",
    "state_id": "0ae54c16-2e5a-4735-ab01-7f450295065b"
  },
  {
    "id": "74c40c5f-62cf-481d-a8f5-9da792648ff7",
    "name": "Schwaderloch",
    "state_id": "0ae54c16-2e5a-4735-ab01-7f450295065b"
  },
  {
    "id": "c0cbeedb-5930-42e3-b9a0-69b258412da6",
    "name": "Seengen",
    "state_id": "0ae54c16-2e5a-4735-ab01-7f450295065b"
  },
  {
    "id": "9895e4d2-a726-49cc-b1e0-d54acedd5082",
    "name": "Seon",
    "state_id": "0ae54c16-2e5a-4735-ab01-7f450295065b"
  },
  {
    "id": "73a35741-88dc-4133-8850-a000aee8edce",
    "name": "Sins",
    "state_id": "0ae54c16-2e5a-4735-ab01-7f450295065b"
  },
  {
    "id": "587de888-51a4-4e66-b8cf-d87f420ea8b1",
    "name": "Spreitenbach",
    "state_id": "0ae54c16-2e5a-4735-ab01-7f450295065b"
  },
  {
    "id": "52759cc0-3418-4767-91e2-cbd2e169b6ae",
    "name": "Staffelbach",
    "state_id": "0ae54c16-2e5a-4735-ab01-7f450295065b"
  },
  {
    "id": "11285953-4f4e-470f-bd52-a84bb8eb058b",
    "name": "Staufen",
    "state_id": "0ae54c16-2e5a-4735-ab01-7f450295065b"
  },
  {
    "id": "502ea464-a16d-4f6a-98d3-53e5188403e6",
    "name": "Stein",
    "state_id": "0ae54c16-2e5a-4735-ab01-7f450295065b"
  },
  {
    "id": "451b94ec-9076-47fb-a363-ac1854cc6642",
    "name": "Strengelbach",
    "state_id": "0ae54c16-2e5a-4735-ab01-7f450295065b"
  },
  {
    "id": "0ae9dd6c-9ea3-46fa-8524-22233c916b23",
    "name": "Suhr",
    "state_id": "0ae54c16-2e5a-4735-ab01-7f450295065b"
  },
  {
    "id": "f9c2b3f1-0a6a-46cb-8397-3f7cbb9339a3",
    "name": "Sulz",
    "state_id": "0ae54c16-2e5a-4735-ab01-7f450295065b"
  },
  {
    "id": "65b70bd8-b0f3-4608-a1ab-8e5dc65e2bdf",
    "name": "Tegerfelden",
    "state_id": "0ae54c16-2e5a-4735-ab01-7f450295065b"
  },
  {
    "id": "0af3ef1a-f6ba-4d19-a099-70720f5c923d",
    "name": "Teufenthal",
    "state_id": "0ae54c16-2e5a-4735-ab01-7f450295065b"
  },
  {
    "id": "8cef3454-fef7-4d3f-9966-78fc66efdbd8",
    "name": "Turgi",
    "state_id": "0ae54c16-2e5a-4735-ab01-7f450295065b"
  },
  {
    "id": "83ac48da-41e7-402d-b36e-88669e56df10",
    "name": "Uerkheim",
    "state_id": "0ae54c16-2e5a-4735-ab01-7f450295065b"
  },
  {
    "id": "26c75654-ae08-488d-be6c-4b36da53f0aa",
    "name": "Unterkulm",
    "state_id": "0ae54c16-2e5a-4735-ab01-7f450295065b"
  },
  {
    "id": "9151ff22-fd75-4231-9f1f-c13645432a87",
    "name": "Unterlunkhofen",
    "state_id": "0ae54c16-2e5a-4735-ab01-7f450295065b"
  },
  {
    "id": "441e0a68-6cbe-4485-8721-159c4169408e",
    "name": "Untersiggenthal",
    "state_id": "0ae54c16-2e5a-4735-ab01-7f450295065b"
  },
  {
    "id": "52873a39-ac8c-4dd5-9d3b-9c075e90397f",
    "name": "Veltheim",
    "state_id": "0ae54c16-2e5a-4735-ab01-7f450295065b"
  },
  {
    "id": "7879ddc7-53ac-4bcb-8e0b-38eafdfacc9d",
    "name": "Villigen",
    "state_id": "0ae54c16-2e5a-4735-ab01-7f450295065b"
  },
  {
    "id": "21b4af5a-f896-4f4a-8037-d384fb13060e",
    "name": "Villmergen",
    "state_id": "0ae54c16-2e5a-4735-ab01-7f450295065b"
  },
  {
    "id": "a9d44f6f-7204-4ce5-a338-082794b23f87",
    "name": "Villnachern",
    "state_id": "0ae54c16-2e5a-4735-ab01-7f450295065b"
  },
  {
    "id": "b4e3295a-be0d-4fa9-914a-0c9e44511b76",
    "name": "Vordemwald",
    "state_id": "0ae54c16-2e5a-4735-ab01-7f450295065b"
  },
  {
    "id": "60926161-37db-459c-ad3d-69dd12586beb",
    "name": "Waltenschwil",
    "state_id": "0ae54c16-2e5a-4735-ab01-7f450295065b"
  },
  {
    "id": "3d9d6254-e0ec-4e1c-84fa-85c2a98a4eda",
    "name": "Wegenstetten",
    "state_id": "0ae54c16-2e5a-4735-ab01-7f450295065b"
  },
  {
    "id": "c36aa9a4-a3fa-4392-8d79-af7438c83ebb",
    "name": "Wettingen",
    "state_id": "0ae54c16-2e5a-4735-ab01-7f450295065b"
  },
  {
    "id": "1c5c208c-8b35-45db-af7a-6b42f6ffdbbc",
    "name": "Windisch",
    "state_id": "0ae54c16-2e5a-4735-ab01-7f450295065b"
  },
  {
    "id": "3eb8eda5-6b8e-41c9-b0d7-14aaf954ebcc",
    "name": "Wittnau",
    "state_id": "0ae54c16-2e5a-4735-ab01-7f450295065b"
  },
  {
    "id": "120f9de7-d39b-4ec6-ba88-622d5a74aabf",
    "name": "Wohlen",
    "state_id": "0ae54c16-2e5a-4735-ab01-7f450295065b"
  },
  {
    "id": "54f0b352-1d01-4341-a2ac-06510014e4bb",
    "name": "Wölflinswil",
    "state_id": "0ae54c16-2e5a-4735-ab01-7f450295065b"
  },
  {
    "id": "a4e6e4cd-06de-4593-b7c6-084e415c2f9c",
    "name": "Würenlingen",
    "state_id": "0ae54c16-2e5a-4735-ab01-7f450295065b"
  },
  {
    "id": "1d09ba7d-9df8-407d-a90d-af8458f293d3",
    "name": "Würenlos",
    "state_id": "0ae54c16-2e5a-4735-ab01-7f450295065b"
  },
  {
    "id": "687949e3-3838-46ed-920e-1a9278f2e044",
    "name": "Zofingen",
    "state_id": "0ae54c16-2e5a-4735-ab01-7f450295065b"
  }
]