[
  {
    "id": "de092506-74c6-43ba-b866-cf477d412c49",
    "name": "Alastaro",
    "state_id": "0bb6dfcb-6116-4d1c-af93-047d75a1006a"
  },
  {
    "id": "cbdf676a-8617-4a72-ba02-9108bbb08540",
    "name": "Askainen",
    "state_id": "0bb6dfcb-6116-4d1c-af93-047d75a1006a"
  },
  {
    "id": "a31693b8-c176-4759-9926-62a5e117896e",
    "name": "Aura",
    "state_id": "0bb6dfcb-6116-4d1c-af93-047d75a1006a"
  },
  {
    "id": "a3ac9668-0cae-4f83-88e6-44f37d102750",
    "name": "Dragsfjärd",
    "state_id": "0bb6dfcb-6116-4d1c-af93-047d75a1006a"
  },
  {
    "id": "07e97c82-2602-49de-9243-0f4d04039e6c",
    "name": "Halikko",
    "state_id": "0bb6dfcb-6116-4d1c-af93-047d75a1006a"
  },
  {
    "id": "cf4110bc-7fc0-42f1-ac22-bfe630c5a1fa",
    "name": "Houtskär",
    "state_id": "0bb6dfcb-6116-4d1c-af93-047d75a1006a"
  },
  {
    "id": "424e2a9d-d7f3-4c14-b2fb-b816d95cef8d",
    "name": "Iniö",
    "state_id": "0bb6dfcb-6116-4d1c-af93-047d75a1006a"
  },
  {
    "id": "30dc7bd7-976f-48cc-9080-538579cdeee0",
    "name": "Kaarina",
    "state_id": "0bb6dfcb-6116-4d1c-af93-047d75a1006a"
  },
  {
    "id": "277c9a76-7722-46b2-9622-dd5ded467f72",
    "name": "Karinainen",
    "state_id": "0bb6dfcb-6116-4d1c-af93-047d75a1006a"
  },
  {
    "id": "8d07ecae-47eb-4031-930a-4bc72e1ad09d",
    "name": "Kiikala",
    "state_id": "0bb6dfcb-6116-4d1c-af93-047d75a1006a"
  },
  {
    "id": "e25512bb-691b-4a45-9d07-bb4dd1e57f17",
    "name": "Kimito",
    "state_id": "0bb6dfcb-6116-4d1c-af93-047d75a1006a"
  },
  {
    "id": "a6a7b095-d06b-4aea-b08e-af13f2fc16e7",
    "name": "Kisko",
    "state_id": "0bb6dfcb-6116-4d1c-af93-047d75a1006a"
  },
  {
    "id": "45cd6ceb-3825-433b-91a3-9ba7ad9376e4",
    "name": "Kustavi",
    "state_id": "0bb6dfcb-6116-4d1c-af93-047d75a1006a"
  },
  {
    "id": "69cfff2d-28db-46c0-a070-b369c629259e",
    "name": "Kuusjoki",
    "state_id": "0bb6dfcb-6116-4d1c-af93-047d75a1006a"
  },
  {
    "id": "436ede76-ca3c-4ff4-b766-73be179d23e8",
    "name": "Laitila",
    "state_id": "0bb6dfcb-6116-4d1c-af93-047d75a1006a"
  },
  {
    "id": "4e5512b2-01eb-4d2b-a144-cba1825b541f",
    "name": "Lemu",
    "state_id": "0bb6dfcb-6116-4d1c-af93-047d75a1006a"
  },
  {
    "id": "3a43c07e-80c3-49df-88f3-5fd42b7dc340",
    "name": "Lieto",
    "state_id": "0bb6dfcb-6116-4d1c-af93-047d75a1006a"
  },
  {
    "id": "ed452da7-5818-46f6-9583-31b51520d8e0",
    "name": "Marttila",
    "state_id": "0bb6dfcb-6116-4d1c-af93-047d75a1006a"
  },
  {
    "id": "d0de2e1e-6e04-41da-ab1e-e0d286937712",
    "name": "Masku",
    "state_id": "0bb6dfcb-6116-4d1c-af93-047d75a1006a"
  },
  {
    "id": "f6c41386-4ef1-46dc-815c-fa87bd14c437",
    "name": "Mellilä",
    "state_id": "0bb6dfcb-6116-4d1c-af93-047d75a1006a"
  },
  {
    "id": "d80676af-32f2-4b8e-a490-a0f8b9796dc0",
    "name": "Merimasku",
    "state_id": "0bb6dfcb-6116-4d1c-af93-047d75a1006a"
  },
  {
    "id": "4425b00a-e0f2-4665-9ca9-e5410728d8f3",
    "name": "Mietoinen",
    "state_id": "0bb6dfcb-6116-4d1c-af93-047d75a1006a"
  },
  {
    "id": "ba82280c-da31-4408-8c0d-f936212f2d7b",
    "name": "Muurla",
    "state_id": "0bb6dfcb-6116-4d1c-af93-047d75a1006a"
  },
  {
    "id": "09bb3399-de27-442b-a61d-a24162cd58b8",
    "name": "Mynämäki",
    "state_id": "0bb6dfcb-6116-4d1c-af93-047d75a1006a"
  },
  {
    "id": "bf7f13b7-4e96-42e7-bed9-09586fced8ab",
    "name": "Naantali",
    "state_id": "0bb6dfcb-6116-4d1c-af93-047d75a1006a"
  },
  {
    "id": "18e940cf-0815-4b95-b0d3-55eaba45fef9",
    "name": "Nagu",
    "state_id": "0bb6dfcb-6116-4d1c-af93-047d75a1006a"
  },
  {
    "id": "fdcad6dc-a868-4cf9-9eea-2f66582b2e14",
    "name": "Nousiainen",
    "state_id": "0bb6dfcb-6116-4d1c-af93-047d75a1006a"
  },
  {
    "id": "6be2e7bf-8069-4cf7-95c9-302e7796d40c",
    "name": "Oripää",
    "state_id": "0bb6dfcb-6116-4d1c-af93-047d75a1006a"
  },
  {
    "id": "d08ef1e1-9aa7-4184-9b06-1bdd3567bc4c",
    "name": "Paimio",
    "state_id": "0bb6dfcb-6116-4d1c-af93-047d75a1006a"
  },
  {
    "id": "29b584ae-a8af-41e5-a19b-28135e3fd94b",
    "name": "Pargas",
    "state_id": "0bb6dfcb-6116-4d1c-af93-047d75a1006a"
  },
  {
    "id": "04e91b31-e1be-48be-ad7d-5be3dce6d516",
    "name": "Perniö",
    "state_id": "0bb6dfcb-6116-4d1c-af93-047d75a1006a"
  },
  {
    "id": "86c7043e-2372-4811-a2ce-5666ffdd6e6e",
    "name": "Pertteli",
    "state_id": "0bb6dfcb-6116-4d1c-af93-047d75a1006a"
  },
  {
    "id": "50c49ab3-794d-4da0-bfef-419e859c7d84",
    "name": "Piikkiö",
    "state_id": "0bb6dfcb-6116-4d1c-af93-047d75a1006a"
  },
  {
    "id": "8312abaf-b62c-4e93-83e2-7660af0ac28f",
    "name": "Pöytyä",
    "state_id": "0bb6dfcb-6116-4d1c-af93-047d75a1006a"
  },
  {
    "id": "fb1bdf7c-d634-4066-a01d-bd554867f136",
    "name": "Pyhäranta",
    "state_id": "0bb6dfcb-6116-4d1c-af93-047d75a1006a"
  },
  {
    "id": "380f81b2-e540-4bc6-8366-7c4fd74d31d2",
    "name": "Raisio",
    "state_id": "0bb6dfcb-6116-4d1c-af93-047d75a1006a"
  },
  {
    "id": "680be42a-03fd-4e15-acf8-f53defd88516",
    "name": "Rusko",
    "state_id": "0bb6dfcb-6116-4d1c-af93-047d75a1006a"
  },
  {
    "id": "dfba208f-9819-4623-b15f-a7c76d9af71c",
    "name": "Rymättylä",
    "state_id": "0bb6dfcb-6116-4d1c-af93-047d75a1006a"
  },
  {
    "id": "e1ab1108-fc3d-4d3a-90d5-ba1bd8bcf481",
    "name": "Salo",
    "state_id": "0bb6dfcb-6116-4d1c-af93-047d75a1006a"
  },
  {
    "id": "7842f589-46b1-486f-b299-a3bde49385a2",
    "name": "Särkisalo",
    "state_id": "0bb6dfcb-6116-4d1c-af93-047d75a1006a"
  },
  {
    "id": "c19c0db0-81aa-4e4a-b9ae-5ba3e39f83df",
    "name": "Sauvo",
    "state_id": "0bb6dfcb-6116-4d1c-af93-047d75a1006a"
  },
  {
    "id": "d2cb94a2-725b-463c-b8ef-28c3d3129f1f",
    "name": "Somero",
    "state_id": "0bb6dfcb-6116-4d1c-af93-047d75a1006a"
  },
  {
    "id": "eea6b61d-1ca1-477d-bd47-84ea096ea0a2",
    "name": "Suomusjärvi",
    "state_id": "0bb6dfcb-6116-4d1c-af93-047d75a1006a"
  },
  {
    "id": "ada32e9a-7e3f-4f0e-a819-35603a03db69",
    "name": "Taivassalo",
    "state_id": "0bb6dfcb-6116-4d1c-af93-047d75a1006a"
  },
  {
    "id": "c6af6895-e352-4a4e-91a1-875e2f6d79d3",
    "name": "Tarvasjoki",
    "state_id": "0bb6dfcb-6116-4d1c-af93-047d75a1006a"
  },
  {
    "id": "00849005-d1e4-4d49-b3bb-e35aabd25e45",
    "name": "Turku",
    "state_id": "0bb6dfcb-6116-4d1c-af93-047d75a1006a"
  },
  {
    "id": "cb80d8d6-be7a-4e5b-9a2c-b5e62c533f6b",
    "name": "Uusikaupunki",
    "state_id": "0bb6dfcb-6116-4d1c-af93-047d75a1006a"
  },
  {
    "id": "cb64b2f8-89e4-47cf-9dac-60b4ec3a419e",
    "name": "Vahto",
    "state_id": "0bb6dfcb-6116-4d1c-af93-047d75a1006a"
  },
  {
    "id": "89c62869-eaa9-43bb-84c2-9de57fcaceda",
    "name": "Väståboland",
    "state_id": "0bb6dfcb-6116-4d1c-af93-047d75a1006a"
  },
  {
    "id": "0e288505-c1b6-4fe6-b354-c0f75697f4ac",
    "name": "Västanfjärd",
    "state_id": "0bb6dfcb-6116-4d1c-af93-047d75a1006a"
  },
  {
    "id": "b3bb4498-4086-4c52-bada-6e02c88258e0",
    "name": "Vehmaa",
    "state_id": "0bb6dfcb-6116-4d1c-af93-047d75a1006a"
  },
  {
    "id": "aa66a20c-f26f-4a17-8f19-9ec1b6b887a1",
    "name": "Velkua",
    "state_id": "0bb6dfcb-6116-4d1c-af93-047d75a1006a"
  },
  {
    "id": "6dab47ea-ebd8-414e-8eb7-205b5e77f3af",
    "name": "Yläne",
    "state_id": "0bb6dfcb-6116-4d1c-af93-047d75a1006a"
  }
]