[
  {
    "id": "5fe48f9b-4eee-47c6-8c56-79d75f24455a",
    "name": "Akdeniz",
    "state_id": "0cb3537c-a1a9-4dde-bf32-6e2c01bcc8da"
  },
  {
    "id": "cf756e10-4fe9-4e2b-8099-7f68b92393cd",
    "name": "Akdere",
    "state_id": "0cb3537c-a1a9-4dde-bf32-6e2c01bcc8da"
  },
  {
    "id": "734071dd-9b05-4495-8570-a5ad9cac5c85",
    "name": "Anamur",
    "state_id": "0cb3537c-a1a9-4dde-bf32-6e2c01bcc8da"
  },
  {
    "id": "834e294d-0ba0-47ec-89f6-e083849ee51b",
    "name": "Aydıncık",
    "state_id": "0cb3537c-a1a9-4dde-bf32-6e2c01bcc8da"
  },
  {
    "id": "0348b301-b5ec-469b-ae3f-b93075bc530e",
    "name": "Bozyazı",
    "state_id": "0cb3537c-a1a9-4dde-bf32-6e2c01bcc8da"
  },
  {
    "id": "55b43875-d9d8-4d53-82dd-39007e3babb9",
    "name": "Çamlıyayla İlçesi",
    "state_id": "0cb3537c-a1a9-4dde-bf32-6e2c01bcc8da"
  },
  {
    "id": "5797a415-24fc-4f89-9bd2-1512ad89e5d5",
    "name": "Elvanlı",
    "state_id": "0cb3537c-a1a9-4dde-bf32-6e2c01bcc8da"
  },
  {
    "id": "77b1b5c5-c7c7-4039-beef-265b047c8a69",
    "name": "Erdemli",
    "state_id": "0cb3537c-a1a9-4dde-bf32-6e2c01bcc8da"
  },
  {
    "id": "e3d90926-a2d1-4b94-8fad-403716747063",
    "name": "Gülnar",
    "state_id": "0cb3537c-a1a9-4dde-bf32-6e2c01bcc8da"
  },
  {
    "id": "a10ae364-b7b1-4f74-95fb-16c927906dca",
    "name": "Kocahasanlı",
    "state_id": "0cb3537c-a1a9-4dde-bf32-6e2c01bcc8da"
  },
  {
    "id": "1c03b038-0d8b-43a3-b9f9-57b5029dfa8a",
    "name": "Mersin",
    "state_id": "0cb3537c-a1a9-4dde-bf32-6e2c01bcc8da"
  },
  {
    "id": "455e3f8c-7857-4968-a028-ac6f404fc880",
    "name": "Mezitli İlçesi",
    "state_id": "0cb3537c-a1a9-4dde-bf32-6e2c01bcc8da"
  },
  {
    "id": "986c2042-280d-42b4-b472-1847632d8ff8",
    "name": "Mut",
    "state_id": "0cb3537c-a1a9-4dde-bf32-6e2c01bcc8da"
  },
  {
    "id": "d85937a1-58df-4684-a03c-40c3bc9d3e43",
    "name": "Pınarbaşı",
    "state_id": "0cb3537c-a1a9-4dde-bf32-6e2c01bcc8da"
  },
  {
    "id": "36225709-ad81-4b4c-baa9-ff12b50a0fb4",
    "name": "Silifke",
    "state_id": "0cb3537c-a1a9-4dde-bf32-6e2c01bcc8da"
  },
  {
    "id": "c38ffb7f-01a0-495e-a40f-98c9609c83fd",
    "name": "Tarsus",
    "state_id": "0cb3537c-a1a9-4dde-bf32-6e2c01bcc8da"
  },
  {
    "id": "d8be7142-a162-4eb8-8361-c5406d215449",
    "name": "Toroslar",
    "state_id": "0cb3537c-a1a9-4dde-bf32-6e2c01bcc8da"
  },
  {
    "id": "a227b6de-6a86-449e-8efa-780ae9a07e45",
    "name": "Yenişehir",
    "state_id": "0cb3537c-a1a9-4dde-bf32-6e2c01bcc8da"
  }
]