[
  {
    "id": "26fa3023-4fce-4980-9103-e655b30cdd79",
    "name": "Haffouz",
    "state_id": "0cd2244c-b486-4de7-94b2-c4c0f6c730b7"
  },
  {
    "id": "50fbf248-3ffd-4e89-a563-53185235f8c8",
    "name": "Kairouan",
    "state_id": "0cd2244c-b486-4de7-94b2-c4c0f6c730b7"
  },
  {
    "id": "3a0b85da-9f83-483e-96c6-aaa27c377895",
    "name": "Sbikha",
    "state_id": "0cd2244c-b486-4de7-94b2-c4c0f6c730b7"
  }
]