[
  {
    "id": "cf78179e-f66a-40d1-ab11-1500b940da9b",
    "name": "Abatiá",
    "state_id": "0cf9b512-1def-4caf-b083-12c70578482e"
  },
  {
    "id": "0c949bec-a4cc-49e8-90fb-0932833b4bad",
    "name": "Adrianópolis",
    "state_id": "0cf9b512-1def-4caf-b083-12c70578482e"
  },
  {
    "id": "35c76839-0b39-43a4-a50a-151575aefdea",
    "name": "Agudos do Sul",
    "state_id": "0cf9b512-1def-4caf-b083-12c70578482e"
  },
  {
    "id": "24c640f7-1b9a-4c8e-8f48-06b1fd60c3be",
    "name": "Almirante Tamandaré",
    "state_id": "0cf9b512-1def-4caf-b083-12c70578482e"
  },
  {
    "id": "68b06523-b402-4b8b-a1d4-1687e44d8646",
    "name": "Altamira do Paraná",
    "state_id": "0cf9b512-1def-4caf-b083-12c70578482e"
  },
  {
    "id": "a0452c59-b332-4524-98a1-44a3c45a352e",
    "name": "Altãnia",
    "state_id": "0cf9b512-1def-4caf-b083-12c70578482e"
  },
  {
    "id": "ca9fa503-dcb6-445a-a801-e5f09df3f4d0",
    "name": "Alto Paraíso",
    "state_id": "0cf9b512-1def-4caf-b083-12c70578482e"
  },
  {
    "id": "3185749a-7a82-4deb-9d4f-c111af37f87e",
    "name": "Alto Paraná",
    "state_id": "0cf9b512-1def-4caf-b083-12c70578482e"
  },
  {
    "id": "aaaaf394-69a6-41da-ab9d-4759e7a0f332",
    "name": "Alto Piquiri",
    "state_id": "0cf9b512-1def-4caf-b083-12c70578482e"
  },
  {
    "id": "0474f5a5-6d5d-4493-a616-7f150355ebdb",
    "name": "Altônia",
    "state_id": "0cf9b512-1def-4caf-b083-12c70578482e"
  },
  {
    "id": "2a3c73f5-4989-4e98-913d-4d75b7268a74",
    "name": "Alvorada do Sul",
    "state_id": "0cf9b512-1def-4caf-b083-12c70578482e"
  },
  {
    "id": "0eb83226-bbd0-4798-8572-bb008075d624",
    "name": "Amaporã",
    "state_id": "0cf9b512-1def-4caf-b083-12c70578482e"
  },
  {
    "id": "21632692-765e-423a-b252-70704743b74a",
    "name": "Ampére",
    "state_id": "0cf9b512-1def-4caf-b083-12c70578482e"
  },
  {
    "id": "ed137e9a-95db-41b7-8813-4c140fde62dd",
    "name": "Anahy",
    "state_id": "0cf9b512-1def-4caf-b083-12c70578482e"
  },
  {
    "id": "a942e2b2-fe65-4de6-b6b3-95ad10112dc3",
    "name": "Andirá",
    "state_id": "0cf9b512-1def-4caf-b083-12c70578482e"
  },
  {
    "id": "266779ba-b99e-4475-8baf-52a27180fe97",
    "name": "Ângulo",
    "state_id": "0cf9b512-1def-4caf-b083-12c70578482e"
  },
  {
    "id": "37280ec3-5722-4430-b322-2874b33a970a",
    "name": "Antonina",
    "state_id": "0cf9b512-1def-4caf-b083-12c70578482e"
  },
  {
    "id": "0629e1ca-d1bd-456f-9af6-2e7d991d17a0",
    "name": "Antônio Olinto",
    "state_id": "0cf9b512-1def-4caf-b083-12c70578482e"
  },
  {
    "id": "79d9b7bd-3f6e-4deb-942b-0c8e1b193f5e",
    "name": "Apucarana",
    "state_id": "0cf9b512-1def-4caf-b083-12c70578482e"
  },
  {
    "id": "7039af20-d36d-44d4-b8d0-f9713320e4ec",
    "name": "Arapongas",
    "state_id": "0cf9b512-1def-4caf-b083-12c70578482e"
  },
  {
    "id": "89a2fdac-6490-4868-8d9f-2633f4615b43",
    "name": "Arapoti",
    "state_id": "0cf9b512-1def-4caf-b083-12c70578482e"
  },
  {
    "id": "d8908468-5a38-484d-b00d-03c7ff6528c3",
    "name": "Arapuã",
    "state_id": "0cf9b512-1def-4caf-b083-12c70578482e"
  },
  {
    "id": "353e4f8c-4516-4018-bd67-753db47092a8",
    "name": "Araruna",
    "state_id": "0cf9b512-1def-4caf-b083-12c70578482e"
  },
  {
    "id": "cc50b82a-4663-4c7a-bfe1-0a85190fa957",
    "name": "Araucária",
    "state_id": "0cf9b512-1def-4caf-b083-12c70578482e"
  },
  {
    "id": "f85f9c16-4b5b-4b43-90b8-c94de54a49f9",
    "name": "Ariranha do Ivaí",
    "state_id": "0cf9b512-1def-4caf-b083-12c70578482e"
  },
  {
    "id": "715db002-bdd9-45e0-825f-e52b2bfc4fce",
    "name": "Assaí",
    "state_id": "0cf9b512-1def-4caf-b083-12c70578482e"
  },
  {
    "id": "b20d0955-a5a8-4e91-966b-1a668359de18",
    "name": "Assis Chateaubriand",
    "state_id": "0cf9b512-1def-4caf-b083-12c70578482e"
  },
  {
    "id": "d9c6beff-470a-4254-b468-d02e4242cbee",
    "name": "Astorga",
    "state_id": "0cf9b512-1def-4caf-b083-12c70578482e"
  },
  {
    "id": "045043d8-c610-4996-9890-960269d6ecf4",
    "name": "Atalaia",
    "state_id": "0cf9b512-1def-4caf-b083-12c70578482e"
  },
  {
    "id": "d3ddf897-1cc9-4fdf-8f7b-86d2c576bcf9",
    "name": "Balsa Nova",
    "state_id": "0cf9b512-1def-4caf-b083-12c70578482e"
  },
  {
    "id": "2e3d584b-12e7-4129-b599-c2716b462c73",
    "name": "Bandeirantes",
    "state_id": "0cf9b512-1def-4caf-b083-12c70578482e"
  },
  {
    "id": "5cb0d1ee-5cbf-40aa-932b-6bd810efd29a",
    "name": "Barbosa Ferraz",
    "state_id": "0cf9b512-1def-4caf-b083-12c70578482e"
  },
  {
    "id": "02e35e97-293e-44df-ba32-1efd55eaa6dc",
    "name": "Barra do Jacaré",
    "state_id": "0cf9b512-1def-4caf-b083-12c70578482e"
  },
  {
    "id": "7b2e2cb6-76d1-41e7-bab8-efcef2c0ac04",
    "name": "Barracão",
    "state_id": "0cf9b512-1def-4caf-b083-12c70578482e"
  },
  {
    "id": "4a81624f-2372-454e-8db1-4c956b62a4d5",
    "name": "Bela Vista da Caroba",
    "state_id": "0cf9b512-1def-4caf-b083-12c70578482e"
  },
  {
    "id": "11138d64-f5e6-4ba6-9d81-80d8fecbd596",
    "name": "Bela Vista do Paraíso",
    "state_id": "0cf9b512-1def-4caf-b083-12c70578482e"
  },
  {
    "id": "eb2fb34f-5134-424b-9f1b-fd4717b880a8",
    "name": "Bituruna",
    "state_id": "0cf9b512-1def-4caf-b083-12c70578482e"
  },
  {
    "id": "2b0670ca-87b2-482d-a487-26e0fd584013",
    "name": "Boa Esperança",
    "state_id": "0cf9b512-1def-4caf-b083-12c70578482e"
  },
  {
    "id": "78fab09c-4a5f-4b1e-8c4b-f776bd04caa6",
    "name": "Boa Esperança do Iguaçu",
    "state_id": "0cf9b512-1def-4caf-b083-12c70578482e"
  },
  {
    "id": "dcdab1d2-8022-4297-9ba1-4ad7fe82a11b",
    "name": "Boa Ventura de São Roque",
    "state_id": "0cf9b512-1def-4caf-b083-12c70578482e"
  },
  {
    "id": "591f221e-6696-40e8-9a24-1ffa40734a50",
    "name": "Boa Vista da Aparecida",
    "state_id": "0cf9b512-1def-4caf-b083-12c70578482e"
  },
  {
    "id": "b68fe64e-0b08-409e-99cb-480dcc13a0bb",
    "name": "Bocaiúva do Sul",
    "state_id": "0cf9b512-1def-4caf-b083-12c70578482e"
  },
  {
    "id": "0120ed65-db4b-4b6b-bf90-c76bc7d5d94e",
    "name": "Bom Jesus do Sul",
    "state_id": "0cf9b512-1def-4caf-b083-12c70578482e"
  },
  {
    "id": "ec332515-198e-4da3-802f-5b242462cb8d",
    "name": "Bom Sucesso",
    "state_id": "0cf9b512-1def-4caf-b083-12c70578482e"
  },
  {
    "id": "7f28757a-d3f2-49d6-b7cb-29adcaa86594",
    "name": "Bom Sucesso do Sul",
    "state_id": "0cf9b512-1def-4caf-b083-12c70578482e"
  },
  {
    "id": "d968a3ff-bfe0-4901-b301-ddd74c2d5504",
    "name": "Borrazópolis",
    "state_id": "0cf9b512-1def-4caf-b083-12c70578482e"
  },
  {
    "id": "48a8574b-4f4f-4cdc-a973-7438e82303f3",
    "name": "Braganey",
    "state_id": "0cf9b512-1def-4caf-b083-12c70578482e"
  },
  {
    "id": "c2dd8ebf-b763-4144-943e-ee3cc43b310d",
    "name": "Brasilândia do Sul",
    "state_id": "0cf9b512-1def-4caf-b083-12c70578482e"
  },
  {
    "id": "4138f925-7a10-414a-81a8-21de5780f785",
    "name": "Cafeara",
    "state_id": "0cf9b512-1def-4caf-b083-12c70578482e"
  },
  {
    "id": "286cd80b-1aa7-4f39-b082-8a68184f5635",
    "name": "Cafelândia",
    "state_id": "0cf9b512-1def-4caf-b083-12c70578482e"
  },
  {
    "id": "5da9bf62-5820-4206-854d-b1d46ba8eaa9",
    "name": "Cafezal do Sul",
    "state_id": "0cf9b512-1def-4caf-b083-12c70578482e"
  },
  {
    "id": "61d5d835-9581-4cea-b10f-2ee2ce104725",
    "name": "Califórnia",
    "state_id": "0cf9b512-1def-4caf-b083-12c70578482e"
  },
  {
    "id": "bcedc0ed-ff10-4084-b81a-283ce22dee99",
    "name": "Cambará",
    "state_id": "0cf9b512-1def-4caf-b083-12c70578482e"
  },
  {
    "id": "818383c2-ba94-4308-a7fa-89560ba5806b",
    "name": "Cambé",
    "state_id": "0cf9b512-1def-4caf-b083-12c70578482e"
  },
  {
    "id": "f74521e2-f30f-4bab-b3c3-569824854534",
    "name": "Cambira",
    "state_id": "0cf9b512-1def-4caf-b083-12c70578482e"
  },
  {
    "id": "14fcf5db-0012-4d0f-bb62-1fdcb1042830",
    "name": "Campina da Lagoa",
    "state_id": "0cf9b512-1def-4caf-b083-12c70578482e"
  },
  {
    "id": "2ecd55af-1ba8-467b-a576-d3b833fae747",
    "name": "Campina do Simão",
    "state_id": "0cf9b512-1def-4caf-b083-12c70578482e"
  },
  {
    "id": "23a9fd83-cb21-4f2e-8faa-0fb38d2fe285",
    "name": "Campina Grande do Sul",
    "state_id": "0cf9b512-1def-4caf-b083-12c70578482e"
  },
  {
    "id": "9e0d864a-9762-40f0-b4bd-0c6ac2edc855",
    "name": "Campo Bonito",
    "state_id": "0cf9b512-1def-4caf-b083-12c70578482e"
  },
  {
    "id": "c83da1f2-f9ee-4460-b8a5-ed7a34f97b35",
    "name": "Campo do Tenente",
    "state_id": "0cf9b512-1def-4caf-b083-12c70578482e"
  },
  {
    "id": "c90c42aa-f3cb-41a1-b772-a716400c67d4",
    "name": "Campo Largo",
    "state_id": "0cf9b512-1def-4caf-b083-12c70578482e"
  },
  {
    "id": "3afe7864-e86b-4074-be12-00e73b5513f4",
    "name": "Campo Magro",
    "state_id": "0cf9b512-1def-4caf-b083-12c70578482e"
  },
  {
    "id": "a70a509d-5337-4d2a-a316-9120277ce19c",
    "name": "Campo Mourão",
    "state_id": "0cf9b512-1def-4caf-b083-12c70578482e"
  },
  {
    "id": "94f7bd38-9c4a-4700-86a9-7b52d0616a93",
    "name": "Cândido de Abreu",
    "state_id": "0cf9b512-1def-4caf-b083-12c70578482e"
  },
  {
    "id": "dfc423aa-c65d-4119-bcfc-965568f43bfa",
    "name": "Candói",
    "state_id": "0cf9b512-1def-4caf-b083-12c70578482e"
  },
  {
    "id": "ed2ad0b3-229c-497f-a4c0-9111c0b348b0",
    "name": "Cantagalo",
    "state_id": "0cf9b512-1def-4caf-b083-12c70578482e"
  },
  {
    "id": "942173ff-31c6-4f84-9e87-2f5f6876fdbb",
    "name": "Capanema",
    "state_id": "0cf9b512-1def-4caf-b083-12c70578482e"
  },
  {
    "id": "154a00a5-7f49-49b4-822b-56e967f2818c",
    "name": "Capitão Leônidas Marques",
    "state_id": "0cf9b512-1def-4caf-b083-12c70578482e"
  },
  {
    "id": "4ca00572-e22f-4cc5-af0a-1c89d722ed4b",
    "name": "Carambeí",
    "state_id": "0cf9b512-1def-4caf-b083-12c70578482e"
  },
  {
    "id": "ddaed172-4863-431d-8385-d214d736452d",
    "name": "Carlópolis",
    "state_id": "0cf9b512-1def-4caf-b083-12c70578482e"
  },
  {
    "id": "ca81fa2a-99b6-42bb-b4bd-17bdfc61ec66",
    "name": "Cascavel",
    "state_id": "0cf9b512-1def-4caf-b083-12c70578482e"
  },
  {
    "id": "6e71cbf7-e77d-4bc5-b4bf-560483648e90",
    "name": "Castro",
    "state_id": "0cf9b512-1def-4caf-b083-12c70578482e"
  },
  {
    "id": "3e35ccf8-ed05-4c6e-a42d-feb0b566b687",
    "name": "Catanduvas",
    "state_id": "0cf9b512-1def-4caf-b083-12c70578482e"
  },
  {
    "id": "de318172-7e7b-4cd8-b479-051685919096",
    "name": "Centenário do Sul",
    "state_id": "0cf9b512-1def-4caf-b083-12c70578482e"
  },
  {
    "id": "49e0c54b-25c5-40c5-902e-00b05994c3d8",
    "name": "Cerro Azul",
    "state_id": "0cf9b512-1def-4caf-b083-12c70578482e"
  },
  {
    "id": "d9e5f02a-5a28-4767-8b37-efeb1293d826",
    "name": "Céu Azul",
    "state_id": "0cf9b512-1def-4caf-b083-12c70578482e"
  },
  {
    "id": "1492f4e7-4a43-4311-b8eb-0c732835bc23",
    "name": "Chopinzinho",
    "state_id": "0cf9b512-1def-4caf-b083-12c70578482e"
  },
  {
    "id": "21307c66-35ad-4a0a-ac7b-e8fd9e096dfa",
    "name": "Cianorte",
    "state_id": "0cf9b512-1def-4caf-b083-12c70578482e"
  },
  {
    "id": "e45d45f3-5e94-42df-a68e-2e2bab061b35",
    "name": "Cidade Gaúcha",
    "state_id": "0cf9b512-1def-4caf-b083-12c70578482e"
  },
  {
    "id": "b87fbc8f-7103-4cbc-a328-e7686a4d8b77",
    "name": "Clevelândia",
    "state_id": "0cf9b512-1def-4caf-b083-12c70578482e"
  },
  {
    "id": "dd485b6f-d89a-453e-b0fc-45035944695e",
    "name": "Colombo",
    "state_id": "0cf9b512-1def-4caf-b083-12c70578482e"
  },
  {
    "id": "b64349eb-d023-4695-ac95-ede235627d4a",
    "name": "Colorado",
    "state_id": "0cf9b512-1def-4caf-b083-12c70578482e"
  },
  {
    "id": "810d6acf-7430-4cd1-873e-f81ff8c9f65f",
    "name": "Congonhinhas",
    "state_id": "0cf9b512-1def-4caf-b083-12c70578482e"
  },
  {
    "id": "3b73d84d-81bd-4bdc-8c4e-36811bac7dbe",
    "name": "Conselheiro Mairinck",
    "state_id": "0cf9b512-1def-4caf-b083-12c70578482e"
  },
  {
    "id": "0b4f7b26-459b-44b4-96fc-efce6e7e9147",
    "name": "Contenda",
    "state_id": "0cf9b512-1def-4caf-b083-12c70578482e"
  },
  {
    "id": "541f1b9d-684c-4ca7-bd9c-72df5b7e8863",
    "name": "Corbélia",
    "state_id": "0cf9b512-1def-4caf-b083-12c70578482e"
  },
  {
    "id": "ab852dc8-3f7d-447d-9940-348af7611030",
    "name": "Cornélio Procópio",
    "state_id": "0cf9b512-1def-4caf-b083-12c70578482e"
  },
  {
    "id": "db9370a7-7839-43e8-adf3-b614a44e67e8",
    "name": "Coronel Domingos Soares",
    "state_id": "0cf9b512-1def-4caf-b083-12c70578482e"
  },
  {
    "id": "b42179b7-2670-489a-b362-4d85a049f422",
    "name": "Coronel Vivida",
    "state_id": "0cf9b512-1def-4caf-b083-12c70578482e"
  },
  {
    "id": "3543fc95-4e92-4c96-9d62-7f74f4a3785f",
    "name": "Corumbataí do Sul",
    "state_id": "0cf9b512-1def-4caf-b083-12c70578482e"
  },
  {
    "id": "5e567418-c12b-4f62-87ad-018dbb116bb3",
    "name": "Cruz Machado",
    "state_id": "0cf9b512-1def-4caf-b083-12c70578482e"
  },
  {
    "id": "3e7a1980-fe6c-48d3-b30f-f5a714bf20d6",
    "name": "Cruzeiro do Iguaçu",
    "state_id": "0cf9b512-1def-4caf-b083-12c70578482e"
  },
  {
    "id": "7b2b1824-537b-4a5d-82de-2a16229c1053",
    "name": "Cruzeiro do Oeste",
    "state_id": "0cf9b512-1def-4caf-b083-12c70578482e"
  },
  {
    "id": "3078b80f-e8aa-4943-bc48-3df767857a27",
    "name": "Cruzeiro do Sul",
    "state_id": "0cf9b512-1def-4caf-b083-12c70578482e"
  },
  {
    "id": "141ffeb5-ace6-47f5-b8ca-d9fa3dff2436",
    "name": "Cruzmaltina",
    "state_id": "0cf9b512-1def-4caf-b083-12c70578482e"
  },
  {
    "id": "35f82c25-ccc8-440d-98ee-5cdec2989a5c",
    "name": "Curitiba",
    "state_id": "0cf9b512-1def-4caf-b083-12c70578482e"
  },
  {
    "id": "423987c6-3181-41a9-ae86-56a6d700cad5",
    "name": "Curiúva",
    "state_id": "0cf9b512-1def-4caf-b083-12c70578482e"
  },
  {
    "id": "5ba280a0-9c0f-4a22-8b2a-297f6e370295",
    "name": "Diamante d'Oeste",
    "state_id": "0cf9b512-1def-4caf-b083-12c70578482e"
  },
  {
    "id": "79023237-3240-47b8-89e8-465903b65fa7",
    "name": "Diamante do Norte",
    "state_id": "0cf9b512-1def-4caf-b083-12c70578482e"
  },
  {
    "id": "35b22761-95cd-4c07-94d5-b2c1390b693c",
    "name": "Diamante do Sul",
    "state_id": "0cf9b512-1def-4caf-b083-12c70578482e"
  },
  {
    "id": "6dc4cdf9-b36e-4fce-9a7e-e2dafb82da89",
    "name": "Dois Vizinhos",
    "state_id": "0cf9b512-1def-4caf-b083-12c70578482e"
  },
  {
    "id": "e66de7ab-e5c3-447a-a55b-c6bd3bcd6708",
    "name": "Douradina",
    "state_id": "0cf9b512-1def-4caf-b083-12c70578482e"
  },
  {
    "id": "118e9a30-cb6a-483f-93c0-74ed2f6eac6f",
    "name": "Doutor Camargo",
    "state_id": "0cf9b512-1def-4caf-b083-12c70578482e"
  },
  {
    "id": "ceebcb96-e3b3-4ade-97ef-f783b354b163",
    "name": "Doutor Ulysses",
    "state_id": "0cf9b512-1def-4caf-b083-12c70578482e"
  },
  {
    "id": "e6b74a16-e6d6-476c-bd19-7ebc7eaa90f6",
    "name": "Enéas Marques",
    "state_id": "0cf9b512-1def-4caf-b083-12c70578482e"
  },
  {
    "id": "cc8548f7-83c5-47b7-bcce-52b9bf200583",
    "name": "Engenheiro Beltrão",
    "state_id": "0cf9b512-1def-4caf-b083-12c70578482e"
  },
  {
    "id": "c4dd9f5b-1528-48d3-a827-c8dcaa8c1a0f",
    "name": "Entre Rios do Oeste",
    "state_id": "0cf9b512-1def-4caf-b083-12c70578482e"
  },
  {
    "id": "cf733f87-f71e-49fb-9fea-72c5814399af",
    "name": "Esperança Nova",
    "state_id": "0cf9b512-1def-4caf-b083-12c70578482e"
  },
  {
    "id": "c8e47a63-f69f-4eb3-8d1e-d9ae7a5437e6",
    "name": "Espigão Alto do Iguaçu",
    "state_id": "0cf9b512-1def-4caf-b083-12c70578482e"
  },
  {
    "id": "55a21210-022c-4f76-8727-04a89573aae4",
    "name": "Farol",
    "state_id": "0cf9b512-1def-4caf-b083-12c70578482e"
  },
  {
    "id": "50ed3317-a767-4164-8de3-19aa14813934",
    "name": "Faxinal",
    "state_id": "0cf9b512-1def-4caf-b083-12c70578482e"
  },
  {
    "id": "cc4e2b76-b251-4705-ba28-3a28f4529e93",
    "name": "Fazenda Rio Grande",
    "state_id": "0cf9b512-1def-4caf-b083-12c70578482e"
  },
  {
    "id": "7e24434b-2233-4cae-aa97-74c4335d9c5c",
    "name": "Fênix",
    "state_id": "0cf9b512-1def-4caf-b083-12c70578482e"
  },
  {
    "id": "462392b8-c89e-460b-946f-417b778bdfd9",
    "name": "Fernandes Pinheiro",
    "state_id": "0cf9b512-1def-4caf-b083-12c70578482e"
  },
  {
    "id": "f5453d28-4865-49cf-a6a1-173c5b2f8983",
    "name": "Figueira",
    "state_id": "0cf9b512-1def-4caf-b083-12c70578482e"
  },
  {
    "id": "09f0d735-7c7f-4639-aee7-c55ce403edfc",
    "name": "Flor da Serra do Sul",
    "state_id": "0cf9b512-1def-4caf-b083-12c70578482e"
  },
  {
    "id": "b4093db9-b75f-4cfe-b7e9-e4a6728feea1",
    "name": "Floraí",
    "state_id": "0cf9b512-1def-4caf-b083-12c70578482e"
  },
  {
    "id": "56794765-ae05-4493-bf97-ee48b93539c6",
    "name": "Floresta",
    "state_id": "0cf9b512-1def-4caf-b083-12c70578482e"
  },
  {
    "id": "1c4d30bb-f2a7-4b4b-94f5-96896e7b618a",
    "name": "Florestópolis",
    "state_id": "0cf9b512-1def-4caf-b083-12c70578482e"
  },
  {
    "id": "f14b8b9e-087f-4db4-9c16-6945104af958",
    "name": "Flórida",
    "state_id": "0cf9b512-1def-4caf-b083-12c70578482e"
  },
  {
    "id": "493678e3-5ddb-4202-9a37-cb6a103df72b",
    "name": "Formosa do Oeste",
    "state_id": "0cf9b512-1def-4caf-b083-12c70578482e"
  },
  {
    "id": "241ac956-d992-4aff-bc87-d9d1a7949c26",
    "name": "Foz do Iguaçu",
    "state_id": "0cf9b512-1def-4caf-b083-12c70578482e"
  },
  {
    "id": "12403be5-e363-4b61-92c2-69547c36f8a8",
    "name": "Foz do Jordão",
    "state_id": "0cf9b512-1def-4caf-b083-12c70578482e"
  },
  {
    "id": "6f9a7466-8690-4541-be6f-b4d84bea922d",
    "name": "Francisco Alves",
    "state_id": "0cf9b512-1def-4caf-b083-12c70578482e"
  },
  {
    "id": "bc07ff4e-1b23-4778-b364-e579f4836fde",
    "name": "Francisco Beltrão",
    "state_id": "0cf9b512-1def-4caf-b083-12c70578482e"
  },
  {
    "id": "44937830-de46-42d3-9e78-1b1c58ca43d4",
    "name": "General Carneiro",
    "state_id": "0cf9b512-1def-4caf-b083-12c70578482e"
  },
  {
    "id": "5e7160f4-1922-4c9e-b4ed-81bf3d276c55",
    "name": "Godoy Moreira",
    "state_id": "0cf9b512-1def-4caf-b083-12c70578482e"
  },
  {
    "id": "7b7a12aa-74bc-46db-9fa1-8ee67d3f99c3",
    "name": "Goioerê",
    "state_id": "0cf9b512-1def-4caf-b083-12c70578482e"
  },
  {
    "id": "7f547971-28e7-48bc-99af-ffd84fe1b442",
    "name": "Goioxim",
    "state_id": "0cf9b512-1def-4caf-b083-12c70578482e"
  },
  {
    "id": "3c17a00f-42ba-44cb-afe7-af822f06ba33",
    "name": "Grandes Rios",
    "state_id": "0cf9b512-1def-4caf-b083-12c70578482e"
  },
  {
    "id": "d99ead4b-8a5f-4876-b3dd-ff7eb94946c0",
    "name": "Guaíra",
    "state_id": "0cf9b512-1def-4caf-b083-12c70578482e"
  },
  {
    "id": "dc4bdbd5-1871-4298-9ad7-b8fe4795bd0f",
    "name": "Guairaçá",
    "state_id": "0cf9b512-1def-4caf-b083-12c70578482e"
  },
  {
    "id": "8e873d70-e547-4d51-8f85-16a09541f3ad",
    "name": "Guamiranga",
    "state_id": "0cf9b512-1def-4caf-b083-12c70578482e"
  },
  {
    "id": "304d1830-911a-432f-81bb-262d8e6cf0df",
    "name": "Guapirama",
    "state_id": "0cf9b512-1def-4caf-b083-12c70578482e"
  },
  {
    "id": "49293812-fe79-4d41-a3bf-b50cc7d83b14",
    "name": "Guaporema",
    "state_id": "0cf9b512-1def-4caf-b083-12c70578482e"
  },
  {
    "id": "914ec66b-c30e-452a-b854-7cde4ebd8128",
    "name": "Guaraci",
    "state_id": "0cf9b512-1def-4caf-b083-12c70578482e"
  },
  {
    "id": "3f1dd9bf-df31-41b5-9794-94107dc6905e",
    "name": "Guaraniaçu",
    "state_id": "0cf9b512-1def-4caf-b083-12c70578482e"
  },
  {
    "id": "398365e0-9172-46f4-b759-92e5d32cdf55",
    "name": "Guarapuava",
    "state_id": "0cf9b512-1def-4caf-b083-12c70578482e"
  },
  {
    "id": "e586593b-458d-40a4-b359-337ecd619fe8",
    "name": "Guaraqueçaba",
    "state_id": "0cf9b512-1def-4caf-b083-12c70578482e"
  },
  {
    "id": "33739ea5-9da9-43bf-a85d-87fad45e801c",
    "name": "Guaratuba",
    "state_id": "0cf9b512-1def-4caf-b083-12c70578482e"
  },
  {
    "id": "b2a31122-45ad-47c1-a099-afe119018079",
    "name": "Honório Serpa",
    "state_id": "0cf9b512-1def-4caf-b083-12c70578482e"
  },
  {
    "id": "b4328cad-80f7-4da1-8917-be8a98465acb",
    "name": "Ibaiti",
    "state_id": "0cf9b512-1def-4caf-b083-12c70578482e"
  },
  {
    "id": "137fbbd1-3317-4133-8bf1-1249464df204",
    "name": "Ibema",
    "state_id": "0cf9b512-1def-4caf-b083-12c70578482e"
  },
  {
    "id": "98edf674-b85e-461a-8d90-48010fad9409",
    "name": "Ibiporã",
    "state_id": "0cf9b512-1def-4caf-b083-12c70578482e"
  },
  {
    "id": "69e83dee-15cf-4a53-945a-8f0e0ca56ef6",
    "name": "Icaraíma",
    "state_id": "0cf9b512-1def-4caf-b083-12c70578482e"
  },
  {
    "id": "c10bad18-2998-4fdb-b4a7-ccb3f277293d",
    "name": "Iguaraçu",
    "state_id": "0cf9b512-1def-4caf-b083-12c70578482e"
  },
  {
    "id": "e561bf91-bfbe-4bbe-9684-e5d4b570bc54",
    "name": "Iguatu",
    "state_id": "0cf9b512-1def-4caf-b083-12c70578482e"
  },
  {
    "id": "636be262-3eb5-4aa2-8c1d-a69cc3f5ebc1",
    "name": "Imbaú",
    "state_id": "0cf9b512-1def-4caf-b083-12c70578482e"
  },
  {
    "id": "27aa801e-92c6-4e85-956b-5297a6c3e469",
    "name": "Imbituva",
    "state_id": "0cf9b512-1def-4caf-b083-12c70578482e"
  },
  {
    "id": "80b57d18-8264-4739-9624-eb4fa03f5a38",
    "name": "Inácio Martins",
    "state_id": "0cf9b512-1def-4caf-b083-12c70578482e"
  },
  {
    "id": "0a893adb-3c7f-4654-9cbe-d662e83eab01",
    "name": "Inajá",
    "state_id": "0cf9b512-1def-4caf-b083-12c70578482e"
  },
  {
    "id": "69ea0ec5-4b2b-473c-aa42-bfdfca3f1803",
    "name": "Indianópolis",
    "state_id": "0cf9b512-1def-4caf-b083-12c70578482e"
  },
  {
    "id": "f76a0068-45e4-44fe-a3af-7b6b0c308157",
    "name": "Ipiranga",
    "state_id": "0cf9b512-1def-4caf-b083-12c70578482e"
  },
  {
    "id": "686b5111-2076-42c0-9825-a170f1e0bf84",
    "name": "Iporã",
    "state_id": "0cf9b512-1def-4caf-b083-12c70578482e"
  },
  {
    "id": "4604b7e7-d473-4201-90a9-eaa34765182a",
    "name": "Iracema do Oeste",
    "state_id": "0cf9b512-1def-4caf-b083-12c70578482e"
  },
  {
    "id": "9acc9fc3-9aca-4267-a3da-cd561eb8fc51",
    "name": "Irati",
    "state_id": "0cf9b512-1def-4caf-b083-12c70578482e"
  },
  {
    "id": "2437fec4-142a-45c0-abee-af4113268026",
    "name": "Iretama",
    "state_id": "0cf9b512-1def-4caf-b083-12c70578482e"
  },
  {
    "id": "2ff295db-73d9-404b-b3ea-e68941b1dc63",
    "name": "Itaguajé",
    "state_id": "0cf9b512-1def-4caf-b083-12c70578482e"
  },
  {
    "id": "1a6b9496-ee80-4dd6-895e-343d7324d43a",
    "name": "Itaipulândia",
    "state_id": "0cf9b512-1def-4caf-b083-12c70578482e"
  },
  {
    "id": "0b0c85ba-5a08-4d43-9fc2-8d9500032c38",
    "name": "Itambaracá",
    "state_id": "0cf9b512-1def-4caf-b083-12c70578482e"
  },
  {
    "id": "65f968dd-04aa-4264-8740-cd3c44b88d86",
    "name": "Itambé",
    "state_id": "0cf9b512-1def-4caf-b083-12c70578482e"
  },
  {
    "id": "850ace17-e788-47c2-aa24-b90b006909f6",
    "name": "Itapejara d'Oeste",
    "state_id": "0cf9b512-1def-4caf-b083-12c70578482e"
  },
  {
    "id": "e1ead132-d883-409c-8d14-09a87ab373b4",
    "name": "Itaperuçu",
    "state_id": "0cf9b512-1def-4caf-b083-12c70578482e"
  },
  {
    "id": "c879ad7e-45cf-4048-be32-8d96c7070f94",
    "name": "Itaúna do Sul",
    "state_id": "0cf9b512-1def-4caf-b083-12c70578482e"
  },
  {
    "id": "72bd43d7-db34-47d6-bb2b-2aea225cae9b",
    "name": "Ivaí",
    "state_id": "0cf9b512-1def-4caf-b083-12c70578482e"
  },
  {
    "id": "f9ce5164-e58a-4940-aca8-5095fac56007",
    "name": "Ivaiporã",
    "state_id": "0cf9b512-1def-4caf-b083-12c70578482e"
  },
  {
    "id": "7ebd5f96-a000-4118-b10b-e01f9a3e53ce",
    "name": "Ivaté",
    "state_id": "0cf9b512-1def-4caf-b083-12c70578482e"
  },
  {
    "id": "f4a54a13-7168-468e-832b-610dc16ca1ae",
    "name": "Ivatuba",
    "state_id": "0cf9b512-1def-4caf-b083-12c70578482e"
  },
  {
    "id": "2f3fdd6d-071f-4423-bc6e-612cecb9e813",
    "name": "Jaboti",
    "state_id": "0cf9b512-1def-4caf-b083-12c70578482e"
  },
  {
    "id": "ddc160ab-c7fa-4e10-b749-2ace8efbff4b",
    "name": "Jacarezinho",
    "state_id": "0cf9b512-1def-4caf-b083-12c70578482e"
  },
  {
    "id": "b8e4fb83-9012-490b-8f2a-39064408f82f",
    "name": "Jaguapitã",
    "state_id": "0cf9b512-1def-4caf-b083-12c70578482e"
  },
  {
    "id": "58a91480-a6a4-47c8-acac-e146948f8026",
    "name": "Jaguariaíva",
    "state_id": "0cf9b512-1def-4caf-b083-12c70578482e"
  },
  {
    "id": "7207bc96-ed79-4025-8bc1-bf1445c3cff1",
    "name": "Jandaia do Sul",
    "state_id": "0cf9b512-1def-4caf-b083-12c70578482e"
  },
  {
    "id": "7bef6fb1-17ff-4104-b1c7-54a68e852a61",
    "name": "Janiópolis",
    "state_id": "0cf9b512-1def-4caf-b083-12c70578482e"
  },
  {
    "id": "e6e7a591-07dc-412c-9b2d-0d2ab7ae6aa1",
    "name": "Japira",
    "state_id": "0cf9b512-1def-4caf-b083-12c70578482e"
  },
  {
    "id": "e4d2ddd4-8d28-4a3c-aef6-3e8d419b856c",
    "name": "Japurá",
    "state_id": "0cf9b512-1def-4caf-b083-12c70578482e"
  },
  {
    "id": "1a28d5d6-1490-4e06-a57b-811d232c4b9e",
    "name": "Jardim Alegre",
    "state_id": "0cf9b512-1def-4caf-b083-12c70578482e"
  },
  {
    "id": "8ffd6165-8134-484e-b6d6-f824f1828bf5",
    "name": "Jardim Olinda",
    "state_id": "0cf9b512-1def-4caf-b083-12c70578482e"
  },
  {
    "id": "9714e3c7-9582-4bb4-8fc8-2c9d88cecad4",
    "name": "Jataizinho",
    "state_id": "0cf9b512-1def-4caf-b083-12c70578482e"
  },
  {
    "id": "636d38da-f933-437c-a7fc-91df052f4315",
    "name": "Jesuítas",
    "state_id": "0cf9b512-1def-4caf-b083-12c70578482e"
  },
  {
    "id": "ec89fea1-fee9-4b25-86bf-be68a85bdf11",
    "name": "Joaquim Távora",
    "state_id": "0cf9b512-1def-4caf-b083-12c70578482e"
  },
  {
    "id": "d14a2b58-d959-4c7b-b7a6-6a70bc19259d",
    "name": "Jundiaí do Sul",
    "state_id": "0cf9b512-1def-4caf-b083-12c70578482e"
  },
  {
    "id": "f09d9731-0c04-41fc-b70f-f8119ac66162",
    "name": "Juranda",
    "state_id": "0cf9b512-1def-4caf-b083-12c70578482e"
  },
  {
    "id": "4da90be7-c717-45a1-af99-1b642100383f",
    "name": "Jussara",
    "state_id": "0cf9b512-1def-4caf-b083-12c70578482e"
  },
  {
    "id": "02353889-0c6f-49fa-b736-4c1c0537c0d5",
    "name": "Kaloré",
    "state_id": "0cf9b512-1def-4caf-b083-12c70578482e"
  },
  {
    "id": "e076f321-f643-4550-95e4-3dca6fcf8191",
    "name": "Lapa",
    "state_id": "0cf9b512-1def-4caf-b083-12c70578482e"
  },
  {
    "id": "1f8dce7a-13bb-484b-8918-80e6ebe1dd51",
    "name": "Laranjal",
    "state_id": "0cf9b512-1def-4caf-b083-12c70578482e"
  },
  {
    "id": "7dc0e2e0-bb1a-4d08-9e43-e1673e0dd5d9",
    "name": "Laranjeiras do Sul",
    "state_id": "0cf9b512-1def-4caf-b083-12c70578482e"
  },
  {
    "id": "b99860dd-0360-4562-bb4a-4b5abba0d2bc",
    "name": "Leópolis",
    "state_id": "0cf9b512-1def-4caf-b083-12c70578482e"
  },
  {
    "id": "2a63b273-0672-4778-8d3e-628ed943cf23",
    "name": "Lidianópolis",
    "state_id": "0cf9b512-1def-4caf-b083-12c70578482e"
  },
  {
    "id": "ba86ac6d-9a4f-4704-9dd0-a6bccd81979e",
    "name": "Lindoeste",
    "state_id": "0cf9b512-1def-4caf-b083-12c70578482e"
  },
  {
    "id": "34e5803d-264e-43a0-b588-29920cb591b2",
    "name": "Loanda",
    "state_id": "0cf9b512-1def-4caf-b083-12c70578482e"
  },
  {
    "id": "1717839c-3bcd-4f00-a0af-f3afc243305e",
    "name": "Lobato",
    "state_id": "0cf9b512-1def-4caf-b083-12c70578482e"
  },
  {
    "id": "f6a761be-b89f-4368-9b05-9fbe0d3512f1",
    "name": "Londrina",
    "state_id": "0cf9b512-1def-4caf-b083-12c70578482e"
  },
  {
    "id": "fdde3d2d-0320-4b22-8055-a95711c0e711",
    "name": "Luiziana",
    "state_id": "0cf9b512-1def-4caf-b083-12c70578482e"
  },
  {
    "id": "b0c2d4df-7a1b-47a0-95a7-46c5b8a3b7f7",
    "name": "Lunardelli",
    "state_id": "0cf9b512-1def-4caf-b083-12c70578482e"
  },
  {
    "id": "9cf27a47-c6b9-4c3a-98a4-50f1805191f8",
    "name": "Lupionópolis",
    "state_id": "0cf9b512-1def-4caf-b083-12c70578482e"
  },
  {
    "id": "f6c5a00c-25c1-43ed-ae49-f5b54d123263",
    "name": "Mallet",
    "state_id": "0cf9b512-1def-4caf-b083-12c70578482e"
  },
  {
    "id": "95d28b0c-9a01-4c1d-9ccb-98a8a55a9103",
    "name": "Mamborê",
    "state_id": "0cf9b512-1def-4caf-b083-12c70578482e"
  },
  {
    "id": "bf314f3e-ca43-44c0-91d5-4f45b1981f04",
    "name": "Mandaguaçu",
    "state_id": "0cf9b512-1def-4caf-b083-12c70578482e"
  },
  {
    "id": "f91e6528-affe-43d0-b66b-173ad3a47a01",
    "name": "Mandaguari",
    "state_id": "0cf9b512-1def-4caf-b083-12c70578482e"
  },
  {
    "id": "c8a327ff-4623-4a39-b8de-05a539ef0c8b",
    "name": "Mandirituba",
    "state_id": "0cf9b512-1def-4caf-b083-12c70578482e"
  },
  {
    "id": "acf36d14-5428-4077-8b6f-20fcfe58880d",
    "name": "Manfrinópolis",
    "state_id": "0cf9b512-1def-4caf-b083-12c70578482e"
  },
  {
    "id": "2d75e43d-a8f7-4c2d-a2cf-ffba2ead78a0",
    "name": "Mangueirinha",
    "state_id": "0cf9b512-1def-4caf-b083-12c70578482e"
  },
  {
    "id": "a87723a5-8545-492e-990b-843111701cff",
    "name": "Manoel Ribas",
    "state_id": "0cf9b512-1def-4caf-b083-12c70578482e"
  },
  {
    "id": "f89022b2-55ef-4b2a-abfb-06167e2a6763",
    "name": "Marechal Cândido Rondon",
    "state_id": "0cf9b512-1def-4caf-b083-12c70578482e"
  },
  {
    "id": "00458164-dc0c-41f8-8837-82980a097bac",
    "name": "Maria Helena",
    "state_id": "0cf9b512-1def-4caf-b083-12c70578482e"
  },
  {
    "id": "ab01f02c-fe37-4673-9c6c-387442c67ec6",
    "name": "Marialva",
    "state_id": "0cf9b512-1def-4caf-b083-12c70578482e"
  },
  {
    "id": "d60382aa-473d-4e6a-b91a-a4ba93b912f1",
    "name": "Marilândia do Sul",
    "state_id": "0cf9b512-1def-4caf-b083-12c70578482e"
  },
  {
    "id": "f107abb0-3c67-45ba-83c7-3f68ae6e8308",
    "name": "Marilena",
    "state_id": "0cf9b512-1def-4caf-b083-12c70578482e"
  },
  {
    "id": "03a56add-d6a0-401f-b5fd-0af8754664b2",
    "name": "Mariluz",
    "state_id": "0cf9b512-1def-4caf-b083-12c70578482e"
  },
  {
    "id": "cc3afb49-491d-4493-84b5-23524fa464ea",
    "name": "Maringá",
    "state_id": "0cf9b512-1def-4caf-b083-12c70578482e"
  },
  {
    "id": "13b5eafe-852b-4144-b3b4-1968992790de",
    "name": "Mariópolis",
    "state_id": "0cf9b512-1def-4caf-b083-12c70578482e"
  },
  {
    "id": "c702c31e-b453-4340-8496-24bd33021582",
    "name": "Maripá",
    "state_id": "0cf9b512-1def-4caf-b083-12c70578482e"
  },
  {
    "id": "8931780d-8b95-46a7-b1d5-ae144200d9d6",
    "name": "Marmeleiro",
    "state_id": "0cf9b512-1def-4caf-b083-12c70578482e"
  },
  {
    "id": "0cef0784-1d54-4d38-b59c-42381bf93457",
    "name": "Marquinho",
    "state_id": "0cf9b512-1def-4caf-b083-12c70578482e"
  },
  {
    "id": "2b092c0e-a5dd-48f4-9379-01dd1f2e6c4a",
    "name": "Marumbi",
    "state_id": "0cf9b512-1def-4caf-b083-12c70578482e"
  },
  {
    "id": "77087156-2348-4548-833e-979220c0600c",
    "name": "Matelândia",
    "state_id": "0cf9b512-1def-4caf-b083-12c70578482e"
  },
  {
    "id": "c54ac186-e866-421d-b305-63b7e526e510",
    "name": "Matinhos",
    "state_id": "0cf9b512-1def-4caf-b083-12c70578482e"
  },
  {
    "id": "2c719241-0494-43e7-9ff0-4f306b475c95",
    "name": "Mato Rico",
    "state_id": "0cf9b512-1def-4caf-b083-12c70578482e"
  },
  {
    "id": "f1a0e576-7016-42d8-bbb5-848f11bc8f9e",
    "name": "Mauá da Serra",
    "state_id": "0cf9b512-1def-4caf-b083-12c70578482e"
  },
  {
    "id": "59ceadbe-df22-4fc0-a3fe-cc4c265f5500",
    "name": "Medianeira",
    "state_id": "0cf9b512-1def-4caf-b083-12c70578482e"
  },
  {
    "id": "c993c8cf-db08-4c8c-b4d9-c986966a4bb7",
    "name": "Mercedes",
    "state_id": "0cf9b512-1def-4caf-b083-12c70578482e"
  },
  {
    "id": "f17d1310-b2a2-4b1e-bf1e-07e9ba0afdd1",
    "name": "Mirador",
    "state_id": "0cf9b512-1def-4caf-b083-12c70578482e"
  },
  {
    "id": "927a5c72-a389-4027-8d80-f6325f67b140",
    "name": "Miraselva",
    "state_id": "0cf9b512-1def-4caf-b083-12c70578482e"
  },
  {
    "id": "3372b798-c2ea-428a-8545-695533e0ac4d",
    "name": "Missal",
    "state_id": "0cf9b512-1def-4caf-b083-12c70578482e"
  },
  {
    "id": "54822bf9-ae7c-4a65-8155-ebbb8926a4e0",
    "name": "Moreira Sales",
    "state_id": "0cf9b512-1def-4caf-b083-12c70578482e"
  },
  {
    "id": "b6d6bafa-81ac-4394-ab15-872e956ca300",
    "name": "Morretes",
    "state_id": "0cf9b512-1def-4caf-b083-12c70578482e"
  },
  {
    "id": "05843817-198e-4ec4-aae1-fc403456d56d",
    "name": "Munhoz de Melo",
    "state_id": "0cf9b512-1def-4caf-b083-12c70578482e"
  },
  {
    "id": "b387adc8-ad6e-4a09-9269-96f6002e8ac2",
    "name": "Nossa Senhora das Graças",
    "state_id": "0cf9b512-1def-4caf-b083-12c70578482e"
  },
  {
    "id": "69fed3d4-18b0-4bb2-882b-715e4d2f63a3",
    "name": "Nova Aliança do Ivaí",
    "state_id": "0cf9b512-1def-4caf-b083-12c70578482e"
  },
  {
    "id": "882ce180-a1e3-49bc-8d64-6573511772fc",
    "name": "Nova América da Colina",
    "state_id": "0cf9b512-1def-4caf-b083-12c70578482e"
  },
  {
    "id": "a8bb835a-b4fe-4f86-8b9f-93ecf25bfce3",
    "name": "Nova Aurora",
    "state_id": "0cf9b512-1def-4caf-b083-12c70578482e"
  },
  {
    "id": "b95bcb32-1ca1-4935-af4f-26f62534cf36",
    "name": "Nova Cantu",
    "state_id": "0cf9b512-1def-4caf-b083-12c70578482e"
  },
  {
    "id": "fc430feb-4d2e-431e-98e9-9b05c2c387d6",
    "name": "Nova Esperança",
    "state_id": "0cf9b512-1def-4caf-b083-12c70578482e"
  },
  {
    "id": "97d48da4-0b26-4d11-b8cb-875a9f1904c8",
    "name": "Nova Esperança do Sudoeste",
    "state_id": "0cf9b512-1def-4caf-b083-12c70578482e"
  },
  {
    "id": "8d7b0f8c-04d3-44c0-80ea-caf9519d4b6f",
    "name": "Nova Fátima",
    "state_id": "0cf9b512-1def-4caf-b083-12c70578482e"
  },
  {
    "id": "649f5c57-77d1-4358-9ec5-f786ecb4d41e",
    "name": "Nova Laranjeiras",
    "state_id": "0cf9b512-1def-4caf-b083-12c70578482e"
  },
  {
    "id": "5d1839f1-c620-4e12-b363-72e5afa3f74f",
    "name": "Nova Londrina",
    "state_id": "0cf9b512-1def-4caf-b083-12c70578482e"
  },
  {
    "id": "ee2260ce-7e6c-4339-b5a5-9be98e03d78a",
    "name": "Nova Olímpia",
    "state_id": "0cf9b512-1def-4caf-b083-12c70578482e"
  },
  {
    "id": "2c285a44-4b29-4f02-a007-0ec41ba21ac8",
    "name": "Nova Prata do Iguaçu",
    "state_id": "0cf9b512-1def-4caf-b083-12c70578482e"
  },
  {
    "id": "dd179395-66fb-474c-afbc-3305ef12ef3d",
    "name": "Nova Santa Bárbara",
    "state_id": "0cf9b512-1def-4caf-b083-12c70578482e"
  },
  {
    "id": "a797bccf-4d35-4d40-aaef-8a35eaf4dcee",
    "name": "Nova Santa Rosa",
    "state_id": "0cf9b512-1def-4caf-b083-12c70578482e"
  },
  {
    "id": "64398638-c906-4637-9fc6-af815f93487a",
    "name": "Nova Tebas",
    "state_id": "0cf9b512-1def-4caf-b083-12c70578482e"
  },
  {
    "id": "2883504e-b511-4c31-b7ae-5b71789217f3",
    "name": "Novo Itacolomi",
    "state_id": "0cf9b512-1def-4caf-b083-12c70578482e"
  },
  {
    "id": "f5f05892-4ff6-4fa6-8188-47a9aff7ced7",
    "name": "Ortigueira",
    "state_id": "0cf9b512-1def-4caf-b083-12c70578482e"
  },
  {
    "id": "e510b86c-e827-48b0-bdb5-53302de22401",
    "name": "Ourizona",
    "state_id": "0cf9b512-1def-4caf-b083-12c70578482e"
  },
  {
    "id": "961f4111-a898-47be-87f8-1fa0b5b1a668",
    "name": "Ouro Verde do Oeste",
    "state_id": "0cf9b512-1def-4caf-b083-12c70578482e"
  },
  {
    "id": "1ca6115b-9659-4afa-9e34-982aece756f5",
    "name": "Paiçandu",
    "state_id": "0cf9b512-1def-4caf-b083-12c70578482e"
  },
  {
    "id": "b447059b-18d6-4002-a9ce-49e675ca37b6",
    "name": "Palmas",
    "state_id": "0cf9b512-1def-4caf-b083-12c70578482e"
  },
  {
    "id": "b7758c7e-5c33-4be4-a11a-a3362c0a3746",
    "name": "Palmeira",
    "state_id": "0cf9b512-1def-4caf-b083-12c70578482e"
  },
  {
    "id": "d015e2e6-df39-4a90-9340-b485265e7085",
    "name": "Palmital",
    "state_id": "0cf9b512-1def-4caf-b083-12c70578482e"
  },
  {
    "id": "ed4e972f-207c-4a15-ba18-90074cd8edb1",
    "name": "Palotina",
    "state_id": "0cf9b512-1def-4caf-b083-12c70578482e"
  },
  {
    "id": "c4007c44-ca3c-4931-8d7c-0f53951de238",
    "name": "Paraíso do Norte",
    "state_id": "0cf9b512-1def-4caf-b083-12c70578482e"
  },
  {
    "id": "c660a415-5baf-48bf-b2cd-c0124f347598",
    "name": "Paranacity",
    "state_id": "0cf9b512-1def-4caf-b083-12c70578482e"
  },
  {
    "id": "ed7e697c-6bfe-492b-b375-da76b0670d6a",
    "name": "Paranaguá",
    "state_id": "0cf9b512-1def-4caf-b083-12c70578482e"
  },
  {
    "id": "f96e17e2-74c5-4acb-bc14-d9c9cb9ebc40",
    "name": "Paranapoema",
    "state_id": "0cf9b512-1def-4caf-b083-12c70578482e"
  },
  {
    "id": "ed2f922e-97e9-4c91-99f4-74c9ad250ce3",
    "name": "Paranavaí",
    "state_id": "0cf9b512-1def-4caf-b083-12c70578482e"
  },
  {
    "id": "dd6b341f-76d8-4605-976e-b2659a07f8d0",
    "name": "Pato Bragado",
    "state_id": "0cf9b512-1def-4caf-b083-12c70578482e"
  },
  {
    "id": "e6ca1dfc-1b8d-4bb9-ae6f-481266b0b5aa",
    "name": "Pato Branco",
    "state_id": "0cf9b512-1def-4caf-b083-12c70578482e"
  },
  {
    "id": "53548959-33f4-4713-8ba1-9d892dea9b49",
    "name": "Paula Freitas",
    "state_id": "0cf9b512-1def-4caf-b083-12c70578482e"
  },
  {
    "id": "bfeaed74-6d3c-4b6a-ae51-010bbc99cf61",
    "name": "Paulo Frontin",
    "state_id": "0cf9b512-1def-4caf-b083-12c70578482e"
  },
  {
    "id": "0e6d9db7-d9b6-4062-9c59-25fbf5527fe1",
    "name": "Peabiru",
    "state_id": "0cf9b512-1def-4caf-b083-12c70578482e"
  },
  {
    "id": "7b789be4-eab2-4da9-94f7-95665cc84d44",
    "name": "Perobal",
    "state_id": "0cf9b512-1def-4caf-b083-12c70578482e"
  },
  {
    "id": "e4de325b-db5a-478b-8670-800aabb2dc0e",
    "name": "Pérola",
    "state_id": "0cf9b512-1def-4caf-b083-12c70578482e"
  },
  {
    "id": "ca19bfe3-b3ec-4aad-993a-c10132bab70c",
    "name": "Pérola d'Oeste",
    "state_id": "0cf9b512-1def-4caf-b083-12c70578482e"
  },
  {
    "id": "c104ad0e-2d5c-4a98-ae06-71593b3ec6a6",
    "name": "Piên",
    "state_id": "0cf9b512-1def-4caf-b083-12c70578482e"
  },
  {
    "id": "13379944-2004-4696-9dbc-7c19f0bfbe47",
    "name": "Pinhais",
    "state_id": "0cf9b512-1def-4caf-b083-12c70578482e"
  },
  {
    "id": "362f25ff-c020-4883-92ba-7d75fad6ab4b",
    "name": "Pinhal de São Bento",
    "state_id": "0cf9b512-1def-4caf-b083-12c70578482e"
  },
  {
    "id": "cc7b813a-1cfe-4f71-ae2d-eceaf4651184",
    "name": "Pinhalão",
    "state_id": "0cf9b512-1def-4caf-b083-12c70578482e"
  },
  {
    "id": "0b2c4224-09e7-4c96-ae7c-2ef2a1b16588",
    "name": "Pinhão",
    "state_id": "0cf9b512-1def-4caf-b083-12c70578482e"
  },
  {
    "id": "c6924875-38eb-4e8f-983a-9b911bf5d207",
    "name": "Piraí do Sul",
    "state_id": "0cf9b512-1def-4caf-b083-12c70578482e"
  },
  {
    "id": "81475ace-ab4a-4216-a690-837440232ddf",
    "name": "Piraquara",
    "state_id": "0cf9b512-1def-4caf-b083-12c70578482e"
  },
  {
    "id": "cdf60fd7-cf98-4055-9ff2-d65ae03680e6",
    "name": "Pitanga",
    "state_id": "0cf9b512-1def-4caf-b083-12c70578482e"
  },
  {
    "id": "c65ec837-40ff-411c-884d-8772d779efb8",
    "name": "Pitangueiras",
    "state_id": "0cf9b512-1def-4caf-b083-12c70578482e"
  },
  {
    "id": "bbd82df6-752e-41c6-9410-32198b9a2461",
    "name": "Planaltina do Paraná",
    "state_id": "0cf9b512-1def-4caf-b083-12c70578482e"
  },
  {
    "id": "7736913e-e0a5-4593-baa2-c716346069c6",
    "name": "Planalto",
    "state_id": "0cf9b512-1def-4caf-b083-12c70578482e"
  },
  {
    "id": "590754b2-7a9a-4004-b5c9-a19f1dda2b71",
    "name": "Ponta Grossa",
    "state_id": "0cf9b512-1def-4caf-b083-12c70578482e"
  },
  {
    "id": "1e149e61-f86f-4c95-b306-64c1fc0c6a27",
    "name": "Pontal do Paraná",
    "state_id": "0cf9b512-1def-4caf-b083-12c70578482e"
  },
  {
    "id": "3d1e88a1-31b4-4f1e-96c5-2bb09c25bb0b",
    "name": "Porecatu",
    "state_id": "0cf9b512-1def-4caf-b083-12c70578482e"
  },
  {
    "id": "9d4bd5b7-a7e8-4c17-8785-7144b38e4129",
    "name": "Porto Amazonas",
    "state_id": "0cf9b512-1def-4caf-b083-12c70578482e"
  },
  {
    "id": "bdac134c-21cf-45ed-8422-0c08d3ee993c",
    "name": "Porto Barreiro",
    "state_id": "0cf9b512-1def-4caf-b083-12c70578482e"
  },
  {
    "id": "484388da-67c4-4fef-9a9d-338d0bcd24fb",
    "name": "Porto Rico",
    "state_id": "0cf9b512-1def-4caf-b083-12c70578482e"
  },
  {
    "id": "492b972c-1a3b-4f91-8e33-d8d318d49da4",
    "name": "Porto Vitória",
    "state_id": "0cf9b512-1def-4caf-b083-12c70578482e"
  },
  {
    "id": "6f47e1ec-6979-4146-9592-d70c0a160e09",
    "name": "Prado Ferreira",
    "state_id": "0cf9b512-1def-4caf-b083-12c70578482e"
  },
  {
    "id": "13cf32a9-2c8f-488f-bf17-e64e3431cc39",
    "name": "Pranchita",
    "state_id": "0cf9b512-1def-4caf-b083-12c70578482e"
  },
  {
    "id": "63cc352a-eed6-4d14-8301-779d003e86c9",
    "name": "Presidente Castelo Branco",
    "state_id": "0cf9b512-1def-4caf-b083-12c70578482e"
  },
  {
    "id": "1d1b1326-6af6-4e42-8a69-1b033861a96c",
    "name": "Primeiro de Maio",
    "state_id": "0cf9b512-1def-4caf-b083-12c70578482e"
  },
  {
    "id": "dc9063c3-ec7b-4196-84d4-ded19b93e789",
    "name": "Prudentópolis",
    "state_id": "0cf9b512-1def-4caf-b083-12c70578482e"
  },
  {
    "id": "0e6b14af-5a25-42c4-ba63-1010b0141298",
    "name": "Quarto Centenário",
    "state_id": "0cf9b512-1def-4caf-b083-12c70578482e"
  },
  {
    "id": "22fe7490-f0fd-41df-9aab-b536c0f2ca5b",
    "name": "Quatiguá",
    "state_id": "0cf9b512-1def-4caf-b083-12c70578482e"
  },
  {
    "id": "e0226295-ddba-4b6e-9c2f-36284849849c",
    "name": "Quatro Barras",
    "state_id": "0cf9b512-1def-4caf-b083-12c70578482e"
  },
  {
    "id": "e2929550-6a20-4a87-a5e4-3cfe023531a4",
    "name": "Quatro Pontes",
    "state_id": "0cf9b512-1def-4caf-b083-12c70578482e"
  },
  {
    "id": "b7003938-bcf5-423c-95c0-67055ff77b59",
    "name": "Quedas do Iguaçu",
    "state_id": "0cf9b512-1def-4caf-b083-12c70578482e"
  },
  {
    "id": "cbf931e1-7995-4c96-b642-9ea3e3df5a6e",
    "name": "Querência do Norte",
    "state_id": "0cf9b512-1def-4caf-b083-12c70578482e"
  },
  {
    "id": "64750137-160e-4566-b247-99f57ab37946",
    "name": "Quinta do Sol",
    "state_id": "0cf9b512-1def-4caf-b083-12c70578482e"
  },
  {
    "id": "ae0c01d4-cfe6-43c2-a6f9-e152aae8102f",
    "name": "Quitandinha",
    "state_id": "0cf9b512-1def-4caf-b083-12c70578482e"
  },
  {
    "id": "3435751d-ce4b-442c-9ea5-0928c7d5a1c1",
    "name": "Ramilândia",
    "state_id": "0cf9b512-1def-4caf-b083-12c70578482e"
  },
  {
    "id": "0d90e045-3c74-4608-ae16-ce25422624f9",
    "name": "Rancho Alegre",
    "state_id": "0cf9b512-1def-4caf-b083-12c70578482e"
  },
  {
    "id": "90634597-a5b1-463f-ad05-35753230a4e4",
    "name": "Rancho Alegre d'Oeste",
    "state_id": "0cf9b512-1def-4caf-b083-12c70578482e"
  },
  {
    "id": "3404011d-ce63-4e24-863d-9d5caf2411f1",
    "name": "Realeza",
    "state_id": "0cf9b512-1def-4caf-b083-12c70578482e"
  },
  {
    "id": "a8dcf131-fed6-4ee2-a60a-af0c0ffcbdec",
    "name": "Rebouças",
    "state_id": "0cf9b512-1def-4caf-b083-12c70578482e"
  },
  {
    "id": "8d251a49-6b5c-4534-b221-0b4a16b0dac9",
    "name": "Renascença",
    "state_id": "0cf9b512-1def-4caf-b083-12c70578482e"
  },
  {
    "id": "211f0019-d9ca-40bd-9521-d8d1bd16e928",
    "name": "Reserva",
    "state_id": "0cf9b512-1def-4caf-b083-12c70578482e"
  },
  {
    "id": "fcc46f38-31aa-4c4c-9b06-6c9e2151c436",
    "name": "Reserva do Iguaçu",
    "state_id": "0cf9b512-1def-4caf-b083-12c70578482e"
  },
  {
    "id": "1febcc9f-92ae-4eaf-800f-51ca64e119c0",
    "name": "Ribeirão Claro",
    "state_id": "0cf9b512-1def-4caf-b083-12c70578482e"
  },
  {
    "id": "e511c669-8d3d-4b2c-80e1-df507e70a395",
    "name": "Ribeirão do Pinhal",
    "state_id": "0cf9b512-1def-4caf-b083-12c70578482e"
  },
  {
    "id": "2e28cbc9-324c-421c-afd7-ead8ee868f6b",
    "name": "Rio Azul",
    "state_id": "0cf9b512-1def-4caf-b083-12c70578482e"
  },
  {
    "id": "885ff8ff-6259-48bc-82e5-5d7611017a9b",
    "name": "Rio Bom",
    "state_id": "0cf9b512-1def-4caf-b083-12c70578482e"
  },
  {
    "id": "55d54d39-a90c-43e9-a161-6678b3d5895c",
    "name": "Rio Bonito do Iguaçu",
    "state_id": "0cf9b512-1def-4caf-b083-12c70578482e"
  },
  {
    "id": "dfbfa635-10bc-45fd-abed-663dd019a8be",
    "name": "Rio Branco do Ivaí",
    "state_id": "0cf9b512-1def-4caf-b083-12c70578482e"
  },
  {
    "id": "6c8ae847-fa0c-4132-aeb7-3dbbafb801da",
    "name": "Rio Branco do Sul",
    "state_id": "0cf9b512-1def-4caf-b083-12c70578482e"
  },
  {
    "id": "cefa6e7e-f4bb-4b38-ae18-48b6c11052dc",
    "name": "Rio Negro",
    "state_id": "0cf9b512-1def-4caf-b083-12c70578482e"
  },
  {
    "id": "18aad69d-0f0d-48a1-aa96-243c2ef604a9",
    "name": "Rolândia",
    "state_id": "0cf9b512-1def-4caf-b083-12c70578482e"
  },
  {
    "id": "b8a9ff4e-7a95-4159-9e8a-2f1305b9ac1b",
    "name": "Roncador",
    "state_id": "0cf9b512-1def-4caf-b083-12c70578482e"
  },
  {
    "id": "d6e596da-eb83-43fa-bcf8-38f947f11a04",
    "name": "Rondon",
    "state_id": "0cf9b512-1def-4caf-b083-12c70578482e"
  },
  {
    "id": "91d9d781-fe76-411d-b9ca-5d52cbfa4a97",
    "name": "Rosário do Ivaí",
    "state_id": "0cf9b512-1def-4caf-b083-12c70578482e"
  },
  {
    "id": "46eacb50-2cb1-4849-a148-1717c13d45f6",
    "name": "Sabáudia",
    "state_id": "0cf9b512-1def-4caf-b083-12c70578482e"
  },
  {
    "id": "bbe29a8e-b6e3-4951-986d-fc50bd61bd85",
    "name": "Salgado Filho",
    "state_id": "0cf9b512-1def-4caf-b083-12c70578482e"
  },
  {
    "id": "06bb2b8d-7b9a-4aa2-b2cb-6938a4f4fd7b",
    "name": "Salto do Itararé",
    "state_id": "0cf9b512-1def-4caf-b083-12c70578482e"
  },
  {
    "id": "db8ec0f8-68ca-4b62-b669-97279869b73f",
    "name": "Salto do Lontra",
    "state_id": "0cf9b512-1def-4caf-b083-12c70578482e"
  },
  {
    "id": "04127cf3-5b96-4c3f-af1f-fec997ba3abf",
    "name": "Santa Amélia",
    "state_id": "0cf9b512-1def-4caf-b083-12c70578482e"
  },
  {
    "id": "f9d3b5ff-c2f9-4387-bda7-e13a6da57499",
    "name": "Santa Cecília do Pavão",
    "state_id": "0cf9b512-1def-4caf-b083-12c70578482e"
  },
  {
    "id": "82685e73-1315-46dd-a823-5ce600cd27a8",
    "name": "Santa Cruz de Monte Castelo",
    "state_id": "0cf9b512-1def-4caf-b083-12c70578482e"
  },
  {
    "id": "22f575a8-d002-4a83-8550-a3df90b040de",
    "name": "Santa Fé",
    "state_id": "0cf9b512-1def-4caf-b083-12c70578482e"
  },
  {
    "id": "a33ab494-238e-48b0-9e44-457641e88e00",
    "name": "Santa Helena",
    "state_id": "0cf9b512-1def-4caf-b083-12c70578482e"
  },
  {
    "id": "bb206834-bffa-4c03-875f-f9e7bfcbadbb",
    "name": "Santa Inês",
    "state_id": "0cf9b512-1def-4caf-b083-12c70578482e"
  },
  {
    "id": "64f0e709-a7b5-486e-86ea-b82f2c8590e4",
    "name": "Santa Isabel do Ivaí",
    "state_id": "0cf9b512-1def-4caf-b083-12c70578482e"
  },
  {
    "id": "090def46-41e0-43da-b1c5-41b2e10ec01c",
    "name": "Santa Izabel do Oeste",
    "state_id": "0cf9b512-1def-4caf-b083-12c70578482e"
  },
  {
    "id": "6c065564-5b95-4276-b0fa-492dc6993fcf",
    "name": "Santa Lúcia",
    "state_id": "0cf9b512-1def-4caf-b083-12c70578482e"
  },
  {
    "id": "f856cdda-1c59-46c9-bb03-5cbdcd894497",
    "name": "Santa Maria do Oeste",
    "state_id": "0cf9b512-1def-4caf-b083-12c70578482e"
  },
  {
    "id": "b63db654-a718-40c7-ba72-1f0cdfd65602",
    "name": "Santa Mariana",
    "state_id": "0cf9b512-1def-4caf-b083-12c70578482e"
  },
  {
    "id": "ef2dcf33-0c54-4adb-9793-e1d9be95c520",
    "name": "Santa Mônica",
    "state_id": "0cf9b512-1def-4caf-b083-12c70578482e"
  },
  {
    "id": "c87b3490-2947-4833-b9c6-a0726e62b17b",
    "name": "Santa Tereza do Oeste",
    "state_id": "0cf9b512-1def-4caf-b083-12c70578482e"
  },
  {
    "id": "9ac6d854-1e28-41f3-87ba-1485c517f475",
    "name": "Santa Terezinha de Itaipu",
    "state_id": "0cf9b512-1def-4caf-b083-12c70578482e"
  },
  {
    "id": "038d584d-965c-4b04-8133-b9a87a10b051",
    "name": "Santana do Itararé",
    "state_id": "0cf9b512-1def-4caf-b083-12c70578482e"
  },
  {
    "id": "a7e19533-fb1c-4272-b530-32573ccfd41e",
    "name": "Santo Antônio da Platina",
    "state_id": "0cf9b512-1def-4caf-b083-12c70578482e"
  },
  {
    "id": "eab95b8d-4508-4096-88f7-0c7f3182602d",
    "name": "Santo Antônio do Caiuá",
    "state_id": "0cf9b512-1def-4caf-b083-12c70578482e"
  },
  {
    "id": "b7c06658-0d2c-4ec6-92f9-d7e039c46a89",
    "name": "Santo Antônio do Paraíso",
    "state_id": "0cf9b512-1def-4caf-b083-12c70578482e"
  },
  {
    "id": "40c5cd12-1019-4e72-a0ed-be6dceab9c38",
    "name": "Santo Antônio do Sudoeste",
    "state_id": "0cf9b512-1def-4caf-b083-12c70578482e"
  },
  {
    "id": "fd51062d-c9d5-401c-9834-cba606835c34",
    "name": "Santo Inácio",
    "state_id": "0cf9b512-1def-4caf-b083-12c70578482e"
  },
  {
    "id": "484ade35-8889-46f9-b5a3-81b42d78cb8d",
    "name": "São Carlos do Ivaí",
    "state_id": "0cf9b512-1def-4caf-b083-12c70578482e"
  },
  {
    "id": "ecb55561-e198-495f-8ba3-a6f33d2cd28d",
    "name": "São Jerônimo da Serra",
    "state_id": "0cf9b512-1def-4caf-b083-12c70578482e"
  },
  {
    "id": "9ac054ce-5eb4-43ce-bfa6-664c0bf52cbf",
    "name": "São João",
    "state_id": "0cf9b512-1def-4caf-b083-12c70578482e"
  },
  {
    "id": "3e64995b-2271-4f7d-b5e0-adec71ba7a53",
    "name": "São João do Caiuá",
    "state_id": "0cf9b512-1def-4caf-b083-12c70578482e"
  },
  {
    "id": "01357441-eeb1-49d8-a289-f0e28aa795e7",
    "name": "São João do Ivaí",
    "state_id": "0cf9b512-1def-4caf-b083-12c70578482e"
  },
  {
    "id": "ee8008c6-3547-417f-91eb-eadaff0638b4",
    "name": "São João do Triunfo",
    "state_id": "0cf9b512-1def-4caf-b083-12c70578482e"
  },
  {
    "id": "8befb7f4-56ac-4fd0-afcd-d981ac3945d8",
    "name": "São Jorge d'Oeste",
    "state_id": "0cf9b512-1def-4caf-b083-12c70578482e"
  },
  {
    "id": "b88323f4-f99f-45ad-801e-515137c13c81",
    "name": "São Jorge do Ivaí",
    "state_id": "0cf9b512-1def-4caf-b083-12c70578482e"
  },
  {
    "id": "b90be83d-2323-4833-a817-52432d1ddd06",
    "name": "São Jorge do Patrocínio",
    "state_id": "0cf9b512-1def-4caf-b083-12c70578482e"
  },
  {
    "id": "42db322f-0bd8-43a2-99c2-f1489edfec12",
    "name": "São José da Boa Vista",
    "state_id": "0cf9b512-1def-4caf-b083-12c70578482e"
  },
  {
    "id": "0ab53ed1-00f6-436c-869b-53cca9d71cb1",
    "name": "São José das Palmeiras",
    "state_id": "0cf9b512-1def-4caf-b083-12c70578482e"
  },
  {
    "id": "54214dda-a700-4dfb-a730-eeb36c5f2e3d",
    "name": "São José dos Pinhais",
    "state_id": "0cf9b512-1def-4caf-b083-12c70578482e"
  },
  {
    "id": "3f41d6a1-32c0-45b6-b4a8-6ff09e0e9a0c",
    "name": "São Manoel do Paraná",
    "state_id": "0cf9b512-1def-4caf-b083-12c70578482e"
  },
  {
    "id": "ce49a101-e3a1-4515-90f9-54127a16af37",
    "name": "São Mateus do Sul",
    "state_id": "0cf9b512-1def-4caf-b083-12c70578482e"
  },
  {
    "id": "619f5a91-431b-4cf8-a42b-0bb51976299d",
    "name": "São Miguel do Iguaçu",
    "state_id": "0cf9b512-1def-4caf-b083-12c70578482e"
  },
  {
    "id": "0040d03d-c50f-4618-8dfc-508631558511",
    "name": "São Pedro do Iguaçu",
    "state_id": "0cf9b512-1def-4caf-b083-12c70578482e"
  },
  {
    "id": "f901b5c9-a8d7-4fc2-b3b4-7902b9aaed55",
    "name": "São Pedro do Ivaí",
    "state_id": "0cf9b512-1def-4caf-b083-12c70578482e"
  },
  {
    "id": "9fb4d126-b9a0-4101-974c-ff1bf193672e",
    "name": "São Pedro do Paraná",
    "state_id": "0cf9b512-1def-4caf-b083-12c70578482e"
  },
  {
    "id": "ec717805-8b5d-4dc5-816b-895ffe0c6d83",
    "name": "São Sebastião da Amoreira",
    "state_id": "0cf9b512-1def-4caf-b083-12c70578482e"
  },
  {
    "id": "20882915-d67b-45ee-a2f4-df9ae3fffe37",
    "name": "São Tomé",
    "state_id": "0cf9b512-1def-4caf-b083-12c70578482e"
  },
  {
    "id": "0d1c3c24-83bc-48c3-b339-38bd385b0001",
    "name": "Sapopema",
    "state_id": "0cf9b512-1def-4caf-b083-12c70578482e"
  },
  {
    "id": "e9efec8d-0b01-485e-8f5e-8a2bedcc4ab2",
    "name": "Sarandi",
    "state_id": "0cf9b512-1def-4caf-b083-12c70578482e"
  },
  {
    "id": "2652841b-684d-4b14-9bc8-fa3ba9f6b3c6",
    "name": "Saudade do Iguaçu",
    "state_id": "0cf9b512-1def-4caf-b083-12c70578482e"
  },
  {
    "id": "df91490d-45a3-4cc8-890f-4f3253471f90",
    "name": "Sengés",
    "state_id": "0cf9b512-1def-4caf-b083-12c70578482e"
  },
  {
    "id": "dd692d31-cbed-4b49-a4b0-66762a8b6760",
    "name": "Serranópolis do Iguaçu",
    "state_id": "0cf9b512-1def-4caf-b083-12c70578482e"
  },
  {
    "id": "82fe05b9-8162-40ae-9305-52d0c20e4f9e",
    "name": "Sertaneja",
    "state_id": "0cf9b512-1def-4caf-b083-12c70578482e"
  },
  {
    "id": "cf4a55f3-2aa6-4608-8d48-298b37df6dcb",
    "name": "Sertanópolis",
    "state_id": "0cf9b512-1def-4caf-b083-12c70578482e"
  },
  {
    "id": "6e057e86-32e0-44b7-a82b-8a1b2982f81a",
    "name": "Siqueira Campos",
    "state_id": "0cf9b512-1def-4caf-b083-12c70578482e"
  },
  {
    "id": "41e77396-f4eb-430d-a3c9-09227ca13574",
    "name": "Sulina",
    "state_id": "0cf9b512-1def-4caf-b083-12c70578482e"
  },
  {
    "id": "12eb7455-66ff-4f80-b0fc-d1d8b63b6629",
    "name": "Tamarana",
    "state_id": "0cf9b512-1def-4caf-b083-12c70578482e"
  },
  {
    "id": "69f799a4-244d-4d36-be92-8e27b10ab8e9",
    "name": "Tamboara",
    "state_id": "0cf9b512-1def-4caf-b083-12c70578482e"
  },
  {
    "id": "6d54b428-9007-4d99-acb8-ffde75096974",
    "name": "Tapejara",
    "state_id": "0cf9b512-1def-4caf-b083-12c70578482e"
  },
  {
    "id": "9be391bb-170d-4f83-b738-5564ecff3a0e",
    "name": "Tapira",
    "state_id": "0cf9b512-1def-4caf-b083-12c70578482e"
  },
  {
    "id": "9742d873-4b4b-4ef5-acc9-d79dd4f41d18",
    "name": "Teixeira Soares",
    "state_id": "0cf9b512-1def-4caf-b083-12c70578482e"
  },
  {
    "id": "3ea8cea0-3064-40a3-9ee1-dd82511d4e68",
    "name": "Telêmaco Borba",
    "state_id": "0cf9b512-1def-4caf-b083-12c70578482e"
  },
  {
    "id": "f2df8db9-c536-409c-aa81-9e5339d02dde",
    "name": "Terra Boa",
    "state_id": "0cf9b512-1def-4caf-b083-12c70578482e"
  },
  {
    "id": "73689224-3ecc-4ff0-961b-edbbd7e6216e",
    "name": "Terra Rica",
    "state_id": "0cf9b512-1def-4caf-b083-12c70578482e"
  },
  {
    "id": "1d6db1fc-24fe-4bc9-baba-7ca9dd744667",
    "name": "Terra Roxa",
    "state_id": "0cf9b512-1def-4caf-b083-12c70578482e"
  },
  {
    "id": "bed4407f-8059-49b4-9f44-2d5bf9c5769f",
    "name": "Tibagi",
    "state_id": "0cf9b512-1def-4caf-b083-12c70578482e"
  },
  {
    "id": "a36a9406-07c9-4c89-9bae-d526595a07f8",
    "name": "Tijucas do Sul",
    "state_id": "0cf9b512-1def-4caf-b083-12c70578482e"
  },
  {
    "id": "51aaa7fe-e0ba-4059-b167-fb9da333bdcc",
    "name": "Toledo",
    "state_id": "0cf9b512-1def-4caf-b083-12c70578482e"
  },
  {
    "id": "57ad67e4-2719-4d7c-9575-2baa90c3ccab",
    "name": "Tomazina",
    "state_id": "0cf9b512-1def-4caf-b083-12c70578482e"
  },
  {
    "id": "14ece2c5-be2b-4450-bb0d-4e97d45f1572",
    "name": "Três Barras do Paraná",
    "state_id": "0cf9b512-1def-4caf-b083-12c70578482e"
  },
  {
    "id": "873ce621-0f9c-47bf-99cc-7736e190e732",
    "name": "Tunas do Paraná",
    "state_id": "0cf9b512-1def-4caf-b083-12c70578482e"
  },
  {
    "id": "eca7223d-b7e9-4470-a191-60d3b2a812d2",
    "name": "Tuneiras do Oeste",
    "state_id": "0cf9b512-1def-4caf-b083-12c70578482e"
  },
  {
    "id": "95d909f4-ee1d-425f-8ae3-d37d0b4e508c",
    "name": "Tupãssi",
    "state_id": "0cf9b512-1def-4caf-b083-12c70578482e"
  },
  {
    "id": "2dfa9f87-5593-4ee1-ae6d-6085a9d6f41e",
    "name": "Turvo",
    "state_id": "0cf9b512-1def-4caf-b083-12c70578482e"
  },
  {
    "id": "c3df1686-0459-44a0-a33c-6ea93711fcc5",
    "name": "Ubiratã",
    "state_id": "0cf9b512-1def-4caf-b083-12c70578482e"
  },
  {
    "id": "72befe4f-d91b-4e7e-a4ef-48ef5884539c",
    "name": "Umuarama",
    "state_id": "0cf9b512-1def-4caf-b083-12c70578482e"
  },
  {
    "id": "d42dbc91-ba7e-47f7-bef2-6fa22c151f03",
    "name": "União da Vitória",
    "state_id": "0cf9b512-1def-4caf-b083-12c70578482e"
  },
  {
    "id": "08ffb833-886c-4a07-be98-b83c7db1b23e",
    "name": "Uniflor",
    "state_id": "0cf9b512-1def-4caf-b083-12c70578482e"
  },
  {
    "id": "c2cb560f-d38d-4f14-ab4e-5303b8c440df",
    "name": "Uraí",
    "state_id": "0cf9b512-1def-4caf-b083-12c70578482e"
  },
  {
    "id": "2b73095e-6a94-489b-8bd8-67764abb4ae7",
    "name": "Ventania",
    "state_id": "0cf9b512-1def-4caf-b083-12c70578482e"
  },
  {
    "id": "5c041e5e-4a98-4d16-84df-6726bb777a7c",
    "name": "Vera Cruz do Oeste",
    "state_id": "0cf9b512-1def-4caf-b083-12c70578482e"
  },
  {
    "id": "5c1b40d9-f0cb-4bf7-9273-c79a268100d0",
    "name": "Verê",
    "state_id": "0cf9b512-1def-4caf-b083-12c70578482e"
  },
  {
    "id": "8438722e-d532-4198-a3cf-46e63aca036e",
    "name": "Virmond",
    "state_id": "0cf9b512-1def-4caf-b083-12c70578482e"
  },
  {
    "id": "cd0f6170-09e3-4064-abf9-a1802b80f0f1",
    "name": "Vitorino",
    "state_id": "0cf9b512-1def-4caf-b083-12c70578482e"
  },
  {
    "id": "905fd0ea-b719-40f8-93eb-4dd17827eeff",
    "name": "Wenceslau Braz",
    "state_id": "0cf9b512-1def-4caf-b083-12c70578482e"
  },
  {
    "id": "a4bf0a87-6c86-44f2-9b5e-d2ca150d2d00",
    "name": "Xambrê",
    "state_id": "0cf9b512-1def-4caf-b083-12c70578482e"
  }
]