[
  {
    "id": "eb1d8610-83e3-4c76-8da6-ab971ec71ec0",
    "name": "Atebubu-Amantin",
    "state_id": "0d87e410-f4cf-4506-8bbf-19eba1ec1fd6"
  },
  {
    "id": "0fd67dbc-6170-41cf-8307-1214efbf5c4a",
    "name": "Kintampo North",
    "state_id": "0d87e410-f4cf-4506-8bbf-19eba1ec1fd6"
  },
  {
    "id": "007cf055-f640-4953-b31e-069b1c516c71",
    "name": "Kintampo South",
    "state_id": "0d87e410-f4cf-4506-8bbf-19eba1ec1fd6"
  },
  {
    "id": "adb08131-4d1d-435a-b5ab-92090b93a907",
    "name": "Nkoranza North",
    "state_id": "0d87e410-f4cf-4506-8bbf-19eba1ec1fd6"
  },
  {
    "id": "fe3068fa-5433-4a7b-b1bf-2b126748c398",
    "name": "Nkoranza South",
    "state_id": "0d87e410-f4cf-4506-8bbf-19eba1ec1fd6"
  },
  {
    "id": "60f7fe52-bfef-4961-b28a-aae63ba5c77f",
    "name": "Pru East",
    "state_id": "0d87e410-f4cf-4506-8bbf-19eba1ec1fd6"
  },
  {
    "id": "168b9c2e-043d-4684-9f29-8bba5be8a14f",
    "name": "Pru West",
    "state_id": "0d87e410-f4cf-4506-8bbf-19eba1ec1fd6"
  },
  {
    "id": "898f59c4-f2a4-4f4d-9374-390e185250ee",
    "name": "Sene East",
    "state_id": "0d87e410-f4cf-4506-8bbf-19eba1ec1fd6"
  },
  {
    "id": "0d70c295-a58a-4de3-9b12-edeb1104ddbf",
    "name": "Sene West",
    "state_id": "0d87e410-f4cf-4506-8bbf-19eba1ec1fd6"
  },
  {
    "id": "461330ed-35fb-4388-8fcf-d7ef8e1f18e9",
    "name": "Techiman",
    "state_id": "0d87e410-f4cf-4506-8bbf-19eba1ec1fd6"
  },
  {
    "id": "6bc83bb7-4a30-4924-9815-2daf9518284a",
    "name": "Techiman North",
    "state_id": "0d87e410-f4cf-4506-8bbf-19eba1ec1fd6"
  }
]