[
  {
    "id": "e7f89324-f977-4318-91eb-8ad5f232adee",
    "name": "Daitō Shi",
    "state_id": "0d8efe90-6e53-455c-afd7-56d3899bcf4a"
  },
  {
    "id": "08b2b20a-2633-4905-aad9-193375d99873",
    "name": "Daitōchō",
    "state_id": "0d8efe90-6e53-455c-afd7-56d3899bcf4a"
  },
  {
    "id": "3b80c633-4c22-4a27-ad7e-d1d24625e537",
    "name": "Fujiidera-shi",
    "state_id": "0d8efe90-6e53-455c-afd7-56d3899bcf4a"
  },
  {
    "id": "301c5f80-39d7-47ac-9340-782d022ec371",
    "name": "Habikino-shi",
    "state_id": "0d8efe90-6e53-455c-afd7-56d3899bcf4a"
  },
  {
    "id": "12568195-a23c-42e4-bf71-6bc1d8193cd4",
    "name": "Hannan",
    "state_id": "0d8efe90-6e53-455c-afd7-56d3899bcf4a"
  },
  {
    "id": "9127d74d-771f-4d3f-8b00-dbe873a3dc64",
    "name": "Hannan Shi",
    "state_id": "0d8efe90-6e53-455c-afd7-56d3899bcf4a"
  },
  {
    "id": "0906dfb1-bcd6-4375-870c-92ae5bbae821",
    "name": "Higashiōsaka Shi",
    "state_id": "0d8efe90-6e53-455c-afd7-56d3899bcf4a"
  },
  {
    "id": "4a6f8246-10ca-418f-a881-da127535b793",
    "name": "Hirakata",
    "state_id": "0d8efe90-6e53-455c-afd7-56d3899bcf4a"
  },
  {
    "id": "22b35a08-8296-4a83-9082-6410b415792f",
    "name": "Hirakata Shi",
    "state_id": "0d8efe90-6e53-455c-afd7-56d3899bcf4a"
  },
  {
    "id": "bf374adf-b651-4ac4-80e7-cbb3f7f70d66",
    "name": "Ibaraki",
    "state_id": "0d8efe90-6e53-455c-afd7-56d3899bcf4a"
  },
  {
    "id": "e768f577-f646-42a7-a4ab-313d5ea86945",
    "name": "Ibaraki Shi",
    "state_id": "0d8efe90-6e53-455c-afd7-56d3899bcf4a"
  },
  {
    "id": "745f20bb-58aa-40eb-8924-23eed9713a8d",
    "name": "Ikeda",
    "state_id": "0d8efe90-6e53-455c-afd7-56d3899bcf4a"
  },
  {
    "id": "c7bd6ac2-9975-4c74-a077-7b6ec3695395",
    "name": "Ikeda Shi",
    "state_id": "0d8efe90-6e53-455c-afd7-56d3899bcf4a"
  },
  {
    "id": "02af2614-305f-4351-933b-e690f7460039",
    "name": "Izumi",
    "state_id": "0d8efe90-6e53-455c-afd7-56d3899bcf4a"
  },
  {
    "id": "da4c2c85-9231-4f1c-b114-b186fbf1a589",
    "name": "Izumi Shi",
    "state_id": "0d8efe90-6e53-455c-afd7-56d3899bcf4a"
  },
  {
    "id": "465eac11-da43-4e55-8dd4-4cff5456bdf1",
    "name": "Izumiōtsu",
    "state_id": "0d8efe90-6e53-455c-afd7-56d3899bcf4a"
  },
  {
    "id": "b00c5550-d91a-414a-a202-72ffcb17d22b",
    "name": "Izumiōtsu Shi",
    "state_id": "0d8efe90-6e53-455c-afd7-56d3899bcf4a"
  },
  {
    "id": "c82f2dd0-1f16-4c22-9e48-4dbf6506431e",
    "name": "Izumisano",
    "state_id": "0d8efe90-6e53-455c-afd7-56d3899bcf4a"
  },
  {
    "id": "a18522ac-e8bc-4c8e-bf6b-70e3481f5396",
    "name": "Izumisano Shi",
    "state_id": "0d8efe90-6e53-455c-afd7-56d3899bcf4a"
  },
  {
    "id": "e9515120-57a2-4dd0-b5d7-93cf1791fe38",
    "name": "Kadoma",
    "state_id": "0d8efe90-6e53-455c-afd7-56d3899bcf4a"
  },
  {
    "id": "716fe2ab-6c57-4878-a19d-256239cfbf01",
    "name": "Kadoma Shi",
    "state_id": "0d8efe90-6e53-455c-afd7-56d3899bcf4a"
  },
  {
    "id": "47f86e7c-2d3a-43e7-b17e-88ac0441d893",
    "name": "Kaizuka",
    "state_id": "0d8efe90-6e53-455c-afd7-56d3899bcf4a"
  },
  {
    "id": "755357d7-0733-4ea9-9c41-58a29e7fb4b0",
    "name": "Kaizuka Shi",
    "state_id": "0d8efe90-6e53-455c-afd7-56d3899bcf4a"
  },
  {
    "id": "eb2db7a8-243e-49b0-b2cb-1f44930d7f69",
    "name": "Kashihara",
    "state_id": "0d8efe90-6e53-455c-afd7-56d3899bcf4a"
  },
  {
    "id": "cb377d99-0830-46f6-9794-75b458a3c7ed",
    "name": "Kashiwara-shi",
    "state_id": "0d8efe90-6e53-455c-afd7-56d3899bcf4a"
  },
  {
    "id": "b9bf52f9-9ba6-4fb7-8124-aebefa12db44",
    "name": "Katano Shi",
    "state_id": "0d8efe90-6e53-455c-afd7-56d3899bcf4a"
  },
  {
    "id": "ccca588c-382f-44f7-a3d4-7aeddd0b6965",
    "name": "Kawachi-nagano Shi",
    "state_id": "0d8efe90-6e53-455c-afd7-56d3899bcf4a"
  },
  {
    "id": "aae13dd8-e0ee-4e5b-9ef4-8b357c298797",
    "name": "Kishiwada",
    "state_id": "0d8efe90-6e53-455c-afd7-56d3899bcf4a"
  },
  {
    "id": "e3e26201-eaf5-4004-a1bb-3c7499bec576",
    "name": "Kishiwada Shi",
    "state_id": "0d8efe90-6e53-455c-afd7-56d3899bcf4a"
  },
  {
    "id": "d0db245a-9ff5-4206-9bd3-dce66d1e958b",
    "name": "Matsubara",
    "state_id": "0d8efe90-6e53-455c-afd7-56d3899bcf4a"
  },
  {
    "id": "59a5d552-3add-49ae-816d-ef9dc022c4e4",
    "name": "Matsubara-shi",
    "state_id": "0d8efe90-6e53-455c-afd7-56d3899bcf4a"
  },
  {
    "id": "0eb19914-5ce2-451b-9e8d-4e0c2e771b1b",
    "name": "Mino",
    "state_id": "0d8efe90-6e53-455c-afd7-56d3899bcf4a"
  },
  {
    "id": "e4a2a471-3efb-4c9b-b06b-da36aa13cd9c",
    "name": "Minoo Shi",
    "state_id": "0d8efe90-6e53-455c-afd7-56d3899bcf4a"
  },
  {
    "id": "1ab4e46a-0d9d-40f4-bed0-2cd8d207aed6",
    "name": "Mishima-gun",
    "state_id": "0d8efe90-6e53-455c-afd7-56d3899bcf4a"
  },
  {
    "id": "c08f39b9-9359-46e2-9c30-9bbef59f8955",
    "name": "Moriguchi",
    "state_id": "0d8efe90-6e53-455c-afd7-56d3899bcf4a"
  },
  {
    "id": "5631944a-2546-4829-a5e4-43ba65911bad",
    "name": "Neyagawa",
    "state_id": "0d8efe90-6e53-455c-afd7-56d3899bcf4a"
  },
  {
    "id": "13fac0ac-de8f-49a3-a121-c0e1527ed6dc",
    "name": "Neyagawa Shi",
    "state_id": "0d8efe90-6e53-455c-afd7-56d3899bcf4a"
  },
  {
    "id": "61e7de1d-4395-421f-ae6f-25c807c79792",
    "name": "Osaka",
    "state_id": "0d8efe90-6e53-455c-afd7-56d3899bcf4a"
  },
  {
    "id": "8f556df3-edca-4290-b23e-f7746ae24910",
    "name": "Ōsaka-sayama Shi",
    "state_id": "0d8efe90-6e53-455c-afd7-56d3899bcf4a"
  },
  {
    "id": "3fcb650d-b4c2-4d3b-a178-0c01ecbdfe94",
    "name": "Sakai",
    "state_id": "0d8efe90-6e53-455c-afd7-56d3899bcf4a"
  },
  {
    "id": "9f58b7ee-dedc-40d0-b69c-a7fde319a657",
    "name": "Sakai Shi",
    "state_id": "0d8efe90-6e53-455c-afd7-56d3899bcf4a"
  },
  {
    "id": "ee273f2d-e9b7-4922-917f-c27e51f9e218",
    "name": "Sennan Shi",
    "state_id": "0d8efe90-6e53-455c-afd7-56d3899bcf4a"
  },
  {
    "id": "d907ac41-af96-47fc-8785-9ec1611d3eec",
    "name": "Settsu Shi",
    "state_id": "0d8efe90-6e53-455c-afd7-56d3899bcf4a"
  },
  {
    "id": "516a0d94-1432-4215-9295-f65f45c4de59",
    "name": "Shijonawate Shi",
    "state_id": "0d8efe90-6e53-455c-afd7-56d3899bcf4a"
  },
  {
    "id": "656acd2a-4473-4819-80a2-e4a87a2760c9",
    "name": "Suita",
    "state_id": "0d8efe90-6e53-455c-afd7-56d3899bcf4a"
  },
  {
    "id": "b08a6b85-98b8-40f2-bd0f-1cf64bbc2004",
    "name": "Suita Shi",
    "state_id": "0d8efe90-6e53-455c-afd7-56d3899bcf4a"
  },
  {
    "id": "bed8e5ee-e7dc-4fcd-8124-de31c5382dd8",
    "name": "Tajiri",
    "state_id": "0d8efe90-6e53-455c-afd7-56d3899bcf4a"
  },
  {
    "id": "15c9ee32-1417-45d6-99f3-29daec7e8bec",
    "name": "Takaishi",
    "state_id": "0d8efe90-6e53-455c-afd7-56d3899bcf4a"
  },
  {
    "id": "6b2cd684-d10b-4c54-b110-48697cf49983",
    "name": "Takaishi Shi",
    "state_id": "0d8efe90-6e53-455c-afd7-56d3899bcf4a"
  },
  {
    "id": "dbce279f-32e6-4716-9a1a-be18e88bb0a4",
    "name": "Takatsuki",
    "state_id": "0d8efe90-6e53-455c-afd7-56d3899bcf4a"
  },
  {
    "id": "18fb09ab-1705-4293-8592-a0f9852f08aa",
    "name": "Takatsuki Shi",
    "state_id": "0d8efe90-6e53-455c-afd7-56d3899bcf4a"
  },
  {
    "id": "08cc4f11-7b90-4f37-8fc3-9c046110238c",
    "name": "Tondabayashi Shi",
    "state_id": "0d8efe90-6e53-455c-afd7-56d3899bcf4a"
  },
  {
    "id": "9acabb3c-422c-4248-a4c1-55e457929f38",
    "name": "Tondabayashichō",
    "state_id": "0d8efe90-6e53-455c-afd7-56d3899bcf4a"
  },
  {
    "id": "8c0544e2-e005-4fc1-92fb-95d8df632941",
    "name": "Toyonaka",
    "state_id": "0d8efe90-6e53-455c-afd7-56d3899bcf4a"
  },
  {
    "id": "e446af8c-d6f0-49d9-a3a0-8505c3cd453a",
    "name": "Toyonaka Shi",
    "state_id": "0d8efe90-6e53-455c-afd7-56d3899bcf4a"
  },
  {
    "id": "efb2766b-191d-4f60-a5cf-3c7349ed29eb",
    "name": "Yao",
    "state_id": "0d8efe90-6e53-455c-afd7-56d3899bcf4a"
  },
  {
    "id": "eccb7c7a-1925-4e3a-862c-c771af0bd6d6",
    "name": "Yao-shi",
    "state_id": "0d8efe90-6e53-455c-afd7-56d3899bcf4a"
  }
]