[
  {
    "id": "1c8cc1c3-6fe5-4dc7-8535-1c37fb3e4bf2",
    "name": "Bagan Serai",
    "state_id": "0ea45e3f-9d26-42bb-ad44-d251ee06f4c6"
  },
  {
    "id": "eac2ec51-4922-4e66-8f5c-69a4894a5135",
    "name": "Batu Gajah",
    "state_id": "0ea45e3f-9d26-42bb-ad44-d251ee06f4c6"
  },
  {
    "id": "6a527a78-cf9b-4e0b-8c1c-dfe0ee789600",
    "name": "Bidur",
    "state_id": "0ea45e3f-9d26-42bb-ad44-d251ee06f4c6"
  },
  {
    "id": "289cb764-bf20-4f0e-a0b1-490dcbf42a1c",
    "name": "Ipoh",
    "state_id": "0ea45e3f-9d26-42bb-ad44-d251ee06f4c6"
  },
  {
    "id": "41b7f1d6-e87d-4343-b5ab-fd560b58d048",
    "name": "Kampar",
    "state_id": "0ea45e3f-9d26-42bb-ad44-d251ee06f4c6"
  },
  {
    "id": "71b02b19-4b51-4124-9421-3dba1181a2cf",
    "name": "Kampong Dungun",
    "state_id": "0ea45e3f-9d26-42bb-ad44-d251ee06f4c6"
  },
  {
    "id": "f6514dcc-d616-4346-82c3-4cc199afb216",
    "name": "Kuala Kangsar",
    "state_id": "0ea45e3f-9d26-42bb-ad44-d251ee06f4c6"
  },
  {
    "id": "3695faea-8bc6-4e5d-aa5c-6874f797def3",
    "name": "Lumut",
    "state_id": "0ea45e3f-9d26-42bb-ad44-d251ee06f4c6"
  },
  {
    "id": "e8a880ce-b5ed-4b2a-9746-0a99fdb1012e",
    "name": "Pantai Remis",
    "state_id": "0ea45e3f-9d26-42bb-ad44-d251ee06f4c6"
  },
  {
    "id": "3a48c1b4-5ac5-49ce-84d5-b890ba70d2b5",
    "name": "Parit Buntar",
    "state_id": "0ea45e3f-9d26-42bb-ad44-d251ee06f4c6"
  },
  {
    "id": "778b5789-caa9-46bd-a2f2-802bfd67b617",
    "name": "Simpang Empat",
    "state_id": "0ea45e3f-9d26-42bb-ad44-d251ee06f4c6"
  },
  {
    "id": "496e1c84-264c-42dd-940e-a5f0e5bf953e",
    "name": "Taiping",
    "state_id": "0ea45e3f-9d26-42bb-ad44-d251ee06f4c6"
  },
  {
    "id": "b88e3cb0-1914-40ba-94f3-4dd4fac553ba",
    "name": "Tapah Road",
    "state_id": "0ea45e3f-9d26-42bb-ad44-d251ee06f4c6"
  },
  {
    "id": "66618171-63c9-49f6-970d-932302a4d1d4",
    "name": "Teluk Intan",
    "state_id": "0ea45e3f-9d26-42bb-ad44-d251ee06f4c6"
  }
]