[
  {
    "id": "4922dd9f-e1b3-4bf4-8e4a-d6a17fdb0cd8",
    "name": "Aguas del Padre",
    "state_id": "11edd0b3-19fe-4d7f-a6b8-ae800412ed2b"
  },
  {
    "id": "2172d29b-2533-4e8e-a1e5-8b1f9ad32913",
    "name": "Ajuterique",
    "state_id": "11edd0b3-19fe-4d7f-a6b8-ae800412ed2b"
  },
  {
    "id": "13ba741c-8f43-4193-a5ae-6cc3f6259dcc",
    "name": "Cerro Blanco",
    "state_id": "11edd0b3-19fe-4d7f-a6b8-ae800412ed2b"
  },
  {
    "id": "89b4e820-b4ba-405c-bbc0-0b29de073a8d",
    "name": "Comayagua",
    "state_id": "11edd0b3-19fe-4d7f-a6b8-ae800412ed2b"
  },
  {
    "id": "10b8b3c2-ad80-4458-85c4-6bb8747b7808",
    "name": "Concepción de Guasistagua",
    "state_id": "11edd0b3-19fe-4d7f-a6b8-ae800412ed2b"
  },
  {
    "id": "2da15b55-4826-4a17-b67b-361df4f9caef",
    "name": "El Agua Dulcita",
    "state_id": "11edd0b3-19fe-4d7f-a6b8-ae800412ed2b"
  },
  {
    "id": "a34ad28e-353a-41c0-8a14-60aee5692354",
    "name": "El Porvenir",
    "state_id": "11edd0b3-19fe-4d7f-a6b8-ae800412ed2b"
  },
  {
    "id": "a65cb732-b112-40ab-978f-811cf8ed63b5",
    "name": "El Rancho",
    "state_id": "11edd0b3-19fe-4d7f-a6b8-ae800412ed2b"
  },
  {
    "id": "24ba09c9-3430-4db2-81d1-b338ce8729e9",
    "name": "El Rincón",
    "state_id": "11edd0b3-19fe-4d7f-a6b8-ae800412ed2b"
  },
  {
    "id": "e9bf747d-15be-4b88-aa52-e5a52ebc391e",
    "name": "El Rosario",
    "state_id": "11edd0b3-19fe-4d7f-a6b8-ae800412ed2b"
  },
  {
    "id": "21bb6213-163f-4700-b4e5-15fd62591cc9",
    "name": "El Sauce",
    "state_id": "11edd0b3-19fe-4d7f-a6b8-ae800412ed2b"
  },
  {
    "id": "a8744833-a354-4fa2-8975-8d823acb4fbd",
    "name": "El Socorro",
    "state_id": "11edd0b3-19fe-4d7f-a6b8-ae800412ed2b"
  },
  {
    "id": "31c02a0d-d029-4a14-aa5e-bbccffe5a454",
    "name": "Esquías",
    "state_id": "11edd0b3-19fe-4d7f-a6b8-ae800412ed2b"
  },
  {
    "id": "42a8d7c8-1339-4bfa-ac17-615b936baed7",
    "name": "Flores",
    "state_id": "11edd0b3-19fe-4d7f-a6b8-ae800412ed2b"
  },
  {
    "id": "595818f7-cb1f-47af-bf63-aa364a0de61d",
    "name": "Humuya",
    "state_id": "11edd0b3-19fe-4d7f-a6b8-ae800412ed2b"
  },
  {
    "id": "8ef80e4a-4f21-437e-8e7d-b0de676cc99c",
    "name": "Jamalteca",
    "state_id": "11edd0b3-19fe-4d7f-a6b8-ae800412ed2b"
  },
  {
    "id": "faa0e105-bf95-43bd-af22-7408a4846a10",
    "name": "La Libertad",
    "state_id": "11edd0b3-19fe-4d7f-a6b8-ae800412ed2b"
  },
  {
    "id": "bcf733e3-9dd7-4cff-9a80-3054152130ef",
    "name": "La Trinidad",
    "state_id": "11edd0b3-19fe-4d7f-a6b8-ae800412ed2b"
  },
  {
    "id": "21b88942-c406-45d8-bd9b-bd087c74f9ea",
    "name": "Lamaní",
    "state_id": "11edd0b3-19fe-4d7f-a6b8-ae800412ed2b"
  },
  {
    "id": "60258e0b-4191-423a-8577-4578840b57b4",
    "name": "Las Lajas",
    "state_id": "11edd0b3-19fe-4d7f-a6b8-ae800412ed2b"
  },
  {
    "id": "50e59750-1d61-40c5-abcb-fca4fdf16822",
    "name": "Lejamaní",
    "state_id": "11edd0b3-19fe-4d7f-a6b8-ae800412ed2b"
  },
  {
    "id": "123d0694-6567-42e5-8e55-f169fa51fc50",
    "name": "Meámbar",
    "state_id": "11edd0b3-19fe-4d7f-a6b8-ae800412ed2b"
  },
  {
    "id": "f0e4ca6d-1c3e-452f-b499-ef2fc9727dcd",
    "name": "Minas de Oro",
    "state_id": "11edd0b3-19fe-4d7f-a6b8-ae800412ed2b"
  },
  {
    "id": "753df47f-3091-4dd9-9072-a03e36b2553a",
    "name": "Ojos de Agua",
    "state_id": "11edd0b3-19fe-4d7f-a6b8-ae800412ed2b"
  },
  {
    "id": "080ba361-fb90-4183-b10a-d8cbb1f190fd",
    "name": "Potrerillos",
    "state_id": "11edd0b3-19fe-4d7f-a6b8-ae800412ed2b"
  },
  {
    "id": "4342e58f-2f6b-44d6-8bd2-28aa174ba5d7",
    "name": "Río Bonito",
    "state_id": "11edd0b3-19fe-4d7f-a6b8-ae800412ed2b"
  },
  {
    "id": "91129159-dc15-432a-9bea-6477cbb3cc30",
    "name": "San Antonio de la Cuesta",
    "state_id": "11edd0b3-19fe-4d7f-a6b8-ae800412ed2b"
  },
  {
    "id": "f8dec2a1-b24c-4946-8d34-a2c85bde029f",
    "name": "San Jerónimo",
    "state_id": "11edd0b3-19fe-4d7f-a6b8-ae800412ed2b"
  },
  {
    "id": "2bba9d58-f767-49cb-8bcf-c26e9e3a38c5",
    "name": "San José de Comayagua",
    "state_id": "11edd0b3-19fe-4d7f-a6b8-ae800412ed2b"
  },
  {
    "id": "9affe623-ae65-4646-a829-bcc08e904e73",
    "name": "San José del Potrero",
    "state_id": "11edd0b3-19fe-4d7f-a6b8-ae800412ed2b"
  },
  {
    "id": "363f8a69-899c-4dc6-92d3-01b9298f44ec",
    "name": "San Luis",
    "state_id": "11edd0b3-19fe-4d7f-a6b8-ae800412ed2b"
  },
  {
    "id": "b745a8ff-3cc4-4632-a96a-0f3457e33f05",
    "name": "San Sebastián",
    "state_id": "11edd0b3-19fe-4d7f-a6b8-ae800412ed2b"
  },
  {
    "id": "3b198a89-9417-41e6-b81c-13de445950e9",
    "name": "Siguatepeque",
    "state_id": "11edd0b3-19fe-4d7f-a6b8-ae800412ed2b"
  },
  {
    "id": "d81d5f52-9c4c-48c9-b997-b338c28510f7",
    "name": "Taulabé",
    "state_id": "11edd0b3-19fe-4d7f-a6b8-ae800412ed2b"
  },
  {
    "id": "17de2dce-1a34-4d3d-aaa6-cd083a9cd7bf",
    "name": "Valle de Ángeles",
    "state_id": "11edd0b3-19fe-4d7f-a6b8-ae800412ed2b"
  },
  {
    "id": "3e49e411-2a5f-456a-b70e-03d541bbdb8a",
    "name": "Villa de San Antonio",
    "state_id": "11edd0b3-19fe-4d7f-a6b8-ae800412ed2b"
  }
]