[
  {
    "id": "6d71f874-212a-432d-8cba-2282cb16b2f3",
    "name": "Demydivs’kyy Rayon",
    "state_id": "14974c0b-0751-401f-be9e-483e9aa46cf4"
  },
  {
    "id": "1ec09746-8ed0-458e-854b-e4222fa528cd",
    "name": "Dubno",
    "state_id": "14974c0b-0751-401f-be9e-483e9aa46cf4"
  },
  {
    "id": "0dd6d4a6-90bf-42d8-9829-182d998cbc38",
    "name": "Dubrovytsya",
    "state_id": "14974c0b-0751-401f-be9e-483e9aa46cf4"
  },
  {
    "id": "f544461b-817d-4cc6-8235-2e134d7587aa",
    "name": "Horodyshche",
    "state_id": "14974c0b-0751-401f-be9e-483e9aa46cf4"
  },
  {
    "id": "b322776c-c79f-483b-80d4-093bf0ee3d76",
    "name": "Hoshcha",
    "state_id": "14974c0b-0751-401f-be9e-483e9aa46cf4"
  },
  {
    "id": "b446da93-be38-44f2-ab42-2da7302a93d6",
    "name": "Klevan",
    "state_id": "14974c0b-0751-401f-be9e-483e9aa46cf4"
  },
  {
    "id": "425fdde2-a866-41a4-9e43-10a9c3ca70b7",
    "name": "Kolodenka",
    "state_id": "14974c0b-0751-401f-be9e-483e9aa46cf4"
  },
  {
    "id": "0037359b-1c2c-48b1-8d84-62fc9debe44a",
    "name": "Koloniya Zastav’ye",
    "state_id": "14974c0b-0751-401f-be9e-483e9aa46cf4"
  },
  {
    "id": "b5bb9249-ef8c-4c26-8a87-073fc10cb2f4",
    "name": "Korets",
    "state_id": "14974c0b-0751-401f-be9e-483e9aa46cf4"
  },
  {
    "id": "2957c500-4289-4257-9e7c-2701763ff532",
    "name": "Kostopil’",
    "state_id": "14974c0b-0751-401f-be9e-483e9aa46cf4"
  },
  {
    "id": "5289faf1-eebd-429a-9149-23e2dcae710c",
    "name": "Mizoch",
    "state_id": "14974c0b-0751-401f-be9e-483e9aa46cf4"
  },
  {
    "id": "612f13ed-45b8-4abf-99f5-b8ea020f817a",
    "name": "Mlyniv",
    "state_id": "14974c0b-0751-401f-be9e-483e9aa46cf4"
  },
  {
    "id": "0199e794-aa0f-40b5-8f68-8f30d5224f26",
    "name": "Mlynivs’kyy Rayon",
    "state_id": "14974c0b-0751-401f-be9e-483e9aa46cf4"
  },
  {
    "id": "fe9c399b-aa46-4a29-bdf6-39a45a6562a4",
    "name": "Orzhiv",
    "state_id": "14974c0b-0751-401f-be9e-483e9aa46cf4"
  },
  {
    "id": "c55dff65-a2fe-4df9-860e-275989b3fabb",
    "name": "Ostroh",
    "state_id": "14974c0b-0751-401f-be9e-483e9aa46cf4"
  },
  {
    "id": "faa97e58-8de7-4632-8a47-7f52c83cda27",
    "name": "Ostroz’ka Mis’krada",
    "state_id": "14974c0b-0751-401f-be9e-483e9aa46cf4"
  },
  {
    "id": "184bef6e-885d-4ed7-84aa-60e19ac66c8c",
    "name": "Radyvyliv",
    "state_id": "14974c0b-0751-401f-be9e-483e9aa46cf4"
  },
  {
    "id": "9f12f927-9ef8-418b-b898-400191838757",
    "name": "Rivne",
    "state_id": "14974c0b-0751-401f-be9e-483e9aa46cf4"
  },
  {
    "id": "de45211a-f267-4249-8931-bba1ffbd3e61",
    "name": "Rivnens’ka Mis’krada",
    "state_id": "14974c0b-0751-401f-be9e-483e9aa46cf4"
  },
  {
    "id": "1ed8695b-108e-4f04-8b0f-0471097abe9b",
    "name": "Rokytne",
    "state_id": "14974c0b-0751-401f-be9e-483e9aa46cf4"
  },
  {
    "id": "e1aeb7db-e3f2-4c61-b8f5-eef9a3123ead",
    "name": "Sarny",
    "state_id": "14974c0b-0751-401f-be9e-483e9aa46cf4"
  },
  {
    "id": "2480e793-49ee-40d5-a830-e3352f9ca724",
    "name": "Tarakaniv",
    "state_id": "14974c0b-0751-401f-be9e-483e9aa46cf4"
  },
  {
    "id": "ed373312-db48-4335-9ecb-7411cf516f45",
    "name": "Tynne",
    "state_id": "14974c0b-0751-401f-be9e-483e9aa46cf4"
  },
  {
    "id": "0298e69e-4771-415c-bd87-cbeb7bbafabf",
    "name": "Varash",
    "state_id": "14974c0b-0751-401f-be9e-483e9aa46cf4"
  },
  {
    "id": "c3da1303-86c6-4ee0-9c64-2ceec40f6037",
    "name": "Velyki Mezhyrichi",
    "state_id": "14974c0b-0751-401f-be9e-483e9aa46cf4"
  },
  {
    "id": "08fec085-e3dd-4163-b6ed-84cb6bf5f26e",
    "name": "Volodymyrets’",
    "state_id": "14974c0b-0751-401f-be9e-483e9aa46cf4"
  },
  {
    "id": "82b99b2a-8fbe-4e64-afcc-80d26dc2b29d",
    "name": "Zarichne",
    "state_id": "14974c0b-0751-401f-be9e-483e9aa46cf4"
  },
  {
    "id": "302d8acf-d539-457e-9fce-9102ded1ffb0",
    "name": "Zdolbuniv",
    "state_id": "14974c0b-0751-401f-be9e-483e9aa46cf4"
  },
  {
    "id": "c2c00240-bbbe-4b2e-b14a-82925ab7f63f",
    "name": "Zdovbytsya",
    "state_id": "14974c0b-0751-401f-be9e-483e9aa46cf4"
  }
]