[
  {
    "id": "18df4326-74d3-4c9d-9402-38522635ab88",
    "name": "Çemişgezek İlçesi",
    "state_id": "14b80dcc-33ab-4665-a23f-679c144f891a"
  },
  {
    "id": "1f21942e-7c08-4414-a0e4-d4a2d4db8cfe",
    "name": "Hozat",
    "state_id": "14b80dcc-33ab-4665-a23f-679c144f891a"
  },
  {
    "id": "8a277de8-a2a1-40d7-bb0e-20df66b7d8f8",
    "name": "Mazgirt",
    "state_id": "14b80dcc-33ab-4665-a23f-679c144f891a"
  },
  {
    "id": "86eaca09-4363-402a-9002-7adb3c51638a",
    "name": "Merkez",
    "state_id": "14b80dcc-33ab-4665-a23f-679c144f891a"
  },
  {
    "id": "b05cc9e3-4bd8-44f6-b599-cd305cc81ca5",
    "name": "Nazimiye",
    "state_id": "14b80dcc-33ab-4665-a23f-679c144f891a"
  },
  {
    "id": "d17cf993-1a30-4108-8966-8ef04d0341a8",
    "name": "Nazımiye İlçesi",
    "state_id": "14b80dcc-33ab-4665-a23f-679c144f891a"
  },
  {
    "id": "438ac890-e44a-4248-8160-61a39c411639",
    "name": "Ovacık",
    "state_id": "14b80dcc-33ab-4665-a23f-679c144f891a"
  },
  {
    "id": "b9df8e7e-e814-4cdd-aaca-68bfc18bb39b",
    "name": "Pertek",
    "state_id": "14b80dcc-33ab-4665-a23f-679c144f891a"
  },
  {
    "id": "e95524b4-59a0-40ad-b626-2a750396d53c",
    "name": "Pulumer",
    "state_id": "14b80dcc-33ab-4665-a23f-679c144f891a"
  },
  {
    "id": "d5b0d15d-0777-43d2-8fd6-c71d329b8548",
    "name": "Pülümür İlçesi",
    "state_id": "14b80dcc-33ab-4665-a23f-679c144f891a"
  },
  {
    "id": "a5fa11e3-308a-49a0-ace4-2c6742fd5cfd",
    "name": "Tunceli",
    "state_id": "14b80dcc-33ab-4665-a23f-679c144f891a"
  }
]