[
  {
    "id": "b11cbfc5-9874-4c2f-a445-3af7d89f0409",
    "name": "Abaújszántó",
    "state_id": "15bb12c8-cbb5-4653-9ecf-4522fa8719c2"
  },
  {
    "id": "111673be-0ba7-45fb-a4c1-db4c5f4d9ae5",
    "name": "Alsózsolca",
    "state_id": "15bb12c8-cbb5-4653-9ecf-4522fa8719c2"
  },
  {
    "id": "832a5e1e-0363-4626-9c0d-b19bdbc37127",
    "name": "Arló",
    "state_id": "15bb12c8-cbb5-4653-9ecf-4522fa8719c2"
  },
  {
    "id": "3037b313-29f9-4831-a9cc-2892147d346f",
    "name": "Arnót",
    "state_id": "15bb12c8-cbb5-4653-9ecf-4522fa8719c2"
  },
  {
    "id": "1142dbf7-d55d-45b0-ae78-69d43ed6c60a",
    "name": "Aszaló",
    "state_id": "15bb12c8-cbb5-4653-9ecf-4522fa8719c2"
  },
  {
    "id": "aba24466-66e4-4ed0-92f1-583379bb0a00",
    "name": "Bekecs",
    "state_id": "15bb12c8-cbb5-4653-9ecf-4522fa8719c2"
  },
  {
    "id": "0f403e1a-d69d-4b68-8530-9681189c02bb",
    "name": "Bőcs",
    "state_id": "15bb12c8-cbb5-4653-9ecf-4522fa8719c2"
  },
  {
    "id": "56447c04-e709-4613-90f5-eb6635ad9638",
    "name": "Bogács",
    "state_id": "15bb12c8-cbb5-4653-9ecf-4522fa8719c2"
  },
  {
    "id": "f7e23bff-95f3-43e3-86b4-0f48f52d661e",
    "name": "Boldva",
    "state_id": "15bb12c8-cbb5-4653-9ecf-4522fa8719c2"
  },
  {
    "id": "a3778570-e383-4f59-ac9f-b950d4685672",
    "name": "Borsodnádasd",
    "state_id": "15bb12c8-cbb5-4653-9ecf-4522fa8719c2"
  },
  {
    "id": "2428b776-8ffe-4d5d-8774-de4821e804a6",
    "name": "Cigánd",
    "state_id": "15bb12c8-cbb5-4653-9ecf-4522fa8719c2"
  },
  {
    "id": "7b68e997-3ee2-46d0-905b-ad9200d41258",
    "name": "Cigándi Járás",
    "state_id": "15bb12c8-cbb5-4653-9ecf-4522fa8719c2"
  },
  {
    "id": "b95d293e-04a4-4b5c-83be-68b3c1e7fe87",
    "name": "Edelény",
    "state_id": "15bb12c8-cbb5-4653-9ecf-4522fa8719c2"
  },
  {
    "id": "f740f8aa-da29-4795-9114-7e849fd4bc3d",
    "name": "Edelényi Járás",
    "state_id": "15bb12c8-cbb5-4653-9ecf-4522fa8719c2"
  },
  {
    "id": "a5658d6a-dead-49a6-b46d-16e724b89448",
    "name": "Emőd",
    "state_id": "15bb12c8-cbb5-4653-9ecf-4522fa8719c2"
  },
  {
    "id": "82587b13-fe4d-4ca3-899a-2d7067e934cb",
    "name": "Encs",
    "state_id": "15bb12c8-cbb5-4653-9ecf-4522fa8719c2"
  },
  {
    "id": "97eb39d2-5602-4d33-bdf2-2414219021e0",
    "name": "Encsi Járás",
    "state_id": "15bb12c8-cbb5-4653-9ecf-4522fa8719c2"
  },
  {
    "id": "dfecdb26-3983-4a3c-8411-1975042a94b1",
    "name": "Farkaslyuk",
    "state_id": "15bb12c8-cbb5-4653-9ecf-4522fa8719c2"
  },
  {
    "id": "c0a3f453-b229-4e1e-b6f4-3190185c6aac",
    "name": "Felsőzsolca",
    "state_id": "15bb12c8-cbb5-4653-9ecf-4522fa8719c2"
  },
  {
    "id": "0f526507-0c61-41ca-8324-917924433a4a",
    "name": "Gesztely",
    "state_id": "15bb12c8-cbb5-4653-9ecf-4522fa8719c2"
  },
  {
    "id": "835991c0-c81f-425a-9bc9-866fe1b82122",
    "name": "Gönc",
    "state_id": "15bb12c8-cbb5-4653-9ecf-4522fa8719c2"
  },
  {
    "id": "ba73127f-c7a7-4083-a7bb-b99169a5bf0f",
    "name": "Gönci Járás",
    "state_id": "15bb12c8-cbb5-4653-9ecf-4522fa8719c2"
  },
  {
    "id": "e6d0b310-b8c8-41fb-94e2-6ec3192d510a",
    "name": "Halmaj",
    "state_id": "15bb12c8-cbb5-4653-9ecf-4522fa8719c2"
  },
  {
    "id": "c3f7f7b7-a09e-4116-90af-7952f7136c36",
    "name": "Harsány",
    "state_id": "15bb12c8-cbb5-4653-9ecf-4522fa8719c2"
  },
  {
    "id": "2393fa72-d468-403a-b72f-167fe485638b",
    "name": "Hejőbába",
    "state_id": "15bb12c8-cbb5-4653-9ecf-4522fa8719c2"
  },
  {
    "id": "fbd2a918-2129-45e6-85ef-8eaea8692df6",
    "name": "Hernádnémeti",
    "state_id": "15bb12c8-cbb5-4653-9ecf-4522fa8719c2"
  },
  {
    "id": "c14e4d4e-50ff-4db1-bc77-4e741a5bd211",
    "name": "Izsófalva",
    "state_id": "15bb12c8-cbb5-4653-9ecf-4522fa8719c2"
  },
  {
    "id": "e34bdeae-16f9-41a7-acaf-a168d35b585f",
    "name": "Járdánháza",
    "state_id": "15bb12c8-cbb5-4653-9ecf-4522fa8719c2"
  },
  {
    "id": "28cfa02b-2acb-4325-a4c5-eb07cff44102",
    "name": "Karcsa",
    "state_id": "15bb12c8-cbb5-4653-9ecf-4522fa8719c2"
  },
  {
    "id": "b9e76560-ef8b-487a-bc04-aeeeba4cffd2",
    "name": "Kazincbarcika",
    "state_id": "15bb12c8-cbb5-4653-9ecf-4522fa8719c2"
  },
  {
    "id": "1b66bf52-3fc6-4e76-9642-7a18c15a5d25",
    "name": "Kazincbarcikai Járás",
    "state_id": "15bb12c8-cbb5-4653-9ecf-4522fa8719c2"
  },
  {
    "id": "f1146657-5d5d-4e24-bfbb-ef840b2405a6",
    "name": "Mád",
    "state_id": "15bb12c8-cbb5-4653-9ecf-4522fa8719c2"
  },
  {
    "id": "c8c7decb-c5d1-43c6-8c2a-259bfac7838c",
    "name": "Mályi",
    "state_id": "15bb12c8-cbb5-4653-9ecf-4522fa8719c2"
  },
  {
    "id": "998f9e94-e178-4dcf-90ba-cf969eab706c",
    "name": "Megyaszó",
    "state_id": "15bb12c8-cbb5-4653-9ecf-4522fa8719c2"
  },
  {
    "id": "dbd8a78e-d61e-43be-ade1-e5897f97e1b2",
    "name": "Mezőcsát",
    "state_id": "15bb12c8-cbb5-4653-9ecf-4522fa8719c2"
  },
  {
    "id": "3b046253-a501-4916-b576-257b4faac469",
    "name": "Mezőcsáti Járás",
    "state_id": "15bb12c8-cbb5-4653-9ecf-4522fa8719c2"
  },
  {
    "id": "2faad491-8719-4e22-819d-e5c067dc4f1d",
    "name": "Mezőkeresztes",
    "state_id": "15bb12c8-cbb5-4653-9ecf-4522fa8719c2"
  },
  {
    "id": "d75b966a-f566-45ff-b74b-f763c9c6832e",
    "name": "Mezőkövesd",
    "state_id": "15bb12c8-cbb5-4653-9ecf-4522fa8719c2"
  },
  {
    "id": "a1604ad0-f531-49dd-b6fa-72bf5e2b76f7",
    "name": "Mezőkövesdi Járás",
    "state_id": "15bb12c8-cbb5-4653-9ecf-4522fa8719c2"
  },
  {
    "id": "a82faec0-d727-4985-8ba9-30e8d7180e2d",
    "name": "Mezőzombor",
    "state_id": "15bb12c8-cbb5-4653-9ecf-4522fa8719c2"
  },
  {
    "id": "ef47d8ad-22e5-474d-a302-1972b1f488f2",
    "name": "Miskolc",
    "state_id": "15bb12c8-cbb5-4653-9ecf-4522fa8719c2"
  },
  {
    "id": "5e407ac4-cca7-4a90-b98b-b6b472573ea8",
    "name": "Miskolci Járás",
    "state_id": "15bb12c8-cbb5-4653-9ecf-4522fa8719c2"
  },
  {
    "id": "20992c37-e8ee-4cf8-9670-8d890254f672",
    "name": "Monok",
    "state_id": "15bb12c8-cbb5-4653-9ecf-4522fa8719c2"
  },
  {
    "id": "94fd9b63-e617-4aab-81a2-f27c507f7420",
    "name": "Múcsony",
    "state_id": "15bb12c8-cbb5-4653-9ecf-4522fa8719c2"
  },
  {
    "id": "9507605c-ae5e-44d9-9744-d748338eef9c",
    "name": "Nyékládháza",
    "state_id": "15bb12c8-cbb5-4653-9ecf-4522fa8719c2"
  },
  {
    "id": "5586c2a3-6f52-4954-91fe-6aa899b4435e",
    "name": "Olaszliszka",
    "state_id": "15bb12c8-cbb5-4653-9ecf-4522fa8719c2"
  },
  {
    "id": "e58e07b4-e5f2-4f7b-a9c4-c2d837e5786b",
    "name": "Onga",
    "state_id": "15bb12c8-cbb5-4653-9ecf-4522fa8719c2"
  },
  {
    "id": "0520040f-e50c-454e-ade9-8b533bbe1040",
    "name": "Ónod",
    "state_id": "15bb12c8-cbb5-4653-9ecf-4522fa8719c2"
  },
  {
    "id": "7fc9c2e3-5667-48fd-b0d3-5ab024d4a13f",
    "name": "Ózd",
    "state_id": "15bb12c8-cbb5-4653-9ecf-4522fa8719c2"
  },
  {
    "id": "98374175-0394-446b-aec9-a85798c3f1b1",
    "name": "Ózdi Járás",
    "state_id": "15bb12c8-cbb5-4653-9ecf-4522fa8719c2"
  },
  {
    "id": "31a54dfc-c8e2-4e3a-827b-36a676b6f370",
    "name": "Prügy",
    "state_id": "15bb12c8-cbb5-4653-9ecf-4522fa8719c2"
  },
  {
    "id": "7a37d332-1c0a-436e-8930-47ec35a319cc",
    "name": "Putnok",
    "state_id": "15bb12c8-cbb5-4653-9ecf-4522fa8719c2"
  },
  {
    "id": "e9f9d383-bc15-4185-bf9d-47de90ee596b",
    "name": "Putnoki Járás",
    "state_id": "15bb12c8-cbb5-4653-9ecf-4522fa8719c2"
  },
  {
    "id": "057169a0-d588-4b90-9f0e-8363de81f8be",
    "name": "Ricse",
    "state_id": "15bb12c8-cbb5-4653-9ecf-4522fa8719c2"
  },
  {
    "id": "8d8a10b8-7679-48c0-ba55-dfad052c1fe1",
    "name": "Rudabánya",
    "state_id": "15bb12c8-cbb5-4653-9ecf-4522fa8719c2"
  },
  {
    "id": "7c239956-9910-47d6-b59b-9fb15a5ceffc",
    "name": "Sajóbábony",
    "state_id": "15bb12c8-cbb5-4653-9ecf-4522fa8719c2"
  },
  {
    "id": "614ad381-a6d2-4ccb-a7b6-f18dc17a211d",
    "name": "Sajókaza",
    "state_id": "15bb12c8-cbb5-4653-9ecf-4522fa8719c2"
  },
  {
    "id": "b389e38d-7b6c-4734-9b90-c181a4997bb0",
    "name": "Sajólád",
    "state_id": "15bb12c8-cbb5-4653-9ecf-4522fa8719c2"
  },
  {
    "id": "b96692ff-f7df-4247-9c8c-1f5718862da3",
    "name": "Sajóörös",
    "state_id": "15bb12c8-cbb5-4653-9ecf-4522fa8719c2"
  },
  {
    "id": "9151e8a8-8b25-4ae8-9cb7-4df60e170075",
    "name": "Sajószentpéter",
    "state_id": "15bb12c8-cbb5-4653-9ecf-4522fa8719c2"
  },
  {
    "id": "38fea4b9-087d-4592-a29e-ff2ef0bb50c3",
    "name": "Sajószöged",
    "state_id": "15bb12c8-cbb5-4653-9ecf-4522fa8719c2"
  },
  {
    "id": "3a0f14e5-d54d-4651-823a-bce52a49ac4b",
    "name": "Sajóvámos",
    "state_id": "15bb12c8-cbb5-4653-9ecf-4522fa8719c2"
  },
  {
    "id": "e53ce6c3-eb3c-4043-86ac-333f29dbb043",
    "name": "Sály",
    "state_id": "15bb12c8-cbb5-4653-9ecf-4522fa8719c2"
  },
  {
    "id": "b46e32d4-85e8-4571-8fd6-af853aab9363",
    "name": "Sárospatak",
    "state_id": "15bb12c8-cbb5-4653-9ecf-4522fa8719c2"
  },
  {
    "id": "c4aa7d3e-cafc-43c0-a833-439d1f3d7919",
    "name": "Sárospataki Járás",
    "state_id": "15bb12c8-cbb5-4653-9ecf-4522fa8719c2"
  },
  {
    "id": "b7f32bae-6c42-4963-994a-e899c45dea21",
    "name": "Sátoraljaújhely",
    "state_id": "15bb12c8-cbb5-4653-9ecf-4522fa8719c2"
  },
  {
    "id": "a69011d6-d496-4b27-ac3e-0a3696da92d9",
    "name": "Sátoraljaújhelyi Járás",
    "state_id": "15bb12c8-cbb5-4653-9ecf-4522fa8719c2"
  },
  {
    "id": "468fe2d0-f9a1-4b92-a29b-a421691a1f38",
    "name": "Szendrő",
    "state_id": "15bb12c8-cbb5-4653-9ecf-4522fa8719c2"
  },
  {
    "id": "472419ac-8016-4d1d-894b-4ca697f39799",
    "name": "Szentistván",
    "state_id": "15bb12c8-cbb5-4653-9ecf-4522fa8719c2"
  },
  {
    "id": "923b534a-302b-458b-9006-31bd6d39c4c4",
    "name": "Szerencs",
    "state_id": "15bb12c8-cbb5-4653-9ecf-4522fa8719c2"
  },
  {
    "id": "a621c161-0d92-4fd3-8a98-1e9b2be8ebc9",
    "name": "Szerencsi Járás",
    "state_id": "15bb12c8-cbb5-4653-9ecf-4522fa8719c2"
  },
  {
    "id": "064c404a-cffd-493a-9f55-137286a404dd",
    "name": "Szikszó",
    "state_id": "15bb12c8-cbb5-4653-9ecf-4522fa8719c2"
  },
  {
    "id": "ba83ab22-d85f-4eda-ae03-e1a592d649d2",
    "name": "Szikszói Járás",
    "state_id": "15bb12c8-cbb5-4653-9ecf-4522fa8719c2"
  },
  {
    "id": "06916b12-e873-4be4-b6d6-bb9c3e0dbf60",
    "name": "Szirmabesenyő",
    "state_id": "15bb12c8-cbb5-4653-9ecf-4522fa8719c2"
  },
  {
    "id": "584aa4be-7b1e-48fa-9bb6-aa9a6744ea50",
    "name": "Taktaharkány",
    "state_id": "15bb12c8-cbb5-4653-9ecf-4522fa8719c2"
  },
  {
    "id": "74729609-bc3a-48b1-9f13-a023e9f6b436",
    "name": "Taktaszada",
    "state_id": "15bb12c8-cbb5-4653-9ecf-4522fa8719c2"
  },
  {
    "id": "e67211d2-9419-40c9-8d7b-6061ef7683b7",
    "name": "Tállya",
    "state_id": "15bb12c8-cbb5-4653-9ecf-4522fa8719c2"
  },
  {
    "id": "b8addc96-22a8-4dc9-bce2-da5dfc2cb5e1",
    "name": "Tarcal",
    "state_id": "15bb12c8-cbb5-4653-9ecf-4522fa8719c2"
  },
  {
    "id": "4139fc8c-391c-4e70-8e60-88a2ac414e99",
    "name": "Tiszakarád",
    "state_id": "15bb12c8-cbb5-4653-9ecf-4522fa8719c2"
  },
  {
    "id": "4fb2b3d0-0b8a-415e-b4ef-250e8b0cb0c3",
    "name": "Tiszakeszi",
    "state_id": "15bb12c8-cbb5-4653-9ecf-4522fa8719c2"
  },
  {
    "id": "490e4498-d8e2-4be3-9773-48db04b5417c",
    "name": "Tiszalúc",
    "state_id": "15bb12c8-cbb5-4653-9ecf-4522fa8719c2"
  },
  {
    "id": "8dac77b4-cf58-4044-99de-c3b2c65b21b9",
    "name": "Tiszaújváros",
    "state_id": "15bb12c8-cbb5-4653-9ecf-4522fa8719c2"
  },
  {
    "id": "69606d94-99b4-40c6-9a31-6abb50362fd4",
    "name": "Tiszaújvárosi Járás",
    "state_id": "15bb12c8-cbb5-4653-9ecf-4522fa8719c2"
  },
  {
    "id": "5f681dc6-2b8c-4a06-8342-75abf87cb472",
    "name": "Tokaj",
    "state_id": "15bb12c8-cbb5-4653-9ecf-4522fa8719c2"
  },
  {
    "id": "7938da5f-9d8f-45ad-95c7-d2f1f94b5afe",
    "name": "Tokaji Járás",
    "state_id": "15bb12c8-cbb5-4653-9ecf-4522fa8719c2"
  },
  {
    "id": "7dff2d22-18d9-4736-8907-1c58cf88fd19",
    "name": "Tolcsva",
    "state_id": "15bb12c8-cbb5-4653-9ecf-4522fa8719c2"
  }
]