[
  {
    "id": "3d7253d7-e235-456a-bf09-f892bdc72ec2",
    "name": "Banikoara",
    "state_id": "15e9e3d3-4134-4637-b8b8-36e0e1a099a9"
  },
  {
    "id": "d538f218-3752-4503-a1b8-d8797bca7fda",
    "name": "Kandi",
    "state_id": "15e9e3d3-4134-4637-b8b8-36e0e1a099a9"
  },
  {
    "id": "8cb6ccff-57ae-4410-9cc4-b3ff6a57ddfc",
    "name": "Malanville",
    "state_id": "15e9e3d3-4134-4637-b8b8-36e0e1a099a9"
  }
]