[
  {
    "id": "771cc0ab-1200-4f6b-9a24-0b83ef28e449",
    "name": "Eno",
    "state_id": "166a9567-d4b1-40b8-b696-d1e5d7c14d94"
  },
  {
    "id": "6cfe3c4e-db42-46fc-8a77-2db5eb6dbdd5",
    "name": "Ilomantsi",
    "state_id": "166a9567-d4b1-40b8-b696-d1e5d7c14d94"
  },
  {
    "id": "b55eeaab-1192-4c88-962f-1c51769ffa2e",
    "name": "Joensuu",
    "state_id": "166a9567-d4b1-40b8-b696-d1e5d7c14d94"
  },
  {
    "id": "a64d1e30-7597-4349-ae3a-4f886db8ca21",
    "name": "Juuka",
    "state_id": "166a9567-d4b1-40b8-b696-d1e5d7c14d94"
  },
  {
    "id": "8e2815ec-c0a1-4d1c-8da4-a4cbfbb94f27",
    "name": "Kesälahti",
    "state_id": "166a9567-d4b1-40b8-b696-d1e5d7c14d94"
  },
  {
    "id": "a39ab155-f711-439e-a7b6-5328b825484a",
    "name": "Kiihtelysvaara",
    "state_id": "166a9567-d4b1-40b8-b696-d1e5d7c14d94"
  },
  {
    "id": "926bd577-fb32-46d8-a01e-f7fd6ca6ebaf",
    "name": "Kitee",
    "state_id": "166a9567-d4b1-40b8-b696-d1e5d7c14d94"
  },
  {
    "id": "f179db16-484b-4867-8c84-4d8d92ec695e",
    "name": "Kontiolahti",
    "state_id": "166a9567-d4b1-40b8-b696-d1e5d7c14d94"
  },
  {
    "id": "6eb70a57-6e8a-4e5a-870f-1427a8653b5e",
    "name": "Lieksa",
    "state_id": "166a9567-d4b1-40b8-b696-d1e5d7c14d94"
  },
  {
    "id": "c251111e-e45f-403a-9f8d-2bd8856ee6e1",
    "name": "Liperi",
    "state_id": "166a9567-d4b1-40b8-b696-d1e5d7c14d94"
  },
  {
    "id": "58da17b0-3fe7-4d3d-8ac8-e4fa25dc8010",
    "name": "Nurmes",
    "state_id": "166a9567-d4b1-40b8-b696-d1e5d7c14d94"
  },
  {
    "id": "898f5d08-ba98-4698-ba24-af394412dca8",
    "name": "Outokumpu",
    "state_id": "166a9567-d4b1-40b8-b696-d1e5d7c14d94"
  },
  {
    "id": "a52d2284-c3da-44d2-9434-059363c693f7",
    "name": "Polvijärvi",
    "state_id": "166a9567-d4b1-40b8-b696-d1e5d7c14d94"
  },
  {
    "id": "fc2dbe19-c792-4454-8c7d-2cc22a1b1af4",
    "name": "Pyhäselkä",
    "state_id": "166a9567-d4b1-40b8-b696-d1e5d7c14d94"
  },
  {
    "id": "d3b044d1-4ebe-4848-b3dd-1d0a27dd7438",
    "name": "Rääkkylä",
    "state_id": "166a9567-d4b1-40b8-b696-d1e5d7c14d94"
  },
  {
    "id": "9843b14b-4ab9-42ba-bdaa-f35d6c70ea71",
    "name": "Tohmajärvi",
    "state_id": "166a9567-d4b1-40b8-b696-d1e5d7c14d94"
  },
  {
    "id": "d3468738-62e6-4649-9282-e3a681b694ce",
    "name": "Tuupovaara",
    "state_id": "166a9567-d4b1-40b8-b696-d1e5d7c14d94"
  },
  {
    "id": "45e2fe45-f6b8-4df3-af75-1ad4e5664c0f",
    "name": "Valtimo",
    "state_id": "166a9567-d4b1-40b8-b696-d1e5d7c14d94"
  }
]