[
  {
    "id": "c7749350-42c5-4134-8818-869726f79491",
    "name": "Al Jawf",
    "state_id": "174023e5-04ba-4810-ad35-ffdc4e993514"
  },
  {
    "id": "9145b3e3-74be-4372-a96f-471a01d861c5",
    "name": "At Tāj",
    "state_id": "174023e5-04ba-4810-ad35-ffdc4e993514"
  }
]