[
  {
    "id": "78c665e5-75c0-4485-9020-b41387f4b404",
    "name": "Freetown",
    "state_id": "17c86878-4646-4d3a-9a3f-b0b6c3ac61b8"
  },
  {
    "id": "8d178371-eeee-4926-9292-cf6430626d08",
    "name": "Hastings",
    "state_id": "17c86878-4646-4d3a-9a3f-b0b6c3ac61b8"
  },
  {
    "id": "96499f76-21bf-4677-b474-248ca7a6a620",
    "name": "Kent",
    "state_id": "17c86878-4646-4d3a-9a3f-b0b6c3ac61b8"
  },
  {
    "id": "6aa3ca4b-4ff4-4c89-a79a-4685905d3458",
    "name": "Waterloo",
    "state_id": "17c86878-4646-4d3a-9a3f-b0b6c3ac61b8"
  }
]