[
  {
    "id": "2cb4637f-f11e-454a-8240-32ef2112dee9",
    "name": "Gereida",
    "state_id": "1820faa8-dd58-4c73-8fdb-bb535bc1f105"
  },
  {
    "id": "db42db08-2310-4f61-9b49-471785847292",
    "name": "Nyala",
    "state_id": "1820faa8-dd58-4c73-8fdb-bb535bc1f105"
  }
]