[
  {
    "id": "367d920d-b2a8-4352-b66a-9c369334e370",
    "name": "Al Hasaheisa",
    "state_id": "18670c94-06a5-4640-8111-d973832e62e7"
  },
  {
    "id": "19964829-ef42-4a6d-bfde-3b6094abc01d",
    "name": "Al Hilāliyya",
    "state_id": "18670c94-06a5-4640-8111-d973832e62e7"
  },
  {
    "id": "cb975fc6-c529-4113-834c-17a50373326b",
    "name": "Al Kiremit al ‘Arakiyyīn",
    "state_id": "18670c94-06a5-4640-8111-d973832e62e7"
  },
  {
    "id": "dad6cd83-c01b-484d-8725-ca565ef90fb5",
    "name": "Al Manāqil",
    "state_id": "18670c94-06a5-4640-8111-d973832e62e7"
  },
  {
    "id": "32da9736-c80c-4799-90f4-bfd8248a39c6",
    "name": "Al Masallamiyya",
    "state_id": "18670c94-06a5-4640-8111-d973832e62e7"
  },
  {
    "id": "c6695d1d-2874-4daf-866d-3b11a423a2a6",
    "name": "Wad Medani",
    "state_id": "18670c94-06a5-4640-8111-d973832e62e7"
  },
  {
    "id": "fc887e2b-7de7-46dc-9504-3c325b2278dc",
    "name": "Wad Rāwah",
    "state_id": "18670c94-06a5-4640-8111-d973832e62e7"
  }
]