[
  {
    "id": "1a1987bb-5f63-401f-85ee-475de99389a1",
    "name": "El Palmar",
    "state_id": "1872e8a1-7a97-4e77-b9b7-553f3f723a19"
  },
  {
    "id": "d3683307-1f5c-4605-a99f-329277bffc28",
    "name": "Galván",
    "state_id": "1872e8a1-7a97-4e77-b9b7-553f3f723a19"
  },
  {
    "id": "38fea6d9-7eff-4a42-9579-5a300ac083b8",
    "name": "La Uvilla",
    "state_id": "1872e8a1-7a97-4e77-b9b7-553f3f723a19"
  },
  {
    "id": "e6dc30b7-2721-445b-b2b2-1deb108afeb0",
    "name": "Los Ríos",
    "state_id": "1872e8a1-7a97-4e77-b9b7-553f3f723a19"
  },
  {
    "id": "586416dd-bda0-452a-8e85-d06b484a5e97",
    "name": "Neiba",
    "state_id": "1872e8a1-7a97-4e77-b9b7-553f3f723a19"
  },
  {
    "id": "9ea312ce-236f-40f0-bbf1-2c49f090e6c4",
    "name": "Tamayo",
    "state_id": "1872e8a1-7a97-4e77-b9b7-553f3f723a19"
  },
  {
    "id": "87678006-c951-4ad0-a8c0-f6136115366a",
    "name": "Villa Jaragua",
    "state_id": "1872e8a1-7a97-4e77-b9b7-553f3f723a19"
  }
]