[
  {
    "id": "3aa8dc98-678a-4a2a-879e-cee8020e08cd",
    "name": "Årdal",
    "state_id": "187464cc-fc0d-4c2c-a04e-984c3681d539"
  },
  {
    "id": "dac44422-1e00-45c8-b937-4fded0506ebc",
    "name": "Årdalstangen",
    "state_id": "187464cc-fc0d-4c2c-a04e-984c3681d539"
  },
  {
    "id": "dab1150c-451f-4f97-8e67-0fe0c4aef4a6",
    "name": "Askvoll",
    "state_id": "187464cc-fc0d-4c2c-a04e-984c3681d539"
  },
  {
    "id": "5537fde0-9d60-4b43-a726-4b3a5578e5d4",
    "name": "Aurland",
    "state_id": "187464cc-fc0d-4c2c-a04e-984c3681d539"
  },
  {
    "id": "1076abe3-c94d-42c4-a2c6-16e409b0ed0e",
    "name": "Balestrand",
    "state_id": "187464cc-fc0d-4c2c-a04e-984c3681d539"
  },
  {
    "id": "a7c6a23d-60d0-4bfc-a6b5-b634aa908cf5",
    "name": "Bremanger",
    "state_id": "187464cc-fc0d-4c2c-a04e-984c3681d539"
  },
  {
    "id": "52a5c64b-cad9-4f6b-aaae-73d3828ff1bd",
    "name": "Dale",
    "state_id": "187464cc-fc0d-4c2c-a04e-984c3681d539"
  },
  {
    "id": "408cb3de-77e9-417b-97b3-cb76935eb22a",
    "name": "Eid",
    "state_id": "187464cc-fc0d-4c2c-a04e-984c3681d539"
  },
  {
    "id": "b451e7f5-c048-4132-a0c5-f93d8fccd2be",
    "name": "Eivindvik",
    "state_id": "187464cc-fc0d-4c2c-a04e-984c3681d539"
  },
  {
    "id": "f1164cfd-7764-4eca-8202-c13d5446e720",
    "name": "Farnes",
    "state_id": "187464cc-fc0d-4c2c-a04e-984c3681d539"
  },
  {
    "id": "6b36e39e-acaf-49b3-b8fa-8b4709dbe864",
    "name": "Fjaler",
    "state_id": "187464cc-fc0d-4c2c-a04e-984c3681d539"
  },
  {
    "id": "ce886ac7-fce3-4aaf-b5d9-ee921f43aff7",
    "name": "Flora",
    "state_id": "187464cc-fc0d-4c2c-a04e-984c3681d539"
  },
  {
    "id": "d6dd5ec3-2e74-4b43-89f3-5adb0ff0a541",
    "name": "Florø",
    "state_id": "187464cc-fc0d-4c2c-a04e-984c3681d539"
  },
  {
    "id": "6331504b-674f-4980-ac8c-61dbf789b998",
    "name": "Førde",
    "state_id": "187464cc-fc0d-4c2c-a04e-984c3681d539"
  },
  {
    "id": "707db469-334b-41cf-bd40-388af254b865",
    "name": "Gaular",
    "state_id": "187464cc-fc0d-4c2c-a04e-984c3681d539"
  },
  {
    "id": "736afe2c-f38b-4a99-8b87-4174c1c6ce44",
    "name": "Gaupne",
    "state_id": "187464cc-fc0d-4c2c-a04e-984c3681d539"
  },
  {
    "id": "6d18f8c8-a8b4-489b-93b1-ee1875cfd787",
    "name": "Gloppen",
    "state_id": "187464cc-fc0d-4c2c-a04e-984c3681d539"
  },
  {
    "id": "ac9cdad6-5c58-4356-bc16-e384d648dd0d",
    "name": "Gulen",
    "state_id": "187464cc-fc0d-4c2c-a04e-984c3681d539"
  },
  {
    "id": "7ed3294b-7b0a-4089-b9cf-7e1b89c3abb7",
    "name": "Hardbakke",
    "state_id": "187464cc-fc0d-4c2c-a04e-984c3681d539"
  },
  {
    "id": "816c12cb-5d76-4b94-87da-667b6a936324",
    "name": "Hermansverk",
    "state_id": "187464cc-fc0d-4c2c-a04e-984c3681d539"
  },
  {
    "id": "fbb39ca0-58a7-4836-ba3c-579ed9075cae",
    "name": "Hornindal",
    "state_id": "187464cc-fc0d-4c2c-a04e-984c3681d539"
  },
  {
    "id": "84c74bfd-fc88-40db-b326-a4f863d963ff",
    "name": "Høyanger",
    "state_id": "187464cc-fc0d-4c2c-a04e-984c3681d539"
  },
  {
    "id": "21d4253e-fe4c-4f53-be70-7db964c6ed61",
    "name": "Hyllestad",
    "state_id": "187464cc-fc0d-4c2c-a04e-984c3681d539"
  },
  {
    "id": "9f14d59e-2205-4f96-962c-844deba761e2",
    "name": "Jølster",
    "state_id": "187464cc-fc0d-4c2c-a04e-984c3681d539"
  },
  {
    "id": "a8bc48b9-2d09-430f-b0b2-7d2c3a7c5987",
    "name": "Lærdal",
    "state_id": "187464cc-fc0d-4c2c-a04e-984c3681d539"
  },
  {
    "id": "e306ac2a-c05f-4c92-9141-6d482e98cb59",
    "name": "Lærdalsøyri",
    "state_id": "187464cc-fc0d-4c2c-a04e-984c3681d539"
  },
  {
    "id": "7f274e6d-c0dd-4e79-ae45-074c95a3a544",
    "name": "Leikanger",
    "state_id": "187464cc-fc0d-4c2c-a04e-984c3681d539"
  },
  {
    "id": "e596197d-75ea-4806-afec-728a13a40c20",
    "name": "Luster",
    "state_id": "187464cc-fc0d-4c2c-a04e-984c3681d539"
  },
  {
    "id": "d610fbd6-ef67-475b-87d5-cdfda2ec98f7",
    "name": "Måløy",
    "state_id": "187464cc-fc0d-4c2c-a04e-984c3681d539"
  },
  {
    "id": "5eb383e1-e31b-4f9f-8aeb-14aab08c9171",
    "name": "Naustdal",
    "state_id": "187464cc-fc0d-4c2c-a04e-984c3681d539"
  },
  {
    "id": "813d3784-61cf-4b14-999e-12e01ef98efe",
    "name": "Nordfjordeid",
    "state_id": "187464cc-fc0d-4c2c-a04e-984c3681d539"
  },
  {
    "id": "2f08e38c-8d62-4921-bc96-09ef6b672165",
    "name": "Sandane",
    "state_id": "187464cc-fc0d-4c2c-a04e-984c3681d539"
  },
  {
    "id": "bcdbffaa-dd7c-4e7b-ae65-96d4de23dbd7",
    "name": "Sande",
    "state_id": "187464cc-fc0d-4c2c-a04e-984c3681d539"
  },
  {
    "id": "8f5d6686-a186-435b-916f-c3b63ddc44c2",
    "name": "Selje",
    "state_id": "187464cc-fc0d-4c2c-a04e-984c3681d539"
  },
  {
    "id": "8b440b21-de4f-427e-87ac-9853d6e25791",
    "name": "Sogndal",
    "state_id": "187464cc-fc0d-4c2c-a04e-984c3681d539"
  },
  {
    "id": "b89336bd-0022-47e9-9f33-e99aacc9d337",
    "name": "Solund",
    "state_id": "187464cc-fc0d-4c2c-a04e-984c3681d539"
  },
  {
    "id": "bf301497-8465-4ad1-b4c4-c1f0eaadc9c2",
    "name": "Stryn",
    "state_id": "187464cc-fc0d-4c2c-a04e-984c3681d539"
  },
  {
    "id": "00f1201a-9c62-4016-99e0-8c52070a899e",
    "name": "Svelgen",
    "state_id": "187464cc-fc0d-4c2c-a04e-984c3681d539"
  },
  {
    "id": "91309fcc-85d7-4ce4-b8e1-2a943e67fc0b",
    "name": "Vågsøy",
    "state_id": "187464cc-fc0d-4c2c-a04e-984c3681d539"
  },
  {
    "id": "aa6a5182-8482-439e-98e2-d4238f6de768",
    "name": "Vik",
    "state_id": "187464cc-fc0d-4c2c-a04e-984c3681d539"
  }
]