[
  {
    "id": "1efb85e5-38f6-4122-9361-572afa4beb5f",
    "name": "Balfate",
    "state_id": "18aca4b3-36fe-467e-aeb3-9d6010256b96"
  },
  {
    "id": "b6075411-1338-4b3a-94c7-e7386091b144",
    "name": "Bonito Oriental",
    "state_id": "18aca4b3-36fe-467e-aeb3-9d6010256b96"
  },
  {
    "id": "674ad716-5b64-4ae4-acad-a9ce104e7537",
    "name": "Corocito",
    "state_id": "18aca4b3-36fe-467e-aeb3-9d6010256b96"
  },
  {
    "id": "30684ea2-80d5-4a9d-9c57-a1fe7bd00025",
    "name": "Cusuna",
    "state_id": "18aca4b3-36fe-467e-aeb3-9d6010256b96"
  },
  {
    "id": "cf5147d5-3a43-4504-a1a4-994ff456245e",
    "name": "Elíxir",
    "state_id": "18aca4b3-36fe-467e-aeb3-9d6010256b96"
  },
  {
    "id": "f2929f65-45a3-44a1-97e9-0728bc6da6a9",
    "name": "Francia",
    "state_id": "18aca4b3-36fe-467e-aeb3-9d6010256b96"
  },
  {
    "id": "7018943a-11ba-48fd-ba1c-db15e061feba",
    "name": "Iriona",
    "state_id": "18aca4b3-36fe-467e-aeb3-9d6010256b96"
  },
  {
    "id": "00d5330d-2523-4110-9ee3-4151844173ab",
    "name": "Jericó",
    "state_id": "18aca4b3-36fe-467e-aeb3-9d6010256b96"
  },
  {
    "id": "644c5f37-9cec-4fc0-8e84-24c545f2fedc",
    "name": "La Brea",
    "state_id": "18aca4b3-36fe-467e-aeb3-9d6010256b96"
  },
  {
    "id": "c8b36388-975f-4bdd-a0ef-e91dc323d2d6",
    "name": "La Esperanza",
    "state_id": "18aca4b3-36fe-467e-aeb3-9d6010256b96"
  },
  {
    "id": "30b1bfd2-b302-4177-912a-7b9c081a4cfb",
    "name": "Limón",
    "state_id": "18aca4b3-36fe-467e-aeb3-9d6010256b96"
  },
  {
    "id": "04b48444-06f2-4c9b-b89b-dee401835ed4",
    "name": "Municipio de Sabá",
    "state_id": "18aca4b3-36fe-467e-aeb3-9d6010256b96"
  },
  {
    "id": "ce36e01e-c9f1-405b-bb48-2c9fc404e097",
    "name": "Prieta",
    "state_id": "18aca4b3-36fe-467e-aeb3-9d6010256b96"
  },
  {
    "id": "476afd6b-9b5a-4465-b998-2793b1ee7d8c",
    "name": "Puerto Castilla",
    "state_id": "18aca4b3-36fe-467e-aeb3-9d6010256b96"
  },
  {
    "id": "b3807daa-35d4-4bad-8282-9187e6467f74",
    "name": "Punta Piedra",
    "state_id": "18aca4b3-36fe-467e-aeb3-9d6010256b96"
  },
  {
    "id": "bd0c5476-86de-4935-91a8-fa2ce742dc87",
    "name": "Quebrada de Arena",
    "state_id": "18aca4b3-36fe-467e-aeb3-9d6010256b96"
  },
  {
    "id": "8db08aa5-e620-43af-9706-6c13377ced23",
    "name": "Río Esteban",
    "state_id": "18aca4b3-36fe-467e-aeb3-9d6010256b96"
  },
  {
    "id": "f6f7fa4d-3df4-4290-8c72-805118da3a6c",
    "name": "Sabá",
    "state_id": "18aca4b3-36fe-467e-aeb3-9d6010256b96"
  },
  {
    "id": "169c3bd5-59af-43f9-8f33-7d4ebbd83a60",
    "name": "Salamá",
    "state_id": "18aca4b3-36fe-467e-aeb3-9d6010256b96"
  },
  {
    "id": "ddd0e86d-976b-4e24-824f-4f83a94c124d",
    "name": "Santa Fe",
    "state_id": "18aca4b3-36fe-467e-aeb3-9d6010256b96"
  },
  {
    "id": "75a6e8bb-3331-4073-aed1-d36d834a8f62",
    "name": "Santa Rosa de Aguán",
    "state_id": "18aca4b3-36fe-467e-aeb3-9d6010256b96"
  },
  {
    "id": "d49f82d3-c6aa-4134-add6-b7ca91cf5481",
    "name": "Sonaguera",
    "state_id": "18aca4b3-36fe-467e-aeb3-9d6010256b96"
  },
  {
    "id": "ce0b4e5d-9e1f-42a0-a78d-0822c8123e17",
    "name": "Taujica",
    "state_id": "18aca4b3-36fe-467e-aeb3-9d6010256b96"
  },
  {
    "id": "f7a6e04e-2cca-41bb-be56-0f64458e3d85",
    "name": "Tocoa",
    "state_id": "18aca4b3-36fe-467e-aeb3-9d6010256b96"
  },
  {
    "id": "ebd7a5b0-faf9-4f6d-9922-7706cdd1c3d9",
    "name": "Trujillo",
    "state_id": "18aca4b3-36fe-467e-aeb3-9d6010256b96"
  },
  {
    "id": "a55ce632-d7e8-4e6e-ba00-ed44df559ed0",
    "name": "Zamora",
    "state_id": "18aca4b3-36fe-467e-aeb3-9d6010256b96"
  }
]