[
  {
    "id": "58dda89a-3668-4e3d-bc5d-c39c614280ab",
    "name": "Agía Foteiní",
    "state_id": "18b9a7bb-e97d-456e-84f8-6775f254d0fc"
  },
  {
    "id": "3468b08a-6e5a-49fd-a703-db27edf36e7e",
    "name": "Agía Galíni",
    "state_id": "18b9a7bb-e97d-456e-84f8-6775f254d0fc"
  },
  {
    "id": "5d82ac8a-b783-4aa0-ba03-beda06f2b7f0",
    "name": "Agía Marína",
    "state_id": "18b9a7bb-e97d-456e-84f8-6775f254d0fc"
  },
  {
    "id": "226e5f1a-c8d4-4c1b-a084-ad0845899672",
    "name": "Agía Varvára",
    "state_id": "18b9a7bb-e97d-456e-84f8-6775f254d0fc"
  },
  {
    "id": "493f21e5-0cff-4a01-8d9f-636b33bb1160",
    "name": "Ágioi Déka",
    "state_id": "18b9a7bb-e97d-456e-84f8-6775f254d0fc"
  },
  {
    "id": "95bd142e-6313-48e3-9c3d-4296730764e0",
    "name": "Ágios Nikólaos",
    "state_id": "18b9a7bb-e97d-456e-84f8-6775f254d0fc"
  },
  {
    "id": "d0a2c671-4a49-440e-a52e-ff7fcc7eb1db",
    "name": "Ano Arhanes",
    "state_id": "18b9a7bb-e97d-456e-84f8-6775f254d0fc"
  },
  {
    "id": "4cab20d0-157d-47f0-a484-c4b220b4faa8",
    "name": "Anógeia",
    "state_id": "18b9a7bb-e97d-456e-84f8-6775f254d0fc"
  },
  {
    "id": "482f3042-6abe-418d-8a74-5b6cd07e3c2e",
    "name": "Arkalochóri",
    "state_id": "18b9a7bb-e97d-456e-84f8-6775f254d0fc"
  },
  {
    "id": "90a7016f-7b3b-47af-ab20-c537c675d045",
    "name": "Asímion",
    "state_id": "18b9a7bb-e97d-456e-84f8-6775f254d0fc"
  },
  {
    "id": "53bfb6eb-0ee7-4b06-a610-923179022c70",
    "name": "Atsipópoulo",
    "state_id": "18b9a7bb-e97d-456e-84f8-6775f254d0fc"
  },
  {
    "id": "d9a29bd4-e022-4f13-b05b-a0b5dfd349f4",
    "name": "Chaniá",
    "state_id": "18b9a7bb-e97d-456e-84f8-6775f254d0fc"
  },
  {
    "id": "c4ec5efd-3bb3-45ec-9434-f1a435cf7b05",
    "name": "Chóra Sfakíon",
    "state_id": "18b9a7bb-e97d-456e-84f8-6775f254d0fc"
  },
  {
    "id": "54455b6a-8255-4569-956f-9c44e992fab3",
    "name": "Darátsos",
    "state_id": "18b9a7bb-e97d-456e-84f8-6775f254d0fc"
  },
  {
    "id": "6b765d05-1f50-4a27-9741-28b7011f5f8b",
    "name": "Eloúnda",
    "state_id": "18b9a7bb-e97d-456e-84f8-6775f254d0fc"
  },
  {
    "id": "7cda82c6-4858-4996-8dec-846daad6523c",
    "name": "Galatás",
    "state_id": "18b9a7bb-e97d-456e-84f8-6775f254d0fc"
  },
  {
    "id": "90fcb99b-62f3-4054-b4ed-f3fef1c984a5",
    "name": "Gázi",
    "state_id": "18b9a7bb-e97d-456e-84f8-6775f254d0fc"
  },
  {
    "id": "a110ee94-bcf4-4b90-9883-762307559f2b",
    "name": "Georgioupolis",
    "state_id": "18b9a7bb-e97d-456e-84f8-6775f254d0fc"
  },
  {
    "id": "de28df9d-1e32-427d-94d8-5280379c7efe",
    "name": "Geráni",
    "state_id": "18b9a7bb-e97d-456e-84f8-6775f254d0fc"
  },
  {
    "id": "3214fae5-86d5-4ace-8877-749eab4c0a34",
    "name": "Gérgeri",
    "state_id": "18b9a7bb-e97d-456e-84f8-6775f254d0fc"
  },
  {
    "id": "6ba0aa4b-aa8f-4983-840b-917006a58ff9",
    "name": "Goúrnes",
    "state_id": "18b9a7bb-e97d-456e-84f8-6775f254d0fc"
  },
  {
    "id": "ddb3a9e0-b887-4b03-ad4c-9ae453cac782",
    "name": "Gra Liyiá",
    "state_id": "18b9a7bb-e97d-456e-84f8-6775f254d0fc"
  },
  {
    "id": "ecd14270-d578-4281-b79e-ca3cf5345b2a",
    "name": "Ierápetra",
    "state_id": "18b9a7bb-e97d-456e-84f8-6775f254d0fc"
  },
  {
    "id": "c8164d1d-2a1b-42a6-b601-2d0e6b30302a",
    "name": "Irákleion",
    "state_id": "18b9a7bb-e97d-456e-84f8-6775f254d0fc"
  },
  {
    "id": "c6209277-3ce2-4050-bd73-9898273311b0",
    "name": "Kalýves",
    "state_id": "18b9a7bb-e97d-456e-84f8-6775f254d0fc"
  },
  {
    "id": "4bc1b6fb-e448-4e4c-a0ed-2fab354b5c7c",
    "name": "Kastélli",
    "state_id": "18b9a7bb-e97d-456e-84f8-6775f254d0fc"
  },
  {
    "id": "8571baf5-3874-4f04-806b-528b92bae11d",
    "name": "Kastrí",
    "state_id": "18b9a7bb-e97d-456e-84f8-6775f254d0fc"
  },
  {
    "id": "eaf40960-dc38-4aa5-92bf-675ab4c0bcfc",
    "name": "Káto Asítai",
    "state_id": "18b9a7bb-e97d-456e-84f8-6775f254d0fc"
  },
  {
    "id": "7b7f657e-1d26-4cee-ad0a-be7f5de656c1",
    "name": "Káto Goúves",
    "state_id": "18b9a7bb-e97d-456e-84f8-6775f254d0fc"
  },
  {
    "id": "30a61d44-972b-491c-b2b9-07a8881e36b2",
    "name": "Kentrí",
    "state_id": "18b9a7bb-e97d-456e-84f8-6775f254d0fc"
  },
  {
    "id": "ffbff6d7-6dbe-49f0-a38f-01f15b6b9cc0",
    "name": "Kíssamos",
    "state_id": "18b9a7bb-e97d-456e-84f8-6775f254d0fc"
  },
  {
    "id": "e7021dde-cbcb-44f1-9168-607a5a3d916d",
    "name": "Kokkíni Cháni",
    "state_id": "18b9a7bb-e97d-456e-84f8-6775f254d0fc"
  },
  {
    "id": "a2dfba74-d3c2-4e51-9917-78fecf33c458",
    "name": "Kolympári",
    "state_id": "18b9a7bb-e97d-456e-84f8-6775f254d0fc"
  },
  {
    "id": "06fbfa43-2329-4729-bd66-b94be4042d60",
    "name": "Kritsá",
    "state_id": "18b9a7bb-e97d-456e-84f8-6775f254d0fc"
  },
  {
    "id": "92690f16-d0c1-4f82-ae6f-01cac879ee56",
    "name": "Krousón",
    "state_id": "18b9a7bb-e97d-456e-84f8-6775f254d0fc"
  },
  {
    "id": "1ebf49f8-870e-44af-9f09-15384506d74a",
    "name": "Limín Khersonísou",
    "state_id": "18b9a7bb-e97d-456e-84f8-6775f254d0fc"
  },
  {
    "id": "564affa8-b6f2-4bd3-8f09-228814802808",
    "name": "Mália",
    "state_id": "18b9a7bb-e97d-456e-84f8-6775f254d0fc"
  },
  {
    "id": "ec9f0187-d133-4401-a4e0-27bfd27de567",
    "name": "Moíres",
    "state_id": "18b9a7bb-e97d-456e-84f8-6775f254d0fc"
  },
  {
    "id": "1f31c1f4-a2f6-45d2-aaac-7fd9651d3065",
    "name": "Mokhós",
    "state_id": "18b9a7bb-e97d-456e-84f8-6775f254d0fc"
  },
  {
    "id": "be578d8e-4df0-420b-b0b2-084673dc3ff0",
    "name": "Mourniés",
    "state_id": "18b9a7bb-e97d-456e-84f8-6775f254d0fc"
  },
  {
    "id": "f4e50adb-bb73-41a4-9e75-e87426d0dcce",
    "name": "Mouzourás",
    "state_id": "18b9a7bb-e97d-456e-84f8-6775f254d0fc"
  },
  {
    "id": "76f77868-e4d6-4bbe-8756-3bfc05414f5f",
    "name": "Néa Alikarnassós",
    "state_id": "18b9a7bb-e97d-456e-84f8-6775f254d0fc"
  },
  {
    "id": "4343498b-bdc3-4d3f-b549-bb07a79d362d",
    "name": "Néa Anatolí",
    "state_id": "18b9a7bb-e97d-456e-84f8-6775f254d0fc"
  },
  {
    "id": "2074e19b-14f8-4a88-83f1-72b75fe9b048",
    "name": "Neápoli",
    "state_id": "18b9a7bb-e97d-456e-84f8-6775f254d0fc"
  },
  {
    "id": "bc5042ea-5b1a-41ee-be2b-63c8e1f2478f",
    "name": "Nerokoúros",
    "state_id": "18b9a7bb-e97d-456e-84f8-6775f254d0fc"
  },
  {
    "id": "3cceb57e-3cb0-4b0d-815b-c3e8183bb98e",
    "name": "Nomós Irakleíou",
    "state_id": "18b9a7bb-e97d-456e-84f8-6775f254d0fc"
  },
  {
    "id": "e5ad6d4b-2c66-43a1-8290-06586f0e8ff5",
    "name": "Nomós Rethýmnis",
    "state_id": "18b9a7bb-e97d-456e-84f8-6775f254d0fc"
  },
  {
    "id": "994ec393-768c-4c77-8397-bb1540c7dffb",
    "name": "Palaióchora",
    "state_id": "18b9a7bb-e97d-456e-84f8-6775f254d0fc"
  },
  {
    "id": "f8c83de6-5564-42ec-891f-a10291bcd2e1",
    "name": "Palekastro",
    "state_id": "18b9a7bb-e97d-456e-84f8-6775f254d0fc"
  },
  {
    "id": "0b2b1f97-7dad-47b0-9c63-10d72afb8120",
    "name": "Pánormos",
    "state_id": "18b9a7bb-e97d-456e-84f8-6775f254d0fc"
  },
  {
    "id": "2f71b204-1eae-4935-a0f3-b9497a77c1b3",
    "name": "Pérama",
    "state_id": "18b9a7bb-e97d-456e-84f8-6775f254d0fc"
  },
  {
    "id": "585f60cd-5b52-453e-9784-89b280859481",
    "name": "Perivólia",
    "state_id": "18b9a7bb-e97d-456e-84f8-6775f254d0fc"
  },
  {
    "id": "8db2a8be-4ed1-4a07-a5b3-96c343048f1b",
    "name": "Pithári",
    "state_id": "18b9a7bb-e97d-456e-84f8-6775f254d0fc"
  },
  {
    "id": "d214f6c5-1676-4c2c-8e88-cb2159055671",
    "name": "Profítis Ilías",
    "state_id": "18b9a7bb-e97d-456e-84f8-6775f254d0fc"
  },
  {
    "id": "c375a94b-a83b-486d-8923-695d1e9ba10e",
    "name": "Pýrgos",
    "state_id": "18b9a7bb-e97d-456e-84f8-6775f254d0fc"
  },
  {
    "id": "670f0a32-ab7a-42f8-8af3-8e62c1fb6253",
    "name": "Rethymno",
    "state_id": "18b9a7bb-e97d-456e-84f8-6775f254d0fc"
  },
  {
    "id": "99eb2f36-6cca-4549-b67a-574ab264525e",
    "name": "Schísma Eloúndas",
    "state_id": "18b9a7bb-e97d-456e-84f8-6775f254d0fc"
  },
  {
    "id": "11e8d029-380c-4198-8dd0-2dfc4fc545d4",
    "name": "Sísion",
    "state_id": "18b9a7bb-e97d-456e-84f8-6775f254d0fc"
  },
  {
    "id": "c3fa31b5-3214-46e0-b247-fa3f4b4ef6b8",
    "name": "Sitia",
    "state_id": "18b9a7bb-e97d-456e-84f8-6775f254d0fc"
  },
  {
    "id": "f4ff1538-46cd-4a4b-81f1-8454245d4838",
    "name": "Skalánion",
    "state_id": "18b9a7bb-e97d-456e-84f8-6775f254d0fc"
  },
  {
    "id": "b7d0da6d-1f98-4097-8de2-0a2224379cfe",
    "name": "Soúda",
    "state_id": "18b9a7bb-e97d-456e-84f8-6775f254d0fc"
  },
  {
    "id": "321d56d9-eecd-4aa8-a7b8-ff425075e69c",
    "name": "Stalís",
    "state_id": "18b9a7bb-e97d-456e-84f8-6775f254d0fc"
  },
  {
    "id": "5e2f9fda-5752-4aa7-8080-cffe396331d3",
    "name": "Thrapsanón",
    "state_id": "18b9a7bb-e97d-456e-84f8-6775f254d0fc"
  },
  {
    "id": "30506828-6f05-4fe0-8aed-3508d2478bc0",
    "name": "Tílisos",
    "state_id": "18b9a7bb-e97d-456e-84f8-6775f254d0fc"
  },
  {
    "id": "3235c9e9-f1a6-47b3-84ce-dcd4a5332a44",
    "name": "Tsikalariá",
    "state_id": "18b9a7bb-e97d-456e-84f8-6775f254d0fc"
  },
  {
    "id": "3e2119b2-76f9-4d2c-9f87-6a057b23c8d1",
    "name": "Tympáki",
    "state_id": "18b9a7bb-e97d-456e-84f8-6775f254d0fc"
  },
  {
    "id": "f1ab9ac7-0a70-4c0c-92db-56a95c3c5322",
    "name": "Violí Charáki",
    "state_id": "18b9a7bb-e97d-456e-84f8-6775f254d0fc"
  },
  {
    "id": "330f7b43-15f2-4cb4-bcef-451933f625f7",
    "name": "Vrýses",
    "state_id": "18b9a7bb-e97d-456e-84f8-6775f254d0fc"
  },
  {
    "id": "2a8aba2b-ab11-4492-a96a-c98d29c042c1",
    "name": "Zarós",
    "state_id": "18b9a7bb-e97d-456e-84f8-6775f254d0fc"
  },
  {
    "id": "90979db7-3bf6-48a4-a6e5-a192edefd266",
    "name": "Zonianá",
    "state_id": "18b9a7bb-e97d-456e-84f8-6775f254d0fc"
  }
]