[
  {
    "id": "d77dec7d-9eb3-4634-9644-4ad263d4ad00",
    "name": "Ada",
    "state_id": "18e6f37e-133a-4d0a-adc0-0f6c6b2ed524"
  },
  {
    "id": "73f89d4d-2f4b-487f-ad11-f5d9c9a043d9",
    "name": "Adrian",
    "state_id": "18e6f37e-133a-4d0a-adc0-0f6c6b2ed524"
  },
  {
    "id": "c7f32bc9-40d6-4133-b5e1-238fdca132c1",
    "name": "Afton",
    "state_id": "18e6f37e-133a-4d0a-adc0-0f6c6b2ed524"
  },
  {
    "id": "e5ac764b-3183-4941-98d3-e6a7db9ad7a0",
    "name": "Aitkin",
    "state_id": "18e6f37e-133a-4d0a-adc0-0f6c6b2ed524"
  },
  {
    "id": "56073f01-75df-412b-9976-4f4c0a228c73",
    "name": "Aitkin County",
    "state_id": "18e6f37e-133a-4d0a-adc0-0f6c6b2ed524"
  },
  {
    "id": "53512915-3717-4310-9b8b-4653106725a4",
    "name": "Albany",
    "state_id": "18e6f37e-133a-4d0a-adc0-0f6c6b2ed524"
  },
  {
    "id": "8040ee31-4e8c-4957-b5cd-95c19a8d0728",
    "name": "Albert Lea",
    "state_id": "18e6f37e-133a-4d0a-adc0-0f6c6b2ed524"
  },
  {
    "id": "021f6262-90fd-42f2-bda7-1c940e888f8e",
    "name": "Albertville",
    "state_id": "18e6f37e-133a-4d0a-adc0-0f6c6b2ed524"
  },
  {
    "id": "a2fa5b9f-3d76-4fc8-85f7-1ae064512853",
    "name": "Alexandria",
    "state_id": "18e6f37e-133a-4d0a-adc0-0f6c6b2ed524"
  },
  {
    "id": "da07b03c-a542-4c7d-8413-02b1b0829852",
    "name": "Andover",
    "state_id": "18e6f37e-133a-4d0a-adc0-0f6c6b2ed524"
  },
  {
    "id": "39719f30-1eb5-4af2-b1a7-5801a9e0089a",
    "name": "Annandale",
    "state_id": "18e6f37e-133a-4d0a-adc0-0f6c6b2ed524"
  },
  {
    "id": "f702a592-3f78-49af-b135-f1ea45b1307e",
    "name": "Anoka",
    "state_id": "18e6f37e-133a-4d0a-adc0-0f6c6b2ed524"
  },
  {
    "id": "cc7d9bf0-ab9a-4f5a-a85f-2447991b8dfb",
    "name": "Anoka County",
    "state_id": "18e6f37e-133a-4d0a-adc0-0f6c6b2ed524"
  },
  {
    "id": "dcfcc32e-520c-4567-a078-e33794732bfe",
    "name": "Apple Valley",
    "state_id": "18e6f37e-133a-4d0a-adc0-0f6c6b2ed524"
  },
  {
    "id": "f299fd1a-ea19-4c4e-9148-6886c9aa870b",
    "name": "Appleton",
    "state_id": "18e6f37e-133a-4d0a-adc0-0f6c6b2ed524"
  },
  {
    "id": "088c0761-11d1-4336-8f0b-159f5ed359a7",
    "name": "Arden Hills",
    "state_id": "18e6f37e-133a-4d0a-adc0-0f6c6b2ed524"
  },
  {
    "id": "fb0956cb-2053-487d-ae14-c62a0cdde4aa",
    "name": "Arlington",
    "state_id": "18e6f37e-133a-4d0a-adc0-0f6c6b2ed524"
  },
  {
    "id": "f321e232-0296-4d51-9f88-cc8c7f1c34fc",
    "name": "Arnold",
    "state_id": "18e6f37e-133a-4d0a-adc0-0f6c6b2ed524"
  },
  {
    "id": "1c7c47b8-7cb1-4e59-bf5d-89852261c52f",
    "name": "Atwater",
    "state_id": "18e6f37e-133a-4d0a-adc0-0f6c6b2ed524"
  },
  {
    "id": "959643e0-b876-44c6-a197-89deb1bcc709",
    "name": "Aurora",
    "state_id": "18e6f37e-133a-4d0a-adc0-0f6c6b2ed524"
  },
  {
    "id": "d65d6673-6998-43ad-b9a7-79ab56f18f77",
    "name": "Austin",
    "state_id": "18e6f37e-133a-4d0a-adc0-0f6c6b2ed524"
  },
  {
    "id": "fd54e994-70e4-4563-a9a0-edb6418e9cf4",
    "name": "Avon",
    "state_id": "18e6f37e-133a-4d0a-adc0-0f6c6b2ed524"
  },
  {
    "id": "83851ebd-9fb8-4dde-a600-2e8b5472176e",
    "name": "Babbitt",
    "state_id": "18e6f37e-133a-4d0a-adc0-0f6c6b2ed524"
  },
  {
    "id": "0b072dae-93d2-44d0-9095-2a1901def973",
    "name": "Bagley",
    "state_id": "18e6f37e-133a-4d0a-adc0-0f6c6b2ed524"
  },
  {
    "id": "8efb0503-3eb0-4fb3-b4ba-27f93e27235b",
    "name": "Barnesville",
    "state_id": "18e6f37e-133a-4d0a-adc0-0f6c6b2ed524"
  },
  {
    "id": "0c0f585d-0c7e-45a1-b2e1-db6255b1b5a5",
    "name": "Baudette",
    "state_id": "18e6f37e-133a-4d0a-adc0-0f6c6b2ed524"
  },
  {
    "id": "8af90526-66ef-4973-b21e-dd23e7f70764",
    "name": "Baxter",
    "state_id": "18e6f37e-133a-4d0a-adc0-0f6c6b2ed524"
  },
  {
    "id": "8a4891ff-f868-4b46-8910-8df768bdcfd5",
    "name": "Bayport",
    "state_id": "18e6f37e-133a-4d0a-adc0-0f6c6b2ed524"
  },
  {
    "id": "60a86c38-450f-4323-a3d5-5f90ad20f3a4",
    "name": "Becker",
    "state_id": "18e6f37e-133a-4d0a-adc0-0f6c6b2ed524"
  },
  {
    "id": "e2a44194-fb6b-49ce-a3fe-111c6c1ab2ae",
    "name": "Becker County",
    "state_id": "18e6f37e-133a-4d0a-adc0-0f6c6b2ed524"
  },
  {
    "id": "2a0e6709-72d1-4f99-94ce-7fb331548228",
    "name": "Belle Plaine",
    "state_id": "18e6f37e-133a-4d0a-adc0-0f6c6b2ed524"
  },
  {
    "id": "04f45627-985f-488c-8b1e-8a2b6d94efe7",
    "name": "Beltrami County",
    "state_id": "18e6f37e-133a-4d0a-adc0-0f6c6b2ed524"
  },
  {
    "id": "837c5b06-a982-48a2-b704-a89d85ee6840",
    "name": "Bemidji",
    "state_id": "18e6f37e-133a-4d0a-adc0-0f6c6b2ed524"
  },
  {
    "id": "fd9654ab-c8ed-4c9a-ac0d-4528ed9bd5bb",
    "name": "Benson",
    "state_id": "18e6f37e-133a-4d0a-adc0-0f6c6b2ed524"
  },
  {
    "id": "aaf0e1ca-cdb1-47a1-a40a-4a93f7e10029",
    "name": "Benton County",
    "state_id": "18e6f37e-133a-4d0a-adc0-0f6c6b2ed524"
  },
  {
    "id": "73ae539d-33ce-41c2-9074-300ce0cb9858",
    "name": "Big Lake",
    "state_id": "18e6f37e-133a-4d0a-adc0-0f6c6b2ed524"
  },
  {
    "id": "d70a3c31-495b-4122-8c5c-92f232657e21",
    "name": "Big Stone County",
    "state_id": "18e6f37e-133a-4d0a-adc0-0f6c6b2ed524"
  },
  {
    "id": "1d962842-f4d4-4ed4-9399-b3f6e13cd3bc",
    "name": "Birchwood",
    "state_id": "18e6f37e-133a-4d0a-adc0-0f6c6b2ed524"
  },
  {
    "id": "a636dce0-3a53-4c30-8d05-fb4570157804",
    "name": "Blaine",
    "state_id": "18e6f37e-133a-4d0a-adc0-0f6c6b2ed524"
  },
  {
    "id": "aec31b91-1b28-4808-bc9f-5b0f95f34711",
    "name": "Blooming Prairie",
    "state_id": "18e6f37e-133a-4d0a-adc0-0f6c6b2ed524"
  },
  {
    "id": "78fae416-526e-4dee-9bf5-3fb8f80ad92c",
    "name": "Bloomington",
    "state_id": "18e6f37e-133a-4d0a-adc0-0f6c6b2ed524"
  },
  {
    "id": "7d6346ee-f850-4ef0-9b29-61ed43908266",
    "name": "Blue Earth",
    "state_id": "18e6f37e-133a-4d0a-adc0-0f6c6b2ed524"
  },
  {
    "id": "39f38807-d7f9-4108-8cdc-657717880fb7",
    "name": "Blue Earth County",
    "state_id": "18e6f37e-133a-4d0a-adc0-0f6c6b2ed524"
  },
  {
    "id": "c6619c10-912d-4e2a-86a2-6c5308e0ea55",
    "name": "Braham",
    "state_id": "18e6f37e-133a-4d0a-adc0-0f6c6b2ed524"
  },
  {
    "id": "8bb223fe-efa6-4271-aafb-9c42a04c57fb",
    "name": "Brainerd",
    "state_id": "18e6f37e-133a-4d0a-adc0-0f6c6b2ed524"
  },
  {
    "id": "860e8032-48eb-4ae2-a0ff-3e2877c0377f",
    "name": "Branch",
    "state_id": "18e6f37e-133a-4d0a-adc0-0f6c6b2ed524"
  },
  {
    "id": "4430aed3-6179-4478-845e-1a042587227e",
    "name": "Breckenridge",
    "state_id": "18e6f37e-133a-4d0a-adc0-0f6c6b2ed524"
  },
  {
    "id": "fc99885f-7c98-40ab-8170-c7309d7e9fb9",
    "name": "Breezy Point",
    "state_id": "18e6f37e-133a-4d0a-adc0-0f6c6b2ed524"
  },
  {
    "id": "f70ad255-2e4f-49b4-89db-b6acbd6940b4",
    "name": "Brooklyn Center",
    "state_id": "18e6f37e-133a-4d0a-adc0-0f6c6b2ed524"
  },
  {
    "id": "76ab01d0-564c-4cb1-8a95-c4a906749d2e",
    "name": "Brooklyn Park",
    "state_id": "18e6f37e-133a-4d0a-adc0-0f6c6b2ed524"
  },
  {
    "id": "0edcd61c-3c9c-427c-a162-c6e6c45ed793",
    "name": "Brown County",
    "state_id": "18e6f37e-133a-4d0a-adc0-0f6c6b2ed524"
  },
  {
    "id": "f0aa6b1a-e01a-4e77-ba41-59ec09c75eb2",
    "name": "Buffalo",
    "state_id": "18e6f37e-133a-4d0a-adc0-0f6c6b2ed524"
  },
  {
    "id": "9d336b13-3a61-4141-8b34-b828d7cf36d4",
    "name": "Burnsville",
    "state_id": "18e6f37e-133a-4d0a-adc0-0f6c6b2ed524"
  },
  {
    "id": "f183a6e8-0ff4-4f56-9dc7-1cc7bd5dbe8f",
    "name": "Byron",
    "state_id": "18e6f37e-133a-4d0a-adc0-0f6c6b2ed524"
  },
  {
    "id": "8b725168-d232-4874-9fef-44db7dfd97ab",
    "name": "Caledonia",
    "state_id": "18e6f37e-133a-4d0a-adc0-0f6c6b2ed524"
  },
  {
    "id": "c7120c60-fed2-482f-9f76-dee49fa8bd62",
    "name": "Cambridge",
    "state_id": "18e6f37e-133a-4d0a-adc0-0f6c6b2ed524"
  },
  {
    "id": "51930af6-d849-470b-a7e5-0d2ee64c0147",
    "name": "Canby",
    "state_id": "18e6f37e-133a-4d0a-adc0-0f6c6b2ed524"
  },
  {
    "id": "c9b96d6a-804e-498d-9489-e2fb44be8d0d",
    "name": "Cannon Falls",
    "state_id": "18e6f37e-133a-4d0a-adc0-0f6c6b2ed524"
  },
  {
    "id": "b729be29-aa3d-4bad-9ace-414229b1e55a",
    "name": "Carlton",
    "state_id": "18e6f37e-133a-4d0a-adc0-0f6c6b2ed524"
  },
  {
    "id": "f79cb5bc-363e-407f-8931-4784942a3edd",
    "name": "Carlton County",
    "state_id": "18e6f37e-133a-4d0a-adc0-0f6c6b2ed524"
  },
  {
    "id": "86ec0920-9b6e-443b-824b-fa752ab511d3",
    "name": "Carver",
    "state_id": "18e6f37e-133a-4d0a-adc0-0f6c6b2ed524"
  },
  {
    "id": "25fd5724-f398-4062-a2b5-16fe8f822b17",
    "name": "Carver County",
    "state_id": "18e6f37e-133a-4d0a-adc0-0f6c6b2ed524"
  },
  {
    "id": "19883b0a-6e58-4ba3-8a1b-3eb385d2e8a3",
    "name": "Cass County",
    "state_id": "18e6f37e-133a-4d0a-adc0-0f6c6b2ed524"
  },
  {
    "id": "49f1f4f1-e6c5-4897-84d4-3f8ce82b61d2",
    "name": "Center City",
    "state_id": "18e6f37e-133a-4d0a-adc0-0f6c6b2ed524"
  },
  {
    "id": "b2cab2e9-d2a4-4e7c-9dbd-0b21e5b9c74c",
    "name": "Centerville",
    "state_id": "18e6f37e-133a-4d0a-adc0-0f6c6b2ed524"
  },
  {
    "id": "8c549fcd-2330-4d0c-bdd4-8121c28916b4",
    "name": "Champlin",
    "state_id": "18e6f37e-133a-4d0a-adc0-0f6c6b2ed524"
  },
  {
    "id": "25a6fc79-e2b5-44b0-8902-3903052dc6c6",
    "name": "Chanhassen",
    "state_id": "18e6f37e-133a-4d0a-adc0-0f6c6b2ed524"
  },
  {
    "id": "4305fdae-b452-44b1-b4b8-c7df180ec998",
    "name": "Chaska",
    "state_id": "18e6f37e-133a-4d0a-adc0-0f6c6b2ed524"
  },
  {
    "id": "cb819d76-05c1-4dd9-9472-d8f688e8507f",
    "name": "Chatfield",
    "state_id": "18e6f37e-133a-4d0a-adc0-0f6c6b2ed524"
  },
  {
    "id": "2e4118bb-6b2d-4d5b-997b-0c4ba619b92d",
    "name": "Chippewa County",
    "state_id": "18e6f37e-133a-4d0a-adc0-0f6c6b2ed524"
  },
  {
    "id": "ccf4ea36-b955-43a9-974d-27ea2d892171",
    "name": "Chisago City",
    "state_id": "18e6f37e-133a-4d0a-adc0-0f6c6b2ed524"
  },
  {
    "id": "0c954037-5595-4d04-9dc7-bea401a5323b",
    "name": "Chisago County",
    "state_id": "18e6f37e-133a-4d0a-adc0-0f6c6b2ed524"
  },
  {
    "id": "ea5a9c47-62c3-4d59-aab9-d86f41dd820d",
    "name": "Chisholm",
    "state_id": "18e6f37e-133a-4d0a-adc0-0f6c6b2ed524"
  },
  {
    "id": "2674519f-9619-457d-b024-78c5b8a4356e",
    "name": "Circle Pines",
    "state_id": "18e6f37e-133a-4d0a-adc0-0f6c6b2ed524"
  },
  {
    "id": "5977f7a2-3e53-48ad-84f1-69d1114760dc",
    "name": "Clara City",
    "state_id": "18e6f37e-133a-4d0a-adc0-0f6c6b2ed524"
  },
  {
    "id": "5c5df9a2-5aa3-4cf5-9c6b-525b0645deb1",
    "name": "Clay County",
    "state_id": "18e6f37e-133a-4d0a-adc0-0f6c6b2ed524"
  },
  {
    "id": "b3bf5785-c408-4ca5-9815-6a02866a8965",
    "name": "Clearwater",
    "state_id": "18e6f37e-133a-4d0a-adc0-0f6c6b2ed524"
  },
  {
    "id": "62930842-eb0a-49bd-81bf-e0da28ffbf81",
    "name": "Clearwater County",
    "state_id": "18e6f37e-133a-4d0a-adc0-0f6c6b2ed524"
  },
  {
    "id": "aad22a51-034e-4945-84db-1ee2a7baf00a",
    "name": "Cloquet",
    "state_id": "18e6f37e-133a-4d0a-adc0-0f6c6b2ed524"
  },
  {
    "id": "0652b894-0d4a-47aa-8dfb-1e6f10c6e47b",
    "name": "Cohasset",
    "state_id": "18e6f37e-133a-4d0a-adc0-0f6c6b2ed524"
  },
  {
    "id": "966082eb-56f1-4147-93eb-45c29aa8dacf",
    "name": "Cokato",
    "state_id": "18e6f37e-133a-4d0a-adc0-0f6c6b2ed524"
  },
  {
    "id": "699ed9b8-108d-4159-8acc-76ef78909659",
    "name": "Cold Spring",
    "state_id": "18e6f37e-133a-4d0a-adc0-0f6c6b2ed524"
  },
  {
    "id": "39f0938f-d9b9-4f75-8446-6e9349343ac4",
    "name": "Coleraine",
    "state_id": "18e6f37e-133a-4d0a-adc0-0f6c6b2ed524"
  },
  {
    "id": "6f361b48-7318-4f05-9264-992b16d596d5",
    "name": "Collegeville",
    "state_id": "18e6f37e-133a-4d0a-adc0-0f6c6b2ed524"
  },
  {
    "id": "b5da8534-a983-4734-8d38-03de9de88f10",
    "name": "Cologne",
    "state_id": "18e6f37e-133a-4d0a-adc0-0f6c6b2ed524"
  },
  {
    "id": "9b2dd1bc-9223-4c07-b771-0846d4f64993",
    "name": "Columbia Heights",
    "state_id": "18e6f37e-133a-4d0a-adc0-0f6c6b2ed524"
  },
  {
    "id": "62e9c87e-67fd-4884-89b4-af8570a319f2",
    "name": "Columbus",
    "state_id": "18e6f37e-133a-4d0a-adc0-0f6c6b2ed524"
  },
  {
    "id": "3abbabd5-a8e3-4249-9411-1ad6b9825555",
    "name": "Cook County",
    "state_id": "18e6f37e-133a-4d0a-adc0-0f6c6b2ed524"
  },
  {
    "id": "d5176b5f-b298-4d83-915c-955ec31b05eb",
    "name": "Coon Rapids",
    "state_id": "18e6f37e-133a-4d0a-adc0-0f6c6b2ed524"
  },
  {
    "id": "7c9be271-750b-44e5-b579-5005a95e2f03",
    "name": "Corcoran",
    "state_id": "18e6f37e-133a-4d0a-adc0-0f6c6b2ed524"
  },
  {
    "id": "56750e81-aede-480c-a032-2eabca70f148",
    "name": "Cottage Grove",
    "state_id": "18e6f37e-133a-4d0a-adc0-0f6c6b2ed524"
  },
  {
    "id": "a0ca3fb2-f42c-4b97-8f0a-5f1fbc2824fb",
    "name": "Cottonwood",
    "state_id": "18e6f37e-133a-4d0a-adc0-0f6c6b2ed524"
  },
  {
    "id": "8140dde1-f761-46a6-b280-8a2fbfec976a",
    "name": "Cottonwood County",
    "state_id": "18e6f37e-133a-4d0a-adc0-0f6c6b2ed524"
  },
  {
    "id": "a6417201-490b-4bda-8987-b5f995577c77",
    "name": "Crookston",
    "state_id": "18e6f37e-133a-4d0a-adc0-0f6c6b2ed524"
  },
  {
    "id": "f893f531-33e1-4e1e-9d94-096ba0750170",
    "name": "Crosby",
    "state_id": "18e6f37e-133a-4d0a-adc0-0f6c6b2ed524"
  },
  {
    "id": "4abb8e9f-b266-4a6c-8a1c-2c76a7bde329",
    "name": "Cross Lake",
    "state_id": "18e6f37e-133a-4d0a-adc0-0f6c6b2ed524"
  },
  {
    "id": "2bed9060-2f0d-4d6c-b1cf-67f46da859d9",
    "name": "Crow Wing County",
    "state_id": "18e6f37e-133a-4d0a-adc0-0f6c6b2ed524"
  },
  {
    "id": "24eb3ebe-b686-41dc-9913-3053bb7a2f37",
    "name": "Crystal",
    "state_id": "18e6f37e-133a-4d0a-adc0-0f6c6b2ed524"
  },
  {
    "id": "0ee472a3-cbf7-43ee-84c4-28d3c8c3a371",
    "name": "Dakota County",
    "state_id": "18e6f37e-133a-4d0a-adc0-0f6c6b2ed524"
  },
  {
    "id": "fb1ee0de-0807-4c3a-8878-1983ac416739",
    "name": "Dassel",
    "state_id": "18e6f37e-133a-4d0a-adc0-0f6c6b2ed524"
  },
  {
    "id": "f857a32d-0eb1-48e9-8e9d-d5a2e01c3e88",
    "name": "Dawson",
    "state_id": "18e6f37e-133a-4d0a-adc0-0f6c6b2ed524"
  },
  {
    "id": "b0a16741-30f3-459c-8443-c11306cec9aa",
    "name": "Dayton",
    "state_id": "18e6f37e-133a-4d0a-adc0-0f6c6b2ed524"
  },
  {
    "id": "4468b1c5-b2f6-4759-98dc-533e579681d1",
    "name": "Deephaven",
    "state_id": "18e6f37e-133a-4d0a-adc0-0f6c6b2ed524"
  },
  {
    "id": "54fbfd59-dead-4496-a77b-d560ca95589a",
    "name": "Delano",
    "state_id": "18e6f37e-133a-4d0a-adc0-0f6c6b2ed524"
  },
  {
    "id": "70b2643c-76cb-4f96-b265-db5cdfb76579",
    "name": "Dellwood",
    "state_id": "18e6f37e-133a-4d0a-adc0-0f6c6b2ed524"
  },
  {
    "id": "61c67854-b847-46be-a8c5-9b1b408cc29d",
    "name": "Detroit Lakes",
    "state_id": "18e6f37e-133a-4d0a-adc0-0f6c6b2ed524"
  },
  {
    "id": "0f6b4a43-9eef-4651-a459-98a2da7f6d43",
    "name": "Dilworth",
    "state_id": "18e6f37e-133a-4d0a-adc0-0f6c6b2ed524"
  },
  {
    "id": "e1e5e22e-7463-4185-9faa-ef4669db8542",
    "name": "Dodge Center",
    "state_id": "18e6f37e-133a-4d0a-adc0-0f6c6b2ed524"
  },
  {
    "id": "143b58c0-5145-4923-b045-be94221cd4f6",
    "name": "Dodge County",
    "state_id": "18e6f37e-133a-4d0a-adc0-0f6c6b2ed524"
  },
  {
    "id": "51faef91-10d6-479b-b3c2-4b84b655aeec",
    "name": "Douglas County",
    "state_id": "18e6f37e-133a-4d0a-adc0-0f6c6b2ed524"
  },
  {
    "id": "10a5470f-f461-4f70-8491-d1286b42e77d",
    "name": "Duluth",
    "state_id": "18e6f37e-133a-4d0a-adc0-0f6c6b2ed524"
  },
  {
    "id": "c2a6630c-4f62-4d99-9e1f-b72411f7331e",
    "name": "Dundas",
    "state_id": "18e6f37e-133a-4d0a-adc0-0f6c6b2ed524"
  },
  {
    "id": "fef667e2-44d6-4160-9b19-5e9b81c293de",
    "name": "Eagan",
    "state_id": "18e6f37e-133a-4d0a-adc0-0f6c6b2ed524"
  },
  {
    "id": "4da459fc-37fa-454b-96ad-82370a39a846",
    "name": "Eagle Lake",
    "state_id": "18e6f37e-133a-4d0a-adc0-0f6c6b2ed524"
  },
  {
    "id": "7e2a0a9f-997f-4433-96e2-1efa9dbea606",
    "name": "East Bethel",
    "state_id": "18e6f37e-133a-4d0a-adc0-0f6c6b2ed524"
  },
  {
    "id": "4e14bc01-e49c-4666-9d39-890199f50107",
    "name": "East Grand Forks",
    "state_id": "18e6f37e-133a-4d0a-adc0-0f6c6b2ed524"
  },
  {
    "id": "4b3b3a03-3e65-4afd-b64b-ef26be8d6045",
    "name": "East Gull Lake",
    "state_id": "18e6f37e-133a-4d0a-adc0-0f6c6b2ed524"
  },
  {
    "id": "67fa3c1b-58b0-448a-8aaa-58f5896a7cc6",
    "name": "Eden Prairie",
    "state_id": "18e6f37e-133a-4d0a-adc0-0f6c6b2ed524"
  },
  {
    "id": "ba7a6fe9-ebbc-44fb-a3bd-1b8e585d321d",
    "name": "Eden Valley",
    "state_id": "18e6f37e-133a-4d0a-adc0-0f6c6b2ed524"
  },
  {
    "id": "b647d39d-2348-4492-bfae-66f1d8b35435",
    "name": "Edgerton",
    "state_id": "18e6f37e-133a-4d0a-adc0-0f6c6b2ed524"
  },
  {
    "id": "bfa4d5c3-f7d4-493c-9be9-ccf905d7b3eb",
    "name": "Edina",
    "state_id": "18e6f37e-133a-4d0a-adc0-0f6c6b2ed524"
  },
  {
    "id": "d5700a2b-95e6-4964-a23e-79bb18e2c7b0",
    "name": "Elbow Lake",
    "state_id": "18e6f37e-133a-4d0a-adc0-0f6c6b2ed524"
  },
  {
    "id": "730326a5-ee41-4a5a-b828-77aa86347424",
    "name": "Elgin",
    "state_id": "18e6f37e-133a-4d0a-adc0-0f6c6b2ed524"
  },
  {
    "id": "8e8de05c-8a23-454b-b3eb-c5ba5dd28362",
    "name": "Elk River",
    "state_id": "18e6f37e-133a-4d0a-adc0-0f6c6b2ed524"
  },
  {
    "id": "b03123b8-648c-4cd4-a86f-a0b2de4abb65",
    "name": "Elko New Market",
    "state_id": "18e6f37e-133a-4d0a-adc0-0f6c6b2ed524"
  },
  {
    "id": "4d6b2342-d755-40b1-95e6-f1595e5c8ae5",
    "name": "Ely",
    "state_id": "18e6f37e-133a-4d0a-adc0-0f6c6b2ed524"
  },
  {
    "id": "45e0d411-6003-4d68-ae1a-baeb2f0b2121",
    "name": "Esko",
    "state_id": "18e6f37e-133a-4d0a-adc0-0f6c6b2ed524"
  },
  {
    "id": "86416d30-e1a9-4566-9ca1-f2360cd40457",
    "name": "Eveleth",
    "state_id": "18e6f37e-133a-4d0a-adc0-0f6c6b2ed524"
  },
  {
    "id": "a0dccf55-610f-4e13-bf92-3242396fb0e8",
    "name": "Excelsior",
    "state_id": "18e6f37e-133a-4d0a-adc0-0f6c6b2ed524"
  },
  {
    "id": "913b4707-4052-4654-b4d8-bbd71c7c770d",
    "name": "Eyota",
    "state_id": "18e6f37e-133a-4d0a-adc0-0f6c6b2ed524"
  },
  {
    "id": "e9e84c41-2319-4984-b74e-f2039fbeb11f",
    "name": "Fairfax",
    "state_id": "18e6f37e-133a-4d0a-adc0-0f6c6b2ed524"
  },
  {
    "id": "51f45b3b-1f90-4a59-ac2e-8e4847d14a89",
    "name": "Fairmont",
    "state_id": "18e6f37e-133a-4d0a-adc0-0f6c6b2ed524"
  },
  {
    "id": "5c9dd913-138d-4e25-99bb-10055b818dbc",
    "name": "Falcon Heights",
    "state_id": "18e6f37e-133a-4d0a-adc0-0f6c6b2ed524"
  },
  {
    "id": "e70b7074-17be-4219-8154-41e567943a54",
    "name": "Faribault",
    "state_id": "18e6f37e-133a-4d0a-adc0-0f6c6b2ed524"
  },
  {
    "id": "ac247338-aacd-4fae-815a-636b3b714739",
    "name": "Faribault County",
    "state_id": "18e6f37e-133a-4d0a-adc0-0f6c6b2ed524"
  },
  {
    "id": "dc4b356f-a21c-49b9-8315-06b75c2a6a90",
    "name": "Farmington",
    "state_id": "18e6f37e-133a-4d0a-adc0-0f6c6b2ed524"
  },
  {
    "id": "977325d1-c60b-4815-9e96-94cd055be4a0",
    "name": "Fergus Falls",
    "state_id": "18e6f37e-133a-4d0a-adc0-0f6c6b2ed524"
  },
  {
    "id": "f2601537-0c0c-4e37-970e-3b007cb95ec5",
    "name": "Fillmore County",
    "state_id": "18e6f37e-133a-4d0a-adc0-0f6c6b2ed524"
  },
  {
    "id": "1d32db39-0ad9-4813-8068-e8d5d0be64c6",
    "name": "Foley",
    "state_id": "18e6f37e-133a-4d0a-adc0-0f6c6b2ed524"
  },
  {
    "id": "dd8460b0-e1cc-4d15-a0af-9c9d711cea94",
    "name": "Forest Lake",
    "state_id": "18e6f37e-133a-4d0a-adc0-0f6c6b2ed524"
  },
  {
    "id": "1f016f45-1817-4315-9c0e-d29e5a1ba274",
    "name": "Fosston",
    "state_id": "18e6f37e-133a-4d0a-adc0-0f6c6b2ed524"
  },
  {
    "id": "339b900c-d03e-44e6-aa9c-8b48a108797f",
    "name": "Frazee",
    "state_id": "18e6f37e-133a-4d0a-adc0-0f6c6b2ed524"
  },
  {
    "id": "dfa2213e-9ac7-4798-9452-abbd29324752",
    "name": "Freeborn County",
    "state_id": "18e6f37e-133a-4d0a-adc0-0f6c6b2ed524"
  },
  {
    "id": "8a08c419-bd37-4893-abb8-ceda95cd28d0",
    "name": "Fridley",
    "state_id": "18e6f37e-133a-4d0a-adc0-0f6c6b2ed524"
  },
  {
    "id": "6d5d17e7-4a12-4c33-8aa4-e4447a649cf9",
    "name": "Fulda",
    "state_id": "18e6f37e-133a-4d0a-adc0-0f6c6b2ed524"
  },
  {
    "id": "89b23bbc-0ee7-481d-baaa-8d52b73f5f37",
    "name": "Gaylord",
    "state_id": "18e6f37e-133a-4d0a-adc0-0f6c6b2ed524"
  },
  {
    "id": "288ea47d-f1d2-4d2a-99d3-550fe772ed03",
    "name": "Gilbert",
    "state_id": "18e6f37e-133a-4d0a-adc0-0f6c6b2ed524"
  },
  {
    "id": "e332f9dc-2df9-403d-a3ea-3127b502b415",
    "name": "Glencoe",
    "state_id": "18e6f37e-133a-4d0a-adc0-0f6c6b2ed524"
  },
  {
    "id": "6d4a395e-27e3-42bd-89a4-940f90a2bf57",
    "name": "Glenwood",
    "state_id": "18e6f37e-133a-4d0a-adc0-0f6c6b2ed524"
  },
  {
    "id": "bdecfc82-1862-4053-ba1a-d9d2384a4fd2",
    "name": "Glyndon",
    "state_id": "18e6f37e-133a-4d0a-adc0-0f6c6b2ed524"
  },
  {
    "id": "9f6d1a42-8afb-4666-97f2-de84482f20b6",
    "name": "Golden Valley",
    "state_id": "18e6f37e-133a-4d0a-adc0-0f6c6b2ed524"
  },
  {
    "id": "a5ce39d9-3615-4219-a278-6f4b6f297717",
    "name": "Goodhue",
    "state_id": "18e6f37e-133a-4d0a-adc0-0f6c6b2ed524"
  },
  {
    "id": "f9188ca1-5d83-4fdf-a970-d42c5211afb5",
    "name": "Goodhue County",
    "state_id": "18e6f37e-133a-4d0a-adc0-0f6c6b2ed524"
  },
  {
    "id": "2d2eeecd-2682-4051-b694-ebf35b71195a",
    "name": "Goodview",
    "state_id": "18e6f37e-133a-4d0a-adc0-0f6c6b2ed524"
  },
  {
    "id": "99bb941a-b8ba-4bc0-9e52-8cbc961313e6",
    "name": "Grand Marais",
    "state_id": "18e6f37e-133a-4d0a-adc0-0f6c6b2ed524"
  },
  {
    "id": "2210a44d-4eb4-45a8-804e-639dfea5d766",
    "name": "Grand Meadow",
    "state_id": "18e6f37e-133a-4d0a-adc0-0f6c6b2ed524"
  },
  {
    "id": "46d389e2-cde0-447e-b673-d09b83b65a7b",
    "name": "Grand Rapids",
    "state_id": "18e6f37e-133a-4d0a-adc0-0f6c6b2ed524"
  },
  {
    "id": "d2e8ac8c-28ab-4e83-9d00-9235f5997bea",
    "name": "Granite Falls",
    "state_id": "18e6f37e-133a-4d0a-adc0-0f6c6b2ed524"
  },
  {
    "id": "f2bcabbf-7285-45a5-a3e2-d12686eb4b12",
    "name": "Grant",
    "state_id": "18e6f37e-133a-4d0a-adc0-0f6c6b2ed524"
  },
  {
    "id": "51c7c599-c8b8-48e8-b76f-edc02db8b083",
    "name": "Grant County",
    "state_id": "18e6f37e-133a-4d0a-adc0-0f6c6b2ed524"
  },
  {
    "id": "2b452be7-3bca-412b-9df7-0c8951923c48",
    "name": "Greenfield",
    "state_id": "18e6f37e-133a-4d0a-adc0-0f6c6b2ed524"
  },
  {
    "id": "7ed0b066-ab9d-497b-b904-5bffb7130831",
    "name": "Hallock",
    "state_id": "18e6f37e-133a-4d0a-adc0-0f6c6b2ed524"
  },
  {
    "id": "5cf7f78b-807e-4fe1-b44a-6fbba3b27979",
    "name": "Ham Lake",
    "state_id": "18e6f37e-133a-4d0a-adc0-0f6c6b2ed524"
  },
  {
    "id": "cea74a91-5a7a-4db7-9433-ae7cf8e8c14d",
    "name": "Hanover",
    "state_id": "18e6f37e-133a-4d0a-adc0-0f6c6b2ed524"
  },
  {
    "id": "9a1bbc64-92b8-4acd-82c6-d936ce785a85",
    "name": "Harris",
    "state_id": "18e6f37e-133a-4d0a-adc0-0f6c6b2ed524"
  },
  {
    "id": "d0ca176d-757f-43fe-a9e6-64f3512d17d1",
    "name": "Hastings",
    "state_id": "18e6f37e-133a-4d0a-adc0-0f6c6b2ed524"
  },
  {
    "id": "434586e2-fa18-44a8-b269-19bf232699b3",
    "name": "Hawley",
    "state_id": "18e6f37e-133a-4d0a-adc0-0f6c6b2ed524"
  },
  {
    "id": "2510d200-fd8a-47df-ab40-1c50a0793568",
    "name": "Hayfield",
    "state_id": "18e6f37e-133a-4d0a-adc0-0f6c6b2ed524"
  },
  {
    "id": "3e4d3e4b-e1d0-4808-89f9-12c0424a96e3",
    "name": "Hector",
    "state_id": "18e6f37e-133a-4d0a-adc0-0f6c6b2ed524"
  },
  {
    "id": "d09749f9-aec1-4750-972f-29e1f4718e8d",
    "name": "Hennepin County",
    "state_id": "18e6f37e-133a-4d0a-adc0-0f6c6b2ed524"
  },
  {
    "id": "069904c0-b53e-4e30-a52c-ee28583f3e81",
    "name": "Hermantown",
    "state_id": "18e6f37e-133a-4d0a-adc0-0f6c6b2ed524"
  },
  {
    "id": "2d7d62dd-9b4e-46df-907c-75f0d31ed4c0",
    "name": "Hibbing",
    "state_id": "18e6f37e-133a-4d0a-adc0-0f6c6b2ed524"
  },
  {
    "id": "0153f1c5-a5dc-45bc-a59f-c512956664b5",
    "name": "Hinckley",
    "state_id": "18e6f37e-133a-4d0a-adc0-0f6c6b2ed524"
  },
  {
    "id": "5067962e-d08a-4913-8598-254e5dc81857",
    "name": "Hopkins",
    "state_id": "18e6f37e-133a-4d0a-adc0-0f6c6b2ed524"
  },
  {
    "id": "388f4be1-01a7-4217-ad93-812f04e81a56",
    "name": "Houston County",
    "state_id": "18e6f37e-133a-4d0a-adc0-0f6c6b2ed524"
  },
  {
    "id": "776c7763-0f42-492b-b1c3-6cd249caaae3",
    "name": "Howard Lake",
    "state_id": "18e6f37e-133a-4d0a-adc0-0f6c6b2ed524"
  },
  {
    "id": "07c77fcb-0677-4050-b41e-20b603cb1cf3",
    "name": "Hoyt Lakes",
    "state_id": "18e6f37e-133a-4d0a-adc0-0f6c6b2ed524"
  },
  {
    "id": "3935adac-4a15-43d4-b02e-08cd0f918724",
    "name": "Hubbard County",
    "state_id": "18e6f37e-133a-4d0a-adc0-0f6c6b2ed524"
  },
  {
    "id": "30093ef2-8c33-402f-98fd-00c627f684e6",
    "name": "Hugo",
    "state_id": "18e6f37e-133a-4d0a-adc0-0f6c6b2ed524"
  },
  {
    "id": "3d99e86e-f738-43c5-b793-6905167239af",
    "name": "Hutchinson",
    "state_id": "18e6f37e-133a-4d0a-adc0-0f6c6b2ed524"
  },
  {
    "id": "674c31f5-8ee4-4f66-ac98-4a94e95fc2e4",
    "name": "Independence",
    "state_id": "18e6f37e-133a-4d0a-adc0-0f6c6b2ed524"
  },
  {
    "id": "8021841b-f73d-48d0-bd90-17e80f50ffb6",
    "name": "International Falls",
    "state_id": "18e6f37e-133a-4d0a-adc0-0f6c6b2ed524"
  },
  {
    "id": "e84db07c-042f-4eb0-9feb-e76031ac834c",
    "name": "Inver Grove Heights",
    "state_id": "18e6f37e-133a-4d0a-adc0-0f6c6b2ed524"
  },
  {
    "id": "b135e3fc-af70-4fe1-8e51-e1ce139d73ab",
    "name": "Isanti",
    "state_id": "18e6f37e-133a-4d0a-adc0-0f6c6b2ed524"
  },
  {
    "id": "2faf00eb-6ce6-4fcc-add1-85c5b0ad8d55",
    "name": "Isanti County",
    "state_id": "18e6f37e-133a-4d0a-adc0-0f6c6b2ed524"
  },
  {
    "id": "64cbead4-1350-45ca-b800-def266d91cd7",
    "name": "Itasca County",
    "state_id": "18e6f37e-133a-4d0a-adc0-0f6c6b2ed524"
  },
  {
    "id": "efe18c2b-1ebc-4efc-ad99-da80e6d04a52",
    "name": "Ivanhoe",
    "state_id": "18e6f37e-133a-4d0a-adc0-0f6c6b2ed524"
  },
  {
    "id": "ceefff0e-4622-41ba-ad5c-a9447131a51a",
    "name": "Jackson",
    "state_id": "18e6f37e-133a-4d0a-adc0-0f6c6b2ed524"
  },
  {
    "id": "0d1ccccd-9b12-4c55-84f9-a861fd9039cf",
    "name": "Jackson County",
    "state_id": "18e6f37e-133a-4d0a-adc0-0f6c6b2ed524"
  },
  {
    "id": "4c7cd24c-e469-4622-8500-532f5f313d07",
    "name": "Janesville",
    "state_id": "18e6f37e-133a-4d0a-adc0-0f6c6b2ed524"
  },
  {
    "id": "2bd9e01a-edf4-4931-acc1-a84814976b56",
    "name": "Jordan",
    "state_id": "18e6f37e-133a-4d0a-adc0-0f6c6b2ed524"
  },
  {
    "id": "d4b8f8d0-51f9-4446-9064-03dd48c33b4b",
    "name": "Kanabec County",
    "state_id": "18e6f37e-133a-4d0a-adc0-0f6c6b2ed524"
  },
  {
    "id": "38fb2926-8197-4242-b5c9-221f2f4f0885",
    "name": "Kandiyohi County",
    "state_id": "18e6f37e-133a-4d0a-adc0-0f6c6b2ed524"
  },
  {
    "id": "3f4afefa-43d8-4b45-a36d-6de12b48007e",
    "name": "Kasson",
    "state_id": "18e6f37e-133a-4d0a-adc0-0f6c6b2ed524"
  },
  {
    "id": "3333951d-4bca-4f5a-be02-ce91ae8565a8",
    "name": "Keewatin",
    "state_id": "18e6f37e-133a-4d0a-adc0-0f6c6b2ed524"
  },
  {
    "id": "c0847e11-d398-40fc-a700-2ea539d1561e",
    "name": "Kenyon",
    "state_id": "18e6f37e-133a-4d0a-adc0-0f6c6b2ed524"
  },
  {
    "id": "fd0ec051-1f7b-4521-b34c-0703adbacc80",
    "name": "Kittson County",
    "state_id": "18e6f37e-133a-4d0a-adc0-0f6c6b2ed524"
  },
  {
    "id": "e624702b-dd9d-4693-8c0b-f6bc1b3bd761",
    "name": "Koochiching County",
    "state_id": "18e6f37e-133a-4d0a-adc0-0f6c6b2ed524"
  },
  {
    "id": "bcd04d04-e89d-4da4-81a6-8cc6e928523f",
    "name": "La Crescent",
    "state_id": "18e6f37e-133a-4d0a-adc0-0f6c6b2ed524"
  },
  {
    "id": "0f551467-108b-44a7-bfbb-7c8d81068e82",
    "name": "Lac qui Parle County",
    "state_id": "18e6f37e-133a-4d0a-adc0-0f6c6b2ed524"
  },
  {
    "id": "e350978f-d25e-426c-9d49-54784ff13118",
    "name": "Lake City",
    "state_id": "18e6f37e-133a-4d0a-adc0-0f6c6b2ed524"
  },
  {
    "id": "e30ceab9-eea0-496e-9401-2dab4ee0a18c",
    "name": "Lake County",
    "state_id": "18e6f37e-133a-4d0a-adc0-0f6c6b2ed524"
  },
  {
    "id": "852d6c54-6242-4c15-8833-0eb0acbc5e85",
    "name": "Lake Crystal",
    "state_id": "18e6f37e-133a-4d0a-adc0-0f6c6b2ed524"
  },
  {
    "id": "5e9aa9e3-afab-4b6e-a42b-fc6032d6d8e4",
    "name": "Lake Elmo",
    "state_id": "18e6f37e-133a-4d0a-adc0-0f6c6b2ed524"
  },
  {
    "id": "592cb459-11f1-4e5f-bd5c-a5a2c2681ca4",
    "name": "Lake of the Woods County",
    "state_id": "18e6f37e-133a-4d0a-adc0-0f6c6b2ed524"
  },
  {
    "id": "c9393caf-bd89-4694-8d52-edac98ba8e66",
    "name": "Lake Saint Croix Beach",
    "state_id": "18e6f37e-133a-4d0a-adc0-0f6c6b2ed524"
  },
  {
    "id": "e689692d-3c11-47c8-b2f8-ed1f543a8b51",
    "name": "Lake Shore",
    "state_id": "18e6f37e-133a-4d0a-adc0-0f6c6b2ed524"
  },
  {
    "id": "5a411c93-29b5-4d0c-9bfe-dea824fc51ee",
    "name": "Lakefield",
    "state_id": "18e6f37e-133a-4d0a-adc0-0f6c6b2ed524"
  },
  {
    "id": "8eb79b02-8038-4222-9312-0eb87c3b82f2",
    "name": "Lakeland",
    "state_id": "18e6f37e-133a-4d0a-adc0-0f6c6b2ed524"
  },
  {
    "id": "c2d9159a-1e71-4f42-8c8f-ff18953839d9",
    "name": "Lakeville",
    "state_id": "18e6f37e-133a-4d0a-adc0-0f6c6b2ed524"
  },
  {
    "id": "b3e9e49a-51a1-4090-aa2e-0502a52b2d6d",
    "name": "Lauderdale",
    "state_id": "18e6f37e-133a-4d0a-adc0-0f6c6b2ed524"
  },
  {
    "id": "30a96ddb-d63f-412c-8507-1bb6c8e9fc3d",
    "name": "Le Center",
    "state_id": "18e6f37e-133a-4d0a-adc0-0f6c6b2ed524"
  },
  {
    "id": "f198b600-e817-45b7-a053-6a1cc601c459",
    "name": "Le Sueur",
    "state_id": "18e6f37e-133a-4d0a-adc0-0f6c6b2ed524"
  },
  {
    "id": "1f57ffcc-b122-4e55-a587-66876155d9bc",
    "name": "Le Sueur County",
    "state_id": "18e6f37e-133a-4d0a-adc0-0f6c6b2ed524"
  },
  {
    "id": "5e5a4d66-2fa8-4e62-90d0-35d9271ef077",
    "name": "Lester Prairie",
    "state_id": "18e6f37e-133a-4d0a-adc0-0f6c6b2ed524"
  },
  {
    "id": "ff3a3691-772f-45bb-89ef-d9123b99e4bb",
    "name": "Lewiston",
    "state_id": "18e6f37e-133a-4d0a-adc0-0f6c6b2ed524"
  },
  {
    "id": "4d06628c-7143-48be-8448-0ff35e28d12f",
    "name": "Lexington",
    "state_id": "18e6f37e-133a-4d0a-adc0-0f6c6b2ed524"
  },
  {
    "id": "c27e6cb4-a6bf-4ddc-b925-914bb7213e5f",
    "name": "Lincoln County",
    "state_id": "18e6f37e-133a-4d0a-adc0-0f6c6b2ed524"
  },
  {
    "id": "477cbb5e-22a5-4c41-814d-1ad96a3b450e",
    "name": "Lindstrom",
    "state_id": "18e6f37e-133a-4d0a-adc0-0f6c6b2ed524"
  },
  {
    "id": "7914d753-a6ef-49bf-942b-34c2e5571c82",
    "name": "Lino Lakes",
    "state_id": "18e6f37e-133a-4d0a-adc0-0f6c6b2ed524"
  },
  {
    "id": "cb92778a-9f85-4d16-a30b-a2805f6da8d8",
    "name": "Litchfield",
    "state_id": "18e6f37e-133a-4d0a-adc0-0f6c6b2ed524"
  },
  {
    "id": "54a663a3-14ba-4e43-9c6a-03a298367df8",
    "name": "Little Canada",
    "state_id": "18e6f37e-133a-4d0a-adc0-0f6c6b2ed524"
  },
  {
    "id": "3f745c8a-d2fe-40bd-b064-7c09e99f6060",
    "name": "Little Falls",
    "state_id": "18e6f37e-133a-4d0a-adc0-0f6c6b2ed524"
  },
  {
    "id": "bd6980f9-9e01-4ffe-9a51-783d54098d54",
    "name": "Little Rock",
    "state_id": "18e6f37e-133a-4d0a-adc0-0f6c6b2ed524"
  },
  {
    "id": "69e7681d-2369-49df-b452-0d2025d5b66b",
    "name": "Long Lake",
    "state_id": "18e6f37e-133a-4d0a-adc0-0f6c6b2ed524"
  },
  {
    "id": "a040d801-3f84-48ea-ab27-37e39345a837",
    "name": "Long Prairie",
    "state_id": "18e6f37e-133a-4d0a-adc0-0f6c6b2ed524"
  },
  {
    "id": "9d806a03-a416-4982-bd2d-8922dd72e1f7",
    "name": "Lonsdale",
    "state_id": "18e6f37e-133a-4d0a-adc0-0f6c6b2ed524"
  },
  {
    "id": "fb78a2a2-67dd-4018-9de9-49b17d02c063",
    "name": "Luverne",
    "state_id": "18e6f37e-133a-4d0a-adc0-0f6c6b2ed524"
  },
  {
    "id": "dea6f766-e9ca-4886-a802-3979bc017348",
    "name": "Lyon County",
    "state_id": "18e6f37e-133a-4d0a-adc0-0f6c6b2ed524"
  },
  {
    "id": "d34e1dd8-2631-458c-8711-c5400aeafa2f",
    "name": "Madelia",
    "state_id": "18e6f37e-133a-4d0a-adc0-0f6c6b2ed524"
  },
  {
    "id": "5c0df98d-4254-428a-b509-2dbc44324652",
    "name": "Madison",
    "state_id": "18e6f37e-133a-4d0a-adc0-0f6c6b2ed524"
  },
  {
    "id": "f975f93e-130f-4a7e-a81c-1e9a707de701",
    "name": "Madison Lake",
    "state_id": "18e6f37e-133a-4d0a-adc0-0f6c6b2ed524"
  },
  {
    "id": "d93145cb-7bd7-437a-9cf6-2cb3c52d82f9",
    "name": "Mahnomen",
    "state_id": "18e6f37e-133a-4d0a-adc0-0f6c6b2ed524"
  },
  {
    "id": "89fb522a-eea0-4c32-a844-e23f59b1714f",
    "name": "Mahnomen County",
    "state_id": "18e6f37e-133a-4d0a-adc0-0f6c6b2ed524"
  },
  {
    "id": "3b00a90d-204c-43c4-93af-d4d6155ca357",
    "name": "Mahtomedi",
    "state_id": "18e6f37e-133a-4d0a-adc0-0f6c6b2ed524"
  },
  {
    "id": "b1f78a70-5928-4e92-8c84-0c5cb4ac8bc0",
    "name": "Mankato",
    "state_id": "18e6f37e-133a-4d0a-adc0-0f6c6b2ed524"
  },
  {
    "id": "b6c1d5d5-eacc-4905-ab1b-e04abab4d6e0",
    "name": "Mantorville",
    "state_id": "18e6f37e-133a-4d0a-adc0-0f6c6b2ed524"
  },
  {
    "id": "b6f4c5ef-07e9-4683-b3dc-8e873ca4f650",
    "name": "Maple Grove",
    "state_id": "18e6f37e-133a-4d0a-adc0-0f6c6b2ed524"
  },
  {
    "id": "dc2aa5c2-0c14-490d-aa74-f4ede603578a",
    "name": "Maple Lake",
    "state_id": "18e6f37e-133a-4d0a-adc0-0f6c6b2ed524"
  },
  {
    "id": "9ea1ae4e-1d6c-4aaf-860c-9fef449d18e4",
    "name": "Maple Plain",
    "state_id": "18e6f37e-133a-4d0a-adc0-0f6c6b2ed524"
  },
  {
    "id": "ee312693-39cd-47bf-a06d-9d8e01a92c3b",
    "name": "Mapleton",
    "state_id": "18e6f37e-133a-4d0a-adc0-0f6c6b2ed524"
  },
  {
    "id": "399f4911-82e1-4b1b-ac7b-3206239704ba",
    "name": "Maplewood",
    "state_id": "18e6f37e-133a-4d0a-adc0-0f6c6b2ed524"
  },
  {
    "id": "b11ba854-5769-4596-8bb1-bee8de73820a",
    "name": "Marshall",
    "state_id": "18e6f37e-133a-4d0a-adc0-0f6c6b2ed524"
  },
  {
    "id": "66e08f0f-e235-4291-ab52-89e13b08ef89",
    "name": "Marshall County",
    "state_id": "18e6f37e-133a-4d0a-adc0-0f6c6b2ed524"
  },
  {
    "id": "e9bc2483-5dcf-4abf-8bed-08fbdf8940c2",
    "name": "Martin County",
    "state_id": "18e6f37e-133a-4d0a-adc0-0f6c6b2ed524"
  },
  {
    "id": "2cf07f34-8f78-447e-9d06-13b144874393",
    "name": "Mayer",
    "state_id": "18e6f37e-133a-4d0a-adc0-0f6c6b2ed524"
  },
  {
    "id": "11c81bc0-9a40-4360-b38f-dbe9a7882f4f",
    "name": "McLeod County",
    "state_id": "18e6f37e-133a-4d0a-adc0-0f6c6b2ed524"
  },
  {
    "id": "c75af4d2-f73c-41da-97f1-c8413b224697",
    "name": "Medford",
    "state_id": "18e6f37e-133a-4d0a-adc0-0f6c6b2ed524"
  },
  {
    "id": "04f3e773-2e6c-49e0-a810-7d9f6c30789c",
    "name": "Medina",
    "state_id": "18e6f37e-133a-4d0a-adc0-0f6c6b2ed524"
  },
  {
    "id": "8dba8f7a-c7a8-4dbe-b1b5-cd7a8c66de65",
    "name": "Meeker County",
    "state_id": "18e6f37e-133a-4d0a-adc0-0f6c6b2ed524"
  },
  {
    "id": "97795c48-f4bd-4fa8-b3c0-2ce040187489",
    "name": "Melrose",
    "state_id": "18e6f37e-133a-4d0a-adc0-0f6c6b2ed524"
  },
  {
    "id": "a685fb6d-c4e8-4bac-a426-6d58ccc43a72",
    "name": "Menahga",
    "state_id": "18e6f37e-133a-4d0a-adc0-0f6c6b2ed524"
  },
  {
    "id": "a2f2bc59-cea0-48f8-8e09-ac8dba4b524b",
    "name": "Mendota Heights",
    "state_id": "18e6f37e-133a-4d0a-adc0-0f6c6b2ed524"
  },
  {
    "id": "4eafddd5-5a7f-4c46-acc8-8b806406c6ff",
    "name": "Milaca",
    "state_id": "18e6f37e-133a-4d0a-adc0-0f6c6b2ed524"
  },
  {
    "id": "8f93fc68-5a4d-4d88-af72-8c72fb02d14f",
    "name": "Mille Lacs County",
    "state_id": "18e6f37e-133a-4d0a-adc0-0f6c6b2ed524"
  },
  {
    "id": "66676665-2c57-46d0-a65f-c57b38163e09",
    "name": "Minneapolis",
    "state_id": "18e6f37e-133a-4d0a-adc0-0f6c6b2ed524"
  },
  {
    "id": "2f5cfe6f-88d9-4236-821d-23fc46864f7b",
    "name": "Minneota",
    "state_id": "18e6f37e-133a-4d0a-adc0-0f6c6b2ed524"
  },
  {
    "id": "781de2a6-993e-4838-a438-1e374e6e82bf",
    "name": "Minnetonka",
    "state_id": "18e6f37e-133a-4d0a-adc0-0f6c6b2ed524"
  },
  {
    "id": "a0d688de-37ca-4562-be85-c89387a661a8",
    "name": "Minnetonka Mills",
    "state_id": "18e6f37e-133a-4d0a-adc0-0f6c6b2ed524"
  },
  {
    "id": "95e0ba25-e5c8-4fb4-a8fe-ebb55e4bf6f3",
    "name": "Minnetrista",
    "state_id": "18e6f37e-133a-4d0a-adc0-0f6c6b2ed524"
  },
  {
    "id": "c21bb4f0-bca7-4ecd-88cf-34248b267222",
    "name": "Montevideo",
    "state_id": "18e6f37e-133a-4d0a-adc0-0f6c6b2ed524"
  },
  {
    "id": "b09a8139-cf12-4a3f-b87b-eeaff583e1d5",
    "name": "Montgomery",
    "state_id": "18e6f37e-133a-4d0a-adc0-0f6c6b2ed524"
  },
  {
    "id": "4afa2a18-ccf2-4a70-b0d9-be7eb09ec021",
    "name": "Monticello",
    "state_id": "18e6f37e-133a-4d0a-adc0-0f6c6b2ed524"
  },
  {
    "id": "ed408137-92bf-405b-82be-b17c3e4ad1fb",
    "name": "Montrose",
    "state_id": "18e6f37e-133a-4d0a-adc0-0f6c6b2ed524"
  },
  {
    "id": "7f1f9478-433d-4b19-9b1d-2e188392ff14",
    "name": "Moorhead",
    "state_id": "18e6f37e-133a-4d0a-adc0-0f6c6b2ed524"
  },
  {
    "id": "dd99ad83-a164-4d2e-a907-cce37647c00f",
    "name": "Moose Lake",
    "state_id": "18e6f37e-133a-4d0a-adc0-0f6c6b2ed524"
  },
  {
    "id": "e14d0e18-cff2-4339-88f2-efc4e9f3d05f",
    "name": "Mora",
    "state_id": "18e6f37e-133a-4d0a-adc0-0f6c6b2ed524"
  },
  {
    "id": "a2594eb3-9554-4635-8929-bc9544547f9d",
    "name": "Morris",
    "state_id": "18e6f37e-133a-4d0a-adc0-0f6c6b2ed524"
  },
  {
    "id": "1983641e-1046-4db3-ae9e-213fce8a6f2b",
    "name": "Morrison County",
    "state_id": "18e6f37e-133a-4d0a-adc0-0f6c6b2ed524"
  },
  {
    "id": "059ac0bc-ef59-4c43-86b0-ff0ed5aac43a",
    "name": "Mound",
    "state_id": "18e6f37e-133a-4d0a-adc0-0f6c6b2ed524"
  },
  {
    "id": "c3103cbd-7799-4f1a-9080-59f3e7cd3a78",
    "name": "Mounds View",
    "state_id": "18e6f37e-133a-4d0a-adc0-0f6c6b2ed524"
  },
  {
    "id": "5d44ef7b-a231-4587-a874-219e19525ea5",
    "name": "Mountain Iron",
    "state_id": "18e6f37e-133a-4d0a-adc0-0f6c6b2ed524"
  },
  {
    "id": "d994080a-ebaa-4886-ba41-7362c44f2b27",
    "name": "Mountain Lake",
    "state_id": "18e6f37e-133a-4d0a-adc0-0f6c6b2ed524"
  },
  {
    "id": "fe64ebf6-a5f0-45fb-aba3-7d83d8fc8841",
    "name": "Mower County",
    "state_id": "18e6f37e-133a-4d0a-adc0-0f6c6b2ed524"
  },
  {
    "id": "7abf015b-4f09-453c-9fa9-1478b6340f82",
    "name": "Murray County",
    "state_id": "18e6f37e-133a-4d0a-adc0-0f6c6b2ed524"
  },
  {
    "id": "1fda683c-c8e0-4248-854f-6a6eedb4546b",
    "name": "New Brighton",
    "state_id": "18e6f37e-133a-4d0a-adc0-0f6c6b2ed524"
  },
  {
    "id": "b87f81c7-c819-4a12-89e5-6064918cd778",
    "name": "New Hope",
    "state_id": "18e6f37e-133a-4d0a-adc0-0f6c6b2ed524"
  },
  {
    "id": "9e2939d5-ca78-426f-9136-3846a0e6129f",
    "name": "New London",
    "state_id": "18e6f37e-133a-4d0a-adc0-0f6c6b2ed524"
  },
  {
    "id": "fdabb784-fd8e-43ac-ae4f-6377ec3843e9",
    "name": "New Prague",
    "state_id": "18e6f37e-133a-4d0a-adc0-0f6c6b2ed524"
  },
  {
    "id": "25bf0e18-1872-4ac6-8aad-b4727db0ab61",
    "name": "New Richland",
    "state_id": "18e6f37e-133a-4d0a-adc0-0f6c6b2ed524"
  },
  {
    "id": "dc1b3222-fc67-45bf-bd8b-ccf49b68ef6c",
    "name": "New Ulm",
    "state_id": "18e6f37e-133a-4d0a-adc0-0f6c6b2ed524"
  },
  {
    "id": "948c79fa-a2cf-4759-8497-2bfee1312dff",
    "name": "New York Mills",
    "state_id": "18e6f37e-133a-4d0a-adc0-0f6c6b2ed524"
  },
  {
    "id": "86a5d0a2-726c-4f95-9d4b-be7addcaf1e0",
    "name": "Newport",
    "state_id": "18e6f37e-133a-4d0a-adc0-0f6c6b2ed524"
  },
  {
    "id": "5210dd0a-c297-411a-8a86-c3e483b65136",
    "name": "Nicollet",
    "state_id": "18e6f37e-133a-4d0a-adc0-0f6c6b2ed524"
  },
  {
    "id": "198e5793-e8b2-40b4-b2ea-fb8fbb78470c",
    "name": "Nicollet County",
    "state_id": "18e6f37e-133a-4d0a-adc0-0f6c6b2ed524"
  },
  {
    "id": "966d5591-56d9-4894-8e3a-034498255fe2",
    "name": "Nisswa",
    "state_id": "18e6f37e-133a-4d0a-adc0-0f6c6b2ed524"
  },
  {
    "id": "7e1846b5-a628-4bff-8108-7a5fe8bda322",
    "name": "Nobles County",
    "state_id": "18e6f37e-133a-4d0a-adc0-0f6c6b2ed524"
  },
  {
    "id": "b188a1c7-01da-45c7-aa36-a38a98352434",
    "name": "Norman County",
    "state_id": "18e6f37e-133a-4d0a-adc0-0f6c6b2ed524"
  },
  {
    "id": "5f74f86a-1c4a-4300-b314-c3a2d9986e3b",
    "name": "North Branch",
    "state_id": "18e6f37e-133a-4d0a-adc0-0f6c6b2ed524"
  },
  {
    "id": "8c41fd70-af37-4dd5-bfe5-1b9cbccfce66",
    "name": "North Mankato",
    "state_id": "18e6f37e-133a-4d0a-adc0-0f6c6b2ed524"
  },
  {
    "id": "591c3b23-282d-4e54-8f42-a795d582a59a",
    "name": "North Oaks",
    "state_id": "18e6f37e-133a-4d0a-adc0-0f6c6b2ed524"
  },
  {
    "id": "fd7eb0fb-078c-4dd1-a9f8-3a0439e533fe",
    "name": "North Saint Paul",
    "state_id": "18e6f37e-133a-4d0a-adc0-0f6c6b2ed524"
  },
  {
    "id": "9ac3eb5c-0d99-4035-b4e0-a1c23cc2f682",
    "name": "Northfield",
    "state_id": "18e6f37e-133a-4d0a-adc0-0f6c6b2ed524"
  },
  {
    "id": "59469aa4-4b5f-4d81-a7e1-9ddceb564024",
    "name": "Norwood (historical)",
    "state_id": "18e6f37e-133a-4d0a-adc0-0f6c6b2ed524"
  },
  {
    "id": "27f02ca1-e55f-4db8-83af-d3853ac2c6c4",
    "name": "Norwood Young America",
    "state_id": "18e6f37e-133a-4d0a-adc0-0f6c6b2ed524"
  },
  {
    "id": "8e21bcad-3856-40a9-9db9-499d08677f10",
    "name": "Nowthen",
    "state_id": "18e6f37e-133a-4d0a-adc0-0f6c6b2ed524"
  },
  {
    "id": "c4749d3c-73e0-4ec1-a18c-b05ffd345b62",
    "name": "Oak Grove",
    "state_id": "18e6f37e-133a-4d0a-adc0-0f6c6b2ed524"
  },
  {
    "id": "5b2cc5f6-8b3c-4aa3-a071-e11b2c847a8b",
    "name": "Oak Park Heights",
    "state_id": "18e6f37e-133a-4d0a-adc0-0f6c6b2ed524"
  },
  {
    "id": "68580ba5-3d8a-46ac-bb8a-c1ab4e2f6fdf",
    "name": "Oakdale",
    "state_id": "18e6f37e-133a-4d0a-adc0-0f6c6b2ed524"
  },
  {
    "id": "93734f32-124c-48af-86ad-e64fb92e3029",
    "name": "Oakport",
    "state_id": "18e6f37e-133a-4d0a-adc0-0f6c6b2ed524"
  },
  {
    "id": "015c0066-08de-4f33-9ac2-c65bceeeb643",
    "name": "Olivia",
    "state_id": "18e6f37e-133a-4d0a-adc0-0f6c6b2ed524"
  },
  {
    "id": "08703b5a-8c17-4e33-afee-1913820c4fe6",
    "name": "Olmsted County",
    "state_id": "18e6f37e-133a-4d0a-adc0-0f6c6b2ed524"
  },
  {
    "id": "d1fea940-f87b-4aa5-bdce-af1c0f71d6e1",
    "name": "Orono",
    "state_id": "18e6f37e-133a-4d0a-adc0-0f6c6b2ed524"
  },
  {
    "id": "5ac55297-2496-4c6b-9fe2-86ee909d259f",
    "name": "Oronoco",
    "state_id": "18e6f37e-133a-4d0a-adc0-0f6c6b2ed524"
  },
  {
    "id": "205d21bf-f572-440c-94de-800c6f1c2180",
    "name": "Ortonville",
    "state_id": "18e6f37e-133a-4d0a-adc0-0f6c6b2ed524"
  },
  {
    "id": "204f8ae8-f25f-4b0e-95e9-0e6de67d55bf",
    "name": "Osakis",
    "state_id": "18e6f37e-133a-4d0a-adc0-0f6c6b2ed524"
  },
  {
    "id": "ebe3fafb-5316-4f1f-8513-f46aed2ca868",
    "name": "Osseo",
    "state_id": "18e6f37e-133a-4d0a-adc0-0f6c6b2ed524"
  },
  {
    "id": "3568c683-0513-4700-a125-89b27a5e77ce",
    "name": "Otsego",
    "state_id": "18e6f37e-133a-4d0a-adc0-0f6c6b2ed524"
  },
  {
    "id": "1a94d59b-1558-42df-9112-80cccbcc0f38",
    "name": "Otter Tail County",
    "state_id": "18e6f37e-133a-4d0a-adc0-0f6c6b2ed524"
  },
  {
    "id": "cf2a34a7-5824-4294-bee1-be4906fb6539",
    "name": "Owatonna",
    "state_id": "18e6f37e-133a-4d0a-adc0-0f6c6b2ed524"
  },
  {
    "id": "73592b0f-e490-4af5-ad14-d6c3860a56ea",
    "name": "Park Rapids",
    "state_id": "18e6f37e-133a-4d0a-adc0-0f6c6b2ed524"
  },
  {
    "id": "72fc2fa7-d9cb-4bf4-98ea-c8208e79bb83",
    "name": "Parkers Prairie",
    "state_id": "18e6f37e-133a-4d0a-adc0-0f6c6b2ed524"
  },
  {
    "id": "34d4a005-57cb-4e01-9777-8f9aa3dd4634",
    "name": "Parkville",
    "state_id": "18e6f37e-133a-4d0a-adc0-0f6c6b2ed524"
  },
  {
    "id": "74d5ece0-6b0f-4436-9407-1d4a4a505f25",
    "name": "Paynesville",
    "state_id": "18e6f37e-133a-4d0a-adc0-0f6c6b2ed524"
  },
  {
    "id": "7abb8e26-32a0-4294-962c-a50a41d24ed7",
    "name": "Pelican Rapids",
    "state_id": "18e6f37e-133a-4d0a-adc0-0f6c6b2ed524"
  },
  {
    "id": "8f9f2c95-deed-4b1e-bfe0-6eed583afb76",
    "name": "Pennington County",
    "state_id": "18e6f37e-133a-4d0a-adc0-0f6c6b2ed524"
  },
  {
    "id": "45ad27d1-878a-4cd6-bda7-6178f6014ba0",
    "name": "Pequot Lakes",
    "state_id": "18e6f37e-133a-4d0a-adc0-0f6c6b2ed524"
  },
  {
    "id": "814d9582-6ae5-417a-864c-4821b9af63f8",
    "name": "Perham",
    "state_id": "18e6f37e-133a-4d0a-adc0-0f6c6b2ed524"
  },
  {
    "id": "3f7dde66-4578-40f4-ad08-0ea1d678de43",
    "name": "Pierz",
    "state_id": "18e6f37e-133a-4d0a-adc0-0f6c6b2ed524"
  },
  {
    "id": "b7a714bf-2909-4386-a55f-4f74ff363e3f",
    "name": "Pine City",
    "state_id": "18e6f37e-133a-4d0a-adc0-0f6c6b2ed524"
  },
  {
    "id": "8b0e56c4-4d42-4fdc-8f41-fb1a9743b80b",
    "name": "Pine County",
    "state_id": "18e6f37e-133a-4d0a-adc0-0f6c6b2ed524"
  },
  {
    "id": "3f49a98d-75d7-4223-8618-de61beef3434",
    "name": "Pine Island",
    "state_id": "18e6f37e-133a-4d0a-adc0-0f6c6b2ed524"
  },
  {
    "id": "b18d6383-e4b5-4880-8db4-cac2f6111f31",
    "name": "Pipestone",
    "state_id": "18e6f37e-133a-4d0a-adc0-0f6c6b2ed524"
  },
  {
    "id": "e45afa15-d7a5-4b45-8340-59e9ef06ba7d",
    "name": "Pipestone County",
    "state_id": "18e6f37e-133a-4d0a-adc0-0f6c6b2ed524"
  },
  {
    "id": "ccd192c3-0e69-4a72-8f94-f7a1e87e05c5",
    "name": "Plainview",
    "state_id": "18e6f37e-133a-4d0a-adc0-0f6c6b2ed524"
  },
  {
    "id": "2586864e-1090-457b-8378-3a1a37e9ad9a",
    "name": "Plymouth",
    "state_id": "18e6f37e-133a-4d0a-adc0-0f6c6b2ed524"
  },
  {
    "id": "ca299951-ec74-4ed0-9e62-f525bb1a5a92",
    "name": "Polk County",
    "state_id": "18e6f37e-133a-4d0a-adc0-0f6c6b2ed524"
  },
  {
    "id": "a7aa4765-7239-462e-9c39-96a7c7d3b420",
    "name": "Pope County",
    "state_id": "18e6f37e-133a-4d0a-adc0-0f6c6b2ed524"
  },
  {
    "id": "69ee4384-fd06-4fa9-9131-0c68fd9b9c77",
    "name": "Preston",
    "state_id": "18e6f37e-133a-4d0a-adc0-0f6c6b2ed524"
  },
  {
    "id": "7c107b56-9c20-4818-9aeb-a1820ef759c6",
    "name": "Princeton",
    "state_id": "18e6f37e-133a-4d0a-adc0-0f6c6b2ed524"
  },
  {
    "id": "37a37c2b-f30e-46c0-87c2-00ec70f924d0",
    "name": "Prior Lake",
    "state_id": "18e6f37e-133a-4d0a-adc0-0f6c6b2ed524"
  },
  {
    "id": "a10123cc-854a-457e-bba7-8a7a8498113a",
    "name": "Proctor",
    "state_id": "18e6f37e-133a-4d0a-adc0-0f6c6b2ed524"
  },
  {
    "id": "4e6a1ddd-6a90-49f8-b5a7-cfa3df76ae72",
    "name": "Ramsey",
    "state_id": "18e6f37e-133a-4d0a-adc0-0f6c6b2ed524"
  },
  {
    "id": "2ec90406-2474-4cca-8c74-a752507fae9a",
    "name": "Ramsey County",
    "state_id": "18e6f37e-133a-4d0a-adc0-0f6c6b2ed524"
  },
  {
    "id": "6d23f51a-ba5c-4d85-b7f3-a39de157b7c8",
    "name": "Red Lake",
    "state_id": "18e6f37e-133a-4d0a-adc0-0f6c6b2ed524"
  },
  {
    "id": "3bacf9eb-855b-4284-8c8d-6aa53beffe26",
    "name": "Red Lake County",
    "state_id": "18e6f37e-133a-4d0a-adc0-0f6c6b2ed524"
  },
  {
    "id": "c360bf96-59f6-4782-bd72-e90c15f5eb67",
    "name": "Red Lake Falls",
    "state_id": "18e6f37e-133a-4d0a-adc0-0f6c6b2ed524"
  },
  {
    "id": "e3fd9740-538f-4b4a-b08c-46f3b82313dd",
    "name": "Red Wing",
    "state_id": "18e6f37e-133a-4d0a-adc0-0f6c6b2ed524"
  },
  {
    "id": "262a87a5-d894-4b1d-bb16-acd7e3048095",
    "name": "Redby",
    "state_id": "18e6f37e-133a-4d0a-adc0-0f6c6b2ed524"
  },
  {
    "id": "75b50f18-c803-4c4a-aad2-fc92a30cb61f",
    "name": "Redwood County",
    "state_id": "18e6f37e-133a-4d0a-adc0-0f6c6b2ed524"
  },
  {
    "id": "44e0b00c-dcd9-4ffb-9321-83e16c864cda",
    "name": "Redwood Falls",
    "state_id": "18e6f37e-133a-4d0a-adc0-0f6c6b2ed524"
  },
  {
    "id": "d33663a3-796b-49e6-b8b9-8376111f5bad",
    "name": "Renville",
    "state_id": "18e6f37e-133a-4d0a-adc0-0f6c6b2ed524"
  },
  {
    "id": "92dee01b-7360-4f4f-a0f7-d7e9ca88f6a6",
    "name": "Renville County",
    "state_id": "18e6f37e-133a-4d0a-adc0-0f6c6b2ed524"
  },
  {
    "id": "6973969a-6384-41f7-9e83-2f4221d95832",
    "name": "Rice",
    "state_id": "18e6f37e-133a-4d0a-adc0-0f6c6b2ed524"
  },
  {
    "id": "235876a4-b5e5-418a-bf43-87b0346010a6",
    "name": "Rice County",
    "state_id": "18e6f37e-133a-4d0a-adc0-0f6c6b2ed524"
  },
  {
    "id": "816bc09e-d6b4-4795-8ea8-3dd813655a0a",
    "name": "Richfield",
    "state_id": "18e6f37e-133a-4d0a-adc0-0f6c6b2ed524"
  },
  {
    "id": "4eafa9d8-f2c9-4998-a058-ebd703263236",
    "name": "Richmond",
    "state_id": "18e6f37e-133a-4d0a-adc0-0f6c6b2ed524"
  },
  {
    "id": "6feec955-51c1-411e-a4fe-00d94792e8e3",
    "name": "Robbinsdale",
    "state_id": "18e6f37e-133a-4d0a-adc0-0f6c6b2ed524"
  },
  {
    "id": "d1d56064-cb67-4c73-8496-77d96a37854b",
    "name": "Rochester",
    "state_id": "18e6f37e-133a-4d0a-adc0-0f6c6b2ed524"
  },
  {
    "id": "99a3955d-a157-496f-9eab-7298ca2339eb",
    "name": "Rock County",
    "state_id": "18e6f37e-133a-4d0a-adc0-0f6c6b2ed524"
  },
  {
    "id": "cd9fec16-7387-4d14-87e5-b96fa76f397d",
    "name": "Rock Creek",
    "state_id": "18e6f37e-133a-4d0a-adc0-0f6c6b2ed524"
  },
  {
    "id": "4bcf9d12-c806-4f3b-b3fe-5d2b063674ab",
    "name": "Rockford",
    "state_id": "18e6f37e-133a-4d0a-adc0-0f6c6b2ed524"
  },
  {
    "id": "71e4e8e7-5e7c-4099-8fa5-49e9f3a4883f",
    "name": "Rockville",
    "state_id": "18e6f37e-133a-4d0a-adc0-0f6c6b2ed524"
  },
  {
    "id": "dfd229ce-c25f-40ec-a358-21efe0e8aa84",
    "name": "Rogers",
    "state_id": "18e6f37e-133a-4d0a-adc0-0f6c6b2ed524"
  },
  {
    "id": "4f2715b9-7bf1-40bb-9cf6-e2d632d39cd5",
    "name": "Roseau",
    "state_id": "18e6f37e-133a-4d0a-adc0-0f6c6b2ed524"
  },
  {
    "id": "24d7c8d7-b006-4fec-8f49-f0b57c72df5e",
    "name": "Roseau County",
    "state_id": "18e6f37e-133a-4d0a-adc0-0f6c6b2ed524"
  },
  {
    "id": "c26089f1-dde6-4c3a-b724-ebe88101236b",
    "name": "Rosemount",
    "state_id": "18e6f37e-133a-4d0a-adc0-0f6c6b2ed524"
  },
  {
    "id": "ec3490f6-ee5d-4171-bf0b-4dd8b98b44b5",
    "name": "Roseville",
    "state_id": "18e6f37e-133a-4d0a-adc0-0f6c6b2ed524"
  },
  {
    "id": "09b8734b-a7f5-4b08-90f6-54ae335785fe",
    "name": "Royalton",
    "state_id": "18e6f37e-133a-4d0a-adc0-0f6c6b2ed524"
  },
  {
    "id": "77b5cf03-2eac-4d14-a02a-db55260fabf7",
    "name": "Rush City",
    "state_id": "18e6f37e-133a-4d0a-adc0-0f6c6b2ed524"
  },
  {
    "id": "6c823e0b-959e-4d03-9195-49fee8cbe723",
    "name": "Rushford",
    "state_id": "18e6f37e-133a-4d0a-adc0-0f6c6b2ed524"
  },
  {
    "id": "b2db2d7e-52e1-4c28-89b7-da16bbd5e0f4",
    "name": "Saint Anthony",
    "state_id": "18e6f37e-133a-4d0a-adc0-0f6c6b2ed524"
  },
  {
    "id": "7bb43dbc-0bc5-4a32-8ec6-7bc52890d1e3",
    "name": "Saint Augusta",
    "state_id": "18e6f37e-133a-4d0a-adc0-0f6c6b2ed524"
  },
  {
    "id": "a2ac35ae-a810-4b34-9221-51e16b4fd2e7",
    "name": "Saint Bonifacius",
    "state_id": "18e6f37e-133a-4d0a-adc0-0f6c6b2ed524"
  },
  {
    "id": "6c4db4da-187a-4634-906a-dde98d73d88b",
    "name": "Saint Charles",
    "state_id": "18e6f37e-133a-4d0a-adc0-0f6c6b2ed524"
  },
  {
    "id": "1d7b2844-09f3-4456-9020-5e938c150da2",
    "name": "Saint Cloud",
    "state_id": "18e6f37e-133a-4d0a-adc0-0f6c6b2ed524"
  },
  {
    "id": "990b093e-b709-4077-b309-b9b9ebc08c8c",
    "name": "Saint Francis",
    "state_id": "18e6f37e-133a-4d0a-adc0-0f6c6b2ed524"
  },
  {
    "id": "47d310c1-3084-4c0a-95ba-460f84fbcd2d",
    "name": "Saint James",
    "state_id": "18e6f37e-133a-4d0a-adc0-0f6c6b2ed524"
  },
  {
    "id": "00dac83d-66d9-4b23-bb0b-fe91b3e3165e",
    "name": "Saint Joseph",
    "state_id": "18e6f37e-133a-4d0a-adc0-0f6c6b2ed524"
  },
  {
    "id": "c6aae12c-f61d-4139-b22f-d88e26bc35ac",
    "name": "Saint Louis County",
    "state_id": "18e6f37e-133a-4d0a-adc0-0f6c6b2ed524"
  },
  {
    "id": "2d63208d-037f-4f29-ac77-cf8ff6d97a73",
    "name": "Saint Louis Park",
    "state_id": "18e6f37e-133a-4d0a-adc0-0f6c6b2ed524"
  },
  {
    "id": "334f9313-bc72-4f92-b36b-1028c2aa72a0",
    "name": "Saint Michael",
    "state_id": "18e6f37e-133a-4d0a-adc0-0f6c6b2ed524"
  },
  {
    "id": "dc6981a9-486a-4e5f-bb7f-5b8121015180",
    "name": "Saint Paul",
    "state_id": "18e6f37e-133a-4d0a-adc0-0f6c6b2ed524"
  },
  {
    "id": "3fcd1fba-47f5-4a2b-a313-db45c4c26c52",
    "name": "Saint Paul Park",
    "state_id": "18e6f37e-133a-4d0a-adc0-0f6c6b2ed524"
  },
  {
    "id": "7d84dcbe-ebc0-45dc-bfc8-6138d309d442",
    "name": "Saint Peter",
    "state_id": "18e6f37e-133a-4d0a-adc0-0f6c6b2ed524"
  },
  {
    "id": "e5e16e5b-666f-4829-aa0e-07484f5a9dd0",
    "name": "Sandstone",
    "state_id": "18e6f37e-133a-4d0a-adc0-0f6c6b2ed524"
  },
  {
    "id": "d4167851-cec7-45ef-918d-43e29976958e",
    "name": "Sartell",
    "state_id": "18e6f37e-133a-4d0a-adc0-0f6c6b2ed524"
  },
  {
    "id": "583dee27-6b99-461f-b1ab-877c622f37c7",
    "name": "Sauk Centre",
    "state_id": "18e6f37e-133a-4d0a-adc0-0f6c6b2ed524"
  },
  {
    "id": "f40edfea-66ba-4bf8-8c96-b0a3d6c41df6",
    "name": "Sauk Rapids",
    "state_id": "18e6f37e-133a-4d0a-adc0-0f6c6b2ed524"
  },
  {
    "id": "902bcef7-51af-4ff2-8924-4f5d61714156",
    "name": "Savage",
    "state_id": "18e6f37e-133a-4d0a-adc0-0f6c6b2ed524"
  },
  {
    "id": "3fad1841-6281-4580-aeaf-bc67b6d10ff3",
    "name": "Scandia",
    "state_id": "18e6f37e-133a-4d0a-adc0-0f6c6b2ed524"
  },
  {
    "id": "ef37f501-7be9-4624-8697-5a6147a15972",
    "name": "Scott County",
    "state_id": "18e6f37e-133a-4d0a-adc0-0f6c6b2ed524"
  },
  {
    "id": "77ea6bd8-62f9-4b52-ab2b-de85c72e787f",
    "name": "Shafer",
    "state_id": "18e6f37e-133a-4d0a-adc0-0f6c6b2ed524"
  },
  {
    "id": "4073dce5-2823-4bb6-a1dd-ed146936d2fc",
    "name": "Shakopee",
    "state_id": "18e6f37e-133a-4d0a-adc0-0f6c6b2ed524"
  },
  {
    "id": "c71847dc-827f-49a3-a95f-74e10a990e3d",
    "name": "Sherburn",
    "state_id": "18e6f37e-133a-4d0a-adc0-0f6c6b2ed524"
  },
  {
    "id": "31a2c9a1-4bfb-459d-8fb3-f7a96cb3d229",
    "name": "Sherburne County",
    "state_id": "18e6f37e-133a-4d0a-adc0-0f6c6b2ed524"
  },
  {
    "id": "34427427-06b2-48a2-9cd6-21a8e5933fae",
    "name": "Shoreview",
    "state_id": "18e6f37e-133a-4d0a-adc0-0f6c6b2ed524"
  },
  {
    "id": "70faf8e3-6f58-4db9-b9e6-f7ef2084b76d",
    "name": "Shorewood",
    "state_id": "18e6f37e-133a-4d0a-adc0-0f6c6b2ed524"
  },
  {
    "id": "4a9ba779-e53e-491b-a001-41c9a403cdac",
    "name": "Sibley County",
    "state_id": "18e6f37e-133a-4d0a-adc0-0f6c6b2ed524"
  },
  {
    "id": "72574dd6-cb2c-4b89-945e-c9600ae876be",
    "name": "Silver Bay",
    "state_id": "18e6f37e-133a-4d0a-adc0-0f6c6b2ed524"
  },
  {
    "id": "8bcf4506-182f-4d70-98bc-7552de2c2364",
    "name": "Slayton",
    "state_id": "18e6f37e-133a-4d0a-adc0-0f6c6b2ed524"
  },
  {
    "id": "e599ea43-7980-457e-983a-32bbcfcc00f0",
    "name": "Sleepy Eye",
    "state_id": "18e6f37e-133a-4d0a-adc0-0f6c6b2ed524"
  },
  {
    "id": "62e9c7bd-ab95-4541-b0c1-e5b78b385c6c",
    "name": "South Saint Paul",
    "state_id": "18e6f37e-133a-4d0a-adc0-0f6c6b2ed524"
  },
  {
    "id": "835d96db-e5de-4ae3-afb4-5df72d573fd9",
    "name": "Spicer",
    "state_id": "18e6f37e-133a-4d0a-adc0-0f6c6b2ed524"
  },
  {
    "id": "4c7dc5da-ad9a-4f2b-9dae-5162890b700a",
    "name": "Spring Grove",
    "state_id": "18e6f37e-133a-4d0a-adc0-0f6c6b2ed524"
  },
  {
    "id": "36394ea1-7f69-4ecf-afef-1199201ae3a5",
    "name": "Spring Lake Park",
    "state_id": "18e6f37e-133a-4d0a-adc0-0f6c6b2ed524"
  },
  {
    "id": "143a2769-a140-4a64-8618-9ed2efa117f1",
    "name": "Spring Park",
    "state_id": "18e6f37e-133a-4d0a-adc0-0f6c6b2ed524"
  },
  {
    "id": "7aa3b355-2271-4256-bbf6-595b9005def3",
    "name": "Spring Valley",
    "state_id": "18e6f37e-133a-4d0a-adc0-0f6c6b2ed524"
  },
  {
    "id": "3fe71830-3759-4832-91dd-8c909123e53c",
    "name": "Springfield",
    "state_id": "18e6f37e-133a-4d0a-adc0-0f6c6b2ed524"
  },
  {
    "id": "1a56a8b3-1d7a-4c2e-bf50-bb91c95ca1f4",
    "name": "Stacy",
    "state_id": "18e6f37e-133a-4d0a-adc0-0f6c6b2ed524"
  },
  {
    "id": "df3828d6-f830-4e85-bf9b-3c78c865f733",
    "name": "Staples",
    "state_id": "18e6f37e-133a-4d0a-adc0-0f6c6b2ed524"
  },
  {
    "id": "f8f5b195-4f63-41e8-aa97-f636a1e6782f",
    "name": "Starbuck",
    "state_id": "18e6f37e-133a-4d0a-adc0-0f6c6b2ed524"
  },
  {
    "id": "ffd3b7a4-badf-498d-b5a4-22578e0bbd97",
    "name": "Stearns County",
    "state_id": "18e6f37e-133a-4d0a-adc0-0f6c6b2ed524"
  },
  {
    "id": "6fead042-2c45-4c64-aa20-bb11670f8a33",
    "name": "Steele County",
    "state_id": "18e6f37e-133a-4d0a-adc0-0f6c6b2ed524"
  },
  {
    "id": "939f1b53-53cb-4383-865c-2b60f7f2407a",
    "name": "Stevens County",
    "state_id": "18e6f37e-133a-4d0a-adc0-0f6c6b2ed524"
  },
  {
    "id": "1a394026-324f-409e-ac67-62a18c5b923b",
    "name": "Stewartville",
    "state_id": "18e6f37e-133a-4d0a-adc0-0f6c6b2ed524"
  },
  {
    "id": "67a3346f-263b-4887-8dc6-d2f03d425162",
    "name": "Stillwater",
    "state_id": "18e6f37e-133a-4d0a-adc0-0f6c6b2ed524"
  },
  {
    "id": "1dd80fc2-75c6-449f-9590-0838b68535ac",
    "name": "Swift County",
    "state_id": "18e6f37e-133a-4d0a-adc0-0f6c6b2ed524"
  },
  {
    "id": "4a8f2cee-1149-4e0b-8c7c-d16d427a865e",
    "name": "Taylors Falls",
    "state_id": "18e6f37e-133a-4d0a-adc0-0f6c6b2ed524"
  },
  {
    "id": "62fb4444-4e7d-4276-aa5a-4a951c305497",
    "name": "Thief River Falls",
    "state_id": "18e6f37e-133a-4d0a-adc0-0f6c6b2ed524"
  },
  {
    "id": "db24fc08-adba-4cf4-9f7e-2e2f9361a4c2",
    "name": "Todd County",
    "state_id": "18e6f37e-133a-4d0a-adc0-0f6c6b2ed524"
  },
  {
    "id": "188fa2e1-356e-483a-86db-3a444cefd6cf",
    "name": "Tonka Bay",
    "state_id": "18e6f37e-133a-4d0a-adc0-0f6c6b2ed524"
  },
  {
    "id": "494d818d-e8dd-452b-83e1-53d844c3a9e0",
    "name": "Tracy",
    "state_id": "18e6f37e-133a-4d0a-adc0-0f6c6b2ed524"
  },
  {
    "id": "690d9bc9-0bcf-4f27-841b-b9b5aa96319f",
    "name": "Traverse County",
    "state_id": "18e6f37e-133a-4d0a-adc0-0f6c6b2ed524"
  },
  {
    "id": "d145dbee-7bc1-41cf-8280-6db9c14f6fad",
    "name": "Truman",
    "state_id": "18e6f37e-133a-4d0a-adc0-0f6c6b2ed524"
  },
  {
    "id": "548ab753-8c39-4ab5-9e49-f9d1e6c03993",
    "name": "Two Harbors",
    "state_id": "18e6f37e-133a-4d0a-adc0-0f6c6b2ed524"
  },
  {
    "id": "0fa51d4a-72fe-4a5e-9ffb-3857fb08eeb1",
    "name": "Tyler",
    "state_id": "18e6f37e-133a-4d0a-adc0-0f6c6b2ed524"
  },
  {
    "id": "9cf6a780-25c8-45c4-a64f-5bc8ed54a79a",
    "name": "Vadnais Heights",
    "state_id": "18e6f37e-133a-4d0a-adc0-0f6c6b2ed524"
  },
  {
    "id": "6766708b-a703-4259-85b3-7e3fe9c21b23",
    "name": "Victoria",
    "state_id": "18e6f37e-133a-4d0a-adc0-0f6c6b2ed524"
  },
  {
    "id": "a77ffca5-8158-4a52-86a2-458e431cf149",
    "name": "Vineland",
    "state_id": "18e6f37e-133a-4d0a-adc0-0f6c6b2ed524"
  },
  {
    "id": "33481a42-1b6e-41ec-b399-7007a84011b9",
    "name": "Virginia",
    "state_id": "18e6f37e-133a-4d0a-adc0-0f6c6b2ed524"
  },
  {
    "id": "64a9fc97-716d-4c2b-982b-8ac62fd55a3d",
    "name": "Wabasha",
    "state_id": "18e6f37e-133a-4d0a-adc0-0f6c6b2ed524"
  },
  {
    "id": "6524fe0f-e648-4005-959f-5059f5923095",
    "name": "Wabasha County",
    "state_id": "18e6f37e-133a-4d0a-adc0-0f6c6b2ed524"
  },
  {
    "id": "ed12b61f-b530-45b8-9e1f-fb3561ae1ffa",
    "name": "Waconia",
    "state_id": "18e6f37e-133a-4d0a-adc0-0f6c6b2ed524"
  },
  {
    "id": "0bb0c3ae-3db1-4d8a-94bb-d8d459475bee",
    "name": "Wadena",
    "state_id": "18e6f37e-133a-4d0a-adc0-0f6c6b2ed524"
  },
  {
    "id": "b1e1b4fb-e72c-45b6-9fe9-234672fa9a06",
    "name": "Wadena County",
    "state_id": "18e6f37e-133a-4d0a-adc0-0f6c6b2ed524"
  },
  {
    "id": "878e699d-9834-436e-b0ee-72143dc57f0c",
    "name": "Waite Park",
    "state_id": "18e6f37e-133a-4d0a-adc0-0f6c6b2ed524"
  },
  {
    "id": "067f26af-563c-4c04-a48b-b9127c8d3b28",
    "name": "Walker",
    "state_id": "18e6f37e-133a-4d0a-adc0-0f6c6b2ed524"
  },
  {
    "id": "69b80cda-3dd0-4bf6-8a16-d0bcd83177df",
    "name": "Wanamingo",
    "state_id": "18e6f37e-133a-4d0a-adc0-0f6c6b2ed524"
  },
  {
    "id": "08b1a5ba-e426-4d56-8097-37222f6bd1cb",
    "name": "Warren",
    "state_id": "18e6f37e-133a-4d0a-adc0-0f6c6b2ed524"
  },
  {
    "id": "15b45611-6ce0-4a7e-b349-f530ccecdc07",
    "name": "Warroad",
    "state_id": "18e6f37e-133a-4d0a-adc0-0f6c6b2ed524"
  },
  {
    "id": "eddc8178-afed-43ee-9000-eddf40711b71",
    "name": "Waseca",
    "state_id": "18e6f37e-133a-4d0a-adc0-0f6c6b2ed524"
  },
  {
    "id": "84fa3cbb-4bb9-4db0-a066-e753c81595e1",
    "name": "Waseca County",
    "state_id": "18e6f37e-133a-4d0a-adc0-0f6c6b2ed524"
  },
  {
    "id": "ec1d73da-128d-494e-9ef6-fca368dbac48",
    "name": "Washington County",
    "state_id": "18e6f37e-133a-4d0a-adc0-0f6c6b2ed524"
  },
  {
    "id": "7e90c896-ec40-484b-b7a5-30b555db1675",
    "name": "Watertown",
    "state_id": "18e6f37e-133a-4d0a-adc0-0f6c6b2ed524"
  },
  {
    "id": "35c98c99-79a3-4f24-9855-afaf9dacef53",
    "name": "Waterville",
    "state_id": "18e6f37e-133a-4d0a-adc0-0f6c6b2ed524"
  },
  {
    "id": "a4b28d9c-3e46-470b-bb2e-e2e1678b5df6",
    "name": "Watonwan County",
    "state_id": "18e6f37e-133a-4d0a-adc0-0f6c6b2ed524"
  },
  {
    "id": "6a49c02b-1c0e-4417-9e4b-d0614f19aeb7",
    "name": "Waverly",
    "state_id": "18e6f37e-133a-4d0a-adc0-0f6c6b2ed524"
  },
  {
    "id": "955fc76d-7c4b-4a57-99c7-d4edceaabd27",
    "name": "Wayzata",
    "state_id": "18e6f37e-133a-4d0a-adc0-0f6c6b2ed524"
  },
  {
    "id": "554392c4-23d6-4998-98f5-9ffe5384b705",
    "name": "Wells",
    "state_id": "18e6f37e-133a-4d0a-adc0-0f6c6b2ed524"
  },
  {
    "id": "7163bde5-a76a-4f20-8131-ee7fe631142a",
    "name": "West Coon Rapids",
    "state_id": "18e6f37e-133a-4d0a-adc0-0f6c6b2ed524"
  },
  {
    "id": "eafa9f2b-cfae-408a-b7ca-75c3bc2a368c",
    "name": "West Saint Paul",
    "state_id": "18e6f37e-133a-4d0a-adc0-0f6c6b2ed524"
  },
  {
    "id": "ff3a81cd-409c-481b-8956-4ba78c8553f4",
    "name": "Wheaton",
    "state_id": "18e6f37e-133a-4d0a-adc0-0f6c6b2ed524"
  },
  {
    "id": "2b55efdb-cec2-4964-81c4-9980e47aa8fa",
    "name": "White Bear Lake",
    "state_id": "18e6f37e-133a-4d0a-adc0-0f6c6b2ed524"
  },
  {
    "id": "838d158c-a605-44cb-b606-82e743ffe7c9",
    "name": "Wilkin County",
    "state_id": "18e6f37e-133a-4d0a-adc0-0f6c6b2ed524"
  },
  {
    "id": "de8318ac-b144-4718-8709-606cbacb4a76",
    "name": "Willmar",
    "state_id": "18e6f37e-133a-4d0a-adc0-0f6c6b2ed524"
  },
  {
    "id": "291cf01b-734c-44bb-8323-dc2adc83d3be",
    "name": "Windom",
    "state_id": "18e6f37e-133a-4d0a-adc0-0f6c6b2ed524"
  },
  {
    "id": "f4924ce2-74c9-47eb-b88e-9299ad59f941",
    "name": "Winnebago",
    "state_id": "18e6f37e-133a-4d0a-adc0-0f6c6b2ed524"
  },
  {
    "id": "4154919e-939d-456c-abaa-321a364541af",
    "name": "Winona",
    "state_id": "18e6f37e-133a-4d0a-adc0-0f6c6b2ed524"
  },
  {
    "id": "739e5a0a-a93d-4119-aa38-b0179631ab2f",
    "name": "Winona County",
    "state_id": "18e6f37e-133a-4d0a-adc0-0f6c6b2ed524"
  },
  {
    "id": "714b079f-97c1-4ba7-8498-667b86815707",
    "name": "Winsted",
    "state_id": "18e6f37e-133a-4d0a-adc0-0f6c6b2ed524"
  },
  {
    "id": "1397e4bf-61ce-4481-9a9f-fd1f1ac637d8",
    "name": "Winthrop",
    "state_id": "18e6f37e-133a-4d0a-adc0-0f6c6b2ed524"
  },
  {
    "id": "ec85135f-bf4f-4903-ae9f-f861859d00d8",
    "name": "Woodbury",
    "state_id": "18e6f37e-133a-4d0a-adc0-0f6c6b2ed524"
  },
  {
    "id": "834f4bd7-a74a-4d65-bc99-49a604d21843",
    "name": "Worthington",
    "state_id": "18e6f37e-133a-4d0a-adc0-0f6c6b2ed524"
  },
  {
    "id": "1a904128-76b4-43c1-a53c-cdeabce21958",
    "name": "Wright County",
    "state_id": "18e6f37e-133a-4d0a-adc0-0f6c6b2ed524"
  },
  {
    "id": "353e6128-9419-4a7a-8ce0-fb01302e7ded",
    "name": "Wyoming",
    "state_id": "18e6f37e-133a-4d0a-adc0-0f6c6b2ed524"
  },
  {
    "id": "d76eec5b-1904-4053-89f6-c16481582400",
    "name": "Yellow Medicine County",
    "state_id": "18e6f37e-133a-4d0a-adc0-0f6c6b2ed524"
  },
  {
    "id": "75cb8abd-8f29-44c3-9193-c89dc06ac218",
    "name": "Young America (historical)",
    "state_id": "18e6f37e-133a-4d0a-adc0-0f6c6b2ed524"
  },
  {
    "id": "b86d1134-2631-456b-98d6-dccc9f50ba3e",
    "name": "Zimmerman",
    "state_id": "18e6f37e-133a-4d0a-adc0-0f6c6b2ed524"
  },
  {
    "id": "e57922fb-fadc-4432-8a15-097d9dc575e3",
    "name": "Zumbrota",
    "state_id": "18e6f37e-133a-4d0a-adc0-0f6c6b2ed524"
  }
]