[
  {
    "id": "3af5e620-e1a8-4212-a50c-36f9ade6433a",
    "name": "Ardahan",
    "state_id": "19110d9f-be53-45ff-a1a9-29f7b1300714"
  },
  {
    "id": "4131474c-2263-4f7c-83a5-2ec88fd67765",
    "name": "Çıldır İlçesi",
    "state_id": "19110d9f-be53-45ff-a1a9-29f7b1300714"
  },
  {
    "id": "617ab578-c9ef-4254-99b0-208205430e7b",
    "name": "Damal",
    "state_id": "19110d9f-be53-45ff-a1a9-29f7b1300714"
  },
  {
    "id": "1caaa921-b2a3-4550-baad-51568f5026ce",
    "name": "Göle",
    "state_id": "19110d9f-be53-45ff-a1a9-29f7b1300714"
  },
  {
    "id": "e1302f40-8e41-47df-bbe0-f9f7aa1e2492",
    "name": "Hanak",
    "state_id": "19110d9f-be53-45ff-a1a9-29f7b1300714"
  },
  {
    "id": "56a46f70-8310-4bd0-8c16-00ffaae0475e",
    "name": "Posof",
    "state_id": "19110d9f-be53-45ff-a1a9-29f7b1300714"
  }
]