[
  {
    "id": "a9e142e8-a2d9-4b66-a95d-5aa57c7cad2c",
    "name": "Evren",
    "state_id": "199c1c72-fa95-4eac-b732-6ca9c82fd7f8"
  },
  {
    "id": "efcd1408-f454-441f-b20b-f8643ae1807f",
    "name": "Gumushkhane",
    "state_id": "199c1c72-fa95-4eac-b732-6ca9c82fd7f8"
  },
  {
    "id": "b6d39c1a-98db-4059-bf6a-e770cd77277f",
    "name": "Kelkit",
    "state_id": "199c1c72-fa95-4eac-b732-6ca9c82fd7f8"
  },
  {
    "id": "9b4367e5-6bba-4d14-86df-81897a51f5a2",
    "name": "Köse",
    "state_id": "199c1c72-fa95-4eac-b732-6ca9c82fd7f8"
  },
  {
    "id": "d6b7268e-6651-47f0-ac6e-0807186fa19f",
    "name": "Kürtün",
    "state_id": "199c1c72-fa95-4eac-b732-6ca9c82fd7f8"
  },
  {
    "id": "4054f9bd-80e7-4f6f-b80b-139adfa91024",
    "name": "Merkez",
    "state_id": "199c1c72-fa95-4eac-b732-6ca9c82fd7f8"
  },
  {
    "id": "2a4b8273-f4bf-47e7-b194-59012afbcdc0",
    "name": "Şiran",
    "state_id": "199c1c72-fa95-4eac-b732-6ca9c82fd7f8"
  },
  {
    "id": "dcb5d619-30a3-4591-bf6b-fd0a35b4d46e",
    "name": "Torul",
    "state_id": "199c1c72-fa95-4eac-b732-6ca9c82fd7f8"
  },
  {
    "id": "e071346e-f6e8-4d2f-9f44-68d807cb4ebe",
    "name": "Yağlıdere",
    "state_id": "199c1c72-fa95-4eac-b732-6ca9c82fd7f8"
  }
]