[
  {
    "id": "f8d9274d-7926-4621-b9d7-cef99a68aa4c",
    "name": "Eyl",
    "state_id": "19e2e1fc-b9a0-49e9-b100-7df74858df83"
  },
  {
    "id": "5e296965-bb60-4631-adad-e9d02f07bb7e",
    "name": "Garoowe",
    "state_id": "19e2e1fc-b9a0-49e9-b100-7df74858df83"
  }
]