[
  {
    "id": "95f9fff1-4653-46ef-bbc0-1c086aac649d",
    "name": "Gourcy",
    "state_id": "1a069a9d-188b-4532-a78d-1dcc63816e32"
  },
  {
    "id": "4d50e041-edb3-4dae-8316-385d189d58cb",
    "name": "Ouahigouya",
    "state_id": "1a069a9d-188b-4532-a78d-1dcc63816e32"
  },
  {
    "id": "21acaa1f-52e5-4a3a-ad2b-8ec18f60374c",
    "name": "Province du Loroum",
    "state_id": "1a069a9d-188b-4532-a78d-1dcc63816e32"
  },
  {
    "id": "62782c6b-ac5a-45d8-9b84-ff1cd636477a",
    "name": "Province du Passoré",
    "state_id": "1a069a9d-188b-4532-a78d-1dcc63816e32"
  },
  {
    "id": "22668a48-8edf-4db1-afbd-b2398721c06d",
    "name": "Province du Yatenga",
    "state_id": "1a069a9d-188b-4532-a78d-1dcc63816e32"
  },
  {
    "id": "5e904181-af76-4bc0-985c-8a27b3badc84",
    "name": "Province du Zondoma",
    "state_id": "1a069a9d-188b-4532-a78d-1dcc63816e32"
  },
  {
    "id": "106d1b76-cad6-4997-bc03-546996017465",
    "name": "Titao",
    "state_id": "1a069a9d-188b-4532-a78d-1dcc63816e32"
  },
  {
    "id": "71f4c10f-d739-4eef-86ff-5828afc21161",
    "name": "Yako",
    "state_id": "1a069a9d-188b-4532-a78d-1dcc63816e32"
  }
]