[
  {
    "id": "d2d255c2-dddb-4d1b-8ad5-e6e99b7a2315",
    "name": "Ciudad Darío",
    "state_id": "1a476880-a440-45bf-aa40-d2a4674cb219"
  },
  {
    "id": "35f9cbd2-473e-4b41-b3b6-9ca928a430bb",
    "name": "Matagalpa",
    "state_id": "1a476880-a440-45bf-aa40-d2a4674cb219"
  },
  {
    "id": "d77b140b-4595-45e7-9ab9-5185bfb8b905",
    "name": "Matiguás",
    "state_id": "1a476880-a440-45bf-aa40-d2a4674cb219"
  },
  {
    "id": "fedb3455-7553-4d1e-91d5-28378f4d0479",
    "name": "Muy Muy",
    "state_id": "1a476880-a440-45bf-aa40-d2a4674cb219"
  },
  {
    "id": "b121036d-e1cd-4ec5-81c6-49817c233044",
    "name": "Río Blanco",
    "state_id": "1a476880-a440-45bf-aa40-d2a4674cb219"
  },
  {
    "id": "79e94beb-65b2-49b5-8ad1-764b9a335fc0",
    "name": "San Dionisio",
    "state_id": "1a476880-a440-45bf-aa40-d2a4674cb219"
  },
  {
    "id": "22b6b7a2-caf9-4a9d-bb93-3e1419727163",
    "name": "San Ramón",
    "state_id": "1a476880-a440-45bf-aa40-d2a4674cb219"
  },
  {
    "id": "977bc04d-0137-4eb6-ab7b-f01608d8320b",
    "name": "Terrabona",
    "state_id": "1a476880-a440-45bf-aa40-d2a4674cb219"
  }
]