[
  {
    "id": "ce4e3912-9825-4117-a2fd-a3d76c0c80f6",
    "name": "Aheloy",
    "state_id": "1b44df21-1443-43d8-bdbb-3fc0c2abae82"
  },
  {
    "id": "525ed23d-8a6c-44a1-9d1c-5a99c2e817b5",
    "name": "Ahtopol",
    "state_id": "1b44df21-1443-43d8-bdbb-3fc0c2abae82"
  },
  {
    "id": "7028551e-8112-4fd1-9168-510917db114e",
    "name": "Aytos",
    "state_id": "1b44df21-1443-43d8-bdbb-3fc0c2abae82"
  },
  {
    "id": "a6f57da5-a734-4d35-aaab-8690c3edc360",
    "name": "Bata",
    "state_id": "1b44df21-1443-43d8-bdbb-3fc0c2abae82"
  },
  {
    "id": "a811082b-497b-4d6e-8437-c4f0dd35b12e",
    "name": "Burgas",
    "state_id": "1b44df21-1443-43d8-bdbb-3fc0c2abae82"
  },
  {
    "id": "eb106b3d-1d23-4db9-809a-ed6cc3a624f0",
    "name": "Chernomorets",
    "state_id": "1b44df21-1443-43d8-bdbb-3fc0c2abae82"
  },
  {
    "id": "c0846f78-4d2c-4e20-90ed-9982bafa1140",
    "name": "Kameno",
    "state_id": "1b44df21-1443-43d8-bdbb-3fc0c2abae82"
  },
  {
    "id": "2e75fcf8-8e22-4319-86f5-75ebc75ecb20",
    "name": "Karnobat",
    "state_id": "1b44df21-1443-43d8-bdbb-3fc0c2abae82"
  },
  {
    "id": "33542cc5-53a0-4204-9b7d-3f53ab9f69ab",
    "name": "Kiten",
    "state_id": "1b44df21-1443-43d8-bdbb-3fc0c2abae82"
  },
  {
    "id": "f6142d85-762a-46ef-8e9e-27ff40bb585c",
    "name": "Malko Tarnovo",
    "state_id": "1b44df21-1443-43d8-bdbb-3fc0c2abae82"
  },
  {
    "id": "01bab88f-79d6-4457-a86d-297f98c5f292",
    "name": "Nesebar",
    "state_id": "1b44df21-1443-43d8-bdbb-3fc0c2abae82"
  },
  {
    "id": "871682e9-c8ea-424c-a601-dae55c9bafa7",
    "name": "Obshtina Aytos",
    "state_id": "1b44df21-1443-43d8-bdbb-3fc0c2abae82"
  },
  {
    "id": "91a56fab-c2d2-45c2-8554-9a9c4a438d41",
    "name": "Obshtina Burgas",
    "state_id": "1b44df21-1443-43d8-bdbb-3fc0c2abae82"
  },
  {
    "id": "cd9444dc-cde7-4e7e-bc39-cb2cc503d878",
    "name": "Obshtina Kameno",
    "state_id": "1b44df21-1443-43d8-bdbb-3fc0c2abae82"
  },
  {
    "id": "4d75bc54-9ca1-416d-9572-bd9094ad7c96",
    "name": "Obshtina Karnobat",
    "state_id": "1b44df21-1443-43d8-bdbb-3fc0c2abae82"
  },
  {
    "id": "fc1054fa-9984-4c2c-af34-c33b0f162a75",
    "name": "Obshtina Malko Tarnovo",
    "state_id": "1b44df21-1443-43d8-bdbb-3fc0c2abae82"
  },
  {
    "id": "93026503-eb94-4380-a20b-174bbe0d5d10",
    "name": "Obshtina Nesebar",
    "state_id": "1b44df21-1443-43d8-bdbb-3fc0c2abae82"
  },
  {
    "id": "e9455d8a-fa76-4310-8a1f-9598fd3d153b",
    "name": "Obshtina Pomorie",
    "state_id": "1b44df21-1443-43d8-bdbb-3fc0c2abae82"
  },
  {
    "id": "56b17138-f504-4c65-aa75-e5375b12ba50",
    "name": "Obshtina Primorsko",
    "state_id": "1b44df21-1443-43d8-bdbb-3fc0c2abae82"
  },
  {
    "id": "1374b29c-686f-44cc-8a54-815664ac2a52",
    "name": "Obshtina Sozopol",
    "state_id": "1b44df21-1443-43d8-bdbb-3fc0c2abae82"
  },
  {
    "id": "bc2e74bb-51f6-452e-aed9-d3694c57b630",
    "name": "Obshtina Sungurlare",
    "state_id": "1b44df21-1443-43d8-bdbb-3fc0c2abae82"
  },
  {
    "id": "21917086-0282-489f-94a9-b7236615422e",
    "name": "Obzor",
    "state_id": "1b44df21-1443-43d8-bdbb-3fc0c2abae82"
  },
  {
    "id": "cf142371-2b27-4d8f-9c99-c3826c2eb645",
    "name": "Pomorie",
    "state_id": "1b44df21-1443-43d8-bdbb-3fc0c2abae82"
  },
  {
    "id": "0c975de6-564d-4943-8381-88c0952fb713",
    "name": "Primorsko",
    "state_id": "1b44df21-1443-43d8-bdbb-3fc0c2abae82"
  },
  {
    "id": "df3aa661-f811-4b61-8e90-ce1e739ce67c",
    "name": "Ravda",
    "state_id": "1b44df21-1443-43d8-bdbb-3fc0c2abae82"
  },
  {
    "id": "9976f0ee-fba6-461b-a930-a278af92f197",
    "name": "Ruen",
    "state_id": "1b44df21-1443-43d8-bdbb-3fc0c2abae82"
  },
  {
    "id": "57815175-3141-491c-a6c3-78dc19752fe2",
    "name": "Sarafovo",
    "state_id": "1b44df21-1443-43d8-bdbb-3fc0c2abae82"
  },
  {
    "id": "816eada7-c8eb-4719-81a0-1bdcde57128f",
    "name": "Sozopol",
    "state_id": "1b44df21-1443-43d8-bdbb-3fc0c2abae82"
  },
  {
    "id": "3ede3d19-7d83-431e-9491-bceb4cb41c09",
    "name": "Sredets",
    "state_id": "1b44df21-1443-43d8-bdbb-3fc0c2abae82"
  },
  {
    "id": "ef444b6b-460d-4d72-acb6-ceb25cbc4817",
    "name": "Sungurlare",
    "state_id": "1b44df21-1443-43d8-bdbb-3fc0c2abae82"
  },
  {
    "id": "25ad36f1-cadd-4bca-aaec-15e41394d342",
    "name": "Sveti Vlas",
    "state_id": "1b44df21-1443-43d8-bdbb-3fc0c2abae82"
  },
  {
    "id": "0891353b-4260-4d27-a425-bd8352fbeec8",
    "name": "Tsarevo",
    "state_id": "1b44df21-1443-43d8-bdbb-3fc0c2abae82"
  }
]