[
  {
    "id": "dbaad913-cead-4c48-a9b9-f8f2965a9ca1",
    "name": "Burang",
    "state_id": "1b7d7413-e2a5-4aaf-9950-b6e539c27b54"
  },
  {
    "id": "91b04cac-516c-445e-ae86-77b07bd1eb9a",
    "name": "Dêqên",
    "state_id": "1b7d7413-e2a5-4aaf-9950-b6e539c27b54"
  },
  {
    "id": "cb5c6135-f281-42d1-906c-e0768917dc33",
    "name": "Jiangzi",
    "state_id": "1b7d7413-e2a5-4aaf-9950-b6e539c27b54"
  },
  {
    "id": "dda54bdf-f324-4ef2-91a2-d67011b2f90e",
    "name": "Lhasa",
    "state_id": "1b7d7413-e2a5-4aaf-9950-b6e539c27b54"
  },
  {
    "id": "b69feea9-8291-4758-8048-552e1ac1e7a9",
    "name": "Nagqu",
    "state_id": "1b7d7413-e2a5-4aaf-9950-b6e539c27b54"
  },
  {
    "id": "76b38576-35f8-44ab-81af-819dd7a4f51c",
    "name": "Nagqu Diqu",
    "state_id": "1b7d7413-e2a5-4aaf-9950-b6e539c27b54"
  },
  {
    "id": "3aaad578-3c0d-4c99-bd21-02d6dac7f481",
    "name": "Ngari Diqu",
    "state_id": "1b7d7413-e2a5-4aaf-9950-b6e539c27b54"
  },
  {
    "id": "645eff27-507b-4b3f-89e3-03e6b7901f01",
    "name": "Nyingchi Prefecture",
    "state_id": "1b7d7413-e2a5-4aaf-9950-b6e539c27b54"
  },
  {
    "id": "6a6cfa41-d5f4-4110-a0f0-e960f5aa778e",
    "name": "Qamdo",
    "state_id": "1b7d7413-e2a5-4aaf-9950-b6e539c27b54"
  },
  {
    "id": "0f9e95f0-88a1-484d-b855-388381aa1351",
    "name": "Qamdo Shi",
    "state_id": "1b7d7413-e2a5-4aaf-9950-b6e539c27b54"
  },
  {
    "id": "6432ca92-5527-4598-80f8-60fca6d0b279",
    "name": "Rikaze",
    "state_id": "1b7d7413-e2a5-4aaf-9950-b6e539c27b54"
  },
  {
    "id": "05bd0254-2675-4313-9660-7d1d2d9acaf4",
    "name": "Saga",
    "state_id": "1b7d7413-e2a5-4aaf-9950-b6e539c27b54"
  },
  {
    "id": "26623387-8971-448d-8813-9c84f4a0c213",
    "name": "Shannan Diqu",
    "state_id": "1b7d7413-e2a5-4aaf-9950-b6e539c27b54"
  }
]