[
  {
    "id": "a7566538-b084-4dc0-845c-0a4ce4ae38a8",
    "name": "Kanatlarci",
    "state_id": "1bf66c60-5f7d-404c-949a-4c7ca749ad0b"
  },
  {
    "id": "c035bd6e-304d-44c8-acb7-6f8b9919660c",
    "name": "Markov Grad",
    "state_id": "1bf66c60-5f7d-404c-949a-4c7ca749ad0b"
  },
  {
    "id": "abec227f-6032-4bdd-af66-946b6e027302",
    "name": "Prilep",
    "state_id": "1bf66c60-5f7d-404c-949a-4c7ca749ad0b"
  },
  {
    "id": "daa02fe6-84d2-44c2-a804-59e0a0ed6044",
    "name": "Topolčani",
    "state_id": "1bf66c60-5f7d-404c-949a-4c7ca749ad0b"
  }
]