[
  {
    "id": "6b8262d5-3e12-479a-a76a-d82e721318bc",
    "name": "Ganye",
    "state_id": "1c7f673e-15f9-47de-9791-1566f150178e"
  },
  {
    "id": "5bdc6022-8689-4135-94ec-119fe4fb196f",
    "name": "Gombi",
    "state_id": "1c7f673e-15f9-47de-9791-1566f150178e"
  },
  {
    "id": "156f5fd9-97d2-4358-add8-a24dfb445cfc",
    "name": "Holma",
    "state_id": "1c7f673e-15f9-47de-9791-1566f150178e"
  },
  {
    "id": "2ab212ad-21bd-4fb9-ab5f-cccebf015218",
    "name": "Jimeta",
    "state_id": "1c7f673e-15f9-47de-9791-1566f150178e"
  },
  {
    "id": "1db6e234-0a45-4846-9a18-0345eac4b4b4",
    "name": "Madagali",
    "state_id": "1c7f673e-15f9-47de-9791-1566f150178e"
  },
  {
    "id": "2e684327-8cec-4ded-bc4e-6c0b6ac8265b",
    "name": "Mayo-Belwa",
    "state_id": "1c7f673e-15f9-47de-9791-1566f150178e"
  },
  {
    "id": "c0b6e060-ed11-49b3-a21d-b84ae9452ccb",
    "name": "Mubi",
    "state_id": "1c7f673e-15f9-47de-9791-1566f150178e"
  },
  {
    "id": "932749d9-3f56-4a3e-bfd4-5987294975ba",
    "name": "Ngurore",
    "state_id": "1c7f673e-15f9-47de-9791-1566f150178e"
  },
  {
    "id": "7e5c1030-ec9e-484a-baed-7a3d41c94753",
    "name": "Numan",
    "state_id": "1c7f673e-15f9-47de-9791-1566f150178e"
  },
  {
    "id": "0183c106-98ec-4d6f-9147-00b4b1d51c7d",
    "name": "Toungo",
    "state_id": "1c7f673e-15f9-47de-9791-1566f150178e"
  },
  {
    "id": "cb7f3cda-4f60-4ad2-a390-755a367c6f01",
    "name": "Yola",
    "state_id": "1c7f673e-15f9-47de-9791-1566f150178e"
  }
]