[
  {
    "id": "8c21e88d-b43c-4a4a-826f-a87e80031a70",
    "name": "Arosa",
    "state_id": "1ddb8ff5-b04e-4943-8f99-c57ff26b41a1"
  },
  {
    "id": "f781e602-2d64-4750-becc-9a37197c202f",
    "name": "Arvigo",
    "state_id": "1ddb8ff5-b04e-4943-8f99-c57ff26b41a1"
  },
  {
    "id": "9ff1abf7-a3ae-4ce4-84e7-049034ba33fd",
    "name": "Bonaduz",
    "state_id": "1ddb8ff5-b04e-4943-8f99-c57ff26b41a1"
  },
  {
    "id": "ac6ec177-dbc4-46fd-9516-5a368ba32fbf",
    "name": "Breíl",
    "state_id": "1ddb8ff5-b04e-4943-8f99-c57ff26b41a1"
  },
  {
    "id": "08466ad9-ac10-4813-969b-52236a29b2ae",
    "name": "Brusio",
    "state_id": "1ddb8ff5-b04e-4943-8f99-c57ff26b41a1"
  },
  {
    "id": "de799d16-e1cb-46b2-a570-4df28398050b",
    "name": "Buseno",
    "state_id": "1ddb8ff5-b04e-4943-8f99-c57ff26b41a1"
  },
  {
    "id": "7ad9a37a-5655-4baa-bf42-120828331c4c",
    "name": "Cauco",
    "state_id": "1ddb8ff5-b04e-4943-8f99-c57ff26b41a1"
  },
  {
    "id": "40adf8be-6c8c-444d-a1f9-7494b7d7a3d5",
    "name": "Cazis",
    "state_id": "1ddb8ff5-b04e-4943-8f99-c57ff26b41a1"
  },
  {
    "id": "14c0f8b1-c65b-40da-abfe-f71a05ef1105",
    "name": "Celerina",
    "state_id": "1ddb8ff5-b04e-4943-8f99-c57ff26b41a1"
  },
  {
    "id": "6fd82946-939f-4128-929a-d0b0d1fc42a0",
    "name": "Chur",
    "state_id": "1ddb8ff5-b04e-4943-8f99-c57ff26b41a1"
  },
  {
    "id": "38632404-bef9-4db0-b9be-cf5df4462a3a",
    "name": "Churwalden",
    "state_id": "1ddb8ff5-b04e-4943-8f99-c57ff26b41a1"
  },
  {
    "id": "3ab67b2b-ba1e-4ad4-8617-647f2cd74b34",
    "name": "Davos",
    "state_id": "1ddb8ff5-b04e-4943-8f99-c57ff26b41a1"
  },
  {
    "id": "5800bde3-bd02-4bc7-8ce2-ca26aa1b7056",
    "name": "Disentis",
    "state_id": "1ddb8ff5-b04e-4943-8f99-c57ff26b41a1"
  },
  {
    "id": "427a5ee8-8fc1-489e-841a-9bee0640236d",
    "name": "Domat",
    "state_id": "1ddb8ff5-b04e-4943-8f99-c57ff26b41a1"
  },
  {
    "id": "c030a8e7-5791-4b09-8a5f-09885d69fbbc",
    "name": "Felsberg",
    "state_id": "1ddb8ff5-b04e-4943-8f99-c57ff26b41a1"
  },
  {
    "id": "c10f7fdc-0752-4e24-8604-17295e4d8717",
    "name": "Flims",
    "state_id": "1ddb8ff5-b04e-4943-8f99-c57ff26b41a1"
  },
  {
    "id": "533e812b-4c7b-4369-a773-76a3c7ed592c",
    "name": "Grüsch",
    "state_id": "1ddb8ff5-b04e-4943-8f99-c57ff26b41a1"
  },
  {
    "id": "3805a635-44d4-4616-85f5-756a1850498a",
    "name": "Hinterrhein",
    "state_id": "1ddb8ff5-b04e-4943-8f99-c57ff26b41a1"
  },
  {
    "id": "1b9bfc01-876d-4fc0-973c-d42110c7bd06",
    "name": "Igis",
    "state_id": "1ddb8ff5-b04e-4943-8f99-c57ff26b41a1"
  },
  {
    "id": "68b7655a-21ec-45f6-b43b-6e6bfa943d8f",
    "name": "Ilanz",
    "state_id": "1ddb8ff5-b04e-4943-8f99-c57ff26b41a1"
  },
  {
    "id": "eea8e99f-63e6-4b18-abae-be4550a44fe6",
    "name": "Jenaz",
    "state_id": "1ddb8ff5-b04e-4943-8f99-c57ff26b41a1"
  },
  {
    "id": "f8a7d3d1-2ab9-40c6-bd69-786250641f7c",
    "name": "Klosters Serneus",
    "state_id": "1ddb8ff5-b04e-4943-8f99-c57ff26b41a1"
  },
  {
    "id": "2e513179-8c17-477e-a533-6cd1db285d4b",
    "name": "La Punt Chamues-ch",
    "state_id": "1ddb8ff5-b04e-4943-8f99-c57ff26b41a1"
  },
  {
    "id": "bf1c3ee4-ac12-4013-9bd5-c79a05e411fb",
    "name": "Laax",
    "state_id": "1ddb8ff5-b04e-4943-8f99-c57ff26b41a1"
  },
  {
    "id": "434c1203-2707-4a3d-b834-783e27269a75",
    "name": "Landquart",
    "state_id": "1ddb8ff5-b04e-4943-8f99-c57ff26b41a1"
  },
  {
    "id": "dcb47575-5497-498a-8e87-543fddc962e2",
    "name": "Lenzerheide",
    "state_id": "1ddb8ff5-b04e-4943-8f99-c57ff26b41a1"
  },
  {
    "id": "2b571262-8561-4bdd-a120-5c809b7d70fc",
    "name": "Luzein",
    "state_id": "1ddb8ff5-b04e-4943-8f99-c57ff26b41a1"
  },
  {
    "id": "fe4ceeb8-5fee-4ce6-9158-4969d8d92c3e",
    "name": "Maienfeld",
    "state_id": "1ddb8ff5-b04e-4943-8f99-c57ff26b41a1"
  },
  {
    "id": "2f381ea8-bd71-4a85-ad45-9edcb02fb18d",
    "name": "Malans",
    "state_id": "1ddb8ff5-b04e-4943-8f99-c57ff26b41a1"
  },
  {
    "id": "07b08083-9496-43db-a549-53d0f9476f85",
    "name": "Mesocco",
    "state_id": "1ddb8ff5-b04e-4943-8f99-c57ff26b41a1"
  },
  {
    "id": "258f882f-0f26-4da1-b561-324987fbdfe0",
    "name": "Pontresina",
    "state_id": "1ddb8ff5-b04e-4943-8f99-c57ff26b41a1"
  },
  {
    "id": "ce07452a-5ac8-4cc3-afd5-2e7590ebfffd",
    "name": "Poschiavo",
    "state_id": "1ddb8ff5-b04e-4943-8f99-c57ff26b41a1"
  },
  {
    "id": "926554f4-d1f2-4fe1-babc-4385f93b9d91",
    "name": "Region Albula",
    "state_id": "1ddb8ff5-b04e-4943-8f99-c57ff26b41a1"
  },
  {
    "id": "54001278-4002-48a8-a0bb-590330d96662",
    "name": "Region Bernina",
    "state_id": "1ddb8ff5-b04e-4943-8f99-c57ff26b41a1"
  },
  {
    "id": "71021264-4e6e-4c70-9bc2-58cadf0984b2",
    "name": "Region Engiadina Bassa / Val Müstair",
    "state_id": "1ddb8ff5-b04e-4943-8f99-c57ff26b41a1"
  },
  {
    "id": "404819ba-10dc-4bea-a075-6e8b9e1c2759",
    "name": "Region Imboden",
    "state_id": "1ddb8ff5-b04e-4943-8f99-c57ff26b41a1"
  },
  {
    "id": "0e9f5f6c-fa86-4e6d-8442-8f0046ff8ed5",
    "name": "Region Landquart",
    "state_id": "1ddb8ff5-b04e-4943-8f99-c57ff26b41a1"
  },
  {
    "id": "2a42a854-8404-499d-b6e1-5188a27b2305",
    "name": "Region Maloja",
    "state_id": "1ddb8ff5-b04e-4943-8f99-c57ff26b41a1"
  },
  {
    "id": "05945bdb-5180-410e-98ad-bf260f4913b1",
    "name": "Region Moesa",
    "state_id": "1ddb8ff5-b04e-4943-8f99-c57ff26b41a1"
  },
  {
    "id": "17551eef-d17b-486a-8fd3-ca5b60a19f08",
    "name": "Region Plessur",
    "state_id": "1ddb8ff5-b04e-4943-8f99-c57ff26b41a1"
  },
  {
    "id": "10f44bb8-f9fe-4ac8-946f-13afd0ddaf0e",
    "name": "Region Prättigau / Davos",
    "state_id": "1ddb8ff5-b04e-4943-8f99-c57ff26b41a1"
  },
  {
    "id": "24e3b935-ab62-4de8-b670-135b2c084e28",
    "name": "Region Surselva",
    "state_id": "1ddb8ff5-b04e-4943-8f99-c57ff26b41a1"
  },
  {
    "id": "6c2c94af-fbf8-40cd-bf9e-4eff4a4e1ad5",
    "name": "Region Viamala",
    "state_id": "1ddb8ff5-b04e-4943-8f99-c57ff26b41a1"
  },
  {
    "id": "fac413c7-b566-400e-adff-0b5ce23239b2",
    "name": "Rhäzüns",
    "state_id": "1ddb8ff5-b04e-4943-8f99-c57ff26b41a1"
  },
  {
    "id": "cb8a4ef0-4f14-406b-bbe6-dededc535ca8",
    "name": "Samedan",
    "state_id": "1ddb8ff5-b04e-4943-8f99-c57ff26b41a1"
  },
  {
    "id": "b6c4af53-7462-4ba8-9e28-771937535e44",
    "name": "Scharans",
    "state_id": "1ddb8ff5-b04e-4943-8f99-c57ff26b41a1"
  },
  {
    "id": "752843e7-287e-4f44-a29c-29d8c19cb168",
    "name": "Schiers",
    "state_id": "1ddb8ff5-b04e-4943-8f99-c57ff26b41a1"
  },
  {
    "id": "f7965a39-91be-4176-8e54-5d39cfaf34ae",
    "name": "Scuol",
    "state_id": "1ddb8ff5-b04e-4943-8f99-c57ff26b41a1"
  },
  {
    "id": "27489f42-af81-4944-b9c2-d64a9649fef2",
    "name": "Silvaplana",
    "state_id": "1ddb8ff5-b04e-4943-8f99-c57ff26b41a1"
  },
  {
    "id": "7ba020f7-741f-4a29-916b-b225217220d7",
    "name": "St. Moritz",
    "state_id": "1ddb8ff5-b04e-4943-8f99-c57ff26b41a1"
  },
  {
    "id": "5d581560-41bf-4436-b094-b1ff98e3d033",
    "name": "Tamins",
    "state_id": "1ddb8ff5-b04e-4943-8f99-c57ff26b41a1"
  },
  {
    "id": "9d8aa3ad-6ec7-4983-a6ec-c1a5fc58b395",
    "name": "Thusis",
    "state_id": "1ddb8ff5-b04e-4943-8f99-c57ff26b41a1"
  },
  {
    "id": "61d484b1-da0c-4dca-ad8f-ce92541fb2dd",
    "name": "Tiefencastel",
    "state_id": "1ddb8ff5-b04e-4943-8f99-c57ff26b41a1"
  },
  {
    "id": "cbf4f224-14e1-4e7c-8d92-11cc7f869986",
    "name": "Trimmis",
    "state_id": "1ddb8ff5-b04e-4943-8f99-c57ff26b41a1"
  },
  {
    "id": "949edb11-00dc-4146-9337-fdf7013126a1",
    "name": "Trun",
    "state_id": "1ddb8ff5-b04e-4943-8f99-c57ff26b41a1"
  },
  {
    "id": "6e0e40ed-a3c3-4881-adc9-c8133aa321b0",
    "name": "Untervaz",
    "state_id": "1ddb8ff5-b04e-4943-8f99-c57ff26b41a1"
  },
  {
    "id": "321722d1-2e0d-4546-9b5f-a83a5b2d3160",
    "name": "Vals Platz",
    "state_id": "1ddb8ff5-b04e-4943-8f99-c57ff26b41a1"
  },
  {
    "id": "3d3632eb-4fc1-4bd8-9774-285bf54a3f7a",
    "name": "Zernez",
    "state_id": "1ddb8ff5-b04e-4943-8f99-c57ff26b41a1"
  },
  {
    "id": "7c494c60-fce3-49dd-88d6-163332140f39",
    "name": "Zizers",
    "state_id": "1ddb8ff5-b04e-4943-8f99-c57ff26b41a1"
  },
  {
    "id": "65f2a37b-0b7c-4a42-baa9-26a4060c546e",
    "name": "Zuoz",
    "state_id": "1ddb8ff5-b04e-4943-8f99-c57ff26b41a1"
  }
]