[
  {
    "id": "45a518ca-0411-4d8c-969f-ccf5cb40934c",
    "name": "Ban Thatèng",
    "state_id": "1e7032cf-37c2-4285-882b-ee63434ee4fa"
  },
  {
    "id": "961f5f1e-84b3-43dc-9139-6e2a20dbe40b",
    "name": "Lamam",
    "state_id": "1e7032cf-37c2-4285-882b-ee63434ee4fa"
  },
  {
    "id": "ebabf81d-a0ef-4fe3-ab0f-6104eefcc984",
    "name": "Muang Dakchung",
    "state_id": "1e7032cf-37c2-4285-882b-ee63434ee4fa"
  },
  {
    "id": "94258dbb-770b-4339-a01f-c4712791237d",
    "name": "Muang Khaleum",
    "state_id": "1e7032cf-37c2-4285-882b-ee63434ee4fa"
  },
  {
    "id": "d3228f4c-e60e-4dbb-80b9-33ceb6a4b0cf",
    "name": "Muang Laman",
    "state_id": "1e7032cf-37c2-4285-882b-ee63434ee4fa"
  },
  {
    "id": "539b3b72-3f43-43a4-8a74-b0d89a1c0591",
    "name": "Muang Thatèng",
    "state_id": "1e7032cf-37c2-4285-882b-ee63434ee4fa"
  }
]