[
  {
    "id": "f40ddc10-6aee-4f5d-8963-dcc18887bde8",
    "name": "Berestechko",
    "state_id": "1f1cff66-2dac-4a3f-9f10-02e1f2d15c2f"
  },
  {
    "id": "814a1fee-49f1-42a1-b4be-1238906e0435",
    "name": "Blahodatne",
    "state_id": "1f1cff66-2dac-4a3f-9f10-02e1f2d15c2f"
  },
  {
    "id": "c2ae9d77-8b81-4c18-8609-5d4d732035cb",
    "name": "Hołoby",
    "state_id": "1f1cff66-2dac-4a3f-9f10-02e1f2d15c2f"
  },
  {
    "id": "78c7ba99-825c-411c-bfaa-a3843f0c2c9b",
    "name": "Horokhiv",
    "state_id": "1f1cff66-2dac-4a3f-9f10-02e1f2d15c2f"
  },
  {
    "id": "343888b7-5a94-45f8-83c2-f86f606b69f6",
    "name": "Kamin-Kashyrskyi",
    "state_id": "1f1cff66-2dac-4a3f-9f10-02e1f2d15c2f"
  },
  {
    "id": "7c05185b-6557-4488-9779-12fd821ebb92",
    "name": "Kivertsi",
    "state_id": "1f1cff66-2dac-4a3f-9f10-02e1f2d15c2f"
  },
  {
    "id": "bb64bbdf-8b5b-44e8-b4a4-3f1ac25f4d72",
    "name": "Kovel",
    "state_id": "1f1cff66-2dac-4a3f-9f10-02e1f2d15c2f"
  },
  {
    "id": "03b5f381-73d2-43ba-85b8-967addf89fd2",
    "name": "Kovel’s’ka Mis’krada",
    "state_id": "1f1cff66-2dac-4a3f-9f10-02e1f2d15c2f"
  },
  {
    "id": "353feda8-4c39-4d66-9429-37fd41ed2241",
    "name": "Liuboml",
    "state_id": "1f1cff66-2dac-4a3f-9f10-02e1f2d15c2f"
  },
  {
    "id": "a77ea849-88d0-4edb-bfb3-aa21ac1a7067",
    "name": "Lokachi",
    "state_id": "1f1cff66-2dac-4a3f-9f10-02e1f2d15c2f"
  },
  {
    "id": "8531acdf-f8a0-482f-899d-6874a062684b",
    "name": "Lukiv",
    "state_id": "1f1cff66-2dac-4a3f-9f10-02e1f2d15c2f"
  },
  {
    "id": "260c6818-7862-4965-8e77-243843326aa5",
    "name": "Lutsk",
    "state_id": "1f1cff66-2dac-4a3f-9f10-02e1f2d15c2f"
  },
  {
    "id": "d9eabf78-d2b1-430c-83fc-da376bfe6ff5",
    "name": "Lyubeshivs’kyy Rayon",
    "state_id": "1f1cff66-2dac-4a3f-9f10-02e1f2d15c2f"
  },
  {
    "id": "ee7eb669-c023-4ccd-a965-7ebb61737b2f",
    "name": "Lyuboml’s’kyy Rayon",
    "state_id": "1f1cff66-2dac-4a3f-9f10-02e1f2d15c2f"
  },
  {
    "id": "6540ed59-6366-4dde-a3fb-d8735c5c6296",
    "name": "Manevychi",
    "state_id": "1f1cff66-2dac-4a3f-9f10-02e1f2d15c2f"
  },
  {
    "id": "7f4e6262-6a6d-45fc-a313-b96616c672e5",
    "name": "Manevyts’kyy Rayon",
    "state_id": "1f1cff66-2dac-4a3f-9f10-02e1f2d15c2f"
  },
  {
    "id": "40110b5b-6898-4d2c-9141-5169426878a4",
    "name": "Novovolyns’k",
    "state_id": "1f1cff66-2dac-4a3f-9f10-02e1f2d15c2f"
  },
  {
    "id": "53443701-4413-421f-a677-35fc003adb2e",
    "name": "Nuyno",
    "state_id": "1f1cff66-2dac-4a3f-9f10-02e1f2d15c2f"
  },
  {
    "id": "bcb4eecf-2ac9-4558-a993-167a788ff8b3",
    "name": "Olyka",
    "state_id": "1f1cff66-2dac-4a3f-9f10-02e1f2d15c2f"
  },
  {
    "id": "f3918994-be1d-4ea1-b62e-9ad1dd3e8089",
    "name": "Pishcha",
    "state_id": "1f1cff66-2dac-4a3f-9f10-02e1f2d15c2f"
  },
  {
    "id": "b650bf22-020d-4ded-8f5a-d0924efc30d5",
    "name": "Rakiv Lis",
    "state_id": "1f1cff66-2dac-4a3f-9f10-02e1f2d15c2f"
  },
  {
    "id": "6a49987b-e7de-48fa-aca4-d2c8f8dd8e91",
    "name": "Ratne",
    "state_id": "1f1cff66-2dac-4a3f-9f10-02e1f2d15c2f"
  },
  {
    "id": "eaa20806-57ac-4d79-9267-352bf9dab747",
    "name": "Ratnivs’kyy Rayon",
    "state_id": "1f1cff66-2dac-4a3f-9f10-02e1f2d15c2f"
  },
  {
    "id": "66980c0a-a47c-42c1-b3d4-a0165dc5df4c",
    "name": "Rozhyshche",
    "state_id": "1f1cff66-2dac-4a3f-9f10-02e1f2d15c2f"
  },
  {
    "id": "b8dca7a9-4ab7-40e2-9fcb-ac597a14fadc",
    "name": "Shats’k",
    "state_id": "1f1cff66-2dac-4a3f-9f10-02e1f2d15c2f"
  },
  {
    "id": "bdfbb3ef-fa6e-4b47-a847-e80e62693ff8",
    "name": "Shats’kyy Rayon",
    "state_id": "1f1cff66-2dac-4a3f-9f10-02e1f2d15c2f"
  },
  {
    "id": "19525a00-a5e9-4413-bf03-7850d4c3dac6",
    "name": "Stara Vyzhivka",
    "state_id": "1f1cff66-2dac-4a3f-9f10-02e1f2d15c2f"
  },
  {
    "id": "3a17b5c3-8908-4cf5-8dd8-9bb04b47ba97",
    "name": "Svityaz’",
    "state_id": "1f1cff66-2dac-4a3f-9f10-02e1f2d15c2f"
  },
  {
    "id": "60181deb-a9bb-41ad-bda5-cea4bf9755b7",
    "name": "Volodymyr-Volynskyi",
    "state_id": "1f1cff66-2dac-4a3f-9f10-02e1f2d15c2f"
  }
]