[
  {
    "id": "4a649f49-db8c-4ee6-870f-ffd648982a07",
    "name": "Béja",
    "state_id": "1f7415a4-6dde-4716-b342-adc932967bff"
  },
  {
    "id": "03a8d31f-d59a-40af-9b7b-571e35beb020",
    "name": "Délégation de Béja Nord",
    "state_id": "1f7415a4-6dde-4716-b342-adc932967bff"
  },
  {
    "id": "160248b7-cfec-45ad-a84e-321f5c43b1b3",
    "name": "Goubellat",
    "state_id": "1f7415a4-6dde-4716-b342-adc932967bff"
  },
  {
    "id": "c231abc2-948d-40cc-97f9-63bddecd30cf",
    "name": "Medjez el Bab",
    "state_id": "1f7415a4-6dde-4716-b342-adc932967bff"
  },
  {
    "id": "76d865e3-a5b0-4f19-bdd0-63a7daa92fb2",
    "name": "Tabursuq",
    "state_id": "1f7415a4-6dde-4716-b342-adc932967bff"
  },
  {
    "id": "8eeb9cbd-2c35-491c-ac98-7198138f0755",
    "name": "Testour",
    "state_id": "1f7415a4-6dde-4716-b342-adc932967bff"
  }
]