[
  {
    "id": "ab770c1d-a930-4660-bd3a-407f824f9748",
    "name": "Ambuclao",
    "state_id": "1f8dfa61-2e2a-4d57-9ac3-18bebe7bf53e"
  },
  {
    "id": "e04c8de1-552a-457a-989c-8bbc9e44bad6",
    "name": "Amlimay",
    "state_id": "1f8dfa61-2e2a-4d57-9ac3-18bebe7bf53e"
  },
  {
    "id": "4306e18d-f869-4367-8e04-d1c8d9ec7e1b",
    "name": "Ampusungan",
    "state_id": "1f8dfa61-2e2a-4d57-9ac3-18bebe7bf53e"
  },
  {
    "id": "1db15b37-8143-49cd-a32d-f7df1abe4fcf",
    "name": "Angad",
    "state_id": "1f8dfa61-2e2a-4d57-9ac3-18bebe7bf53e"
  },
  {
    "id": "5696a88b-42c3-42bd-8652-1cc1841c3a5e",
    "name": "Atok",
    "state_id": "1f8dfa61-2e2a-4d57-9ac3-18bebe7bf53e"
  },
  {
    "id": "cc605055-36da-49a1-80ef-909b716c740e",
    "name": "Baculongan",
    "state_id": "1f8dfa61-2e2a-4d57-9ac3-18bebe7bf53e"
  },
  {
    "id": "046809d6-ad8c-4c75-b15f-359de46b20f3",
    "name": "Baguinge",
    "state_id": "1f8dfa61-2e2a-4d57-9ac3-18bebe7bf53e"
  },
  {
    "id": "4e80051a-4103-43b4-b26a-7c7d3219b5af",
    "name": "Baguio",
    "state_id": "1f8dfa61-2e2a-4d57-9ac3-18bebe7bf53e"
  },
  {
    "id": "64aee235-215a-491c-9ed8-f5eb2ecb2a6c",
    "name": "Bakun",
    "state_id": "1f8dfa61-2e2a-4d57-9ac3-18bebe7bf53e"
  },
  {
    "id": "a224c588-0ae3-428d-b86f-bfab83270f3c",
    "name": "Balbalan",
    "state_id": "1f8dfa61-2e2a-4d57-9ac3-18bebe7bf53e"
  },
  {
    "id": "8399490c-3f54-4d6f-b8a7-333285b4ee0f",
    "name": "Banaue",
    "state_id": "1f8dfa61-2e2a-4d57-9ac3-18bebe7bf53e"
  },
  {
    "id": "ed63632d-e0eb-4814-9698-abb2f8924211",
    "name": "Bangao",
    "state_id": "1f8dfa61-2e2a-4d57-9ac3-18bebe7bf53e"
  },
  {
    "id": "d61c1c59-168b-45fe-bf3b-28f1dbd97c45",
    "name": "Bangued",
    "state_id": "1f8dfa61-2e2a-4d57-9ac3-18bebe7bf53e"
  },
  {
    "id": "8de628fd-81b2-47bb-8ddd-ba35530a9372",
    "name": "Bantay",
    "state_id": "1f8dfa61-2e2a-4d57-9ac3-18bebe7bf53e"
  },
  {
    "id": "abdf7138-a23d-4770-a7d7-fc19b8cbd6ac",
    "name": "Barlig",
    "state_id": "1f8dfa61-2e2a-4d57-9ac3-18bebe7bf53e"
  },
  {
    "id": "c3498f94-b599-4969-8eb8-070367f9e284",
    "name": "Bauko",
    "state_id": "1f8dfa61-2e2a-4d57-9ac3-18bebe7bf53e"
  },
  {
    "id": "de56a84c-d78e-4a78-ab0f-c80b37c91162",
    "name": "Bayabas",
    "state_id": "1f8dfa61-2e2a-4d57-9ac3-18bebe7bf53e"
  },
  {
    "id": "aca4b2ea-a847-4e83-94a4-4113280f442f",
    "name": "Besao",
    "state_id": "1f8dfa61-2e2a-4d57-9ac3-18bebe7bf53e"
  },
  {
    "id": "086c73a8-39a9-49b5-a78c-073904b44fbe",
    "name": "Betwagan",
    "state_id": "1f8dfa61-2e2a-4d57-9ac3-18bebe7bf53e"
  },
  {
    "id": "696d11ab-067a-41b1-9be6-9b7ba69e624d",
    "name": "Bocos",
    "state_id": "1f8dfa61-2e2a-4d57-9ac3-18bebe7bf53e"
  },
  {
    "id": "4abce574-3646-443f-8ce0-1f1956f78801",
    "name": "Bokod",
    "state_id": "1f8dfa61-2e2a-4d57-9ac3-18bebe7bf53e"
  },
  {
    "id": "7aa16257-ead0-4338-bff5-624581b73abe",
    "name": "Boliney",
    "state_id": "1f8dfa61-2e2a-4d57-9ac3-18bebe7bf53e"
  },
  {
    "id": "852a3083-9ef3-4b58-bd8a-7718c868a332",
    "name": "Bontoc",
    "state_id": "1f8dfa61-2e2a-4d57-9ac3-18bebe7bf53e"
  },
  {
    "id": "1470eda2-852d-404e-b5a3-e1a839321ce8",
    "name": "Bucay",
    "state_id": "1f8dfa61-2e2a-4d57-9ac3-18bebe7bf53e"
  },
  {
    "id": "b3c9cc6c-b82e-43c6-9299-cdfd21bd7bb7",
    "name": "Bucloc",
    "state_id": "1f8dfa61-2e2a-4d57-9ac3-18bebe7bf53e"
  },
  {
    "id": "14b36fed-c55b-445b-a673-a74eddf17406",
    "name": "Buguias",
    "state_id": "1f8dfa61-2e2a-4d57-9ac3-18bebe7bf53e"
  },
  {
    "id": "ce5a7661-fbc8-40c6-b9f6-429d9610dc95",
    "name": "Bulalacao",
    "state_id": "1f8dfa61-2e2a-4d57-9ac3-18bebe7bf53e"
  },
  {
    "id": "96ef2c62-20e6-445c-bb59-7f4550013bec",
    "name": "Butigui",
    "state_id": "1f8dfa61-2e2a-4d57-9ac3-18bebe7bf53e"
  },
  {
    "id": "91b70308-9c2e-4b90-9285-df02a7441abd",
    "name": "Calaba",
    "state_id": "1f8dfa61-2e2a-4d57-9ac3-18bebe7bf53e"
  },
  {
    "id": "e942d1ba-3bf4-4a75-86b4-f3eb21b3981a",
    "name": "Calanasan",
    "state_id": "1f8dfa61-2e2a-4d57-9ac3-18bebe7bf53e"
  },
  {
    "id": "4587f075-dd6e-407c-aeb8-c0961cd95802",
    "name": "Conner",
    "state_id": "1f8dfa61-2e2a-4d57-9ac3-18bebe7bf53e"
  },
  {
    "id": "b8d23e7e-05c1-48fb-8363-c6b66bf41b65",
    "name": "Daguioman",
    "state_id": "1f8dfa61-2e2a-4d57-9ac3-18bebe7bf53e"
  },
  {
    "id": "a6d4370f-7b14-4bef-883a-7e4fd5bc78e5",
    "name": "Dalipey",
    "state_id": "1f8dfa61-2e2a-4d57-9ac3-18bebe7bf53e"
  },
  {
    "id": "2507d1c2-6ec3-42d5-8d79-19577c4024fe",
    "name": "Dalupirip",
    "state_id": "1f8dfa61-2e2a-4d57-9ac3-18bebe7bf53e"
  },
  {
    "id": "047e90e5-76f9-4b28-bc9d-11aa7ae90976",
    "name": "Danglas",
    "state_id": "1f8dfa61-2e2a-4d57-9ac3-18bebe7bf53e"
  },
  {
    "id": "f4db364f-58b9-43bf-aa27-49abe83bdda2",
    "name": "Dolores",
    "state_id": "1f8dfa61-2e2a-4d57-9ac3-18bebe7bf53e"
  },
  {
    "id": "4f97c2c7-a4c7-4d4c-85d0-b46461a1feac",
    "name": "Flora",
    "state_id": "1f8dfa61-2e2a-4d57-9ac3-18bebe7bf53e"
  },
  {
    "id": "8fcdd9d4-8cb9-4ae9-a34c-bbef555391fd",
    "name": "Gambang",
    "state_id": "1f8dfa61-2e2a-4d57-9ac3-18bebe7bf53e"
  },
  {
    "id": "14705670-6152-4b90-8ad2-97fe4a759aed",
    "name": "Guinsadan",
    "state_id": "1f8dfa61-2e2a-4d57-9ac3-18bebe7bf53e"
  },
  {
    "id": "c932f72c-9974-4f4c-b42b-64181129fc31",
    "name": "Hapao",
    "state_id": "1f8dfa61-2e2a-4d57-9ac3-18bebe7bf53e"
  },
  {
    "id": "0987ddc8-42e8-4377-a162-affa64df6591",
    "name": "Hingyon",
    "state_id": "1f8dfa61-2e2a-4d57-9ac3-18bebe7bf53e"
  },
  {
    "id": "cb875a45-2134-4414-837d-4ee4c88c9856",
    "name": "Hungduan",
    "state_id": "1f8dfa61-2e2a-4d57-9ac3-18bebe7bf53e"
  },
  {
    "id": "55cc6d4c-7f9e-44e4-aeee-4d9c83bcffd3",
    "name": "Itogon",
    "state_id": "1f8dfa61-2e2a-4d57-9ac3-18bebe7bf53e"
  },
  {
    "id": "b99b3f94-a53a-4d7a-a69d-5c7260f05eb9",
    "name": "Kabayan",
    "state_id": "1f8dfa61-2e2a-4d57-9ac3-18bebe7bf53e"
  },
  {
    "id": "c45a8f60-df02-4720-b04a-07e720040452",
    "name": "Kabugao",
    "state_id": "1f8dfa61-2e2a-4d57-9ac3-18bebe7bf53e"
  },
  {
    "id": "a82cb98d-0b16-4447-9963-3710cf321d28",
    "name": "Kapangan",
    "state_id": "1f8dfa61-2e2a-4d57-9ac3-18bebe7bf53e"
  },
  {
    "id": "8150ab29-2219-4caa-ab11-a58b431d9fb5",
    "name": "Kiangan",
    "state_id": "1f8dfa61-2e2a-4d57-9ac3-18bebe7bf53e"
  },
  {
    "id": "72b82471-457e-4798-bcb7-be11b5c8eab1",
    "name": "Kibungan",
    "state_id": "1f8dfa61-2e2a-4d57-9ac3-18bebe7bf53e"
  },
  {
    "id": "b761f2a3-130e-4d69-9f0d-3f95e447a084",
    "name": "La Paz",
    "state_id": "1f8dfa61-2e2a-4d57-9ac3-18bebe7bf53e"
  },
  {
    "id": "7bf51285-7627-4a0e-878d-54bb9689ddcf",
    "name": "La Trinidad",
    "state_id": "1f8dfa61-2e2a-4d57-9ac3-18bebe7bf53e"
  },
  {
    "id": "7ce80592-386b-48ee-a0d3-279d60f6e224",
    "name": "Lacub",
    "state_id": "1f8dfa61-2e2a-4d57-9ac3-18bebe7bf53e"
  },
  {
    "id": "47881e77-5312-4ded-a6b6-8199a0eafb6d",
    "name": "Lagangilang",
    "state_id": "1f8dfa61-2e2a-4d57-9ac3-18bebe7bf53e"
  },
  {
    "id": "500d1a70-b577-42c0-8471-7e77e1718f27",
    "name": "Lagawe",
    "state_id": "1f8dfa61-2e2a-4d57-9ac3-18bebe7bf53e"
  },
  {
    "id": "f1075fdc-2ea7-4454-96e2-522818ac7539",
    "name": "Lagayan",
    "state_id": "1f8dfa61-2e2a-4d57-9ac3-18bebe7bf53e"
  },
  {
    "id": "fb04bfe9-9e1c-4127-af55-b097dd94ff35",
    "name": "Lamut",
    "state_id": "1f8dfa61-2e2a-4d57-9ac3-18bebe7bf53e"
  },
  {
    "id": "c81c5ae4-4c2d-4fc6-a8f6-065ab8318fd4",
    "name": "Langiden",
    "state_id": "1f8dfa61-2e2a-4d57-9ac3-18bebe7bf53e"
  },
  {
    "id": "766cac62-9f38-4cfc-b923-4a91f4b62c72",
    "name": "Laya",
    "state_id": "1f8dfa61-2e2a-4d57-9ac3-18bebe7bf53e"
  },
  {
    "id": "3efab22a-5bfc-40bf-9de2-8ff058ecb412",
    "name": "Licuan",
    "state_id": "1f8dfa61-2e2a-4d57-9ac3-18bebe7bf53e"
  },
  {
    "id": "dcea5819-256a-4a47-9689-3f87066a6144",
    "name": "Licuan-Baay",
    "state_id": "1f8dfa61-2e2a-4d57-9ac3-18bebe7bf53e"
  },
  {
    "id": "4a0dbaf2-eefd-45ea-9ea9-b2ab95b47d8a",
    "name": "Liwan",
    "state_id": "1f8dfa61-2e2a-4d57-9ac3-18bebe7bf53e"
  },
  {
    "id": "cd025b7e-e4c8-4191-9a09-79074c7d1ed8",
    "name": "Loacan",
    "state_id": "1f8dfa61-2e2a-4d57-9ac3-18bebe7bf53e"
  },
  {
    "id": "4341f557-efe4-491b-92d2-d54fd34dd0cb",
    "name": "Luba",
    "state_id": "1f8dfa61-2e2a-4d57-9ac3-18bebe7bf53e"
  },
  {
    "id": "ba060daf-e9b9-4544-ad0e-28a49a33440c",
    "name": "Lubuagan",
    "state_id": "1f8dfa61-2e2a-4d57-9ac3-18bebe7bf53e"
  },
  {
    "id": "c4006382-1ade-4980-a25f-f14098ac65ed",
    "name": "Luna",
    "state_id": "1f8dfa61-2e2a-4d57-9ac3-18bebe7bf53e"
  },
  {
    "id": "47746f6a-1738-40a4-9e25-85252f175d71",
    "name": "Malibcong",
    "state_id": "1f8dfa61-2e2a-4d57-9ac3-18bebe7bf53e"
  },
  {
    "id": "6694ccf1-d16a-4f8e-819d-5ae337cef05a",
    "name": "Manabo",
    "state_id": "1f8dfa61-2e2a-4d57-9ac3-18bebe7bf53e"
  },
  {
    "id": "2cf64317-b532-48f0-a33c-84c0d0b36a2b",
    "name": "Mankayan",
    "state_id": "1f8dfa61-2e2a-4d57-9ac3-18bebe7bf53e"
  },
  {
    "id": "7cb6381c-5ccf-4e3a-94f4-0e460998ff12",
    "name": "Mayoyao",
    "state_id": "1f8dfa61-2e2a-4d57-9ac3-18bebe7bf53e"
  },
  {
    "id": "2087dc23-3d31-41da-a6db-48bb29337ee1",
    "name": "Monamon",
    "state_id": "1f8dfa61-2e2a-4d57-9ac3-18bebe7bf53e"
  },
  {
    "id": "040faf42-da46-46f7-9037-267e9fc29055",
    "name": "Nangalisan",
    "state_id": "1f8dfa61-2e2a-4d57-9ac3-18bebe7bf53e"
  },
  {
    "id": "01b697b1-7833-4bbb-bc0e-40528dd069d4",
    "name": "Natonin",
    "state_id": "1f8dfa61-2e2a-4d57-9ac3-18bebe7bf53e"
  },
  {
    "id": "97dd4fb4-1c76-471a-9d38-c66a6ab45c6e",
    "name": "Natubleng",
    "state_id": "1f8dfa61-2e2a-4d57-9ac3-18bebe7bf53e"
  },
  {
    "id": "20ebf0c5-029e-4669-8a84-62d008762dc7",
    "name": "Paracelis",
    "state_id": "1f8dfa61-2e2a-4d57-9ac3-18bebe7bf53e"
  },
  {
    "id": "f93790f0-d883-4fae-92e8-1112d3ab3e17",
    "name": "Pasil",
    "state_id": "1f8dfa61-2e2a-4d57-9ac3-18bebe7bf53e"
  },
  {
    "id": "0be1942c-aa57-46cf-82be-8f7a74369632",
    "name": "Peñarrubia",
    "state_id": "1f8dfa61-2e2a-4d57-9ac3-18bebe7bf53e"
  },
  {
    "id": "37cfed75-5829-4fb8-b602-80087e3566cc",
    "name": "Pidigan",
    "state_id": "1f8dfa61-2e2a-4d57-9ac3-18bebe7bf53e"
  },
  {
    "id": "c7dfbbe2-b423-4f22-80ad-4e6e8eb211e5",
    "name": "Pilar",
    "state_id": "1f8dfa61-2e2a-4d57-9ac3-18bebe7bf53e"
  },
  {
    "id": "2e0653cd-c4ba-4b7e-87b4-83dca1333e6b",
    "name": "Pinukpuk",
    "state_id": "1f8dfa61-2e2a-4d57-9ac3-18bebe7bf53e"
  },
  {
    "id": "1b2929b6-69d3-4933-b2d8-3a4d556201f9",
    "name": "Potia",
    "state_id": "1f8dfa61-2e2a-4d57-9ac3-18bebe7bf53e"
  },
  {
    "id": "f3ce5366-2a7b-410c-b586-e6c2b5c18c06",
    "name": "Pudtol",
    "state_id": "1f8dfa61-2e2a-4d57-9ac3-18bebe7bf53e"
  },
  {
    "id": "6e6f0e0b-2375-4d50-a537-68085a00a09b",
    "name": "Rizal",
    "state_id": "1f8dfa61-2e2a-4d57-9ac3-18bebe7bf53e"
  },
  {
    "id": "833d6b29-f2f1-4719-be7a-74487aa1a4a6",
    "name": "Sabangan",
    "state_id": "1f8dfa61-2e2a-4d57-9ac3-18bebe7bf53e"
  },
  {
    "id": "7d8d5f01-439b-46d6-b9e3-de78dfc0202e",
    "name": "Sablan",
    "state_id": "1f8dfa61-2e2a-4d57-9ac3-18bebe7bf53e"
  },
  {
    "id": "4b46f17d-18ba-418f-be73-60e2904cc016",
    "name": "Sadanga",
    "state_id": "1f8dfa61-2e2a-4d57-9ac3-18bebe7bf53e"
  },
  {
    "id": "b9512753-53e8-4acf-b2b5-d31e2c38d4bc",
    "name": "Sadsadan",
    "state_id": "1f8dfa61-2e2a-4d57-9ac3-18bebe7bf53e"
  },
  {
    "id": "943eaa6a-8003-44cb-b419-cad58e57cdb3",
    "name": "Sagada",
    "state_id": "1f8dfa61-2e2a-4d57-9ac3-18bebe7bf53e"
  },
  {
    "id": "f88b2941-67d7-4540-9431-1dded06243a9",
    "name": "Sal-Lapadan",
    "state_id": "1f8dfa61-2e2a-4d57-9ac3-18bebe7bf53e"
  },
  {
    "id": "c604905f-f881-42e4-9c63-84149b0d2948",
    "name": "San Isidro",
    "state_id": "1f8dfa61-2e2a-4d57-9ac3-18bebe7bf53e"
  },
  {
    "id": "81a75e2d-94fa-408c-95b7-2b1c50e4589e",
    "name": "San Juan",
    "state_id": "1f8dfa61-2e2a-4d57-9ac3-18bebe7bf53e"
  },
  {
    "id": "76cb5a43-ee46-4b39-8b33-2bd9204536b3",
    "name": "San Quintin",
    "state_id": "1f8dfa61-2e2a-4d57-9ac3-18bebe7bf53e"
  },
  {
    "id": "8330cf6c-67ed-40e5-ac46-38fdb7ab6f40",
    "name": "San Ramon",
    "state_id": "1f8dfa61-2e2a-4d57-9ac3-18bebe7bf53e"
  },
  {
    "id": "7b3bfda9-2672-45b2-ae85-1b2b62b70e7f",
    "name": "Santa Marcela",
    "state_id": "1f8dfa61-2e2a-4d57-9ac3-18bebe7bf53e"
  },
  {
    "id": "14a621b3-e5d5-4bad-aa1b-a05dec614b88",
    "name": "Tabaan",
    "state_id": "1f8dfa61-2e2a-4d57-9ac3-18bebe7bf53e"
  },
  {
    "id": "395c3f37-26e2-404b-983d-fa8f1bfea401",
    "name": "Tabio",
    "state_id": "1f8dfa61-2e2a-4d57-9ac3-18bebe7bf53e"
  },
  {
    "id": "cdb616f2-241b-4480-a42d-33cb0b338196",
    "name": "Tabuk",
    "state_id": "1f8dfa61-2e2a-4d57-9ac3-18bebe7bf53e"
  },
  {
    "id": "05937f4d-ef6e-4021-9d19-baaf62f63099",
    "name": "Tacadang",
    "state_id": "1f8dfa61-2e2a-4d57-9ac3-18bebe7bf53e"
  },
  {
    "id": "676f3195-b089-4bb9-af6a-08b3a5355cf8",
    "name": "Tadian",
    "state_id": "1f8dfa61-2e2a-4d57-9ac3-18bebe7bf53e"
  },
  {
    "id": "9e2ce2fd-40ad-4471-a54d-154f2be0e9c7",
    "name": "Taloy",
    "state_id": "1f8dfa61-2e2a-4d57-9ac3-18bebe7bf53e"
  },
  {
    "id": "4b359522-2fbd-4a48-a0e8-8f02577e6920",
    "name": "Tanudan",
    "state_id": "1f8dfa61-2e2a-4d57-9ac3-18bebe7bf53e"
  },
  {
    "id": "e9316d68-fea6-4245-a9a7-22fa0a1347be",
    "name": "Tayum",
    "state_id": "1f8dfa61-2e2a-4d57-9ac3-18bebe7bf53e"
  },
  {
    "id": "e2dcdff2-40a9-4be2-884d-38c6374bff02",
    "name": "Tineg",
    "state_id": "1f8dfa61-2e2a-4d57-9ac3-18bebe7bf53e"
  },
  {
    "id": "e1ab4a9b-a021-488e-b1bb-bf6e4f8d44b7",
    "name": "Tinglayan",
    "state_id": "1f8dfa61-2e2a-4d57-9ac3-18bebe7bf53e"
  },
  {
    "id": "e1c1006f-a931-4942-87e2-feffe366ebd3",
    "name": "Tinoc",
    "state_id": "1f8dfa61-2e2a-4d57-9ac3-18bebe7bf53e"
  },
  {
    "id": "4b89ad90-5896-47f9-ba34-fd76e9089555",
    "name": "Topdac",
    "state_id": "1f8dfa61-2e2a-4d57-9ac3-18bebe7bf53e"
  },
  {
    "id": "d133f033-e90f-450d-8158-3486fdf55981",
    "name": "Tuba",
    "state_id": "1f8dfa61-2e2a-4d57-9ac3-18bebe7bf53e"
  },
  {
    "id": "473a6b03-8e88-4dec-bc00-ead5c6073285",
    "name": "Tublay",
    "state_id": "1f8dfa61-2e2a-4d57-9ac3-18bebe7bf53e"
  },
  {
    "id": "9ab4669d-5704-44c3-ab9a-e5649d5c7b50",
    "name": "Tubo",
    "state_id": "1f8dfa61-2e2a-4d57-9ac3-18bebe7bf53e"
  },
  {
    "id": "add3022c-2eec-4441-a2d1-6cc2993ae76a",
    "name": "Tuding",
    "state_id": "1f8dfa61-2e2a-4d57-9ac3-18bebe7bf53e"
  },
  {
    "id": "7e66d0e7-4c84-48f7-a8b9-c43aea920d86",
    "name": "Villarosa",
    "state_id": "1f8dfa61-2e2a-4d57-9ac3-18bebe7bf53e"
  },
  {
    "id": "ee3c6093-8b7a-48b9-a520-3040ff61a6ae",
    "name": "Villaviciosa",
    "state_id": "1f8dfa61-2e2a-4d57-9ac3-18bebe7bf53e"
  }
]