[
  {
    "id": "4205d76e-df03-44f2-bb55-480825a71c66",
    "name": "Bansko",
    "state_id": "205f2c94-5823-4dd1-9809-6497f851550c"
  },
  {
    "id": "62d123f9-1fef-4423-988e-193e51e63aac",
    "name": "Belitsa",
    "state_id": "205f2c94-5823-4dd1-9809-6497f851550c"
  },
  {
    "id": "3e6098b9-cbad-4cee-9a02-ce710dc1b40e",
    "name": "Blagoevgrad",
    "state_id": "205f2c94-5823-4dd1-9809-6497f851550c"
  },
  {
    "id": "8808ecb6-95d7-464a-b264-b6e922708acf",
    "name": "Garmen",
    "state_id": "205f2c94-5823-4dd1-9809-6497f851550c"
  },
  {
    "id": "40015473-08b3-4d25-bc25-66be8b80b2b0",
    "name": "Gotse Delchev",
    "state_id": "205f2c94-5823-4dd1-9809-6497f851550c"
  },
  {
    "id": "e93a7dfc-08cc-4661-aecc-1070418779c7",
    "name": "Hadzhidimovo",
    "state_id": "205f2c94-5823-4dd1-9809-6497f851550c"
  },
  {
    "id": "68625032-319d-4fe6-924a-534e28e07983",
    "name": "Kolarovo",
    "state_id": "205f2c94-5823-4dd1-9809-6497f851550c"
  },
  {
    "id": "699b03a9-2179-4dd3-9ff6-b47f32decec6",
    "name": "Kresna",
    "state_id": "205f2c94-5823-4dd1-9809-6497f851550c"
  },
  {
    "id": "a3793561-f354-43d6-a16a-a9c107cc4516",
    "name": "Obshtina Bansko",
    "state_id": "205f2c94-5823-4dd1-9809-6497f851550c"
  },
  {
    "id": "148d7a52-b0b2-4b06-86a4-e8d1ea7d763e",
    "name": "Obshtina Belitsa",
    "state_id": "205f2c94-5823-4dd1-9809-6497f851550c"
  },
  {
    "id": "6cf3a1e3-8b19-4353-af28-108bd073a2ef",
    "name": "Obshtina Blagoevgrad",
    "state_id": "205f2c94-5823-4dd1-9809-6497f851550c"
  },
  {
    "id": "91ee99d8-aac2-4d4d-971f-2bf711222b5a",
    "name": "Obshtina Garmen",
    "state_id": "205f2c94-5823-4dd1-9809-6497f851550c"
  },
  {
    "id": "a3cf579b-0355-449d-9859-5b0505f92318",
    "name": "Obshtina Gotse Delchev",
    "state_id": "205f2c94-5823-4dd1-9809-6497f851550c"
  },
  {
    "id": "72b895c1-7580-4614-a95d-cf108d6762a4",
    "name": "Obshtina Kresna",
    "state_id": "205f2c94-5823-4dd1-9809-6497f851550c"
  },
  {
    "id": "e2276c66-e5b0-4af8-8fde-8918209579d1",
    "name": "Obshtina Petrich",
    "state_id": "205f2c94-5823-4dd1-9809-6497f851550c"
  },
  {
    "id": "00f071c1-e837-4818-9ca6-287d35d455c7",
    "name": "Obshtina Razlog",
    "state_id": "205f2c94-5823-4dd1-9809-6497f851550c"
  },
  {
    "id": "e80b212a-b3ed-41c9-a4f3-b406864a9cfd",
    "name": "Obshtina Sandanski",
    "state_id": "205f2c94-5823-4dd1-9809-6497f851550c"
  },
  {
    "id": "7a68ccf5-0bd2-4140-855f-cdc4419ca688",
    "name": "Obshtina Satovcha",
    "state_id": "205f2c94-5823-4dd1-9809-6497f851550c"
  },
  {
    "id": "0b559d15-9a06-4ab9-a27f-34a5a8dd8a7d",
    "name": "Obshtina Simitli",
    "state_id": "205f2c94-5823-4dd1-9809-6497f851550c"
  },
  {
    "id": "eb4b8c7e-a732-4fbb-8db5-58618ac0c35d",
    "name": "Obshtina Strumyani",
    "state_id": "205f2c94-5823-4dd1-9809-6497f851550c"
  },
  {
    "id": "2b0b0f47-6baa-4a69-954b-f7d519309012",
    "name": "Obshtina Yakoruda",
    "state_id": "205f2c94-5823-4dd1-9809-6497f851550c"
  },
  {
    "id": "64404123-6db9-4fea-be4c-e0c42a8dbe3a",
    "name": "Petrich",
    "state_id": "205f2c94-5823-4dd1-9809-6497f851550c"
  },
  {
    "id": "176a00c8-9580-462b-aceb-c60b1e05d74d",
    "name": "Razlog",
    "state_id": "205f2c94-5823-4dd1-9809-6497f851550c"
  },
  {
    "id": "b226fc6f-1389-4c04-a567-22730536837f",
    "name": "Sandanski",
    "state_id": "205f2c94-5823-4dd1-9809-6497f851550c"
  },
  {
    "id": "7e387ca4-c134-4d9e-8d7e-716c46507114",
    "name": "Satovcha",
    "state_id": "205f2c94-5823-4dd1-9809-6497f851550c"
  },
  {
    "id": "6a8192db-6385-4689-bbcb-aa29c19280d5",
    "name": "Simitli",
    "state_id": "205f2c94-5823-4dd1-9809-6497f851550c"
  },
  {
    "id": "930fb5d9-70ce-4460-883c-c538110004cf",
    "name": "Stara Kresna",
    "state_id": "205f2c94-5823-4dd1-9809-6497f851550c"
  },
  {
    "id": "6d6d7f60-986e-41d0-a4df-a9d98b9f2618",
    "name": "Strumyani",
    "state_id": "205f2c94-5823-4dd1-9809-6497f851550c"
  },
  {
    "id": "c369c72c-8b10-4eef-9397-ce932c97b334",
    "name": "Yakoruda",
    "state_id": "205f2c94-5823-4dd1-9809-6497f851550c"
  }
]