[
  {
    "id": "71088d22-faf1-4050-be5d-48fb35d40add",
    "name": "Al Hoceïma",
    "state_id": "213c4689-650a-4f30-81ff-e33cf55730fa"
  },
  {
    "id": "ed21afaa-28a6-4400-bd23-654c8be7fd31",
    "name": "Al-Hoceima",
    "state_id": "213c4689-650a-4f30-81ff-e33cf55730fa"
  },
  {
    "id": "1bcbf97d-291e-43c0-8fb8-2faeb63793a8",
    "name": "Asilah",
    "state_id": "213c4689-650a-4f30-81ff-e33cf55730fa"
  },
  {
    "id": "d603a4ac-d071-482d-888b-825ede7d6c6c",
    "name": "Bni Bouayach",
    "state_id": "213c4689-650a-4f30-81ff-e33cf55730fa"
  },
  {
    "id": "9ebba2fe-f47e-4d8f-b9a9-0b206e1c07bf",
    "name": "Brikcha",
    "state_id": "213c4689-650a-4f30-81ff-e33cf55730fa"
  },
  {
    "id": "13653f74-f666-499f-95a1-0b03873629e5",
    "name": "Cap Negro II",
    "state_id": "213c4689-650a-4f30-81ff-e33cf55730fa"
  },
  {
    "id": "5bb43e4c-f823-419d-869a-85f3cbde3bd3",
    "name": "Chefchaouen Province",
    "state_id": "213c4689-650a-4f30-81ff-e33cf55730fa"
  },
  {
    "id": "c6adf042-8848-49cf-aa75-672b1f6f2efa",
    "name": "Chefchaouene",
    "state_id": "213c4689-650a-4f30-81ff-e33cf55730fa"
  },
  {
    "id": "bf77f926-5b6e-44f1-96ee-87aea8e28844",
    "name": "Derdara",
    "state_id": "213c4689-650a-4f30-81ff-e33cf55730fa"
  },
  {
    "id": "f2f995ec-d03f-4c67-a787-a86b0268f928",
    "name": "Fahs-Anjra",
    "state_id": "213c4689-650a-4f30-81ff-e33cf55730fa"
  },
  {
    "id": "dab529d6-2640-429a-98bf-19278a151fc6",
    "name": "Fnidek",
    "state_id": "213c4689-650a-4f30-81ff-e33cf55730fa"
  },
  {
    "id": "f086f504-9216-4dfe-9a32-3ffb0d67e560",
    "name": "Imzouren",
    "state_id": "213c4689-650a-4f30-81ff-e33cf55730fa"
  },
  {
    "id": "51fa7651-1f8f-4ef2-a980-fca008d012af",
    "name": "Ksar El Kebir",
    "state_id": "213c4689-650a-4f30-81ff-e33cf55730fa"
  },
  {
    "id": "8aa35f95-8765-46b0-be76-43402f6ec4b0",
    "name": "Larache",
    "state_id": "213c4689-650a-4f30-81ff-e33cf55730fa"
  },
  {
    "id": "78f6d3aa-7d48-4dc6-bdf1-6008291b3329",
    "name": "M'Diq-Fnideq",
    "state_id": "213c4689-650a-4f30-81ff-e33cf55730fa"
  },
  {
    "id": "ae9465dd-8726-4896-a09f-b25e36dc1623",
    "name": "Martil",
    "state_id": "213c4689-650a-4f30-81ff-e33cf55730fa"
  },
  {
    "id": "b86faef7-e851-48b9-b30e-c4e8d853860f",
    "name": "Oued Laou",
    "state_id": "213c4689-650a-4f30-81ff-e33cf55730fa"
  },
  {
    "id": "64d01abd-c78f-45a7-bf97-df0086ec643d",
    "name": "Ouezzane",
    "state_id": "213c4689-650a-4f30-81ff-e33cf55730fa"
  },
  {
    "id": "d944b73b-be6f-439d-becc-fee915bc8dd8",
    "name": "Ouezzane Province",
    "state_id": "213c4689-650a-4f30-81ff-e33cf55730fa"
  },
  {
    "id": "8e5fe23f-08df-414f-ade1-01f7451d0e4f",
    "name": "Senada",
    "state_id": "213c4689-650a-4f30-81ff-e33cf55730fa"
  },
  {
    "id": "f63d3e3e-cc05-44c6-abf9-b83df040b23a",
    "name": "Tamorot",
    "state_id": "213c4689-650a-4f30-81ff-e33cf55730fa"
  },
  {
    "id": "66ac3252-a943-4baa-b1fe-5720d16fdfc0",
    "name": "Tanger-Assilah",
    "state_id": "213c4689-650a-4f30-81ff-e33cf55730fa"
  },
  {
    "id": "6a6e20ef-781d-458b-a9eb-ed033ac70cd9",
    "name": "Tangier",
    "state_id": "213c4689-650a-4f30-81ff-e33cf55730fa"
  },
  {
    "id": "d91d75eb-4b84-4461-94f7-d156cb8c4375",
    "name": "Targuist",
    "state_id": "213c4689-650a-4f30-81ff-e33cf55730fa"
  },
  {
    "id": "61d88f4d-6aa5-4d53-a4a6-c7bb0972307b",
    "name": "Tetouan",
    "state_id": "213c4689-650a-4f30-81ff-e33cf55730fa"
  },
  {
    "id": "57c8c628-67da-4724-8e54-a8f714f805cf",
    "name": "Tirhanimîne",
    "state_id": "213c4689-650a-4f30-81ff-e33cf55730fa"
  },
  {
    "id": "02a5b154-0025-4491-af7c-6648d3a5505b",
    "name": "Zinat",
    "state_id": "213c4689-650a-4f30-81ff-e33cf55730fa"
  },
  {
    "id": "5d6fe9da-974d-4a76-936b-17bf4dc84e06",
    "name": "Zoumi",
    "state_id": "213c4689-650a-4f30-81ff-e33cf55730fa"
  }
]