[
  {
    "id": "6a415c03-e852-4111-9481-0d64aafc2cb6",
    "name": "Curtina",
    "state_id": "222f87f1-785b-4e16-adc9-66a16874f0d5"
  },
  {
    "id": "c9ac47db-26af-4adf-ad48-99e99022bdaf",
    "name": "Paso de los Toros",
    "state_id": "222f87f1-785b-4e16-adc9-66a16874f0d5"
  },
  {
    "id": "e5eafb25-d022-4335-98bf-94cfcd01d77d",
    "name": "Tacuarembó",
    "state_id": "222f87f1-785b-4e16-adc9-66a16874f0d5"
  }
]