[
  {
    "id": "2fd292b4-32ea-43d1-accf-cfe98bc29b25",
    "name": "Amphoe Hankha",
    "state_id": "223945a5-27b0-4a7a-a52b-82f46cbfb180"
  },
  {
    "id": "9e35543f-5fed-4ef6-aed3-e139b5bf29ec",
    "name": "Amphoe Manorom",
    "state_id": "223945a5-27b0-4a7a-a52b-82f46cbfb180"
  },
  {
    "id": "033b7135-7570-46ee-9413-8cf40abe86b8",
    "name": "Amphoe Mueang Chainat",
    "state_id": "223945a5-27b0-4a7a-a52b-82f46cbfb180"
  },
  {
    "id": "cd627014-fe86-424e-9315-6306d5f363e6",
    "name": "Amphoe Noen Kham",
    "state_id": "223945a5-27b0-4a7a-a52b-82f46cbfb180"
  },
  {
    "id": "37bbd1cb-b4d6-49d6-b89a-013373fcdb4c",
    "name": "Amphoe Nong Mamong",
    "state_id": "223945a5-27b0-4a7a-a52b-82f46cbfb180"
  },
  {
    "id": "e067ec38-0c4f-4406-82e4-d67a09057f42",
    "name": "Amphoe Sankhaburi",
    "state_id": "223945a5-27b0-4a7a-a52b-82f46cbfb180"
  },
  {
    "id": "991aa153-b3b0-4cc5-9d0c-d221e86b761d",
    "name": "Amphoe Sapphaya",
    "state_id": "223945a5-27b0-4a7a-a52b-82f46cbfb180"
  },
  {
    "id": "20253056-7ce5-4532-abf0-8858759e6551",
    "name": "Amphoe Wat Sing",
    "state_id": "223945a5-27b0-4a7a-a52b-82f46cbfb180"
  },
  {
    "id": "f3499174-4989-4443-a4e9-c747a0ba9263",
    "name": "Chai Nat",
    "state_id": "223945a5-27b0-4a7a-a52b-82f46cbfb180"
  }
]