[
  {
    "id": "94e2c5d3-9591-47e8-8b03-5c229a10913b",
    "name": "Aki-takata Shi",
    "state_id": "22654763-b18d-4666-a15e-af80770a5686"
  },
  {
    "id": "6fbb0e13-90bd-4ef8-9e54-276c5ce76217",
    "name": "Etajima-shi",
    "state_id": "22654763-b18d-4666-a15e-af80770a5686"
  },
  {
    "id": "62efc827-a502-4054-9b75-4d0c7186feb4",
    "name": "Fuchū-shi",
    "state_id": "22654763-b18d-4666-a15e-af80770a5686"
  },
  {
    "id": "0a9b9f80-c216-4451-8028-6c12d3425bbd",
    "name": "Fuchūchō",
    "state_id": "22654763-b18d-4666-a15e-af80770a5686"
  },
  {
    "id": "2e0b16b0-8c32-4f4f-aec8-c86697eea61f",
    "name": "Fukuyama",
    "state_id": "22654763-b18d-4666-a15e-af80770a5686"
  },
  {
    "id": "b9e8b7e9-16d5-4fda-a75b-c83183c94520",
    "name": "Fukuyama Shi",
    "state_id": "22654763-b18d-4666-a15e-af80770a5686"
  },
  {
    "id": "8d979ebb-723d-440a-a865-928f2570f6fd",
    "name": "Hatsukaichi",
    "state_id": "22654763-b18d-4666-a15e-af80770a5686"
  },
  {
    "id": "dadd24cb-2ff7-4bd3-a311-1e4de4c22522",
    "name": "Hatsukaichi-shi",
    "state_id": "22654763-b18d-4666-a15e-af80770a5686"
  },
  {
    "id": "b4bfa638-c43c-4e93-88bd-7b5ec1695a9c",
    "name": "Higashihiroshima Shi",
    "state_id": "22654763-b18d-4666-a15e-af80770a5686"
  },
  {
    "id": "da7417e6-8f1e-445b-b074-e46af9b35698",
    "name": "Hiroshima",
    "state_id": "22654763-b18d-4666-a15e-af80770a5686"
  },
  {
    "id": "3b97a561-243a-43fc-b045-317dc36ad095",
    "name": "Hiroshima-shi",
    "state_id": "22654763-b18d-4666-a15e-af80770a5686"
  },
  {
    "id": "46349dba-5fce-42c4-bccd-f1460478b16b",
    "name": "Innoshima",
    "state_id": "22654763-b18d-4666-a15e-af80770a5686"
  },
  {
    "id": "d2081acf-69a8-41cb-b20d-1eda9bb00e17",
    "name": "Kannabechō-yahiro",
    "state_id": "22654763-b18d-4666-a15e-af80770a5686"
  },
  {
    "id": "8f2f95a8-db5f-4c78-9b0f-c255b0b915e9",
    "name": "Kure",
    "state_id": "22654763-b18d-4666-a15e-af80770a5686"
  },
  {
    "id": "b5f98675-e96c-4417-bb4b-a202c4170073",
    "name": "Kure-shi",
    "state_id": "22654763-b18d-4666-a15e-af80770a5686"
  },
  {
    "id": "7c2ee569-2f28-45f7-8df0-8e257e71db22",
    "name": "Mihara",
    "state_id": "22654763-b18d-4666-a15e-af80770a5686"
  },
  {
    "id": "b8d27cd0-31de-47f2-afb4-0af9752ad63d",
    "name": "Mihara Shi",
    "state_id": "22654763-b18d-4666-a15e-af80770a5686"
  },
  {
    "id": "ac295e03-341e-4340-bcf4-e6be682a06f4",
    "name": "Miyajima",
    "state_id": "22654763-b18d-4666-a15e-af80770a5686"
  },
  {
    "id": "f925e08f-26be-4207-ad11-7646aaf96afb",
    "name": "Miyoshi",
    "state_id": "22654763-b18d-4666-a15e-af80770a5686"
  },
  {
    "id": "c14aef79-cbc0-40fe-a554-9e15cfe66dd8",
    "name": "Miyoshi Shi",
    "state_id": "22654763-b18d-4666-a15e-af80770a5686"
  },
  {
    "id": "9deec265-4df1-42d2-b6ec-177ab6644113",
    "name": "Ōno-hara",
    "state_id": "22654763-b18d-4666-a15e-af80770a5686"
  },
  {
    "id": "0eec8888-9b9a-4d92-9dc6-ec7021b3bb9f",
    "name": "Onomichi",
    "state_id": "22654763-b18d-4666-a15e-af80770a5686"
  },
  {
    "id": "59fc61cf-6bad-4575-9c15-d2b69f3f77c2",
    "name": "Onomichi-shi",
    "state_id": "22654763-b18d-4666-a15e-af80770a5686"
  },
  {
    "id": "4902d5d3-68bc-4fce-b868-6267326e247c",
    "name": "Ōtake",
    "state_id": "22654763-b18d-4666-a15e-af80770a5686"
  },
  {
    "id": "ae6e5134-843c-4994-b8f5-bf87c18a7342",
    "name": "Ōtake-shi",
    "state_id": "22654763-b18d-4666-a15e-af80770a5686"
  },
  {
    "id": "ceee60a4-3ed5-491c-8f52-922522f46dae",
    "name": "Shin’ichi",
    "state_id": "22654763-b18d-4666-a15e-af80770a5686"
  },
  {
    "id": "b5a1808a-2bf6-45ac-923a-60c947d9152b",
    "name": "Shōbara",
    "state_id": "22654763-b18d-4666-a15e-af80770a5686"
  },
  {
    "id": "83d0478d-0b17-4983-a7d7-9269b1a22a9e",
    "name": "Shōbara-shi",
    "state_id": "22654763-b18d-4666-a15e-af80770a5686"
  },
  {
    "id": "2cda5ffb-c0b3-4e09-8203-4c93b8b3dbce",
    "name": "Takehara",
    "state_id": "22654763-b18d-4666-a15e-af80770a5686"
  },
  {
    "id": "c0f23d4c-9e96-477b-9618-8883e20eb4e0",
    "name": "Takehara-shi",
    "state_id": "22654763-b18d-4666-a15e-af80770a5686"
  }
]