[
  {
    "id": "e9cf04c9-5330-48df-b020-7eb522427394",
    "name": "Almelo",
    "state_id": "22a41cb0-63dd-474f-84ff-cf9e7c3724e7"
  },
  {
    "id": "ac577c88-d083-422e-8963-56792da1fb57",
    "name": "Baalder",
    "state_id": "22a41cb0-63dd-474f-84ff-cf9e7c3724e7"
  },
  {
    "id": "af2b6b7e-9272-4e44-b156-ffec708a7e66",
    "name": "Berkum",
    "state_id": "22a41cb0-63dd-474f-84ff-cf9e7c3724e7"
  },
  {
    "id": "164e499b-7095-4062-bdb1-7d8b9fdac2dc",
    "name": "Blokzijl",
    "state_id": "22a41cb0-63dd-474f-84ff-cf9e7c3724e7"
  },
  {
    "id": "77cedef2-4639-4c4a-b2ec-9392bc2e9d2c",
    "name": "Borgele",
    "state_id": "22a41cb0-63dd-474f-84ff-cf9e7c3724e7"
  },
  {
    "id": "793bc828-b979-491e-a36a-03c17c20f254",
    "name": "Borne",
    "state_id": "22a41cb0-63dd-474f-84ff-cf9e7c3724e7"
  },
  {
    "id": "6e5587a0-8355-4145-a29f-bb5c2d651399",
    "name": "Boskamp",
    "state_id": "22a41cb0-63dd-474f-84ff-cf9e7c3724e7"
  },
  {
    "id": "eb465a7d-5e42-48e0-a74c-c87d466b272c",
    "name": "Brunnepe",
    "state_id": "22a41cb0-63dd-474f-84ff-cf9e7c3724e7"
  },
  {
    "id": "4c2b5629-5601-4295-89fa-11abb54af28a",
    "name": "Dalfsen",
    "state_id": "22a41cb0-63dd-474f-84ff-cf9e7c3724e7"
  },
  {
    "id": "ca6d62b9-fbda-400e-becb-4f4baef010be",
    "name": "De Hoven",
    "state_id": "22a41cb0-63dd-474f-84ff-cf9e7c3724e7"
  },
  {
    "id": "0e4c7cd7-93b8-41cb-a154-a456aca7cb97",
    "name": "Delden",
    "state_id": "22a41cb0-63dd-474f-84ff-cf9e7c3724e7"
  },
  {
    "id": "5d2a5a20-765b-49c5-b1fd-c14a4c4f65f5",
    "name": "Den Ham",
    "state_id": "22a41cb0-63dd-474f-84ff-cf9e7c3724e7"
  },
  {
    "id": "ec47f164-6940-4e26-bcee-e5f192f88658",
    "name": "Deventer",
    "state_id": "22a41cb0-63dd-474f-84ff-cf9e7c3724e7"
  },
  {
    "id": "62a3dc57-4cb6-42db-a2cb-4d10b1ce8d2d",
    "name": "Diepenheim",
    "state_id": "22a41cb0-63dd-474f-84ff-cf9e7c3724e7"
  },
  {
    "id": "9ed759f9-9f68-4000-84fb-71c3325e0586",
    "name": "Enschede",
    "state_id": "22a41cb0-63dd-474f-84ff-cf9e7c3724e7"
  },
  {
    "id": "adfd55f2-d4f5-4189-9ca4-ffe52e00c3ec",
    "name": "Flevowijk",
    "state_id": "22a41cb0-63dd-474f-84ff-cf9e7c3724e7"
  },
  {
    "id": "d4255b93-cee9-45ca-ad4f-6160ca249e2f",
    "name": "Frankhuis",
    "state_id": "22a41cb0-63dd-474f-84ff-cf9e7c3724e7"
  },
  {
    "id": "f64da837-5081-42a6-b52a-c951653a66de",
    "name": "Gemeente Almelo",
    "state_id": "22a41cb0-63dd-474f-84ff-cf9e7c3724e7"
  },
  {
    "id": "e6a3c335-cc6c-4044-b3a9-bb12c0697fd6",
    "name": "Gemeente Borne",
    "state_id": "22a41cb0-63dd-474f-84ff-cf9e7c3724e7"
  },
  {
    "id": "716407f0-68ee-4428-8718-c6fd8f8cb9f1",
    "name": "Gemeente Dalfsen",
    "state_id": "22a41cb0-63dd-474f-84ff-cf9e7c3724e7"
  },
  {
    "id": "08d6a2ad-5c1e-4837-b8f9-d19f7d6bc781",
    "name": "Gemeente Deventer",
    "state_id": "22a41cb0-63dd-474f-84ff-cf9e7c3724e7"
  },
  {
    "id": "65a5b47d-3fb0-4ba9-acfa-c7d3c411ba03",
    "name": "Gemeente Dinkelland",
    "state_id": "22a41cb0-63dd-474f-84ff-cf9e7c3724e7"
  },
  {
    "id": "5b0a6b9c-a6ad-43ff-9759-cd89436b33ff",
    "name": "Gemeente Enschede",
    "state_id": "22a41cb0-63dd-474f-84ff-cf9e7c3724e7"
  },
  {
    "id": "fce36d75-c767-4465-aba3-7b74fcbe9f47",
    "name": "Gemeente Haaksbergen",
    "state_id": "22a41cb0-63dd-474f-84ff-cf9e7c3724e7"
  },
  {
    "id": "7108ff8f-2465-4fcf-a615-c8150693c765",
    "name": "Gemeente Hardenberg",
    "state_id": "22a41cb0-63dd-474f-84ff-cf9e7c3724e7"
  },
  {
    "id": "a0560885-26a9-418f-bfdd-50bb277e5a98",
    "name": "Gemeente Hellendoorn",
    "state_id": "22a41cb0-63dd-474f-84ff-cf9e7c3724e7"
  },
  {
    "id": "4808cc35-5588-4a69-967a-602c88bbad36",
    "name": "Gemeente Hengelo",
    "state_id": "22a41cb0-63dd-474f-84ff-cf9e7c3724e7"
  },
  {
    "id": "a63ce9b9-9de4-4d5d-bbf1-08f80c07f25e",
    "name": "Gemeente Hof van Twente",
    "state_id": "22a41cb0-63dd-474f-84ff-cf9e7c3724e7"
  },
  {
    "id": "5b6166d8-87cc-46a6-bb10-199f2c5c107e",
    "name": "Gemeente Kampen",
    "state_id": "22a41cb0-63dd-474f-84ff-cf9e7c3724e7"
  },
  {
    "id": "6ffe585b-c333-4672-b056-63e308d6ec3b",
    "name": "Gemeente Losser",
    "state_id": "22a41cb0-63dd-474f-84ff-cf9e7c3724e7"
  },
  {
    "id": "197af66b-4d71-4f05-92a4-9343220018c8",
    "name": "Gemeente Oldenzaal",
    "state_id": "22a41cb0-63dd-474f-84ff-cf9e7c3724e7"
  },
  {
    "id": "0e74b6bb-134f-412d-a530-769e59b9a4e4",
    "name": "Gemeente Olst-Wijhe",
    "state_id": "22a41cb0-63dd-474f-84ff-cf9e7c3724e7"
  },
  {
    "id": "7ef3d8bc-ec6b-4873-9028-a249fa28ea2b",
    "name": "Gemeente Ommen",
    "state_id": "22a41cb0-63dd-474f-84ff-cf9e7c3724e7"
  },
  {
    "id": "419e7f10-118c-4f27-aceb-9939c10c37d1",
    "name": "Gemeente Raalte",
    "state_id": "22a41cb0-63dd-474f-84ff-cf9e7c3724e7"
  },
  {
    "id": "32cb04da-6f0a-4b75-9f12-e4e664904f93",
    "name": "Gemeente Rijssen-Holten",
    "state_id": "22a41cb0-63dd-474f-84ff-cf9e7c3724e7"
  },
  {
    "id": "9e91a9a7-4840-4e06-b2e2-608ff704ede6",
    "name": "Gemeente Staphorst",
    "state_id": "22a41cb0-63dd-474f-84ff-cf9e7c3724e7"
  },
  {
    "id": "dec8f567-8e28-4215-a5be-6a5fbd2f73e1",
    "name": "Gemeente Steenwijkerland",
    "state_id": "22a41cb0-63dd-474f-84ff-cf9e7c3724e7"
  },
  {
    "id": "d816ddf8-1811-48a6-9906-140f4d4ba02b",
    "name": "Gemeente Tubbergen",
    "state_id": "22a41cb0-63dd-474f-84ff-cf9e7c3724e7"
  },
  {
    "id": "58ff0f4a-5d4b-4f25-bee3-1080b0342fdb",
    "name": "Gemeente Twenterand",
    "state_id": "22a41cb0-63dd-474f-84ff-cf9e7c3724e7"
  },
  {
    "id": "a61670b0-27b3-419f-a50b-b681fe104720",
    "name": "Gemeente Wierden",
    "state_id": "22a41cb0-63dd-474f-84ff-cf9e7c3724e7"
  },
  {
    "id": "24132547-32ff-4ca7-afe3-fce6890e3a99",
    "name": "Gemeente Zwartewaterland",
    "state_id": "22a41cb0-63dd-474f-84ff-cf9e7c3724e7"
  },
  {
    "id": "e58d3486-50f4-4e1f-afe5-d867afc74009",
    "name": "Gemeente Zwolle",
    "state_id": "22a41cb0-63dd-474f-84ff-cf9e7c3724e7"
  },
  {
    "id": "03b19180-1a33-41ce-96c5-7ceba4087f3d",
    "name": "Giethoorn",
    "state_id": "22a41cb0-63dd-474f-84ff-cf9e7c3724e7"
  },
  {
    "id": "36285ea3-6c3f-4acb-bd52-fb6d146d10a0",
    "name": "Goor",
    "state_id": "22a41cb0-63dd-474f-84ff-cf9e7c3724e7"
  },
  {
    "id": "f7b3e24c-918c-4f92-aa00-8e3a69de084c",
    "name": "Grafhorst",
    "state_id": "22a41cb0-63dd-474f-84ff-cf9e7c3724e7"
  },
  {
    "id": "0d93932a-259e-4e3d-b75f-3013d0dc3d17",
    "name": "Haaksbergen",
    "state_id": "22a41cb0-63dd-474f-84ff-cf9e7c3724e7"
  },
  {
    "id": "4d19a0a7-470f-4157-8ab2-9f2389748dcb",
    "name": "Haarle",
    "state_id": "22a41cb0-63dd-474f-84ff-cf9e7c3724e7"
  },
  {
    "id": "15384a8e-9b2d-4b5f-ab9d-6b7a5848e78d",
    "name": "Hardenberg",
    "state_id": "22a41cb0-63dd-474f-84ff-cf9e7c3724e7"
  },
  {
    "id": "648ddcbd-249a-4fb1-8ad9-9eda6ee7e255",
    "name": "Hasselt",
    "state_id": "22a41cb0-63dd-474f-84ff-cf9e7c3724e7"
  },
  {
    "id": "49d08843-0cd1-4032-b5d4-859d68c4ed22",
    "name": "Heino",
    "state_id": "22a41cb0-63dd-474f-84ff-cf9e7c3724e7"
  },
  {
    "id": "0a3a4d56-25f2-44b3-b313-47f812cb0726",
    "name": "Hengelo",
    "state_id": "22a41cb0-63dd-474f-84ff-cf9e7c3724e7"
  },
  {
    "id": "d2205c41-3748-44fd-894e-da37725ecbe9",
    "name": "Hengevelde",
    "state_id": "22a41cb0-63dd-474f-84ff-cf9e7c3724e7"
  },
  {
    "id": "9c447222-9446-4e2d-8bd5-00ebbcfa7801",
    "name": "Het Oostrik",
    "state_id": "22a41cb0-63dd-474f-84ff-cf9e7c3724e7"
  },
  {
    "id": "3605df46-8221-4822-9d2b-4590f8e6d1b4",
    "name": "Kampen",
    "state_id": "22a41cb0-63dd-474f-84ff-cf9e7c3724e7"
  },
  {
    "id": "5a81ee03-c321-4827-b55e-c46a4d1c7659",
    "name": "Klein Driene",
    "state_id": "22a41cb0-63dd-474f-84ff-cf9e7c3724e7"
  },
  {
    "id": "4f57b451-da72-4d46-ab4f-a88cc8c2a8e4",
    "name": "Losser",
    "state_id": "22a41cb0-63dd-474f-84ff-cf9e7c3724e7"
  },
  {
    "id": "14e16e57-3461-4505-a7f9-b42b988af382",
    "name": "Magele",
    "state_id": "22a41cb0-63dd-474f-84ff-cf9e7c3724e7"
  },
  {
    "id": "af0ad29f-b472-451f-a55f-6349d0f02bf9",
    "name": "Markelo",
    "state_id": "22a41cb0-63dd-474f-84ff-cf9e7c3724e7"
  },
  {
    "id": "04e3f926-8203-43da-9f07-6fda6e3a2bb4",
    "name": "Mekkelholt",
    "state_id": "22a41cb0-63dd-474f-84ff-cf9e7c3724e7"
  },
  {
    "id": "a9ba470a-1dd5-427a-a2ee-8ebe3b71c428",
    "name": "Nieuwoord",
    "state_id": "22a41cb0-63dd-474f-84ff-cf9e7c3724e7"
  },
  {
    "id": "c57a66ce-700a-4adc-adbc-75da6bd74f93",
    "name": "Nijrees",
    "state_id": "22a41cb0-63dd-474f-84ff-cf9e7c3724e7"
  },
  {
    "id": "0e9ce6de-9431-49a2-b109-f13fb66122d8",
    "name": "Oldemarkt",
    "state_id": "22a41cb0-63dd-474f-84ff-cf9e7c3724e7"
  },
  {
    "id": "e4c567e8-57df-47e9-b2b1-d48fd70121a8",
    "name": "Oldenzaal",
    "state_id": "22a41cb0-63dd-474f-84ff-cf9e7c3724e7"
  },
  {
    "id": "1e0e84a9-7a01-4f19-adbc-eda1e1557b5b",
    "name": "Olst",
    "state_id": "22a41cb0-63dd-474f-84ff-cf9e7c3724e7"
  },
  {
    "id": "f464de57-01f6-4fa1-b6b1-3c692dfb7415",
    "name": "Ommen",
    "state_id": "22a41cb0-63dd-474f-84ff-cf9e7c3724e7"
  },
  {
    "id": "b21ba1ea-8c9f-43f8-be5d-b134b2046726",
    "name": "Oosterholt",
    "state_id": "22a41cb0-63dd-474f-84ff-cf9e7c3724e7"
  },
  {
    "id": "3d392ff0-0ad8-43fb-b3e4-3b242e4689e2",
    "name": "Oostermeenthe",
    "state_id": "22a41cb0-63dd-474f-84ff-cf9e7c3724e7"
  },
  {
    "id": "28da07e2-07b0-4989-b9db-b1b6bfa7481f",
    "name": "Ootmarsum",
    "state_id": "22a41cb0-63dd-474f-84ff-cf9e7c3724e7"
  },
  {
    "id": "0ab27fc0-f1c2-46c8-a4af-fec15a826368",
    "name": "Pathmos",
    "state_id": "22a41cb0-63dd-474f-84ff-cf9e7c3724e7"
  },
  {
    "id": "eaa3576f-8df8-4e29-8d82-7fd7a90fe108",
    "name": "Pierik",
    "state_id": "22a41cb0-63dd-474f-84ff-cf9e7c3724e7"
  },
  {
    "id": "f188aced-322b-4522-8f6c-7969b58c030a",
    "name": "Raalte",
    "state_id": "22a41cb0-63dd-474f-84ff-cf9e7c3724e7"
  },
  {
    "id": "7ccbcd33-90f4-472e-a5f4-fd752b413ada",
    "name": "Rossum",
    "state_id": "22a41cb0-63dd-474f-84ff-cf9e7c3724e7"
  },
  {
    "id": "b9b2613c-4bb5-4587-a712-9ca1ae967a25",
    "name": "Schalkhaar",
    "state_id": "22a41cb0-63dd-474f-84ff-cf9e7c3724e7"
  },
  {
    "id": "b7ecc79a-2fc3-4f04-874e-59e5cd54d500",
    "name": "Sint Jansklooster",
    "state_id": "22a41cb0-63dd-474f-84ff-cf9e7c3724e7"
  },
  {
    "id": "e67cb9d4-e3cb-476d-95df-63a5d9893830",
    "name": "Staphorst",
    "state_id": "22a41cb0-63dd-474f-84ff-cf9e7c3724e7"
  },
  {
    "id": "e86abb26-ac24-484f-9d67-80d7963d3594",
    "name": "Steenwijk",
    "state_id": "22a41cb0-63dd-474f-84ff-cf9e7c3724e7"
  },
  {
    "id": "500a6f64-cfd3-4e47-8a7e-1200a1cf7192",
    "name": "Steenwijkerwold",
    "state_id": "22a41cb0-63dd-474f-84ff-cf9e7c3724e7"
  },
  {
    "id": "1650d476-4255-47a8-8969-3acbb474be0a",
    "name": "Tubbergen",
    "state_id": "22a41cb0-63dd-474f-84ff-cf9e7c3724e7"
  },
  {
    "id": "325bc52b-8584-47d9-9592-ff427e08de29",
    "name": "Tuk",
    "state_id": "22a41cb0-63dd-474f-84ff-cf9e7c3724e7"
  },
  {
    "id": "830b016e-079e-43ed-b721-55bd0192fca7",
    "name": "Twekkelerveld",
    "state_id": "22a41cb0-63dd-474f-84ff-cf9e7c3724e7"
  },
  {
    "id": "e49b502f-29fd-49b7-973e-bc68129f5f72",
    "name": "Vollenhove",
    "state_id": "22a41cb0-63dd-474f-84ff-cf9e7c3724e7"
  },
  {
    "id": "3b3c5955-21f2-4bb7-9da4-21e07264ed74",
    "name": "Vriezenveen",
    "state_id": "22a41cb0-63dd-474f-84ff-cf9e7c3724e7"
  },
  {
    "id": "b41d9cce-26ae-4179-8ab1-ff5344a725b8",
    "name": "Vroomshoop",
    "state_id": "22a41cb0-63dd-474f-84ff-cf9e7c3724e7"
  },
  {
    "id": "3b3c243e-7adc-4f8b-9b3d-fa7f205fe202",
    "name": "Westerhaar-Vriezenveensewijk",
    "state_id": "22a41cb0-63dd-474f-84ff-cf9e7c3724e7"
  },
  {
    "id": "9dc493b4-f9ec-4dc3-be79-7763f65cf7e4",
    "name": "Wierden",
    "state_id": "22a41cb0-63dd-474f-84ff-cf9e7c3724e7"
  },
  {
    "id": "42cb5a0a-84e5-4cfd-ade3-6f6fecdf1eef",
    "name": "Wijhe",
    "state_id": "22a41cb0-63dd-474f-84ff-cf9e7c3724e7"
  },
  {
    "id": "ccaaa185-28a0-4f4f-a713-37b11bd05a1b",
    "name": "Woolde",
    "state_id": "22a41cb0-63dd-474f-84ff-cf9e7c3724e7"
  },
  {
    "id": "f63551af-0ab6-4cde-8b09-5a2cb92936ad",
    "name": "Wooldrik",
    "state_id": "22a41cb0-63dd-474f-84ff-cf9e7c3724e7"
  },
  {
    "id": "2b633a9f-441e-44c6-9313-1282716b0278",
    "name": "Zuid-Berghuizen",
    "state_id": "22a41cb0-63dd-474f-84ff-cf9e7c3724e7"
  },
  {
    "id": "66279210-f0a1-44a3-843c-30f2094cbefd",
    "name": "Zwolle",
    "state_id": "22a41cb0-63dd-474f-84ff-cf9e7c3724e7"
  }
]