[
  {
    "id": "d6dd6628-b8ed-4dd4-b645-396200e11e53",
    "name": "Afanas’yeva",
    "state_id": "22cc95e2-e7aa-4fc7-9e35-a1224ad05d0b"
  },
  {
    "id": "14532786-57fe-4786-b6c5-bcb499cee3b9",
    "name": "Alarskiy Rayon",
    "state_id": "22cc95e2-e7aa-4fc7-9e35-a1224ad05d0b"
  },
  {
    "id": "4b73b2a2-ef78-468b-b7ae-3e547a91a59e",
    "name": "Alekseyevskaya",
    "state_id": "22cc95e2-e7aa-4fc7-9e35-a1224ad05d0b"
  },
  {
    "id": "1ecea23b-3698-4bc8-ab34-165033de1010",
    "name": "Algatuy",
    "state_id": "22cc95e2-e7aa-4fc7-9e35-a1224ad05d0b"
  },
  {
    "id": "ee0ef111-aa38-46b4-ba0a-c7adbf144e83",
    "name": "Alzamay",
    "state_id": "22cc95e2-e7aa-4fc7-9e35-a1224ad05d0b"
  },
  {
    "id": "7aae77d0-89f1-4ab8-9acb-582156b0f1f1",
    "name": "Andreyevka",
    "state_id": "22cc95e2-e7aa-4fc7-9e35-a1224ad05d0b"
  },
  {
    "id": "c36b03c2-f6ae-4c26-b46a-450f15e380d2",
    "name": "Angarsk",
    "state_id": "22cc95e2-e7aa-4fc7-9e35-a1224ad05d0b"
  },
  {
    "id": "35dedb92-74ab-4419-8b54-3fa77b424bdc",
    "name": "Angarskiy Rayon",
    "state_id": "22cc95e2-e7aa-4fc7-9e35-a1224ad05d0b"
  },
  {
    "id": "ddd1706e-c58e-4ce0-a9f7-ef1a2461cfb5",
    "name": "Atagay",
    "state_id": "22cc95e2-e7aa-4fc7-9e35-a1224ad05d0b"
  },
  {
    "id": "6c782ded-2dc8-4bac-b7fa-defeb83664ca",
    "name": "Badar",
    "state_id": "22cc95e2-e7aa-4fc7-9e35-a1224ad05d0b"
  },
  {
    "id": "fe8420e6-6fa9-4363-aa5e-e759d20c0bbd",
    "name": "Baklashi",
    "state_id": "22cc95e2-e7aa-4fc7-9e35-a1224ad05d0b"
  },
  {
    "id": "cf3a588b-f82c-4906-a9ec-de17d0a92eb8",
    "name": "Balagansk",
    "state_id": "22cc95e2-e7aa-4fc7-9e35-a1224ad05d0b"
  },
  {
    "id": "0bf0075a-f779-4ec3-9fa9-57b911610edd",
    "name": "Balaganskiy Rayon",
    "state_id": "22cc95e2-e7aa-4fc7-9e35-a1224ad05d0b"
  },
  {
    "id": "6e117645-0d10-4910-a68f-8717d263756d",
    "name": "Balakhninskiy",
    "state_id": "22cc95e2-e7aa-4fc7-9e35-a1224ad05d0b"
  },
  {
    "id": "fafbae35-fb6a-46f0-aa2c-ce0e731012e8",
    "name": "Balaklava",
    "state_id": "22cc95e2-e7aa-4fc7-9e35-a1224ad05d0b"
  },
  {
    "id": "f529adfd-32ad-41d4-91a6-fbad3e0ecf55",
    "name": "Balaklava District",
    "state_id": "22cc95e2-e7aa-4fc7-9e35-a1224ad05d0b"
  },
  {
    "id": "8a86b0a9-0b3f-4426-8a7a-ef01bbe1c70b",
    "name": "Bayanday",
    "state_id": "22cc95e2-e7aa-4fc7-9e35-a1224ad05d0b"
  },
  {
    "id": "e8f9d52c-9198-4251-9e90-d6c89808a61a",
    "name": "Bayandayevskiy Rayon",
    "state_id": "22cc95e2-e7aa-4fc7-9e35-a1224ad05d0b"
  },
  {
    "id": "1170021c-f89d-48fc-8eb8-67baa3e7a07f",
    "name": "Baykal’sk",
    "state_id": "22cc95e2-e7aa-4fc7-9e35-a1224ad05d0b"
  },
  {
    "id": "e87c326c-6880-4ecf-8a28-6ec92e5abdad",
    "name": "Bereznyaki",
    "state_id": "22cc95e2-e7aa-4fc7-9e35-a1224ad05d0b"
  },
  {
    "id": "42bc486b-88a3-447e-93c4-c7db976c5081",
    "name": "Biryusinsk",
    "state_id": "22cc95e2-e7aa-4fc7-9e35-a1224ad05d0b"
  },
  {
    "id": "7ba19ebb-2d5f-4b1e-bba5-bca661174de5",
    "name": "Bodaybo",
    "state_id": "22cc95e2-e7aa-4fc7-9e35-a1224ad05d0b"
  },
  {
    "id": "d5b9768f-03ca-44d0-968c-9b64dacceb8d",
    "name": "Bokhan",
    "state_id": "22cc95e2-e7aa-4fc7-9e35-a1224ad05d0b"
  },
  {
    "id": "08af8ab1-2386-4ce6-a0c7-fc92f8e001b4",
    "name": "Bokhanskiy Rayon",
    "state_id": "22cc95e2-e7aa-4fc7-9e35-a1224ad05d0b"
  },
  {
    "id": "854da9f1-95d8-40fe-bea4-c436fc964080",
    "name": "Bol’shaya Rechka",
    "state_id": "22cc95e2-e7aa-4fc7-9e35-a1224ad05d0b"
  },
  {
    "id": "6936d408-08bf-4a14-81b9-7beea5fb46f7",
    "name": "Bratsk",
    "state_id": "22cc95e2-e7aa-4fc7-9e35-a1224ad05d0b"
  },
  {
    "id": "a9d5ef22-d8c6-404e-afa9-8e08826c6af7",
    "name": "Bratskiy Rayon",
    "state_id": "22cc95e2-e7aa-4fc7-9e35-a1224ad05d0b"
  },
  {
    "id": "edc14f2b-02da-44ac-a96f-d5a4ee260378",
    "name": "Budagovo",
    "state_id": "22cc95e2-e7aa-4fc7-9e35-a1224ad05d0b"
  },
  {
    "id": "70a4138b-fc35-42e2-8732-b76fbba1703c",
    "name": "Cheremkhovo",
    "state_id": "22cc95e2-e7aa-4fc7-9e35-a1224ad05d0b"
  },
  {
    "id": "f1396c02-9da4-41ce-9ca8-b6de84a1a94c",
    "name": "Cheremkhovskiy Rayon",
    "state_id": "22cc95e2-e7aa-4fc7-9e35-a1224ad05d0b"
  },
  {
    "id": "e47f785d-cc08-46b8-b179-c88cd75d3fd7",
    "name": "Chunskiy",
    "state_id": "22cc95e2-e7aa-4fc7-9e35-a1224ad05d0b"
  },
  {
    "id": "64b5c1f4-ae97-4f51-8bc3-ddbde6123721",
    "name": "Dzerzhinsk",
    "state_id": "22cc95e2-e7aa-4fc7-9e35-a1224ad05d0b"
  },
  {
    "id": "e788aa00-15c1-474a-93ac-943f0cab19c6",
    "name": "Ekhirit-Bulagatskiy Rayon",
    "state_id": "22cc95e2-e7aa-4fc7-9e35-a1224ad05d0b"
  },
  {
    "id": "96d80c93-7dd4-4319-8b4d-e588b9a70c1d",
    "name": "Frontovoye",
    "state_id": "22cc95e2-e7aa-4fc7-9e35-a1224ad05d0b"
  },
  {
    "id": "306d1505-6647-469a-928d-87dc829b8648",
    "name": "Gadaley",
    "state_id": "22cc95e2-e7aa-4fc7-9e35-a1224ad05d0b"
  },
  {
    "id": "f103fa3f-c1bc-4c3c-894f-50bb46139fca",
    "name": "Guran",
    "state_id": "22cc95e2-e7aa-4fc7-9e35-a1224ad05d0b"
  },
  {
    "id": "ed15a41a-470e-4b63-ae79-4f02173220d5",
    "name": "Haharinskyi District",
    "state_id": "22cc95e2-e7aa-4fc7-9e35-a1224ad05d0b"
  },
  {
    "id": "bc1f6d0f-0b09-4f0d-bda3-977189c0a1d7",
    "name": "Ikey",
    "state_id": "22cc95e2-e7aa-4fc7-9e35-a1224ad05d0b"
  },
  {
    "id": "221d3638-d9d4-4858-8ed3-5285ba8cd8c1",
    "name": "Ilir",
    "state_id": "22cc95e2-e7aa-4fc7-9e35-a1224ad05d0b"
  },
  {
    "id": "a80777f0-036e-4a12-9481-e8942f9e275d",
    "name": "Inkerman",
    "state_id": "22cc95e2-e7aa-4fc7-9e35-a1224ad05d0b"
  },
  {
    "id": "06efff0f-cf6d-46d2-98d1-b4d9aae31b91",
    "name": "Irkutsk",
    "state_id": "22cc95e2-e7aa-4fc7-9e35-a1224ad05d0b"
  },
  {
    "id": "0cf5aa95-397f-4f01-9c72-2bb7248cb6ce",
    "name": "Irkutskiy Rayon",
    "state_id": "22cc95e2-e7aa-4fc7-9e35-a1224ad05d0b"
  },
  {
    "id": "3e514b41-90ee-4501-b98a-a8f206f5fd77",
    "name": "Kacha",
    "state_id": "22cc95e2-e7aa-4fc7-9e35-a1224ad05d0b"
  },
  {
    "id": "5096a99d-159a-42b4-b6b0-ccf0e47ac2de",
    "name": "Kachug",
    "state_id": "22cc95e2-e7aa-4fc7-9e35-a1224ad05d0b"
  },
  {
    "id": "6b1b302c-0db8-41df-b24d-1dd2b5b6c894",
    "name": "Kachugskiy Rayon",
    "state_id": "22cc95e2-e7aa-4fc7-9e35-a1224ad05d0b"
  },
  {
    "id": "91ab7df5-e17f-486e-b66c-cfd71920f836",
    "name": "Katangskiy Rayon",
    "state_id": "22cc95e2-e7aa-4fc7-9e35-a1224ad05d0b"
  },
  {
    "id": "9a391e99-18c2-40ba-9477-654dd7fc87b5",
    "name": "Kazachinsko-Lenskiy Rayon",
    "state_id": "22cc95e2-e7aa-4fc7-9e35-a1224ad05d0b"
  },
  {
    "id": "37be8a7b-167f-4430-b144-5c8906acf692",
    "name": "Kazachinskoye",
    "state_id": "22cc95e2-e7aa-4fc7-9e35-a1224ad05d0b"
  },
  {
    "id": "ab81f03e-10fb-4bb4-ab4d-24cb8c53640e",
    "name": "Khomutovo",
    "state_id": "22cc95e2-e7aa-4fc7-9e35-a1224ad05d0b"
  },
  {
    "id": "2a73db1c-c9d6-49c0-b540-0423561595bc",
    "name": "Khrebtovaya",
    "state_id": "22cc95e2-e7aa-4fc7-9e35-a1224ad05d0b"
  },
  {
    "id": "0830600b-3cb0-46e9-b62c-9bacc9f4b22d",
    "name": "Khudoyelanskoye",
    "state_id": "22cc95e2-e7aa-4fc7-9e35-a1224ad05d0b"
  },
  {
    "id": "7330b81d-865d-4db1-935d-44bc147a3404",
    "name": "Khuzhir",
    "state_id": "22cc95e2-e7aa-4fc7-9e35-a1224ad05d0b"
  },
  {
    "id": "459f37a6-7d7d-41b9-8edb-860e7abc1c91",
    "name": "Kimil’tey",
    "state_id": "22cc95e2-e7aa-4fc7-9e35-a1224ad05d0b"
  },
  {
    "id": "00dc2111-d396-4bb5-916f-1a4991e15637",
    "name": "Kirensk",
    "state_id": "22cc95e2-e7aa-4fc7-9e35-a1224ad05d0b"
  },
  {
    "id": "1913d8b1-ac7b-4c4e-b929-737b121b1cce",
    "name": "Kirenskiy Rayon",
    "state_id": "22cc95e2-e7aa-4fc7-9e35-a1224ad05d0b"
  },
  {
    "id": "51edae7a-2d45-4448-b531-c02d542f15b1",
    "name": "Kitoy",
    "state_id": "22cc95e2-e7aa-4fc7-9e35-a1224ad05d0b"
  },
  {
    "id": "81b56d19-ee50-4200-a1c5-bf593a1f2640",
    "name": "Kotik",
    "state_id": "22cc95e2-e7aa-4fc7-9e35-a1224ad05d0b"
  },
  {
    "id": "073bc850-ba62-4d67-b393-835ed9df7514",
    "name": "Kropotkin",
    "state_id": "22cc95e2-e7aa-4fc7-9e35-a1224ad05d0b"
  },
  {
    "id": "2e0f4add-35e3-4e55-af03-9852f901b88d",
    "name": "Kultuk",
    "state_id": "22cc95e2-e7aa-4fc7-9e35-a1224ad05d0b"
  },
  {
    "id": "fa2e4efb-a36e-492a-bda2-0705c61aa8fa",
    "name": "Kutulik",
    "state_id": "22cc95e2-e7aa-4fc7-9e35-a1224ad05d0b"
  },
  {
    "id": "1b996134-6576-403f-8a42-c4b99608470d",
    "name": "Kuytun",
    "state_id": "22cc95e2-e7aa-4fc7-9e35-a1224ad05d0b"
  },
  {
    "id": "95f4e034-644c-4dfe-a5e2-14688318bc3b",
    "name": "Kuytunskiy Rayon",
    "state_id": "22cc95e2-e7aa-4fc7-9e35-a1224ad05d0b"
  },
  {
    "id": "4e814e8f-c491-410c-b8ec-0cc8739ae8ed",
    "name": "Kvitok",
    "state_id": "22cc95e2-e7aa-4fc7-9e35-a1224ad05d0b"
  },
  {
    "id": "61f34127-f775-4e13-83ee-82036208656c",
    "name": "Lenin District",
    "state_id": "22cc95e2-e7aa-4fc7-9e35-a1224ad05d0b"
  },
  {
    "id": "26db5556-1ce6-4140-abe0-304d56bf697a",
    "name": "Lesogorsk",
    "state_id": "22cc95e2-e7aa-4fc7-9e35-a1224ad05d0b"
  },
  {
    "id": "47c1e600-d079-4d6f-ba6c-ff43ef120a1c",
    "name": "Listvyanka",
    "state_id": "22cc95e2-e7aa-4fc7-9e35-a1224ad05d0b"
  },
  {
    "id": "d33e2ebb-b775-4b02-b4db-ebd628f56728",
    "name": "Magistral’nyy",
    "state_id": "22cc95e2-e7aa-4fc7-9e35-a1224ad05d0b"
  },
  {
    "id": "1895c74a-ab29-4fa9-b7aa-cf29dc446a12",
    "name": "Mama",
    "state_id": "22cc95e2-e7aa-4fc7-9e35-a1224ad05d0b"
  },
  {
    "id": "35fbcc0e-0d6a-4fe1-aa8a-90b21130c189",
    "name": "Mamakan",
    "state_id": "22cc95e2-e7aa-4fc7-9e35-a1224ad05d0b"
  },
  {
    "id": "0bd72adc-322b-4ae9-87e2-cb071a6f8975",
    "name": "Mamsko-Chuyskiy Rayon",
    "state_id": "22cc95e2-e7aa-4fc7-9e35-a1224ad05d0b"
  },
  {
    "id": "3a273072-b073-40d1-b552-df6dd8528381",
    "name": "Manzurka",
    "state_id": "22cc95e2-e7aa-4fc7-9e35-a1224ad05d0b"
  },
  {
    "id": "f6f16394-a6ad-494b-b520-4b626e822383",
    "name": "Markova",
    "state_id": "22cc95e2-e7aa-4fc7-9e35-a1224ad05d0b"
  },
  {
    "id": "8c91f536-b82a-4ea2-9bd8-d6ea4bc82d36",
    "name": "Markovo",
    "state_id": "22cc95e2-e7aa-4fc7-9e35-a1224ad05d0b"
  },
  {
    "id": "21ce847b-813c-4dbe-b9fa-94ad986c5b2a",
    "name": "Meget",
    "state_id": "22cc95e2-e7aa-4fc7-9e35-a1224ad05d0b"
  },
  {
    "id": "ad291e4c-4dbd-4e6f-98a9-a5f0d5ff2ba3",
    "name": "Mishelevka",
    "state_id": "22cc95e2-e7aa-4fc7-9e35-a1224ad05d0b"
  },
  {
    "id": "ef14977b-9135-4e15-b3c9-bbe773b3967a",
    "name": "Mugun",
    "state_id": "22cc95e2-e7aa-4fc7-9e35-a1224ad05d0b"
  },
  {
    "id": "09da5be5-0fa9-4636-9781-fd01c818fefc",
    "name": "Nakhimovskiy rayon",
    "state_id": "22cc95e2-e7aa-4fc7-9e35-a1224ad05d0b"
  },
  {
    "id": "408971a8-394c-469e-9e03-c577cadb4030",
    "name": "Nizhneilimskiy Rayon",
    "state_id": "22cc95e2-e7aa-4fc7-9e35-a1224ad05d0b"
  },
  {
    "id": "35dad807-039d-4d3f-905b-05e8ea5ee803",
    "name": "Nizhneudinsk",
    "state_id": "22cc95e2-e7aa-4fc7-9e35-a1224ad05d0b"
  },
  {
    "id": "d4c00e4f-35f8-403b-80f3-0a5746bf36e3",
    "name": "Nizhneudinskiy Rayon",
    "state_id": "22cc95e2-e7aa-4fc7-9e35-a1224ad05d0b"
  },
  {
    "id": "0356060d-8ce4-40ff-b09c-75dace77474c",
    "name": "Novaya Igirma",
    "state_id": "22cc95e2-e7aa-4fc7-9e35-a1224ad05d0b"
  },
  {
    "id": "5fa0d042-40fd-443a-a864-88f1509b355d",
    "name": "Novobiryusinskiy",
    "state_id": "22cc95e2-e7aa-4fc7-9e35-a1224ad05d0b"
  },
  {
    "id": "74ea9886-0d10-45f7-a54d-01a957888a3f",
    "name": "Novonukutskiy",
    "state_id": "22cc95e2-e7aa-4fc7-9e35-a1224ad05d0b"
  },
  {
    "id": "32a7ff67-66b3-42b8-b028-22351428e348",
    "name": "Ol’khonskiy Rayon",
    "state_id": "22cc95e2-e7aa-4fc7-9e35-a1224ad05d0b"
  },
  {
    "id": "6198a2d8-e61f-45df-b6ba-e9c875af9317",
    "name": "Orlinoye",
    "state_id": "22cc95e2-e7aa-4fc7-9e35-a1224ad05d0b"
  },
  {
    "id": "a004c67d-c85c-423c-b275-d73dd797d974",
    "name": "Osa",
    "state_id": "22cc95e2-e7aa-4fc7-9e35-a1224ad05d0b"
  },
  {
    "id": "7f53debb-e4fa-49e2-b987-fab723113e1f",
    "name": "Oyëk",
    "state_id": "22cc95e2-e7aa-4fc7-9e35-a1224ad05d0b"
  },
  {
    "id": "7405e620-3a63-4a9d-939c-55bfddc77ad1",
    "name": "Pad’ Mel’nichnaya",
    "state_id": "22cc95e2-e7aa-4fc7-9e35-a1224ad05d0b"
  },
  {
    "id": "206013d8-a1ff-4fa2-947a-be301a31de05",
    "name": "Perfilovo",
    "state_id": "22cc95e2-e7aa-4fc7-9e35-a1224ad05d0b"
  },
  {
    "id": "b7ac2f4a-4a81-4551-b226-7021ae53184b",
    "name": "Pivovarikha",
    "state_id": "22cc95e2-e7aa-4fc7-9e35-a1224ad05d0b"
  },
  {
    "id": "32d255eb-4a64-47ec-b4c8-ecfbcb562c5c",
    "name": "Pokosnoye",
    "state_id": "22cc95e2-e7aa-4fc7-9e35-a1224ad05d0b"
  },
  {
    "id": "aa4869ae-d20c-454e-b6c3-9f14f979878e",
    "name": "Polyushko",
    "state_id": "22cc95e2-e7aa-4fc7-9e35-a1224ad05d0b"
  },
  {
    "id": "1c5d9ff1-8680-4c1f-97b4-eb4701dbefe7",
    "name": "Rudnogorsk",
    "state_id": "22cc95e2-e7aa-4fc7-9e35-a1224ad05d0b"
  },
  {
    "id": "3fcc991c-4dd1-451d-a9ed-aa8dc29b5d81",
    "name": "Sakharnaya Golovka",
    "state_id": "22cc95e2-e7aa-4fc7-9e35-a1224ad05d0b"
  },
  {
    "id": "e0f4830c-51b7-43cd-a74e-f8ae14308713",
    "name": "Sayansk",
    "state_id": "22cc95e2-e7aa-4fc7-9e35-a1224ad05d0b"
  },
  {
    "id": "4dacdb17-b674-4535-b2d8-18f71b4e4460",
    "name": "Sevastopol",
    "state_id": "22cc95e2-e7aa-4fc7-9e35-a1224ad05d0b"
  },
  {
    "id": "dd43325a-4d59-4c2e-89c2-3efe564f2609",
    "name": "Shamanka",
    "state_id": "22cc95e2-e7aa-4fc7-9e35-a1224ad05d0b"
  },
  {
    "id": "fc56cc0e-1eac-4a96-9d63-9c615eb9d78f",
    "name": "Sheberta",
    "state_id": "22cc95e2-e7aa-4fc7-9e35-a1224ad05d0b"
  },
  {
    "id": "83ec8175-df06-491a-9e91-64203ba4c2fb",
    "name": "Shelekhov",
    "state_id": "22cc95e2-e7aa-4fc7-9e35-a1224ad05d0b"
  },
  {
    "id": "a4d77cc1-203e-48b6-bfff-1fa86543c891",
    "name": "Sheragul",
    "state_id": "22cc95e2-e7aa-4fc7-9e35-a1224ad05d0b"
  },
  {
    "id": "c488d1a8-22a6-4e75-b4d0-807bfd203ab2",
    "name": "Shestakovo",
    "state_id": "22cc95e2-e7aa-4fc7-9e35-a1224ad05d0b"
  },
  {
    "id": "9ee6cb74-78fc-419b-a3a8-ffe9a7951f5c",
    "name": "Shitkino",
    "state_id": "22cc95e2-e7aa-4fc7-9e35-a1224ad05d0b"
  },
  {
    "id": "743061b3-1869-4463-b836-dc4893112610",
    "name": "Shturmovoye",
    "state_id": "22cc95e2-e7aa-4fc7-9e35-a1224ad05d0b"
  },
  {
    "id": "003c6d9a-1f20-4f14-aa92-d0842a3ab01d",
    "name": "Shumskiy",
    "state_id": "22cc95e2-e7aa-4fc7-9e35-a1224ad05d0b"
  },
  {
    "id": "9eea9e60-2d94-4d42-8353-f68f23ffc39b",
    "name": "Slyudyanka",
    "state_id": "22cc95e2-e7aa-4fc7-9e35-a1224ad05d0b"
  },
  {
    "id": "9032694d-e721-4ed9-9f1d-e9583abadeab",
    "name": "Slyudyanskiy Rayon",
    "state_id": "22cc95e2-e7aa-4fc7-9e35-a1224ad05d0b"
  },
  {
    "id": "00fd96d6-e2da-4ab2-a4b6-8eca77b3c154",
    "name": "Smolenshchina",
    "state_id": "22cc95e2-e7aa-4fc7-9e35-a1224ad05d0b"
  },
  {
    "id": "bd9a7334-34b1-4791-8e67-a0fedbac2826",
    "name": "Solnechniy",
    "state_id": "22cc95e2-e7aa-4fc7-9e35-a1224ad05d0b"
  },
  {
    "id": "6a82b83b-e63a-4369-9f6b-8babb7a39ef1",
    "name": "Sredniy",
    "state_id": "22cc95e2-e7aa-4fc7-9e35-a1224ad05d0b"
  },
  {
    "id": "b39c3ebc-14ed-415a-90f5-8bad68b5f87b",
    "name": "Svirsk",
    "state_id": "22cc95e2-e7aa-4fc7-9e35-a1224ad05d0b"
  },
  {
    "id": "34c833ae-4530-4cb8-93d2-48d77f4f7032",
    "name": "Tayshet",
    "state_id": "22cc95e2-e7aa-4fc7-9e35-a1224ad05d0b"
  },
  {
    "id": "4318a1a4-1a2d-493f-af44-f39835873609",
    "name": "Tayshetskiy Rayon",
    "state_id": "22cc95e2-e7aa-4fc7-9e35-a1224ad05d0b"
  },
  {
    "id": "a123d2ca-98d9-494d-909d-ab31fb925df9",
    "name": "Tayturka",
    "state_id": "22cc95e2-e7aa-4fc7-9e35-a1224ad05d0b"
  },
  {
    "id": "35207f8d-d483-4091-9e08-738153db011e",
    "name": "Tel’ma",
    "state_id": "22cc95e2-e7aa-4fc7-9e35-a1224ad05d0b"
  },
  {
    "id": "b5e31ee7-b119-4a3f-930f-82171ec0d7d4",
    "name": "Ternovka",
    "state_id": "22cc95e2-e7aa-4fc7-9e35-a1224ad05d0b"
  },
  {
    "id": "e5828071-0cbd-4842-885a-9ab69d7d2c08",
    "name": "Tulun",
    "state_id": "22cc95e2-e7aa-4fc7-9e35-a1224ad05d0b"
  },
  {
    "id": "bea39b28-8f5f-4fba-b333-84d1daac71f8",
    "name": "Tulunskiy Rayon",
    "state_id": "22cc95e2-e7aa-4fc7-9e35-a1224ad05d0b"
  },
  {
    "id": "4a612e54-741f-4f1e-bbfe-752ab35f0853",
    "name": "Tulyushka",
    "state_id": "22cc95e2-e7aa-4fc7-9e35-a1224ad05d0b"
  },
  {
    "id": "1f772de6-64a7-4793-8088-9018601c994e",
    "name": "Tyret’ Pervaya",
    "state_id": "22cc95e2-e7aa-4fc7-9e35-a1224ad05d0b"
  },
  {
    "id": "2e8ed261-18de-4c54-b06b-dae699b29e4c",
    "name": "Uk",
    "state_id": "22cc95e2-e7aa-4fc7-9e35-a1224ad05d0b"
  },
  {
    "id": "11c2b82d-8443-4941-9756-90af84687660",
    "name": "Urik",
    "state_id": "22cc95e2-e7aa-4fc7-9e35-a1224ad05d0b"
  },
  {
    "id": "fc1ef842-56c9-4807-9b69-457a71fd7c11",
    "name": "Usol’skiy Rayon",
    "state_id": "22cc95e2-e7aa-4fc7-9e35-a1224ad05d0b"
  },
  {
    "id": "1e0c77e6-6816-4333-b102-8590cd7a1bf2",
    "name": "Usol’ye-Sibirskoye",
    "state_id": "22cc95e2-e7aa-4fc7-9e35-a1224ad05d0b"
  },
  {
    "id": "4195563c-dc5d-466e-afcb-a684f79d7f5c",
    "name": "Ust’-Ilimsk",
    "state_id": "22cc95e2-e7aa-4fc7-9e35-a1224ad05d0b"
  },
  {
    "id": "68fcda6e-0720-4e97-b229-237ffc8b26f8",
    "name": "Ust’-Kut",
    "state_id": "22cc95e2-e7aa-4fc7-9e35-a1224ad05d0b"
  },
  {
    "id": "d28f6269-8d5f-4770-99ca-ce099608c5d1",
    "name": "Ust’-Kutskiy Rayon",
    "state_id": "22cc95e2-e7aa-4fc7-9e35-a1224ad05d0b"
  },
  {
    "id": "8c760309-de49-4b98-8295-983d935deb85",
    "name": "Ust’-Ordynskiy",
    "state_id": "22cc95e2-e7aa-4fc7-9e35-a1224ad05d0b"
  },
  {
    "id": "ea501d95-f380-428b-a9fd-8a8d9038c809",
    "name": "Ust’-Uda",
    "state_id": "22cc95e2-e7aa-4fc7-9e35-a1224ad05d0b"
  },
  {
    "id": "772f64b3-f6c1-4764-b375-b9a0ad950e4b",
    "name": "Ust’-Udinskiy Rayon",
    "state_id": "22cc95e2-e7aa-4fc7-9e35-a1224ad05d0b"
  },
  {
    "id": "24b1419b-9abd-41d6-aace-caf381947f4a",
    "name": "Verkhnesadovoye",
    "state_id": "22cc95e2-e7aa-4fc7-9e35-a1224ad05d0b"
  },
  {
    "id": "53464c1e-59df-4c46-9aa7-3270dd260e18",
    "name": "Vidim",
    "state_id": "22cc95e2-e7aa-4fc7-9e35-a1224ad05d0b"
  },
  {
    "id": "44c8c5d2-c234-47a2-896d-cf2c502290a0",
    "name": "Vikhorevka",
    "state_id": "22cc95e2-e7aa-4fc7-9e35-a1224ad05d0b"
  },
  {
    "id": "076dd48a-157a-4ec1-b1e3-3c4da1e0df4f",
    "name": "Voznesenskiy",
    "state_id": "22cc95e2-e7aa-4fc7-9e35-a1224ad05d0b"
  },
  {
    "id": "904dc465-f9aa-417e-ac60-7b993a5c8c24",
    "name": "Yantal’",
    "state_id": "22cc95e2-e7aa-4fc7-9e35-a1224ad05d0b"
  },
  {
    "id": "11d6da1f-b6fd-4149-9d9c-0074a341c669",
    "name": "Yedogon",
    "state_id": "22cc95e2-e7aa-4fc7-9e35-a1224ad05d0b"
  },
  {
    "id": "0a820ffc-d9a5-4f8b-b642-ef88bea478aa",
    "name": "Yelantsy",
    "state_id": "22cc95e2-e7aa-4fc7-9e35-a1224ad05d0b"
  },
  {
    "id": "fd99713d-e725-45dc-9f64-39c02b296227",
    "name": "Yerbogachen",
    "state_id": "22cc95e2-e7aa-4fc7-9e35-a1224ad05d0b"
  },
  {
    "id": "fdfb3381-09ee-4110-bc8d-e2eb46488c05",
    "name": "Yurty",
    "state_id": "22cc95e2-e7aa-4fc7-9e35-a1224ad05d0b"
  },
  {
    "id": "38d15aab-5ca6-44a1-b1d6-a210c3191a95",
    "name": "Zalari",
    "state_id": "22cc95e2-e7aa-4fc7-9e35-a1224ad05d0b"
  },
  {
    "id": "f88142c4-e6e9-417f-9066-b58c1f1bc692",
    "name": "Zalarinskiy Rayon",
    "state_id": "22cc95e2-e7aa-4fc7-9e35-a1224ad05d0b"
  },
  {
    "id": "3f4b5f81-fb97-4d0b-944f-afcbf3ecb3ac",
    "name": "Zheleznodorozhnyy",
    "state_id": "22cc95e2-e7aa-4fc7-9e35-a1224ad05d0b"
  },
  {
    "id": "40df5c65-1c76-473c-b1ee-51c5c5a0aa44",
    "name": "Zheleznogorsk-Ilimskiy",
    "state_id": "22cc95e2-e7aa-4fc7-9e35-a1224ad05d0b"
  },
  {
    "id": "11ea1cfd-c198-4bed-bc9c-8fa2d19d64c0",
    "name": "Zhigalovo",
    "state_id": "22cc95e2-e7aa-4fc7-9e35-a1224ad05d0b"
  },
  {
    "id": "772b8df8-739d-4cbc-91bc-c7c6db2eadb7",
    "name": "Zhigalovskiy Rayon",
    "state_id": "22cc95e2-e7aa-4fc7-9e35-a1224ad05d0b"
  },
  {
    "id": "beab5831-579a-4b37-86c2-974c28db711f",
    "name": "Zima",
    "state_id": "22cc95e2-e7aa-4fc7-9e35-a1224ad05d0b"
  },
  {
    "id": "e763ed6e-85ac-4032-bb20-e58516460efa",
    "name": "Ziminskiy Rayon",
    "state_id": "22cc95e2-e7aa-4fc7-9e35-a1224ad05d0b"
  },
  {
    "id": "c123e082-2bf6-4010-b72a-946d66b9b837",
    "name": "Zvëzdnyy",
    "state_id": "22cc95e2-e7aa-4fc7-9e35-a1224ad05d0b"
  }
]