[
  {
    "id": "ddc79cd1-73dc-46cf-bb81-a35f6c5b95b8",
    "name": "Kamnik",
    "state_id": "22eedfe9-9a34-44d7-955a-3a6af022b082"
  },
  {
    "id": "1e342480-0dce-46ad-a1e0-f0b31b5003e8",
    "name": "Mekinje",
    "state_id": "22eedfe9-9a34-44d7-955a-3a6af022b082"
  },
  {
    "id": "4b392deb-46de-4595-9ae4-0e8bff0b601e",
    "name": "Šmarca",
    "state_id": "22eedfe9-9a34-44d7-955a-3a6af022b082"
  }
]