[
  {
    "id": "c1cadc0c-3f19-452b-9f6f-f2ff8358b30f",
    "name": "Benecko",
    "state_id": "22f00d0b-d854-4934-8f6e-63f0daba7f71"
  },
  {
    "id": "ef04bba7-effc-4f07-8d92-1f6f9937b09e",
    "name": "Brniště",
    "state_id": "22f00d0b-d854-4934-8f6e-63f0daba7f71"
  },
  {
    "id": "920caeae-b3ca-422f-a327-f3c1e6527ef4",
    "name": "Česká Lípa",
    "state_id": "22f00d0b-d854-4934-8f6e-63f0daba7f71"
  },
  {
    "id": "f455ee50-98c5-4889-9298-deb3ae7fae44",
    "name": "Český Dub",
    "state_id": "22f00d0b-d854-4934-8f6e-63f0daba7f71"
  },
  {
    "id": "e190b392-9643-497f-a9a7-b3b9c419367c",
    "name": "Chrastava",
    "state_id": "22f00d0b-d854-4934-8f6e-63f0daba7f71"
  },
  {
    "id": "50971be3-7e8d-4dc5-937e-a3452b8c1240",
    "name": "Cvikov",
    "state_id": "22f00d0b-d854-4934-8f6e-63f0daba7f71"
  },
  {
    "id": "08a7f531-cbec-4f15-a8c3-a5e3dd64e427",
    "name": "Desná",
    "state_id": "22f00d0b-d854-4934-8f6e-63f0daba7f71"
  },
  {
    "id": "6c392e63-5cb8-4f06-9db3-b10374b7b9c0",
    "name": "Doksy",
    "state_id": "22f00d0b-d854-4934-8f6e-63f0daba7f71"
  },
  {
    "id": "2bfc4c5d-3c30-4ed8-a41d-f6f3ceefe054",
    "name": "Dubá",
    "state_id": "22f00d0b-d854-4934-8f6e-63f0daba7f71"
  },
  {
    "id": "1f054053-1aba-4629-a4bf-480ddd6693a2",
    "name": "Frýdlant",
    "state_id": "22f00d0b-d854-4934-8f6e-63f0daba7f71"
  },
  {
    "id": "7a48c250-bcbb-4d87-b8f8-f5135e1ede1c",
    "name": "Harrachov",
    "state_id": "22f00d0b-d854-4934-8f6e-63f0daba7f71"
  },
  {
    "id": "03fba883-12c6-45d1-97a3-e0a81d839c87",
    "name": "Hejnice",
    "state_id": "22f00d0b-d854-4934-8f6e-63f0daba7f71"
  },
  {
    "id": "66826cc2-ccc3-466e-9b70-2c05c2846337",
    "name": "Hodkovice nad Mohelkou",
    "state_id": "22f00d0b-d854-4934-8f6e-63f0daba7f71"
  },
  {
    "id": "cdcf5837-8b56-40dc-a509-5594e912ccc5",
    "name": "Horní Branná",
    "state_id": "22f00d0b-d854-4934-8f6e-63f0daba7f71"
  },
  {
    "id": "3588f620-6990-498f-aa7e-6c39353408cc",
    "name": "Hrádek nad Nisou",
    "state_id": "22f00d0b-d854-4934-8f6e-63f0daba7f71"
  },
  {
    "id": "1a3d2cb2-4005-491f-ae0f-bd9424b601ab",
    "name": "Jablonec nad Jizerou",
    "state_id": "22f00d0b-d854-4934-8f6e-63f0daba7f71"
  },
  {
    "id": "a01fd8d2-555b-4041-a769-bde3079c1d47",
    "name": "Jablonec nad Nisou",
    "state_id": "22f00d0b-d854-4934-8f6e-63f0daba7f71"
  },
  {
    "id": "6ae3eaf8-2296-433b-98fb-f61b743da3a8",
    "name": "Jablonné v Podještědí",
    "state_id": "22f00d0b-d854-4934-8f6e-63f0daba7f71"
  },
  {
    "id": "decd3b56-0496-49b9-8380-f6e2ce9737ae",
    "name": "Janov nad Nisou",
    "state_id": "22f00d0b-d854-4934-8f6e-63f0daba7f71"
  },
  {
    "id": "5128a425-9f28-4f8a-b40b-a943dacde567",
    "name": "Jilemnice",
    "state_id": "22f00d0b-d854-4934-8f6e-63f0daba7f71"
  },
  {
    "id": "7fc1d92d-deba-49f9-a04c-8ec6585199cd",
    "name": "Josefův Důl",
    "state_id": "22f00d0b-d854-4934-8f6e-63f0daba7f71"
  },
  {
    "id": "4494384f-9625-4513-b3dd-93a773ef16e1",
    "name": "Kamenický Šenov",
    "state_id": "22f00d0b-d854-4934-8f6e-63f0daba7f71"
  },
  {
    "id": "12b0703c-7d89-4a41-a742-002df0e72040",
    "name": "Kořenov",
    "state_id": "22f00d0b-d854-4934-8f6e-63f0daba7f71"
  },
  {
    "id": "2a8f6b23-3ab6-42fe-84ca-af59d7227aee",
    "name": "Košťálov",
    "state_id": "22f00d0b-d854-4934-8f6e-63f0daba7f71"
  },
  {
    "id": "3c492045-4df8-4da4-b654-e89da6e55d86",
    "name": "Liberec",
    "state_id": "22f00d0b-d854-4934-8f6e-63f0daba7f71"
  },
  {
    "id": "5678a7fc-84f4-420c-975f-3953786abccd",
    "name": "Lomnice nad Popelkou",
    "state_id": "22f00d0b-d854-4934-8f6e-63f0daba7f71"
  },
  {
    "id": "748c7cd6-456c-478e-acd0-2914aac895ea",
    "name": "Lučany nad Nisou",
    "state_id": "22f00d0b-d854-4934-8f6e-63f0daba7f71"
  },
  {
    "id": "9de6bc42-43fb-40e3-a232-a6a5ca644632",
    "name": "Malá Skála",
    "state_id": "22f00d0b-d854-4934-8f6e-63f0daba7f71"
  },
  {
    "id": "5dc626b5-b1ba-4b80-babf-8d734f8115a6",
    "name": "Mimoň",
    "state_id": "22f00d0b-d854-4934-8f6e-63f0daba7f71"
  },
  {
    "id": "8ec2e174-9bd4-41df-9f24-dda80cf8e616",
    "name": "Mníšek",
    "state_id": "22f00d0b-d854-4934-8f6e-63f0daba7f71"
  },
  {
    "id": "633342e6-62cb-4f7d-b0c7-578f67a3192d",
    "name": "Nové Město pod Smrkem",
    "state_id": "22f00d0b-d854-4934-8f6e-63f0daba7f71"
  },
  {
    "id": "344a95c9-48b9-43e5-a1e0-8ceb550f6b22",
    "name": "Nový Bor",
    "state_id": "22f00d0b-d854-4934-8f6e-63f0daba7f71"
  },
  {
    "id": "6b0febef-1766-4614-8c77-fc77657691d0",
    "name": "Ohrazenice",
    "state_id": "22f00d0b-d854-4934-8f6e-63f0daba7f71"
  },
  {
    "id": "07f17dcf-b884-4f78-b0fe-f31241ac48f5",
    "name": "Okres Česká Lípa",
    "state_id": "22f00d0b-d854-4934-8f6e-63f0daba7f71"
  },
  {
    "id": "0820e9a5-5834-46d8-a6d6-717bfff41ec1",
    "name": "Okres Jablonec nad Nisou",
    "state_id": "22f00d0b-d854-4934-8f6e-63f0daba7f71"
  },
  {
    "id": "c2d87995-d8a6-43dd-a334-a9befc90134f",
    "name": "Okres Liberec",
    "state_id": "22f00d0b-d854-4934-8f6e-63f0daba7f71"
  },
  {
    "id": "537a3608-1699-44c4-b113-16e8e93b391a",
    "name": "Okres Semily",
    "state_id": "22f00d0b-d854-4934-8f6e-63f0daba7f71"
  },
  {
    "id": "49805b87-bdbf-4a5b-95b5-59cb7c00e150",
    "name": "Osečná",
    "state_id": "22f00d0b-d854-4934-8f6e-63f0daba7f71"
  },
  {
    "id": "738a3568-aa86-4bc7-be24-c60e90a4760f",
    "name": "Pěnčín",
    "state_id": "22f00d0b-d854-4934-8f6e-63f0daba7f71"
  },
  {
    "id": "041cf3f0-f28b-48ca-9eef-5aa217b56884",
    "name": "Plavy",
    "state_id": "22f00d0b-d854-4934-8f6e-63f0daba7f71"
  },
  {
    "id": "e332bfab-5d32-4d0f-86ba-c270f4937ff7",
    "name": "Poniklá",
    "state_id": "22f00d0b-d854-4934-8f6e-63f0daba7f71"
  },
  {
    "id": "eb118bb2-b5a9-4576-9ef8-672873e06116",
    "name": "Příšovice",
    "state_id": "22f00d0b-d854-4934-8f6e-63f0daba7f71"
  },
  {
    "id": "0e5526a4-84c5-4e33-8903-a0a798c6d2e2",
    "name": "Raspenava",
    "state_id": "22f00d0b-d854-4934-8f6e-63f0daba7f71"
  },
  {
    "id": "32844e6f-0342-4ed6-85fc-b53846d3e182",
    "name": "Rokytnice nad Jizerou",
    "state_id": "22f00d0b-d854-4934-8f6e-63f0daba7f71"
  },
  {
    "id": "2d605319-beb6-4b99-b05b-ff8fdf99498a",
    "name": "Rovensko pod Troskami",
    "state_id": "22f00d0b-d854-4934-8f6e-63f0daba7f71"
  },
  {
    "id": "7ed33281-d15f-42eb-bb61-5ed603af581b",
    "name": "Semily",
    "state_id": "22f00d0b-d854-4934-8f6e-63f0daba7f71"
  },
  {
    "id": "d1cb9430-7700-4bf8-ac87-d9a011927d87",
    "name": "Smržovka",
    "state_id": "22f00d0b-d854-4934-8f6e-63f0daba7f71"
  },
  {
    "id": "a6bdf1e2-a3e1-47b0-b3d8-3d8717d480bf",
    "name": "Stráž nad Nisou",
    "state_id": "22f00d0b-d854-4934-8f6e-63f0daba7f71"
  },
  {
    "id": "b0f409a6-de96-418d-9c63-7f23bea39a14",
    "name": "Stráž pod Ralskem",
    "state_id": "22f00d0b-d854-4934-8f6e-63f0daba7f71"
  },
  {
    "id": "88641a76-2d17-49c6-894d-b6fe4f767e44",
    "name": "Studenec",
    "state_id": "22f00d0b-d854-4934-8f6e-63f0daba7f71"
  },
  {
    "id": "c18fc2b8-eb72-49e4-9c7c-2636f2dfa882",
    "name": "Tanvald",
    "state_id": "22f00d0b-d854-4934-8f6e-63f0daba7f71"
  },
  {
    "id": "5fb959f5-d3ec-4047-9e23-6b9633cddb56",
    "name": "Turnov",
    "state_id": "22f00d0b-d854-4934-8f6e-63f0daba7f71"
  },
  {
    "id": "7068bd5a-4db4-4889-9a53-6bcd916fa3d4",
    "name": "Valdice",
    "state_id": "22f00d0b-d854-4934-8f6e-63f0daba7f71"
  },
  {
    "id": "a4b442d1-7f5f-4ee4-b8b8-21e1449d9e86",
    "name": "Velké Hamry",
    "state_id": "22f00d0b-d854-4934-8f6e-63f0daba7f71"
  },
  {
    "id": "d5e36e62-daab-4a2a-af9b-20b2513eaf86",
    "name": "Višňova",
    "state_id": "22f00d0b-d854-4934-8f6e-63f0daba7f71"
  },
  {
    "id": "e45643c9-e948-461b-8e67-6ebdb5ddb20a",
    "name": "Vysoké nad Jizerou",
    "state_id": "22f00d0b-d854-4934-8f6e-63f0daba7f71"
  },
  {
    "id": "05361fb9-3599-437a-a3e3-c9cc32f6bd0e",
    "name": "Zákupy",
    "state_id": "22f00d0b-d854-4934-8f6e-63f0daba7f71"
  },
  {
    "id": "9930b93a-dc6e-42fe-adf6-57bd03c7c6cc",
    "name": "Žandov",
    "state_id": "22f00d0b-d854-4934-8f6e-63f0daba7f71"
  },
  {
    "id": "e4515418-f3ab-4eb9-85b8-9c1cdc95f311",
    "name": "Železný Brod",
    "state_id": "22f00d0b-d854-4934-8f6e-63f0daba7f71"
  }
]