[
  {
    "id": "1d6d41b2-2d5c-49d4-a82f-5017e41e6902",
    "name": "Abadan",
    "state_id": "23c1c81a-3404-4094-bcf6-4414d0c58d62"
  },
  {
    "id": "68291412-ee92-4001-879e-e2c7a37b2638",
    "name": "Aghajari",
    "state_id": "23c1c81a-3404-4094-bcf6-4414d0c58d62"
  },
  {
    "id": "218b3c77-7b40-4461-aaaf-013e1d5a2823",
    "name": "Ahvaz",
    "state_id": "23c1c81a-3404-4094-bcf6-4414d0c58d62"
  },
  {
    "id": "cc3c08d0-1872-4846-bca8-d1a41beee518",
    "name": "Bāgh Shahrestān-e Malek",
    "state_id": "23c1c81a-3404-4094-bcf6-4414d0c58d62"
  },
  {
    "id": "74fc30c9-d4a3-47bf-a017-0653727ad6dd",
    "name": "Behbahān",
    "state_id": "23c1c81a-3404-4094-bcf6-4414d0c58d62"
  },
  {
    "id": "ca829d14-f4d0-445d-a360-e45b137976be",
    "name": "Gotvand",
    "state_id": "23c1c81a-3404-4094-bcf6-4414d0c58d62"
  },
  {
    "id": "e5060a36-e092-4568-a4c5-1d5bb2a3464a",
    "name": "Hamidiyeh",
    "state_id": "23c1c81a-3404-4094-bcf6-4414d0c58d62"
  },
  {
    "id": "c341dd4f-5f17-4266-9bfa-2a76d7a1839d",
    "name": "Jongīyeh",
    "state_id": "23c1c81a-3404-4094-bcf6-4414d0c58d62"
  },
  {
    "id": "07f0d7d9-3339-430e-b304-38b32f20561d",
    "name": "Karun",
    "state_id": "23c1c81a-3404-4094-bcf6-4414d0c58d62"
  },
  {
    "id": "05e3c1de-4a2b-4960-b8bc-488d0783d484",
    "name": "Khorramshahr",
    "state_id": "23c1c81a-3404-4094-bcf6-4414d0c58d62"
  },
  {
    "id": "e0077cf1-ecab-4407-bbf6-c6e2fa45ceb7",
    "name": "Masjed Soleymān",
    "state_id": "23c1c81a-3404-4094-bcf6-4414d0c58d62"
  },
  {
    "id": "8191bf36-0402-4a49-82e4-a0e52a5c8a5c",
    "name": "Omīdīyeh",
    "state_id": "23c1c81a-3404-4094-bcf6-4414d0c58d62"
  },
  {
    "id": "8a01d135-a55a-48d9-902d-f4d800dee272",
    "name": "Rāmhormoz",
    "state_id": "23c1c81a-3404-4094-bcf6-4414d0c58d62"
  },
  {
    "id": "170b91f9-3f79-41b4-a66e-33312b7d1429",
    "name": "Rāmshīr",
    "state_id": "23c1c81a-3404-4094-bcf6-4414d0c58d62"
  },
  {
    "id": "a040d810-1223-4140-98ca-9ba9b32253ef",
    "name": "sedeyen-e Yek",
    "state_id": "23c1c81a-3404-4094-bcf6-4414d0c58d62"
  },
  {
    "id": "e62bb867-55b3-4c94-969c-3db22b0f282a",
    "name": "Shādegān",
    "state_id": "23c1c81a-3404-4094-bcf6-4414d0c58d62"
  },
  {
    "id": "b177156f-2f15-4ea5-8769-719f1a5f7919",
    "name": "Shahrak-e Kūlūrī",
    "state_id": "23c1c81a-3404-4094-bcf6-4414d0c58d62"
  },
  {
    "id": "cb4b32c5-c381-4371-a2c0-c770b2492a7f",
    "name": "Shahrestān-e Ābādān",
    "state_id": "23c1c81a-3404-4094-bcf6-4414d0c58d62"
  },
  {
    "id": "391ae5f4-8207-4fe8-8ba1-199d5ec2991c",
    "name": "Shahrestān-e Ahvāz",
    "state_id": "23c1c81a-3404-4094-bcf6-4414d0c58d62"
  },
  {
    "id": "564d45c8-109c-4962-8d5d-9001b44a8853",
    "name": "Shahrestān-e Andīkā",
    "state_id": "23c1c81a-3404-4094-bcf6-4414d0c58d62"
  },
  {
    "id": "93987a10-0a04-422d-96d2-316c11aa3696",
    "name": "Shahrestān-e Andīmeshk",
    "state_id": "23c1c81a-3404-4094-bcf6-4414d0c58d62"
  },
  {
    "id": "b9b0ddec-8072-44f2-a949-e20477ca026f",
    "name": "Shahrestān-e Bandar-e Māhshahr",
    "state_id": "23c1c81a-3404-4094-bcf6-4414d0c58d62"
  },
  {
    "id": "c8173fd8-007d-42f3-85b5-061c1ad53761",
    "name": "Shahrestān-e Bāvī",
    "state_id": "23c1c81a-3404-4094-bcf6-4414d0c58d62"
  },
  {
    "id": "f255989d-ee3d-4c17-b81f-3180e881d81e",
    "name": "Shahrestān-e Behbahān",
    "state_id": "23c1c81a-3404-4094-bcf6-4414d0c58d62"
  },
  {
    "id": "bad31714-680c-49df-9501-2e7294a02927",
    "name": "Shahrestān-e Dasht-e Āzādegān",
    "state_id": "23c1c81a-3404-4094-bcf6-4414d0c58d62"
  },
  {
    "id": "b34eea9b-1abc-488a-bced-d292bf2ca2a2",
    "name": "Shahrestān-e Dezfūl",
    "state_id": "23c1c81a-3404-4094-bcf6-4414d0c58d62"
  },
  {
    "id": "d913a35c-4fdb-4024-a233-5bc8f2f1dd68",
    "name": "Shahrestān-e Hendījān",
    "state_id": "23c1c81a-3404-4094-bcf6-4414d0c58d62"
  },
  {
    "id": "4ee9fa5b-90c8-4907-bd4a-7408977926ed",
    "name": "Shahrestān-e Īz̄eh",
    "state_id": "23c1c81a-3404-4094-bcf6-4414d0c58d62"
  },
  {
    "id": "69bfa34c-2bda-4e5e-9f89-525220feb0a3",
    "name": "Shahrestān-e Lālī",
    "state_id": "23c1c81a-3404-4094-bcf6-4414d0c58d62"
  },
  {
    "id": "51f079b5-040b-40a5-927f-6026b94a9105",
    "name": "Shahrestān-e Masjed Soleymān",
    "state_id": "23c1c81a-3404-4094-bcf6-4414d0c58d62"
  },
  {
    "id": "d42b0597-091c-490e-9c3b-841d0b2e6ef8",
    "name": "Shahrestān-e Omīdīyeh",
    "state_id": "23c1c81a-3404-4094-bcf6-4414d0c58d62"
  },
  {
    "id": "44c1bfbf-a97d-43ea-9c4f-192ef221dc75",
    "name": "Shahrestān-e Rāmhormoz",
    "state_id": "23c1c81a-3404-4094-bcf6-4414d0c58d62"
  },
  {
    "id": "8b0e8de0-81da-46a3-9b24-7da33651ccfc",
    "name": "Shahrestān-e Rāmshīr",
    "state_id": "23c1c81a-3404-4094-bcf6-4414d0c58d62"
  },
  {
    "id": "279aba92-c973-4ed2-ad44-53e196d3f6ea",
    "name": "Shahrestān-e Shādegān",
    "state_id": "23c1c81a-3404-4094-bcf6-4414d0c58d62"
  },
  {
    "id": "2052ff09-512e-4a09-99bd-a49652174ed9",
    "name": "Shahrestān-e Shūsh",
    "state_id": "23c1c81a-3404-4094-bcf6-4414d0c58d62"
  },
  {
    "id": "551ca7c5-9080-45e4-9fa8-72ea98210f22",
    "name": "Shahrestān-e Shūshtar",
    "state_id": "23c1c81a-3404-4094-bcf6-4414d0c58d62"
  },
  {
    "id": "fd6164ed-8238-44c3-8a6d-1d4f9a825ed5",
    "name": "Shūsh",
    "state_id": "23c1c81a-3404-4094-bcf6-4414d0c58d62"
  },
  {
    "id": "e5dfccf5-e423-450f-a3fb-dcac1620f1c8",
    "name": "Shūshtar",
    "state_id": "23c1c81a-3404-4094-bcf6-4414d0c58d62"
  },
  {
    "id": "f052121b-1fb9-48e6-bf49-f17ba430c241",
    "name": "Sūsangerd",
    "state_id": "23c1c81a-3404-4094-bcf6-4414d0c58d62"
  }
]