[
  {
    "id": "61af8209-bc50-42a9-8b27-e553c8ca0e88",
    "name": "Ciudad Antigua",
    "state_id": "24b01f9e-99b4-410e-9451-78f8e83aaaa0"
  },
  {
    "id": "021bbadd-6def-492f-baa7-696a15db0d5c",
    "name": "Dipilto",
    "state_id": "24b01f9e-99b4-410e-9451-78f8e83aaaa0"
  },
  {
    "id": "3bcfe688-36e1-4ba4-9513-8b8d0024bb98",
    "name": "El Jícaro",
    "state_id": "24b01f9e-99b4-410e-9451-78f8e83aaaa0"
  },
  {
    "id": "b7c64b15-1d79-4402-98e1-2ed1ff6d606f",
    "name": "Jalapa",
    "state_id": "24b01f9e-99b4-410e-9451-78f8e83aaaa0"
  },
  {
    "id": "bae7405f-cbb1-4f56-95fd-370606ca0f9b",
    "name": "Macuelizo",
    "state_id": "24b01f9e-99b4-410e-9451-78f8e83aaaa0"
  },
  {
    "id": "0f993c85-80fc-4463-8497-ed80b2346435",
    "name": "Mozonte",
    "state_id": "24b01f9e-99b4-410e-9451-78f8e83aaaa0"
  },
  {
    "id": "2d4f9333-323a-4f1d-9a0c-e7862b1e2401",
    "name": "Murra",
    "state_id": "24b01f9e-99b4-410e-9451-78f8e83aaaa0"
  },
  {
    "id": "4fed1832-91c2-4ba0-ac5e-b3255ac0fa34",
    "name": "Ocotal",
    "state_id": "24b01f9e-99b4-410e-9451-78f8e83aaaa0"
  },
  {
    "id": "a7cb0ffb-612b-41af-ae2b-c5ce06cb8da7",
    "name": "Quilalí",
    "state_id": "24b01f9e-99b4-410e-9451-78f8e83aaaa0"
  },
  {
    "id": "d1508829-87c7-4476-bc8d-b981de358bb1",
    "name": "San Fernando",
    "state_id": "24b01f9e-99b4-410e-9451-78f8e83aaaa0"
  },
  {
    "id": "a3991b6c-96c4-45fc-ae56-36205732492d",
    "name": "Santa María",
    "state_id": "24b01f9e-99b4-410e-9451-78f8e83aaaa0"
  },
  {
    "id": "b7b27a6a-6f49-4f3c-ac03-7decf1b3febd",
    "name": "Wiwilí",
    "state_id": "24b01f9e-99b4-410e-9451-78f8e83aaaa0"
  }
]