[
  {
    "id": "67c50fb0-892d-42a3-9b8f-936deae45dc1",
    "name": "Koror",
    "state_id": "2581d8a2-cc80-4939-9aa7-164a9a53207e"
  },
  {
    "id": "47a24ebf-e14d-4cf0-8808-c6e5d6e7f2e8",
    "name": "Koror Town",
    "state_id": "2581d8a2-cc80-4939-9aa7-164a9a53207e"
  }
]