[
  {
    "id": "ff9045b2-7703-452f-bf23-65c08cbd9ab6",
    "name": "Amphoe Mueang Nong Bua Lamphu",
    "state_id": "26e4fb46-125d-4996-a223-30d1f43e351a"
  },
  {
    "id": "31f73b56-36d5-4a89-aa7e-0c2d40b5637c",
    "name": "Amphoe Na Klang",
    "state_id": "26e4fb46-125d-4996-a223-30d1f43e351a"
  },
  {
    "id": "37d0e702-7d33-4269-a56c-bb6bf77c642f",
    "name": "Amphoe Na Wang",
    "state_id": "26e4fb46-125d-4996-a223-30d1f43e351a"
  },
  {
    "id": "1950ccce-ad56-468e-97c9-9d5950c5ff8c",
    "name": "Amphoe Non Sang",
    "state_id": "26e4fb46-125d-4996-a223-30d1f43e351a"
  },
  {
    "id": "865775da-45f5-4c4e-a0ca-59d11b3230a5",
    "name": "Amphoe Si Bun Rueang",
    "state_id": "26e4fb46-125d-4996-a223-30d1f43e351a"
  },
  {
    "id": "81bd2c0a-2ca4-45de-ad72-2ff1e679a9e2",
    "name": "Amphoe Suwannakhuha",
    "state_id": "26e4fb46-125d-4996-a223-30d1f43e351a"
  },
  {
    "id": "bd3666bd-456f-4744-ba82-5467ef3dd85f",
    "name": "Na Klang",
    "state_id": "26e4fb46-125d-4996-a223-30d1f43e351a"
  },
  {
    "id": "faa0839e-220c-4586-bcf2-00c43ff5e0e9",
    "name": "Non Sang",
    "state_id": "26e4fb46-125d-4996-a223-30d1f43e351a"
  },
  {
    "id": "aaa47baa-e9dc-4782-b895-9166b149f9a6",
    "name": "Nong Bua Lamphu",
    "state_id": "26e4fb46-125d-4996-a223-30d1f43e351a"
  },
  {
    "id": "8dab22af-1a50-475d-aa37-652a2243ed7a",
    "name": "Si Bun Rueang",
    "state_id": "26e4fb46-125d-4996-a223-30d1f43e351a"
  }
]