[
  {
    "id": "b17071b8-e601-470f-9b15-0572b1a666d6",
    "name": "Banqiao",
    "state_id": "2747fdab-6d31-490d-9121-f56b806a568e"
  },
  {
    "id": "09dc0aeb-d8bd-4f5a-ac5a-8d40dc525581",
    "name": "Jiufen",
    "state_id": "2747fdab-6d31-490d-9121-f56b806a568e"
  },
  {
    "id": "1962e83a-b64f-4809-adf1-9c075a2c2ebb",
    "name": "Taipei",
    "state_id": "2747fdab-6d31-490d-9121-f56b806a568e"
  },
  {
    "id": "099e8863-a175-494d-adb7-80e10d0886c3",
    "name": "Taipei City",
    "state_id": "2747fdab-6d31-490d-9121-f56b806a568e"
  }
]