[
  {
    "id": "7a08823b-ceb8-422a-b684-66238ab56b84",
    "name": "Dolores",
    "state_id": "2894f179-8f93-4287-994a-849423437705"
  },
  {
    "id": "3e73d01b-77c1-4866-b7ac-f2cc0dea14df",
    "name": "Flores",
    "state_id": "2894f179-8f93-4287-994a-849423437705"
  },
  {
    "id": "46c2ce49-ce03-4f3b-beac-304ee581c039",
    "name": "La Libertad",
    "state_id": "2894f179-8f93-4287-994a-849423437705"
  },
  {
    "id": "38873031-629d-41fd-89d8-c45bb84819a3",
    "name": "Melchor de Mencos",
    "state_id": "2894f179-8f93-4287-994a-849423437705"
  },
  {
    "id": "b8019f5a-ab95-4af1-aac1-fc4affb5f3d3",
    "name": "Municipio de Flores",
    "state_id": "2894f179-8f93-4287-994a-849423437705"
  },
  {
    "id": "f526cdb3-cabb-4db9-bf6e-c046e91734bb",
    "name": "Municipio de Poptún",
    "state_id": "2894f179-8f93-4287-994a-849423437705"
  },
  {
    "id": "2d33dcaf-a24f-4ce5-b158-b81a71f78b8d",
    "name": "Municipio de San Andrés",
    "state_id": "2894f179-8f93-4287-994a-849423437705"
  },
  {
    "id": "63953037-7a32-44d2-a3d8-09f47a39c31e",
    "name": "Municipio de San Benito",
    "state_id": "2894f179-8f93-4287-994a-849423437705"
  },
  {
    "id": "a6d4163f-e363-4f7b-8bc4-c92335da9001",
    "name": "Municipio de San Francisco",
    "state_id": "2894f179-8f93-4287-994a-849423437705"
  },
  {
    "id": "43785dd4-a92c-488a-8afc-e6ee4eb483f7",
    "name": "Municipio de Santa Ana",
    "state_id": "2894f179-8f93-4287-994a-849423437705"
  },
  {
    "id": "b7523c23-01ba-4b0e-993c-133678b42141",
    "name": "Municipio de Sayaxché",
    "state_id": "2894f179-8f93-4287-994a-849423437705"
  },
  {
    "id": "aed0183a-d219-4403-9fb4-181ce27a9eeb",
    "name": "Poptún",
    "state_id": "2894f179-8f93-4287-994a-849423437705"
  },
  {
    "id": "e0beb497-6669-45e2-8d6f-969ba781eecc",
    "name": "San Andrés",
    "state_id": "2894f179-8f93-4287-994a-849423437705"
  },
  {
    "id": "99b1492a-9789-4fff-a3a9-aabb8a62ea21",
    "name": "San Benito",
    "state_id": "2894f179-8f93-4287-994a-849423437705"
  },
  {
    "id": "9765b69f-1e2c-4540-a6c0-9a2b9e7e00e6",
    "name": "San Francisco",
    "state_id": "2894f179-8f93-4287-994a-849423437705"
  },
  {
    "id": "ad5b6860-33ee-4dc6-b545-ffa7bd86ac0e",
    "name": "San José",
    "state_id": "2894f179-8f93-4287-994a-849423437705"
  },
  {
    "id": "900f6bbf-68fd-422b-95c7-e5ebc71a4205",
    "name": "San Luis",
    "state_id": "2894f179-8f93-4287-994a-849423437705"
  },
  {
    "id": "f3ca5a07-8608-41ef-a04d-ffcdcbc094a0",
    "name": "Santa Ana",
    "state_id": "2894f179-8f93-4287-994a-849423437705"
  },
  {
    "id": "e54451ed-de51-4b88-87a6-9121d7bb0fec",
    "name": "Sayaxché",
    "state_id": "2894f179-8f93-4287-994a-849423437705"
  }
]