[
  {
    "id": "149115f2-457a-4de2-aec0-2f4ee86003a0",
    "name": "Isperih",
    "state_id": "28b60504-4d93-49c3-ad32-6108b481e09a"
  },
  {
    "id": "628d5e7a-d907-480a-a7fa-7175d5a688fc",
    "name": "Kubrat",
    "state_id": "28b60504-4d93-49c3-ad32-6108b481e09a"
  },
  {
    "id": "10a4ac3a-2305-4167-b972-2de3d2b1dd30",
    "name": "Loznitsa",
    "state_id": "28b60504-4d93-49c3-ad32-6108b481e09a"
  },
  {
    "id": "b2d97a06-846a-47be-8ebe-0048a3708fc3",
    "name": "Medovene",
    "state_id": "28b60504-4d93-49c3-ad32-6108b481e09a"
  },
  {
    "id": "047765fb-5cac-417c-998c-df0184480a53",
    "name": "Obshtina Isperih",
    "state_id": "28b60504-4d93-49c3-ad32-6108b481e09a"
  },
  {
    "id": "093a7fc2-5716-4c99-991b-8bb08b77cfd2",
    "name": "Obshtina Kubrat",
    "state_id": "28b60504-4d93-49c3-ad32-6108b481e09a"
  },
  {
    "id": "75b5bae3-ca0b-42fc-829e-aa0f47c1c0a9",
    "name": "Obshtina Loznitsa",
    "state_id": "28b60504-4d93-49c3-ad32-6108b481e09a"
  },
  {
    "id": "40f9ffbe-ebb2-45a1-8851-22140e2d3fb6",
    "name": "Obshtina Razgrad",
    "state_id": "28b60504-4d93-49c3-ad32-6108b481e09a"
  },
  {
    "id": "8923c818-4c44-40bf-8540-b414342a1934",
    "name": "Obshtina Samuil",
    "state_id": "28b60504-4d93-49c3-ad32-6108b481e09a"
  },
  {
    "id": "293f38e7-c43a-48a5-8e86-f6274fb4f375",
    "name": "Obshtina Tsar Kaloyan",
    "state_id": "28b60504-4d93-49c3-ad32-6108b481e09a"
  },
  {
    "id": "8ec94c2a-0491-4df4-87d8-15d293ad6244",
    "name": "Obshtina Zavet",
    "state_id": "28b60504-4d93-49c3-ad32-6108b481e09a"
  },
  {
    "id": "7334c085-ce74-43be-9fdd-b5a991601b63",
    "name": "Razgrad",
    "state_id": "28b60504-4d93-49c3-ad32-6108b481e09a"
  },
  {
    "id": "c2f0e492-cecd-4834-8069-acdb482440ba",
    "name": "Samuil",
    "state_id": "28b60504-4d93-49c3-ad32-6108b481e09a"
  },
  {
    "id": "d9f71f65-774a-4a2d-92df-2740c5f379a1",
    "name": "Tsar Kaloyan",
    "state_id": "28b60504-4d93-49c3-ad32-6108b481e09a"
  },
  {
    "id": "29b4fa90-5d21-463a-acd6-9030e7100651",
    "name": "Zavet",
    "state_id": "28b60504-4d93-49c3-ad32-6108b481e09a"
  }
]