[
  {
    "id": "f1350c9c-010c-4448-9dfb-909101dfc9b8",
    "name": "Adliswil",
    "state_id": "28db2ccd-050e-4678-a4a3-8ee6aadb4135"
  },
  {
    "id": "43be9b75-1164-46fd-be97-4f7ce8cb013e",
    "name": "Adliswil / Adliswil (Stadtkern)",
    "state_id": "28db2ccd-050e-4678-a4a3-8ee6aadb4135"
  },
  {
    "id": "edad1887-a569-43c2-a8e2-4ff8b7feb75b",
    "name": "Adliswil / Hündli-Zopf",
    "state_id": "28db2ccd-050e-4678-a4a3-8ee6aadb4135"
  },
  {
    "id": "183344b7-94c5-4541-864c-08b0d19a180d",
    "name": "Adliswil / Oberleimbach",
    "state_id": "28db2ccd-050e-4678-a4a3-8ee6aadb4135"
  },
  {
    "id": "be52d460-f23d-4f84-9ee3-ba95e88a8c77",
    "name": "Adliswil / Sonnenberg",
    "state_id": "28db2ccd-050e-4678-a4a3-8ee6aadb4135"
  },
  {
    "id": "0d9615c2-2747-4118-9c08-0ffc9fb8669d",
    "name": "Adliswil / Sood",
    "state_id": "28db2ccd-050e-4678-a4a3-8ee6aadb4135"
  },
  {
    "id": "6563a792-6d9a-4511-889d-f914be17879e",
    "name": "Adliswil / Tal",
    "state_id": "28db2ccd-050e-4678-a4a3-8ee6aadb4135"
  },
  {
    "id": "4733b3c7-4988-4f67-97c1-78a3dfcb63b0",
    "name": "Aesch",
    "state_id": "28db2ccd-050e-4678-a4a3-8ee6aadb4135"
  },
  {
    "id": "23fc0bc6-d658-4482-816c-fdc75204fd66",
    "name": "Affoltern / Hasenbüel",
    "state_id": "28db2ccd-050e-4678-a4a3-8ee6aadb4135"
  },
  {
    "id": "bfba6248-5ff6-4f0b-a0a8-4082b2f46059",
    "name": "Affoltern / Oberdorf",
    "state_id": "28db2ccd-050e-4678-a4a3-8ee6aadb4135"
  },
  {
    "id": "c421d62c-b1dc-4875-976a-836d9c43b985",
    "name": "Affoltern / Sonnenberg",
    "state_id": "28db2ccd-050e-4678-a4a3-8ee6aadb4135"
  },
  {
    "id": "ea0af5d0-5a9e-4f28-94a9-6b38095e10a9",
    "name": "Affoltern / Unterdorf",
    "state_id": "28db2ccd-050e-4678-a4a3-8ee6aadb4135"
  },
  {
    "id": "beb4bbd8-40a1-4688-a370-8cd2a6f54718",
    "name": "Affoltern am Albis",
    "state_id": "28db2ccd-050e-4678-a4a3-8ee6aadb4135"
  },
  {
    "id": "aa8721c4-5d3a-4898-a9eb-7f743e793e5d",
    "name": "Andelfingen",
    "state_id": "28db2ccd-050e-4678-a4a3-8ee6aadb4135"
  },
  {
    "id": "8dd79e62-cfd3-43e4-b056-f133e874ad15",
    "name": "Au",
    "state_id": "28db2ccd-050e-4678-a4a3-8ee6aadb4135"
  },
  {
    "id": "f3b97df3-be1a-45b2-972c-c178c4517ecf",
    "name": "Au / Mittel-Dorf",
    "state_id": "28db2ccd-050e-4678-a4a3-8ee6aadb4135"
  },
  {
    "id": "c3670359-3c98-4185-adfc-9f34d0447a79",
    "name": "Au / Unter-Dorf",
    "state_id": "28db2ccd-050e-4678-a4a3-8ee6aadb4135"
  },
  {
    "id": "629921e7-95e7-48fc-a213-a044acae2ffd",
    "name": "Bachenbülach",
    "state_id": "28db2ccd-050e-4678-a4a3-8ee6aadb4135"
  },
  {
    "id": "6b1f8f7f-4a19-4355-99cc-0d752aa54a8d",
    "name": "Bäretswil",
    "state_id": "28db2ccd-050e-4678-a4a3-8ee6aadb4135"
  },
  {
    "id": "cb73a062-c3d9-4935-bb86-d01fb26b0308",
    "name": "Bassersdorf",
    "state_id": "28db2ccd-050e-4678-a4a3-8ee6aadb4135"
  },
  {
    "id": "52268a1a-2e28-4136-a259-e08b7c781d5d",
    "name": "Bauma",
    "state_id": "28db2ccd-050e-4678-a4a3-8ee6aadb4135"
  },
  {
    "id": "2570a53e-0b75-40e4-9455-b589a8f686d8",
    "name": "Benglen",
    "state_id": "28db2ccd-050e-4678-a4a3-8ee6aadb4135"
  },
  {
    "id": "641eebc5-13df-4fc5-93ac-fdc80798f534",
    "name": "Bezirk Affoltern",
    "state_id": "28db2ccd-050e-4678-a4a3-8ee6aadb4135"
  },
  {
    "id": "b2a5ae49-eca3-485a-b2a7-52ba7d1658c4",
    "name": "Bezirk Andelfingen",
    "state_id": "28db2ccd-050e-4678-a4a3-8ee6aadb4135"
  },
  {
    "id": "25f44dc7-5224-4451-8bd6-d04c861addfb",
    "name": "Bezirk Bülach",
    "state_id": "28db2ccd-050e-4678-a4a3-8ee6aadb4135"
  },
  {
    "id": "3b67807d-f71d-432c-b69c-399d114e9367",
    "name": "Bezirk Dielsdorf",
    "state_id": "28db2ccd-050e-4678-a4a3-8ee6aadb4135"
  },
  {
    "id": "0ca4df33-7f8c-499c-b72d-0ead0d25ce1a",
    "name": "Bezirk Dietikon",
    "state_id": "28db2ccd-050e-4678-a4a3-8ee6aadb4135"
  },
  {
    "id": "08edf1f1-1210-4dbf-a1f4-70459a79afa3",
    "name": "Bezirk Hinwil",
    "state_id": "28db2ccd-050e-4678-a4a3-8ee6aadb4135"
  },
  {
    "id": "faaa9e68-21d3-43f9-8025-20d73d369277",
    "name": "Bezirk Horgen",
    "state_id": "28db2ccd-050e-4678-a4a3-8ee6aadb4135"
  },
  {
    "id": "0801729d-2ac7-4bbb-83bc-dcce30e03168",
    "name": "Bezirk Meilen",
    "state_id": "28db2ccd-050e-4678-a4a3-8ee6aadb4135"
  },
  {
    "id": "d45b62cc-83e7-4443-b859-9a5c7089b647",
    "name": "Bezirk Pfäffikon",
    "state_id": "28db2ccd-050e-4678-a4a3-8ee6aadb4135"
  },
  {
    "id": "001fe8ea-9698-4601-ac29-78fd57e36c91",
    "name": "Bezirk Uster",
    "state_id": "28db2ccd-050e-4678-a4a3-8ee6aadb4135"
  },
  {
    "id": "3f6e071b-881e-4fbe-9a71-653486557f1f",
    "name": "Bezirk Winterthur",
    "state_id": "28db2ccd-050e-4678-a4a3-8ee6aadb4135"
  },
  {
    "id": "644de07a-587a-4096-9a73-ed44df35380c",
    "name": "Bezirk Zürich",
    "state_id": "28db2ccd-050e-4678-a4a3-8ee6aadb4135"
  },
  {
    "id": "fe24b1ab-817d-4575-804a-f727df129dca",
    "name": "Binz",
    "state_id": "28db2ccd-050e-4678-a4a3-8ee6aadb4135"
  },
  {
    "id": "86a3ec39-1b47-4f75-a06f-8d2710175d8c",
    "name": "Binzikon",
    "state_id": "28db2ccd-050e-4678-a4a3-8ee6aadb4135"
  },
  {
    "id": "d1cb5e35-955c-4a52-9e49-fa326edfb49a",
    "name": "Birchwil",
    "state_id": "28db2ccd-050e-4678-a4a3-8ee6aadb4135"
  },
  {
    "id": "1b4b0539-382e-4e59-9760-ef52b0087082",
    "name": "Birmensdorf",
    "state_id": "28db2ccd-050e-4678-a4a3-8ee6aadb4135"
  },
  {
    "id": "a18fc731-a647-4d20-b7e7-ef267b18c69b",
    "name": "Bonstetten",
    "state_id": "28db2ccd-050e-4678-a4a3-8ee6aadb4135"
  },
  {
    "id": "8dbd0214-78b4-4287-8572-9927c053165b",
    "name": "Brütten",
    "state_id": "28db2ccd-050e-4678-a4a3-8ee6aadb4135"
  },
  {
    "id": "2540f009-1ed8-4d1c-aa2d-097b1ba4abdd",
    "name": "Brüttisellen",
    "state_id": "28db2ccd-050e-4678-a4a3-8ee6aadb4135"
  },
  {
    "id": "937a3bf7-36da-4827-84f0-380b7430fdf5",
    "name": "Bubikon",
    "state_id": "28db2ccd-050e-4678-a4a3-8ee6aadb4135"
  },
  {
    "id": "3ac4ca5c-fd14-40b4-a0ee-6f2d927e244b",
    "name": "Bülach",
    "state_id": "28db2ccd-050e-4678-a4a3-8ee6aadb4135"
  },
  {
    "id": "692ce42d-a5b9-4949-9f0e-534379491fe5",
    "name": "Bülach / Gstückt",
    "state_id": "28db2ccd-050e-4678-a4a3-8ee6aadb4135"
  },
  {
    "id": "47e8bc09-a968-4c93-b162-8f5b57bd614f",
    "name": "Bülach / Seematt",
    "state_id": "28db2ccd-050e-4678-a4a3-8ee6aadb4135"
  },
  {
    "id": "71d3320e-ee9b-4178-9301-eeb377ed7615",
    "name": "Bülach / Soligänter",
    "state_id": "28db2ccd-050e-4678-a4a3-8ee6aadb4135"
  },
  {
    "id": "42b97456-f5df-4520-9a79-66ee1531edac",
    "name": "Dachsen",
    "state_id": "28db2ccd-050e-4678-a4a3-8ee6aadb4135"
  },
  {
    "id": "61712f7f-f3a2-429b-a22d-1d4e5fe2d40d",
    "name": "Dällikon / Dällikon (Dorf)",
    "state_id": "28db2ccd-050e-4678-a4a3-8ee6aadb4135"
  },
  {
    "id": "6a0f4aea-5f75-4501-b6f7-459f2b9eb817",
    "name": "Dänikon",
    "state_id": "28db2ccd-050e-4678-a4a3-8ee6aadb4135"
  },
  {
    "id": "4cd68bb3-8596-4020-a871-97998e47f0b8",
    "name": "Dielsdorf",
    "state_id": "28db2ccd-050e-4678-a4a3-8ee6aadb4135"
  },
  {
    "id": "00b7aa30-cc8b-44ee-b9c8-c5b3d9deb669",
    "name": "Dietikon",
    "state_id": "28db2ccd-050e-4678-a4a3-8ee6aadb4135"
  },
  {
    "id": "a4f6ecd7-ad62-480c-988b-6a5cfe7ca937",
    "name": "Dietikon / Almend",
    "state_id": "28db2ccd-050e-4678-a4a3-8ee6aadb4135"
  },
  {
    "id": "7778f13e-63da-4aa2-8621-ed162158179c",
    "name": "Dietikon / Guggenbühl",
    "state_id": "28db2ccd-050e-4678-a4a3-8ee6aadb4135"
  },
  {
    "id": "63249849-e836-4286-a146-e349322e6f40",
    "name": "Dietikon / Hofacker",
    "state_id": "28db2ccd-050e-4678-a4a3-8ee6aadb4135"
  },
  {
    "id": "f665cb91-9894-4497-9c38-a5d8e6fa027b",
    "name": "Dietikon / Kreuzacker",
    "state_id": "28db2ccd-050e-4678-a4a3-8ee6aadb4135"
  },
  {
    "id": "51280409-d4bc-46e8-bd42-e9ff91d28dd2",
    "name": "Dietikon / Oberdorf",
    "state_id": "28db2ccd-050e-4678-a4a3-8ee6aadb4135"
  },
  {
    "id": "21a94e34-c462-4e41-8bb3-d3541ab66ed5",
    "name": "Dietikon / Schönenwerd",
    "state_id": "28db2ccd-050e-4678-a4a3-8ee6aadb4135"
  },
  {
    "id": "85f43753-6df0-4c20-985e-ca9d0a08d360",
    "name": "Dietikon / Vorstadt",
    "state_id": "28db2ccd-050e-4678-a4a3-8ee6aadb4135"
  },
  {
    "id": "4bc45961-de2b-4506-a0f4-036e479e4907",
    "name": "Dietlikon / Dietlikon (Dorf)",
    "state_id": "28db2ccd-050e-4678-a4a3-8ee6aadb4135"
  },
  {
    "id": "b3888745-fa51-416f-9a5e-fcab82546e83",
    "name": "Dietlikon / Eichwiesen",
    "state_id": "28db2ccd-050e-4678-a4a3-8ee6aadb4135"
  },
  {
    "id": "cb9706a6-b6fb-4d12-a6aa-c41171a28759",
    "name": "Dorf",
    "state_id": "28db2ccd-050e-4678-a4a3-8ee6aadb4135"
  },
  {
    "id": "538e865f-6f81-47f0-b4fd-7d0de6fd1082",
    "name": "Dübendorf",
    "state_id": "28db2ccd-050e-4678-a4a3-8ee6aadb4135"
  },
  {
    "id": "e851198c-cf9b-4f47-9f8d-e00281ef7b73",
    "name": "Dübendorf / Kunklerstrasse",
    "state_id": "28db2ccd-050e-4678-a4a3-8ee6aadb4135"
  },
  {
    "id": "06c3c37f-d3ef-4f6a-9bc3-b32d98c1e48d",
    "name": "Dübendorf / Sonnenberg",
    "state_id": "28db2ccd-050e-4678-a4a3-8ee6aadb4135"
  },
  {
    "id": "98a7409e-add0-48e0-8e19-ed9f66132ec8",
    "name": "Dübendorf / Vogelquartier",
    "state_id": "28db2ccd-050e-4678-a4a3-8ee6aadb4135"
  },
  {
    "id": "d771e6fe-40e0-4561-bbc9-dca7958c7c26",
    "name": "Dübendorf / Wasserfurren",
    "state_id": "28db2ccd-050e-4678-a4a3-8ee6aadb4135"
  },
  {
    "id": "be83852f-8e8d-4b3b-928a-a707d355eef5",
    "name": "Dürnten",
    "state_id": "28db2ccd-050e-4678-a4a3-8ee6aadb4135"
  },
  {
    "id": "45feb4a3-fe15-4f4d-a8f1-69c787658954",
    "name": "Ebmatingen",
    "state_id": "28db2ccd-050e-4678-a4a3-8ee6aadb4135"
  },
  {
    "id": "6441fbbd-6b36-4cf1-83a5-b238d1f247d3",
    "name": "Effretikon",
    "state_id": "28db2ccd-050e-4678-a4a3-8ee6aadb4135"
  },
  {
    "id": "761f2898-84ef-46cc-a66a-40d8c0d97613",
    "name": "Effretikon / Rappenhalde-Bannhalde",
    "state_id": "28db2ccd-050e-4678-a4a3-8ee6aadb4135"
  },
  {
    "id": "c976a14f-b581-40ee-86d7-5ac0580ceb79",
    "name": "Effretikon / Rikon",
    "state_id": "28db2ccd-050e-4678-a4a3-8ee6aadb4135"
  },
  {
    "id": "74faf78c-2164-479a-8cea-a7ab7c0cc305",
    "name": "Effretikon / Watt",
    "state_id": "28db2ccd-050e-4678-a4a3-8ee6aadb4135"
  },
  {
    "id": "d4482f58-8129-40ea-85f0-985ca3aa0a07",
    "name": "Egg",
    "state_id": "28db2ccd-050e-4678-a4a3-8ee6aadb4135"
  },
  {
    "id": "7c22a7eb-1995-4ce5-bc3e-b5762bec2178",
    "name": "Elgg",
    "state_id": "28db2ccd-050e-4678-a4a3-8ee6aadb4135"
  },
  {
    "id": "8c4f8856-b5a6-4281-97d7-f0d02a94ca06",
    "name": "Elgg / Städtchen und Umgebung",
    "state_id": "28db2ccd-050e-4678-a4a3-8ee6aadb4135"
  },
  {
    "id": "01ef569f-185d-4e25-b75b-2dca8729fb28",
    "name": "Elsau-Räterschen",
    "state_id": "28db2ccd-050e-4678-a4a3-8ee6aadb4135"
  },
  {
    "id": "7d24cc17-82cf-41b8-9fc7-deb85310219d",
    "name": "Elsau-Räterschen / Räterschen",
    "state_id": "28db2ccd-050e-4678-a4a3-8ee6aadb4135"
  },
  {
    "id": "57a54fe9-1d3c-4230-8382-bd60d1526cd8",
    "name": "Embrach",
    "state_id": "28db2ccd-050e-4678-a4a3-8ee6aadb4135"
  },
  {
    "id": "150bf307-c416-46ba-94b4-f21879c71a20",
    "name": "Embrach / Embrach (Dorfkern)",
    "state_id": "28db2ccd-050e-4678-a4a3-8ee6aadb4135"
  },
  {
    "id": "6d5aace6-eb5a-450e-ad08-188d8468c333",
    "name": "Embrach / Kellersacker",
    "state_id": "28db2ccd-050e-4678-a4a3-8ee6aadb4135"
  },
  {
    "id": "75ea635b-2f6e-441e-ba66-3005b10bb734",
    "name": "Erlenbach",
    "state_id": "28db2ccd-050e-4678-a4a3-8ee6aadb4135"
  },
  {
    "id": "863fe50f-5633-493f-b106-58b35f610f48",
    "name": "Erlenbach / links des Dorfbachs oberhalb Bahnlinie",
    "state_id": "28db2ccd-050e-4678-a4a3-8ee6aadb4135"
  },
  {
    "id": "a70c3f76-1b83-4e98-ac94-6ed9f7310f8c",
    "name": "Erlenbach / rechts des Dorfbachs oberhalb Bahnlinie",
    "state_id": "28db2ccd-050e-4678-a4a3-8ee6aadb4135"
  },
  {
    "id": "bc2647ca-eac7-45e6-ae8e-e03f6233eebf",
    "name": "Esslingen",
    "state_id": "28db2ccd-050e-4678-a4a3-8ee6aadb4135"
  },
  {
    "id": "3c8be4f6-3bcb-4b3d-8a01-61b2a235c555",
    "name": "Fällanden",
    "state_id": "28db2ccd-050e-4678-a4a3-8ee6aadb4135"
  },
  {
    "id": "9f9fce76-fc9d-48cd-b48a-477e3739366d",
    "name": "Fehraltorf",
    "state_id": "28db2ccd-050e-4678-a4a3-8ee6aadb4135"
  },
  {
    "id": "a37fb52c-8ce8-40cd-8f0d-1f32c53217c1",
    "name": "Feldmeilen",
    "state_id": "28db2ccd-050e-4678-a4a3-8ee6aadb4135"
  },
  {
    "id": "970c9c94-8c30-4772-87f0-6a76dab609bf",
    "name": "Feuerthalen",
    "state_id": "28db2ccd-050e-4678-a4a3-8ee6aadb4135"
  },
  {
    "id": "f9f191c1-cf20-4c74-83fc-209d97540bf1",
    "name": "Flurlingen",
    "state_id": "28db2ccd-050e-4678-a4a3-8ee6aadb4135"
  },
  {
    "id": "f5dc20bd-ed91-4223-a596-eec21922d489",
    "name": "Freienstein",
    "state_id": "28db2ccd-050e-4678-a4a3-8ee6aadb4135"
  },
  {
    "id": "d7862910-d692-45b0-aed4-40fd941d1872",
    "name": "Gattikon",
    "state_id": "28db2ccd-050e-4678-a4a3-8ee6aadb4135"
  },
  {
    "id": "c4b3d321-8a48-4c5d-a0ac-cf4b314c6270",
    "name": "Geroldswil",
    "state_id": "28db2ccd-050e-4678-a4a3-8ee6aadb4135"
  },
  {
    "id": "1b1ea0c1-30fb-462f-9c2c-eb91019dd2c7",
    "name": "Glattbrugg",
    "state_id": "28db2ccd-050e-4678-a4a3-8ee6aadb4135"
  },
  {
    "id": "31b82e15-ca05-48b1-846e-61e16e8a8bbe",
    "name": "Glattbrugg / Rohr/Platten-Balsberg",
    "state_id": "28db2ccd-050e-4678-a4a3-8ee6aadb4135"
  },
  {
    "id": "0481e3e0-83b1-4f29-a265-98d09c46c813",
    "name": "Glattbrugg / Wydacker/Bettacker/Lättenwiesen",
    "state_id": "28db2ccd-050e-4678-a4a3-8ee6aadb4135"
  },
  {
    "id": "9a728054-6cec-45ff-a54f-71111b2ebf27",
    "name": "Glattfelden",
    "state_id": "28db2ccd-050e-4678-a4a3-8ee6aadb4135"
  },
  {
    "id": "fd512891-6225-4198-9bc5-5a261bc3fece",
    "name": "Gockhausen",
    "state_id": "28db2ccd-050e-4678-a4a3-8ee6aadb4135"
  },
  {
    "id": "260392a3-2a54-4fea-af65-7f20969bed84",
    "name": "Gossau",
    "state_id": "28db2ccd-050e-4678-a4a3-8ee6aadb4135"
  },
  {
    "id": "b6ec0d8b-4ef5-4cb0-bc54-ebecff2a109b",
    "name": "Greifensee",
    "state_id": "28db2ccd-050e-4678-a4a3-8ee6aadb4135"
  },
  {
    "id": "6a12ca39-2bc3-475e-847e-4e1183a47717",
    "name": "Greifensee / Müllerwis / Seilerwis",
    "state_id": "28db2ccd-050e-4678-a4a3-8ee6aadb4135"
  },
  {
    "id": "57f1b9ff-1b74-45aa-b5c9-2647549504bd",
    "name": "Greifensee / Pfisterhölzli",
    "state_id": "28db2ccd-050e-4678-a4a3-8ee6aadb4135"
  },
  {
    "id": "081603f9-0061-4dd2-880f-3e7a6910a4a7",
    "name": "Grossacker/Opfikon",
    "state_id": "28db2ccd-050e-4678-a4a3-8ee6aadb4135"
  },
  {
    "id": "9189e9ff-4d7b-402c-bc91-e2e1f7186974",
    "name": "Grüt",
    "state_id": "28db2ccd-050e-4678-a4a3-8ee6aadb4135"
  },
  {
    "id": "f8ec83af-3217-47ff-a31d-59807da292ff",
    "name": "Gutenswil",
    "state_id": "28db2ccd-050e-4678-a4a3-8ee6aadb4135"
  },
  {
    "id": "a44fc044-faa0-4121-b9bb-338050c2e405",
    "name": "Hadlikon",
    "state_id": "28db2ccd-050e-4678-a4a3-8ee6aadb4135"
  },
  {
    "id": "dbb9440e-fb01-4324-8ee4-7d9d324a1252",
    "name": "Hausen am Albis / Hausen (Dorf)",
    "state_id": "28db2ccd-050e-4678-a4a3-8ee6aadb4135"
  },
  {
    "id": "d91e1564-329a-4700-9e19-ed0b3e5c50de",
    "name": "Hedingen",
    "state_id": "28db2ccd-050e-4678-a4a3-8ee6aadb4135"
  },
  {
    "id": "da058543-9140-4943-9754-79f751b39332",
    "name": "Hegnau",
    "state_id": "28db2ccd-050e-4678-a4a3-8ee6aadb4135"
  },
  {
    "id": "a055c9ff-12d8-407c-a912-8e8177ef5a9b",
    "name": "Hegnau / Dammboden-Grindel",
    "state_id": "28db2ccd-050e-4678-a4a3-8ee6aadb4135"
  },
  {
    "id": "338ab801-46e0-412d-b838-4cc7198d74e3",
    "name": "Hegnau / Sunnebüel-Eich",
    "state_id": "28db2ccd-050e-4678-a4a3-8ee6aadb4135"
  },
  {
    "id": "dd80b648-d591-4b86-8dcb-b7b9a1950445",
    "name": "Henggart",
    "state_id": "28db2ccd-050e-4678-a4a3-8ee6aadb4135"
  },
  {
    "id": "47e7f6ab-4e4d-4156-9146-2db9a2e3c7da",
    "name": "Herrliberg",
    "state_id": "28db2ccd-050e-4678-a4a3-8ee6aadb4135"
  },
  {
    "id": "1ec08c91-eed5-4bc6-b198-3a654d3d9f12",
    "name": "Hettlingen",
    "state_id": "28db2ccd-050e-4678-a4a3-8ee6aadb4135"
  },
  {
    "id": "760ad762-700c-4d2a-85c0-6b67182b4b88",
    "name": "Hinteregg",
    "state_id": "28db2ccd-050e-4678-a4a3-8ee6aadb4135"
  },
  {
    "id": "f67342ef-10d4-40c0-ab18-6ac8fa852aa7",
    "name": "Hinwil",
    "state_id": "28db2ccd-050e-4678-a4a3-8ee6aadb4135"
  },
  {
    "id": "077d2703-3400-4dde-a418-eb02b6c143b9",
    "name": "Hittnau / Hittnau (Dorf)",
    "state_id": "28db2ccd-050e-4678-a4a3-8ee6aadb4135"
  },
  {
    "id": "57d3f76f-5e68-494d-bdc7-9a2abb83d79f",
    "name": "Hochfelden",
    "state_id": "28db2ccd-050e-4678-a4a3-8ee6aadb4135"
  },
  {
    "id": "a26a5885-0b06-47db-8eaa-3db66d68529c",
    "name": "Hofstetten",
    "state_id": "28db2ccd-050e-4678-a4a3-8ee6aadb4135"
  },
  {
    "id": "a3d7263c-f72a-433d-9b5b-054fbb3374a4",
    "name": "Hombrechtikon",
    "state_id": "28db2ccd-050e-4678-a4a3-8ee6aadb4135"
  },
  {
    "id": "b5d96240-c927-4fe4-a5e2-a63ca330a653",
    "name": "Horgen",
    "state_id": "28db2ccd-050e-4678-a4a3-8ee6aadb4135"
  },
  {
    "id": "1eeef14f-e23f-4ab3-9d29-34233a27eb0a",
    "name": "Horgen / Allmend",
    "state_id": "28db2ccd-050e-4678-a4a3-8ee6aadb4135"
  },
  {
    "id": "2c6fb608-c798-4779-bf14-1dce25400630",
    "name": "Horgen / Horgen (Dorfkern)",
    "state_id": "28db2ccd-050e-4678-a4a3-8ee6aadb4135"
  },
  {
    "id": "d8e490fa-583d-46a1-b67f-98a7a7505a3f",
    "name": "Horgen / Oberdorf",
    "state_id": "28db2ccd-050e-4678-a4a3-8ee6aadb4135"
  },
  {
    "id": "6bc73b4d-710c-4168-94f9-14e6dfb1957f",
    "name": "Horgen / Scheller-Stockerstrasse",
    "state_id": "28db2ccd-050e-4678-a4a3-8ee6aadb4135"
  },
  {
    "id": "b902b5f2-4354-4909-b3f4-4702e6806e0a",
    "name": "Höri",
    "state_id": "28db2ccd-050e-4678-a4a3-8ee6aadb4135"
  },
  {
    "id": "b353f712-0bec-4dc5-89bd-8c2911eabc11",
    "name": "Illnau",
    "state_id": "28db2ccd-050e-4678-a4a3-8ee6aadb4135"
  },
  {
    "id": "a42d9f71-391c-4476-a40c-d32b27ca8a51",
    "name": "Illnau / Unter-Illnau",
    "state_id": "28db2ccd-050e-4678-a4a3-8ee6aadb4135"
  },
  {
    "id": "7db2b346-3f26-4424-896d-ab09d82ba670",
    "name": "Kilchberg",
    "state_id": "28db2ccd-050e-4678-a4a3-8ee6aadb4135"
  },
  {
    "id": "a92b8f44-9665-4a14-ad9a-4eafd7c79422",
    "name": "Kilchberg / Bächler-Stocken",
    "state_id": "28db2ccd-050e-4678-a4a3-8ee6aadb4135"
  },
  {
    "id": "05489341-14a4-4ec2-a1ae-d9eb9245a026",
    "name": "Kilchberg / Kilchberg (Dorfkern)",
    "state_id": "28db2ccd-050e-4678-a4a3-8ee6aadb4135"
  },
  {
    "id": "9fa38e3a-9c55-42eb-8750-b849a7cbd322",
    "name": "Kindhausen / Kindhausen (Dorf)",
    "state_id": "28db2ccd-050e-4678-a4a3-8ee6aadb4135"
  },
  {
    "id": "c4072002-ee1e-4b13-ab32-de728c9a8b8c",
    "name": "Kleinandelfingen",
    "state_id": "28db2ccd-050e-4678-a4a3-8ee6aadb4135"
  },
  {
    "id": "3de5d224-2e3c-4c4c-863f-1339cb6f0589",
    "name": "Kloten",
    "state_id": "28db2ccd-050e-4678-a4a3-8ee6aadb4135"
  },
  {
    "id": "ccdbf683-fe47-455b-9b5b-f021d3ea9594",
    "name": "Kloten / Balsberg",
    "state_id": "28db2ccd-050e-4678-a4a3-8ee6aadb4135"
  },
  {
    "id": "72a9a9e2-4d97-4674-bd7b-5bfa1308a2db",
    "name": "Kloten / Freienberg (Chanzler-Chlini Chaseren)",
    "state_id": "28db2ccd-050e-4678-a4a3-8ee6aadb4135"
  },
  {
    "id": "5127feaa-c304-429e-8bd8-ac60786778b4",
    "name": "Kloten / Geissberg",
    "state_id": "28db2ccd-050e-4678-a4a3-8ee6aadb4135"
  },
  {
    "id": "2c34754d-f20b-4508-8fee-170bded27cff",
    "name": "Kloten / Holberg",
    "state_id": "28db2ccd-050e-4678-a4a3-8ee6aadb4135"
  },
  {
    "id": "819db7d7-f439-4240-920b-42916b6d9f4a",
    "name": "Kloten / Horainli",
    "state_id": "28db2ccd-050e-4678-a4a3-8ee6aadb4135"
  },
  {
    "id": "1bd52eb5-147b-4571-821c-19d7d09f17c0",
    "name": "Kloten / Hostrass",
    "state_id": "28db2ccd-050e-4678-a4a3-8ee6aadb4135"
  },
  {
    "id": "55d1aa99-fd27-460b-a371-97e6b4af7383",
    "name": "Kloten / Kloten (Zentrum)",
    "state_id": "28db2ccd-050e-4678-a4a3-8ee6aadb4135"
  },
  {
    "id": "5c1694a7-8a1f-496c-99d8-2a562e37e714",
    "name": "Kloten / Rütlen",
    "state_id": "28db2ccd-050e-4678-a4a3-8ee6aadb4135"
  },
  {
    "id": "505a9122-0edc-4fef-93cf-7359b75db382",
    "name": "Kloten / Spitz",
    "state_id": "28db2ccd-050e-4678-a4a3-8ee6aadb4135"
  },
  {
    "id": "edec754e-390d-42bc-88fb-c311c5e6f2d0",
    "name": "Knonau",
    "state_id": "28db2ccd-050e-4678-a4a3-8ee6aadb4135"
  },
  {
    "id": "6eadbf76-2832-48d4-b7c3-52de4ee157dc",
    "name": "Kollbrunn",
    "state_id": "28db2ccd-050e-4678-a4a3-8ee6aadb4135"
  },
  {
    "id": "dcee95ad-98b7-4c40-8ad9-41ff92079fc1",
    "name": "Kollbrunn / Kollbrunn (Dorfkern)",
    "state_id": "28db2ccd-050e-4678-a4a3-8ee6aadb4135"
  },
  {
    "id": "69110861-1293-4b81-a954-4ef6cc36e3a3",
    "name": "Küsnacht",
    "state_id": "28db2ccd-050e-4678-a4a3-8ee6aadb4135"
  },
  {
    "id": "77941f13-850f-4b09-be4a-ec43ed670199",
    "name": "Küsnacht / Dorf",
    "state_id": "28db2ccd-050e-4678-a4a3-8ee6aadb4135"
  },
  {
    "id": "5df06a37-6d28-4b69-9fbe-3f612cfdf405",
    "name": "Küsnacht / Goldbach",
    "state_id": "28db2ccd-050e-4678-a4a3-8ee6aadb4135"
  },
  {
    "id": "67a7a3f6-db4a-436d-a6a3-5cf5fe755a90",
    "name": "Küsnacht / Heslibach",
    "state_id": "28db2ccd-050e-4678-a4a3-8ee6aadb4135"
  },
  {
    "id": "1e499323-f658-48b0-99fb-4912feb27835",
    "name": "Küsnacht / Itschnach",
    "state_id": "28db2ccd-050e-4678-a4a3-8ee6aadb4135"
  },
  {
    "id": "79874e06-d8a4-4c58-966a-56790db0b524",
    "name": "Küsnacht / Schiedhalden",
    "state_id": "28db2ccd-050e-4678-a4a3-8ee6aadb4135"
  },
  {
    "id": "385bef5a-38e0-422c-b65c-f181b923e456",
    "name": "Langnau / Langnau (Dorf)",
    "state_id": "28db2ccd-050e-4678-a4a3-8ee6aadb4135"
  },
  {
    "id": "3578aac4-72f4-4265-88ea-b9bb1e6c6f09",
    "name": "Langnau / Vitaquartier",
    "state_id": "28db2ccd-050e-4678-a4a3-8ee6aadb4135"
  },
  {
    "id": "59dbe2b3-2ebf-41ba-9277-ee2aa026fcc6",
    "name": "Langnau am Albis",
    "state_id": "28db2ccd-050e-4678-a4a3-8ee6aadb4135"
  },
  {
    "id": "5c068326-84c6-46cf-a284-3238524919ee",
    "name": "Männedorf",
    "state_id": "28db2ccd-050e-4678-a4a3-8ee6aadb4135"
  },
  {
    "id": "b0143a3b-8bba-4b71-98a8-5ad30842949c",
    "name": "Männedorf / Ausserfeld",
    "state_id": "28db2ccd-050e-4678-a4a3-8ee6aadb4135"
  },
  {
    "id": "b0bfa0e6-d3cc-4a25-bbd5-ef679b8ec3fa",
    "name": "Männedorf / Dorfkern",
    "state_id": "28db2ccd-050e-4678-a4a3-8ee6aadb4135"
  },
  {
    "id": "40505f7e-ff5f-4444-b6d8-c7b3c1f657a6",
    "name": "Marthalen",
    "state_id": "28db2ccd-050e-4678-a4a3-8ee6aadb4135"
  },
  {
    "id": "49846365-dd22-44ac-8fa6-f65322b0bf21",
    "name": "Mattenbach (Kreis 7)",
    "state_id": "28db2ccd-050e-4678-a4a3-8ee6aadb4135"
  },
  {
    "id": "261844ee-0a79-49f4-969f-da3b9ece73c3",
    "name": "Mattenbach (Kreis 7) / Deutweg",
    "state_id": "28db2ccd-050e-4678-a4a3-8ee6aadb4135"
  },
  {
    "id": "6a28d6f6-d63c-4565-a1a8-b5d04977e457",
    "name": "Mattenbach (Kreis 7) / Endliker",
    "state_id": "28db2ccd-050e-4678-a4a3-8ee6aadb4135"
  },
  {
    "id": "cc5df2c7-52f6-4845-8cac-4810fa4f9267",
    "name": "Mattenbach (Kreis 7) / Gutschick",
    "state_id": "28db2ccd-050e-4678-a4a3-8ee6aadb4135"
  },
  {
    "id": "a222d18a-f372-4917-a644-a31f0729b660",
    "name": "Meilen",
    "state_id": "28db2ccd-050e-4678-a4a3-8ee6aadb4135"
  },
  {
    "id": "b2be9f53-54fa-401d-836c-813c2f9f3e17",
    "name": "Mettmenstetten",
    "state_id": "28db2ccd-050e-4678-a4a3-8ee6aadb4135"
  },
  {
    "id": "9bf8f939-3c81-41bf-9525-8673681a7731",
    "name": "Mönchaltorf",
    "state_id": "28db2ccd-050e-4678-a4a3-8ee6aadb4135"
  },
  {
    "id": "fdcc4ba5-05c4-45bf-bebd-a5e367177adb",
    "name": "Mönchaltorf / Dorf",
    "state_id": "28db2ccd-050e-4678-a4a3-8ee6aadb4135"
  },
  {
    "id": "e0ed8ce3-4cfa-4779-b231-43c887e73814",
    "name": "Mühlehalde",
    "state_id": "28db2ccd-050e-4678-a4a3-8ee6aadb4135"
  },
  {
    "id": "a592cf6e-6723-4df9-8594-7a1d430f8091",
    "name": "Nänikon",
    "state_id": "28db2ccd-050e-4678-a4a3-8ee6aadb4135"
  },
  {
    "id": "c1cf87ed-1236-45e6-b05e-95d44993997e",
    "name": "Nänikon / Nänikon (Dorfkern)",
    "state_id": "28db2ccd-050e-4678-a4a3-8ee6aadb4135"
  },
  {
    "id": "35050582-60a3-4508-8d69-a162cbd82580",
    "name": "Neerach",
    "state_id": "28db2ccd-050e-4678-a4a3-8ee6aadb4135"
  },
  {
    "id": "98f7e8ce-b93d-4429-a495-c198f2779b89",
    "name": "Neftenbach / Dorf Neftenbach",
    "state_id": "28db2ccd-050e-4678-a4a3-8ee6aadb4135"
  },
  {
    "id": "2dd03679-5843-40f4-9383-f30e018a27d6",
    "name": "Niederglatt",
    "state_id": "28db2ccd-050e-4678-a4a3-8ee6aadb4135"
  },
  {
    "id": "ad6d2a0b-2fa1-4592-939c-6a06dbb1767f",
    "name": "Niederglatt / Niederglatt (Dorfkern)",
    "state_id": "28db2ccd-050e-4678-a4a3-8ee6aadb4135"
  },
  {
    "id": "bc588b3a-38b3-42a1-b33f-965a453da05e",
    "name": "Niederhasli",
    "state_id": "28db2ccd-050e-4678-a4a3-8ee6aadb4135"
  },
  {
    "id": "cf782997-3dec-48d3-b495-ce466178d652",
    "name": "Nürensdorf",
    "state_id": "28db2ccd-050e-4678-a4a3-8ee6aadb4135"
  },
  {
    "id": "4dbfa893-296c-4439-8912-ecc26d12ad18",
    "name": "Oberengstringen",
    "state_id": "28db2ccd-050e-4678-a4a3-8ee6aadb4135"
  },
  {
    "id": "9dd1c7fe-08d8-4c61-858a-526a44839418",
    "name": "Oberengstringen / Rauchacher",
    "state_id": "28db2ccd-050e-4678-a4a3-8ee6aadb4135"
  },
  {
    "id": "cfbe48bd-4b7e-4ff0-bb94-c24af287fa0d",
    "name": "Oberengstringen / Sonnenberg",
    "state_id": "28db2ccd-050e-4678-a4a3-8ee6aadb4135"
  },
  {
    "id": "0926f192-9b6b-43c9-9bc2-dc8e3f96e919",
    "name": "Oberengstringen / Zentrum",
    "state_id": "28db2ccd-050e-4678-a4a3-8ee6aadb4135"
  },
  {
    "id": "c075b5fe-931a-4729-8726-60b4c062b789",
    "name": "Oberglatt",
    "state_id": "28db2ccd-050e-4678-a4a3-8ee6aadb4135"
  },
  {
    "id": "339c4f4e-1a84-4d5c-bff5-db39255f3f8f",
    "name": "Oberglatt / Bahnhofquartier",
    "state_id": "28db2ccd-050e-4678-a4a3-8ee6aadb4135"
  },
  {
    "id": "a6d33570-eafa-402b-ba40-1d594233dcaf",
    "name": "Oberglatt / Oberglatt (Dorfkern)",
    "state_id": "28db2ccd-050e-4678-a4a3-8ee6aadb4135"
  },
  {
    "id": "67d19e97-56c3-4270-ba79-462e43386f24",
    "name": "Obermeilen",
    "state_id": "28db2ccd-050e-4678-a4a3-8ee6aadb4135"
  },
  {
    "id": "4af16675-b066-46c3-bfb5-739e4e8ab7b4",
    "name": "Oberrieden",
    "state_id": "28db2ccd-050e-4678-a4a3-8ee6aadb4135"
  },
  {
    "id": "7c781174-5cee-4fc8-ba7e-d6723255c578",
    "name": "Oberrieden / Berg",
    "state_id": "28db2ccd-050e-4678-a4a3-8ee6aadb4135"
  },
  {
    "id": "0f2957f6-f3dd-4d5f-99f7-2844f8988a69",
    "name": "Oberrieden / Mitte",
    "state_id": "28db2ccd-050e-4678-a4a3-8ee6aadb4135"
  },
  {
    "id": "3747ec14-7d02-4119-82a5-644912e59b40",
    "name": "Oberwinterthur (Kreis 2)",
    "state_id": "28db2ccd-050e-4678-a4a3-8ee6aadb4135"
  },
  {
    "id": "076eb094-9822-4050-b082-75af5e0a46d6",
    "name": "Oberwinterthur (Kreis 2) / Guggenbühl",
    "state_id": "28db2ccd-050e-4678-a4a3-8ee6aadb4135"
  },
  {
    "id": "3f3f059b-31b9-4e0e-b5f6-b6bef8b059c5",
    "name": "Oberwinterthur (Kreis 2) / Hegi",
    "state_id": "28db2ccd-050e-4678-a4a3-8ee6aadb4135"
  },
  {
    "id": "5e9d9da3-a4b2-471d-9537-10b728853417",
    "name": "Oberwinterthur (Kreis 2) / Talacker",
    "state_id": "28db2ccd-050e-4678-a4a3-8ee6aadb4135"
  },
  {
    "id": "642cb608-7b2e-4a25-924f-dfeaf1b2abbd",
    "name": "Oberwinterthur (Kreis 2) / Zinzikon",
    "state_id": "28db2ccd-050e-4678-a4a3-8ee6aadb4135"
  },
  {
    "id": "e8a739c9-0cba-4050-8e35-67b93940873a",
    "name": "Obfelden",
    "state_id": "28db2ccd-050e-4678-a4a3-8ee6aadb4135"
  },
  {
    "id": "2589addb-d1de-40f0-a644-bce1e0b8ef31",
    "name": "Obfelden / Oberlunnern",
    "state_id": "28db2ccd-050e-4678-a4a3-8ee6aadb4135"
  },
  {
    "id": "50511d7c-c32a-45c6-a716-f398e30a5a0a",
    "name": "Obfelden / Toussen",
    "state_id": "28db2ccd-050e-4678-a4a3-8ee6aadb4135"
  },
  {
    "id": "3b501a6f-c842-45a6-a85b-ad673e6f919f",
    "name": "Oetwil",
    "state_id": "28db2ccd-050e-4678-a4a3-8ee6aadb4135"
  },
  {
    "id": "06bbc786-f135-4981-8797-f75a13fb2812",
    "name": "Opfikon",
    "state_id": "28db2ccd-050e-4678-a4a3-8ee6aadb4135"
  },
  {
    "id": "82ca0cf8-ecac-4ba8-9c69-4a74eb8b6157",
    "name": "Otelfingen",
    "state_id": "28db2ccd-050e-4678-a4a3-8ee6aadb4135"
  },
  {
    "id": "a8029bad-4337-4b34-92c3-45287765c362",
    "name": "Ottenbach",
    "state_id": "28db2ccd-050e-4678-a4a3-8ee6aadb4135"
  },
  {
    "id": "0e2263a8-9341-4ad0-aa5a-22c7a7dcef5a",
    "name": "Pfaffhausen",
    "state_id": "28db2ccd-050e-4678-a4a3-8ee6aadb4135"
  },
  {
    "id": "1c2c4b47-307a-46c9-b3a7-6ae3ab689668",
    "name": "Pfäffikon",
    "state_id": "28db2ccd-050e-4678-a4a3-8ee6aadb4135"
  },
  {
    "id": "0dddfeb0-43d6-4739-8643-f9d1ea89a4a6",
    "name": "Pfäffikon / Irgenhausen",
    "state_id": "28db2ccd-050e-4678-a4a3-8ee6aadb4135"
  },
  {
    "id": "7f9fc3c7-3acb-444b-b72c-ccffa0a3092e",
    "name": "Pfäffikon / Pfäffikon (Dorfkern)",
    "state_id": "28db2ccd-050e-4678-a4a3-8ee6aadb4135"
  },
  {
    "id": "ce773e8c-5f55-4c7e-a93f-042b275d217f",
    "name": "Pfungen",
    "state_id": "28db2ccd-050e-4678-a4a3-8ee6aadb4135"
  },
  {
    "id": "00c6fbe3-c88a-4647-affb-acacc1f3a006",
    "name": "Rafz",
    "state_id": "28db2ccd-050e-4678-a4a3-8ee6aadb4135"
  },
  {
    "id": "1ba22114-c6e4-46ff-a7c5-37efd116a57a",
    "name": "Regensdorf",
    "state_id": "28db2ccd-050e-4678-a4a3-8ee6aadb4135"
  },
  {
    "id": "2bd42884-26db-4997-b263-cf3db4b4c47e",
    "name": "Regensdorf / Feldblumen-Riedthofstrasse",
    "state_id": "28db2ccd-050e-4678-a4a3-8ee6aadb4135"
  },
  {
    "id": "3aa5db80-e9be-45fb-8e21-7e49e894afd2",
    "name": "Regensdorf / Hofacher-Geeren",
    "state_id": "28db2ccd-050e-4678-a4a3-8ee6aadb4135"
  },
  {
    "id": "9d6731a6-6ac4-4494-bead-89a2c4cf30df",
    "name": "Regensdorf / Obstgarten",
    "state_id": "28db2ccd-050e-4678-a4a3-8ee6aadb4135"
  },
  {
    "id": "ed50dae1-97af-4ee7-a4ed-1dff3db56410",
    "name": "Richterswil",
    "state_id": "28db2ccd-050e-4678-a4a3-8ee6aadb4135"
  },
  {
    "id": "06596082-e31c-468a-aa97-6f2f44447e90",
    "name": "Richterswil / Burghalde",
    "state_id": "28db2ccd-050e-4678-a4a3-8ee6aadb4135"
  },
  {
    "id": "481d371a-d497-4f7b-9479-a75db333fb1d",
    "name": "Richterswil / Dorfkern",
    "state_id": "28db2ccd-050e-4678-a4a3-8ee6aadb4135"
  },
  {
    "id": "51b235d2-78f6-45e7-99df-a1149b330c8a",
    "name": "Richterswil / Richterswil (Dorfkern)",
    "state_id": "28db2ccd-050e-4678-a4a3-8ee6aadb4135"
  },
  {
    "id": "5f50ea02-a589-4c4b-a0b4-82217a3fab14",
    "name": "Rorbas",
    "state_id": "28db2ccd-050e-4678-a4a3-8ee6aadb4135"
  },
  {
    "id": "21dfd5ea-fe64-4b96-8534-4c12265c2633",
    "name": "Rümlang",
    "state_id": "28db2ccd-050e-4678-a4a3-8ee6aadb4135"
  },
  {
    "id": "895a5ed3-ce65-4013-ae9f-b05599ae6410",
    "name": "Rümlang / Rümlang (Dorfkern)",
    "state_id": "28db2ccd-050e-4678-a4a3-8ee6aadb4135"
  },
  {
    "id": "b96848ba-c30b-4ed6-8eb2-0715d47da299",
    "name": "Rüschlikon",
    "state_id": "28db2ccd-050e-4678-a4a3-8ee6aadb4135"
  },
  {
    "id": "767c2995-4504-48c6-bc82-fe7d5d2833fd",
    "name": "Russikon",
    "state_id": "28db2ccd-050e-4678-a4a3-8ee6aadb4135"
  },
  {
    "id": "44e0caa3-af7c-4c38-9e3b-b959df0ee51f",
    "name": "Rüti",
    "state_id": "28db2ccd-050e-4678-a4a3-8ee6aadb4135"
  },
  {
    "id": "81088424-1e10-4f2d-af5f-53e834223b69",
    "name": "Rüti / Dorfzentrum, Südl. Teil",
    "state_id": "28db2ccd-050e-4678-a4a3-8ee6aadb4135"
  },
  {
    "id": "708587c7-49d4-4847-928d-b525ba21d95f",
    "name": "Rüti / Oberdorf",
    "state_id": "28db2ccd-050e-4678-a4a3-8ee6aadb4135"
  },
  {
    "id": "3eeaf5a4-c5b8-42b0-ad78-e211ab6ef76c",
    "name": "Rüti / Westlicher Dorfteil",
    "state_id": "28db2ccd-050e-4678-a4a3-8ee6aadb4135"
  },
  {
    "id": "eb4ad3e5-7ce9-4966-8dca-41fd6612368c",
    "name": "Samstagern",
    "state_id": "28db2ccd-050e-4678-a4a3-8ee6aadb4135"
  },
  {
    "id": "a4962cd9-ce4a-43c8-aba2-17f5075f95f3",
    "name": "Schachen",
    "state_id": "28db2ccd-050e-4678-a4a3-8ee6aadb4135"
  },
  {
    "id": "95adeabc-a805-4135-af98-cace5054de4b",
    "name": "Schlieren",
    "state_id": "28db2ccd-050e-4678-a4a3-8ee6aadb4135"
  },
  {
    "id": "67838ae3-da55-4f8f-9b61-7a1fedb868c4",
    "name": "Schlieren / Boden",
    "state_id": "28db2ccd-050e-4678-a4a3-8ee6aadb4135"
  },
  {
    "id": "58887e2c-f499-4bbb-9455-db1b7e93ce94",
    "name": "Schlieren / Engstingerquartier",
    "state_id": "28db2ccd-050e-4678-a4a3-8ee6aadb4135"
  },
  {
    "id": "099d5572-6dd6-4c23-962c-55d126d42ca2",
    "name": "Schlieren / Freiestrasse",
    "state_id": "28db2ccd-050e-4678-a4a3-8ee6aadb4135"
  },
  {
    "id": "3cb4f645-0d00-4aa9-89a0-1a660b2081bc",
    "name": "Schlieren / Kamp",
    "state_id": "28db2ccd-050e-4678-a4a3-8ee6aadb4135"
  },
  {
    "id": "02d1c25f-0fa6-4247-8fb7-b77cc051a84a",
    "name": "Schlieren / Spital",
    "state_id": "28db2ccd-050e-4678-a4a3-8ee6aadb4135"
  },
  {
    "id": "d4e75121-a0f6-438f-9d59-d413ddc0fa23",
    "name": "Schlieren / Zentrum",
    "state_id": "28db2ccd-050e-4678-a4a3-8ee6aadb4135"
  },
  {
    "id": "2d2acd83-db48-45d7-9b80-d7e630eaac95",
    "name": "Schwerzenbach",
    "state_id": "28db2ccd-050e-4678-a4a3-8ee6aadb4135"
  },
  {
    "id": "7f93da4c-0e9f-40d8-99c9-33b8a0d12143",
    "name": "Schwerzenbach / Blatten",
    "state_id": "28db2ccd-050e-4678-a4a3-8ee6aadb4135"
  },
  {
    "id": "a40e31ed-83ed-4fc4-8b36-15d6aee44274",
    "name": "Schwerzenbach / Chimli",
    "state_id": "28db2ccd-050e-4678-a4a3-8ee6aadb4135"
  },
  {
    "id": "aa826010-c356-4054-b97b-8d44da88f1e2",
    "name": "Seen (Kreis 3)",
    "state_id": "28db2ccd-050e-4678-a4a3-8ee6aadb4135"
  },
  {
    "id": "7dcf1175-2e2d-48e4-838c-87e9adf11b62",
    "name": "Seen (Kreis 3) / Büelwiesen",
    "state_id": "28db2ccd-050e-4678-a4a3-8ee6aadb4135"
  },
  {
    "id": "0c051679-3771-4dee-8789-e87ec6b1b67d",
    "name": "Seen (Kreis 3) / Ganzenbühl",
    "state_id": "28db2ccd-050e-4678-a4a3-8ee6aadb4135"
  },
  {
    "id": "c21a4773-b3d0-41aa-a060-25e194d36298",
    "name": "Seen (Kreis 3) / Oberseen",
    "state_id": "28db2ccd-050e-4678-a4a3-8ee6aadb4135"
  },
  {
    "id": "c636e6ad-dc6e-4d18-93a6-1f495ed04f1d",
    "name": "Seen (Kreis 3) / Waldegg",
    "state_id": "28db2ccd-050e-4678-a4a3-8ee6aadb4135"
  },
  {
    "id": "a5fa07ca-da2b-4133-a7e4-aaa2e2bb3eb9",
    "name": "Seen (Kreis 3) / Waser",
    "state_id": "28db2ccd-050e-4678-a4a3-8ee6aadb4135"
  },
  {
    "id": "2dedf7ff-4f0e-4e62-a172-68dedcff182f",
    "name": "Seglingen",
    "state_id": "28db2ccd-050e-4678-a4a3-8ee6aadb4135"
  },
  {
    "id": "c0a36847-b4ce-44ad-b05e-c471050bd394",
    "name": "Sellenbüren",
    "state_id": "28db2ccd-050e-4678-a4a3-8ee6aadb4135"
  },
  {
    "id": "c45405bd-966f-41fc-8402-3618f04a1820",
    "name": "Seuzach / Seuzach (Dorf)",
    "state_id": "28db2ccd-050e-4678-a4a3-8ee6aadb4135"
  },
  {
    "id": "f3d1c4c9-23d5-4328-bc5e-d3e4acd554a5",
    "name": "Seuzach Dorf",
    "state_id": "28db2ccd-050e-4678-a4a3-8ee6aadb4135"
  },
  {
    "id": "faa0e2ff-a773-48f0-9a54-e0dcfadc12a1",
    "name": "Seuzach Dorf / Breite-Weid",
    "state_id": "28db2ccd-050e-4678-a4a3-8ee6aadb4135"
  },
  {
    "id": "e7c45861-f88b-4e45-a872-d25baf7b0269",
    "name": "Sonnhalde",
    "state_id": "28db2ccd-050e-4678-a4a3-8ee6aadb4135"
  },
  {
    "id": "9d90b2bd-5ee2-4674-bc62-0d6c5a0edc3a",
    "name": "Stadt Winterthur (Kreis 1)",
    "state_id": "28db2ccd-050e-4678-a4a3-8ee6aadb4135"
  },
  {
    "id": "989093d9-ef5f-43df-af80-e2347c8813d6",
    "name": "Stadt Winterthur (Kreis 1) / Altstadt",
    "state_id": "28db2ccd-050e-4678-a4a3-8ee6aadb4135"
  },
  {
    "id": "611ea5ae-5f4a-4638-a6b7-4599d14195c1",
    "name": "Stadt Winterthur (Kreis 1) / Brühlberg",
    "state_id": "28db2ccd-050e-4678-a4a3-8ee6aadb4135"
  },
  {
    "id": "3ac18ecf-78fe-48de-bdb0-7c1fe3a321f0",
    "name": "Stadt Winterthur (Kreis 1) / Heiligberg",
    "state_id": "28db2ccd-050e-4678-a4a3-8ee6aadb4135"
  },
  {
    "id": "d7326c9e-f55a-4218-af2d-fda2d9af2251",
    "name": "Stadt Winterthur (Kreis 1) / Lind",
    "state_id": "28db2ccd-050e-4678-a4a3-8ee6aadb4135"
  },
  {
    "id": "bb4f4acc-c999-40d1-93cc-f23851268a16",
    "name": "Stadt Winterthur (Kreis 1) / Neuwiesen",
    "state_id": "28db2ccd-050e-4678-a4a3-8ee6aadb4135"
  },
  {
    "id": "cec7a5ea-3e7b-4810-9f65-1b04fb80429e",
    "name": "Stadt Winterthur (Kreis 1) / Tössfeld",
    "state_id": "28db2ccd-050e-4678-a4a3-8ee6aadb4135"
  },
  {
    "id": "72842e0c-10fa-4fcb-bcd9-5c81de2ff855",
    "name": "Stäfa",
    "state_id": "28db2ccd-050e-4678-a4a3-8ee6aadb4135"
  },
  {
    "id": "6aa10f0c-e4db-49d4-97d8-6b03e6c1900e",
    "name": "Steinmaur",
    "state_id": "28db2ccd-050e-4678-a4a3-8ee6aadb4135"
  },
  {
    "id": "5d28aa06-a88e-4571-b206-74b97635e82e",
    "name": "Sulz",
    "state_id": "28db2ccd-050e-4678-a4a3-8ee6aadb4135"
  },
  {
    "id": "34bf3475-ae18-42d6-89bb-62c79e06be61",
    "name": "Tagelswangen",
    "state_id": "28db2ccd-050e-4678-a4a3-8ee6aadb4135"
  },
  {
    "id": "1cc1a8b6-24bc-4551-995f-21848ee9f255",
    "name": "Tann",
    "state_id": "28db2ccd-050e-4678-a4a3-8ee6aadb4135"
  },
  {
    "id": "db491f14-fdf3-4892-825f-85532e8586d2",
    "name": "Tann / Tann (Dorfkern)",
    "state_id": "28db2ccd-050e-4678-a4a3-8ee6aadb4135"
  },
  {
    "id": "4fc70e96-1a17-47a1-9a80-bd2bf114de39",
    "name": "Thalwil",
    "state_id": "28db2ccd-050e-4678-a4a3-8ee6aadb4135"
  },
  {
    "id": "91a72559-5297-4694-9f10-d63ba008b949",
    "name": "Thalwil / Berg",
    "state_id": "28db2ccd-050e-4678-a4a3-8ee6aadb4135"
  },
  {
    "id": "5946255f-a7c3-4e48-9450-aeabc29ead47",
    "name": "Thalwil / Dorfkern",
    "state_id": "28db2ccd-050e-4678-a4a3-8ee6aadb4135"
  },
  {
    "id": "f5fc18d6-331f-4fb5-b14e-c4e4862bb743",
    "name": "Thalwil / Nord",
    "state_id": "28db2ccd-050e-4678-a4a3-8ee6aadb4135"
  },
  {
    "id": "9edfad08-d301-49e3-ac0f-fd5139b98454",
    "name": "Thalwil / See",
    "state_id": "28db2ccd-050e-4678-a4a3-8ee6aadb4135"
  },
  {
    "id": "c5e232df-c6ed-4be9-b3ae-0d433a8d1cca",
    "name": "Thalwil / Süd",
    "state_id": "28db2ccd-050e-4678-a4a3-8ee6aadb4135"
  },
  {
    "id": "992e9cf0-a898-44ed-affb-02c93a8bd495",
    "name": "Töss (Kreis 4)",
    "state_id": "28db2ccd-050e-4678-a4a3-8ee6aadb4135"
  },
  {
    "id": "ad59fb7a-207b-49ad-a388-871415f30ac2",
    "name": "Töss (Kreis 4) / Eichliacker",
    "state_id": "28db2ccd-050e-4678-a4a3-8ee6aadb4135"
  },
  {
    "id": "63530b60-15e2-4812-89e5-b3bd07b8f7de",
    "name": "Töss (Kreis 4) / Schlosstal",
    "state_id": "28db2ccd-050e-4678-a4a3-8ee6aadb4135"
  },
  {
    "id": "c811e558-b835-4cfc-94fd-a0dd194b4b5b",
    "name": "Töss (Kreis 4) / Vorder-Dättnau",
    "state_id": "28db2ccd-050e-4678-a4a3-8ee6aadb4135"
  },
  {
    "id": "6cd4bfa3-afeb-4f44-af18-533e091ed817",
    "name": "Turbenthal",
    "state_id": "28db2ccd-050e-4678-a4a3-8ee6aadb4135"
  },
  {
    "id": "6df34e93-69ba-43a6-8b02-adc2f564b8f6",
    "name": "Uerikon",
    "state_id": "28db2ccd-050e-4678-a4a3-8ee6aadb4135"
  },
  {
    "id": "aa67f2e2-7bfa-454c-b2eb-01ce587aeed5",
    "name": "Uetikon",
    "state_id": "28db2ccd-050e-4678-a4a3-8ee6aadb4135"
  },
  {
    "id": "3fa43f84-bf72-4050-9151-23b1e53140ee",
    "name": "Uetikon / Grossdorf",
    "state_id": "28db2ccd-050e-4678-a4a3-8ee6aadb4135"
  },
  {
    "id": "a9398a0d-8b41-41e0-b4e7-ff1f8208af35",
    "name": "Uhwiesen",
    "state_id": "28db2ccd-050e-4678-a4a3-8ee6aadb4135"
  },
  {
    "id": "cd52c41e-e0fd-40aa-98e0-cf9c3d30e04a",
    "name": "Uitikon",
    "state_id": "28db2ccd-050e-4678-a4a3-8ee6aadb4135"
  },
  {
    "id": "d6660a08-ce12-4dc9-8a15-79e9fdfad2bf",
    "name": "Unterengstringen",
    "state_id": "28db2ccd-050e-4678-a4a3-8ee6aadb4135"
  },
  {
    "id": "d1c935ff-bbc5-471e-85a2-8b25dbb3edfa",
    "name": "Urdorf",
    "state_id": "28db2ccd-050e-4678-a4a3-8ee6aadb4135"
  },
  {
    "id": "632ab26a-5296-40d7-b11a-8e07d1084f09",
    "name": "Urdorf / Bodenfeld",
    "state_id": "28db2ccd-050e-4678-a4a3-8ee6aadb4135"
  },
  {
    "id": "7516e9a1-235f-4637-a29f-7b15b7c58741",
    "name": "Urdorf / Moos",
    "state_id": "28db2ccd-050e-4678-a4a3-8ee6aadb4135"
  },
  {
    "id": "ed7eb662-6269-4475-a753-fe8514387ab6",
    "name": "Urdorf / Oberurdorf",
    "state_id": "28db2ccd-050e-4678-a4a3-8ee6aadb4135"
  },
  {
    "id": "b4798010-ac40-4d09-ae18-a8034fdd9e04",
    "name": "Uster",
    "state_id": "28db2ccd-050e-4678-a4a3-8ee6aadb4135"
  },
  {
    "id": "816b429e-6310-480a-864d-f114d9571c66",
    "name": "Uster / Gschwader",
    "state_id": "28db2ccd-050e-4678-a4a3-8ee6aadb4135"
  },
  {
    "id": "c0c9701a-9af9-4c62-889f-8823ea2fbaa8",
    "name": "Uster / Kirch-Uster",
    "state_id": "28db2ccd-050e-4678-a4a3-8ee6aadb4135"
  },
  {
    "id": "b56f40e5-15fe-4090-b4eb-74f3dd89004d",
    "name": "Uster / Nieder-Uster",
    "state_id": "28db2ccd-050e-4678-a4a3-8ee6aadb4135"
  },
  {
    "id": "130e3686-aef2-4929-a274-216c20631402",
    "name": "Uster / Nossikon",
    "state_id": "28db2ccd-050e-4678-a4a3-8ee6aadb4135"
  },
  {
    "id": "43fb9092-71f8-4891-8222-bad4efa6756f",
    "name": "Uster / Ober-Uster",
    "state_id": "28db2ccd-050e-4678-a4a3-8ee6aadb4135"
  },
  {
    "id": "b048fe0b-bb4a-4bb5-b543-0df65353e77a",
    "name": "Veltheim (Kreis 5)",
    "state_id": "28db2ccd-050e-4678-a4a3-8ee6aadb4135"
  },
  {
    "id": "a9ca091c-8a9a-4709-8e27-0e89634b459b",
    "name": "Veltheim (Kreis 5) / Blumenau",
    "state_id": "28db2ccd-050e-4678-a4a3-8ee6aadb4135"
  },
  {
    "id": "42644e72-5969-4aae-862c-0531b330afd0",
    "name": "Veltheim (Kreis 5) / Rosenberg",
    "state_id": "28db2ccd-050e-4678-a4a3-8ee6aadb4135"
  },
  {
    "id": "9fc52639-3875-49d9-b42f-f6c1ef96fb83",
    "name": "Volketswil / Volketswil (Dorf)",
    "state_id": "28db2ccd-050e-4678-a4a3-8ee6aadb4135"
  },
  {
    "id": "6404c781-8fde-430a-a273-bd115953e3ac",
    "name": "Wädenswil",
    "state_id": "28db2ccd-050e-4678-a4a3-8ee6aadb4135"
  },
  {
    "id": "21b73b13-aff1-4078-9579-402a344199dc",
    "name": "Wädenswil / Boller-Giessen",
    "state_id": "28db2ccd-050e-4678-a4a3-8ee6aadb4135"
  },
  {
    "id": "dade46c7-85b4-4ff3-8eea-6a8c595894f0",
    "name": "Wädenswil / Büelen",
    "state_id": "28db2ccd-050e-4678-a4a3-8ee6aadb4135"
  },
  {
    "id": "d9538556-b314-4327-813d-e527d40e6917",
    "name": "Wädenswil / Dorf (Wädenswil)",
    "state_id": "28db2ccd-050e-4678-a4a3-8ee6aadb4135"
  },
  {
    "id": "4076b487-d1b9-419e-90a2-10f024b0bdf1",
    "name": "Wädenswil / Eichweid",
    "state_id": "28db2ccd-050e-4678-a4a3-8ee6aadb4135"
  },
  {
    "id": "8a3f8580-9914-475f-a83d-7821ef64384e",
    "name": "Wädenswil / Hangenmoos",
    "state_id": "28db2ccd-050e-4678-a4a3-8ee6aadb4135"
  },
  {
    "id": "d68d8ed8-197a-487b-898e-542f12ce74f2",
    "name": "Wädenswil / Leihof-Mühlebach",
    "state_id": "28db2ccd-050e-4678-a4a3-8ee6aadb4135"
  },
  {
    "id": "02ec0fb9-0d88-449f-85d2-20a2c7b86fcf",
    "name": "Wädenswil / Untermosen-Fuhr",
    "state_id": "28db2ccd-050e-4678-a4a3-8ee6aadb4135"
  },
  {
    "id": "92645c10-981c-405d-b8c6-ebcf8b1adcbb",
    "name": "Wald",
    "state_id": "28db2ccd-050e-4678-a4a3-8ee6aadb4135"
  },
  {
    "id": "5470a5cb-efb7-4d82-a1c9-de9f65fe831f",
    "name": "Wallisellen",
    "state_id": "28db2ccd-050e-4678-a4a3-8ee6aadb4135"
  },
  {
    "id": "7761da89-fb55-44df-a199-cc95b9c4b7f7",
    "name": "Wallisellen / Rieden",
    "state_id": "28db2ccd-050e-4678-a4a3-8ee6aadb4135"
  },
  {
    "id": "1ed21f26-f685-492f-9ae5-0bfbab7c151e",
    "name": "Wallisellen / Wallisellen-Ost",
    "state_id": "28db2ccd-050e-4678-a4a3-8ee6aadb4135"
  },
  {
    "id": "d18dee0e-fecd-433a-b310-09e181bdd078",
    "name": "Wallisellen / Wallisellen-West",
    "state_id": "28db2ccd-050e-4678-a4a3-8ee6aadb4135"
  },
  {
    "id": "d313eea9-5801-47dc-964b-42ecb8dafcb5",
    "name": "Wangen",
    "state_id": "28db2ccd-050e-4678-a4a3-8ee6aadb4135"
  },
  {
    "id": "b14501ff-78a6-4447-93c6-681d3e1d3087",
    "name": "Weiningen",
    "state_id": "28db2ccd-050e-4678-a4a3-8ee6aadb4135"
  },
  {
    "id": "7ba067d3-3ec7-4632-85cf-c3c663a77a46",
    "name": "Weisslingen",
    "state_id": "28db2ccd-050e-4678-a4a3-8ee6aadb4135"
  },
  {
    "id": "9cf2905b-d1c0-4c0b-83a4-330235b08047",
    "name": "Wettswil / Ausser-Dorf",
    "state_id": "28db2ccd-050e-4678-a4a3-8ee6aadb4135"
  },
  {
    "id": "014a253c-58a7-4c83-b873-29df5a4f747e",
    "name": "Wettswil / Wettswil (Dorf)",
    "state_id": "28db2ccd-050e-4678-a4a3-8ee6aadb4135"
  },
  {
    "id": "e85febae-98fc-4ee0-8271-3bfc2668b168",
    "name": "Wetzikon",
    "state_id": "28db2ccd-050e-4678-a4a3-8ee6aadb4135"
  },
  {
    "id": "a59fc538-c29c-44c9-a5fc-7bf5f268e465",
    "name": "Wetzikon / Kempten",
    "state_id": "28db2ccd-050e-4678-a4a3-8ee6aadb4135"
  },
  {
    "id": "c3a5f782-8da2-40b7-b142-d4a2615cbe88",
    "name": "Wetzikon / Ober-Wetzikon",
    "state_id": "28db2ccd-050e-4678-a4a3-8ee6aadb4135"
  },
  {
    "id": "f3eb541b-000f-491d-8b18-c4a406224afa",
    "name": "Wetzikon / Robenhausen",
    "state_id": "28db2ccd-050e-4678-a4a3-8ee6aadb4135"
  },
  {
    "id": "aeb71253-3983-4630-b0bc-cec64e9368cd",
    "name": "Wetzikon / Unter-Wetzikon",
    "state_id": "28db2ccd-050e-4678-a4a3-8ee6aadb4135"
  },
  {
    "id": "d4a722ca-7e40-4b9e-8166-dac8c5b13f3e",
    "name": "Wiesendangen / Wiesendangen (Dorf)",
    "state_id": "28db2ccd-050e-4678-a4a3-8ee6aadb4135"
  },
  {
    "id": "c9a7979f-1e60-4efa-9542-aebc03238e22",
    "name": "Wila",
    "state_id": "28db2ccd-050e-4678-a4a3-8ee6aadb4135"
  },
  {
    "id": "7dba6c46-fa50-4c11-a4c4-9e3a3cfc0ecc",
    "name": "Winterthur",
    "state_id": "28db2ccd-050e-4678-a4a3-8ee6aadb4135"
  },
  {
    "id": "8b9ff27a-9a3a-4aeb-a6e6-c428f6328f83",
    "name": "Wolfhausen",
    "state_id": "28db2ccd-050e-4678-a4a3-8ee6aadb4135"
  },
  {
    "id": "a40a990f-a7ae-437a-b2f0-80472994eb32",
    "name": "Wülflingen (Kreis 6)",
    "state_id": "28db2ccd-050e-4678-a4a3-8ee6aadb4135"
  },
  {
    "id": "b10a0364-33ed-44f7-86a5-626d68242c6a",
    "name": "Wülflingen (Kreis 6) / Härti",
    "state_id": "28db2ccd-050e-4678-a4a3-8ee6aadb4135"
  },
  {
    "id": "f0c7641a-f77a-4d3a-888c-6e37ff500bbe",
    "name": "Wülflingen (Kreis 6) / Lindenplatz",
    "state_id": "28db2ccd-050e-4678-a4a3-8ee6aadb4135"
  },
  {
    "id": "a494dd94-d253-448b-8f96-c5865121268d",
    "name": "Wülflingen (Kreis 6) / Niederfeld",
    "state_id": "28db2ccd-050e-4678-a4a3-8ee6aadb4135"
  },
  {
    "id": "9b97fe2b-c821-4d11-8bfe-4b8b896828ca",
    "name": "Wülflingen (Kreis 6) / Oberfeld",
    "state_id": "28db2ccd-050e-4678-a4a3-8ee6aadb4135"
  },
  {
    "id": "ee47ea1a-4286-4c7c-a939-3bfa057e5a7b",
    "name": "Zollikerberg",
    "state_id": "28db2ccd-050e-4678-a4a3-8ee6aadb4135"
  },
  {
    "id": "e03b4d7e-3158-4e05-a2ad-6dea92b77008",
    "name": "Zollikon",
    "state_id": "28db2ccd-050e-4678-a4a3-8ee6aadb4135"
  },
  {
    "id": "754668cd-830a-45f5-8585-502be871f422",
    "name": "Zumikon",
    "state_id": "28db2ccd-050e-4678-a4a3-8ee6aadb4135"
  },
  {
    "id": "3bc230a9-585a-4541-85a2-8e7543c66a71",
    "name": "Zürich",
    "state_id": "28db2ccd-050e-4678-a4a3-8ee6aadb4135"
  },
  {
    "id": "d5ef6810-09e6-417d-acae-3339656903ff",
    "name": "Zürich (Kreis 1)",
    "state_id": "28db2ccd-050e-4678-a4a3-8ee6aadb4135"
  },
  {
    "id": "8c9c09fc-5177-4379-95d9-5d394dbeacc7",
    "name": "Zürich (Kreis 1) / City",
    "state_id": "28db2ccd-050e-4678-a4a3-8ee6aadb4135"
  },
  {
    "id": "97d68afe-bd74-42c5-9b60-dd2b72594232",
    "name": "Zürich (Kreis 1) / Lindenhof",
    "state_id": "28db2ccd-050e-4678-a4a3-8ee6aadb4135"
  },
  {
    "id": "69884298-95c9-4870-926e-4ffa74549507",
    "name": "Zürich (Kreis 1) / Rathaus",
    "state_id": "28db2ccd-050e-4678-a4a3-8ee6aadb4135"
  },
  {
    "id": "5e79b9c5-dfdf-434a-bfcc-e5c4f8c413ec",
    "name": "Zürich (Kreis 10)",
    "state_id": "28db2ccd-050e-4678-a4a3-8ee6aadb4135"
  },
  {
    "id": "0d332dd0-6da9-4fd3-b33c-a5c0770f58a2",
    "name": "Zürich (Kreis 10) / Höngg",
    "state_id": "28db2ccd-050e-4678-a4a3-8ee6aadb4135"
  },
  {
    "id": "910ec53f-901c-47b7-a656-eaee4f0b79ab",
    "name": "Zürich (Kreis 10) / Rütihof",
    "state_id": "28db2ccd-050e-4678-a4a3-8ee6aadb4135"
  },
  {
    "id": "4fbbe3bd-d09f-41b2-9bc7-c22c756eedf7",
    "name": "Zürich (Kreis 10) / Wipkingen",
    "state_id": "28db2ccd-050e-4678-a4a3-8ee6aadb4135"
  },
  {
    "id": "81c813d9-ada2-47d8-8d1e-4d073eb8724d",
    "name": "Zürich (Kreis 11)",
    "state_id": "28db2ccd-050e-4678-a4a3-8ee6aadb4135"
  },
  {
    "id": "c65fb3ce-89d5-4051-a885-acc34744a6e7",
    "name": "Zürich (Kreis 11) / Affoltern",
    "state_id": "28db2ccd-050e-4678-a4a3-8ee6aadb4135"
  },
  {
    "id": "e76cb09f-a1a6-4ea5-a4d3-b11490ee6771",
    "name": "Zürich (Kreis 11) / Oerlikon",
    "state_id": "28db2ccd-050e-4678-a4a3-8ee6aadb4135"
  },
  {
    "id": "670cea7e-9800-4eba-94fa-691bc049b6e3",
    "name": "Zürich (Kreis 11) / Schwandenholz",
    "state_id": "28db2ccd-050e-4678-a4a3-8ee6aadb4135"
  },
  {
    "id": "a43a37ea-e453-4368-a2b4-68fd875d4169",
    "name": "Zürich (Kreis 11) / Seebach",
    "state_id": "28db2ccd-050e-4678-a4a3-8ee6aadb4135"
  },
  {
    "id": "74e70ac5-e5a7-4a07-a731-92c5f745aa6f",
    "name": "Zürich (Kreis 12)",
    "state_id": "28db2ccd-050e-4678-a4a3-8ee6aadb4135"
  },
  {
    "id": "e5d4c27c-0d81-4a1f-bf63-303770379522",
    "name": "Zürich (Kreis 12) / Auzelg",
    "state_id": "28db2ccd-050e-4678-a4a3-8ee6aadb4135"
  },
  {
    "id": "fbd66acc-9bad-4a25-8ced-3bafe5ae4889",
    "name": "Zürich (Kreis 12) / Hirzenbach",
    "state_id": "28db2ccd-050e-4678-a4a3-8ee6aadb4135"
  },
  {
    "id": "4c7e2749-f29e-47eb-b9e8-45108a0d3d0c",
    "name": "Zürich (Kreis 12) / Saatlen",
    "state_id": "28db2ccd-050e-4678-a4a3-8ee6aadb4135"
  },
  {
    "id": "be805abe-68b9-485b-9905-1a66d9e705c9",
    "name": "Zürich (Kreis 12) / Schwamendingen-Mitte",
    "state_id": "28db2ccd-050e-4678-a4a3-8ee6aadb4135"
  },
  {
    "id": "a7c40cc8-7d95-43df-a671-976a7bec1776",
    "name": "Zürich (Kreis 2)",
    "state_id": "28db2ccd-050e-4678-a4a3-8ee6aadb4135"
  },
  {
    "id": "46438c3d-ffda-45e6-a25c-4daa24b8dd56",
    "name": "Zürich (Kreis 2) / Enge",
    "state_id": "28db2ccd-050e-4678-a4a3-8ee6aadb4135"
  },
  {
    "id": "8d9934cd-80aa-4fae-915d-422e3be84878",
    "name": "Zürich (Kreis 2) / Mittel-Leimbach",
    "state_id": "28db2ccd-050e-4678-a4a3-8ee6aadb4135"
  },
  {
    "id": "8b15dd36-520f-4d93-a901-69dabe231ca4",
    "name": "Zürich (Kreis 2) / Unter-Leimbach",
    "state_id": "28db2ccd-050e-4678-a4a3-8ee6aadb4135"
  },
  {
    "id": "c3db88fe-7580-481b-8239-e5cc14740954",
    "name": "Zürich (Kreis 2) / Wollishofen",
    "state_id": "28db2ccd-050e-4678-a4a3-8ee6aadb4135"
  },
  {
    "id": "08c761fa-1c63-448d-99db-f2f78e2ccda9",
    "name": "Zürich (Kreis 3)",
    "state_id": "28db2ccd-050e-4678-a4a3-8ee6aadb4135"
  },
  {
    "id": "3b3dc897-fc2a-4e1a-9455-075fb57c30dc",
    "name": "Zürich (Kreis 3) / Alt-Wiedikon",
    "state_id": "28db2ccd-050e-4678-a4a3-8ee6aadb4135"
  },
  {
    "id": "32720004-d472-4461-81c9-508679dad304",
    "name": "Zürich (Kreis 3) / Friesenberg",
    "state_id": "28db2ccd-050e-4678-a4a3-8ee6aadb4135"
  },
  {
    "id": "d1bd03b4-0d09-4d43-b65f-f9fea4cb575f",
    "name": "Zürich (Kreis 3) / Sihlfeld",
    "state_id": "28db2ccd-050e-4678-a4a3-8ee6aadb4135"
  },
  {
    "id": "64d2527f-825e-444f-b6a7-a3797bcdb360",
    "name": "Zürich (Kreis 4) / Aussersihl",
    "state_id": "28db2ccd-050e-4678-a4a3-8ee6aadb4135"
  },
  {
    "id": "a50cdac6-0af3-4885-97ed-7e396335d657",
    "name": "Zürich (Kreis 4) / Hard",
    "state_id": "28db2ccd-050e-4678-a4a3-8ee6aadb4135"
  },
  {
    "id": "ed08bc53-49a3-47ba-9525-7e38851cb0ea",
    "name": "Zürich (Kreis 4) / Langstrasse",
    "state_id": "28db2ccd-050e-4678-a4a3-8ee6aadb4135"
  },
  {
    "id": "832f37a8-8264-426a-aec3-3a0f511669b7",
    "name": "Zürich (Kreis 4) / Werd",
    "state_id": "28db2ccd-050e-4678-a4a3-8ee6aadb4135"
  },
  {
    "id": "72a38fb5-5dc9-47b7-8e62-c074ace3e0d2",
    "name": "Zürich (Kreis 5)",
    "state_id": "28db2ccd-050e-4678-a4a3-8ee6aadb4135"
  },
  {
    "id": "bb5b749d-0d4d-45b6-adae-5dfaf8b50001",
    "name": "Zürich (Kreis 5) / Escher-Wyss",
    "state_id": "28db2ccd-050e-4678-a4a3-8ee6aadb4135"
  },
  {
    "id": "3c65bcde-73fa-486c-893d-f48d70b4373d",
    "name": "Zürich (Kreis 5) / Gewerbeschule",
    "state_id": "28db2ccd-050e-4678-a4a3-8ee6aadb4135"
  },
  {
    "id": "9744bb11-62f0-4669-bc81-9539431d610e",
    "name": "Zürich (Kreis 6)",
    "state_id": "28db2ccd-050e-4678-a4a3-8ee6aadb4135"
  },
  {
    "id": "b97cc79b-b224-4123-b0b1-3e782205b7c7",
    "name": "Zürich (Kreis 6) / Oberstrass",
    "state_id": "28db2ccd-050e-4678-a4a3-8ee6aadb4135"
  },
  {
    "id": "056463b2-8044-4d5b-9177-90018ae9a1e5",
    "name": "Zürich (Kreis 6) / Unterstrass",
    "state_id": "28db2ccd-050e-4678-a4a3-8ee6aadb4135"
  },
  {
    "id": "58f566f3-a13b-4930-992a-c11928435fa4",
    "name": "Zürich (Kreis 7)",
    "state_id": "28db2ccd-050e-4678-a4a3-8ee6aadb4135"
  },
  {
    "id": "b4155122-69a3-4bb5-a104-ea0219a2d28c",
    "name": "Zürich (Kreis 7) / Fluntern",
    "state_id": "28db2ccd-050e-4678-a4a3-8ee6aadb4135"
  },
  {
    "id": "cf1be379-be88-47fb-99bf-cefb3593d206",
    "name": "Zürich (Kreis 7) / Hirslanden",
    "state_id": "28db2ccd-050e-4678-a4a3-8ee6aadb4135"
  },
  {
    "id": "09a7d794-f6ff-438c-8cb3-b4ea3b800689",
    "name": "Zürich (Kreis 7) / Hottingen",
    "state_id": "28db2ccd-050e-4678-a4a3-8ee6aadb4135"
  },
  {
    "id": "33562418-1bc6-4d94-8599-dffc9c9fcf5f",
    "name": "Zürich (Kreis 7) / Witikon",
    "state_id": "28db2ccd-050e-4678-a4a3-8ee6aadb4135"
  },
  {
    "id": "4f874e56-fb2f-4188-931d-43baabee6599",
    "name": "Zürich (Kreis 8)",
    "state_id": "28db2ccd-050e-4678-a4a3-8ee6aadb4135"
  },
  {
    "id": "154bddd2-2822-453f-8796-a8115aefb507",
    "name": "Zürich (Kreis 8) / Mühlebach",
    "state_id": "28db2ccd-050e-4678-a4a3-8ee6aadb4135"
  },
  {
    "id": "bab8b24f-8c3b-474a-a92b-f220c6958ba4",
    "name": "Zürich (Kreis 8) / Seefeld",
    "state_id": "28db2ccd-050e-4678-a4a3-8ee6aadb4135"
  },
  {
    "id": "632825b0-898b-4a26-934b-b956435ae942",
    "name": "Zürich (Kreis 8) / Weinegg",
    "state_id": "28db2ccd-050e-4678-a4a3-8ee6aadb4135"
  },
  {
    "id": "830288bf-bc03-45f6-92e0-ced97735fade",
    "name": "Zürich (Kreis 9)",
    "state_id": "28db2ccd-050e-4678-a4a3-8ee6aadb4135"
  },
  {
    "id": "958db336-463b-41c7-b8df-1c27b1ec11c8",
    "name": "Zürich (Kreis 9) / Albisrieden",
    "state_id": "28db2ccd-050e-4678-a4a3-8ee6aadb4135"
  },
  {
    "id": "2d6a34fd-9458-49ac-9c6f-1cd3cef5351b",
    "name": "Zürich (Kreis 9) / Altstetten",
    "state_id": "28db2ccd-050e-4678-a4a3-8ee6aadb4135"
  }
]