[
  {
    "id": "7b5b1207-c490-44e8-b5ef-37b5076852d6",
    "name": "Imsida",
    "state_id": "28db54e3-c74e-46a7-a662-85883ef0efd0"
  },
  {
    "id": "2b109461-76f4-475a-aa7c-81850a3a0888",
    "name": "Kirkop",
    "state_id": "28db54e3-c74e-46a7-a662-85883ef0efd0"
  }
]