[
  {
    "id": "00d1e4da-bc45-43a4-a737-8cc5da8ea1d6",
    "name": "Baldovinești",
    "state_id": "29132dd9-e3e6-4461-b5b0-0a28be7c3665"
  },
  {
    "id": "dd6e0e91-7373-4ea9-8f72-0684c1c530ea",
    "name": "Bărăganul",
    "state_id": "29132dd9-e3e6-4461-b5b0-0a28be7c3665"
  },
  {
    "id": "85ec8a46-8005-4ece-ae7d-19f31420fa85",
    "name": "Berteştii de Jos",
    "state_id": "29132dd9-e3e6-4461-b5b0-0a28be7c3665"
  },
  {
    "id": "9fde1baa-7bbc-4e1a-a4fd-301f97d0e76d",
    "name": "Bordei Verde",
    "state_id": "29132dd9-e3e6-4461-b5b0-0a28be7c3665"
  },
  {
    "id": "e2e28b7c-66f1-41f7-a189-f9e23dbaab4c",
    "name": "Brăila",
    "state_id": "29132dd9-e3e6-4461-b5b0-0a28be7c3665"
  },
  {
    "id": "5c90ceab-e6b8-43af-b578-a518b5e8e865",
    "name": "Cazasu",
    "state_id": "29132dd9-e3e6-4461-b5b0-0a28be7c3665"
  },
  {
    "id": "faa74e3c-b29f-461e-8e78-6d345bb63113",
    "name": "Chiscani",
    "state_id": "29132dd9-e3e6-4461-b5b0-0a28be7c3665"
  },
  {
    "id": "b82ecbb3-fd87-45e4-a0f9-1d239f5b3dcd",
    "name": "Ciocile",
    "state_id": "29132dd9-e3e6-4461-b5b0-0a28be7c3665"
  },
  {
    "id": "e533be03-9b8b-47ba-a01f-e1def985c2ac",
    "name": "Cireşu",
    "state_id": "29132dd9-e3e6-4461-b5b0-0a28be7c3665"
  },
  {
    "id": "5b5cc8ef-2525-4df0-9b14-80e0973a685a",
    "name": "Comuna Bărăganul",
    "state_id": "29132dd9-e3e6-4461-b5b0-0a28be7c3665"
  },
  {
    "id": "7118d2a2-95d2-4ca5-a6a3-1e166d9287bd",
    "name": "Comuna Berteştii de Jos",
    "state_id": "29132dd9-e3e6-4461-b5b0-0a28be7c3665"
  },
  {
    "id": "6428773a-844c-4d50-91cf-843744cfab52",
    "name": "Comuna Bordei Verde",
    "state_id": "29132dd9-e3e6-4461-b5b0-0a28be7c3665"
  },
  {
    "id": "bf41beee-4dfb-47c5-8da8-1d267fd2c314",
    "name": "Comuna Cazasu",
    "state_id": "29132dd9-e3e6-4461-b5b0-0a28be7c3665"
  },
  {
    "id": "ec9ffb7e-0d54-4a54-b552-9f3fbbe4ec1c",
    "name": "Comuna Chiscani",
    "state_id": "29132dd9-e3e6-4461-b5b0-0a28be7c3665"
  },
  {
    "id": "46167fc1-c113-4651-81c2-03c2a2ccd307",
    "name": "Comuna Ciocile",
    "state_id": "29132dd9-e3e6-4461-b5b0-0a28be7c3665"
  },
  {
    "id": "f52364dd-3ef6-4982-ae3c-ab7a82eecf5a",
    "name": "Comuna Cireşu",
    "state_id": "29132dd9-e3e6-4461-b5b0-0a28be7c3665"
  },
  {
    "id": "53857687-52c3-4c50-b247-385de5183332",
    "name": "Comuna Dudeşti",
    "state_id": "29132dd9-e3e6-4461-b5b0-0a28be7c3665"
  },
  {
    "id": "e322fc74-8747-4cd5-ba25-04e1239d4ea5",
    "name": "Comuna Frecãţei",
    "state_id": "29132dd9-e3e6-4461-b5b0-0a28be7c3665"
  },
  {
    "id": "d8453c12-0ae0-4bf7-aedf-5ba45a2e1083",
    "name": "Comuna Galbenu",
    "state_id": "29132dd9-e3e6-4461-b5b0-0a28be7c3665"
  },
  {
    "id": "6cf21c6d-7507-43be-a53c-50e6fdeded28",
    "name": "Comuna Gemenele",
    "state_id": "29132dd9-e3e6-4461-b5b0-0a28be7c3665"
  },
  {
    "id": "76ffe0d7-2519-4a59-90b6-69ad3e0d4aeb",
    "name": "Comuna Grădiştea",
    "state_id": "29132dd9-e3e6-4461-b5b0-0a28be7c3665"
  },
  {
    "id": "e1d3fc4d-bd1f-440a-b484-4d4d7f077c50",
    "name": "Comuna Gropeni",
    "state_id": "29132dd9-e3e6-4461-b5b0-0a28be7c3665"
  },
  {
    "id": "c6cd405c-6f56-4697-b5ad-c915f90fd389",
    "name": "Comuna Jirlău",
    "state_id": "29132dd9-e3e6-4461-b5b0-0a28be7c3665"
  },
  {
    "id": "4efafdff-5b4f-4113-9494-473e9bb2fe00",
    "name": "Comuna Măraşu",
    "state_id": "29132dd9-e3e6-4461-b5b0-0a28be7c3665"
  },
  {
    "id": "57720501-f0f5-49b7-af5e-dfadc53a2057",
    "name": "Comuna Măxineni",
    "state_id": "29132dd9-e3e6-4461-b5b0-0a28be7c3665"
  },
  {
    "id": "fbc346b6-9e60-4d87-a198-f1270c5d0b31",
    "name": "Comuna Mircea Vodă",
    "state_id": "29132dd9-e3e6-4461-b5b0-0a28be7c3665"
  },
  {
    "id": "aedb1e36-9a83-4d4e-b971-0d6ed5e9a556",
    "name": "Comuna Movila Miresii",
    "state_id": "29132dd9-e3e6-4461-b5b0-0a28be7c3665"
  },
  {
    "id": "535e29c2-9cfb-47cd-af0f-8d0b71271d23",
    "name": "Comuna Racoviţa",
    "state_id": "29132dd9-e3e6-4461-b5b0-0a28be7c3665"
  },
  {
    "id": "31e9a84d-2fce-42bb-b97f-ded950a19dd1",
    "name": "Comuna Râmnicelu",
    "state_id": "29132dd9-e3e6-4461-b5b0-0a28be7c3665"
  },
  {
    "id": "d9d92a84-7a2d-4c9f-8ec8-442f16cb98a7",
    "name": "Comuna Romanu",
    "state_id": "29132dd9-e3e6-4461-b5b0-0a28be7c3665"
  },
  {
    "id": "f0e496fd-1b0b-4b90-82a4-c61601916477",
    "name": "Comuna Roşiori",
    "state_id": "29132dd9-e3e6-4461-b5b0-0a28be7c3665"
  },
  {
    "id": "4db0698c-a021-441d-a53c-5a47867cdf44",
    "name": "Comuna Salcia Tudor",
    "state_id": "29132dd9-e3e6-4461-b5b0-0a28be7c3665"
  },
  {
    "id": "6dfc4350-265a-4e38-ba23-2b406cd71c1a",
    "name": "Comuna Scorţaru Nou",
    "state_id": "29132dd9-e3e6-4461-b5b0-0a28be7c3665"
  },
  {
    "id": "0a474407-30d2-49fc-842f-9f51f9b2a0dc",
    "name": "Comuna Siliştea",
    "state_id": "29132dd9-e3e6-4461-b5b0-0a28be7c3665"
  },
  {
    "id": "ff95a952-5b8f-4834-94a5-8ee8d7a1e2ea",
    "name": "Comuna Stăncuţa",
    "state_id": "29132dd9-e3e6-4461-b5b0-0a28be7c3665"
  },
  {
    "id": "700a7d17-0d25-432d-afac-f22b0321bd0e",
    "name": "Comuna Surdila-Găiseanca",
    "state_id": "29132dd9-e3e6-4461-b5b0-0a28be7c3665"
  },
  {
    "id": "1df6f775-211f-4bd8-989e-27e8a5f1b327",
    "name": "Comuna Surdila-Greci",
    "state_id": "29132dd9-e3e6-4461-b5b0-0a28be7c3665"
  },
  {
    "id": "51d5efcb-d33d-446e-aafa-981007315ca7",
    "name": "Comuna Şuţeşti",
    "state_id": "29132dd9-e3e6-4461-b5b0-0a28be7c3665"
  },
  {
    "id": "d6135383-92f4-4955-8101-c417bf00608c",
    "name": "Comuna Tichileşti",
    "state_id": "29132dd9-e3e6-4461-b5b0-0a28be7c3665"
  },
  {
    "id": "6b7fbf96-e422-44f3-9150-5d6f10f894cb",
    "name": "Comuna Traian",
    "state_id": "29132dd9-e3e6-4461-b5b0-0a28be7c3665"
  },
  {
    "id": "45a78d15-4715-492b-80e0-5618aa3f47a6",
    "name": "Comuna Tudor Vladimirescu",
    "state_id": "29132dd9-e3e6-4461-b5b0-0a28be7c3665"
  },
  {
    "id": "9ad17cbb-2f90-415c-a178-c8a8a6b966d9",
    "name": "Comuna Tufeşti",
    "state_id": "29132dd9-e3e6-4461-b5b0-0a28be7c3665"
  },
  {
    "id": "8895870d-1f6d-4063-9910-79b4424a6aa5",
    "name": "Comuna Ulmu",
    "state_id": "29132dd9-e3e6-4461-b5b0-0a28be7c3665"
  },
  {
    "id": "a28c362e-36ec-422f-8bc8-3b7981fe9cfa",
    "name": "Comuna Unirea",
    "state_id": "29132dd9-e3e6-4461-b5b0-0a28be7c3665"
  },
  {
    "id": "5910804c-b36e-43bc-9013-f8dbfb932aaf",
    "name": "Comuna Vădeni",
    "state_id": "29132dd9-e3e6-4461-b5b0-0a28be7c3665"
  },
  {
    "id": "c38ef2db-1a5b-405c-a542-7672f3e70350",
    "name": "Comuna Victoria",
    "state_id": "29132dd9-e3e6-4461-b5b0-0a28be7c3665"
  },
  {
    "id": "d122cc2b-924e-4212-9386-dc81f120e87b",
    "name": "Comuna Vişani",
    "state_id": "29132dd9-e3e6-4461-b5b0-0a28be7c3665"
  },
  {
    "id": "6475d8d8-09db-4655-924b-e713c3a3385c",
    "name": "Comuna Viziru",
    "state_id": "29132dd9-e3e6-4461-b5b0-0a28be7c3665"
  },
  {
    "id": "1e72a16f-d680-4991-bafb-03c45a497a63",
    "name": "Comuna Zăvoaia",
    "state_id": "29132dd9-e3e6-4461-b5b0-0a28be7c3665"
  },
  {
    "id": "5319304d-e256-4d0d-aba1-b642eb0034ed",
    "name": "Corbu Nou",
    "state_id": "29132dd9-e3e6-4461-b5b0-0a28be7c3665"
  },
  {
    "id": "4c211863-5f7c-4d97-bbcb-cc0150a3bc0e",
    "name": "Cuza Vodă",
    "state_id": "29132dd9-e3e6-4461-b5b0-0a28be7c3665"
  },
  {
    "id": "1dfe1af7-8065-4fc3-b539-d03931d80cb4",
    "name": "Dedulești",
    "state_id": "29132dd9-e3e6-4461-b5b0-0a28be7c3665"
  },
  {
    "id": "d71a12e9-80e9-455d-978e-0c42f89d0534",
    "name": "Dudeşti",
    "state_id": "29132dd9-e3e6-4461-b5b0-0a28be7c3665"
  },
  {
    "id": "b38f697e-76b0-49f6-8338-401584759076",
    "name": "Făurei",
    "state_id": "29132dd9-e3e6-4461-b5b0-0a28be7c3665"
  },
  {
    "id": "2073e448-d3d9-4e88-82ba-c27d53c11fb1",
    "name": "Frecăţei",
    "state_id": "29132dd9-e3e6-4461-b5b0-0a28be7c3665"
  },
  {
    "id": "82f17ba9-6001-44e9-b72e-e6dd73e686b9",
    "name": "Galbenu",
    "state_id": "29132dd9-e3e6-4461-b5b0-0a28be7c3665"
  },
  {
    "id": "87cb7fac-d251-4d60-8a16-9eeb29f6f50c",
    "name": "Gemenele",
    "state_id": "29132dd9-e3e6-4461-b5b0-0a28be7c3665"
  },
  {
    "id": "bd8b3c5f-e444-4c07-a7a4-e31855464ee7",
    "name": "Grădiştea",
    "state_id": "29132dd9-e3e6-4461-b5b0-0a28be7c3665"
  },
  {
    "id": "8e571d3a-4af9-49bb-9345-840acd212447",
    "name": "Gropeni",
    "state_id": "29132dd9-e3e6-4461-b5b0-0a28be7c3665"
  },
  {
    "id": "d952f16b-a573-4fef-8e35-c09f71d07941",
    "name": "Ianca",
    "state_id": "29132dd9-e3e6-4461-b5b0-0a28be7c3665"
  },
  {
    "id": "10d83271-2551-46dc-9f3a-c4b14cf6b3d3",
    "name": "Însurăţei",
    "state_id": "29132dd9-e3e6-4461-b5b0-0a28be7c3665"
  },
  {
    "id": "136e594c-9298-4992-93e9-60a99c8706c4",
    "name": "Jirlău",
    "state_id": "29132dd9-e3e6-4461-b5b0-0a28be7c3665"
  },
  {
    "id": "a2732dd9-cf33-42ae-a0dd-f499d3b4f96d",
    "name": "Jugureanu",
    "state_id": "29132dd9-e3e6-4461-b5b0-0a28be7c3665"
  },
  {
    "id": "e7e5b098-0e75-45be-9bc0-4c2317b151a3",
    "name": "Lacu Sărat",
    "state_id": "29132dd9-e3e6-4461-b5b0-0a28be7c3665"
  },
  {
    "id": "48faca0e-6a60-4bf2-b9ae-28422ccba7b3",
    "name": "Lanurile",
    "state_id": "29132dd9-e3e6-4461-b5b0-0a28be7c3665"
  },
  {
    "id": "92e1510e-9127-411e-b9ad-1b095d6aa332",
    "name": "Măraşu",
    "state_id": "29132dd9-e3e6-4461-b5b0-0a28be7c3665"
  },
  {
    "id": "4ad0a94d-9850-41ff-8d7b-12be6de5405c",
    "name": "Măxineni",
    "state_id": "29132dd9-e3e6-4461-b5b0-0a28be7c3665"
  },
  {
    "id": "3890cb8d-0a80-4fe8-baa6-ec3024e8aaef",
    "name": "Mihai Bravu",
    "state_id": "29132dd9-e3e6-4461-b5b0-0a28be7c3665"
  },
  {
    "id": "ce4f9417-49f5-4003-9b1d-38680814739e",
    "name": "Mircea Vodă",
    "state_id": "29132dd9-e3e6-4461-b5b0-0a28be7c3665"
  },
  {
    "id": "0dbf0c50-bbc9-4d01-adfd-4768353b0356",
    "name": "Movila Miresii",
    "state_id": "29132dd9-e3e6-4461-b5b0-0a28be7c3665"
  },
  {
    "id": "0d4381d8-f909-47cf-80e2-1e31b0d9be5e",
    "name": "Municipiul Brãila",
    "state_id": "29132dd9-e3e6-4461-b5b0-0a28be7c3665"
  },
  {
    "id": "138fcb6e-2923-49a9-bb27-532d10398de7",
    "name": "Oraş Fãurei",
    "state_id": "29132dd9-e3e6-4461-b5b0-0a28be7c3665"
  },
  {
    "id": "03c4c3d7-5b86-44db-bb24-0de680397194",
    "name": "Oraş Ianca",
    "state_id": "29132dd9-e3e6-4461-b5b0-0a28be7c3665"
  },
  {
    "id": "dcb3405f-fa85-492b-8309-45cf286b1e83",
    "name": "Oraş Însurãţei",
    "state_id": "29132dd9-e3e6-4461-b5b0-0a28be7c3665"
  },
  {
    "id": "768aed75-2691-40ab-b44f-d4a006317f40",
    "name": "Perișoru",
    "state_id": "29132dd9-e3e6-4461-b5b0-0a28be7c3665"
  },
  {
    "id": "bde61116-0ae1-4f3d-8529-71ffffdeca3f",
    "name": "Plopu",
    "state_id": "29132dd9-e3e6-4461-b5b0-0a28be7c3665"
  },
  {
    "id": "125e4dbb-e667-4b89-a608-8fc497e99309",
    "name": "Racoviţa",
    "state_id": "29132dd9-e3e6-4461-b5b0-0a28be7c3665"
  },
  {
    "id": "c63ac9fc-ad7c-4a82-bda4-c85159c7e930",
    "name": "Râmnicelu",
    "state_id": "29132dd9-e3e6-4461-b5b0-0a28be7c3665"
  },
  {
    "id": "d28e49b7-2bdb-4f10-9bc1-c271696ea04f",
    "name": "Romanu",
    "state_id": "29132dd9-e3e6-4461-b5b0-0a28be7c3665"
  },
  {
    "id": "d1b874a5-3b50-439f-8c4b-5e30c134f34e",
    "name": "Roşiori",
    "state_id": "29132dd9-e3e6-4461-b5b0-0a28be7c3665"
  },
  {
    "id": "67d3b07f-e297-4654-9ba2-598204986f40",
    "name": "Salcia Tudor",
    "state_id": "29132dd9-e3e6-4461-b5b0-0a28be7c3665"
  },
  {
    "id": "ac0d6585-5819-4446-817f-b642747a097b",
    "name": "Scorţaru Nou",
    "state_id": "29132dd9-e3e6-4461-b5b0-0a28be7c3665"
  },
  {
    "id": "b64be73a-f066-40e1-8394-f65d84557aa8",
    "name": "Scorțaru Vechi",
    "state_id": "29132dd9-e3e6-4461-b5b0-0a28be7c3665"
  },
  {
    "id": "14ff6123-ccc5-460a-8d36-c2ed37d7a001",
    "name": "Siliştea",
    "state_id": "29132dd9-e3e6-4461-b5b0-0a28be7c3665"
  },
  {
    "id": "1152fe5b-32b6-4822-83f0-bc5522e0bfe0",
    "name": "Spiru Haret",
    "state_id": "29132dd9-e3e6-4461-b5b0-0a28be7c3665"
  },
  {
    "id": "63051090-5fad-4e5f-ad51-077252d60f42",
    "name": "Stăncuţa",
    "state_id": "29132dd9-e3e6-4461-b5b0-0a28be7c3665"
  },
  {
    "id": "2a8ff1ef-b287-4944-8966-d1464632d2a8",
    "name": "Surdila-Găiseanca",
    "state_id": "29132dd9-e3e6-4461-b5b0-0a28be7c3665"
  },
  {
    "id": "0dc3047b-8550-42db-bceb-c87b7b245c08",
    "name": "Surdila-Greci",
    "state_id": "29132dd9-e3e6-4461-b5b0-0a28be7c3665"
  },
  {
    "id": "c21271dc-615b-4bc0-9945-8e0b04d3f912",
    "name": "Şuţeşti",
    "state_id": "29132dd9-e3e6-4461-b5b0-0a28be7c3665"
  },
  {
    "id": "77b70c4c-b262-4d6d-a761-aa2d9a240ec0",
    "name": "Tătaru",
    "state_id": "29132dd9-e3e6-4461-b5b0-0a28be7c3665"
  },
  {
    "id": "fa0209a3-2cd4-4cd9-b8e2-60068a22a204",
    "name": "Tichileşti",
    "state_id": "29132dd9-e3e6-4461-b5b0-0a28be7c3665"
  },
  {
    "id": "bd17af9d-5090-4e0b-8f79-031638d6b296",
    "name": "Traian",
    "state_id": "29132dd9-e3e6-4461-b5b0-0a28be7c3665"
  },
  {
    "id": "88e38ac6-bc25-44f5-a105-04c21c495fd3",
    "name": "Tudor Vladimirescu",
    "state_id": "29132dd9-e3e6-4461-b5b0-0a28be7c3665"
  },
  {
    "id": "65556093-76fb-4797-90d5-a10dd7043709",
    "name": "Tufeşti",
    "state_id": "29132dd9-e3e6-4461-b5b0-0a28be7c3665"
  },
  {
    "id": "25140425-997a-4317-91e0-71a86cb007b4",
    "name": "Ulmu",
    "state_id": "29132dd9-e3e6-4461-b5b0-0a28be7c3665"
  },
  {
    "id": "af03beeb-b04f-4041-86be-eb3c2b096629",
    "name": "Unirea",
    "state_id": "29132dd9-e3e6-4461-b5b0-0a28be7c3665"
  },
  {
    "id": "ee7bc959-35e3-49bb-8fbc-c43537eed070",
    "name": "Urleasca",
    "state_id": "29132dd9-e3e6-4461-b5b0-0a28be7c3665"
  },
  {
    "id": "f24ce4b5-510e-4546-a5a9-a3388ba1bc11",
    "name": "Vădeni",
    "state_id": "29132dd9-e3e6-4461-b5b0-0a28be7c3665"
  },
  {
    "id": "37eaf046-160c-4e97-ad28-ea84e99f3e59",
    "name": "Valea Cânepii",
    "state_id": "29132dd9-e3e6-4461-b5b0-0a28be7c3665"
  },
  {
    "id": "1970711c-f30c-43ec-a5fb-8b9d680e33ec",
    "name": "Victoria",
    "state_id": "29132dd9-e3e6-4461-b5b0-0a28be7c3665"
  },
  {
    "id": "159b8bf2-7ba6-4e93-b2c5-bbec9adecc51",
    "name": "Vişani",
    "state_id": "29132dd9-e3e6-4461-b5b0-0a28be7c3665"
  },
  {
    "id": "05b0332d-a34c-47f5-b602-e035d2cf790b",
    "name": "Viziru",
    "state_id": "29132dd9-e3e6-4461-b5b0-0a28be7c3665"
  },
  {
    "id": "3d262288-8161-4f6c-96f9-4fba601eca5c",
    "name": "Zăvoaia",
    "state_id": "29132dd9-e3e6-4461-b5b0-0a28be7c3665"
  }
]