[
  {
    "id": "fae83f87-1907-41c8-bad1-5de9b4c114f5",
    "name": "Auvernier",
    "state_id": "297b7964-029a-4752-9f21-6b4bd6794ed0"
  },
  {
    "id": "9a4824b1-2ce4-4e5e-ab18-e09c17c676b4",
    "name": "Bevaix",
    "state_id": "297b7964-029a-4752-9f21-6b4bd6794ed0"
  },
  {
    "id": "2b01a475-ccfe-45cf-b7e2-1191f059f33a",
    "name": "Boudry",
    "state_id": "297b7964-029a-4752-9f21-6b4bd6794ed0"
  },
  {
    "id": "dd0bac49-26e1-46f5-bd31-75e67feeba1a",
    "name": "Boudry District",
    "state_id": "297b7964-029a-4752-9f21-6b4bd6794ed0"
  },
  {
    "id": "993e1a0d-a484-47cc-bc37-a805b4d42e39",
    "name": "Cernier",
    "state_id": "297b7964-029a-4752-9f21-6b4bd6794ed0"
  },
  {
    "id": "f8ca8cd2-6b1b-484e-85eb-b733413fb59b",
    "name": "Chézard-Saint-Martin",
    "state_id": "297b7964-029a-4752-9f21-6b4bd6794ed0"
  },
  {
    "id": "cb8465d7-5b7f-4f8b-803b-2287210259e1",
    "name": "Cornaux",
    "state_id": "297b7964-029a-4752-9f21-6b4bd6794ed0"
  },
  {
    "id": "63aaf8f9-d3cf-4748-a63c-6c2c52ac6c2d",
    "name": "Cortaillod",
    "state_id": "297b7964-029a-4752-9f21-6b4bd6794ed0"
  },
  {
    "id": "eb48ea35-ff50-4ca7-9031-f4811b07899f",
    "name": "Couvet",
    "state_id": "297b7964-029a-4752-9f21-6b4bd6794ed0"
  },
  {
    "id": "f0b7976f-4bef-4b10-8f55-e77d5eb6b8ba",
    "name": "Dombresson",
    "state_id": "297b7964-029a-4752-9f21-6b4bd6794ed0"
  },
  {
    "id": "6a10fb1f-2f2b-4282-927b-3469381239ad",
    "name": "Fleurier",
    "state_id": "297b7964-029a-4752-9f21-6b4bd6794ed0"
  },
  {
    "id": "37d33705-84cf-4695-bc58-efb4c0aea7ba",
    "name": "Fontainemelon",
    "state_id": "297b7964-029a-4752-9f21-6b4bd6794ed0"
  },
  {
    "id": "0827386d-d21c-41ff-aaf3-7e52f2d7e5ba",
    "name": "Gorgier",
    "state_id": "297b7964-029a-4752-9f21-6b4bd6794ed0"
  },
  {
    "id": "96414f4f-207e-4d11-8bd7-8bdf5d56c989",
    "name": "Grand-Savagnier",
    "state_id": "297b7964-029a-4752-9f21-6b4bd6794ed0"
  },
  {
    "id": "c58c8821-d57a-464e-8753-b5c8c6866ff6",
    "name": "La Chaux-de-Fonds",
    "state_id": "297b7964-029a-4752-9f21-6b4bd6794ed0"
  },
  {
    "id": "dd3e6dfb-ab3b-49b5-a511-bc26f8f188c8",
    "name": "La Chaux-de-Fonds District",
    "state_id": "297b7964-029a-4752-9f21-6b4bd6794ed0"
  },
  {
    "id": "ed9fb334-740c-4fc8-8eb8-3763f06075b6",
    "name": "Le Landeron",
    "state_id": "297b7964-029a-4752-9f21-6b4bd6794ed0"
  },
  {
    "id": "e347998f-ad04-427a-9ab0-f613b37398ed",
    "name": "Le Locle",
    "state_id": "297b7964-029a-4752-9f21-6b4bd6794ed0"
  },
  {
    "id": "f0ff7729-a5da-4d0f-8615-57de43093223",
    "name": "Le Locle District",
    "state_id": "297b7964-029a-4752-9f21-6b4bd6794ed0"
  },
  {
    "id": "a9d7acb0-7d4f-42ca-82ca-99362f32a19b",
    "name": "Les Brenets",
    "state_id": "297b7964-029a-4752-9f21-6b4bd6794ed0"
  },
  {
    "id": "da999570-856f-4884-9a7a-f62feca2dcb3",
    "name": "Les Geneveys-sur-Coffrane",
    "state_id": "297b7964-029a-4752-9f21-6b4bd6794ed0"
  },
  {
    "id": "f1417e06-bee6-4ced-b81e-a36ed0c77b14",
    "name": "Les Ponts-de-Martel",
    "state_id": "297b7964-029a-4752-9f21-6b4bd6794ed0"
  },
  {
    "id": "1a389cb1-bd9a-4f7e-ba40-9af473df1fa0",
    "name": "Marin-Epagnier",
    "state_id": "297b7964-029a-4752-9f21-6b4bd6794ed0"
  },
  {
    "id": "7a9996ab-4a94-4ec9-ada4-8abcd473b85f",
    "name": "Neuchâtel",
    "state_id": "297b7964-029a-4752-9f21-6b4bd6794ed0"
  },
  {
    "id": "1617fccc-3b55-4018-b453-f4f8c16f28f0",
    "name": "Neuchâtel District",
    "state_id": "297b7964-029a-4752-9f21-6b4bd6794ed0"
  },
  {
    "id": "c0307dd2-9f6f-4872-a041-c8be679d0903",
    "name": "Peseux",
    "state_id": "297b7964-029a-4752-9f21-6b4bd6794ed0"
  },
  {
    "id": "55d148df-6b57-48c9-b2a8-d2327a0d0d19",
    "name": "Saint-Aubin-Sauges",
    "state_id": "297b7964-029a-4752-9f21-6b4bd6794ed0"
  },
  {
    "id": "cf0b381d-8cd1-4402-a2b7-fd5b74c6fbf1",
    "name": "Saint-Blaise",
    "state_id": "297b7964-029a-4752-9f21-6b4bd6794ed0"
  },
  {
    "id": "accbab1c-a89f-471a-a545-acce871df3ff",
    "name": "Travers",
    "state_id": "297b7964-029a-4752-9f21-6b4bd6794ed0"
  },
  {
    "id": "0cb2f41f-ecb7-451d-93bd-1237337a6c4d",
    "name": "Val-de-Ruz District",
    "state_id": "297b7964-029a-4752-9f21-6b4bd6794ed0"
  },
  {
    "id": "6379ca82-80a0-4661-8226-17acaeb1526b",
    "name": "Val-de-Travers District",
    "state_id": "297b7964-029a-4752-9f21-6b4bd6794ed0"
  }
]