[
  {
    "id": "2a5f1a2b-286c-4433-8469-69d573f7ff2b",
    "name": "Chalatenango",
    "state_id": "29984b3f-b40b-4307-9131-b691784c8438"
  },
  {
    "id": "c46d2fe3-20f5-46bd-bdf7-2662465e7182",
    "name": "Nueva Concepción",
    "state_id": "29984b3f-b40b-4307-9131-b691784c8438"
  }
]