[
  {
    "id": "d5f7c87d-e6b3-4ee0-bc1f-eda5812e754b",
    "name": "‘En Boqeq",
    "state_id": "29a367f5-a840-40f8-bdcf-12e7ede61fe8"
  },
  {
    "id": "a08e19fc-3c07-4bb8-991b-c7f7f62e65a9",
    "name": "Arad",
    "state_id": "29a367f5-a840-40f8-bdcf-12e7ede61fe8"
  },
  {
    "id": "dfbaefc9-b465-4b3f-980b-31b3b26f5df1",
    "name": "Ashdod",
    "state_id": "29a367f5-a840-40f8-bdcf-12e7ede61fe8"
  },
  {
    "id": "11e1b7b5-6614-400f-a64e-5138cb3f7f6c",
    "name": "Ashkelon",
    "state_id": "29a367f5-a840-40f8-bdcf-12e7ede61fe8"
  },
  {
    "id": "60b881f0-6bd5-4c2f-87ce-92261429f654",
    "name": "Beersheba",
    "state_id": "29a367f5-a840-40f8-bdcf-12e7ede61fe8"
  },
  {
    "id": "50089f5f-1d00-4033-9356-42209c631098",
    "name": "Dimona",
    "state_id": "29a367f5-a840-40f8-bdcf-12e7ede61fe8"
  },
  {
    "id": "17d027bb-b2aa-4fdd-9c9d-291042b041cf",
    "name": "Eilat",
    "state_id": "29a367f5-a840-40f8-bdcf-12e7ede61fe8"
  },
  {
    "id": "97ce8321-befa-40af-97d3-5d4f4ec3a0c3",
    "name": "Lehavim",
    "state_id": "29a367f5-a840-40f8-bdcf-12e7ede61fe8"
  },
  {
    "id": "36bb5a59-963a-4cb6-90b5-f754f64a6809",
    "name": "Midreshet Ben-Gurion",
    "state_id": "29a367f5-a840-40f8-bdcf-12e7ede61fe8"
  },
  {
    "id": "fd67ba7d-1a07-4342-9e54-7c0427e7c024",
    "name": "Mitzpe Ramon",
    "state_id": "29a367f5-a840-40f8-bdcf-12e7ede61fe8"
  },
  {
    "id": "2eb4d74f-cc57-4d6f-84a8-b4bd23dcbbe1",
    "name": "Netivot",
    "state_id": "29a367f5-a840-40f8-bdcf-12e7ede61fe8"
  },
  {
    "id": "bcf0d072-3cf8-4da7-b046-a70a8ee0bce2",
    "name": "Ofaqim",
    "state_id": "29a367f5-a840-40f8-bdcf-12e7ede61fe8"
  },
  {
    "id": "20bab57d-ad19-4b36-9d61-15e12bb8c191",
    "name": "Qiryat Gat",
    "state_id": "29a367f5-a840-40f8-bdcf-12e7ede61fe8"
  },
  {
    "id": "246b3923-9d1f-4933-bdba-e752dbe404a9",
    "name": "Rahat",
    "state_id": "29a367f5-a840-40f8-bdcf-12e7ede61fe8"
  },
  {
    "id": "3a76b739-409a-4f57-82e0-e2a21307cfd2",
    "name": "Sederot",
    "state_id": "29a367f5-a840-40f8-bdcf-12e7ede61fe8"
  },
  {
    "id": "af92e5cc-c7b9-474c-b411-bc8596d39627",
    "name": "Yeroẖam",
    "state_id": "29a367f5-a840-40f8-bdcf-12e7ede61fe8"
  }
]