[
  {
    "id": "2f797685-b850-4723-b571-73b98cd0fea6",
    "name": "Caripito",
    "state_id": "29b266bc-d359-4b92-9dca-c87657c1b201"
  },
  {
    "id": "88baccf9-8d05-4861-a34e-31d97603c19d",
    "name": "Maturín",
    "state_id": "29b266bc-d359-4b92-9dca-c87657c1b201"
  },
  {
    "id": "403ee763-6d49-4d02-9eae-f08681ad0890",
    "name": "Municipio Maturín",
    "state_id": "29b266bc-d359-4b92-9dca-c87657c1b201"
  },
  {
    "id": "0ccb92dd-4e82-4100-b042-32efe2e420ed",
    "name": "Municipio Uracoa",
    "state_id": "29b266bc-d359-4b92-9dca-c87657c1b201"
  }
]