[
  {
    "id": "1d1f281c-c1db-4850-8108-72d0231bb7a0",
    "name": "`Ajmiyah",
    "state_id": "29b766e5-3e82-4320-81bf-783d491d7337"
  },
  {
    "id": "be445369-767a-4904-b117-357e98195279",
    "name": "`Alya'",
    "state_id": "29b766e5-3e82-4320-81bf-783d491d7337"
  },
  {
    "id": "e8a582e2-cacc-46c5-a2e6-6a8b66724888",
    "name": "`Ushash",
    "state_id": "29b766e5-3e82-4320-81bf-783d491d7337"
  },
  {
    "id": "a47fb71f-ac19-4a0c-ba82-8529ccb4ad9f",
    "name": "`Ushayrah",
    "state_id": "29b766e5-3e82-4320-81bf-783d491d7337"
  },
  {
    "id": "51f77637-45f2-492a-8e8d-51723494b9b8",
    "name": "Abu Dhiba",
    "state_id": "29b766e5-3e82-4320-81bf-783d491d7337"
  },
  {
    "id": "f968839a-a3e2-490a-b1be-5519326badf8",
    "name": "Abū Shayţānah",
    "state_id": "29b766e5-3e82-4320-81bf-783d491d7337"
  },
  {
    "id": "3360569e-4a51-48d9-b0b7-b339c18d405b",
    "name": "Abyar 'Ali",
    "state_id": "29b766e5-3e82-4320-81bf-783d491d7337"
  },
  {
    "id": "1b46e50d-fe69-41c0-82f2-1706f810aa87",
    "name": "Ad Dulu`",
    "state_id": "29b766e5-3e82-4320-81bf-783d491d7337"
  },
  {
    "id": "f78b0f73-e2f1-4a9f-b097-ee5abd38d969",
    "name": "Al `Awali",
    "state_id": "29b766e5-3e82-4320-81bf-783d491d7337"
  },
  {
    "id": "42126eab-655b-49a2-8c6a-61aeff72c1fb",
    "name": "Al `Uqul",
    "state_id": "29b766e5-3e82-4320-81bf-783d491d7337"
  },
  {
    "id": "765094ca-4548-4a84-bd12-ab87e9e85522",
    "name": "Al Akhal",
    "state_id": "29b766e5-3e82-4320-81bf-783d491d7337"
  },
  {
    "id": "bacc6a06-17ce-4f78-9ece-ade4e6c3efee",
    "name": "Al Bardiyah",
    "state_id": "29b766e5-3e82-4320-81bf-783d491d7337"
  },
  {
    "id": "21e32f78-4050-4d04-a79d-6dab2f8404bd",
    "name": "Al Biqa'",
    "state_id": "29b766e5-3e82-4320-81bf-783d491d7337"
  },
  {
    "id": "df467e41-bc17-4a56-a6b5-73c7721e80d7",
    "name": "Al Bustan",
    "state_id": "29b766e5-3e82-4320-81bf-783d491d7337"
  },
  {
    "id": "09d7e2db-3901-44cd-94bd-858ab92fb70e",
    "name": "Al Faqirah",
    "state_id": "29b766e5-3e82-4320-81bf-783d491d7337"
  },
  {
    "id": "d8238d65-5a21-46ea-af2d-f2897851685a",
    "name": "Al Furaysh",
    "state_id": "29b766e5-3e82-4320-81bf-783d491d7337"
  },
  {
    "id": "7997eb9f-f540-437c-816d-26eecc7fae76",
    "name": "Al Fuwayliq",
    "state_id": "29b766e5-3e82-4320-81bf-783d491d7337"
  },
  {
    "id": "409228a8-1ec6-4ffa-85fc-90ffca1a50d1",
    "name": "Al Jabriyah",
    "state_id": "29b766e5-3e82-4320-81bf-783d491d7337"
  },
  {
    "id": "297c22a3-6974-41bc-b89f-d4bd40f64fd9",
    "name": "Al Jissah",
    "state_id": "29b766e5-3e82-4320-81bf-783d491d7337"
  },
  {
    "id": "889b45de-db49-4e1c-be6e-439f44ae9a99",
    "name": "Al Kharma'",
    "state_id": "29b766e5-3e82-4320-81bf-783d491d7337"
  },
  {
    "id": "e026e92b-226b-49af-a228-f9a83bf6c387",
    "name": "Al Madiq, Al Madinah",
    "state_id": "29b766e5-3e82-4320-81bf-783d491d7337"
  },
  {
    "id": "d904314c-c305-494c-b008-42ae9401c13a",
    "name": "Al Malbanah",
    "state_id": "29b766e5-3e82-4320-81bf-783d491d7337"
  },
  {
    "id": "9426b7e5-4039-4afd-ae77-61e4936e482b",
    "name": "Al Mufrihat",
    "state_id": "29b766e5-3e82-4320-81bf-783d491d7337"
  },
  {
    "id": "ae0547d7-9849-4b28-b9e3-24252c1c8132",
    "name": "Al Multasa",
    "state_id": "29b766e5-3e82-4320-81bf-783d491d7337"
  },
  {
    "id": "a411bcd5-3792-456e-be0e-c7a6dd53c361",
    "name": "Al Musayjid",
    "state_id": "29b766e5-3e82-4320-81bf-783d491d7337"
  },
  {
    "id": "4b5a4347-ebfd-4b8f-a993-891126809fed",
    "name": "Al Thybiyah",
    "state_id": "29b766e5-3e82-4320-81bf-783d491d7337"
  },
  {
    "id": "733f3905-8833-4db5-9d9e-abbb01a16d19",
    "name": "Al Wuday",
    "state_id": "29b766e5-3e82-4320-81bf-783d491d7337"
  },
  {
    "id": "efb2eafd-2307-4720-b709-5300dd0f01c1",
    "name": "Al-Jafr",
    "state_id": "29b766e5-3e82-4320-81bf-783d491d7337"
  },
  {
    "id": "23c1a4e2-edef-43c2-8b5a-3225a63e7ec0",
    "name": "Al-Ula",
    "state_id": "29b766e5-3e82-4320-81bf-783d491d7337"
  },
  {
    "id": "37a9cb30-c6f1-4de5-bde6-acbd61621ec2",
    "name": "Ar Rass",
    "state_id": "29b766e5-3e82-4320-81bf-783d491d7337"
  },
  {
    "id": "f610bde1-e735-43cd-982a-05701f6b0f17",
    "name": "As Sadayir",
    "state_id": "29b766e5-3e82-4320-81bf-783d491d7337"
  },
  {
    "id": "bd3260b9-7daa-4ecb-a240-8daed070030a",
    "name": "As Safra'",
    "state_id": "29b766e5-3e82-4320-81bf-783d491d7337"
  },
  {
    "id": "3ba3d790-a868-460c-bef8-b63ac4c260c3",
    "name": "As Sumariyah",
    "state_id": "29b766e5-3e82-4320-81bf-783d491d7337"
  },
  {
    "id": "3d5c2cb9-1d25-4af0-8514-a2230d8ac26a",
    "name": "As Suwayriqiyah",
    "state_id": "29b766e5-3e82-4320-81bf-783d491d7337"
  },
  {
    "id": "c08caa79-8246-4370-8be6-2aeedef08aaf",
    "name": "Ash Shufayyah",
    "state_id": "29b766e5-3e82-4320-81bf-783d491d7337"
  },
  {
    "id": "584078b2-b823-42af-95e1-9f0ee7d8d6c8",
    "name": "Asira",
    "state_id": "29b766e5-3e82-4320-81bf-783d491d7337"
  },
  {
    "id": "c1ffce2d-0960-4641-8b27-ea984c66ad12",
    "name": "Badr Ḩunayn",
    "state_id": "29b766e5-3e82-4320-81bf-783d491d7337"
  },
  {
    "id": "d9845940-cd41-49a7-a155-2e01b2f1844d",
    "name": "Baq`a'",
    "state_id": "29b766e5-3e82-4320-81bf-783d491d7337"
  },
  {
    "id": "bd090c0f-6a7f-4fc6-ab79-6c92abf1f471",
    "name": "Bartiyah",
    "state_id": "29b766e5-3e82-4320-81bf-783d491d7337"
  },
  {
    "id": "01538d7d-9250-4a9c-988c-c37cae58088a",
    "name": "Bi'r al Mashi",
    "state_id": "29b766e5-3e82-4320-81bf-783d491d7337"
  },
  {
    "id": "58040a86-0312-46d8-8f3c-80115cf4d1fc",
    "name": "Birkah",
    "state_id": "29b766e5-3e82-4320-81bf-783d491d7337"
  },
  {
    "id": "3504b7f4-75e2-4692-a61d-505b8a5e5c6f",
    "name": "Buraidah",
    "state_id": "29b766e5-3e82-4320-81bf-783d491d7337"
  },
  {
    "id": "9384229b-4ee9-4321-94a2-e30b6ff54dc4",
    "name": "Dukhnah",
    "state_id": "29b766e5-3e82-4320-81bf-783d491d7337"
  },
  {
    "id": "dd2f5225-a709-49a9-8c15-cbe5665ea06d",
    "name": "Far`",
    "state_id": "29b766e5-3e82-4320-81bf-783d491d7337"
  },
  {
    "id": "09c118a8-1bbe-4391-a640-278b21d47fb4",
    "name": "Fiji",
    "state_id": "29b766e5-3e82-4320-81bf-783d491d7337"
  },
  {
    "id": "12086169-62ef-4179-8999-3a467d6a23ff",
    "name": "Harthiyah",
    "state_id": "29b766e5-3e82-4320-81bf-783d491d7337"
  },
  {
    "id": "75c56370-3034-44ad-adae-d16c7d3b839f",
    "name": "Hasa, Al Madinah",
    "state_id": "29b766e5-3e82-4320-81bf-783d491d7337"
  },
  {
    "id": "f44bf7c8-8d23-4b10-9d89-3c4837356ee0",
    "name": "Haylat Radi al Baham",
    "state_id": "29b766e5-3e82-4320-81bf-783d491d7337"
  },
  {
    "id": "1c462a2b-2a1d-40a9-a5e6-7d52a52a4e01",
    "name": "Husayniyah",
    "state_id": "29b766e5-3e82-4320-81bf-783d491d7337"
  },
  {
    "id": "a00c46d5-f569-490d-9c93-8db0599ddc7a",
    "name": "Jadidah",
    "state_id": "29b766e5-3e82-4320-81bf-783d491d7337"
  },
  {
    "id": "0fc0bd1f-d124-423a-952c-3090e10b8f5c",
    "name": "Khayf Fadil",
    "state_id": "29b766e5-3e82-4320-81bf-783d491d7337"
  },
  {
    "id": "b544084c-0f08-4b96-a2f5-af589345721d",
    "name": "Madsus",
    "state_id": "29b766e5-3e82-4320-81bf-783d491d7337"
  },
  {
    "id": "600799fb-a46a-4dd7-b9dc-b24d43da787f",
    "name": "Mahattat al Hafah",
    "state_id": "29b766e5-3e82-4320-81bf-783d491d7337"
  },
  {
    "id": "148c1626-189a-4476-a52b-374f6e467ce1",
    "name": "Maqrah",
    "state_id": "29b766e5-3e82-4320-81bf-783d491d7337"
  },
  {
    "id": "71ce3c37-8621-4e50-9bc2-38798d735e3c",
    "name": "Maqshush",
    "state_id": "29b766e5-3e82-4320-81bf-783d491d7337"
  },
  {
    "id": "33e704c3-149b-4eda-8fc3-0c4be7d4e8ff",
    "name": "Masahili",
    "state_id": "29b766e5-3e82-4320-81bf-783d491d7337"
  },
  {
    "id": "59911ca6-1c82-4c1b-8edc-560b67d044df",
    "name": "Mastoorah",
    "state_id": "29b766e5-3e82-4320-81bf-783d491d7337"
  },
  {
    "id": "f6439e18-87a3-4268-b9c5-b9a52c41be84",
    "name": "Mawarah",
    "state_id": "29b766e5-3e82-4320-81bf-783d491d7337"
  },
  {
    "id": "239f7086-2060-4e59-bfb7-177afec29570",
    "name": "Medina",
    "state_id": "29b766e5-3e82-4320-81bf-783d491d7337"
  },
  {
    "id": "cf26436b-431a-4df6-9678-c28ae85a79d3",
    "name": "Milhah",
    "state_id": "29b766e5-3e82-4320-81bf-783d491d7337"
  },
  {
    "id": "f4e76b90-900f-4385-8081-1f5c73fb53df",
    "name": "Nujayl",
    "state_id": "29b766e5-3e82-4320-81bf-783d491d7337"
  },
  {
    "id": "5df6121d-13d9-436b-b95c-171d8f93752f",
    "name": "Qaba'",
    "state_id": "29b766e5-3e82-4320-81bf-783d491d7337"
  },
  {
    "id": "39acc3be-c423-463e-a968-0776dc6a2379",
    "name": "Qiba",
    "state_id": "29b766e5-3e82-4320-81bf-783d491d7337"
  },
  {
    "id": "a80ee40b-9a54-4da4-bd0a-103d7519d834",
    "name": "Rayyis",
    "state_id": "29b766e5-3e82-4320-81bf-783d491d7337"
  },
  {
    "id": "ce68f19c-1700-48f3-81f4-d2ad805bce86",
    "name": "Sha`tha'",
    "state_id": "29b766e5-3e82-4320-81bf-783d491d7337"
  },
  {
    "id": "ab013fbf-29be-43f4-af5e-66a8a87b1106",
    "name": "Sidi Hamzah",
    "state_id": "29b766e5-3e82-4320-81bf-783d491d7337"
  },
  {
    "id": "222cf135-da6e-4e82-9c8e-761586ee366f",
    "name": "Sulţānah",
    "state_id": "29b766e5-3e82-4320-81bf-783d491d7337"
  },
  {
    "id": "5b2cac4e-a040-4928-94f4-db36e3bd7311",
    "name": "Suq Suwayq",
    "state_id": "29b766e5-3e82-4320-81bf-783d491d7337"
  },
  {
    "id": "d4f43467-2a80-4bdd-9015-514908b0c28f",
    "name": "Suqubiya",
    "state_id": "29b766e5-3e82-4320-81bf-783d491d7337"
  },
  {
    "id": "eeb3be99-9760-4d4f-9b40-dfdc7c45927b",
    "name": "Suwadah",
    "state_id": "29b766e5-3e82-4320-81bf-783d491d7337"
  },
  {
    "id": "59e8729c-78dc-462a-adef-e986135337c3",
    "name": "Tanūmah",
    "state_id": "29b766e5-3e82-4320-81bf-783d491d7337"
  },
  {
    "id": "72349fa6-8640-4f56-a9a6-704a11fc36e3",
    "name": "Wasitah",
    "state_id": "29b766e5-3e82-4320-81bf-783d491d7337"
  },
  {
    "id": "ed15ac7c-c03e-4d28-89d6-e4e4916e9f54",
    "name": "Yanbu",
    "state_id": "29b766e5-3e82-4320-81bf-783d491d7337"
  }
]