[
  {
    "id": "cea09f43-5ba5-48bc-a88b-09d46442bddb",
    "name": "Bezhanitsy",
    "state_id": "2a06aac1-6714-4fa0-8ca3-7ed1650697bb"
  },
  {
    "id": "c3b41516-f075-48f8-b047-713f2de6e572",
    "name": "Dedovichi",
    "state_id": "2a06aac1-6714-4fa0-8ca3-7ed1650697bb"
  },
  {
    "id": "48776dcb-7ce1-4982-aff9-cda95fd29f98",
    "name": "Dno",
    "state_id": "2a06aac1-6714-4fa0-8ca3-7ed1650697bb"
  },
  {
    "id": "9ab4e3fe-c332-474f-b504-cb569d729359",
    "name": "Gdov",
    "state_id": "2a06aac1-6714-4fa0-8ca3-7ed1650697bb"
  },
  {
    "id": "c391ed6b-7c0a-4ae5-a9da-ab1f5151083c",
    "name": "Gdovskiy Rayon",
    "state_id": "2a06aac1-6714-4fa0-8ca3-7ed1650697bb"
  },
  {
    "id": "9f68dbc4-81da-49a0-8d29-b1777c869e01",
    "name": "Idritsa",
    "state_id": "2a06aac1-6714-4fa0-8ca3-7ed1650697bb"
  },
  {
    "id": "d31efd94-de79-4051-8cd5-d5b50d421a3a",
    "name": "Izborsk",
    "state_id": "2a06aac1-6714-4fa0-8ca3-7ed1650697bb"
  },
  {
    "id": "a5a9e576-a956-4fac-9e7e-4e109e66bb51",
    "name": "Krasnogorodsk",
    "state_id": "2a06aac1-6714-4fa0-8ca3-7ed1650697bb"
  },
  {
    "id": "70c0671a-5647-47cb-8cc8-89f33e7521df",
    "name": "Krasnyy Luch",
    "state_id": "2a06aac1-6714-4fa0-8ca3-7ed1650697bb"
  },
  {
    "id": "e3327ddb-1ab9-461c-8929-ac4cad6992f9",
    "name": "Kun’inskiy Rayon",
    "state_id": "2a06aac1-6714-4fa0-8ca3-7ed1650697bb"
  },
  {
    "id": "50fe5162-9290-4505-abc4-b7f36ea2e449",
    "name": "Loknya",
    "state_id": "2a06aac1-6714-4fa0-8ca3-7ed1650697bb"
  },
  {
    "id": "55b1af4a-f529-42e7-9dbd-59300b8cc5c2",
    "name": "Nevel’",
    "state_id": "2a06aac1-6714-4fa0-8ca3-7ed1650697bb"
  },
  {
    "id": "98de82b4-9f2e-46c4-8f3d-01cb67565e9f",
    "name": "Novorzhev",
    "state_id": "2a06aac1-6714-4fa0-8ca3-7ed1650697bb"
  },
  {
    "id": "0b307ee2-8aa2-4ea6-b951-2db26e0e9af9",
    "name": "Novorzhevskiy Rayon",
    "state_id": "2a06aac1-6714-4fa0-8ca3-7ed1650697bb"
  },
  {
    "id": "b4fece2b-27d5-4688-b732-02656eb56288",
    "name": "Novosokol’nicheskiy Rayon",
    "state_id": "2a06aac1-6714-4fa0-8ca3-7ed1650697bb"
  },
  {
    "id": "87edbf83-b1bf-4c95-a87a-70e2bb19dc1f",
    "name": "Novosokol’niki",
    "state_id": "2a06aac1-6714-4fa0-8ca3-7ed1650697bb"
  },
  {
    "id": "c1456f42-1386-475d-b582-6c593dfae274",
    "name": "Novyy Izborsk",
    "state_id": "2a06aac1-6714-4fa0-8ca3-7ed1650697bb"
  },
  {
    "id": "29b5ce08-8316-443f-9e0e-4c945c9024cf",
    "name": "Opochka",
    "state_id": "2a06aac1-6714-4fa0-8ca3-7ed1650697bb"
  },
  {
    "id": "f640a412-3eba-48a7-9c16-d3954657fdc4",
    "name": "Ostrov",
    "state_id": "2a06aac1-6714-4fa0-8ca3-7ed1650697bb"
  },
  {
    "id": "b8df8d87-ceca-4a36-9c39-f73503f3ba4b",
    "name": "Ostrovskiy Rayon",
    "state_id": "2a06aac1-6714-4fa0-8ca3-7ed1650697bb"
  },
  {
    "id": "38e85d0e-ac71-4ba8-ad93-3d4678ea5b30",
    "name": "Palkino",
    "state_id": "2a06aac1-6714-4fa0-8ca3-7ed1650697bb"
  },
  {
    "id": "851cd07c-d312-423b-b4eb-6dfd0bdb6d7e",
    "name": "Palkinskiy Rayon",
    "state_id": "2a06aac1-6714-4fa0-8ca3-7ed1650697bb"
  },
  {
    "id": "f7032762-cadd-4c49-8c1d-b07a51fe5863",
    "name": "Pechorskiy Rayon",
    "state_id": "2a06aac1-6714-4fa0-8ca3-7ed1650697bb"
  },
  {
    "id": "cdf9fe5f-5bff-4d68-98e2-07356c461a07",
    "name": "Pechory",
    "state_id": "2a06aac1-6714-4fa0-8ca3-7ed1650697bb"
  },
  {
    "id": "4952dcd7-4c7e-465c-82b4-a46c58de1521",
    "name": "Plyussa",
    "state_id": "2a06aac1-6714-4fa0-8ca3-7ed1650697bb"
  },
  {
    "id": "dc8b9fbc-9a0e-46c8-bebd-e42a562c3269",
    "name": "Porkhov",
    "state_id": "2a06aac1-6714-4fa0-8ca3-7ed1650697bb"
  },
  {
    "id": "4c8be47c-60bc-4f9a-b7a3-fbdcd8491592",
    "name": "Porkhovskiy Rayon",
    "state_id": "2a06aac1-6714-4fa0-8ca3-7ed1650697bb"
  },
  {
    "id": "9536e605-82b6-4eeb-ad07-5c695d725684",
    "name": "Pskov",
    "state_id": "2a06aac1-6714-4fa0-8ca3-7ed1650697bb"
  },
  {
    "id": "66fc5f45-229e-4eda-b45f-36c5b6616316",
    "name": "Pskovskiy Rayon",
    "state_id": "2a06aac1-6714-4fa0-8ca3-7ed1650697bb"
  },
  {
    "id": "bbb0747f-5c74-4f0b-8781-3b145c0715ff",
    "name": "Pushkino-Gorskiy Rayon",
    "state_id": "2a06aac1-6714-4fa0-8ca3-7ed1650697bb"
  },
  {
    "id": "eb581716-51d2-4e66-a077-3c241db9d10b",
    "name": "Pushkinskiye Gory",
    "state_id": "2a06aac1-6714-4fa0-8ca3-7ed1650697bb"
  },
  {
    "id": "31821dfb-8852-4dbd-858e-31b07926acf6",
    "name": "Pustoshka",
    "state_id": "2a06aac1-6714-4fa0-8ca3-7ed1650697bb"
  },
  {
    "id": "9ff8c41e-a7e6-442d-8df1-6b73e6fb7b8a",
    "name": "Pustoshkinskiy Rayon",
    "state_id": "2a06aac1-6714-4fa0-8ca3-7ed1650697bb"
  },
  {
    "id": "5c06c983-e4a2-45a7-8e4f-3b6654b74cc8",
    "name": "Pytalovo",
    "state_id": "2a06aac1-6714-4fa0-8ca3-7ed1650697bb"
  },
  {
    "id": "6bd2f6ec-b03a-4af7-921b-246ff945f2a3",
    "name": "Pytalovskiy Rayon",
    "state_id": "2a06aac1-6714-4fa0-8ca3-7ed1650697bb"
  },
  {
    "id": "e694c829-09f4-4552-9c9c-2e9080ff723a",
    "name": "Sebezh",
    "state_id": "2a06aac1-6714-4fa0-8ca3-7ed1650697bb"
  },
  {
    "id": "1f5a4f89-4e75-423d-b55c-4b50b271093e",
    "name": "Sebezhskiy Rayon",
    "state_id": "2a06aac1-6714-4fa0-8ca3-7ed1650697bb"
  },
  {
    "id": "94cdb33f-d603-4192-90ee-ed17950dd94f",
    "name": "Serëdka",
    "state_id": "2a06aac1-6714-4fa0-8ca3-7ed1650697bb"
  },
  {
    "id": "823d6820-2fd6-4701-add4-141fcaa588a1",
    "name": "Strugi-Krasnyye",
    "state_id": "2a06aac1-6714-4fa0-8ca3-7ed1650697bb"
  },
  {
    "id": "b368d6dd-0710-4488-909d-2d29aec7ca86",
    "name": "Strugo-Krasnenskiy Rayon",
    "state_id": "2a06aac1-6714-4fa0-8ca3-7ed1650697bb"
  },
  {
    "id": "a9acdea7-2028-4219-9c13-86f738b54d01",
    "name": "Usvyaty",
    "state_id": "2a06aac1-6714-4fa0-8ca3-7ed1650697bb"
  },
  {
    "id": "eb958f62-0557-4155-83f5-7ac29f8909d7",
    "name": "Velikiye Luki",
    "state_id": "2a06aac1-6714-4fa0-8ca3-7ed1650697bb"
  },
  {
    "id": "00c9b44f-7a44-449e-9b8e-5768bdf1048b",
    "name": "Velikolukskiy Rayon",
    "state_id": "2a06aac1-6714-4fa0-8ca3-7ed1650697bb"
  },
  {
    "id": "dc910809-f285-401e-af84-c8bd4c100db1",
    "name": "Vybor",
    "state_id": "2a06aac1-6714-4fa0-8ca3-7ed1650697bb"
  }
]