[
  {
    "id": "3bc62f21-ae8c-45ec-b049-458065cec90f",
    "name": "Alpachiri",
    "state_id": "2a89c9a1-a14b-47da-80b8-428f81f3336e"
  },
  {
    "id": "7863249e-3c84-4a56-afc8-0d8732beb22f",
    "name": "Alta Italia",
    "state_id": "2a89c9a1-a14b-47da-80b8-428f81f3336e"
  },
  {
    "id": "d2d6b81f-1183-4b8e-9c3f-163d8e8a0b5d",
    "name": "Anguil",
    "state_id": "2a89c9a1-a14b-47da-80b8-428f81f3336e"
  },
  {
    "id": "73455ddf-d191-43db-8bd2-61c1682e76de",
    "name": "Arata",
    "state_id": "2a89c9a1-a14b-47da-80b8-428f81f3336e"
  },
  {
    "id": "1e58e14f-1482-4194-b92a-0312fd35671a",
    "name": "Bernardo Larroudé",
    "state_id": "2a89c9a1-a14b-47da-80b8-428f81f3336e"
  },
  {
    "id": "dcdede5f-c86a-4fe1-be0f-f0e7c6d99403",
    "name": "Bernasconi",
    "state_id": "2a89c9a1-a14b-47da-80b8-428f81f3336e"
  },
  {
    "id": "6b53e0c9-60be-4fcf-bae5-95369c7dbf03",
    "name": "Caleufú",
    "state_id": "2a89c9a1-a14b-47da-80b8-428f81f3336e"
  },
  {
    "id": "8b11e47a-e28a-4626-b26c-d88facffff83",
    "name": "Catriló",
    "state_id": "2a89c9a1-a14b-47da-80b8-428f81f3336e"
  },
  {
    "id": "451dc93c-b248-4fea-a2b7-b55d7785860c",
    "name": "Colonia Barón",
    "state_id": "2a89c9a1-a14b-47da-80b8-428f81f3336e"
  },
  {
    "id": "0bc09f16-b728-4d1a-b0e2-1f2aede5ce16",
    "name": "Departamento de Caleu-Caleu",
    "state_id": "2a89c9a1-a14b-47da-80b8-428f81f3336e"
  },
  {
    "id": "cd430572-c60e-42ba-a75f-c1942738720e",
    "name": "Departamento de Toay",
    "state_id": "2a89c9a1-a14b-47da-80b8-428f81f3336e"
  },
  {
    "id": "821618a7-6aaa-40e3-b3e0-1d9fb15cf70d",
    "name": "Doblas",
    "state_id": "2a89c9a1-a14b-47da-80b8-428f81f3336e"
  },
  {
    "id": "130e3e28-956d-4706-b443-d126ddbd3906",
    "name": "Eduardo Castex",
    "state_id": "2a89c9a1-a14b-47da-80b8-428f81f3336e"
  },
  {
    "id": "2ca71e3c-13c9-4491-a2a3-158bb0b9f287",
    "name": "Embajador Martini",
    "state_id": "2a89c9a1-a14b-47da-80b8-428f81f3336e"
  },
  {
    "id": "c03800ee-9435-4d25-9254-50c61ebd4ae8",
    "name": "General Acha",
    "state_id": "2a89c9a1-a14b-47da-80b8-428f81f3336e"
  },
  {
    "id": "6fc513ae-be0b-49ac-affc-a9c331fe768b",
    "name": "General Manuel J. Campos",
    "state_id": "2a89c9a1-a14b-47da-80b8-428f81f3336e"
  },
  {
    "id": "a365a2c5-cf74-48c8-bbaa-0ae0d6ca2f16",
    "name": "General Pico",
    "state_id": "2a89c9a1-a14b-47da-80b8-428f81f3336e"
  },
  {
    "id": "c890cfbc-7965-48f6-b39a-59086087d852",
    "name": "General San Martín",
    "state_id": "2a89c9a1-a14b-47da-80b8-428f81f3336e"
  },
  {
    "id": "e9b1213b-a8df-4e0c-b0d8-b332a8d70a49",
    "name": "Guatraché",
    "state_id": "2a89c9a1-a14b-47da-80b8-428f81f3336e"
  },
  {
    "id": "cfbca57b-8525-4d1a-99cf-2288d59ff091",
    "name": "Ingeniero Luiggi",
    "state_id": "2a89c9a1-a14b-47da-80b8-428f81f3336e"
  },
  {
    "id": "025b2ff2-d890-4346-80a5-f039bf9067e9",
    "name": "Intendente Alvear",
    "state_id": "2a89c9a1-a14b-47da-80b8-428f81f3336e"
  },
  {
    "id": "3190e79a-20b6-48c3-9a5a-24c5ac005890",
    "name": "Jacinto Arauz",
    "state_id": "2a89c9a1-a14b-47da-80b8-428f81f3336e"
  },
  {
    "id": "a9503480-925a-41ee-b761-6bba43f1532e",
    "name": "La Adela",
    "state_id": "2a89c9a1-a14b-47da-80b8-428f81f3336e"
  },
  {
    "id": "e6211414-6694-4ff2-9d19-c94ca37e0fd8",
    "name": "La Maruja",
    "state_id": "2a89c9a1-a14b-47da-80b8-428f81f3336e"
  },
  {
    "id": "8582f137-0796-4fc4-94ad-eb2408b93c3b",
    "name": "Lonquimay",
    "state_id": "2a89c9a1-a14b-47da-80b8-428f81f3336e"
  },
  {
    "id": "a9471483-f3f2-463a-83a8-1431ab4b4a07",
    "name": "Macachín",
    "state_id": "2a89c9a1-a14b-47da-80b8-428f81f3336e"
  },
  {
    "id": "1a3991e4-75e7-41f3-9589-63a30b07dc61",
    "name": "Miguel Riglos",
    "state_id": "2a89c9a1-a14b-47da-80b8-428f81f3336e"
  },
  {
    "id": "c056a850-d4ef-47f2-b91d-5f7805e71782",
    "name": "Parera",
    "state_id": "2a89c9a1-a14b-47da-80b8-428f81f3336e"
  },
  {
    "id": "ccdc084c-fcf7-4158-8ed1-cf3ef0ff333e",
    "name": "Quemú Quemú",
    "state_id": "2a89c9a1-a14b-47da-80b8-428f81f3336e"
  },
  {
    "id": "af0d0d3c-f601-4205-96ac-c94d39ef5fe8",
    "name": "Rancul",
    "state_id": "2a89c9a1-a14b-47da-80b8-428f81f3336e"
  },
  {
    "id": "640e398d-064e-4efb-9a69-44a1c36bb599",
    "name": "Realicó",
    "state_id": "2a89c9a1-a14b-47da-80b8-428f81f3336e"
  },
  {
    "id": "91ee8711-8102-47ce-94a0-1119352921b4",
    "name": "Santa Isabel",
    "state_id": "2a89c9a1-a14b-47da-80b8-428f81f3336e"
  },
  {
    "id": "7fd803e4-c156-4000-8d66-1458961724a9",
    "name": "Santa Rosa",
    "state_id": "2a89c9a1-a14b-47da-80b8-428f81f3336e"
  },
  {
    "id": "d4a9ea1b-b471-4deb-aed8-8edb825952a9",
    "name": "Telén",
    "state_id": "2a89c9a1-a14b-47da-80b8-428f81f3336e"
  },
  {
    "id": "73caf871-cf4c-4859-8609-dde5f5b8521e",
    "name": "Trenel",
    "state_id": "2a89c9a1-a14b-47da-80b8-428f81f3336e"
  },
  {
    "id": "0c707669-112e-44e2-a60a-e9c1e112e9e4",
    "name": "Uriburu",
    "state_id": "2a89c9a1-a14b-47da-80b8-428f81f3336e"
  },
  {
    "id": "3b0df34b-35ab-41a6-8821-064cd7804cd8",
    "name": "Veinticinco de Mayo",
    "state_id": "2a89c9a1-a14b-47da-80b8-428f81f3336e"
  },
  {
    "id": "9e6f0f1d-d320-49a7-a36b-710ca1388380",
    "name": "Victorica",
    "state_id": "2a89c9a1-a14b-47da-80b8-428f81f3336e"
  },
  {
    "id": "e6789298-588f-464a-8b17-63cf2e272e19",
    "name": "Winifreda",
    "state_id": "2a89c9a1-a14b-47da-80b8-428f81f3336e"
  }
]