[
  {
    "id": "1cbaa848-06c2-44e2-93e7-a66857bfff1c",
    "name": "Črnuče District",
    "state_id": "2ab66332-eef8-4a21-b81d-d62cc0a6aa60"
  },
  {
    "id": "2a510ba6-7216-444c-94ae-91af8e683c1b",
    "name": "Trzin",
    "state_id": "2ab66332-eef8-4a21-b81d-d62cc0a6aa60"
  }
]