[
  {
    "id": "2d1bb274-7933-47e8-841e-6ee80c499f36",
    "name": "Abepura",
    "state_id": "2abc1527-65d4-4c3d-9019-89392f7dec9c"
  },
  {
    "id": "374ebc76-c61b-42c4-923e-b6319c5d04b9",
    "name": "Biak",
    "state_id": "2abc1527-65d4-4c3d-9019-89392f7dec9c"
  },
  {
    "id": "adfa1741-6ca2-4667-8f46-b10e2fe9a4cf",
    "name": "Insrom",
    "state_id": "2abc1527-65d4-4c3d-9019-89392f7dec9c"
  },
  {
    "id": "11087424-eb46-4214-923e-df81d67a19cc",
    "name": "Jayapura",
    "state_id": "2abc1527-65d4-4c3d-9019-89392f7dec9c"
  },
  {
    "id": "29ae5274-1976-4903-8561-93a7d9b5f490",
    "name": "Kabupaten Asmat",
    "state_id": "2abc1527-65d4-4c3d-9019-89392f7dec9c"
  },
  {
    "id": "81e6701a-52c4-4553-8dde-d8564e76d1f9",
    "name": "Kabupaten Biak Numfor",
    "state_id": "2abc1527-65d4-4c3d-9019-89392f7dec9c"
  },
  {
    "id": "033ac26c-64ae-44a0-a7b3-3362b1f72aea",
    "name": "Kabupaten Boven Digoel",
    "state_id": "2abc1527-65d4-4c3d-9019-89392f7dec9c"
  },
  {
    "id": "bac1ec11-2293-4cf5-a981-2f340698fdfe",
    "name": "Kabupaten Deiyai",
    "state_id": "2abc1527-65d4-4c3d-9019-89392f7dec9c"
  },
  {
    "id": "0d067cd8-8e53-4cb8-b801-d183fc3512b3",
    "name": "Kabupaten Dogiyai",
    "state_id": "2abc1527-65d4-4c3d-9019-89392f7dec9c"
  },
  {
    "id": "08c74ae2-2bad-419f-9bcf-45bf64b00c9a",
    "name": "Kabupaten Intan Jaya",
    "state_id": "2abc1527-65d4-4c3d-9019-89392f7dec9c"
  },
  {
    "id": "254fcd37-1068-4dc5-b54a-d54a05c9e816",
    "name": "Kabupaten Jayapura",
    "state_id": "2abc1527-65d4-4c3d-9019-89392f7dec9c"
  },
  {
    "id": "ea7d4266-869c-4af3-bea2-f37fa6f5c3e0",
    "name": "Kabupaten Jayawijaya",
    "state_id": "2abc1527-65d4-4c3d-9019-89392f7dec9c"
  },
  {
    "id": "4ed8a6fa-91b7-4637-baa4-f0f49fbdc428",
    "name": "Kabupaten Keerom",
    "state_id": "2abc1527-65d4-4c3d-9019-89392f7dec9c"
  },
  {
    "id": "d0d4b1d5-afd1-45f9-a8c4-e6b51b505551",
    "name": "Kabupaten Kepulauan Yapen",
    "state_id": "2abc1527-65d4-4c3d-9019-89392f7dec9c"
  },
  {
    "id": "cfc8b00e-217e-40d1-bd12-67aa1127e30a",
    "name": "Kabupaten Lanny Jaya",
    "state_id": "2abc1527-65d4-4c3d-9019-89392f7dec9c"
  },
  {
    "id": "5641e6ef-d048-429e-a7ea-64c28ad04425",
    "name": "Kabupaten Mamberamo Raya",
    "state_id": "2abc1527-65d4-4c3d-9019-89392f7dec9c"
  },
  {
    "id": "dba600fd-2103-4a79-acff-69395241dd93",
    "name": "Kabupaten Mamberamo Tengah",
    "state_id": "2abc1527-65d4-4c3d-9019-89392f7dec9c"
  },
  {
    "id": "b050fcab-d3b7-4f70-9130-36897ed5aeea",
    "name": "Kabupaten Mappi",
    "state_id": "2abc1527-65d4-4c3d-9019-89392f7dec9c"
  },
  {
    "id": "eeab0021-31c0-45c7-a8aa-9afe649ed57f",
    "name": "Kabupaten Merauke",
    "state_id": "2abc1527-65d4-4c3d-9019-89392f7dec9c"
  },
  {
    "id": "2aa8ff31-ede2-4ead-86d5-459bbebcbdda",
    "name": "Kabupaten Mimika",
    "state_id": "2abc1527-65d4-4c3d-9019-89392f7dec9c"
  },
  {
    "id": "2b66bcd2-cc49-41ca-8e50-7a6434d41fe2",
    "name": "Kabupaten Nabire",
    "state_id": "2abc1527-65d4-4c3d-9019-89392f7dec9c"
  },
  {
    "id": "4b0fd972-7521-47b8-96b0-dc3089a67802",
    "name": "Kabupaten Nduga",
    "state_id": "2abc1527-65d4-4c3d-9019-89392f7dec9c"
  },
  {
    "id": "aacb0525-7ead-456c-938c-f5a4f1a3f018",
    "name": "Kabupaten Paniai",
    "state_id": "2abc1527-65d4-4c3d-9019-89392f7dec9c"
  },
  {
    "id": "d348b92e-8333-43d1-be77-171a31033b1f",
    "name": "Kabupaten Pegunungan Bintang",
    "state_id": "2abc1527-65d4-4c3d-9019-89392f7dec9c"
  },
  {
    "id": "8a149882-7b4a-457a-acec-37db475b99db",
    "name": "Kabupaten Puncak Jaya",
    "state_id": "2abc1527-65d4-4c3d-9019-89392f7dec9c"
  },
  {
    "id": "e9684103-e8cd-4c92-a5e3-6a7c37d5a450",
    "name": "Kabupaten Sarmi",
    "state_id": "2abc1527-65d4-4c3d-9019-89392f7dec9c"
  },
  {
    "id": "54df9964-57b7-4abd-a84b-d9273d1180ff",
    "name": "Kabupaten Supiori",
    "state_id": "2abc1527-65d4-4c3d-9019-89392f7dec9c"
  },
  {
    "id": "af4f35fd-6fab-4109-97ef-3d3b752b3ebc",
    "name": "Kabupaten Tolikara",
    "state_id": "2abc1527-65d4-4c3d-9019-89392f7dec9c"
  },
  {
    "id": "ef71717d-7f9b-4412-870c-83fd9a8d82fc",
    "name": "Kabupaten Waropen",
    "state_id": "2abc1527-65d4-4c3d-9019-89392f7dec9c"
  },
  {
    "id": "afd0029b-d422-4a2a-95e3-5a43efcd03ba",
    "name": "Kabupaten Yahukimo",
    "state_id": "2abc1527-65d4-4c3d-9019-89392f7dec9c"
  },
  {
    "id": "8fe835e1-37ab-478c-80b0-c5c55fc85df0",
    "name": "Kabupaten Yalimo",
    "state_id": "2abc1527-65d4-4c3d-9019-89392f7dec9c"
  },
  {
    "id": "8d760b4a-f55d-4add-85b6-9161e53f6cb2",
    "name": "Kota Jayapura",
    "state_id": "2abc1527-65d4-4c3d-9019-89392f7dec9c"
  },
  {
    "id": "3d024c1a-0b79-4915-b3a5-246210c63051",
    "name": "Nabire",
    "state_id": "2abc1527-65d4-4c3d-9019-89392f7dec9c"
  }
]