[
  {
    "id": "cf8dccf0-c446-4386-8389-471ab59c9d68",
    "name": "Agryz",
    "state_id": "2bd8e98d-e9af-4f57-a03d-3eb2fc5e234b"
  },
  {
    "id": "0ac43408-386f-49f7-947e-588f62ef0918",
    "name": "Agryzskiy Rayon",
    "state_id": "2bd8e98d-e9af-4f57-a03d-3eb2fc5e234b"
  },
  {
    "id": "b91d33c1-3829-4edf-a1e7-9418703942e4",
    "name": "Aksubayevskiy Rayon",
    "state_id": "2bd8e98d-e9af-4f57-a03d-3eb2fc5e234b"
  },
  {
    "id": "fef6e4a0-22c7-4b77-9108-1ee00f16412b",
    "name": "Aktanysh",
    "state_id": "2bd8e98d-e9af-4f57-a03d-3eb2fc5e234b"
  },
  {
    "id": "b5e4ec30-b1e5-4e82-bab7-11d5d32fe30f",
    "name": "Aktanyshskiy Rayon",
    "state_id": "2bd8e98d-e9af-4f57-a03d-3eb2fc5e234b"
  },
  {
    "id": "ca8a0690-0352-4bf4-b327-cdf197ea90da",
    "name": "Aktyubinskiy",
    "state_id": "2bd8e98d-e9af-4f57-a03d-3eb2fc5e234b"
  },
  {
    "id": "87925875-0599-48b6-b584-2821d3b08c30",
    "name": "Al’keyevskiy Rayon",
    "state_id": "2bd8e98d-e9af-4f57-a03d-3eb2fc5e234b"
  },
  {
    "id": "6f9b76fb-07d6-4e6e-8414-23571097d151",
    "name": "Al’met’yevsk",
    "state_id": "2bd8e98d-e9af-4f57-a03d-3eb2fc5e234b"
  },
  {
    "id": "2716f778-e4a9-46d1-9fd9-4a9b76d0fc39",
    "name": "Al’met’yevskiy Rayon",
    "state_id": "2bd8e98d-e9af-4f57-a03d-3eb2fc5e234b"
  },
  {
    "id": "66731b8c-8965-474f-9a72-6c2ee1af05b8",
    "name": "Alekseyevskiy Rayon",
    "state_id": "2bd8e98d-e9af-4f57-a03d-3eb2fc5e234b"
  },
  {
    "id": "3f5b7e8d-b80a-49fe-bfc0-20685b70c02c",
    "name": "Alekseyevskoye",
    "state_id": "2bd8e98d-e9af-4f57-a03d-3eb2fc5e234b"
  },
  {
    "id": "15b6f679-c48f-4458-a242-0ae7b82a04f8",
    "name": "Apastovo",
    "state_id": "2bd8e98d-e9af-4f57-a03d-3eb2fc5e234b"
  },
  {
    "id": "a9c77ca3-580a-4e61-a1ef-3c23f2fa8548",
    "name": "Apastovskiy Rayon",
    "state_id": "2bd8e98d-e9af-4f57-a03d-3eb2fc5e234b"
  },
  {
    "id": "d6568e76-ef12-4840-b5fb-cfe7a2f04c56",
    "name": "Arsk",
    "state_id": "2bd8e98d-e9af-4f57-a03d-3eb2fc5e234b"
  },
  {
    "id": "3e679738-a715-4ef3-a4d7-9e00282523c8",
    "name": "Arskiy Rayon",
    "state_id": "2bd8e98d-e9af-4f57-a03d-3eb2fc5e234b"
  },
  {
    "id": "ed3d9134-f17e-4603-95d0-b37cd5add980",
    "name": "Atninskiy Rayon",
    "state_id": "2bd8e98d-e9af-4f57-a03d-3eb2fc5e234b"
  },
  {
    "id": "d33737dc-c407-4dec-915f-b18c0cec900b",
    "name": "Aysha",
    "state_id": "2bd8e98d-e9af-4f57-a03d-3eb2fc5e234b"
  },
  {
    "id": "c609f07a-30ff-4e81-ab48-eae22d9b616d",
    "name": "Aznakayevskiy Rayon",
    "state_id": "2bd8e98d-e9af-4f57-a03d-3eb2fc5e234b"
  },
  {
    "id": "4acea65c-00b4-4531-9a25-78b217dc7fc0",
    "name": "Baltasi",
    "state_id": "2bd8e98d-e9af-4f57-a03d-3eb2fc5e234b"
  },
  {
    "id": "8730d041-bdbe-4c3d-996f-8b4e42867a0c",
    "name": "Baltasinskiy Rayon",
    "state_id": "2bd8e98d-e9af-4f57-a03d-3eb2fc5e234b"
  },
  {
    "id": "18506f1c-507b-4d0c-856b-820eab570ecd",
    "name": "Bavlinskiy Rayon",
    "state_id": "2bd8e98d-e9af-4f57-a03d-3eb2fc5e234b"
  },
  {
    "id": "c090ec8d-caa5-42e0-b3cf-32674cb3ff34",
    "name": "Bavly",
    "state_id": "2bd8e98d-e9af-4f57-a03d-3eb2fc5e234b"
  },
  {
    "id": "ee5466e7-384e-45be-aaf0-9c45d2526986",
    "name": "Bazarnyye Mataki",
    "state_id": "2bd8e98d-e9af-4f57-a03d-3eb2fc5e234b"
  },
  {
    "id": "1d983a10-631c-4c76-a05b-52b664c48beb",
    "name": "Bilyarsk",
    "state_id": "2bd8e98d-e9af-4f57-a03d-3eb2fc5e234b"
  },
  {
    "id": "66fe48db-72fc-43ed-bbc9-dff49b976e4c",
    "name": "Bogatyye Saby",
    "state_id": "2bd8e98d-e9af-4f57-a03d-3eb2fc5e234b"
  },
  {
    "id": "a6321cb4-3059-4fff-9438-853aae8b29b0",
    "name": "Bolgar",
    "state_id": "2bd8e98d-e9af-4f57-a03d-3eb2fc5e234b"
  },
  {
    "id": "1a7272d8-245f-4a9d-9781-35480f8b7cfa",
    "name": "Bugul’ma",
    "state_id": "2bd8e98d-e9af-4f57-a03d-3eb2fc5e234b"
  },
  {
    "id": "2a7d4414-2ac7-4184-90f3-25b4dd4a41a6",
    "name": "Bugul’minskiy Rayon",
    "state_id": "2bd8e98d-e9af-4f57-a03d-3eb2fc5e234b"
  },
  {
    "id": "61217749-befe-4331-8fda-1538fc803101",
    "name": "Buinsk",
    "state_id": "2bd8e98d-e9af-4f57-a03d-3eb2fc5e234b"
  },
  {
    "id": "461b052a-1ed3-4715-852f-008334bb7998",
    "name": "Buinskiy Rayon",
    "state_id": "2bd8e98d-e9af-4f57-a03d-3eb2fc5e234b"
  },
  {
    "id": "9bafab5f-d6cd-45b9-8d04-f9ab15b69ca5",
    "name": "Cheremshan",
    "state_id": "2bd8e98d-e9af-4f57-a03d-3eb2fc5e234b"
  },
  {
    "id": "feb8af1b-cba8-4cb4-98c1-8e151d0c7dad",
    "name": "Cheremshanskiy Rayon",
    "state_id": "2bd8e98d-e9af-4f57-a03d-3eb2fc5e234b"
  },
  {
    "id": "111e9426-a98a-454e-a19c-9d54ae097f26",
    "name": "Chistopol’",
    "state_id": "2bd8e98d-e9af-4f57-a03d-3eb2fc5e234b"
  },
  {
    "id": "59d001ae-e19c-4d92-b8ab-20fb57053afa",
    "name": "Chistopol’skiy Rayon",
    "state_id": "2bd8e98d-e9af-4f57-a03d-3eb2fc5e234b"
  },
  {
    "id": "f94ee9c2-3b22-4b2d-aeec-4f39adaf2e15",
    "name": "Drozhzhanovskiy Rayon",
    "state_id": "2bd8e98d-e9af-4f57-a03d-3eb2fc5e234b"
  },
  {
    "id": "d312d2bc-b569-4991-ab6c-90f964d6cd5b",
    "name": "Dzhalil’",
    "state_id": "2bd8e98d-e9af-4f57-a03d-3eb2fc5e234b"
  },
  {
    "id": "a2520919-901a-4704-bcce-b98f5279694b",
    "name": "Gorod Buinsk",
    "state_id": "2bd8e98d-e9af-4f57-a03d-3eb2fc5e234b"
  },
  {
    "id": "c46f2b1e-b5d2-4dcb-886f-8d5e9dfadade",
    "name": "Gorod Kazan’",
    "state_id": "2bd8e98d-e9af-4f57-a03d-3eb2fc5e234b"
  },
  {
    "id": "e0138a13-c704-4ec2-8ef8-00fb53f556f1",
    "name": "Gorod Nizhnekamsk",
    "state_id": "2bd8e98d-e9af-4f57-a03d-3eb2fc5e234b"
  },
  {
    "id": "8f0bdc16-d082-47e5-b770-1aeb06976c03",
    "name": "Gorod Yelabuga",
    "state_id": "2bd8e98d-e9af-4f57-a03d-3eb2fc5e234b"
  },
  {
    "id": "e12e69ae-58f1-4e6e-8b39-cc3754f405c3",
    "name": "Gorod Zainsk",
    "state_id": "2bd8e98d-e9af-4f57-a03d-3eb2fc5e234b"
  },
  {
    "id": "bc4d5852-fed5-424a-a60b-623aeb1a8378",
    "name": "Gorod Zelënodol’sk",
    "state_id": "2bd8e98d-e9af-4f57-a03d-3eb2fc5e234b"
  },
  {
    "id": "0b99eca2-bad9-4438-8fb6-a78adfde4892",
    "name": "Kamsko-Ust’inskiy Rayon",
    "state_id": "2bd8e98d-e9af-4f57-a03d-3eb2fc5e234b"
  },
  {
    "id": "7b7447cc-418e-4a83-ad5b-4d21d4956399",
    "name": "Karabash",
    "state_id": "2bd8e98d-e9af-4f57-a03d-3eb2fc5e234b"
  },
  {
    "id": "19d24850-0116-45b6-8e92-5bc742158268",
    "name": "Kaybitskiy Rayon",
    "state_id": "2bd8e98d-e9af-4f57-a03d-3eb2fc5e234b"
  },
  {
    "id": "6cb69b49-007c-4ddb-9ef8-32830e1047e6",
    "name": "Kazan",
    "state_id": "2bd8e98d-e9af-4f57-a03d-3eb2fc5e234b"
  },
  {
    "id": "c65358aa-5111-42c2-aadc-d9ec5b3563fb",
    "name": "Kukmor",
    "state_id": "2bd8e98d-e9af-4f57-a03d-3eb2fc5e234b"
  },
  {
    "id": "09fbc96d-5ec9-460b-8797-85f86140f2b1",
    "name": "Kukmorskiy Rayon",
    "state_id": "2bd8e98d-e9af-4f57-a03d-3eb2fc5e234b"
  },
  {
    "id": "db55bcc1-2828-48ac-bd8f-a03dcd4c2b31",
    "name": "Kuybyshevskiy Zaton",
    "state_id": "2bd8e98d-e9af-4f57-a03d-3eb2fc5e234b"
  },
  {
    "id": "8061cf73-e91b-49bd-bc68-8a7fed624325",
    "name": "Laishevo",
    "state_id": "2bd8e98d-e9af-4f57-a03d-3eb2fc5e234b"
  },
  {
    "id": "88630d3e-02e6-4d22-99e0-e89abc28020a",
    "name": "Laishevskiy Rayon",
    "state_id": "2bd8e98d-e9af-4f57-a03d-3eb2fc5e234b"
  },
  {
    "id": "d89a9b0e-39df-4138-8468-ad2beed1edfa",
    "name": "Leninogorsk",
    "state_id": "2bd8e98d-e9af-4f57-a03d-3eb2fc5e234b"
  },
  {
    "id": "221b7f83-40f9-4d2b-b353-d8ee68b9747f",
    "name": "Leninogorskiy Rayon",
    "state_id": "2bd8e98d-e9af-4f57-a03d-3eb2fc5e234b"
  },
  {
    "id": "247e8ab1-f344-47e7-b3da-e830fc038401",
    "name": "Lubyany",
    "state_id": "2bd8e98d-e9af-4f57-a03d-3eb2fc5e234b"
  },
  {
    "id": "21270bad-f934-4fd1-917c-a95635167b52",
    "name": "Mamadysh",
    "state_id": "2bd8e98d-e9af-4f57-a03d-3eb2fc5e234b"
  },
  {
    "id": "b9534212-17b0-44a5-b791-3bdc7d376363",
    "name": "Mamadyshskiy Rayon",
    "state_id": "2bd8e98d-e9af-4f57-a03d-3eb2fc5e234b"
  },
  {
    "id": "04355075-8c32-481c-8da7-32be97bd2a17",
    "name": "Mendeleyevsk",
    "state_id": "2bd8e98d-e9af-4f57-a03d-3eb2fc5e234b"
  },
  {
    "id": "39a6ff77-33f0-441c-a23d-1aac8ce6b058",
    "name": "Mendeleyevskiy Rayon",
    "state_id": "2bd8e98d-e9af-4f57-a03d-3eb2fc5e234b"
  },
  {
    "id": "ca28d04b-7edb-4378-a3ec-aaeaa9f00e97",
    "name": "Menzelinsk",
    "state_id": "2bd8e98d-e9af-4f57-a03d-3eb2fc5e234b"
  },
  {
    "id": "bb8a69df-c99f-4386-bccc-910f49e32172",
    "name": "Menzelinskiy Rayon",
    "state_id": "2bd8e98d-e9af-4f57-a03d-3eb2fc5e234b"
  },
  {
    "id": "69233a37-5b4c-4079-aab7-556514857848",
    "name": "Muslyumovo",
    "state_id": "2bd8e98d-e9af-4f57-a03d-3eb2fc5e234b"
  },
  {
    "id": "53d517a8-2ecd-4278-8637-4494a37be037",
    "name": "Muslyumovskiy Rayon",
    "state_id": "2bd8e98d-e9af-4f57-a03d-3eb2fc5e234b"
  },
  {
    "id": "20eae7b1-4163-4e71-a814-a5cfb0dc3582",
    "name": "Naberezhnyye Chelny",
    "state_id": "2bd8e98d-e9af-4f57-a03d-3eb2fc5e234b"
  },
  {
    "id": "147157bf-b471-4de1-8acd-88089ce04a2c",
    "name": "Nizhnekamsk",
    "state_id": "2bd8e98d-e9af-4f57-a03d-3eb2fc5e234b"
  },
  {
    "id": "539496bc-38f6-437b-a38f-ec1bab634d4d",
    "name": "Nizhnekamskiy Rayon",
    "state_id": "2bd8e98d-e9af-4f57-a03d-3eb2fc5e234b"
  },
  {
    "id": "b26fd5e9-7d88-4256-9bf3-cc67f66bb840",
    "name": "Nizhniye Vyazovyye",
    "state_id": "2bd8e98d-e9af-4f57-a03d-3eb2fc5e234b"
  },
  {
    "id": "7719b7a4-d60e-4794-81f2-46cbfc812474",
    "name": "Nizhnyaya Maktama",
    "state_id": "2bd8e98d-e9af-4f57-a03d-3eb2fc5e234b"
  },
  {
    "id": "f7ad31b3-b628-40e5-aa3c-f94afea648e0",
    "name": "Novosheshminsk",
    "state_id": "2bd8e98d-e9af-4f57-a03d-3eb2fc5e234b"
  },
  {
    "id": "75f8fea5-5d2c-4da1-a0cb-1bd3109bce7c",
    "name": "Novosheshminskiy Rayon",
    "state_id": "2bd8e98d-e9af-4f57-a03d-3eb2fc5e234b"
  },
  {
    "id": "6d931fa3-f594-4ed2-8843-ad63605ef8ef",
    "name": "Nurlat",
    "state_id": "2bd8e98d-e9af-4f57-a03d-3eb2fc5e234b"
  },
  {
    "id": "85cd6f2e-432c-4612-95f4-f875376104ac",
    "name": "Nurlatskiy rayon",
    "state_id": "2bd8e98d-e9af-4f57-a03d-3eb2fc5e234b"
  },
  {
    "id": "19bf1f14-c476-4c34-86b0-139f748d3805",
    "name": "Osinovo",
    "state_id": "2bd8e98d-e9af-4f57-a03d-3eb2fc5e234b"
  },
  {
    "id": "b2babfd4-c0a2-45b9-b721-474b7b8c5292",
    "name": "Pestrechinskiy Rayon",
    "state_id": "2bd8e98d-e9af-4f57-a03d-3eb2fc5e234b"
  },
  {
    "id": "5874cb91-2bc4-4271-a21d-c759e73ecfd5",
    "name": "Pestretsy",
    "state_id": "2bd8e98d-e9af-4f57-a03d-3eb2fc5e234b"
  },
  {
    "id": "e3408fa8-293e-4526-8bbb-849c19115b38",
    "name": "Russkiy Aktash",
    "state_id": "2bd8e98d-e9af-4f57-a03d-3eb2fc5e234b"
  },
  {
    "id": "f6f46f16-b1dd-4e6c-8ad8-f0c67c4b2b26",
    "name": "Rybnaya Sloboda",
    "state_id": "2bd8e98d-e9af-4f57-a03d-3eb2fc5e234b"
  },
  {
    "id": "0f8635fe-df68-49b7-98c6-fb49f9e6ecf6",
    "name": "Rybno-Slobodskiy Rayon",
    "state_id": "2bd8e98d-e9af-4f57-a03d-3eb2fc5e234b"
  },
  {
    "id": "6c79c829-c6db-4c00-9e98-c63ac56f9c58",
    "name": "Sabinskiy Rayon",
    "state_id": "2bd8e98d-e9af-4f57-a03d-3eb2fc5e234b"
  },
  {
    "id": "7046d201-b441-4682-bbfd-ec50913462ab",
    "name": "Sarmanovo",
    "state_id": "2bd8e98d-e9af-4f57-a03d-3eb2fc5e234b"
  },
  {
    "id": "06584624-8c66-4d1d-a646-0aa376053ead",
    "name": "Sarmanovskiy Rayon",
    "state_id": "2bd8e98d-e9af-4f57-a03d-3eb2fc5e234b"
  },
  {
    "id": "8948cbaf-a3a0-4248-a47d-ab40b570b6ef",
    "name": "Shemordan",
    "state_id": "2bd8e98d-e9af-4f57-a03d-3eb2fc5e234b"
  },
  {
    "id": "d4005986-d9bc-4b73-92d4-15b77381f0b4",
    "name": "Shugurovo",
    "state_id": "2bd8e98d-e9af-4f57-a03d-3eb2fc5e234b"
  },
  {
    "id": "d8b3e311-d30a-407a-975f-4a2e8f016069",
    "name": "Spasskiy Rayon",
    "state_id": "2bd8e98d-e9af-4f57-a03d-3eb2fc5e234b"
  },
  {
    "id": "1b4590bf-8c46-4ad7-bf7e-b8a626a99283",
    "name": "Staroye Arakchino",
    "state_id": "2bd8e98d-e9af-4f57-a03d-3eb2fc5e234b"
  },
  {
    "id": "267a7e30-92bf-4320-a361-13c58df00d89",
    "name": "Staroye Drozhzhanoye",
    "state_id": "2bd8e98d-e9af-4f57-a03d-3eb2fc5e234b"
  },
  {
    "id": "c215a5db-f8ab-4380-b4c7-95403ba74744",
    "name": "Stolbishchi",
    "state_id": "2bd8e98d-e9af-4f57-a03d-3eb2fc5e234b"
  },
  {
    "id": "1b3c0cce-abb9-4d86-b4a7-8e1c79b61726",
    "name": "Sviyazhsk",
    "state_id": "2bd8e98d-e9af-4f57-a03d-3eb2fc5e234b"
  },
  {
    "id": "f1c65e4f-a25f-4d67-b73d-7d55e8bf681a",
    "name": "Tetyushi",
    "state_id": "2bd8e98d-e9af-4f57-a03d-3eb2fc5e234b"
  },
  {
    "id": "3b0c03fe-592c-48ab-bfc5-95175fb7050a",
    "name": "Tetyushskiy Rayon",
    "state_id": "2bd8e98d-e9af-4f57-a03d-3eb2fc5e234b"
  },
  {
    "id": "e367928a-c413-4bcb-99ec-b7f88f62dd4e",
    "name": "Tukayevskiy Rayon",
    "state_id": "2bd8e98d-e9af-4f57-a03d-3eb2fc5e234b"
  },
  {
    "id": "53d2705a-6620-4961-a789-185289dddeab",
    "name": "Tyulyachi",
    "state_id": "2bd8e98d-e9af-4f57-a03d-3eb2fc5e234b"
  },
  {
    "id": "5de76316-ff88-48ce-bde2-85bf12a0705b",
    "name": "Tyulyachinskiy Rayon",
    "state_id": "2bd8e98d-e9af-4f57-a03d-3eb2fc5e234b"
  },
  {
    "id": "2dcf4fe5-9776-43a4-846d-f48de8dfd0d9",
    "name": "Urussu",
    "state_id": "2bd8e98d-e9af-4f57-a03d-3eb2fc5e234b"
  },
  {
    "id": "eef69e39-b600-4b66-9632-de25ebd94db9",
    "name": "Vasil’yevo",
    "state_id": "2bd8e98d-e9af-4f57-a03d-3eb2fc5e234b"
  },
  {
    "id": "43209f04-d681-4bcf-8c51-18c1730dbf16",
    "name": "Verkhneuslonskiy Rayon",
    "state_id": "2bd8e98d-e9af-4f57-a03d-3eb2fc5e234b"
  },
  {
    "id": "0043d495-001b-4caf-b29f-64ed174e7cdf",
    "name": "Verkhniy Uslon",
    "state_id": "2bd8e98d-e9af-4f57-a03d-3eb2fc5e234b"
  },
  {
    "id": "796babd4-bc9c-436e-9a6e-af84e4772988",
    "name": "Vysokaya Gora",
    "state_id": "2bd8e98d-e9af-4f57-a03d-3eb2fc5e234b"
  },
  {
    "id": "4a72c478-84f3-4ca1-8b72-a5be66066e1b",
    "name": "Vysokogorskiy Rayon",
    "state_id": "2bd8e98d-e9af-4f57-a03d-3eb2fc5e234b"
  },
  {
    "id": "9682f9aa-49fa-49fd-a2e5-601e264cb234",
    "name": "Yelabuga",
    "state_id": "2bd8e98d-e9af-4f57-a03d-3eb2fc5e234b"
  },
  {
    "id": "dd9ea9e4-b9d1-4a23-b145-4b466ed76ca8",
    "name": "Yelabuzhskiy Rayon",
    "state_id": "2bd8e98d-e9af-4f57-a03d-3eb2fc5e234b"
  },
  {
    "id": "bd1729c6-5e3c-4cca-b3cc-1572df88acbe",
    "name": "Yutazinskiy Rayon",
    "state_id": "2bd8e98d-e9af-4f57-a03d-3eb2fc5e234b"
  },
  {
    "id": "93be9075-c22b-4cd6-8d3c-43a8c1e2be9c",
    "name": "Zainsk",
    "state_id": "2bd8e98d-e9af-4f57-a03d-3eb2fc5e234b"
  },
  {
    "id": "fc81b4e2-c01a-4ba7-a638-67ff724a5d3b",
    "name": "Zainskiy Rayon",
    "state_id": "2bd8e98d-e9af-4f57-a03d-3eb2fc5e234b"
  },
  {
    "id": "7fc998e7-ebf8-41f5-8485-29334e3b9b1b",
    "name": "Zelenodol’skiy Rayon",
    "state_id": "2bd8e98d-e9af-4f57-a03d-3eb2fc5e234b"
  },
  {
    "id": "200bcd78-4354-4593-8598-3bbed182e227",
    "name": "Zelenodolsk",
    "state_id": "2bd8e98d-e9af-4f57-a03d-3eb2fc5e234b"
  }
]