[
  {
    "id": "993734c4-4c98-4dfa-ac0f-18a9f1290ee1",
    "name": "Krŏng Doun Kaev",
    "state_id": "2bea30d7-4903-4796-928b-93dbffe5305f"
  },
  {
    "id": "f0938aee-9344-48e3-8b07-087f373098a5",
    "name": "Phumĭ Véal Srê",
    "state_id": "2bea30d7-4903-4796-928b-93dbffe5305f"
  },
  {
    "id": "e8ea40d6-8462-4fd2-afa0-913291689e8f",
    "name": "Srŏk Ângkôr Borei",
    "state_id": "2bea30d7-4903-4796-928b-93dbffe5305f"
  },
  {
    "id": "1bdb5ac1-7021-4034-8bc1-7874d0eb30b0",
    "name": "Srŏk Borei Cholsar",
    "state_id": "2bea30d7-4903-4796-928b-93dbffe5305f"
  },
  {
    "id": "9c94ec6f-01dc-4e73-8dbc-2f08ce7299de",
    "name": "Takeo",
    "state_id": "2bea30d7-4903-4796-928b-93dbffe5305f"
  }
]