[
  {
    "id": "9930cd04-67a2-4add-b271-fa63c715ded7",
    "name": "Aduard",
    "state_id": "2c37188a-8896-4633-9516-8e174d1ca0de"
  },
  {
    "id": "dd251e24-8357-4904-8e11-aff03987a7eb",
    "name": "Appingedam",
    "state_id": "2c37188a-8896-4633-9516-8e174d1ca0de"
  },
  {
    "id": "423461e9-6cf6-4955-ad0a-6e4bf29ee0d8",
    "name": "Baflo",
    "state_id": "2c37188a-8896-4633-9516-8e174d1ca0de"
  },
  {
    "id": "adb11c38-726e-40e9-8a3a-33cbef268f9c",
    "name": "Bedum",
    "state_id": "2c37188a-8896-4633-9516-8e174d1ca0de"
  },
  {
    "id": "a1b1089e-b4ac-4a40-992b-ab2bad4b4a56",
    "name": "Bellingwolde",
    "state_id": "2c37188a-8896-4633-9516-8e174d1ca0de"
  },
  {
    "id": "097da261-90d4-4c40-ab4c-9ba1c4f16967",
    "name": "Blijham",
    "state_id": "2c37188a-8896-4633-9516-8e174d1ca0de"
  },
  {
    "id": "b59f93b9-385b-40c4-ae1e-5205d10883f6",
    "name": "Coendersborg",
    "state_id": "2c37188a-8896-4633-9516-8e174d1ca0de"
  },
  {
    "id": "1a51102b-e50e-4e66-87c1-27b2f54a760c",
    "name": "De Wijert",
    "state_id": "2c37188a-8896-4633-9516-8e174d1ca0de"
  },
  {
    "id": "44eee530-c60a-4a95-a5b6-3be7c92331e8",
    "name": "Delfzijl",
    "state_id": "2c37188a-8896-4633-9516-8e174d1ca0de"
  },
  {
    "id": "119468e3-069e-44cf-b441-b0339cc80ab9",
    "name": "Eenrum",
    "state_id": "2c37188a-8896-4633-9516-8e174d1ca0de"
  },
  {
    "id": "145101cd-9fc6-4496-a113-34b65b3dd4a7",
    "name": "Eexta",
    "state_id": "2c37188a-8896-4633-9516-8e174d1ca0de"
  },
  {
    "id": "dbf8a5b3-f465-4f70-a98f-9108290f8d85",
    "name": "Farmsum",
    "state_id": "2c37188a-8896-4633-9516-8e174d1ca0de"
  },
  {
    "id": "8f158ac0-fb9a-40b1-85cb-10ca268c7272",
    "name": "Gemeente  Oldambt",
    "state_id": "2c37188a-8896-4633-9516-8e174d1ca0de"
  },
  {
    "id": "b435b771-27a0-4e24-8db9-94336ed01124",
    "name": "Gemeente Appingedam",
    "state_id": "2c37188a-8896-4633-9516-8e174d1ca0de"
  },
  {
    "id": "48f6706e-9bcf-435f-a7b6-d7d6921bcd23",
    "name": "Gemeente Delfzijl",
    "state_id": "2c37188a-8896-4633-9516-8e174d1ca0de"
  },
  {
    "id": "e0a8955b-18ce-4a37-9af2-6dffe6cefdae",
    "name": "Gemeente Groningen",
    "state_id": "2c37188a-8896-4633-9516-8e174d1ca0de"
  },
  {
    "id": "612bb1ca-1ca9-4741-8ddb-aaa206f6abf0",
    "name": "Gemeente Loppersum",
    "state_id": "2c37188a-8896-4633-9516-8e174d1ca0de"
  },
  {
    "id": "c9ea7c5d-04e5-4226-a0ff-0ae6730f887e",
    "name": "Gemeente Pekela",
    "state_id": "2c37188a-8896-4633-9516-8e174d1ca0de"
  },
  {
    "id": "780fc9ac-68e1-4974-ba8a-82aa450cd9f3",
    "name": "Gemeente Stadskanaal",
    "state_id": "2c37188a-8896-4633-9516-8e174d1ca0de"
  },
  {
    "id": "31464b7c-21b1-42a6-921a-28db2f1157b8",
    "name": "Gemeente Veendam",
    "state_id": "2c37188a-8896-4633-9516-8e174d1ca0de"
  },
  {
    "id": "5541e6e5-ee40-4cfc-91be-df8a6f4e19ab",
    "name": "Glimmen",
    "state_id": "2c37188a-8896-4633-9516-8e174d1ca0de"
  },
  {
    "id": "b0765bdd-bc03-431c-810b-04c2f379487f",
    "name": "Grijpskerk",
    "state_id": "2c37188a-8896-4633-9516-8e174d1ca0de"
  },
  {
    "id": "eafa6064-0c9c-4c6b-a6ce-1e6320f10b9a",
    "name": "Groningen",
    "state_id": "2c37188a-8896-4633-9516-8e174d1ca0de"
  },
  {
    "id": "0135a6c1-bbd3-4380-8ac8-cf80730a8964",
    "name": "Grootegast",
    "state_id": "2c37188a-8896-4633-9516-8e174d1ca0de"
  },
  {
    "id": "6316106a-e5f3-41fa-b1d6-1f57f0ec60e7",
    "name": "Haren",
    "state_id": "2c37188a-8896-4633-9516-8e174d1ca0de"
  },
  {
    "id": "682a707a-ea28-4cbe-a88f-e353b56aeec9",
    "name": "Harkstede",
    "state_id": "2c37188a-8896-4633-9516-8e174d1ca0de"
  },
  {
    "id": "d999f904-1821-4c87-a840-e57de4e75284",
    "name": "Heiligerlee",
    "state_id": "2c37188a-8896-4633-9516-8e174d1ca0de"
  },
  {
    "id": "0bb74b0f-1cc6-4249-a9d2-92b05eba284c",
    "name": "Helpman",
    "state_id": "2c37188a-8896-4633-9516-8e174d1ca0de"
  },
  {
    "id": "78518990-94d6-4c4e-a5c3-6c49e778c251",
    "name": "Hoogezand",
    "state_id": "2c37188a-8896-4633-9516-8e174d1ca0de"
  },
  {
    "id": "03fcdeb7-5670-4472-a26f-1bd5857dcfbe",
    "name": "Korrewegwijk",
    "state_id": "2c37188a-8896-4633-9516-8e174d1ca0de"
  },
  {
    "id": "722f9325-9262-4963-8023-2e9c82cd8e69",
    "name": "Leek",
    "state_id": "2c37188a-8896-4633-9516-8e174d1ca0de"
  },
  {
    "id": "16fe6f6e-04ab-43e1-8d38-c2d00be85227",
    "name": "Leens",
    "state_id": "2c37188a-8896-4633-9516-8e174d1ca0de"
  },
  {
    "id": "faec8b7b-aa85-4c31-9db0-ce920ee481c8",
    "name": "Loppersum",
    "state_id": "2c37188a-8896-4633-9516-8e174d1ca0de"
  },
  {
    "id": "52fc69a4-e073-4d11-8447-bce40db24f35",
    "name": "Marum",
    "state_id": "2c37188a-8896-4633-9516-8e174d1ca0de"
  },
  {
    "id": "ecac25ba-9926-4e4e-8225-183e6645ade1",
    "name": "Meeden",
    "state_id": "2c37188a-8896-4633-9516-8e174d1ca0de"
  },
  {
    "id": "bc2452a5-3d67-47ba-be45-6beb61a5bd0b",
    "name": "Middelstum",
    "state_id": "2c37188a-8896-4633-9516-8e174d1ca0de"
  },
  {
    "id": "55e2d695-3cbc-430b-bb75-d6d9da043801",
    "name": "Midden-Groningen",
    "state_id": "2c37188a-8896-4633-9516-8e174d1ca0de"
  },
  {
    "id": "679b33e5-8e8a-4589-877e-e5a213b626c5",
    "name": "Midwolda",
    "state_id": "2c37188a-8896-4633-9516-8e174d1ca0de"
  },
  {
    "id": "74c9df73-cc4c-4010-b78f-8f79589f21f0",
    "name": "Niekerk",
    "state_id": "2c37188a-8896-4633-9516-8e174d1ca0de"
  },
  {
    "id": "fb23dc9e-076f-4c47-8691-67b448db60bc",
    "name": "Nieuwe Pekela",
    "state_id": "2c37188a-8896-4633-9516-8e174d1ca0de"
  },
  {
    "id": "05adb7f8-6cab-4934-ac07-46ba77f3021a",
    "name": "Nieuwolda",
    "state_id": "2c37188a-8896-4633-9516-8e174d1ca0de"
  },
  {
    "id": "ef07995c-02ba-4867-aed1-dc355a6070a1",
    "name": "Noordbroek",
    "state_id": "2c37188a-8896-4633-9516-8e174d1ca0de"
  },
  {
    "id": "641d846c-653b-4313-a954-299f289c611c",
    "name": "Noordhorn",
    "state_id": "2c37188a-8896-4633-9516-8e174d1ca0de"
  },
  {
    "id": "37637dbd-da8f-42a6-8e5a-bfae35176b9e",
    "name": "Obergum",
    "state_id": "2c37188a-8896-4633-9516-8e174d1ca0de"
  },
  {
    "id": "55ad4154-1774-4b06-8c33-f03ef1592d5d",
    "name": "Oldehove",
    "state_id": "2c37188a-8896-4633-9516-8e174d1ca0de"
  },
  {
    "id": "e90e7df4-cf71-4d72-8b84-7a3b3e82d2df",
    "name": "Ommelanderwijk",
    "state_id": "2c37188a-8896-4633-9516-8e174d1ca0de"
  },
  {
    "id": "27112145-5398-4aad-b126-d7b8f8a97d87",
    "name": "Onstwedde",
    "state_id": "2c37188a-8896-4633-9516-8e174d1ca0de"
  },
  {
    "id": "8b829bd2-8fe8-459d-b39f-2a7792c300c8",
    "name": "Oosterhoogebrug",
    "state_id": "2c37188a-8896-4633-9516-8e174d1ca0de"
  },
  {
    "id": "398cb1bb-01ed-4cae-aaf6-851ba9f9a176",
    "name": "Oosterpark",
    "state_id": "2c37188a-8896-4633-9516-8e174d1ca0de"
  },
  {
    "id": "61b78a52-b695-49ab-bb88-db4214eb406b",
    "name": "Oude Pekela",
    "state_id": "2c37188a-8896-4633-9516-8e174d1ca0de"
  },
  {
    "id": "c792c0f3-f03a-4f66-8597-8c3d60712f76",
    "name": "Reitdiep",
    "state_id": "2c37188a-8896-4633-9516-8e174d1ca0de"
  },
  {
    "id": "bfd48adb-4aad-4247-b8c9-b708bd94c346",
    "name": "Sappemeer",
    "state_id": "2c37188a-8896-4633-9516-8e174d1ca0de"
  },
  {
    "id": "dc868c31-68be-4dea-9346-40721008c354",
    "name": "Scheemda",
    "state_id": "2c37188a-8896-4633-9516-8e174d1ca0de"
  },
  {
    "id": "88cbfbbd-6fcc-4e60-9953-17bf71b67085",
    "name": "Schildwolde",
    "state_id": "2c37188a-8896-4633-9516-8e174d1ca0de"
  },
  {
    "id": "71315d09-9d64-4aac-86d6-dcc4c003c761",
    "name": "Sellingen",
    "state_id": "2c37188a-8896-4633-9516-8e174d1ca0de"
  },
  {
    "id": "e2e16655-08bc-4e47-ba12-766fa0783e97",
    "name": "Selwerd",
    "state_id": "2c37188a-8896-4633-9516-8e174d1ca0de"
  },
  {
    "id": "bccbb487-e8be-48da-a68a-f855a055da4a",
    "name": "Siddeburen",
    "state_id": "2c37188a-8896-4633-9516-8e174d1ca0de"
  },
  {
    "id": "9d310bd3-a469-493f-a901-6497d4ae5cc4",
    "name": "Slochteren",
    "state_id": "2c37188a-8896-4633-9516-8e174d1ca0de"
  },
  {
    "id": "99850c81-c76c-4766-a10d-cad5a4f727db",
    "name": "Spijk",
    "state_id": "2c37188a-8896-4633-9516-8e174d1ca0de"
  },
  {
    "id": "2597dfd3-7a32-4a7e-a215-d9d7f57f084a",
    "name": "Stadskanaal",
    "state_id": "2c37188a-8896-4633-9516-8e174d1ca0de"
  },
  {
    "id": "48f8c156-bd72-452f-958c-22da20791991",
    "name": "Ten Boer",
    "state_id": "2c37188a-8896-4633-9516-8e174d1ca0de"
  },
  {
    "id": "d4f81f04-a189-4e1a-ab83-e8e6f3329086",
    "name": "Ter Apel",
    "state_id": "2c37188a-8896-4633-9516-8e174d1ca0de"
  },
  {
    "id": "d78aca3f-2724-4bc1-ba73-ea513a80e5e5",
    "name": "Tuikwerd",
    "state_id": "2c37188a-8896-4633-9516-8e174d1ca0de"
  },
  {
    "id": "049be956-ee28-4e22-95d3-51a5ecf9ac0f",
    "name": "Uithuizen",
    "state_id": "2c37188a-8896-4633-9516-8e174d1ca0de"
  },
  {
    "id": "8a067a63-a3e8-46a1-bbdb-718223ee9d5f",
    "name": "Uithuizermeeden",
    "state_id": "2c37188a-8896-4633-9516-8e174d1ca0de"
  },
  {
    "id": "434eec2b-89c6-4bf4-814a-ab01f8a97873",
    "name": "Ulrum",
    "state_id": "2c37188a-8896-4633-9516-8e174d1ca0de"
  },
  {
    "id": "fd47c8a9-e8b0-414d-8edf-41ad254b3f7d",
    "name": "Usquert",
    "state_id": "2c37188a-8896-4633-9516-8e174d1ca0de"
  },
  {
    "id": "94b3d7d4-d63f-48ce-9efa-45ceb9dcd9b9",
    "name": "Veendam",
    "state_id": "2c37188a-8896-4633-9516-8e174d1ca0de"
  },
  {
    "id": "542f9d5a-e1e3-4bd3-a37e-e438eab1cdd2",
    "name": "Vlagtwedde",
    "state_id": "2c37188a-8896-4633-9516-8e174d1ca0de"
  },
  {
    "id": "44e28e68-e155-4d00-bed6-c4d317f82c51",
    "name": "Wagenborgen",
    "state_id": "2c37188a-8896-4633-9516-8e174d1ca0de"
  },
  {
    "id": "0e00e60e-bf01-4832-a114-dade768174ca",
    "name": "Warffum",
    "state_id": "2c37188a-8896-4633-9516-8e174d1ca0de"
  },
  {
    "id": "d4306a56-029a-45c6-88a7-4ea878dc2dbe",
    "name": "Westerlee",
    "state_id": "2c37188a-8896-4633-9516-8e174d1ca0de"
  },
  {
    "id": "ecba97e3-bbd8-4d51-bbf2-8660aad6b7f2",
    "name": "Westerwolde",
    "state_id": "2c37188a-8896-4633-9516-8e174d1ca0de"
  },
  {
    "id": "ed3c576d-196f-41ee-8518-81f3b2e4459e",
    "name": "Wildervank",
    "state_id": "2c37188a-8896-4633-9516-8e174d1ca0de"
  },
  {
    "id": "af44c44d-e2a7-47d6-9c24-e4532a7cf80e",
    "name": "Winschoten",
    "state_id": "2c37188a-8896-4633-9516-8e174d1ca0de"
  },
  {
    "id": "ee83e9eb-9ec8-4ce7-8a79-014fb11747d2",
    "name": "Winsum",
    "state_id": "2c37188a-8896-4633-9516-8e174d1ca0de"
  },
  {
    "id": "ff44b349-2c6c-43d8-b13c-2f946dae165e",
    "name": "Zoutkamp",
    "state_id": "2c37188a-8896-4633-9516-8e174d1ca0de"
  },
  {
    "id": "48414147-0be4-4dea-99e8-d4e8605ad158",
    "name": "Zuidbroek",
    "state_id": "2c37188a-8896-4633-9516-8e174d1ca0de"
  },
  {
    "id": "1895d8c6-2bae-4ed7-9e11-7fc122a74652",
    "name": "Zuidhorn",
    "state_id": "2c37188a-8896-4633-9516-8e174d1ca0de"
  }
]