[
  {
    "id": "49e8e1cb-e179-4ab1-86e1-61c0100ceb3e",
    "name": "Alauca",
    "state_id": "2c3b3298-62a6-482a-bb56-1fc3a38a2d18"
  },
  {
    "id": "be5b5e97-269e-4057-87ae-d66972bc92ef",
    "name": "Araulí",
    "state_id": "2c3b3298-62a6-482a-bb56-1fc3a38a2d18"
  },
  {
    "id": "b790d81d-cc87-4fb2-ae3c-adc573ca7928",
    "name": "Cuyalí",
    "state_id": "2c3b3298-62a6-482a-bb56-1fc3a38a2d18"
  },
  {
    "id": "23e87ef2-2e1f-4017-b59d-d4d59503a1fc",
    "name": "Danlí",
    "state_id": "2c3b3298-62a6-482a-bb56-1fc3a38a2d18"
  },
  {
    "id": "db05c471-5942-4fa3-b8de-b482add18c2f",
    "name": "El Benque",
    "state_id": "2c3b3298-62a6-482a-bb56-1fc3a38a2d18"
  },
  {
    "id": "3bbc23b0-fd5e-403a-a7a5-1adef294c245",
    "name": "El Chichicaste",
    "state_id": "2c3b3298-62a6-482a-bb56-1fc3a38a2d18"
  },
  {
    "id": "d6961562-cd15-47cb-87a1-d1b5b5974782",
    "name": "El Obraje",
    "state_id": "2c3b3298-62a6-482a-bb56-1fc3a38a2d18"
  },
  {
    "id": "dce358f4-e97f-4a24-90b2-8108860f162b",
    "name": "El Paraíso",
    "state_id": "2c3b3298-62a6-482a-bb56-1fc3a38a2d18"
  },
  {
    "id": "c4825d48-a9ab-4eed-a228-670928e013c5",
    "name": "Güinope",
    "state_id": "2c3b3298-62a6-482a-bb56-1fc3a38a2d18"
  },
  {
    "id": "ae8cfb58-a826-4829-960b-26641b5ba1fd",
    "name": "Jacaleapa",
    "state_id": "2c3b3298-62a6-482a-bb56-1fc3a38a2d18"
  },
  {
    "id": "5cb28617-6092-438e-a568-489f0eee6db5",
    "name": "Jutiapa",
    "state_id": "2c3b3298-62a6-482a-bb56-1fc3a38a2d18"
  },
  {
    "id": "3b918b2c-7a45-425f-af31-c8e81c0cece5",
    "name": "Las Ánimas",
    "state_id": "2c3b3298-62a6-482a-bb56-1fc3a38a2d18"
  },
  {
    "id": "4aab8e36-c836-4fa4-8947-fe58d31860b1",
    "name": "Las Trojes",
    "state_id": "2c3b3298-62a6-482a-bb56-1fc3a38a2d18"
  },
  {
    "id": "9c4af74c-b0ea-43fc-a3cc-e99ecf9b2e49",
    "name": "Liure",
    "state_id": "2c3b3298-62a6-482a-bb56-1fc3a38a2d18"
  },
  {
    "id": "f81d6097-eae1-49bf-86e0-bae4c4cd7b2f",
    "name": "Morocelí",
    "state_id": "2c3b3298-62a6-482a-bb56-1fc3a38a2d18"
  },
  {
    "id": "52098cc7-6430-4902-92d4-7c03080435c0",
    "name": "Municipio de Texiguat",
    "state_id": "2c3b3298-62a6-482a-bb56-1fc3a38a2d18"
  },
  {
    "id": "89d7a691-52a9-4d24-baf5-2cd184b02924",
    "name": "Ojo de Agua",
    "state_id": "2c3b3298-62a6-482a-bb56-1fc3a38a2d18"
  },
  {
    "id": "d04b4ab1-83a1-4954-b13c-a0573e69cce9",
    "name": "Oropolí",
    "state_id": "2c3b3298-62a6-482a-bb56-1fc3a38a2d18"
  },
  {
    "id": "adec4f53-3115-49c9-a485-7e39a6ffac7e",
    "name": "Potrerillos",
    "state_id": "2c3b3298-62a6-482a-bb56-1fc3a38a2d18"
  },
  {
    "id": "9534d14a-e791-4acd-b787-8e96175e41e7",
    "name": "Quebrada Larga",
    "state_id": "2c3b3298-62a6-482a-bb56-1fc3a38a2d18"
  },
  {
    "id": "76a3160c-7b2b-4e05-a00d-1623eddcc9e5",
    "name": "San Antonio de Flores",
    "state_id": "2c3b3298-62a6-482a-bb56-1fc3a38a2d18"
  },
  {
    "id": "01507cf1-6e06-4db5-a966-cea7e772f496",
    "name": "San Diego",
    "state_id": "2c3b3298-62a6-482a-bb56-1fc3a38a2d18"
  },
  {
    "id": "085d1126-0bc0-477e-9bba-3a4dc88cd6f9",
    "name": "San Lucas",
    "state_id": "2c3b3298-62a6-482a-bb56-1fc3a38a2d18"
  },
  {
    "id": "3829faa6-a0b9-406b-bb12-cb7df488943a",
    "name": "San Matías",
    "state_id": "2c3b3298-62a6-482a-bb56-1fc3a38a2d18"
  },
  {
    "id": "1712e0b1-9bf8-405b-b012-4664d72890b8",
    "name": "Santa Cruz",
    "state_id": "2c3b3298-62a6-482a-bb56-1fc3a38a2d18"
  },
  {
    "id": "b793ae3d-9ad2-491c-8c1d-e36f1d0c645f",
    "name": "Soledad",
    "state_id": "2c3b3298-62a6-482a-bb56-1fc3a38a2d18"
  },
  {
    "id": "d67fd840-cddd-4614-81d3-2dd392f15fbb",
    "name": "Teupasenti",
    "state_id": "2c3b3298-62a6-482a-bb56-1fc3a38a2d18"
  },
  {
    "id": "c4888f4c-68b5-4e4c-8ad1-d411565bb151",
    "name": "Texíguat",
    "state_id": "2c3b3298-62a6-482a-bb56-1fc3a38a2d18"
  },
  {
    "id": "547cbae1-dc87-4e06-8a22-6bbb84a14ca8",
    "name": "Trojes",
    "state_id": "2c3b3298-62a6-482a-bb56-1fc3a38a2d18"
  },
  {
    "id": "a2ccc185-652c-49da-9dd0-9f90a07bed37",
    "name": "Vado Ancho",
    "state_id": "2c3b3298-62a6-482a-bb56-1fc3a38a2d18"
  },
  {
    "id": "bdeec941-4708-47cd-82ab-d2d99efb08d2",
    "name": "Yauyupe",
    "state_id": "2c3b3298-62a6-482a-bb56-1fc3a38a2d18"
  },
  {
    "id": "6748a43a-201b-4038-8275-3a8b695ab225",
    "name": "Yuscarán",
    "state_id": "2c3b3298-62a6-482a-bb56-1fc3a38a2d18"
  }
]