[
  {
    "id": "c619f337-35d6-4334-95f9-64d9e460d55a",
    "name": "Acconia",
    "state_id": "2c6f3cb2-fcd6-4fdc-9197-e7e8e3a1f16e"
  },
  {
    "id": "3ff4f5df-0227-4e17-88ae-d5936b09d1b8",
    "name": "Acquaformosa",
    "state_id": "2c6f3cb2-fcd6-4fdc-9197-e7e8e3a1f16e"
  },
  {
    "id": "470371ed-4d9e-430c-bb20-cdbcd9d84e77",
    "name": "Acquappesa",
    "state_id": "2c6f3cb2-fcd6-4fdc-9197-e7e8e3a1f16e"
  },
  {
    "id": "8df9544d-b1d5-48aa-a7b9-8a880968f2a2",
    "name": "Acquaro",
    "state_id": "2c6f3cb2-fcd6-4fdc-9197-e7e8e3a1f16e"
  },
  {
    "id": "7dde30d3-67e9-43d1-93d2-49b17d1634d0",
    "name": "Acri",
    "state_id": "2c6f3cb2-fcd6-4fdc-9197-e7e8e3a1f16e"
  },
  {
    "id": "54b71b5c-f8c1-4ff8-ad6f-99e3b4f3371b",
    "name": "Africo Nuovo",
    "state_id": "2c6f3cb2-fcd6-4fdc-9197-e7e8e3a1f16e"
  },
  {
    "id": "8fc00d62-eb6e-4add-ad06-5e579a4671e1",
    "name": "Africo Vecchio",
    "state_id": "2c6f3cb2-fcd6-4fdc-9197-e7e8e3a1f16e"
  },
  {
    "id": "b2fa1778-04e3-4527-af15-3d834aec098c",
    "name": "Agnana Calabra",
    "state_id": "2c6f3cb2-fcd6-4fdc-9197-e7e8e3a1f16e"
  },
  {
    "id": "d12ffe16-76a0-4c8f-970a-4f86b9a275ee",
    "name": "Aiello Calabro",
    "state_id": "2c6f3cb2-fcd6-4fdc-9197-e7e8e3a1f16e"
  },
  {
    "id": "23a83c20-f89a-432a-8b2f-7ab156d9facf",
    "name": "Aieta",
    "state_id": "2c6f3cb2-fcd6-4fdc-9197-e7e8e3a1f16e"
  },
  {
    "id": "90b0814c-e251-46ed-a79e-82fab5c5b8ad",
    "name": "Albi",
    "state_id": "2c6f3cb2-fcd6-4fdc-9197-e7e8e3a1f16e"
  },
  {
    "id": "2cef1e56-385b-47a5-ba13-a10519facf4b",
    "name": "Albidona",
    "state_id": "2c6f3cb2-fcd6-4fdc-9197-e7e8e3a1f16e"
  },
  {
    "id": "bf15af48-5039-477c-b927-c5c042debb82",
    "name": "Alessandria del Carretto",
    "state_id": "2c6f3cb2-fcd6-4fdc-9197-e7e8e3a1f16e"
  },
  {
    "id": "7b764562-93f4-4a12-a600-57096a80169c",
    "name": "Altilia",
    "state_id": "2c6f3cb2-fcd6-4fdc-9197-e7e8e3a1f16e"
  },
  {
    "id": "73626aef-9fb0-4c9a-83c1-620d21475487",
    "name": "Altomonte",
    "state_id": "2c6f3cb2-fcd6-4fdc-9197-e7e8e3a1f16e"
  },
  {
    "id": "f1b10be7-4690-40ff-8f21-6ec6092c7b2a",
    "name": "Amantea",
    "state_id": "2c6f3cb2-fcd6-4fdc-9197-e7e8e3a1f16e"
  },
  {
    "id": "284c6ce6-bd5f-480d-b693-fca050572ed5",
    "name": "Amaroni",
    "state_id": "2c6f3cb2-fcd6-4fdc-9197-e7e8e3a1f16e"
  },
  {
    "id": "1282cb91-54e7-4949-95e2-0e2ec206040e",
    "name": "Amato",
    "state_id": "2c6f3cb2-fcd6-4fdc-9197-e7e8e3a1f16e"
  },
  {
    "id": "eda9c3b0-dc27-4443-9a5a-fa17d0111f6e",
    "name": "Amendolara",
    "state_id": "2c6f3cb2-fcd6-4fdc-9197-e7e8e3a1f16e"
  },
  {
    "id": "2f3a5289-0385-44d6-8c44-e78bf9e0dc2d",
    "name": "Amica",
    "state_id": "2c6f3cb2-fcd6-4fdc-9197-e7e8e3a1f16e"
  },
  {
    "id": "123cf278-03b4-4f59-afa0-74e53d0b8767",
    "name": "Andali",
    "state_id": "2c6f3cb2-fcd6-4fdc-9197-e7e8e3a1f16e"
  },
  {
    "id": "09583c63-e8d3-43f3-8e1e-4d0d9834444b",
    "name": "Andreotta",
    "state_id": "2c6f3cb2-fcd6-4fdc-9197-e7e8e3a1f16e"
  },
  {
    "id": "1b1ce9c6-c1b5-4d1d-bb7d-6f52f0ad3f88",
    "name": "Anoia Inferiore",
    "state_id": "2c6f3cb2-fcd6-4fdc-9197-e7e8e3a1f16e"
  },
  {
    "id": "3d8844e8-88f9-4982-9639-67f0c7519f11",
    "name": "Anoia Superiore",
    "state_id": "2c6f3cb2-fcd6-4fdc-9197-e7e8e3a1f16e"
  },
  {
    "id": "70211c08-20c3-4089-8aca-4408d3a62e7b",
    "name": "Antonimina",
    "state_id": "2c6f3cb2-fcd6-4fdc-9197-e7e8e3a1f16e"
  },
  {
    "id": "26a7f66a-a318-46e6-b364-b1ef443c703a",
    "name": "Aprigliano",
    "state_id": "2c6f3cb2-fcd6-4fdc-9197-e7e8e3a1f16e"
  },
  {
    "id": "fdbafe50-b0f2-42ed-b0bc-cb38f9894ff6",
    "name": "Arcavacata",
    "state_id": "2c6f3cb2-fcd6-4fdc-9197-e7e8e3a1f16e"
  },
  {
    "id": "40952801-858b-41d4-81c1-2cde0213a2ab",
    "name": "Ardore",
    "state_id": "2c6f3cb2-fcd6-4fdc-9197-e7e8e3a1f16e"
  },
  {
    "id": "8cfe5989-9a6d-4a41-8b9b-a1cb0ce464d3",
    "name": "Ardore Marina",
    "state_id": "2c6f3cb2-fcd6-4fdc-9197-e7e8e3a1f16e"
  },
  {
    "id": "65402202-eefa-485a-bd20-e69e7b691c4c",
    "name": "Arena",
    "state_id": "2c6f3cb2-fcd6-4fdc-9197-e7e8e3a1f16e"
  },
  {
    "id": "9c6fa4a0-ccf5-4321-88e4-e13bbf3f2051",
    "name": "Argusto",
    "state_id": "2c6f3cb2-fcd6-4fdc-9197-e7e8e3a1f16e"
  },
  {
    "id": "8b6a48de-e9b4-4cfd-a305-a1aea3e0af2a",
    "name": "Badolato",
    "state_id": "2c6f3cb2-fcd6-4fdc-9197-e7e8e3a1f16e"
  },
  {
    "id": "8461984d-f0b5-4b68-a701-b7322e8dd611",
    "name": "Badolato Marina",
    "state_id": "2c6f3cb2-fcd6-4fdc-9197-e7e8e3a1f16e"
  },
  {
    "id": "3a52b7f0-d390-425f-a486-f8f231706eaa",
    "name": "Bagaladi",
    "state_id": "2c6f3cb2-fcd6-4fdc-9197-e7e8e3a1f16e"
  },
  {
    "id": "bbf4ed9d-7a82-439e-b21e-6429508ed4fa",
    "name": "Bagnara Calabra",
    "state_id": "2c6f3cb2-fcd6-4fdc-9197-e7e8e3a1f16e"
  },
  {
    "id": "3ef18932-82d7-4087-ab95-b831c9b208a4",
    "name": "Barone",
    "state_id": "2c6f3cb2-fcd6-4fdc-9197-e7e8e3a1f16e"
  },
  {
    "id": "652275ed-7dbf-41e9-b959-6ab5d934a70c",
    "name": "Belcastro",
    "state_id": "2c6f3cb2-fcd6-4fdc-9197-e7e8e3a1f16e"
  },
  {
    "id": "55db4e4f-942e-4d7f-951f-c2e9426c4a4b",
    "name": "Belmonte Calabro",
    "state_id": "2c6f3cb2-fcd6-4fdc-9197-e7e8e3a1f16e"
  },
  {
    "id": "84ecd948-f369-4463-b539-0d921c84b579",
    "name": "Belsito",
    "state_id": "2c6f3cb2-fcd6-4fdc-9197-e7e8e3a1f16e"
  },
  {
    "id": "f369e43d-c811-440d-acf5-593b0bd0153f",
    "name": "Belvedere Marittimo",
    "state_id": "2c6f3cb2-fcd6-4fdc-9197-e7e8e3a1f16e"
  },
  {
    "id": "9feb1d2f-d593-4d81-ab8a-d7f414b9e3c0",
    "name": "Belvedere Spinello",
    "state_id": "2c6f3cb2-fcd6-4fdc-9197-e7e8e3a1f16e"
  },
  {
    "id": "a1b30b87-c58b-4ad4-9d7b-420425670720",
    "name": "Benestare",
    "state_id": "2c6f3cb2-fcd6-4fdc-9197-e7e8e3a1f16e"
  },
  {
    "id": "c5d82998-41a4-4018-be7a-a9a06eada5e5",
    "name": "Bianchi",
    "state_id": "2c6f3cb2-fcd6-4fdc-9197-e7e8e3a1f16e"
  },
  {
    "id": "ff8126b3-82cf-4368-ab6c-2589c37f3d05",
    "name": "Bianco",
    "state_id": "2c6f3cb2-fcd6-4fdc-9197-e7e8e3a1f16e"
  },
  {
    "id": "7c6749e2-f415-4d59-967e-1407aaf69c31",
    "name": "Bisignano",
    "state_id": "2c6f3cb2-fcd6-4fdc-9197-e7e8e3a1f16e"
  },
  {
    "id": "b565085b-7f94-4f88-bd42-6f47be5eab66",
    "name": "Bivongi",
    "state_id": "2c6f3cb2-fcd6-4fdc-9197-e7e8e3a1f16e"
  },
  {
    "id": "aeb266c2-1036-4901-995d-d9347ffde84f",
    "name": "Bocchigliero",
    "state_id": "2c6f3cb2-fcd6-4fdc-9197-e7e8e3a1f16e"
  },
  {
    "id": "28e07327-c293-43bf-9f93-ebc0ee561a4b",
    "name": "Bonifati",
    "state_id": "2c6f3cb2-fcd6-4fdc-9197-e7e8e3a1f16e"
  },
  {
    "id": "04ef4ed9-3770-424e-a142-adb6f1985c17",
    "name": "Borgata Marina",
    "state_id": "2c6f3cb2-fcd6-4fdc-9197-e7e8e3a1f16e"
  },
  {
    "id": "190641e2-38a0-41ef-8409-07f8b6d91b0a",
    "name": "Borgia",
    "state_id": "2c6f3cb2-fcd6-4fdc-9197-e7e8e3a1f16e"
  },
  {
    "id": "3d156d3c-2c90-4ebe-addd-891434fa05d8",
    "name": "Botricello",
    "state_id": "2c6f3cb2-fcd6-4fdc-9197-e7e8e3a1f16e"
  },
  {
    "id": "08cbadff-7cf8-425b-a3bf-7ebbc25107cb",
    "name": "Bova",
    "state_id": "2c6f3cb2-fcd6-4fdc-9197-e7e8e3a1f16e"
  },
  {
    "id": "0d219496-a96c-4e96-9666-1f97915ff7ea",
    "name": "Bova Marina",
    "state_id": "2c6f3cb2-fcd6-4fdc-9197-e7e8e3a1f16e"
  },
  {
    "id": "c33d2779-54b7-4b3a-a20c-bb46f68ac0d4",
    "name": "Bovalino",
    "state_id": "2c6f3cb2-fcd6-4fdc-9197-e7e8e3a1f16e"
  },
  {
    "id": "08fdb4e2-9b4c-46fa-8d3a-fa791e9a9ea6",
    "name": "Bovalino Superiore",
    "state_id": "2c6f3cb2-fcd6-4fdc-9197-e7e8e3a1f16e"
  },
  {
    "id": "0fe57b9d-5983-4837-ad06-628052422cb2",
    "name": "Brancaleone",
    "state_id": "2c6f3cb2-fcd6-4fdc-9197-e7e8e3a1f16e"
  },
  {
    "id": "bd962871-80b0-48eb-a488-2d8decb92b6e",
    "name": "Brancaleone-Marina",
    "state_id": "2c6f3cb2-fcd6-4fdc-9197-e7e8e3a1f16e"
  },
  {
    "id": "8194ef73-f899-426e-b78a-be909c8d3dcf",
    "name": "Briatico",
    "state_id": "2c6f3cb2-fcd6-4fdc-9197-e7e8e3a1f16e"
  },
  {
    "id": "5c787dd4-1357-4194-a7a6-5303921d533c",
    "name": "Brognaturo",
    "state_id": "2c6f3cb2-fcd6-4fdc-9197-e7e8e3a1f16e"
  },
  {
    "id": "4cb5eff0-4f30-4a77-bc9f-083fd1c8e050",
    "name": "Bruzzano Zeffirio",
    "state_id": "2c6f3cb2-fcd6-4fdc-9197-e7e8e3a1f16e"
  },
  {
    "id": "739511c1-460a-4df3-bcb9-a46210ed5b54",
    "name": "Buonvicino",
    "state_id": "2c6f3cb2-fcd6-4fdc-9197-e7e8e3a1f16e"
  },
  {
    "id": "208465f5-2df9-417f-88d7-70aa6b0c3052",
    "name": "Caccuri",
    "state_id": "2c6f3cb2-fcd6-4fdc-9197-e7e8e3a1f16e"
  },
  {
    "id": "5b786f7c-8d95-477b-a57d-f15a26bf19cb",
    "name": "Calanna",
    "state_id": "2c6f3cb2-fcd6-4fdc-9197-e7e8e3a1f16e"
  },
  {
    "id": "cbf5f33b-5e3a-4473-aef1-a7f324962131",
    "name": "Caloppezzati",
    "state_id": "2c6f3cb2-fcd6-4fdc-9197-e7e8e3a1f16e"
  },
  {
    "id": "88bb8c3d-0a8c-4503-bbf9-0ebf297387b3",
    "name": "Caloveto",
    "state_id": "2c6f3cb2-fcd6-4fdc-9197-e7e8e3a1f16e"
  },
  {
    "id": "cb71bc5e-8e11-4cb0-8a74-8a244874dfc4",
    "name": "Calvisi",
    "state_id": "2c6f3cb2-fcd6-4fdc-9197-e7e8e3a1f16e"
  },
  {
    "id": "a90853c4-6c89-4461-b53e-a7e73d373262",
    "name": "Camini",
    "state_id": "2c6f3cb2-fcd6-4fdc-9197-e7e8e3a1f16e"
  },
  {
    "id": "b7108849-09c9-438d-abd6-f0db4c272eb8",
    "name": "Campana",
    "state_id": "2c6f3cb2-fcd6-4fdc-9197-e7e8e3a1f16e"
  },
  {
    "id": "5d1a6411-6f9b-45f1-bbe3-ccb363627cbb",
    "name": "Campo Calabro",
    "state_id": "2c6f3cb2-fcd6-4fdc-9197-e7e8e3a1f16e"
  },
  {
    "id": "acc37599-e204-4437-b840-99cbc474b371",
    "name": "Campora San Giovanni",
    "state_id": "2c6f3cb2-fcd6-4fdc-9197-e7e8e3a1f16e"
  },
  {
    "id": "078be2de-a8d0-4f1b-bcd9-781c3b29fe52",
    "name": "Candidoni",
    "state_id": "2c6f3cb2-fcd6-4fdc-9197-e7e8e3a1f16e"
  },
  {
    "id": "8de94fdb-5974-43f2-8a7f-bbc1ca52d6d6",
    "name": "Canna",
    "state_id": "2c6f3cb2-fcd6-4fdc-9197-e7e8e3a1f16e"
  },
  {
    "id": "0be076a4-ee44-4298-b5e3-026089350271",
    "name": "Canolo",
    "state_id": "2c6f3cb2-fcd6-4fdc-9197-e7e8e3a1f16e"
  },
  {
    "id": "0393af73-e71b-499d-8ad2-b5a1de1621bf",
    "name": "Cantinella",
    "state_id": "2c6f3cb2-fcd6-4fdc-9197-e7e8e3a1f16e"
  },
  {
    "id": "8b17e262-d9df-4859-b8d4-efb4d4757c16",
    "name": "Capistrano",
    "state_id": "2c6f3cb2-fcd6-4fdc-9197-e7e8e3a1f16e"
  },
  {
    "id": "17acbebc-9d94-4274-b98f-f9e7cb6d157c",
    "name": "Capo Rizzuto",
    "state_id": "2c6f3cb2-fcd6-4fdc-9197-e7e8e3a1f16e"
  },
  {
    "id": "6af623a0-ba14-4e28-af03-57edc2c4d232",
    "name": "Caraffa del Bianco",
    "state_id": "2c6f3cb2-fcd6-4fdc-9197-e7e8e3a1f16e"
  },
  {
    "id": "b0fa38b8-f868-4489-9618-d2bfb1c94305",
    "name": "Caraffa di Catanzaro",
    "state_id": "2c6f3cb2-fcd6-4fdc-9197-e7e8e3a1f16e"
  },
  {
    "id": "22b31437-3562-43b2-808a-af1212141a4e",
    "name": "Cardeto",
    "state_id": "2c6f3cb2-fcd6-4fdc-9197-e7e8e3a1f16e"
  },
  {
    "id": "f9626a94-4438-49f4-8ea1-559e0b9c803c",
    "name": "Cardinale",
    "state_id": "2c6f3cb2-fcd6-4fdc-9197-e7e8e3a1f16e"
  },
  {
    "id": "12b08bcb-973f-48f0-9dcd-f57812d6ccf8",
    "name": "Careri",
    "state_id": "2c6f3cb2-fcd6-4fdc-9197-e7e8e3a1f16e"
  },
  {
    "id": "2282252f-e6c5-4886-a9d1-b7bffb74940f",
    "name": "Carfizzi",
    "state_id": "2c6f3cb2-fcd6-4fdc-9197-e7e8e3a1f16e"
  },
  {
    "id": "ff424227-9bde-47ba-a724-f76087261e6c",
    "name": "Cariati",
    "state_id": "2c6f3cb2-fcd6-4fdc-9197-e7e8e3a1f16e"
  },
  {
    "id": "a8b9f3d5-2b23-4906-82d6-5c92a01d935b",
    "name": "Carlopoli",
    "state_id": "2c6f3cb2-fcd6-4fdc-9197-e7e8e3a1f16e"
  },
  {
    "id": "659dcaf2-fd8a-4963-83a3-fa04a71c7b9e",
    "name": "Carolei",
    "state_id": "2c6f3cb2-fcd6-4fdc-9197-e7e8e3a1f16e"
  },
  {
    "id": "873cdef0-c132-4f28-a2ca-a01c0f4063ee",
    "name": "Carpanzano",
    "state_id": "2c6f3cb2-fcd6-4fdc-9197-e7e8e3a1f16e"
  },
  {
    "id": "51cc39ad-0507-4a7e-9d2b-591a453e33e6",
    "name": "Casabona",
    "state_id": "2c6f3cb2-fcd6-4fdc-9197-e7e8e3a1f16e"
  },
  {
    "id": "82eb33b8-3898-4d3f-a441-e693241bf096",
    "name": "Casignana",
    "state_id": "2c6f3cb2-fcd6-4fdc-9197-e7e8e3a1f16e"
  },
  {
    "id": "25444e5b-3d0f-4121-8312-dca822d24397",
    "name": "Casole Bruzio",
    "state_id": "2c6f3cb2-fcd6-4fdc-9197-e7e8e3a1f16e"
  },
  {
    "id": "7f0193a3-6242-4c2a-945b-155ad4042dc9",
    "name": "Cassano Allo Ionio",
    "state_id": "2c6f3cb2-fcd6-4fdc-9197-e7e8e3a1f16e"
  },
  {
    "id": "f6b7ddeb-2557-4ab4-a217-d7016b712669",
    "name": "Castelsilano",
    "state_id": "2c6f3cb2-fcd6-4fdc-9197-e7e8e3a1f16e"
  },
  {
    "id": "836b0d40-d81f-4ee2-a8c9-71effbc156bc",
    "name": "Castiglione Cosentino",
    "state_id": "2c6f3cb2-fcd6-4fdc-9197-e7e8e3a1f16e"
  },
  {
    "id": "d4b53521-1149-41a1-98c2-d65fd41a3962",
    "name": "Castrolibero",
    "state_id": "2c6f3cb2-fcd6-4fdc-9197-e7e8e3a1f16e"
  },
  {
    "id": "e7f3dc6e-6b2f-4948-96cc-316fa7d7bbdd",
    "name": "Castroregio",
    "state_id": "2c6f3cb2-fcd6-4fdc-9197-e7e8e3a1f16e"
  },
  {
    "id": "1cbace4e-32ae-4386-a916-6941e773b6f0",
    "name": "Castrovillari",
    "state_id": "2c6f3cb2-fcd6-4fdc-9197-e7e8e3a1f16e"
  },
  {
    "id": "b5170fd9-40c6-4e34-81fa-cb98941ee703",
    "name": "Catanzaro",
    "state_id": "2c6f3cb2-fcd6-4fdc-9197-e7e8e3a1f16e"
  },
  {
    "id": "91113886-0942-4752-9cfa-d83d09cfc039",
    "name": "Caulonia",
    "state_id": "2c6f3cb2-fcd6-4fdc-9197-e7e8e3a1f16e"
  },
  {
    "id": "84063639-7b69-4452-a668-bf2ceb1041b7",
    "name": "Caulonia Marina",
    "state_id": "2c6f3cb2-fcd6-4fdc-9197-e7e8e3a1f16e"
  },
  {
    "id": "5d410ff9-4379-477d-9726-a35dc76406bd",
    "name": "Cava-Cuculera Nobile",
    "state_id": "2c6f3cb2-fcd6-4fdc-9197-e7e8e3a1f16e"
  },
  {
    "id": "07f074f4-78d9-4f7e-b8c3-5c83493042d4",
    "name": "Cavoni-Ginestreto",
    "state_id": "2c6f3cb2-fcd6-4fdc-9197-e7e8e3a1f16e"
  },
  {
    "id": "b3d1c93a-33f4-4161-a9b0-4728e892d12a",
    "name": "Celico",
    "state_id": "2c6f3cb2-fcd6-4fdc-9197-e7e8e3a1f16e"
  },
  {
    "id": "d5958aed-1672-4641-92fd-5350c5d433ba",
    "name": "Cellara",
    "state_id": "2c6f3cb2-fcd6-4fdc-9197-e7e8e3a1f16e"
  },
  {
    "id": "3928b97d-7c2f-4eb0-9e0d-80e527600ec1",
    "name": "Cenadi",
    "state_id": "2c6f3cb2-fcd6-4fdc-9197-e7e8e3a1f16e"
  },
  {
    "id": "aba9ea0a-cb80-4508-9897-ae68c66cb874",
    "name": "Centrache",
    "state_id": "2c6f3cb2-fcd6-4fdc-9197-e7e8e3a1f16e"
  },
  {
    "id": "1ca85e0c-5464-4716-96ab-4d03abdcf03f",
    "name": "Ceramida-Pellegrina",
    "state_id": "2c6f3cb2-fcd6-4fdc-9197-e7e8e3a1f16e"
  },
  {
    "id": "20846ea9-f930-48a6-90f2-ca939f6926ad",
    "name": "Cerchiara di Calabria",
    "state_id": "2c6f3cb2-fcd6-4fdc-9197-e7e8e3a1f16e"
  },
  {
    "id": "933f9ad2-d7ed-4300-940f-edb4855616c0",
    "name": "Cerenzia",
    "state_id": "2c6f3cb2-fcd6-4fdc-9197-e7e8e3a1f16e"
  },
  {
    "id": "c1809fea-4993-48a4-874c-6e559eb7d153",
    "name": "Cerisano",
    "state_id": "2c6f3cb2-fcd6-4fdc-9197-e7e8e3a1f16e"
  },
  {
    "id": "48dd077b-b747-4a60-a557-639cf6d875cf",
    "name": "Cerva",
    "state_id": "2c6f3cb2-fcd6-4fdc-9197-e7e8e3a1f16e"
  },
  {
    "id": "5c1d83fd-7d9a-4a2f-9c67-bb555bbca052",
    "name": "Cervicati",
    "state_id": "2c6f3cb2-fcd6-4fdc-9197-e7e8e3a1f16e"
  },
  {
    "id": "2b7667b0-ebb1-4192-9ca3-2a8ec45731bd",
    "name": "Cerzeto",
    "state_id": "2c6f3cb2-fcd6-4fdc-9197-e7e8e3a1f16e"
  },
  {
    "id": "c272ed20-42f8-4604-b3ef-aab6599fa35d",
    "name": "Cessaniti",
    "state_id": "2c6f3cb2-fcd6-4fdc-9197-e7e8e3a1f16e"
  },
  {
    "id": "2be23ac7-dd04-4a23-8bab-b7292fcee20c",
    "name": "Cetraro",
    "state_id": "2c6f3cb2-fcd6-4fdc-9197-e7e8e3a1f16e"
  },
  {
    "id": "9aa43ef2-a170-4710-8e5b-a847ef75efd7",
    "name": "Cetraro Marina",
    "state_id": "2c6f3cb2-fcd6-4fdc-9197-e7e8e3a1f16e"
  },
  {
    "id": "5f3929ed-8d8b-410f-bf8b-b7ef94bb4d48",
    "name": "Chiaravalle Centrale",
    "state_id": "2c6f3cb2-fcd6-4fdc-9197-e7e8e3a1f16e"
  },
  {
    "id": "82c21bab-ed0e-4699-8685-93e335a1a9ef",
    "name": "Cicala",
    "state_id": "2c6f3cb2-fcd6-4fdc-9197-e7e8e3a1f16e"
  },
  {
    "id": "97511105-182e-4898-a389-0b5875aa3e54",
    "name": "Ciminà",
    "state_id": "2c6f3cb2-fcd6-4fdc-9197-e7e8e3a1f16e"
  },
  {
    "id": "14899fde-52ce-4453-90c5-61fac4da8604",
    "name": "Cinque Frondi",
    "state_id": "2c6f3cb2-fcd6-4fdc-9197-e7e8e3a1f16e"
  },
  {
    "id": "69318f92-a620-4719-894c-19a2ae5d50a2",
    "name": "Cirò",
    "state_id": "2c6f3cb2-fcd6-4fdc-9197-e7e8e3a1f16e"
  },
  {
    "id": "22210c2c-5458-41ae-b06c-9c25499c89a1",
    "name": "Cirò Marina",
    "state_id": "2c6f3cb2-fcd6-4fdc-9197-e7e8e3a1f16e"
  },
  {
    "id": "3a220557-3c50-4fbd-84e0-5a512962e628",
    "name": "Cittadella del Capo",
    "state_id": "2c6f3cb2-fcd6-4fdc-9197-e7e8e3a1f16e"
  },
  {
    "id": "9c742655-d8e2-4dca-bd84-abbf1f9422c1",
    "name": "Cittanova",
    "state_id": "2c6f3cb2-fcd6-4fdc-9197-e7e8e3a1f16e"
  },
  {
    "id": "492afc08-106a-4fd5-88f2-85d519e0db85",
    "name": "Civita",
    "state_id": "2c6f3cb2-fcd6-4fdc-9197-e7e8e3a1f16e"
  },
  {
    "id": "71085768-2f01-46a0-9c5a-045a448ac3b5",
    "name": "Cleto",
    "state_id": "2c6f3cb2-fcd6-4fdc-9197-e7e8e3a1f16e"
  },
  {
    "id": "da61b473-69c0-453e-82ae-8996bb2f3258",
    "name": "Colosimi",
    "state_id": "2c6f3cb2-fcd6-4fdc-9197-e7e8e3a1f16e"
  },
  {
    "id": "5a243a61-f93c-47c2-b196-1d2fef50e27a",
    "name": "Condofuri",
    "state_id": "2c6f3cb2-fcd6-4fdc-9197-e7e8e3a1f16e"
  },
  {
    "id": "a9627ed3-9c28-4722-a5ce-5236fbf4f5f5",
    "name": "Conflenti",
    "state_id": "2c6f3cb2-fcd6-4fdc-9197-e7e8e3a1f16e"
  },
  {
    "id": "73e03105-0ab9-4646-8766-1b84bd600f7a",
    "name": "Corigliano Calabro",
    "state_id": "2c6f3cb2-fcd6-4fdc-9197-e7e8e3a1f16e"
  },
  {
    "id": "c90c73e6-31be-4e6b-bc27-dae561e8f02d",
    "name": "Corigliano Scalo",
    "state_id": "2c6f3cb2-fcd6-4fdc-9197-e7e8e3a1f16e"
  },
  {
    "id": "4f991471-bbca-461b-bc0a-c69d6f2a2cb8",
    "name": "Cortale",
    "state_id": "2c6f3cb2-fcd6-4fdc-9197-e7e8e3a1f16e"
  },
  {
    "id": "c2ffd268-a532-4db5-8c73-f283ae34b137",
    "name": "Cosenza",
    "state_id": "2c6f3cb2-fcd6-4fdc-9197-e7e8e3a1f16e"
  },
  {
    "id": "79c8f31e-0c7a-48bb-a7d1-92ddc0a4921e",
    "name": "Cosoleto",
    "state_id": "2c6f3cb2-fcd6-4fdc-9197-e7e8e3a1f16e"
  },
  {
    "id": "ecf81f32-9864-47a0-8c4c-dd455bba3760",
    "name": "Cotronei",
    "state_id": "2c6f3cb2-fcd6-4fdc-9197-e7e8e3a1f16e"
  },
  {
    "id": "dbb69564-ea78-4cbc-a059-65332f13d55b",
    "name": "Crichi",
    "state_id": "2c6f3cb2-fcd6-4fdc-9197-e7e8e3a1f16e"
  },
  {
    "id": "54899925-4827-424c-a52f-48feeac6d712",
    "name": "Cropalati",
    "state_id": "2c6f3cb2-fcd6-4fdc-9197-e7e8e3a1f16e"
  },
  {
    "id": "e6baf7e4-fbef-4a1a-aa5e-11b80a874506",
    "name": "Cropani",
    "state_id": "2c6f3cb2-fcd6-4fdc-9197-e7e8e3a1f16e"
  },
  {
    "id": "78973bc9-7010-4d44-949d-f2be06067589",
    "name": "Cropani Marina",
    "state_id": "2c6f3cb2-fcd6-4fdc-9197-e7e8e3a1f16e"
  },
  {
    "id": "6cdd3c9d-9bf9-47c1-b1f2-46bc05bba7f0",
    "name": "Crosia",
    "state_id": "2c6f3cb2-fcd6-4fdc-9197-e7e8e3a1f16e"
  },
  {
    "id": "ea43a590-ed44-4662-8c60-fb3935ffdb82",
    "name": "Crotone",
    "state_id": "2c6f3cb2-fcd6-4fdc-9197-e7e8e3a1f16e"
  },
  {
    "id": "68311182-1bb4-49f3-bef6-8f8bcd4d6301",
    "name": "Crucoli",
    "state_id": "2c6f3cb2-fcd6-4fdc-9197-e7e8e3a1f16e"
  },
  {
    "id": "dcc922e4-fe08-43d3-8c23-4632942e5472",
    "name": "Curinga",
    "state_id": "2c6f3cb2-fcd6-4fdc-9197-e7e8e3a1f16e"
  },
  {
    "id": "daf2cfee-f694-4e00-9dd2-07a78bd8eb10",
    "name": "Cutro",
    "state_id": "2c6f3cb2-fcd6-4fdc-9197-e7e8e3a1f16e"
  },
  {
    "id": "71bc89b4-be39-4b32-a05d-cbbf615b295b",
    "name": "Dasà",
    "state_id": "2c6f3cb2-fcd6-4fdc-9197-e7e8e3a1f16e"
  },
  {
    "id": "02505ee3-1ed3-4e48-be8b-03157b8b40fb",
    "name": "Davoli",
    "state_id": "2c6f3cb2-fcd6-4fdc-9197-e7e8e3a1f16e"
  },
  {
    "id": "0b078339-b744-4ba9-9f44-916d085b4bd7",
    "name": "Decollatura",
    "state_id": "2c6f3cb2-fcd6-4fdc-9197-e7e8e3a1f16e"
  },
  {
    "id": "5e11c3bc-708d-4286-8fd6-932444acff6f",
    "name": "Delianuova",
    "state_id": "2c6f3cb2-fcd6-4fdc-9197-e7e8e3a1f16e"
  },
  {
    "id": "37667834-9196-462e-84e4-afa78600a5a9",
    "name": "Diamante",
    "state_id": "2c6f3cb2-fcd6-4fdc-9197-e7e8e3a1f16e"
  },
  {
    "id": "6f587de9-951b-4539-8e7a-454375e87da8",
    "name": "Dinami",
    "state_id": "2c6f3cb2-fcd6-4fdc-9197-e7e8e3a1f16e"
  },
  {
    "id": "d39679d6-0444-483d-a5af-58bab97ae730",
    "name": "Dipignano",
    "state_id": "2c6f3cb2-fcd6-4fdc-9197-e7e8e3a1f16e"
  },
  {
    "id": "5b63d5a4-71a4-4ed2-b015-ee5a4081ab4e",
    "name": "Domanico",
    "state_id": "2c6f3cb2-fcd6-4fdc-9197-e7e8e3a1f16e"
  },
  {
    "id": "6d379831-51d9-41ba-9a00-be9ece470fc0",
    "name": "Donnici Inferiore",
    "state_id": "2c6f3cb2-fcd6-4fdc-9197-e7e8e3a1f16e"
  },
  {
    "id": "32793318-87cc-41ec-bc34-4b061dcb1757",
    "name": "Doria",
    "state_id": "2c6f3cb2-fcd6-4fdc-9197-e7e8e3a1f16e"
  },
  {
    "id": "890d1ee1-2f75-4d68-aee7-42f58dc68b4c",
    "name": "Drapia",
    "state_id": "2c6f3cb2-fcd6-4fdc-9197-e7e8e3a1f16e"
  },
  {
    "id": "eb17b335-324b-4a08-b4f9-7a2c6c70bccc",
    "name": "Fabrizia",
    "state_id": "2c6f3cb2-fcd6-4fdc-9197-e7e8e3a1f16e"
  },
  {
    "id": "b3546289-bce4-4b2c-9b24-ed1b87bc2c00",
    "name": "Fabrizio",
    "state_id": "2c6f3cb2-fcd6-4fdc-9197-e7e8e3a1f16e"
  },
  {
    "id": "2b7dc25d-8c58-43a4-908a-6142c71cc9ff",
    "name": "Fagnano Castello",
    "state_id": "2c6f3cb2-fcd6-4fdc-9197-e7e8e3a1f16e"
  },
  {
    "id": "e55a7491-338d-4b80-ab37-aaa559658996",
    "name": "Falconara Albanese",
    "state_id": "2c6f3cb2-fcd6-4fdc-9197-e7e8e3a1f16e"
  },
  {
    "id": "5f3a9434-a4bf-44d2-82af-374fa7856076",
    "name": "Falerna",
    "state_id": "2c6f3cb2-fcd6-4fdc-9197-e7e8e3a1f16e"
  },
  {
    "id": "3a72b443-5a27-4736-a079-8e42e421bd3f",
    "name": "Falerna Scalo",
    "state_id": "2c6f3cb2-fcd6-4fdc-9197-e7e8e3a1f16e"
  },
  {
    "id": "b9cd1880-f4ff-4c09-b60a-22b0303c5bb1",
    "name": "Feroleto Antico",
    "state_id": "2c6f3cb2-fcd6-4fdc-9197-e7e8e3a1f16e"
  },
  {
    "id": "f49258d9-b577-44d6-b985-8645f25f17d6",
    "name": "Feroleto della Chiesa",
    "state_id": "2c6f3cb2-fcd6-4fdc-9197-e7e8e3a1f16e"
  },
  {
    "id": "d50b06ad-ac5e-40cd-aad0-becf59171738",
    "name": "Ferruzzano",
    "state_id": "2c6f3cb2-fcd6-4fdc-9197-e7e8e3a1f16e"
  },
  {
    "id": "e8da9c21-b789-4cbc-975e-3d0af422b894",
    "name": "Figline Vegliaturo",
    "state_id": "2c6f3cb2-fcd6-4fdc-9197-e7e8e3a1f16e"
  },
  {
    "id": "da88a3ab-bef9-4286-b526-c7e134255d4c",
    "name": "Filadelfia",
    "state_id": "2c6f3cb2-fcd6-4fdc-9197-e7e8e3a1f16e"
  },
  {
    "id": "5018fc3a-3593-4ff7-9df6-05ab1c3d5ff9",
    "name": "Filandari",
    "state_id": "2c6f3cb2-fcd6-4fdc-9197-e7e8e3a1f16e"
  },
  {
    "id": "6f0ab252-d764-4378-ad26-d6ff90267aab",
    "name": "Filogaso",
    "state_id": "2c6f3cb2-fcd6-4fdc-9197-e7e8e3a1f16e"
  },
  {
    "id": "54d7a9cd-b9ae-4c1d-ae85-bf3d0137d2d2",
    "name": "Firmo",
    "state_id": "2c6f3cb2-fcd6-4fdc-9197-e7e8e3a1f16e"
  },
  {
    "id": "1b2b2dc2-28eb-4261-8437-6e6391bb22b2",
    "name": "Fiumara",
    "state_id": "2c6f3cb2-fcd6-4fdc-9197-e7e8e3a1f16e"
  },
  {
    "id": "78a91bdf-3519-46a0-97b2-9f5d85fede0a",
    "name": "Fiumefreddo Bruzio",
    "state_id": "2c6f3cb2-fcd6-4fdc-9197-e7e8e3a1f16e"
  },
  {
    "id": "ea4e6cb0-7dc3-493d-a3da-e3df284808d5",
    "name": "Foresta",
    "state_id": "2c6f3cb2-fcd6-4fdc-9197-e7e8e3a1f16e"
  },
  {
    "id": "4557ae84-bdf8-40a4-adda-03d3d99364c5",
    "name": "Fossato Ionico-Fossatello-San Luca Marcelluzzo",
    "state_id": "2c6f3cb2-fcd6-4fdc-9197-e7e8e3a1f16e"
  },
  {
    "id": "baa59f79-42be-458a-984e-f3128586ec2c",
    "name": "Fossato Serralta",
    "state_id": "2c6f3cb2-fcd6-4fdc-9197-e7e8e3a1f16e"
  },
  {
    "id": "5e0edb27-ba3d-4ae6-98ab-0f9b917654f3",
    "name": "Francavilla Angitola",
    "state_id": "2c6f3cb2-fcd6-4fdc-9197-e7e8e3a1f16e"
  },
  {
    "id": "f0b757ab-e782-4722-88b4-9c6d0ede69b1",
    "name": "Francavilla Marittima",
    "state_id": "2c6f3cb2-fcd6-4fdc-9197-e7e8e3a1f16e"
  },
  {
    "id": "cacf2bf1-5ea5-4c5d-ac46-3465338456db",
    "name": "Francica",
    "state_id": "2c6f3cb2-fcd6-4fdc-9197-e7e8e3a1f16e"
  },
  {
    "id": "907d6ff7-b794-4120-9b94-8c7fee920547",
    "name": "Frascineto",
    "state_id": "2c6f3cb2-fcd6-4fdc-9197-e7e8e3a1f16e"
  },
  {
    "id": "7ffe172c-fd4c-48a9-ac3c-497bcfc9824f",
    "name": "Fuscaldo",
    "state_id": "2c6f3cb2-fcd6-4fdc-9197-e7e8e3a1f16e"
  },
  {
    "id": "2a5ca3a2-acac-48f6-89c4-4d963ec35078",
    "name": "Gagliato",
    "state_id": "2c6f3cb2-fcd6-4fdc-9197-e7e8e3a1f16e"
  },
  {
    "id": "211db3d8-4fca-4316-bcad-9b8b39384510",
    "name": "Galatro",
    "state_id": "2c6f3cb2-fcd6-4fdc-9197-e7e8e3a1f16e"
  },
  {
    "id": "46d8507d-77aa-427b-968f-27c31bdc70f6",
    "name": "Gasperina",
    "state_id": "2c6f3cb2-fcd6-4fdc-9197-e7e8e3a1f16e"
  },
  {
    "id": "9df63666-058b-4c9f-b5f4-9b72f5540334",
    "name": "Gerace",
    "state_id": "2c6f3cb2-fcd6-4fdc-9197-e7e8e3a1f16e"
  },
  {
    "id": "66d0a2d7-ef18-4d88-a260-2272a0a373ba",
    "name": "Gerocarne",
    "state_id": "2c6f3cb2-fcd6-4fdc-9197-e7e8e3a1f16e"
  },
  {
    "id": "52e27feb-9db9-4d09-a0f7-91b04b706673",
    "name": "Giffone",
    "state_id": "2c6f3cb2-fcd6-4fdc-9197-e7e8e3a1f16e"
  },
  {
    "id": "754df43c-b514-49e8-b6bf-454dd878f713",
    "name": "Gimigliano",
    "state_id": "2c6f3cb2-fcd6-4fdc-9197-e7e8e3a1f16e"
  },
  {
    "id": "9ff55fd6-1a50-47a4-a4ac-d9ccb1c5660e",
    "name": "Gioia Tauro",
    "state_id": "2c6f3cb2-fcd6-4fdc-9197-e7e8e3a1f16e"
  },
  {
    "id": "808844a6-af05-4989-9cb2-613c90285407",
    "name": "Gioiosa Ionica",
    "state_id": "2c6f3cb2-fcd6-4fdc-9197-e7e8e3a1f16e"
  },
  {
    "id": "3996291e-8ca3-4b9e-8186-6bf543883efd",
    "name": "Girifalco",
    "state_id": "2c6f3cb2-fcd6-4fdc-9197-e7e8e3a1f16e"
  },
  {
    "id": "3bd196ba-1d6e-4258-b1cd-2b0b80173717",
    "name": "Gizzeria",
    "state_id": "2c6f3cb2-fcd6-4fdc-9197-e7e8e3a1f16e"
  },
  {
    "id": "49ac96c9-5210-45c7-b23f-d7ee83f53dd1",
    "name": "Grimaldi",
    "state_id": "2c6f3cb2-fcd6-4fdc-9197-e7e8e3a1f16e"
  },
  {
    "id": "5b936474-93d2-419c-a483-53f17bfae14e",
    "name": "Grisolia",
    "state_id": "2c6f3cb2-fcd6-4fdc-9197-e7e8e3a1f16e"
  },
  {
    "id": "b39c4cbc-23ea-4acf-816e-9cd6aa98b962",
    "name": "Grotteria",
    "state_id": "2c6f3cb2-fcd6-4fdc-9197-e7e8e3a1f16e"
  },
  {
    "id": "052c2f23-5c30-4c1d-bb49-aa0e82604101",
    "name": "Guardavalle",
    "state_id": "2c6f3cb2-fcd6-4fdc-9197-e7e8e3a1f16e"
  },
  {
    "id": "741e5a5f-278d-4bee-a492-2f4815fa91b6",
    "name": "Guardavalle Marina",
    "state_id": "2c6f3cb2-fcd6-4fdc-9197-e7e8e3a1f16e"
  },
  {
    "id": "0a77710f-d2d3-4ffd-9236-5b98abe00917",
    "name": "Guardia Piemontese",
    "state_id": "2c6f3cb2-fcd6-4fdc-9197-e7e8e3a1f16e"
  },
  {
    "id": "a8d326d2-59e8-4ef5-8034-5962bd3474c4",
    "name": "Isca Marina",
    "state_id": "2c6f3cb2-fcd6-4fdc-9197-e7e8e3a1f16e"
  },
  {
    "id": "c26c2483-9dac-4072-abdb-9bbc12af1aac",
    "name": "Isca sullo Ionio",
    "state_id": "2c6f3cb2-fcd6-4fdc-9197-e7e8e3a1f16e"
  },
  {
    "id": "27e62110-902e-485f-a86d-0fe3fee3a026",
    "name": "Isola di Capo Rizzuto",
    "state_id": "2c6f3cb2-fcd6-4fdc-9197-e7e8e3a1f16e"
  },
  {
    "id": "e227409c-6c4f-4a67-baac-ce22e379460a",
    "name": "Jacurso",
    "state_id": "2c6f3cb2-fcd6-4fdc-9197-e7e8e3a1f16e"
  },
  {
    "id": "207e7929-2a0c-4b9b-97d2-9800387d50c8",
    "name": "Jonadi",
    "state_id": "2c6f3cb2-fcd6-4fdc-9197-e7e8e3a1f16e"
  },
  {
    "id": "de7c9ed9-cfb7-4279-9bd5-64a2ba7d1a67",
    "name": "Joppolo",
    "state_id": "2c6f3cb2-fcd6-4fdc-9197-e7e8e3a1f16e"
  },
  {
    "id": "7e52ed49-1831-4b90-9f1c-529c67183762",
    "name": "Laganadi",
    "state_id": "2c6f3cb2-fcd6-4fdc-9197-e7e8e3a1f16e"
  },
  {
    "id": "09ff2f3c-ab1c-49f6-887d-c2cd4e9f6cb5",
    "name": "Lago",
    "state_id": "2c6f3cb2-fcd6-4fdc-9197-e7e8e3a1f16e"
  },
  {
    "id": "a8080a56-b482-4b7c-b883-9e52793de6ff",
    "name": "Laino Borgo",
    "state_id": "2c6f3cb2-fcd6-4fdc-9197-e7e8e3a1f16e"
  },
  {
    "id": "548c07d4-26a9-4825-b295-21a5fe900b64",
    "name": "Laino Castello-Nuovo Centro",
    "state_id": "2c6f3cb2-fcd6-4fdc-9197-e7e8e3a1f16e"
  },
  {
    "id": "5db00747-b8ed-4c30-bc9a-dd5f3dd92637",
    "name": "Lamezia Terme",
    "state_id": "2c6f3cb2-fcd6-4fdc-9197-e7e8e3a1f16e"
  },
  {
    "id": "5c4349f5-90c2-4a81-a3d2-025b1ec6348c",
    "name": "Lappano",
    "state_id": "2c6f3cb2-fcd6-4fdc-9197-e7e8e3a1f16e"
  },
  {
    "id": "f4389520-e249-478a-8488-2fdc40a54f94",
    "name": "Lattarico",
    "state_id": "2c6f3cb2-fcd6-4fdc-9197-e7e8e3a1f16e"
  },
  {
    "id": "8b73a5ba-e3ae-4150-82bd-28e7cea95ae6",
    "name": "Laureana di Borrello",
    "state_id": "2c6f3cb2-fcd6-4fdc-9197-e7e8e3a1f16e"
  },
  {
    "id": "8d1bc493-b11a-42f5-8009-7099741c1b45",
    "name": "Laurignano",
    "state_id": "2c6f3cb2-fcd6-4fdc-9197-e7e8e3a1f16e"
  },
  {
    "id": "2d78ab6c-6552-4f9e-bee0-100efbc69b8e",
    "name": "Lazzaro",
    "state_id": "2c6f3cb2-fcd6-4fdc-9197-e7e8e3a1f16e"
  },
  {
    "id": "a4211aa0-efd9-4f82-a917-949b2b2e0f9f",
    "name": "Le Castella",
    "state_id": "2c6f3cb2-fcd6-4fdc-9197-e7e8e3a1f16e"
  },
  {
    "id": "eb79fd01-b7a1-4619-9b7f-ca25fb2a3e29",
    "name": "Limbadi-Caroni",
    "state_id": "2c6f3cb2-fcd6-4fdc-9197-e7e8e3a1f16e"
  },
  {
    "id": "a78b908c-ceec-48e7-8356-331fc7a18d9d",
    "name": "Locri",
    "state_id": "2c6f3cb2-fcd6-4fdc-9197-e7e8e3a1f16e"
  },
  {
    "id": "8450704c-bce6-4182-898c-7a6442ae1f30",
    "name": "Longobardi",
    "state_id": "2c6f3cb2-fcd6-4fdc-9197-e7e8e3a1f16e"
  },
  {
    "id": "dff6e255-1a74-47f0-a420-8e5c2820196a",
    "name": "Longobucco",
    "state_id": "2c6f3cb2-fcd6-4fdc-9197-e7e8e3a1f16e"
  },
  {
    "id": "3486d22f-c2d0-4b51-98ee-910d13c672ae",
    "name": "Lungro",
    "state_id": "2c6f3cb2-fcd6-4fdc-9197-e7e8e3a1f16e"
  },
  {
    "id": "f0bbe7da-afc9-4532-9876-d78833aeeccb",
    "name": "Luzzi",
    "state_id": "2c6f3cb2-fcd6-4fdc-9197-e7e8e3a1f16e"
  },
  {
    "id": "3ba26260-7ffa-4325-bb94-9b7cb6e27cc3",
    "name": "Magisano",
    "state_id": "2c6f3cb2-fcd6-4fdc-9197-e7e8e3a1f16e"
  },
  {
    "id": "ffb54c2f-0a25-489d-ba76-413e9c62f3a0",
    "name": "Maida",
    "state_id": "2c6f3cb2-fcd6-4fdc-9197-e7e8e3a1f16e"
  },
  {
    "id": "cb5ed090-9538-4e48-93d6-f665e352b51e",
    "name": "Maierà",
    "state_id": "2c6f3cb2-fcd6-4fdc-9197-e7e8e3a1f16e"
  },
  {
    "id": "46e3b5f6-3431-40e7-ada5-b7830d02a5c1",
    "name": "Maierato",
    "state_id": "2c6f3cb2-fcd6-4fdc-9197-e7e8e3a1f16e"
  },
  {
    "id": "8f1bfde7-c7f8-4e3f-a583-f1bd50b6a231",
    "name": "Malito",
    "state_id": "2c6f3cb2-fcd6-4fdc-9197-e7e8e3a1f16e"
  },
  {
    "id": "cb83b103-414e-4526-a74f-b52dc793e8a4",
    "name": "Malvito",
    "state_id": "2c6f3cb2-fcd6-4fdc-9197-e7e8e3a1f16e"
  },
  {
    "id": "d3041e07-8aef-4ae8-b239-91fdb928ffe8",
    "name": "Mammola",
    "state_id": "2c6f3cb2-fcd6-4fdc-9197-e7e8e3a1f16e"
  },
  {
    "id": "c7b48d56-54f5-4db5-bde7-5a09f5b303e8",
    "name": "Mandatoriccio",
    "state_id": "2c6f3cb2-fcd6-4fdc-9197-e7e8e3a1f16e"
  },
  {
    "id": "0d97723d-d202-422d-9aae-285a9fc7d0d9",
    "name": "Mangone",
    "state_id": "2c6f3cb2-fcd6-4fdc-9197-e7e8e3a1f16e"
  },
  {
    "id": "44e13c7a-0b39-41a1-9993-bb4f48784f19",
    "name": "Marano Marchesato",
    "state_id": "2c6f3cb2-fcd6-4fdc-9197-e7e8e3a1f16e"
  },
  {
    "id": "b9e08ebd-0c88-4a08-b7c9-966846fa0f1e",
    "name": "Marano Principato",
    "state_id": "2c6f3cb2-fcd6-4fdc-9197-e7e8e3a1f16e"
  },
  {
    "id": "138ae92c-98cc-4fe1-9ba1-8cedb9c52a2e",
    "name": "Marcedusa",
    "state_id": "2c6f3cb2-fcd6-4fdc-9197-e7e8e3a1f16e"
  },
  {
    "id": "ce7e61be-f0ed-405b-a038-0ec89f8c669d",
    "name": "Marcellina",
    "state_id": "2c6f3cb2-fcd6-4fdc-9197-e7e8e3a1f16e"
  },
  {
    "id": "95b3090d-1220-4595-a1b2-9c89398c3d26",
    "name": "Marcellinara",
    "state_id": "2c6f3cb2-fcd6-4fdc-9197-e7e8e3a1f16e"
  },
  {
    "id": "5afe3423-a299-4995-ab69-9dc86cfff650",
    "name": "Marina",
    "state_id": "2c6f3cb2-fcd6-4fdc-9197-e7e8e3a1f16e"
  },
  {
    "id": "bd08b8fc-7d0b-4b8d-a426-5dcc0713e786",
    "name": "Marina di Davoli",
    "state_id": "2c6f3cb2-fcd6-4fdc-9197-e7e8e3a1f16e"
  },
  {
    "id": "556b2962-46da-4669-9847-8d701e90866a",
    "name": "Marina di Fuscaldo",
    "state_id": "2c6f3cb2-fcd6-4fdc-9197-e7e8e3a1f16e"
  },
  {
    "id": "3d741505-7402-4b9c-bf5b-de7b5d6bbcab",
    "name": "Marina di Gioiosa Ionica",
    "state_id": "2c6f3cb2-fcd6-4fdc-9197-e7e8e3a1f16e"
  },
  {
    "id": "ecc41300-972b-4237-96dd-eae8506fe51c",
    "name": "Marina di Schiavonea",
    "state_id": "2c6f3cb2-fcd6-4fdc-9197-e7e8e3a1f16e"
  },
  {
    "id": "64bff21f-6296-4dd9-9df7-cbd963243446",
    "name": "Maropati",
    "state_id": "2c6f3cb2-fcd6-4fdc-9197-e7e8e3a1f16e"
  },
  {
    "id": "b1654603-6334-44f7-91d9-d65d3c8a75ff",
    "name": "Martelli-Laganosa",
    "state_id": "2c6f3cb2-fcd6-4fdc-9197-e7e8e3a1f16e"
  },
  {
    "id": "5da9e022-56ac-4a9c-9283-6d2a4a54e479",
    "name": "Martirano",
    "state_id": "2c6f3cb2-fcd6-4fdc-9197-e7e8e3a1f16e"
  },
  {
    "id": "38419062-1b28-440f-9c7c-5fd744a9b297",
    "name": "Martirano Lombardo",
    "state_id": "2c6f3cb2-fcd6-4fdc-9197-e7e8e3a1f16e"
  },
  {
    "id": "62d05571-d391-4edb-8ccd-8c16f937c7d9",
    "name": "Martone",
    "state_id": "2c6f3cb2-fcd6-4fdc-9197-e7e8e3a1f16e"
  },
  {
    "id": "81f47bd8-eee0-4b1e-a60a-021b1c497e19",
    "name": "Marzi",
    "state_id": "2c6f3cb2-fcd6-4fdc-9197-e7e8e3a1f16e"
  },
  {
    "id": "affb1919-67df-4ec0-a989-8156eb4b578f",
    "name": "Melicuccà",
    "state_id": "2c6f3cb2-fcd6-4fdc-9197-e7e8e3a1f16e"
  },
  {
    "id": "73872865-498b-4997-bc50-7e49a04b9604",
    "name": "Melicucco",
    "state_id": "2c6f3cb2-fcd6-4fdc-9197-e7e8e3a1f16e"
  },
  {
    "id": "fdd9d433-e52b-43e4-b8cc-e14c847cdf5b",
    "name": "Melissa",
    "state_id": "2c6f3cb2-fcd6-4fdc-9197-e7e8e3a1f16e"
  },
  {
    "id": "680aa163-8c37-40ac-95fb-d85f6c53aedc",
    "name": "Melito di Porto Salvo",
    "state_id": "2c6f3cb2-fcd6-4fdc-9197-e7e8e3a1f16e"
  },
  {
    "id": "ac03a065-b59c-4512-84a7-a7358ac6a59a",
    "name": "Mendicino",
    "state_id": "2c6f3cb2-fcd6-4fdc-9197-e7e8e3a1f16e"
  },
  {
    "id": "e8bdaad9-de2d-4de1-baf4-35eba80449e1",
    "name": "Mesoraca",
    "state_id": "2c6f3cb2-fcd6-4fdc-9197-e7e8e3a1f16e"
  },
  {
    "id": "94819788-08a6-4402-b7e8-47dc0db9ef34",
    "name": "Messignadi",
    "state_id": "2c6f3cb2-fcd6-4fdc-9197-e7e8e3a1f16e"
  },
  {
    "id": "927a5f8d-1af8-481a-b510-88d9f48ea405",
    "name": "Miglierina",
    "state_id": "2c6f3cb2-fcd6-4fdc-9197-e7e8e3a1f16e"
  },
  {
    "id": "e2470cf7-0222-4321-8fdc-baaebde9568a",
    "name": "Mileto",
    "state_id": "2c6f3cb2-fcd6-4fdc-9197-e7e8e3a1f16e"
  },
  {
    "id": "301e4a60-5964-486e-b387-c97365384b51",
    "name": "Mirto",
    "state_id": "2c6f3cb2-fcd6-4fdc-9197-e7e8e3a1f16e"
  },
  {
    "id": "64af8423-36b9-4c9d-b1ca-144341339f77",
    "name": "Molochio",
    "state_id": "2c6f3cb2-fcd6-4fdc-9197-e7e8e3a1f16e"
  },
  {
    "id": "7a324e8b-ff4f-4005-aa84-539db1f3aa69",
    "name": "Monasterace",
    "state_id": "2c6f3cb2-fcd6-4fdc-9197-e7e8e3a1f16e"
  },
  {
    "id": "50e039bc-821f-4f1a-85e2-9794337e353e",
    "name": "Monasterace Marina",
    "state_id": "2c6f3cb2-fcd6-4fdc-9197-e7e8e3a1f16e"
  },
  {
    "id": "4f5595c9-b489-4362-a7f6-d7dcccb42224",
    "name": "Mongiana",
    "state_id": "2c6f3cb2-fcd6-4fdc-9197-e7e8e3a1f16e"
  },
  {
    "id": "a326f631-7940-48f1-a769-17556f8feea3",
    "name": "Mongrassano",
    "state_id": "2c6f3cb2-fcd6-4fdc-9197-e7e8e3a1f16e"
  },
  {
    "id": "39f62c13-9a50-4ef1-8a57-95ef894d3547",
    "name": "Montalto Uffugo",
    "state_id": "2c6f3cb2-fcd6-4fdc-9197-e7e8e3a1f16e"
  },
  {
    "id": "99904d9b-a686-4a1c-9c91-c3cf05a9a648",
    "name": "Montauro",
    "state_id": "2c6f3cb2-fcd6-4fdc-9197-e7e8e3a1f16e"
  },
  {
    "id": "fa0d0d7d-3882-46b4-85fa-757c208737d4",
    "name": "Montebello Jonico",
    "state_id": "2c6f3cb2-fcd6-4fdc-9197-e7e8e3a1f16e"
  },
  {
    "id": "7563324e-cafd-4ec5-95b3-d4fee1692bbb",
    "name": "Montegiordano",
    "state_id": "2c6f3cb2-fcd6-4fdc-9197-e7e8e3a1f16e"
  },
  {
    "id": "79a6ca66-3b12-44c8-ad8e-f2067dcfe658",
    "name": "Montepaone",
    "state_id": "2c6f3cb2-fcd6-4fdc-9197-e7e8e3a1f16e"
  },
  {
    "id": "d1186422-492a-49ec-8918-f21cb7488411",
    "name": "Montepaone Lido",
    "state_id": "2c6f3cb2-fcd6-4fdc-9197-e7e8e3a1f16e"
  },
  {
    "id": "aee73f5f-748c-4597-92dc-fcfce9971f71",
    "name": "Monterosso Calabro",
    "state_id": "2c6f3cb2-fcd6-4fdc-9197-e7e8e3a1f16e"
  },
  {
    "id": "3b4ea87b-4383-4f73-a193-daf8349153a2",
    "name": "Morano Calabro",
    "state_id": "2c6f3cb2-fcd6-4fdc-9197-e7e8e3a1f16e"
  },
  {
    "id": "d0389021-5dbe-4b5e-a620-92af53ca4a20",
    "name": "Mormanno",
    "state_id": "2c6f3cb2-fcd6-4fdc-9197-e7e8e3a1f16e"
  },
  {
    "id": "ae8271b7-219d-44f7-b55f-638f1f4162b3",
    "name": "Mosorrofa",
    "state_id": "2c6f3cb2-fcd6-4fdc-9197-e7e8e3a1f16e"
  },
  {
    "id": "a26575e5-0876-4fba-8776-eda902e654fc",
    "name": "Motta San Giovanni",
    "state_id": "2c6f3cb2-fcd6-4fdc-9197-e7e8e3a1f16e"
  },
  {
    "id": "1ca23216-829c-4c4f-8388-8c4a85c602e7",
    "name": "Motta Santa Lucia",
    "state_id": "2c6f3cb2-fcd6-4fdc-9197-e7e8e3a1f16e"
  },
  {
    "id": "16ce7c44-92da-4d16-8e23-81f9c577c76d",
    "name": "Mottafollone",
    "state_id": "2c6f3cb2-fcd6-4fdc-9197-e7e8e3a1f16e"
  },
  {
    "id": "d4492d6f-3453-456d-8836-4635a4055fce",
    "name": "Nardodipace",
    "state_id": "2c6f3cb2-fcd6-4fdc-9197-e7e8e3a1f16e"
  },
  {
    "id": "7f6f1dcd-253d-4045-8237-5b4a3f1080e6",
    "name": "Natile Nuovo",
    "state_id": "2c6f3cb2-fcd6-4fdc-9197-e7e8e3a1f16e"
  },
  {
    "id": "6eefc211-3cd1-4ee9-ad8d-ed5d7afebba2",
    "name": "Nicastro",
    "state_id": "2c6f3cb2-fcd6-4fdc-9197-e7e8e3a1f16e"
  },
  {
    "id": "490d280c-6d27-405b-8f91-38993cd9ce8e",
    "name": "Nicotera",
    "state_id": "2c6f3cb2-fcd6-4fdc-9197-e7e8e3a1f16e"
  },
  {
    "id": "91bd9220-b803-4e43-83fc-5a7614d3929f",
    "name": "Nocara",
    "state_id": "2c6f3cb2-fcd6-4fdc-9197-e7e8e3a1f16e"
  },
  {
    "id": "d4014f05-f1be-4a18-a264-89bc56707e83",
    "name": "Nocera Scalo",
    "state_id": "2c6f3cb2-fcd6-4fdc-9197-e7e8e3a1f16e"
  },
  {
    "id": "00375d62-fe57-4785-81f0-09e3e13aaf19",
    "name": "Nocera Terinese",
    "state_id": "2c6f3cb2-fcd6-4fdc-9197-e7e8e3a1f16e"
  },
  {
    "id": "b880b9af-a2be-4406-a925-6b6c0fece397",
    "name": "Olivadi",
    "state_id": "2c6f3cb2-fcd6-4fdc-9197-e7e8e3a1f16e"
  },
  {
    "id": "195eba8b-989f-4945-9ceb-c2c25ac8c79f",
    "name": "Oppido Mamertina",
    "state_id": "2c6f3cb2-fcd6-4fdc-9197-e7e8e3a1f16e"
  },
  {
    "id": "60531831-65b1-438a-9973-074d5467ebd3",
    "name": "Oriolo",
    "state_id": "2c6f3cb2-fcd6-4fdc-9197-e7e8e3a1f16e"
  },
  {
    "id": "26aa6740-f5c7-45ee-bf72-a5a4483a5f78",
    "name": "Orsomarso",
    "state_id": "2c6f3cb2-fcd6-4fdc-9197-e7e8e3a1f16e"
  },
  {
    "id": "46ec1705-22cf-42df-ba84-2ad8e3d7343f",
    "name": "Pagliarelle",
    "state_id": "2c6f3cb2-fcd6-4fdc-9197-e7e8e3a1f16e"
  },
  {
    "id": "47a6736d-095b-4fb3-b094-a12bda390e97",
    "name": "Palermiti",
    "state_id": "2c6f3cb2-fcd6-4fdc-9197-e7e8e3a1f16e"
  },
  {
    "id": "7f1e9199-94e7-4a6f-b149-4f3c1e76bf2a",
    "name": "Palizzi",
    "state_id": "2c6f3cb2-fcd6-4fdc-9197-e7e8e3a1f16e"
  },
  {
    "id": "75208633-a2d4-479e-8c9e-4cefd06606a0",
    "name": "Palizzi Marina",
    "state_id": "2c6f3cb2-fcd6-4fdc-9197-e7e8e3a1f16e"
  },
  {
    "id": "95fdcb7b-b694-49da-8d10-8e345382711f",
    "name": "Pallagorio",
    "state_id": "2c6f3cb2-fcd6-4fdc-9197-e7e8e3a1f16e"
  },
  {
    "id": "f4523cd4-431d-4a19-b056-32e20158a5d7",
    "name": "Palmi",
    "state_id": "2c6f3cb2-fcd6-4fdc-9197-e7e8e3a1f16e"
  },
  {
    "id": "66436ffc-476e-4452-89db-54890647e40c",
    "name": "Paludi",
    "state_id": "2c6f3cb2-fcd6-4fdc-9197-e7e8e3a1f16e"
  },
  {
    "id": "529dbc3c-7260-405c-aeaf-a525690e990c",
    "name": "Panettieri",
    "state_id": "2c6f3cb2-fcd6-4fdc-9197-e7e8e3a1f16e"
  },
  {
    "id": "7d6a5e84-ac8a-4f4d-9d6c-4ba4c04456b3",
    "name": "Pannaconi",
    "state_id": "2c6f3cb2-fcd6-4fdc-9197-e7e8e3a1f16e"
  },
  {
    "id": "6752beee-89b8-46b4-9ee3-3b0483454f91",
    "name": "Paola",
    "state_id": "2c6f3cb2-fcd6-4fdc-9197-e7e8e3a1f16e"
  },
  {
    "id": "eda577c6-14e3-4b4e-afae-a800beba55b1",
    "name": "Papanice",
    "state_id": "2c6f3cb2-fcd6-4fdc-9197-e7e8e3a1f16e"
  },
  {
    "id": "125f419c-d6f8-4404-b779-0a5197be6671",
    "name": "Papasidero",
    "state_id": "2c6f3cb2-fcd6-4fdc-9197-e7e8e3a1f16e"
  },
  {
    "id": "a051c280-72ec-45b9-accf-afbb15aea294",
    "name": "Paravati",
    "state_id": "2c6f3cb2-fcd6-4fdc-9197-e7e8e3a1f16e"
  },
  {
    "id": "3d84390c-9dc9-4052-bca6-d3acb2328119",
    "name": "Parenti",
    "state_id": "2c6f3cb2-fcd6-4fdc-9197-e7e8e3a1f16e"
  },
  {
    "id": "c1231b9d-cb01-4ed0-9a4a-0e40a5fcac45",
    "name": "Parghelia",
    "state_id": "2c6f3cb2-fcd6-4fdc-9197-e7e8e3a1f16e"
  },
  {
    "id": "78be5e8e-0863-48f5-a0f1-7bbf5f51d4a4",
    "name": "Paterno Calabro",
    "state_id": "2c6f3cb2-fcd6-4fdc-9197-e7e8e3a1f16e"
  },
  {
    "id": "34d6b4ca-08b7-4eca-a187-602acb26c88c",
    "name": "Pavigliana",
    "state_id": "2c6f3cb2-fcd6-4fdc-9197-e7e8e3a1f16e"
  },
  {
    "id": "325e382c-3b9c-4da3-9492-ea27243f6e65",
    "name": "Pazzano",
    "state_id": "2c6f3cb2-fcd6-4fdc-9197-e7e8e3a1f16e"
  },
  {
    "id": "4aaa1716-b6e0-4982-ba2f-dd86c4db4248",
    "name": "Pedace-Perito",
    "state_id": "2c6f3cb2-fcd6-4fdc-9197-e7e8e3a1f16e"
  },
  {
    "id": "40e480d5-b587-4ef3-ae9b-dd34a018455e",
    "name": "Pedivigliano",
    "state_id": "2c6f3cb2-fcd6-4fdc-9197-e7e8e3a1f16e"
  },
  {
    "id": "bd6ea1a4-06ea-4100-85c0-925184d1ee72",
    "name": "Pellaro",
    "state_id": "2c6f3cb2-fcd6-4fdc-9197-e7e8e3a1f16e"
  },
  {
    "id": "ea528772-b68d-4883-b8f6-7ed2ab6b9642",
    "name": "Pentone",
    "state_id": "2c6f3cb2-fcd6-4fdc-9197-e7e8e3a1f16e"
  },
  {
    "id": "97d4e10f-6e78-4dc9-873d-7e49487e8fce",
    "name": "Pernocari-Presinaci",
    "state_id": "2c6f3cb2-fcd6-4fdc-9197-e7e8e3a1f16e"
  },
  {
    "id": "a7fc397e-1688-4d8c-9dff-258438b3a098",
    "name": "Petilia Policastro",
    "state_id": "2c6f3cb2-fcd6-4fdc-9197-e7e8e3a1f16e"
  },
  {
    "id": "69423ee5-aea6-42c4-907f-911599e379d2",
    "name": "Petrizzi",
    "state_id": "2c6f3cb2-fcd6-4fdc-9197-e7e8e3a1f16e"
  },
  {
    "id": "e6501d3b-1f61-4493-b06a-5c63e3133ca4",
    "name": "Petronà",
    "state_id": "2c6f3cb2-fcd6-4fdc-9197-e7e8e3a1f16e"
  },
  {
    "id": "d982551a-131c-4fd2-8ecb-58fc5124be18",
    "name": "Piane Crati",
    "state_id": "2c6f3cb2-fcd6-4fdc-9197-e7e8e3a1f16e"
  },
  {
    "id": "e6515430-6e91-4593-8fed-6ca4b41f35bf",
    "name": "Pianopoli",
    "state_id": "2c6f3cb2-fcd6-4fdc-9197-e7e8e3a1f16e"
  },
  {
    "id": "fee88299-83c9-4866-a4c4-9ff56cfb9140",
    "name": "Pietrafitta",
    "state_id": "2c6f3cb2-fcd6-4fdc-9197-e7e8e3a1f16e"
  },
  {
    "id": "cae58ca9-7bb7-4306-b23a-43856dac976d",
    "name": "Pietrapaola",
    "state_id": "2c6f3cb2-fcd6-4fdc-9197-e7e8e3a1f16e"
  },
  {
    "id": "b89a55a1-e73e-4529-8c54-3def2f276614",
    "name": "Piscopio",
    "state_id": "2c6f3cb2-fcd6-4fdc-9197-e7e8e3a1f16e"
  },
  {
    "id": "4b49cd5d-8f70-48c3-bd76-bdb3258b87d0",
    "name": "Pizzo",
    "state_id": "2c6f3cb2-fcd6-4fdc-9197-e7e8e3a1f16e"
  },
  {
    "id": "e7a7c4f9-b036-45ae-8ffa-86fb56f2888f",
    "name": "Pizzoni",
    "state_id": "2c6f3cb2-fcd6-4fdc-9197-e7e8e3a1f16e"
  },
  {
    "id": "f4bfe6bd-37ea-40c1-a422-c35c0417a911",
    "name": "Placanica",
    "state_id": "2c6f3cb2-fcd6-4fdc-9197-e7e8e3a1f16e"
  },
  {
    "id": "25835b2f-ed82-4cf6-9314-95f8b492c34d",
    "name": "Plataci",
    "state_id": "2c6f3cb2-fcd6-4fdc-9197-e7e8e3a1f16e"
  },
  {
    "id": "97c9e3f7-8e82-4b20-b69f-472a94556113",
    "name": "Platania",
    "state_id": "2c6f3cb2-fcd6-4fdc-9197-e7e8e3a1f16e"
  },
  {
    "id": "17d278e9-b31f-4339-9dd0-cb28eb85d3fa",
    "name": "Platì",
    "state_id": "2c6f3cb2-fcd6-4fdc-9197-e7e8e3a1f16e"
  },
  {
    "id": "2ac30478-060e-4a8d-bb44-796c4a0ae048",
    "name": "Polia",
    "state_id": "2c6f3cb2-fcd6-4fdc-9197-e7e8e3a1f16e"
  },
  {
    "id": "ed8b5415-1e81-43c1-a304-219335a9bb2e",
    "name": "Polistena",
    "state_id": "2c6f3cb2-fcd6-4fdc-9197-e7e8e3a1f16e"
  },
  {
    "id": "41e21825-f417-4717-9aa9-3f08af713460",
    "name": "Portigliola",
    "state_id": "2c6f3cb2-fcd6-4fdc-9197-e7e8e3a1f16e"
  },
  {
    "id": "d3d868c5-8365-468f-ad1a-bd7004e3c654",
    "name": "Praia a Mare",
    "state_id": "2c6f3cb2-fcd6-4fdc-9197-e7e8e3a1f16e"
  },
  {
    "id": "77d0dd48-0d92-4855-8fe7-c9218e0649fd",
    "name": "Provincia di Catanzaro",
    "state_id": "2c6f3cb2-fcd6-4fdc-9197-e7e8e3a1f16e"
  },
  {
    "id": "8e035cd3-43bb-48ea-bd87-1c6374bd8b10",
    "name": "Provincia di Cosenza",
    "state_id": "2c6f3cb2-fcd6-4fdc-9197-e7e8e3a1f16e"
  },
  {
    "id": "59158a5b-f62f-49b2-a942-6ae3f746e95c",
    "name": "Provincia di Crotone",
    "state_id": "2c6f3cb2-fcd6-4fdc-9197-e7e8e3a1f16e"
  },
  {
    "id": "ab466b1b-8ab7-4a30-9b34-7014fc3be7a9",
    "name": "Provincia di Reggio Calabria",
    "state_id": "2c6f3cb2-fcd6-4fdc-9197-e7e8e3a1f16e"
  },
  {
    "id": "9347d0b0-1dfa-47b6-ae12-23a775f19c7a",
    "name": "Provincia di Vibo-Valentia",
    "state_id": "2c6f3cb2-fcd6-4fdc-9197-e7e8e3a1f16e"
  },
  {
    "id": "48af9a83-b087-4370-8962-7a9068761237",
    "name": "Quattromiglia",
    "state_id": "2c6f3cb2-fcd6-4fdc-9197-e7e8e3a1f16e"
  },
  {
    "id": "4fd6d003-4611-4125-ab85-e88356082ccf",
    "name": "Reggio Calabria",
    "state_id": "2c6f3cb2-fcd6-4fdc-9197-e7e8e3a1f16e"
  },
  {
    "id": "388dfe38-e22f-4398-a9ca-55ce08139fb9",
    "name": "Rende",
    "state_id": "2c6f3cb2-fcd6-4fdc-9197-e7e8e3a1f16e"
  },
  {
    "id": "e7cb533a-a08f-4180-a418-efd18a330902",
    "name": "Riace",
    "state_id": "2c6f3cb2-fcd6-4fdc-9197-e7e8e3a1f16e"
  },
  {
    "id": "45df4106-f2de-45b9-8a59-6a9ba9bb8e94",
    "name": "Riace Marina",
    "state_id": "2c6f3cb2-fcd6-4fdc-9197-e7e8e3a1f16e"
  },
  {
    "id": "fc7f190a-cb15-478a-b3f7-aea5a59119da",
    "name": "Ricadi",
    "state_id": "2c6f3cb2-fcd6-4fdc-9197-e7e8e3a1f16e"
  },
  {
    "id": "306fab4e-c84e-4866-b662-a22745d0e114",
    "name": "Rizziconi",
    "state_id": "2c6f3cb2-fcd6-4fdc-9197-e7e8e3a1f16e"
  },
  {
    "id": "5e18ce57-f20c-4df9-ba7d-661ddde49423",
    "name": "Rocca di Neto",
    "state_id": "2c6f3cb2-fcd6-4fdc-9197-e7e8e3a1f16e"
  },
  {
    "id": "a497c93c-d7b1-4f74-a580-e2ed5160b5a9",
    "name": "Rocca Imperiale",
    "state_id": "2c6f3cb2-fcd6-4fdc-9197-e7e8e3a1f16e"
  },
  {
    "id": "7249ccd9-d9b3-4aec-93d3-278e695f1be3",
    "name": "Rocca Imperiale Marina",
    "state_id": "2c6f3cb2-fcd6-4fdc-9197-e7e8e3a1f16e"
  },
  {
    "id": "454aeff7-f304-4c3b-86b7-ba4e5c5ed271",
    "name": "Roccabernarda",
    "state_id": "2c6f3cb2-fcd6-4fdc-9197-e7e8e3a1f16e"
  },
  {
    "id": "b4450c9e-4807-4d50-874c-b619acc27a1c",
    "name": "Roccaforte del Greco",
    "state_id": "2c6f3cb2-fcd6-4fdc-9197-e7e8e3a1f16e"
  },
  {
    "id": "5b5c67dd-21dc-48aa-a0ce-355c05c87bc7",
    "name": "Roccella Ionica",
    "state_id": "2c6f3cb2-fcd6-4fdc-9197-e7e8e3a1f16e"
  },
  {
    "id": "3d5649a3-3dc4-407d-aa5b-05081b995281",
    "name": "Roccelletta",
    "state_id": "2c6f3cb2-fcd6-4fdc-9197-e7e8e3a1f16e"
  },
  {
    "id": "7fd47f52-ffad-4c3d-b874-c186a2fc3ecb",
    "name": "Roggiano Gravina",
    "state_id": "2c6f3cb2-fcd6-4fdc-9197-e7e8e3a1f16e"
  },
  {
    "id": "a7055c19-90d5-4b1d-af96-b86f187ef1e7",
    "name": "Roghudi",
    "state_id": "2c6f3cb2-fcd6-4fdc-9197-e7e8e3a1f16e"
  },
  {
    "id": "61c99b2e-da7c-4af0-adfd-db4532fb286c",
    "name": "Rogliano",
    "state_id": "2c6f3cb2-fcd6-4fdc-9197-e7e8e3a1f16e"
  },
  {
    "id": "4d232ac7-b233-4c01-a609-2e3e702b5c7e",
    "name": "Rombiolo",
    "state_id": "2c6f3cb2-fcd6-4fdc-9197-e7e8e3a1f16e"
  },
  {
    "id": "4d8c4748-662a-4109-9f4f-0848d4791961",
    "name": "Rosario",
    "state_id": "2c6f3cb2-fcd6-4fdc-9197-e7e8e3a1f16e"
  },
  {
    "id": "ba24acc9-3462-4fab-8d24-e3fde49febe2",
    "name": "Rosarno",
    "state_id": "2c6f3cb2-fcd6-4fdc-9197-e7e8e3a1f16e"
  },
  {
    "id": "484b597e-6fb0-4458-977d-8c0770c4547f",
    "name": "Rose",
    "state_id": "2c6f3cb2-fcd6-4fdc-9197-e7e8e3a1f16e"
  },
  {
    "id": "cf205f01-9da1-48dd-84d8-067b436ea31e",
    "name": "Roseto Capo Spulico",
    "state_id": "2c6f3cb2-fcd6-4fdc-9197-e7e8e3a1f16e"
  },
  {
    "id": "bfb07907-bc25-4296-94e8-f29821ec279b",
    "name": "Rossano",
    "state_id": "2c6f3cb2-fcd6-4fdc-9197-e7e8e3a1f16e"
  },
  {
    "id": "a52bb31f-024b-4a73-b0ff-7a85fe2cd6b8",
    "name": "Rossano Stazione",
    "state_id": "2c6f3cb2-fcd6-4fdc-9197-e7e8e3a1f16e"
  },
  {
    "id": "1eaee41c-7dc1-49ba-a831-9947de226fe1",
    "name": "Rota Greca",
    "state_id": "2c6f3cb2-fcd6-4fdc-9197-e7e8e3a1f16e"
  },
  {
    "id": "a13ba39b-6b28-4cd7-b2f4-384676a7f1c6",
    "name": "Rovito",
    "state_id": "2c6f3cb2-fcd6-4fdc-9197-e7e8e3a1f16e"
  },
  {
    "id": "9d7557a9-b441-4f1e-8594-6d56e708a90f",
    "name": "Saline Ioniche",
    "state_id": "2c6f3cb2-fcd6-4fdc-9197-e7e8e3a1f16e"
  },
  {
    "id": "f7f4e27d-f041-457e-a04c-b7ee39401105",
    "name": "Sambiase",
    "state_id": "2c6f3cb2-fcd6-4fdc-9197-e7e8e3a1f16e"
  },
  {
    "id": "c35a02f4-37c1-4331-9a9c-e9e4883cdbc2",
    "name": "Samo",
    "state_id": "2c6f3cb2-fcd6-4fdc-9197-e7e8e3a1f16e"
  },
  {
    "id": "996cf674-dad8-4117-bf02-a2b62087370a",
    "name": "San Basile",
    "state_id": "2c6f3cb2-fcd6-4fdc-9197-e7e8e3a1f16e"
  },
  {
    "id": "bcd753cb-4293-4f7b-b8d5-dc2076436855",
    "name": "San Benedetto Ullano",
    "state_id": "2c6f3cb2-fcd6-4fdc-9197-e7e8e3a1f16e"
  },
  {
    "id": "1c459343-7345-43d6-bb95-26d8ce161361",
    "name": "San Calogero",
    "state_id": "2c6f3cb2-fcd6-4fdc-9197-e7e8e3a1f16e"
  },
  {
    "id": "c33143a0-7448-4d29-80b1-c8ba45ddd384",
    "name": "San Carlo-Condofuri Marina",
    "state_id": "2c6f3cb2-fcd6-4fdc-9197-e7e8e3a1f16e"
  },
  {
    "id": "dfb9007c-1f01-496b-8754-5d42fe25b459",
    "name": "San Cosmo Albanese",
    "state_id": "2c6f3cb2-fcd6-4fdc-9197-e7e8e3a1f16e"
  },
  {
    "id": "0e1ec46c-5a48-4d2c-8b0a-4c42458defac",
    "name": "San Costantino Calabro",
    "state_id": "2c6f3cb2-fcd6-4fdc-9197-e7e8e3a1f16e"
  },
  {
    "id": "15f8e979-e1fb-432f-9f07-32cfbfe8679d",
    "name": "San Demetrio Corone",
    "state_id": "2c6f3cb2-fcd6-4fdc-9197-e7e8e3a1f16e"
  },
  {
    "id": "83dfb0a1-0bba-413c-b33d-64492bc187e0",
    "name": "San Donato di Ninea",
    "state_id": "2c6f3cb2-fcd6-4fdc-9197-e7e8e3a1f16e"
  },
  {
    "id": "50651f3a-409e-467f-9f37-4d9d1948398d",
    "name": "San Ferdinando",
    "state_id": "2c6f3cb2-fcd6-4fdc-9197-e7e8e3a1f16e"
  },
  {
    "id": "e78bf20e-b0b3-4537-a676-14f1b8361d99",
    "name": "San Fili",
    "state_id": "2c6f3cb2-fcd6-4fdc-9197-e7e8e3a1f16e"
  },
  {
    "id": "9a5c8340-0895-40f3-a89c-8e5278caf4ec",
    "name": "San Floro",
    "state_id": "2c6f3cb2-fcd6-4fdc-9197-e7e8e3a1f16e"
  },
  {
    "id": "77ab554a-968d-47de-a3db-4861b338e8b6",
    "name": "San Giorgio Albanese",
    "state_id": "2c6f3cb2-fcd6-4fdc-9197-e7e8e3a1f16e"
  },
  {
    "id": "e59dba8d-5bf7-4b72-b43f-b971291004a1",
    "name": "San Giorgio Morgeto",
    "state_id": "2c6f3cb2-fcd6-4fdc-9197-e7e8e3a1f16e"
  },
  {
    "id": "b503ef73-014a-4041-9c9d-9d79d31002fa",
    "name": "San Giovanni di Gerace",
    "state_id": "2c6f3cb2-fcd6-4fdc-9197-e7e8e3a1f16e"
  },
  {
    "id": "615c193b-c9ca-4ec5-98c8-4dbb78ad567f",
    "name": "San Giovanni in Fiore",
    "state_id": "2c6f3cb2-fcd6-4fdc-9197-e7e8e3a1f16e"
  },
  {
    "id": "dd9e66fe-307c-497a-b99f-69138bb6befa",
    "name": "San Gregorio d'Ippona",
    "state_id": "2c6f3cb2-fcd6-4fdc-9197-e7e8e3a1f16e"
  },
  {
    "id": "5ba793a3-8ac9-454f-8c08-994e62fcbedc",
    "name": "San Lorenzo",
    "state_id": "2c6f3cb2-fcd6-4fdc-9197-e7e8e3a1f16e"
  },
  {
    "id": "f293ba52-7845-401e-95fc-12411827b20a",
    "name": "San Lorenzo Bellizzi",
    "state_id": "2c6f3cb2-fcd6-4fdc-9197-e7e8e3a1f16e"
  },
  {
    "id": "879eb58d-a390-45ec-a00a-22fd62b5a08a",
    "name": "San Lorenzo del Vallo",
    "state_id": "2c6f3cb2-fcd6-4fdc-9197-e7e8e3a1f16e"
  },
  {
    "id": "adb644af-7fcb-4c7f-a64b-fd38c6277b39",
    "name": "San Luca",
    "state_id": "2c6f3cb2-fcd6-4fdc-9197-e7e8e3a1f16e"
  },
  {
    "id": "d3050579-bb97-4eb5-831b-c84ccd8ae44d",
    "name": "San Lucido",
    "state_id": "2c6f3cb2-fcd6-4fdc-9197-e7e8e3a1f16e"
  },
  {
    "id": "99a34500-02d5-4c59-86be-e90f3633d63f",
    "name": "San Mango d'Aquino",
    "state_id": "2c6f3cb2-fcd6-4fdc-9197-e7e8e3a1f16e"
  },
  {
    "id": "d3e704ea-0fb9-4402-aa76-b25c3118019e",
    "name": "San Marco Argentano",
    "state_id": "2c6f3cb2-fcd6-4fdc-9197-e7e8e3a1f16e"
  },
  {
    "id": "e1446dfa-d693-4f25-9b12-7eb7c28ac008",
    "name": "San Martino",
    "state_id": "2c6f3cb2-fcd6-4fdc-9197-e7e8e3a1f16e"
  },
  {
    "id": "9c1c5d20-ee83-408e-be3e-b5e90cbfc9bc",
    "name": "San Martino di Finita",
    "state_id": "2c6f3cb2-fcd6-4fdc-9197-e7e8e3a1f16e"
  },
  {
    "id": "05c6d8c5-4c4d-4096-a4f3-66673156bac7",
    "name": "San Mauro Marchesato",
    "state_id": "2c6f3cb2-fcd6-4fdc-9197-e7e8e3a1f16e"
  },
  {
    "id": "cad2a647-c350-4445-8b09-83537d5b720b",
    "name": "San Nico",
    "state_id": "2c6f3cb2-fcd6-4fdc-9197-e7e8e3a1f16e"
  },
  {
    "id": "f74afd4a-a1ae-48f7-88a0-cba70b88dd7e",
    "name": "San Nicola",
    "state_id": "2c6f3cb2-fcd6-4fdc-9197-e7e8e3a1f16e"
  },
  {
    "id": "4cf24991-19af-493f-9cd9-97905596e353",
    "name": "San Nicola Arcella",
    "state_id": "2c6f3cb2-fcd6-4fdc-9197-e7e8e3a1f16e"
  },
  {
    "id": "871d7779-e0b8-4e85-af3d-602c5880c50b",
    "name": "San Nicola da Crissa",
    "state_id": "2c6f3cb2-fcd6-4fdc-9197-e7e8e3a1f16e"
  },
  {
    "id": "257c42ef-7e98-48a1-b992-d6357b16b190",
    "name": "San Nicola dell'Alto",
    "state_id": "2c6f3cb2-fcd6-4fdc-9197-e7e8e3a1f16e"
  },
  {
    "id": "ddab9135-1715-4859-95d5-19f317cec78a",
    "name": "San Nicolò",
    "state_id": "2c6f3cb2-fcd6-4fdc-9197-e7e8e3a1f16e"
  },
  {
    "id": "9bb939fe-1833-4bc9-8c29-86519794b98a",
    "name": "San Pietro a Maida",
    "state_id": "2c6f3cb2-fcd6-4fdc-9197-e7e8e3a1f16e"
  },
  {
    "id": "314cee63-36b1-4e07-807f-464d9f15bebf",
    "name": "San Pietro Apostolo",
    "state_id": "2c6f3cb2-fcd6-4fdc-9197-e7e8e3a1f16e"
  },
  {
    "id": "2140639a-df30-4b4a-a43b-487a4266fda1",
    "name": "San Pietro di Caridà",
    "state_id": "2c6f3cb2-fcd6-4fdc-9197-e7e8e3a1f16e"
  },
  {
    "id": "8b3d43a1-80b5-48f1-aad2-5200cd0a3fa4",
    "name": "San Pietro in Amantea",
    "state_id": "2c6f3cb2-fcd6-4fdc-9197-e7e8e3a1f16e"
  },
  {
    "id": "4bc461a1-a991-40a1-88b4-1e2af6c95f28",
    "name": "San Pietro in Guarano",
    "state_id": "2c6f3cb2-fcd6-4fdc-9197-e7e8e3a1f16e"
  },
  {
    "id": "78810fb9-a386-4bbb-8b45-2509473f2cb2",
    "name": "San Procopio",
    "state_id": "2c6f3cb2-fcd6-4fdc-9197-e7e8e3a1f16e"
  },
  {
    "id": "2ed0e086-a3f7-4cbc-9314-85fc95da1c22",
    "name": "San Roberto",
    "state_id": "2c6f3cb2-fcd6-4fdc-9197-e7e8e3a1f16e"
  },
  {
    "id": "a6148853-60d1-4ab1-a4b7-b9419b877201",
    "name": "San Sostene",
    "state_id": "2c6f3cb2-fcd6-4fdc-9197-e7e8e3a1f16e"
  },
  {
    "id": "c1941345-7091-4c30-9302-e762d9c8f15a",
    "name": "San Sosti",
    "state_id": "2c6f3cb2-fcd6-4fdc-9197-e7e8e3a1f16e"
  },
  {
    "id": "f29c2e2e-d869-46b9-a050-628cf957efa9",
    "name": "San Vincenzo la Costa",
    "state_id": "2c6f3cb2-fcd6-4fdc-9197-e7e8e3a1f16e"
  },
  {
    "id": "83cc2efd-cafd-467f-81b9-4b43a611a233",
    "name": "San Vito Sullo Ionio",
    "state_id": "2c6f3cb2-fcd6-4fdc-9197-e7e8e3a1f16e"
  },
  {
    "id": "e0ea7cbc-ed15-4297-b493-893f16602f3a",
    "name": "Sangineto",
    "state_id": "2c6f3cb2-fcd6-4fdc-9197-e7e8e3a1f16e"
  },
  {
    "id": "6537b952-57ed-48a6-978c-01399a94e204",
    "name": "Sant'Agata del Bianco",
    "state_id": "2c6f3cb2-fcd6-4fdc-9197-e7e8e3a1f16e"
  },
  {
    "id": "84eacef9-e354-415b-a324-ce7273fc84ff",
    "name": "Sant'Agata di Esaro",
    "state_id": "2c6f3cb2-fcd6-4fdc-9197-e7e8e3a1f16e"
  },
  {
    "id": "a54b30df-290f-4af6-b91a-4360a022c81f",
    "name": "Sant'Alessio in Aspromonte",
    "state_id": "2c6f3cb2-fcd6-4fdc-9197-e7e8e3a1f16e"
  },
  {
    "id": "db34b5da-f29e-4693-94d7-2362a5db1023",
    "name": "Sant'Andrea Apostolo dello Ionio",
    "state_id": "2c6f3cb2-fcd6-4fdc-9197-e7e8e3a1f16e"
  },
  {
    "id": "46707679-f55f-4172-a291-e4d9ec2c5b24",
    "name": "Sant'Andrea Ionio Marina",
    "state_id": "2c6f3cb2-fcd6-4fdc-9197-e7e8e3a1f16e"
  },
  {
    "id": "f1ff0517-e3fe-43a6-9e53-c01ebce8b327",
    "name": "Sant'Elia",
    "state_id": "2c6f3cb2-fcd6-4fdc-9197-e7e8e3a1f16e"
  },
  {
    "id": "e2d18312-1910-43be-8879-1f8dca2c93bf",
    "name": "Sant'Eufemia d'Aspromonte",
    "state_id": "2c6f3cb2-fcd6-4fdc-9197-e7e8e3a1f16e"
  },
  {
    "id": "cda00faf-61c4-40eb-8f63-79bb2b3df508",
    "name": "Sant'Ilario dello Ionio",
    "state_id": "2c6f3cb2-fcd6-4fdc-9197-e7e8e3a1f16e"
  },
  {
    "id": "954370e0-1175-42d8-b040-0f106b7d4abb",
    "name": "Sant'Onofrio",
    "state_id": "2c6f3cb2-fcd6-4fdc-9197-e7e8e3a1f16e"
  },
  {
    "id": "0a4fba2c-3822-42e2-a626-6a96a26d501a",
    "name": "Santa Caterina Albanese",
    "state_id": "2c6f3cb2-fcd6-4fdc-9197-e7e8e3a1f16e"
  },
  {
    "id": "c25663c2-96e5-4bcd-892a-a85ade1bd92c",
    "name": "Santa Caterina dello Ionio",
    "state_id": "2c6f3cb2-fcd6-4fdc-9197-e7e8e3a1f16e"
  },
  {
    "id": "8ca17edb-927d-45bf-baaa-27a5df450b85",
    "name": "Santa Caterina dello Ionio Marina",
    "state_id": "2c6f3cb2-fcd6-4fdc-9197-e7e8e3a1f16e"
  },
  {
    "id": "c62ff9d5-17a2-487a-bef6-592d94188a56",
    "name": "Santa Cristina d'Aspromonte",
    "state_id": "2c6f3cb2-fcd6-4fdc-9197-e7e8e3a1f16e"
  },
  {
    "id": "504d9429-f95b-4e5a-b98d-15c92ef01335",
    "name": "Santa Domenica",
    "state_id": "2c6f3cb2-fcd6-4fdc-9197-e7e8e3a1f16e"
  },
  {
    "id": "b987237c-d737-41e5-9c6d-136a206cfdfc",
    "name": "Santa Domenica Talao",
    "state_id": "2c6f3cb2-fcd6-4fdc-9197-e7e8e3a1f16e"
  },
  {
    "id": "8e063a92-3e7c-42b3-94da-e61661b6ecb9",
    "name": "Santa Eufemia Lamezia",
    "state_id": "2c6f3cb2-fcd6-4fdc-9197-e7e8e3a1f16e"
  },
  {
    "id": "6b1297b2-9b19-4615-96f5-980beca01770",
    "name": "Santa Maria del Cedro",
    "state_id": "2c6f3cb2-fcd6-4fdc-9197-e7e8e3a1f16e"
  },
  {
    "id": "fb77ac56-882b-4365-8101-b3801247d8d0",
    "name": "Santa Severina",
    "state_id": "2c6f3cb2-fcd6-4fdc-9197-e7e8e3a1f16e"
  },
  {
    "id": "d31aae7e-33b4-4198-819f-bc4857192235",
    "name": "Santa Sofia d'Epiro",
    "state_id": "2c6f3cb2-fcd6-4fdc-9197-e7e8e3a1f16e"
  },
  {
    "id": "720f1268-5fcd-4b27-a46a-81fe26065393",
    "name": "Santo Stefano",
    "state_id": "2c6f3cb2-fcd6-4fdc-9197-e7e8e3a1f16e"
  },
  {
    "id": "0b167594-7883-43e2-bfe0-fe545e7cbc06",
    "name": "Santo Stefano di Rogliano",
    "state_id": "2c6f3cb2-fcd6-4fdc-9197-e7e8e3a1f16e"
  },
  {
    "id": "a0ce2544-68f4-4731-a871-ca32e3da2113",
    "name": "Santo Stefano in Aspromonte",
    "state_id": "2c6f3cb2-fcd6-4fdc-9197-e7e8e3a1f16e"
  },
  {
    "id": "58d89825-de79-4a63-889e-011da31f56ad",
    "name": "Saracena",
    "state_id": "2c6f3cb2-fcd6-4fdc-9197-e7e8e3a1f16e"
  },
  {
    "id": "9888b7c1-8c67-4cac-a723-a84eac1f22ec",
    "name": "Sartano",
    "state_id": "2c6f3cb2-fcd6-4fdc-9197-e7e8e3a1f16e"
  },
  {
    "id": "f85c9bda-1698-4e24-a178-6bced1e13f25",
    "name": "Satriano",
    "state_id": "2c6f3cb2-fcd6-4fdc-9197-e7e8e3a1f16e"
  },
  {
    "id": "f148600b-68cd-4149-828e-774dd9d41411",
    "name": "Savelli",
    "state_id": "2c6f3cb2-fcd6-4fdc-9197-e7e8e3a1f16e"
  },
  {
    "id": "99fbc6f6-7776-49d5-adb8-0f5632983ee3",
    "name": "Scala Coeli",
    "state_id": "2c6f3cb2-fcd6-4fdc-9197-e7e8e3a1f16e"
  },
  {
    "id": "85705e87-435d-4315-b49d-995b6b219ec7",
    "name": "Scalea",
    "state_id": "2c6f3cb2-fcd6-4fdc-9197-e7e8e3a1f16e"
  },
  {
    "id": "99a24750-aefa-4b6e-821c-ecce9c813fc1",
    "name": "Scandale",
    "state_id": "2c6f3cb2-fcd6-4fdc-9197-e7e8e3a1f16e"
  },
  {
    "id": "ed719acb-d657-4b7e-a782-1666c8212596",
    "name": "Scarcelli",
    "state_id": "2c6f3cb2-fcd6-4fdc-9197-e7e8e3a1f16e"
  },
  {
    "id": "bdb0def0-f5b4-4aa3-a0c4-89491a40acbd",
    "name": "Scido",
    "state_id": "2c6f3cb2-fcd6-4fdc-9197-e7e8e3a1f16e"
  },
  {
    "id": "296b8ef3-fff5-4722-ad45-59812b692a03",
    "name": "Scilla",
    "state_id": "2c6f3cb2-fcd6-4fdc-9197-e7e8e3a1f16e"
  },
  {
    "id": "d71c5216-2465-4186-a4f5-c0601a6ccea8",
    "name": "Sellia",
    "state_id": "2c6f3cb2-fcd6-4fdc-9197-e7e8e3a1f16e"
  },
  {
    "id": "a870185e-decf-4e92-9643-f35e101a6575",
    "name": "Sellia Marina",
    "state_id": "2c6f3cb2-fcd6-4fdc-9197-e7e8e3a1f16e"
  },
  {
    "id": "95830b68-7956-4774-9376-9bec7b1d4e70",
    "name": "Seminara",
    "state_id": "2c6f3cb2-fcd6-4fdc-9197-e7e8e3a1f16e"
  },
  {
    "id": "544d68c0-47e7-4b0a-8d4b-a881d4da4bfb",
    "name": "Serra d'Aiello",
    "state_id": "2c6f3cb2-fcd6-4fdc-9197-e7e8e3a1f16e"
  },
  {
    "id": "6ea5724f-7868-4d2d-838f-fddf08f28925",
    "name": "Serra Pedace",
    "state_id": "2c6f3cb2-fcd6-4fdc-9197-e7e8e3a1f16e"
  },
  {
    "id": "f27f63e0-10ab-42d6-8f5f-1089299da707",
    "name": "Serra San Bruno",
    "state_id": "2c6f3cb2-fcd6-4fdc-9197-e7e8e3a1f16e"
  },
  {
    "id": "bbbe2776-e05c-49ef-8cd3-8c9b86d52cee",
    "name": "Serrastretta",
    "state_id": "2c6f3cb2-fcd6-4fdc-9197-e7e8e3a1f16e"
  },
  {
    "id": "3cd067a1-4e1a-44e2-822b-8a3522fe69dd",
    "name": "Serrata",
    "state_id": "2c6f3cb2-fcd6-4fdc-9197-e7e8e3a1f16e"
  },
  {
    "id": "4f6e579b-bcd4-42f8-8f23-8fa41ba11b90",
    "name": "Sersale",
    "state_id": "2c6f3cb2-fcd6-4fdc-9197-e7e8e3a1f16e"
  },
  {
    "id": "01946d7d-0c9f-4ab3-ad6c-961b7b589e8b",
    "name": "Settimo",
    "state_id": "2c6f3cb2-fcd6-4fdc-9197-e7e8e3a1f16e"
  },
  {
    "id": "2e7abde8-b5dd-4e8f-861b-85cc68fe2b61",
    "name": "Settingiano",
    "state_id": "2c6f3cb2-fcd6-4fdc-9197-e7e8e3a1f16e"
  },
  {
    "id": "a23e97aa-441b-46ff-83e4-92cca9d03e08",
    "name": "Siano",
    "state_id": "2c6f3cb2-fcd6-4fdc-9197-e7e8e3a1f16e"
  },
  {
    "id": "ee79585b-bcd2-4827-b1d5-3b3aca892e75",
    "name": "Sibari",
    "state_id": "2c6f3cb2-fcd6-4fdc-9197-e7e8e3a1f16e"
  },
  {
    "id": "6f8a9965-5c6b-4f95-b3be-81d165cca5c0",
    "name": "Siderno",
    "state_id": "2c6f3cb2-fcd6-4fdc-9197-e7e8e3a1f16e"
  },
  {
    "id": "b634689e-d077-4aab-8449-19de7c844894",
    "name": "Simbario",
    "state_id": "2c6f3cb2-fcd6-4fdc-9197-e7e8e3a1f16e"
  },
  {
    "id": "3f69c90f-3664-45a6-857d-b54684e04b92",
    "name": "Sinopoli",
    "state_id": "2c6f3cb2-fcd6-4fdc-9197-e7e8e3a1f16e"
  },
  {
    "id": "938cf85d-ae21-441f-be22-ab467473b44e",
    "name": "Sorbo San Basile",
    "state_id": "2c6f3cb2-fcd6-4fdc-9197-e7e8e3a1f16e"
  },
  {
    "id": "f0a4641f-3a87-44f8-8eb2-abf502949efb",
    "name": "Sorianello",
    "state_id": "2c6f3cb2-fcd6-4fdc-9197-e7e8e3a1f16e"
  },
  {
    "id": "91e268ad-706c-42ec-ac39-54b5e878198f",
    "name": "Soriano Calabro",
    "state_id": "2c6f3cb2-fcd6-4fdc-9197-e7e8e3a1f16e"
  },
  {
    "id": "6895d3e3-2098-4a37-a261-6ed5e48ac4f9",
    "name": "Soverato Marina",
    "state_id": "2c6f3cb2-fcd6-4fdc-9197-e7e8e3a1f16e"
  },
  {
    "id": "76a1e3a3-da78-44fe-bb03-53261c0393a5",
    "name": "Soverato Superiore",
    "state_id": "2c6f3cb2-fcd6-4fdc-9197-e7e8e3a1f16e"
  },
  {
    "id": "38f99cfd-c4ec-4a2f-a105-94b6cc798571",
    "name": "Soveria Mannelli",
    "state_id": "2c6f3cb2-fcd6-4fdc-9197-e7e8e3a1f16e"
  },
  {
    "id": "96d2996f-3bc1-4d94-a86d-c21621089a86",
    "name": "Soveria Simeri",
    "state_id": "2c6f3cb2-fcd6-4fdc-9197-e7e8e3a1f16e"
  },
  {
    "id": "ada6c9e9-4fbc-4b06-aacc-d1d7492f9b2d",
    "name": "Spadola",
    "state_id": "2c6f3cb2-fcd6-4fdc-9197-e7e8e3a1f16e"
  },
  {
    "id": "fbb22ecf-35a6-491f-b094-a98ab9e17b96",
    "name": "Spezzano Albanese",
    "state_id": "2c6f3cb2-fcd6-4fdc-9197-e7e8e3a1f16e"
  },
  {
    "id": "4bfc38bc-4734-4ff2-9d67-36528bff8b98",
    "name": "Spezzano della Sila",
    "state_id": "2c6f3cb2-fcd6-4fdc-9197-e7e8e3a1f16e"
  },
  {
    "id": "d47f119f-c0ac-47ab-a2d6-0d637f89a052",
    "name": "Spezzano Piccolo",
    "state_id": "2c6f3cb2-fcd6-4fdc-9197-e7e8e3a1f16e"
  },
  {
    "id": "d8e70ff3-61c5-433b-806b-2d284b20e48b",
    "name": "Spilinga",
    "state_id": "2c6f3cb2-fcd6-4fdc-9197-e7e8e3a1f16e"
  },
  {
    "id": "7d56f9cc-3de2-4058-aec2-168f73d0e643",
    "name": "Squillace",
    "state_id": "2c6f3cb2-fcd6-4fdc-9197-e7e8e3a1f16e"
  },
  {
    "id": "0be72483-a927-486b-8126-25d3b8710b1f",
    "name": "Squillace Lido",
    "state_id": "2c6f3cb2-fcd6-4fdc-9197-e7e8e3a1f16e"
  },
  {
    "id": "71c4a563-d533-42cd-86b9-ae59502a411a",
    "name": "Staiti",
    "state_id": "2c6f3cb2-fcd6-4fdc-9197-e7e8e3a1f16e"
  },
  {
    "id": "fb2ce873-e0dd-442c-afce-6e7564a1b5cd",
    "name": "Staletti",
    "state_id": "2c6f3cb2-fcd6-4fdc-9197-e7e8e3a1f16e"
  },
  {
    "id": "5cf7be2a-4604-4a0f-9bd7-bb0c8a5dfd55",
    "name": "Stazione Montalto-Coretto",
    "state_id": "2c6f3cb2-fcd6-4fdc-9197-e7e8e3a1f16e"
  },
  {
    "id": "3e18d012-7232-48dd-b4e8-7e589dd50999",
    "name": "Stefanaconi",
    "state_id": "2c6f3cb2-fcd6-4fdc-9197-e7e8e3a1f16e"
  },
  {
    "id": "dd1335d6-08ff-4af7-a193-4d632cb846f3",
    "name": "Stignano",
    "state_id": "2c6f3cb2-fcd6-4fdc-9197-e7e8e3a1f16e"
  },
  {
    "id": "d50daf4f-1bf3-4d30-99b3-5f94e5246bdf",
    "name": "Stilo",
    "state_id": "2c6f3cb2-fcd6-4fdc-9197-e7e8e3a1f16e"
  },
  {
    "id": "ae295096-d6bd-4fe2-a371-4b612755f6df",
    "name": "Strongoli",
    "state_id": "2c6f3cb2-fcd6-4fdc-9197-e7e8e3a1f16e"
  },
  {
    "id": "a0fe7f14-6242-492d-8218-fde4e4e5e78e",
    "name": "Surdo",
    "state_id": "2c6f3cb2-fcd6-4fdc-9197-e7e8e3a1f16e"
  },
  {
    "id": "800b2125-8f01-490d-97b9-6febb14e9a33",
    "name": "Tarsia",
    "state_id": "2c6f3cb2-fcd6-4fdc-9197-e7e8e3a1f16e"
  },
  {
    "id": "a40fb799-1a17-4d5d-8b9c-8c8adead724f",
    "name": "Taurianova",
    "state_id": "2c6f3cb2-fcd6-4fdc-9197-e7e8e3a1f16e"
  },
  {
    "id": "fbcd582a-0ffd-47e3-a343-11bd541ecce2",
    "name": "Taverna",
    "state_id": "2c6f3cb2-fcd6-4fdc-9197-e7e8e3a1f16e"
  },
  {
    "id": "445e14b0-b74d-48fb-8f3f-2c52066fe925",
    "name": "Terranova da Sibari",
    "state_id": "2c6f3cb2-fcd6-4fdc-9197-e7e8e3a1f16e"
  },
  {
    "id": "f5f14511-8b2b-4156-9bc3-ec7322e2946a",
    "name": "Terranova Sappo Minulio",
    "state_id": "2c6f3cb2-fcd6-4fdc-9197-e7e8e3a1f16e"
  },
  {
    "id": "5d1018b3-91ac-44f4-8152-b192c73be127",
    "name": "Terravecchia",
    "state_id": "2c6f3cb2-fcd6-4fdc-9197-e7e8e3a1f16e"
  },
  {
    "id": "7c8968d3-16de-4d98-8f18-d99c8eb7a9c2",
    "name": "Tiriolo",
    "state_id": "2c6f3cb2-fcd6-4fdc-9197-e7e8e3a1f16e"
  },
  {
    "id": "2361b042-b5d2-4680-a7aa-ebaa07d3e70f",
    "name": "Tivolille Pasquali-Merenzata",
    "state_id": "2c6f3cb2-fcd6-4fdc-9197-e7e8e3a1f16e"
  },
  {
    "id": "4be3de68-2c5d-4c73-8ccf-c3347f26d4f2",
    "name": "Torano Castello",
    "state_id": "2c6f3cb2-fcd6-4fdc-9197-e7e8e3a1f16e"
  },
  {
    "id": "f4ee33ea-39b8-44c3-a4d8-65fdc31d9658",
    "name": "Torre di Ruggiero",
    "state_id": "2c6f3cb2-fcd6-4fdc-9197-e7e8e3a1f16e"
  },
  {
    "id": "b84b0b36-1876-4684-bbc5-cf928a7108c2",
    "name": "Torre Melissa",
    "state_id": "2c6f3cb2-fcd6-4fdc-9197-e7e8e3a1f16e"
  },
  {
    "id": "cbf01c57-b9bb-4df5-96bd-5576187bd9c0",
    "name": "Torretta",
    "state_id": "2c6f3cb2-fcd6-4fdc-9197-e7e8e3a1f16e"
  },
  {
    "id": "20293381-90db-467a-8d29-e1103f7d8450",
    "name": "Tortora",
    "state_id": "2c6f3cb2-fcd6-4fdc-9197-e7e8e3a1f16e"
  },
  {
    "id": "95245b1a-803c-47b9-a400-449288ed2438",
    "name": "Tortora Marina",
    "state_id": "2c6f3cb2-fcd6-4fdc-9197-e7e8e3a1f16e"
  },
  {
    "id": "aa017079-753c-4a8d-b6ea-f86389599ff8",
    "name": "Trebisacce",
    "state_id": "2c6f3cb2-fcd6-4fdc-9197-e7e8e3a1f16e"
  },
  {
    "id": "36cd3d58-865f-4a16-8c69-bffd8f95e14e",
    "name": "Trenta",
    "state_id": "2c6f3cb2-fcd6-4fdc-9197-e7e8e3a1f16e"
  },
  {
    "id": "04d432bd-9a80-4984-9b0f-4582c925cd43",
    "name": "Tronca",
    "state_id": "2c6f3cb2-fcd6-4fdc-9197-e7e8e3a1f16e"
  },
  {
    "id": "cf21535b-250d-44df-8ba3-b116a261a12e",
    "name": "Tropea",
    "state_id": "2c6f3cb2-fcd6-4fdc-9197-e7e8e3a1f16e"
  },
  {
    "id": "9c966b86-4daa-4d64-9edd-39953d0c7d5e",
    "name": "Umbriatico",
    "state_id": "2c6f3cb2-fcd6-4fdc-9197-e7e8e3a1f16e"
  },
  {
    "id": "6a13bc2f-9ab2-4e11-90c3-3968f6744f0c",
    "name": "Vaccarizzo Albanese",
    "state_id": "2c6f3cb2-fcd6-4fdc-9197-e7e8e3a1f16e"
  },
  {
    "id": "fabe1192-b02a-4363-8110-d69eeb87d8c5",
    "name": "Vadue",
    "state_id": "2c6f3cb2-fcd6-4fdc-9197-e7e8e3a1f16e"
  },
  {
    "id": "b2be0b3f-462c-419a-8c5d-22f0e4f4c1d3",
    "name": "Vallefiorita",
    "state_id": "2c6f3cb2-fcd6-4fdc-9197-e7e8e3a1f16e"
  },
  {
    "id": "fa0979c9-6b2c-4c4f-b576-6b9d6c6d6886",
    "name": "Vallelonga",
    "state_id": "2c6f3cb2-fcd6-4fdc-9197-e7e8e3a1f16e"
  },
  {
    "id": "6ba5017b-f1f6-4104-ac39-c3195c2532d9",
    "name": "Varapodio",
    "state_id": "2c6f3cb2-fcd6-4fdc-9197-e7e8e3a1f16e"
  },
  {
    "id": "b5ba8342-6c69-46d9-bcf7-33d437a9984a",
    "name": "Vazzano",
    "state_id": "2c6f3cb2-fcd6-4fdc-9197-e7e8e3a1f16e"
  },
  {
    "id": "a5161e68-4a10-43eb-897f-703198459ac3",
    "name": "Verbicaro",
    "state_id": "2c6f3cb2-fcd6-4fdc-9197-e7e8e3a1f16e"
  },
  {
    "id": "a7a9670f-9031-4f41-8eaf-a2519bd56f09",
    "name": "Verzino",
    "state_id": "2c6f3cb2-fcd6-4fdc-9197-e7e8e3a1f16e"
  },
  {
    "id": "14abef09-6a08-4e0d-a21b-b935923c5c6d",
    "name": "Vibo Valentia",
    "state_id": "2c6f3cb2-fcd6-4fdc-9197-e7e8e3a1f16e"
  },
  {
    "id": "b0e2dcec-a282-4fc7-aec1-518be58fd711",
    "name": "Villa San Giovanni",
    "state_id": "2c6f3cb2-fcd6-4fdc-9197-e7e8e3a1f16e"
  },
  {
    "id": "659304ec-259c-4d4e-beb7-ab29103bb066",
    "name": "Villapiana",
    "state_id": "2c6f3cb2-fcd6-4fdc-9197-e7e8e3a1f16e"
  },
  {
    "id": "ce2114f1-5680-4372-833e-316a6c4b492a",
    "name": "Villapiana Lido",
    "state_id": "2c6f3cb2-fcd6-4fdc-9197-e7e8e3a1f16e"
  },
  {
    "id": "f7304487-0029-4e80-8ea1-7cf1e2967457",
    "name": "Weather Station",
    "state_id": "2c6f3cb2-fcd6-4fdc-9197-e7e8e3a1f16e"
  },
  {
    "id": "73a28ab8-f445-491b-9008-c902771a08ef",
    "name": "Zaccanopoli",
    "state_id": "2c6f3cb2-fcd6-4fdc-9197-e7e8e3a1f16e"
  },
  {
    "id": "b36bfb34-b457-48ee-9bf8-d75ddee928b7",
    "name": "Zagarise",
    "state_id": "2c6f3cb2-fcd6-4fdc-9197-e7e8e3a1f16e"
  },
  {
    "id": "5a91d99f-ebfe-4655-ae0d-508328e36aad",
    "name": "Zambrone",
    "state_id": "2c6f3cb2-fcd6-4fdc-9197-e7e8e3a1f16e"
  },
  {
    "id": "1668f0d9-9fcc-43b2-b0ac-e2c60e21849a",
    "name": "Zumpano",
    "state_id": "2c6f3cb2-fcd6-4fdc-9197-e7e8e3a1f16e"
  },
  {
    "id": "f7ac11db-25b2-4fa9-a9c6-3cd7557aaacc",
    "name": "Zungri",
    "state_id": "2c6f3cb2-fcd6-4fdc-9197-e7e8e3a1f16e"
  }
]