[
  {
    "id": "bce20e6e-a345-478a-b92a-259b27e402fe",
    "name": "Afgooye",
    "state_id": "2c8f560a-104e-494a-98ab-4e82baaf6f08"
  },
  {
    "id": "13d7c0fc-e388-4444-9947-2871b6672794",
    "name": "Marka",
    "state_id": "2c8f560a-104e-494a-98ab-4e82baaf6f08"
  },
  {
    "id": "8c921632-889c-4299-9ba4-359e6eaf178a",
    "name": "Qoryooley",
    "state_id": "2c8f560a-104e-494a-98ab-4e82baaf6f08"
  },
  {
    "id": "89596729-f087-4bd2-b7fe-6f1d4426b0ea",
    "name": "Wanlaweyn",
    "state_id": "2c8f560a-104e-494a-98ab-4e82baaf6f08"
  }
]