[
  {
    "id": "335588b8-5441-40b9-b478-08afccdf80f4",
    "name": "Bou Hanifia el Hamamat",
    "state_id": "2d103356-2cda-4a3b-a052-fbd8f35ad5ce"
  },
  {
    "id": "5f526a15-9c8a-48a8-a147-26f7f5166cf6",
    "name": "Mascara",
    "state_id": "2d103356-2cda-4a3b-a052-fbd8f35ad5ce"
  },
  {
    "id": "661c3895-240d-4c52-8731-01b6a237b094",
    "name": "Oued el Abtal",
    "state_id": "2d103356-2cda-4a3b-a052-fbd8f35ad5ce"
  },
  {
    "id": "3bcd90ef-de56-4734-b0ee-f4a2237a699a",
    "name": "Sig",
    "state_id": "2d103356-2cda-4a3b-a052-fbd8f35ad5ce"
  }
]