[
  {
    "id": "cbeee9b8-af2e-48f8-86a7-a5994519e0aa",
    "name": "Adâncata",
    "state_id": "2d297eed-8dde-48b0-9672-7020a39f62bd"
  },
  {
    "id": "206a0870-058d-4d0d-a262-35a3b6e95b50",
    "name": "Arbore",
    "state_id": "2d297eed-8dde-48b0-9672-7020a39f62bd"
  },
  {
    "id": "78d112c6-a03c-4745-b26f-20e7132052af",
    "name": "Argel",
    "state_id": "2d297eed-8dde-48b0-9672-7020a39f62bd"
  },
  {
    "id": "c8cebe8c-7bdd-45b3-89ae-1b36c7476cfa",
    "name": "Arghira",
    "state_id": "2d297eed-8dde-48b0-9672-7020a39f62bd"
  },
  {
    "id": "5e50d2e6-cf47-46bf-8aae-c71545c295bf",
    "name": "Bădeuți",
    "state_id": "2d297eed-8dde-48b0-9672-7020a39f62bd"
  },
  {
    "id": "e9e37f9c-f18a-4833-a80a-8a3ef3be8398",
    "name": "Baia",
    "state_id": "2d297eed-8dde-48b0-9672-7020a39f62bd"
  },
  {
    "id": "103c9bd5-53cf-4e39-9044-ab764535d988",
    "name": "Băișești",
    "state_id": "2d297eed-8dde-48b0-9672-7020a39f62bd"
  },
  {
    "id": "c2fe0793-eeba-48ff-ada8-f2d0101aee2d",
    "name": "Bălăceana",
    "state_id": "2d297eed-8dde-48b0-9672-7020a39f62bd"
  },
  {
    "id": "1d4692fe-827f-45b5-88c6-e5abc2801df0",
    "name": "Bălcăuţi",
    "state_id": "2d297eed-8dde-48b0-9672-7020a39f62bd"
  },
  {
    "id": "1ddc3b82-49b7-4062-80c3-5891454fc349",
    "name": "Bănești",
    "state_id": "2d297eed-8dde-48b0-9672-7020a39f62bd"
  },
  {
    "id": "3df59731-8324-45fa-8c32-97fe801143df",
    "name": "Basarabi",
    "state_id": "2d297eed-8dde-48b0-9672-7020a39f62bd"
  },
  {
    "id": "61300ff1-486e-4eda-a119-f12eac076a27",
    "name": "Berchișești",
    "state_id": "2d297eed-8dde-48b0-9672-7020a39f62bd"
  },
  {
    "id": "f50954c8-7fb2-48d3-a68f-73b795c00b2b",
    "name": "Bilca",
    "state_id": "2d297eed-8dde-48b0-9672-7020a39f62bd"
  },
  {
    "id": "d8e3605b-66f3-41f6-9be1-e9622eec27f1",
    "name": "Bivolărie",
    "state_id": "2d297eed-8dde-48b0-9672-7020a39f62bd"
  },
  {
    "id": "ad466ddb-6568-40fa-9202-c6916496b117",
    "name": "Bogata",
    "state_id": "2d297eed-8dde-48b0-9672-7020a39f62bd"
  },
  {
    "id": "ba2082ae-b30f-468c-a47a-65dcb76bd9fa",
    "name": "Bogdăneşti",
    "state_id": "2d297eed-8dde-48b0-9672-7020a39f62bd"
  },
  {
    "id": "f5f4cba3-1702-48cc-b897-837315035177",
    "name": "Boroaia",
    "state_id": "2d297eed-8dde-48b0-9672-7020a39f62bd"
  },
  {
    "id": "d44b58e6-0720-45b5-ba95-07b07786e13d",
    "name": "Bosanci",
    "state_id": "2d297eed-8dde-48b0-9672-7020a39f62bd"
  },
  {
    "id": "ba2d4942-5ede-4178-9faa-ebf733527759",
    "name": "Botoşana",
    "state_id": "2d297eed-8dde-48b0-9672-7020a39f62bd"
  },
  {
    "id": "6b7d2157-dd8a-472c-8e78-708ad9db2ccd",
    "name": "Brăiești",
    "state_id": "2d297eed-8dde-48b0-9672-7020a39f62bd"
  },
  {
    "id": "5d76856d-8365-4c51-83fd-9830787a2b62",
    "name": "Breaza",
    "state_id": "2d297eed-8dde-48b0-9672-7020a39f62bd"
  },
  {
    "id": "ddadbf4d-253c-4e50-b4ef-a4309db37e7f",
    "name": "Brodina",
    "state_id": "2d297eed-8dde-48b0-9672-7020a39f62bd"
  },
  {
    "id": "c4766926-5ff9-4e1c-b765-e6aa0f2d795f",
    "name": "Broşteni",
    "state_id": "2d297eed-8dde-48b0-9672-7020a39f62bd"
  },
  {
    "id": "fbddb22d-9220-4bf4-9f0c-56dff12d7716",
    "name": "Bucșoaia",
    "state_id": "2d297eed-8dde-48b0-9672-7020a39f62bd"
  },
  {
    "id": "e2482a59-8135-4cf5-90e2-5aaf29da4fca",
    "name": "Budeni",
    "state_id": "2d297eed-8dde-48b0-9672-7020a39f62bd"
  },
  {
    "id": "733bfb8a-1147-4e11-80af-255f0d609a26",
    "name": "Bunești",
    "state_id": "2d297eed-8dde-48b0-9672-7020a39f62bd"
  },
  {
    "id": "f62baf06-2164-4b13-a523-51cb21c274c2",
    "name": "Burla",
    "state_id": "2d297eed-8dde-48b0-9672-7020a39f62bd"
  },
  {
    "id": "5917de49-f60e-4d09-88c0-afccffce72c3",
    "name": "Bursuceni",
    "state_id": "2d297eed-8dde-48b0-9672-7020a39f62bd"
  },
  {
    "id": "f4a551aa-263d-4511-b696-7f1af8cb0042",
    "name": "Cacica",
    "state_id": "2d297eed-8dde-48b0-9672-7020a39f62bd"
  },
  {
    "id": "16f99dd9-345e-4ba4-91b7-cbd5d091632b",
    "name": "Cajvana",
    "state_id": "2d297eed-8dde-48b0-9672-7020a39f62bd"
  },
  {
    "id": "05663ee1-1855-4cab-b2c5-ea88946aa44a",
    "name": "Calafindeşti",
    "state_id": "2d297eed-8dde-48b0-9672-7020a39f62bd"
  },
  {
    "id": "7e796c32-b2fa-4cc8-a04f-db8eec693750",
    "name": "Călinești",
    "state_id": "2d297eed-8dde-48b0-9672-7020a39f62bd"
  },
  {
    "id": "7455f253-cecc-46fb-acd4-8834f5a0c91a",
    "name": "Câmpulung Moldovenesc",
    "state_id": "2d297eed-8dde-48b0-9672-7020a39f62bd"
  },
  {
    "id": "841333f8-4a44-4e95-af19-7acaf0491543",
    "name": "Capu Câmpului",
    "state_id": "2d297eed-8dde-48b0-9672-7020a39f62bd"
  },
  {
    "id": "deb0204b-58fc-40f6-9dfb-ef9e85ec4152",
    "name": "Capu Codrului",
    "state_id": "2d297eed-8dde-48b0-9672-7020a39f62bd"
  },
  {
    "id": "d3850f6a-abf3-43a6-aba4-0457b5b81f44",
    "name": "Cârlibaba",
    "state_id": "2d297eed-8dde-48b0-9672-7020a39f62bd"
  },
  {
    "id": "3815967e-2811-49f8-8bb2-b14e807bf53a",
    "name": "Ciocănești",
    "state_id": "2d297eed-8dde-48b0-9672-7020a39f62bd"
  },
  {
    "id": "f012eaf0-773d-4cf6-aa94-b8a5c456a64a",
    "name": "Ciprian Porumbescu",
    "state_id": "2d297eed-8dde-48b0-9672-7020a39f62bd"
  },
  {
    "id": "43788453-9b8d-4725-bbe2-7583e7c007e6",
    "name": "Clit",
    "state_id": "2d297eed-8dde-48b0-9672-7020a39f62bd"
  },
  {
    "id": "ee4c8a3e-4f83-4581-ab32-3001bcc2a60c",
    "name": "Colacu",
    "state_id": "2d297eed-8dde-48b0-9672-7020a39f62bd"
  },
  {
    "id": "87048399-37e7-4608-861f-de2e72e3e298",
    "name": "Comănești",
    "state_id": "2d297eed-8dde-48b0-9672-7020a39f62bd"
  },
  {
    "id": "cb3dcc09-59a3-4424-a897-618b30e5781f",
    "name": "Comuna Adâncata",
    "state_id": "2d297eed-8dde-48b0-9672-7020a39f62bd"
  },
  {
    "id": "5d1e4a61-ee18-4c8e-8064-1a7ea9757a50",
    "name": "Comuna Arbore",
    "state_id": "2d297eed-8dde-48b0-9672-7020a39f62bd"
  },
  {
    "id": "399cef2e-1999-4fc2-ba80-01c9693dbd75",
    "name": "Comuna Baia",
    "state_id": "2d297eed-8dde-48b0-9672-7020a39f62bd"
  },
  {
    "id": "3cc81785-f9a1-4f46-8191-b1f48aef44fa",
    "name": "Comuna Bălăceana",
    "state_id": "2d297eed-8dde-48b0-9672-7020a39f62bd"
  },
  {
    "id": "fc72a9f2-68a4-4d0b-a1c0-cd118e8d5bfc",
    "name": "Comuna Bălcăuţi",
    "state_id": "2d297eed-8dde-48b0-9672-7020a39f62bd"
  },
  {
    "id": "13085924-3edb-4d05-90ab-19fe7cddf4a0",
    "name": "Comuna Berchişeşti",
    "state_id": "2d297eed-8dde-48b0-9672-7020a39f62bd"
  },
  {
    "id": "5de67312-3e6f-4e7d-9121-1c5d845c7278",
    "name": "Comuna Bilca",
    "state_id": "2d297eed-8dde-48b0-9672-7020a39f62bd"
  },
  {
    "id": "c7765c12-f899-450c-95a7-ed60228e3245",
    "name": "Comuna Bogdăneşti",
    "state_id": "2d297eed-8dde-48b0-9672-7020a39f62bd"
  },
  {
    "id": "2fa15004-a43b-486d-87de-54aa3bf3564a",
    "name": "Comuna Boroaia",
    "state_id": "2d297eed-8dde-48b0-9672-7020a39f62bd"
  },
  {
    "id": "fabafeae-5c37-4a1e-93cf-9567800cd3e5",
    "name": "Comuna Bosanci",
    "state_id": "2d297eed-8dde-48b0-9672-7020a39f62bd"
  },
  {
    "id": "a745f1cb-a179-49e5-b240-b78eb846ecd4",
    "name": "Comuna Botoşana",
    "state_id": "2d297eed-8dde-48b0-9672-7020a39f62bd"
  },
  {
    "id": "c95d8639-fa77-48e3-be34-bfd2d82521b1",
    "name": "Comuna Breaza",
    "state_id": "2d297eed-8dde-48b0-9672-7020a39f62bd"
  },
  {
    "id": "1616089f-213a-40e3-85e7-373b01788f79",
    "name": "Comuna Brodina",
    "state_id": "2d297eed-8dde-48b0-9672-7020a39f62bd"
  },
  {
    "id": "eebbc5f4-44c6-418f-8c30-765ff0ff9e3c",
    "name": "Comuna Buneşti",
    "state_id": "2d297eed-8dde-48b0-9672-7020a39f62bd"
  },
  {
    "id": "58c073f1-180c-4747-95e3-0df93da86a9b",
    "name": "Comuna Burla",
    "state_id": "2d297eed-8dde-48b0-9672-7020a39f62bd"
  },
  {
    "id": "2119cad7-8e86-4c35-be8c-dc6f5df6f8f1",
    "name": "Comuna Cacica",
    "state_id": "2d297eed-8dde-48b0-9672-7020a39f62bd"
  },
  {
    "id": "3b8c7765-9e18-4207-b1c7-feb47a6b2731",
    "name": "Comuna Calafindeşti",
    "state_id": "2d297eed-8dde-48b0-9672-7020a39f62bd"
  },
  {
    "id": "dcfd94f8-fe32-4bd4-b96b-165480329282",
    "name": "Comuna Capu Câmpului",
    "state_id": "2d297eed-8dde-48b0-9672-7020a39f62bd"
  },
  {
    "id": "54bab26a-bc04-4a45-bfdd-db2bb062d64c",
    "name": "Comuna Cârlibaba",
    "state_id": "2d297eed-8dde-48b0-9672-7020a39f62bd"
  },
  {
    "id": "5dd2bd81-4066-4e7b-ad86-c3dad5b908f4",
    "name": "Comuna Ciocăneşti",
    "state_id": "2d297eed-8dde-48b0-9672-7020a39f62bd"
  },
  {
    "id": "8bef441c-d768-4d44-824f-8bfa993cfdbc",
    "name": "Comuna Ciprian Porumbescu",
    "state_id": "2d297eed-8dde-48b0-9672-7020a39f62bd"
  },
  {
    "id": "7ad0bafc-7854-4b1d-a4ec-acf758c0f1ed",
    "name": "Comuna Comăneşti",
    "state_id": "2d297eed-8dde-48b0-9672-7020a39f62bd"
  },
  {
    "id": "1fb01672-7777-4f4f-b039-22c4751eb2cf",
    "name": "Comuna Cornu Luncii",
    "state_id": "2d297eed-8dde-48b0-9672-7020a39f62bd"
  },
  {
    "id": "2ae8ef7c-7de3-432b-829e-1108587aa23e",
    "name": "Comuna Coşna",
    "state_id": "2d297eed-8dde-48b0-9672-7020a39f62bd"
  },
  {
    "id": "1dc0ed8b-5924-45ce-a033-df9a6f9fd82d",
    "name": "Comuna Crucea",
    "state_id": "2d297eed-8dde-48b0-9672-7020a39f62bd"
  },
  {
    "id": "f80fc30a-2c3f-4f81-9e9a-113d3729bc58",
    "name": "Comuna Dărmăneşti",
    "state_id": "2d297eed-8dde-48b0-9672-7020a39f62bd"
  },
  {
    "id": "61ef24ba-74af-438d-8c8b-9a09ed8cf4d8",
    "name": "Comuna Dolheşti",
    "state_id": "2d297eed-8dde-48b0-9672-7020a39f62bd"
  },
  {
    "id": "d1b66423-8342-4237-bb93-02d9d3c94d0a",
    "name": "Comuna Dorna Cândrenilor",
    "state_id": "2d297eed-8dde-48b0-9672-7020a39f62bd"
  },
  {
    "id": "6d4a48ca-274e-4667-9d27-b4b576b9423f",
    "name": "Comuna Dorna-Arini",
    "state_id": "2d297eed-8dde-48b0-9672-7020a39f62bd"
  },
  {
    "id": "ff778ecf-b015-47c0-a52a-d7bd79990a9c",
    "name": "Comuna Dorneşti",
    "state_id": "2d297eed-8dde-48b0-9672-7020a39f62bd"
  },
  {
    "id": "23c425e0-80df-40ca-9bbe-46fe1501206b",
    "name": "Comuna Drãgoieşti",
    "state_id": "2d297eed-8dde-48b0-9672-7020a39f62bd"
  },
  {
    "id": "b6c87567-d4b5-4cf3-8c95-974d7972d6ff",
    "name": "Comuna Drăguşeni",
    "state_id": "2d297eed-8dde-48b0-9672-7020a39f62bd"
  },
  {
    "id": "d9c1d050-0900-4c3d-bf03-08b58ff7f97d",
    "name": "Comuna Dumbrăveni",
    "state_id": "2d297eed-8dde-48b0-9672-7020a39f62bd"
  },
  {
    "id": "5f5c8ffe-4400-43a0-8e27-03b4e20502f6",
    "name": "Comuna Fântâna Mare",
    "state_id": "2d297eed-8dde-48b0-9672-7020a39f62bd"
  },
  {
    "id": "fc3dc377-7209-4aaf-9071-7afb08bd4192",
    "name": "Comuna Fântânele",
    "state_id": "2d297eed-8dde-48b0-9672-7020a39f62bd"
  },
  {
    "id": "6debb0e6-705f-48a9-9fec-7de472970b49",
    "name": "Comuna Forăşti",
    "state_id": "2d297eed-8dde-48b0-9672-7020a39f62bd"
  },
  {
    "id": "ed7d8478-8d83-48c0-9c55-7b54f787ffc5",
    "name": "Comuna Frătăuţii Noi",
    "state_id": "2d297eed-8dde-48b0-9672-7020a39f62bd"
  },
  {
    "id": "64658982-11dc-43a0-97c3-8e1a33e5b51a",
    "name": "Comuna Frătăuţii Vechi",
    "state_id": "2d297eed-8dde-48b0-9672-7020a39f62bd"
  },
  {
    "id": "8137ba8d-d166-4181-8f52-255b97b20fcc",
    "name": "Comuna Frumosu",
    "state_id": "2d297eed-8dde-48b0-9672-7020a39f62bd"
  },
  {
    "id": "c5b68665-8875-4bb3-85de-3d55088dae3b",
    "name": "Comuna Fundu Moldovei",
    "state_id": "2d297eed-8dde-48b0-9672-7020a39f62bd"
  },
  {
    "id": "c05940b0-74a2-44ec-ad16-790914174556",
    "name": "Comuna Gălăneşti",
    "state_id": "2d297eed-8dde-48b0-9672-7020a39f62bd"
  },
  {
    "id": "3595f39d-241b-4dc4-b525-48939d7cf43d",
    "name": "Comuna Grămeşti",
    "state_id": "2d297eed-8dde-48b0-9672-7020a39f62bd"
  },
  {
    "id": "a3da3c23-c7a5-4771-b395-a53ae9e9b5a1",
    "name": "Comuna Grăniceşti",
    "state_id": "2d297eed-8dde-48b0-9672-7020a39f62bd"
  },
  {
    "id": "f71c6b59-c528-4d31-9e86-b4cb79c3a76f",
    "name": "Comuna Hănţeşti",
    "state_id": "2d297eed-8dde-48b0-9672-7020a39f62bd"
  },
  {
    "id": "63a81944-13f3-4ab4-9575-b7b6f16e31a4",
    "name": "Comuna Hârtop",
    "state_id": "2d297eed-8dde-48b0-9672-7020a39f62bd"
  },
  {
    "id": "0df61a2e-9f72-4836-919a-aa0e43a4fcb4",
    "name": "Comuna Horodnic De Jos",
    "state_id": "2d297eed-8dde-48b0-9672-7020a39f62bd"
  },
  {
    "id": "b881cc05-51c7-4cd8-9ad8-3320d8846fd6",
    "name": "Comuna Horodnic De Sus",
    "state_id": "2d297eed-8dde-48b0-9672-7020a39f62bd"
  },
  {
    "id": "cac021de-cd1c-4070-b22a-2f320a948e2b",
    "name": "Comuna Horodniceni",
    "state_id": "2d297eed-8dde-48b0-9672-7020a39f62bd"
  },
  {
    "id": "6b4a87c6-3f19-480b-a13f-95268bf6f160",
    "name": "Comuna Iacobeni",
    "state_id": "2d297eed-8dde-48b0-9672-7020a39f62bd"
  },
  {
    "id": "75585ac7-4d57-4c5c-adf4-1ac4d9b58f5d",
    "name": "Comuna Iaslovăţ",
    "state_id": "2d297eed-8dde-48b0-9672-7020a39f62bd"
  },
  {
    "id": "d68ac44c-ddb5-42d7-b302-1cab3e8b4fbb",
    "name": "Comuna Ilişeşti",
    "state_id": "2d297eed-8dde-48b0-9672-7020a39f62bd"
  },
  {
    "id": "834d5ba0-f094-4f10-b475-fa8f2f1086e6",
    "name": "Comuna Ipoteşti",
    "state_id": "2d297eed-8dde-48b0-9672-7020a39f62bd"
  },
  {
    "id": "692f25ea-abdc-4c70-aefd-99075ecf930e",
    "name": "Comuna Izvoarele Sucevei",
    "state_id": "2d297eed-8dde-48b0-9672-7020a39f62bd"
  },
  {
    "id": "23dbb9f3-e199-41d3-a350-ae9eb6deaae0",
    "name": "Comuna Mălini",
    "state_id": "2d297eed-8dde-48b0-9672-7020a39f62bd"
  },
  {
    "id": "7a0c70c6-dd4f-47e0-85cc-bbdc9379e9a4",
    "name": "Comuna Mânăstirea Humorului",
    "state_id": "2d297eed-8dde-48b0-9672-7020a39f62bd"
  },
  {
    "id": "dbff9fdb-8fae-4e31-8aac-7b441a74d1a5",
    "name": "Comuna Marginea",
    "state_id": "2d297eed-8dde-48b0-9672-7020a39f62bd"
  },
  {
    "id": "62e1ecb2-285f-494f-bd17-fbdf087c344c",
    "name": "Comuna Mitocu Dragomirnei",
    "state_id": "2d297eed-8dde-48b0-9672-7020a39f62bd"
  },
  {
    "id": "a7832348-c9bb-4e29-8425-99c620dcde00",
    "name": "Comuna Moara",
    "state_id": "2d297eed-8dde-48b0-9672-7020a39f62bd"
  },
  {
    "id": "a028ab35-6aca-4dbb-a1e8-1c4a862ab8a7",
    "name": "Comuna Moldova Suliţa",
    "state_id": "2d297eed-8dde-48b0-9672-7020a39f62bd"
  },
  {
    "id": "39ad3ed6-2e89-47dc-9335-8203d1eb6fb4",
    "name": "Comuna Moldoviţa",
    "state_id": "2d297eed-8dde-48b0-9672-7020a39f62bd"
  },
  {
    "id": "da830458-f107-41bb-8e81-99b1331e5aa2",
    "name": "Comuna Muşeniţa",
    "state_id": "2d297eed-8dde-48b0-9672-7020a39f62bd"
  },
  {
    "id": "246b0f84-9438-401e-9788-833207a70ad1",
    "name": "Comuna Ostra",
    "state_id": "2d297eed-8dde-48b0-9672-7020a39f62bd"
  },
  {
    "id": "2bc25b2a-3caf-488e-a423-0f7d85714926",
    "name": "Comuna Păltinoasa",
    "state_id": "2d297eed-8dde-48b0-9672-7020a39f62bd"
  },
  {
    "id": "4721dc9e-958b-43af-ad07-94d3fc6c9a71",
    "name": "Comuna Panaci",
    "state_id": "2d297eed-8dde-48b0-9672-7020a39f62bd"
  },
  {
    "id": "e701762d-d696-49a6-bbab-d05ade856471",
    "name": "Comuna Părteştii de Jos",
    "state_id": "2d297eed-8dde-48b0-9672-7020a39f62bd"
  },
  {
    "id": "54604d39-06ce-4852-980e-ec3d773a7903",
    "name": "Comuna Pătrăuţi",
    "state_id": "2d297eed-8dde-48b0-9672-7020a39f62bd"
  },
  {
    "id": "33c66b95-82aa-4cce-aa13-31cd1b472766",
    "name": "Comuna Poiana Stampei",
    "state_id": "2d297eed-8dde-48b0-9672-7020a39f62bd"
  },
  {
    "id": "d75351c6-e803-44ac-9e03-8a29df44da52",
    "name": "Comuna Poieni-Solca",
    "state_id": "2d297eed-8dde-48b0-9672-7020a39f62bd"
  },
  {
    "id": "0bab9b32-4220-4bf3-ae6d-07925b24815f",
    "name": "Comuna Pojorâta",
    "state_id": "2d297eed-8dde-48b0-9672-7020a39f62bd"
  },
  {
    "id": "fc935230-a6cd-49ee-aba7-da98ba917ec5",
    "name": "Comuna Preuteşti",
    "state_id": "2d297eed-8dde-48b0-9672-7020a39f62bd"
  },
  {
    "id": "2efb5023-1c27-4b93-97f4-2fb32d819c8d",
    "name": "Comuna Putna",
    "state_id": "2d297eed-8dde-48b0-9672-7020a39f62bd"
  },
  {
    "id": "8495aaed-5a1e-47b1-972d-6affd056db15",
    "name": "Comuna Rădăşeni",
    "state_id": "2d297eed-8dde-48b0-9672-7020a39f62bd"
  },
  {
    "id": "5500bb3e-e45f-4ada-b4d9-0df5be866986",
    "name": "Comuna Râşca",
    "state_id": "2d297eed-8dde-48b0-9672-7020a39f62bd"
  },
  {
    "id": "297de2f1-1284-4408-a2c2-f10ea9913db9",
    "name": "Comuna Sadova",
    "state_id": "2d297eed-8dde-48b0-9672-7020a39f62bd"
  },
  {
    "id": "c4c858cc-3afe-43aa-a0c4-03151f034cd9",
    "name": "Comuna Şaru Dornei",
    "state_id": "2d297eed-8dde-48b0-9672-7020a39f62bd"
  },
  {
    "id": "2d13d34e-2034-4f66-b943-d1e19b78f35d",
    "name": "Comuna Satu Mare",
    "state_id": "2d297eed-8dde-48b0-9672-7020a39f62bd"
  },
  {
    "id": "a9b74bab-818c-4b5b-98cb-bec4ba8b0561",
    "name": "Comuna Scheia",
    "state_id": "2d297eed-8dde-48b0-9672-7020a39f62bd"
  },
  {
    "id": "d9bf58d3-a0ad-400d-93d4-4124640e5e1b",
    "name": "Comuna Şerbăuţi",
    "state_id": "2d297eed-8dde-48b0-9672-7020a39f62bd"
  },
  {
    "id": "2d7bc9e1-8f38-4636-9575-4f9bd42a261d",
    "name": "Comuna Siminicea",
    "state_id": "2d297eed-8dde-48b0-9672-7020a39f62bd"
  },
  {
    "id": "58e4d007-46b6-46ba-9a9c-c0becd464f58",
    "name": "Comuna Slatina",
    "state_id": "2d297eed-8dde-48b0-9672-7020a39f62bd"
  },
  {
    "id": "697db3b6-9e50-4071-b8b8-29b9b72fab1c",
    "name": "Comuna Straja",
    "state_id": "2d297eed-8dde-48b0-9672-7020a39f62bd"
  },
  {
    "id": "d2690639-3879-4041-b21b-4cb375019f8e",
    "name": "Comuna Stroieşti",
    "state_id": "2d297eed-8dde-48b0-9672-7020a39f62bd"
  },
  {
    "id": "b0ec995b-7799-4920-9f7e-d110fd805fcf",
    "name": "Comuna Stulpicani",
    "state_id": "2d297eed-8dde-48b0-9672-7020a39f62bd"
  },
  {
    "id": "119584a5-bb73-4fd8-96e1-7aa03e9eefe4",
    "name": "Comuna Suceviţa",
    "state_id": "2d297eed-8dde-48b0-9672-7020a39f62bd"
  },
  {
    "id": "db8d4c8b-0e66-4835-89f0-ce647cfad39b",
    "name": "Comuna Todireşti",
    "state_id": "2d297eed-8dde-48b0-9672-7020a39f62bd"
  },
  {
    "id": "beac4b0b-d991-43ed-9a33-48c7afd2fa48",
    "name": "Comuna Udeşti",
    "state_id": "2d297eed-8dde-48b0-9672-7020a39f62bd"
  },
  {
    "id": "41787a37-d258-48cc-9bce-01606f4a4b97",
    "name": "Comuna Ulma",
    "state_id": "2d297eed-8dde-48b0-9672-7020a39f62bd"
  },
  {
    "id": "511afb0f-ba53-4f19-b9ab-fce544d844c5",
    "name": "Comuna Vadu Moldovei",
    "state_id": "2d297eed-8dde-48b0-9672-7020a39f62bd"
  },
  {
    "id": "4b533b17-6bd0-489c-8da1-9b8768413ecf",
    "name": "Comuna Valea Moldovei",
    "state_id": "2d297eed-8dde-48b0-9672-7020a39f62bd"
  },
  {
    "id": "29ca3fc7-3afe-4b5d-ae38-2c538fccc531",
    "name": "Comuna Vama",
    "state_id": "2d297eed-8dde-48b0-9672-7020a39f62bd"
  },
  {
    "id": "78b14c86-0a4c-4147-8efe-8f39daec1152",
    "name": "Comuna Vatra Moldoviţei",
    "state_id": "2d297eed-8dde-48b0-9672-7020a39f62bd"
  },
  {
    "id": "fca297f2-a133-4ffd-af75-bae2a9b020a4",
    "name": "Comuna Vereşti",
    "state_id": "2d297eed-8dde-48b0-9672-7020a39f62bd"
  },
  {
    "id": "dc6d7754-d2ce-4833-9f6c-1f9de8f57c2e",
    "name": "Comuna Vicovu de Jos",
    "state_id": "2d297eed-8dde-48b0-9672-7020a39f62bd"
  },
  {
    "id": "07d7fb6f-9026-4e0f-bc85-49828dcb746e",
    "name": "Comuna Voitinel",
    "state_id": "2d297eed-8dde-48b0-9672-7020a39f62bd"
  },
  {
    "id": "ebce3f03-58cd-477a-b943-9c686d692e4f",
    "name": "Comuna Volovăţ",
    "state_id": "2d297eed-8dde-48b0-9672-7020a39f62bd"
  },
  {
    "id": "d986606b-1687-45ea-90f4-8aa2c209c5b3",
    "name": "Comuna Vultureşti",
    "state_id": "2d297eed-8dde-48b0-9672-7020a39f62bd"
  },
  {
    "id": "cdb09b91-36e3-41bc-b94f-acccf94610fa",
    "name": "Comuna Zamostea",
    "state_id": "2d297eed-8dde-48b0-9672-7020a39f62bd"
  },
  {
    "id": "9f7d14c5-6287-462d-a164-0e53e6fe91f8",
    "name": "Comuna Zvoriştea",
    "state_id": "2d297eed-8dde-48b0-9672-7020a39f62bd"
  },
  {
    "id": "7cde7d0c-f7e2-4e2a-b88a-5ae04cd4d0a2",
    "name": "Cornu Luncii",
    "state_id": "2d297eed-8dde-48b0-9672-7020a39f62bd"
  },
  {
    "id": "b0412bec-af31-44ec-a26a-825557afd6e6",
    "name": "Corocăiești",
    "state_id": "2d297eed-8dde-48b0-9672-7020a39f62bd"
  },
  {
    "id": "868baaff-ca76-41c2-93b6-48c59ef03d25",
    "name": "Coșna",
    "state_id": "2d297eed-8dde-48b0-9672-7020a39f62bd"
  },
  {
    "id": "a5c85fe5-2057-4aca-a237-00c272abd7fb",
    "name": "Costâna",
    "state_id": "2d297eed-8dde-48b0-9672-7020a39f62bd"
  },
  {
    "id": "436946c0-23ba-4596-b390-07ac9b399998",
    "name": "Crucea",
    "state_id": "2d297eed-8dde-48b0-9672-7020a39f62bd"
  },
  {
    "id": "8e5570da-4885-4a71-9835-b161742cf441",
    "name": "Dărmăneşti",
    "state_id": "2d297eed-8dde-48b0-9672-7020a39f62bd"
  },
  {
    "id": "53e27efb-21a7-4260-87d8-e02cf11985c4",
    "name": "Demacușa",
    "state_id": "2d297eed-8dde-48b0-9672-7020a39f62bd"
  },
  {
    "id": "1707e418-44ec-4590-9bc3-8c17db8582f5",
    "name": "Dolhasca",
    "state_id": "2d297eed-8dde-48b0-9672-7020a39f62bd"
  },
  {
    "id": "d748b30c-5942-4520-b588-0caff1da1617",
    "name": "Dolheștii Mici",
    "state_id": "2d297eed-8dde-48b0-9672-7020a39f62bd"
  },
  {
    "id": "b678a769-fd9a-4809-882e-1a3005384b13",
    "name": "Dolheștii-Mari",
    "state_id": "2d297eed-8dde-48b0-9672-7020a39f62bd"
  },
  {
    "id": "3156cf25-3e97-424d-b803-8adecc10c7c2",
    "name": "Dorna Cândrenilor",
    "state_id": "2d297eed-8dde-48b0-9672-7020a39f62bd"
  },
  {
    "id": "c2c233d1-4ac5-4245-b89d-6235a6a1d341",
    "name": "Dorna-Arini",
    "state_id": "2d297eed-8dde-48b0-9672-7020a39f62bd"
  },
  {
    "id": "88b27dbe-ed58-4504-9533-a2263ea6d860",
    "name": "Dorneşti",
    "state_id": "2d297eed-8dde-48b0-9672-7020a39f62bd"
  },
  {
    "id": "dd3337af-171b-4175-9df5-39ec260b0986",
    "name": "Drăgoiești",
    "state_id": "2d297eed-8dde-48b0-9672-7020a39f62bd"
  },
  {
    "id": "fb17ce26-ac19-489c-80b0-aa9d054beedb",
    "name": "Drăguşeni",
    "state_id": "2d297eed-8dde-48b0-9672-7020a39f62bd"
  },
  {
    "id": "9a51ec32-d843-48e8-b5fb-815227ec400c",
    "name": "Dumbrăveni",
    "state_id": "2d297eed-8dde-48b0-9672-7020a39f62bd"
  },
  {
    "id": "fcd50d5b-d232-40d0-af0e-3be8305c86a1",
    "name": "Dumbrăvița",
    "state_id": "2d297eed-8dde-48b0-9672-7020a39f62bd"
  },
  {
    "id": "4f37c7a3-d36a-46a5-b4e0-638e32d5585b",
    "name": "Falcău",
    "state_id": "2d297eed-8dde-48b0-9672-7020a39f62bd"
  },
  {
    "id": "9c496af7-7d13-4cc5-9394-7d4a65081149",
    "name": "Fălticeni",
    "state_id": "2d297eed-8dde-48b0-9672-7020a39f62bd"
  },
  {
    "id": "699b4418-68f4-45ff-97e7-9e0a6fc72722",
    "name": "Fântâna Mare",
    "state_id": "2d297eed-8dde-48b0-9672-7020a39f62bd"
  },
  {
    "id": "c07fb209-19cb-4b74-ac35-0f231b5d379f",
    "name": "Fântânele",
    "state_id": "2d297eed-8dde-48b0-9672-7020a39f62bd"
  },
  {
    "id": "b300cfae-de1f-4af2-ac36-0529bf8fc16f",
    "name": "Forăşti",
    "state_id": "2d297eed-8dde-48b0-9672-7020a39f62bd"
  },
  {
    "id": "e2f9224f-d621-4761-85d4-1f7e4ed11f2f",
    "name": "Frasin",
    "state_id": "2d297eed-8dde-48b0-9672-7020a39f62bd"
  },
  {
    "id": "d614e776-2e3b-4d74-9393-cfcd89b90bec",
    "name": "Frătăuţii Noi",
    "state_id": "2d297eed-8dde-48b0-9672-7020a39f62bd"
  },
  {
    "id": "5589d254-3d7f-40fd-8861-b0867a663615",
    "name": "Frătăuţii Vechi",
    "state_id": "2d297eed-8dde-48b0-9672-7020a39f62bd"
  },
  {
    "id": "71564fc2-aae4-44a7-a452-7a2625534798",
    "name": "Frumosu",
    "state_id": "2d297eed-8dde-48b0-9672-7020a39f62bd"
  },
  {
    "id": "9a3d83d4-14f6-4c4f-8b05-b7a67b43e785",
    "name": "Fundu Moldovei",
    "state_id": "2d297eed-8dde-48b0-9672-7020a39f62bd"
  },
  {
    "id": "ad9a0dc3-7f07-404d-9406-ca261a4f567b",
    "name": "Găinești",
    "state_id": "2d297eed-8dde-48b0-9672-7020a39f62bd"
  },
  {
    "id": "e6ef1d43-79b5-4626-a375-f34bae5336f0",
    "name": "Gălăneşti",
    "state_id": "2d297eed-8dde-48b0-9672-7020a39f62bd"
  },
  {
    "id": "b4bb9e9c-f776-4e5b-94d9-311a7e10806c",
    "name": "Grămeşti",
    "state_id": "2d297eed-8dde-48b0-9672-7020a39f62bd"
  },
  {
    "id": "3e180c25-ec72-4568-81bf-856dbbc5310c",
    "name": "Grăniceşti",
    "state_id": "2d297eed-8dde-48b0-9672-7020a39f62bd"
  },
  {
    "id": "ad8f71a7-7786-43b5-8e95-1a2cccbef908",
    "name": "Gulia",
    "state_id": "2d297eed-8dde-48b0-9672-7020a39f62bd"
  },
  {
    "id": "252370ef-7f04-48b0-af79-f802dad03279",
    "name": "Gura Humorului",
    "state_id": "2d297eed-8dde-48b0-9672-7020a39f62bd"
  },
  {
    "id": "d9f415c4-fcc9-4bca-a3d8-3e7caa884fde",
    "name": "Gura Putnei",
    "state_id": "2d297eed-8dde-48b0-9672-7020a39f62bd"
  },
  {
    "id": "d1d56dad-ecbf-45b8-af91-e1fa18470aef",
    "name": "Hănțești",
    "state_id": "2d297eed-8dde-48b0-9672-7020a39f62bd"
  },
  {
    "id": "71e9537c-3146-4ec6-9ff7-abc6dd4eadcc",
    "name": "Hârtop",
    "state_id": "2d297eed-8dde-48b0-9672-7020a39f62bd"
  },
  {
    "id": "32425e8b-8987-439c-b05b-9327e82c855f",
    "name": "Herla",
    "state_id": "2d297eed-8dde-48b0-9672-7020a39f62bd"
  },
  {
    "id": "5086eae3-906f-4223-9da3-c9f680f663ca",
    "name": "Horodnic de Jos",
    "state_id": "2d297eed-8dde-48b0-9672-7020a39f62bd"
  },
  {
    "id": "1e6831a1-d994-4067-bf90-e73c67d8556a",
    "name": "Horodnic de Sus",
    "state_id": "2d297eed-8dde-48b0-9672-7020a39f62bd"
  },
  {
    "id": "c383087e-db41-4c82-bac8-f24287a6f597",
    "name": "Horodniceni",
    "state_id": "2d297eed-8dde-48b0-9672-7020a39f62bd"
  },
  {
    "id": "f495ecd1-1652-4152-bac2-0f330f399b25",
    "name": "Humoreni",
    "state_id": "2d297eed-8dde-48b0-9672-7020a39f62bd"
  },
  {
    "id": "ef7a2031-8f2b-4ce0-b049-4c069eabffbd",
    "name": "Hurjuieni",
    "state_id": "2d297eed-8dde-48b0-9672-7020a39f62bd"
  },
  {
    "id": "4ec7a2aa-29b2-4c92-bce7-96c99f295f29",
    "name": "Iacobeni",
    "state_id": "2d297eed-8dde-48b0-9672-7020a39f62bd"
  },
  {
    "id": "676ac372-4152-4325-aed1-a9a39654896c",
    "name": "Iaslovăț",
    "state_id": "2d297eed-8dde-48b0-9672-7020a39f62bd"
  },
  {
    "id": "51e7bd62-241d-4f28-a35b-9e564ce2006e",
    "name": "Ilișești",
    "state_id": "2d297eed-8dde-48b0-9672-7020a39f62bd"
  },
  {
    "id": "b550e035-e0d2-40af-8042-6c17832c8808",
    "name": "Ipoteşti",
    "state_id": "2d297eed-8dde-48b0-9672-7020a39f62bd"
  },
  {
    "id": "e31910bc-74c7-403b-b9a4-b2d8865e9cff",
    "name": "Izvoarele Sucevei",
    "state_id": "2d297eed-8dde-48b0-9672-7020a39f62bd"
  },
  {
    "id": "305b9db4-b7db-45af-8a28-5ceec8e0573d",
    "name": "Lămășeni",
    "state_id": "2d297eed-8dde-48b0-9672-7020a39f62bd"
  },
  {
    "id": "edf9dc8d-5c2e-43d1-994e-f30b52117274",
    "name": "Liteni",
    "state_id": "2d297eed-8dde-48b0-9672-7020a39f62bd"
  },
  {
    "id": "2d04245b-9d33-4791-b934-2891de4086a7",
    "name": "Mălini",
    "state_id": "2d297eed-8dde-48b0-9672-7020a39f62bd"
  },
  {
    "id": "801bb058-0f27-4c6f-97e0-69123605b4d0",
    "name": "Mănăstirea Humorului",
    "state_id": "2d297eed-8dde-48b0-9672-7020a39f62bd"
  },
  {
    "id": "045e5e57-0318-4399-8d6e-b65018062b12",
    "name": "Marginea",
    "state_id": "2d297eed-8dde-48b0-9672-7020a39f62bd"
  },
  {
    "id": "2d7fa755-6c0c-4f9a-a3af-f30275bedff1",
    "name": "Măriței",
    "state_id": "2d297eed-8dde-48b0-9672-7020a39f62bd"
  },
  {
    "id": "557e3f7e-b300-44e9-adad-c9108fa75134",
    "name": "Măzănăești",
    "state_id": "2d297eed-8dde-48b0-9672-7020a39f62bd"
  },
  {
    "id": "d70ca5fc-e836-4b4c-8c4a-b4923d78db9c",
    "name": "Mihăiești",
    "state_id": "2d297eed-8dde-48b0-9672-7020a39f62bd"
  },
  {
    "id": "0206d174-52f6-4439-8050-21a6c8b982ba",
    "name": "Mihoveni",
    "state_id": "2d297eed-8dde-48b0-9672-7020a39f62bd"
  },
  {
    "id": "c822cdcf-ebe7-4e35-80aa-832293947f84",
    "name": "Milişăuţi",
    "state_id": "2d297eed-8dde-48b0-9672-7020a39f62bd"
  },
  {
    "id": "a83a781b-3e8b-4bfd-920c-7a5c453f428b",
    "name": "Mironu",
    "state_id": "2d297eed-8dde-48b0-9672-7020a39f62bd"
  },
  {
    "id": "1550dd92-89f7-4b07-b70a-0a7969e0c5d8",
    "name": "Mitocu Dragomirnei",
    "state_id": "2d297eed-8dde-48b0-9672-7020a39f62bd"
  },
  {
    "id": "03338d9f-aefa-47bf-a3b3-c8ec6a33959c",
    "name": "Moara Carp",
    "state_id": "2d297eed-8dde-48b0-9672-7020a39f62bd"
  },
  {
    "id": "db1b4226-2253-40b4-8edb-1fab8b8bd9ca",
    "name": "Moara Nica",
    "state_id": "2d297eed-8dde-48b0-9672-7020a39f62bd"
  },
  {
    "id": "3806c397-9829-45e8-b0bb-d365ec47f565",
    "name": "Moldova Suliţa",
    "state_id": "2d297eed-8dde-48b0-9672-7020a39f62bd"
  },
  {
    "id": "fe4e0f0e-8bbd-42aa-aaec-43a91c0964d2",
    "name": "Moldoviţa",
    "state_id": "2d297eed-8dde-48b0-9672-7020a39f62bd"
  },
  {
    "id": "ceeef235-e5c6-431d-877d-8552fc8a3607",
    "name": "Municipiul Câmpulung Moldovenesc",
    "state_id": "2d297eed-8dde-48b0-9672-7020a39f62bd"
  },
  {
    "id": "3bd990fb-6191-4019-908c-3d9fb1d4f7ca",
    "name": "Municipiul Fãlticeni",
    "state_id": "2d297eed-8dde-48b0-9672-7020a39f62bd"
  },
  {
    "id": "11af6c58-d256-46a2-9640-6b0013b51fbf",
    "name": "Municipiul Rãdãuţi",
    "state_id": "2d297eed-8dde-48b0-9672-7020a39f62bd"
  },
  {
    "id": "a639bd6a-86ec-4e6f-becb-cda8a8e3fa84",
    "name": "Municipiul Suceava",
    "state_id": "2d297eed-8dde-48b0-9672-7020a39f62bd"
  },
  {
    "id": "b6874caa-5965-4f28-b59d-f3e72e23a91b",
    "name": "Municipiul Vatra Dornei",
    "state_id": "2d297eed-8dde-48b0-9672-7020a39f62bd"
  },
  {
    "id": "26943cb6-691c-435e-aa11-4b7d2c2b5fd8",
    "name": "Muşeniţa",
    "state_id": "2d297eed-8dde-48b0-9672-7020a39f62bd"
  },
  {
    "id": "16d2d2b8-62d9-4c44-9271-65c5410f22bc",
    "name": "Neagra Șarului",
    "state_id": "2d297eed-8dde-48b0-9672-7020a39f62bd"
  },
  {
    "id": "30a58ea2-8791-45e4-8c09-e969814d1990",
    "name": "Negostina",
    "state_id": "2d297eed-8dde-48b0-9672-7020a39f62bd"
  },
  {
    "id": "a27a7317-ce2b-4c46-a2b1-8896da86838c",
    "name": "Negrileasa",
    "state_id": "2d297eed-8dde-48b0-9672-7020a39f62bd"
  },
  {
    "id": "7f9fbc72-64b5-4a14-b3f2-64f894ba565f",
    "name": "Oniceni",
    "state_id": "2d297eed-8dde-48b0-9672-7020a39f62bd"
  },
  {
    "id": "c4c508bd-8220-4c60-9bff-e5e6c449d965",
    "name": "Oraş Broşteni",
    "state_id": "2d297eed-8dde-48b0-9672-7020a39f62bd"
  },
  {
    "id": "54d1ab1f-69be-4131-9acb-f22b0eeb85b3",
    "name": "Oraş Cajvana",
    "state_id": "2d297eed-8dde-48b0-9672-7020a39f62bd"
  },
  {
    "id": "1c827d17-244a-4766-b60e-84ab8f5e22b8",
    "name": "Oraş Dolhasca",
    "state_id": "2d297eed-8dde-48b0-9672-7020a39f62bd"
  },
  {
    "id": "3d409d5d-9753-466e-9a0e-d32a6fef615f",
    "name": "Oraş Frasin",
    "state_id": "2d297eed-8dde-48b0-9672-7020a39f62bd"
  },
  {
    "id": "fa73f94b-01c8-464b-a059-580b8c8f2894",
    "name": "Oraş Gura Humorului",
    "state_id": "2d297eed-8dde-48b0-9672-7020a39f62bd"
  },
  {
    "id": "74587b95-9f41-4ef2-8f78-697aad333720",
    "name": "Oraş Liteni",
    "state_id": "2d297eed-8dde-48b0-9672-7020a39f62bd"
  },
  {
    "id": "9c3a9817-e53b-4303-867c-0646150251b1",
    "name": "Oraş Milişãuţi",
    "state_id": "2d297eed-8dde-48b0-9672-7020a39f62bd"
  },
  {
    "id": "ee78228e-9edc-4b1b-9099-554bf8933417",
    "name": "Oraş Salcea",
    "state_id": "2d297eed-8dde-48b0-9672-7020a39f62bd"
  },
  {
    "id": "bafd7cec-c8d5-4b00-8c5d-e1d70f761f3e",
    "name": "Oraş Siret",
    "state_id": "2d297eed-8dde-48b0-9672-7020a39f62bd"
  },
  {
    "id": "9318be74-947e-448d-a781-00e66465a321",
    "name": "Oraş Solca",
    "state_id": "2d297eed-8dde-48b0-9672-7020a39f62bd"
  },
  {
    "id": "1f90d9bc-dff4-42b2-bdd9-81e982dabec3",
    "name": "Oraş Vicovu De Sus",
    "state_id": "2d297eed-8dde-48b0-9672-7020a39f62bd"
  },
  {
    "id": "c7a9e477-61be-4250-8d77-bafe95b81602",
    "name": "Ostra",
    "state_id": "2d297eed-8dde-48b0-9672-7020a39f62bd"
  },
  {
    "id": "86ebef46-32a6-43ad-8aba-31f06dc21208",
    "name": "Păltinoasa",
    "state_id": "2d297eed-8dde-48b0-9672-7020a39f62bd"
  },
  {
    "id": "a1b9414d-5a77-4784-8c45-a215e7b0637f",
    "name": "Panaci",
    "state_id": "2d297eed-8dde-48b0-9672-7020a39f62bd"
  },
  {
    "id": "85217237-f5f4-40f4-ab9b-004fe00bb47a",
    "name": "Pâraie",
    "state_id": "2d297eed-8dde-48b0-9672-7020a39f62bd"
  },
  {
    "id": "b2fa04ad-30d2-4387-acba-78723ec3a3ad",
    "name": "Părhăuți",
    "state_id": "2d297eed-8dde-48b0-9672-7020a39f62bd"
  },
  {
    "id": "bf269a64-51f5-47ed-a48b-1f8daf3a7697",
    "name": "Părteştii de Jos",
    "state_id": "2d297eed-8dde-48b0-9672-7020a39f62bd"
  },
  {
    "id": "8990e9d2-0801-42ea-ba38-97f1c8558c7f",
    "name": "Pătrăuţi",
    "state_id": "2d297eed-8dde-48b0-9672-7020a39f62bd"
  },
  {
    "id": "aa84d74c-2de3-4eee-b62b-6f0e10422f1d",
    "name": "Plăvălari",
    "state_id": "2d297eed-8dde-48b0-9672-7020a39f62bd"
  },
  {
    "id": "266fded5-81fc-41d6-b242-8b061ee42dce",
    "name": "Plopeni",
    "state_id": "2d297eed-8dde-48b0-9672-7020a39f62bd"
  },
  {
    "id": "c758fb14-1dc3-4e86-a5d0-37dfa0797a21",
    "name": "Plutonița",
    "state_id": "2d297eed-8dde-48b0-9672-7020a39f62bd"
  },
  {
    "id": "2780d5ac-eebe-40c8-b48a-3ec24c108bbc",
    "name": "Poiana Mărului",
    "state_id": "2d297eed-8dde-48b0-9672-7020a39f62bd"
  },
  {
    "id": "6ad16b39-374d-427e-be5d-7d43b18b1d96",
    "name": "Poiana Stampei",
    "state_id": "2d297eed-8dde-48b0-9672-7020a39f62bd"
  },
  {
    "id": "37de119e-eba3-4bc7-a8d1-1bc0c08aad31",
    "name": "Poieni-Solca",
    "state_id": "2d297eed-8dde-48b0-9672-7020a39f62bd"
  },
  {
    "id": "2df085c6-29d5-465b-a44b-b92fd6539890",
    "name": "Pojorâta",
    "state_id": "2d297eed-8dde-48b0-9672-7020a39f62bd"
  },
  {
    "id": "07a4c430-0d50-4486-852e-51cceb6eb873",
    "name": "Prelipca",
    "state_id": "2d297eed-8dde-48b0-9672-7020a39f62bd"
  },
  {
    "id": "4beecc69-65e6-4818-a034-a2d90ae28b58",
    "name": "Preuteşti",
    "state_id": "2d297eed-8dde-48b0-9672-7020a39f62bd"
  },
  {
    "id": "f2da54e4-a678-406c-b52c-ccff8b01b8af",
    "name": "Probota",
    "state_id": "2d297eed-8dde-48b0-9672-7020a39f62bd"
  },
  {
    "id": "c4b8f5e1-86f2-44b4-acf3-61dc1aad4ef1",
    "name": "Putna",
    "state_id": "2d297eed-8dde-48b0-9672-7020a39f62bd"
  },
  {
    "id": "c62ded7e-2393-4918-bc31-da1e20bb8999",
    "name": "Rădăşeni",
    "state_id": "2d297eed-8dde-48b0-9672-7020a39f62bd"
  },
  {
    "id": "32ce255b-4b3b-4143-aad8-0ef70ac5eb16",
    "name": "Rădăuți",
    "state_id": "2d297eed-8dde-48b0-9672-7020a39f62bd"
  },
  {
    "id": "36846e23-63ca-4b1a-887c-63d41a4f18d4",
    "name": "Râşca",
    "state_id": "2d297eed-8dde-48b0-9672-7020a39f62bd"
  },
  {
    "id": "af3b3b5d-704c-48ec-b889-03d395ed7992",
    "name": "Roșcani",
    "state_id": "2d297eed-8dde-48b0-9672-7020a39f62bd"
  },
  {
    "id": "a116bd4d-fce8-41dc-b7b1-4b323f6922fc",
    "name": "Rotunda",
    "state_id": "2d297eed-8dde-48b0-9672-7020a39f62bd"
  },
  {
    "id": "0a47985d-6e98-4e70-847b-69bc0f8b37c5",
    "name": "Sadova",
    "state_id": "2d297eed-8dde-48b0-9672-7020a39f62bd"
  },
  {
    "id": "f2644ef6-d131-4ac6-96df-9020c141c579",
    "name": "Salcea",
    "state_id": "2d297eed-8dde-48b0-9672-7020a39f62bd"
  },
  {
    "id": "9d4beacb-63f8-4bcc-93f5-2a38b3859d64",
    "name": "Şaru Dornei",
    "state_id": "2d297eed-8dde-48b0-9672-7020a39f62bd"
  },
  {
    "id": "177d2610-1f1e-47cf-b01a-d5b58866f104",
    "name": "Satu Mare",
    "state_id": "2d297eed-8dde-48b0-9672-7020a39f62bd"
  },
  {
    "id": "209228d8-e6ee-4588-8991-616c7f4741c6",
    "name": "Scheia",
    "state_id": "2d297eed-8dde-48b0-9672-7020a39f62bd"
  },
  {
    "id": "6910047e-5ce4-436c-9148-4edd470e4b28",
    "name": "Șerbănești",
    "state_id": "2d297eed-8dde-48b0-9672-7020a39f62bd"
  },
  {
    "id": "87b5fbd8-b720-406d-aeec-3aa7aef6fb4a",
    "name": "Șerbăuți",
    "state_id": "2d297eed-8dde-48b0-9672-7020a39f62bd"
  },
  {
    "id": "c9d81e8d-9d63-405b-a3bb-6fc600abca79",
    "name": "Siminicea",
    "state_id": "2d297eed-8dde-48b0-9672-7020a39f62bd"
  },
  {
    "id": "959894c9-5d96-4e10-99b9-3f423bf80172",
    "name": "Siret",
    "state_id": "2d297eed-8dde-48b0-9672-7020a39f62bd"
  },
  {
    "id": "1db78a2f-4b5a-4779-9695-bafdc13b07c5",
    "name": "Slatina",
    "state_id": "2d297eed-8dde-48b0-9672-7020a39f62bd"
  },
  {
    "id": "c7fbe96b-88ad-4b42-bca8-e9b601230080",
    "name": "Solca",
    "state_id": "2d297eed-8dde-48b0-9672-7020a39f62bd"
  },
  {
    "id": "c2c24694-9170-45e1-82db-ec56ef19f807",
    "name": "Soloneț",
    "state_id": "2d297eed-8dde-48b0-9672-7020a39f62bd"
  },
  {
    "id": "389045fb-7933-4fba-ada9-07e68a17a781",
    "name": "Stamate",
    "state_id": "2d297eed-8dde-48b0-9672-7020a39f62bd"
  },
  {
    "id": "523f74a3-3733-4e30-8579-3a423d6ec598",
    "name": "Straja",
    "state_id": "2d297eed-8dde-48b0-9672-7020a39f62bd"
  },
  {
    "id": "5c8669b2-0786-484f-b45c-73a40d53f86e",
    "name": "Strâmtura",
    "state_id": "2d297eed-8dde-48b0-9672-7020a39f62bd"
  },
  {
    "id": "13b115b0-db0c-41c2-9f16-f78a4c119040",
    "name": "Stroiești",
    "state_id": "2d297eed-8dde-48b0-9672-7020a39f62bd"
  },
  {
    "id": "e7f036de-e708-4441-8e6f-ecd01b6f6efe",
    "name": "Stulpicani",
    "state_id": "2d297eed-8dde-48b0-9672-7020a39f62bd"
  },
  {
    "id": "0489cc54-edd6-4d8b-838b-beabc1589cff",
    "name": "Suceava",
    "state_id": "2d297eed-8dde-48b0-9672-7020a39f62bd"
  },
  {
    "id": "86d78a42-d9aa-41ac-9804-8cb59721798e",
    "name": "Suceviţa",
    "state_id": "2d297eed-8dde-48b0-9672-7020a39f62bd"
  },
  {
    "id": "b060575f-5079-4f6e-b6a9-351ee65b7fa2",
    "name": "Țibeni",
    "state_id": "2d297eed-8dde-48b0-9672-7020a39f62bd"
  },
  {
    "id": "f105a3fe-f598-411a-9c45-45ee7f3bf76d",
    "name": "Todireşti",
    "state_id": "2d297eed-8dde-48b0-9672-7020a39f62bd"
  },
  {
    "id": "43f7b231-6bee-4d74-8c67-204a0c6af4bd",
    "name": "Udeşti",
    "state_id": "2d297eed-8dde-48b0-9672-7020a39f62bd"
  },
  {
    "id": "8cea033f-4224-41c3-822e-8a27d4ee940d",
    "name": "Ulma",
    "state_id": "2d297eed-8dde-48b0-9672-7020a39f62bd"
  },
  {
    "id": "b8503f9d-c779-439a-924b-64ee137a293b",
    "name": "Vadu Moldovei",
    "state_id": "2d297eed-8dde-48b0-9672-7020a39f62bd"
  },
  {
    "id": "44dd5a6a-02d1-4cc1-b3e8-beb7a369544d",
    "name": "Valea Moldovei",
    "state_id": "2d297eed-8dde-48b0-9672-7020a39f62bd"
  },
  {
    "id": "af0efb38-dfab-4220-8643-2d160a4ec973",
    "name": "Vama",
    "state_id": "2d297eed-8dde-48b0-9672-7020a39f62bd"
  },
  {
    "id": "a048e09d-1735-435d-8f81-25c24e17c522",
    "name": "Văratec",
    "state_id": "2d297eed-8dde-48b0-9672-7020a39f62bd"
  },
  {
    "id": "40812226-6442-4348-9699-513e41be22fc",
    "name": "Vatra Dornei",
    "state_id": "2d297eed-8dde-48b0-9672-7020a39f62bd"
  },
  {
    "id": "1dc1e29c-f3ae-49e8-a8e5-47f7fa89e177",
    "name": "Vatra Moldoviţei",
    "state_id": "2d297eed-8dde-48b0-9672-7020a39f62bd"
  },
  {
    "id": "b6e7ce03-e397-42fc-a36e-70f4dadd7ed4",
    "name": "Vereşti",
    "state_id": "2d297eed-8dde-48b0-9672-7020a39f62bd"
  },
  {
    "id": "b70c288a-8053-4bc1-971a-779e4e4369ef",
    "name": "Vicovu de Jos",
    "state_id": "2d297eed-8dde-48b0-9672-7020a39f62bd"
  },
  {
    "id": "0592e33c-793d-4ed0-9fae-27689c5b5813",
    "name": "Vicovu de Sus",
    "state_id": "2d297eed-8dde-48b0-9672-7020a39f62bd"
  },
  {
    "id": "fdd6a02a-5949-417f-b709-fa6bcf6a977b",
    "name": "Voievodeasa",
    "state_id": "2d297eed-8dde-48b0-9672-7020a39f62bd"
  },
  {
    "id": "8eeb1dec-78e1-4903-a1b4-75c8a7ca7c16",
    "name": "Voitinel",
    "state_id": "2d297eed-8dde-48b0-9672-7020a39f62bd"
  },
  {
    "id": "5b5b95bb-41db-4518-9176-c05d962ec4e0",
    "name": "Volovăţ",
    "state_id": "2d297eed-8dde-48b0-9672-7020a39f62bd"
  },
  {
    "id": "0cfdf798-d9ec-4d8d-929c-b33ed2b421e4",
    "name": "Vultureşti",
    "state_id": "2d297eed-8dde-48b0-9672-7020a39f62bd"
  },
  {
    "id": "2f30325d-21d3-4a1e-ba85-36c0c71ddd18",
    "name": "Zamostea",
    "state_id": "2d297eed-8dde-48b0-9672-7020a39f62bd"
  },
  {
    "id": "763f4126-2a53-456a-999d-3d94843fce86",
    "name": "Zvoriştea",
    "state_id": "2d297eed-8dde-48b0-9672-7020a39f62bd"
  }
]