[
  {
    "id": "922a16a6-038c-4ab8-b60f-0ef5b5568009",
    "name": "Legen",
    "state_id": "2d66e2e0-4989-47c0-98e7-40a2be5ad3bf"
  },
  {
    "id": "2dce4946-fc84-4e7f-a3b9-e0c6dd44b13a",
    "name": "Pameče",
    "state_id": "2d66e2e0-4989-47c0-98e7-40a2be5ad3bf"
  },
  {
    "id": "81d47f34-db7f-4b18-91d4-17ad27d13c44",
    "name": "Slovenj Gradec",
    "state_id": "2d66e2e0-4989-47c0-98e7-40a2be5ad3bf"
  },
  {
    "id": "af681eeb-9cc3-4b7a-a5c8-b3b4a52c5f2d",
    "name": "Šmartno pri Slovenj Gradcu",
    "state_id": "2d66e2e0-4989-47c0-98e7-40a2be5ad3bf"
  }
]