[
  {
    "id": "9cfc23d2-5cd0-496a-b558-cfddf59b134d",
    "name": "Amphoe Kathu",
    "state_id": "2d6df13d-592e-4c85-927e-2af6a02b5735"
  },
  {
    "id": "bc36fb0c-a8a0-4dab-95b1-1a83bce4bc6e",
    "name": "Amphoe Mueang Phuket",
    "state_id": "2d6df13d-592e-4c85-927e-2af6a02b5735"
  },
  {
    "id": "6069316f-11c5-4885-b68c-5a79e3e86cc7",
    "name": "Amphoe Thalang",
    "state_id": "2d6df13d-592e-4c85-927e-2af6a02b5735"
  },
  {
    "id": "d7e8c4b9-0d35-4956-a02b-dfddbd57d60f",
    "name": "Ban Chalong",
    "state_id": "2d6df13d-592e-4c85-927e-2af6a02b5735"
  },
  {
    "id": "3f1b3000-b2df-4d90-83fe-2d139a5e5d78",
    "name": "Ban Karon",
    "state_id": "2d6df13d-592e-4c85-927e-2af6a02b5735"
  },
  {
    "id": "ef3a36a2-c28b-452a-8114-9739f235377f",
    "name": "Ban Kata",
    "state_id": "2d6df13d-592e-4c85-927e-2af6a02b5735"
  },
  {
    "id": "27047dbc-aed8-468b-ba41-0fd6d7287116",
    "name": "Ban Ko Kaeo",
    "state_id": "2d6df13d-592e-4c85-927e-2af6a02b5735"
  },
  {
    "id": "2560a66e-d485-41a6-8066-d623126cf5cb",
    "name": "Ban Mai Khao",
    "state_id": "2d6df13d-592e-4c85-927e-2af6a02b5735"
  },
  {
    "id": "eaba3aa2-259f-4b28-84ef-dca16d92f143",
    "name": "Ban Ratsada",
    "state_id": "2d6df13d-592e-4c85-927e-2af6a02b5735"
  },
  {
    "id": "182f8409-7fbc-46da-a475-abce5292004a",
    "name": "Ban Talat Nua",
    "state_id": "2d6df13d-592e-4c85-927e-2af6a02b5735"
  },
  {
    "id": "bf54dda7-0ca1-4ed5-9aee-558b5238aa91",
    "name": "Ban Talat Yai",
    "state_id": "2d6df13d-592e-4c85-927e-2af6a02b5735"
  },
  {
    "id": "44ea32c9-5b28-4357-8480-d907bf699075",
    "name": "Kathu",
    "state_id": "2d6df13d-592e-4c85-927e-2af6a02b5735"
  },
  {
    "id": "9f132094-2b26-48f0-a899-2011d8c83eec",
    "name": "Nai Harn",
    "state_id": "2d6df13d-592e-4c85-927e-2af6a02b5735"
  },
  {
    "id": "fa2bfb5e-5b7f-439c-a7cc-2d70d809e038",
    "name": "Patong",
    "state_id": "2d6df13d-592e-4c85-927e-2af6a02b5735"
  },
  {
    "id": "f8686bea-2fd0-4770-9cf0-5c705545c529",
    "name": "Phuket",
    "state_id": "2d6df13d-592e-4c85-927e-2af6a02b5735"
  },
  {
    "id": "0fbeb0fd-9009-418d-8f19-04df51558adf",
    "name": "Rawai",
    "state_id": "2d6df13d-592e-4c85-927e-2af6a02b5735"
  },
  {
    "id": "6d2e884a-9852-4b6a-8fe3-d028b90119c8",
    "name": "Wichit",
    "state_id": "2d6df13d-592e-4c85-927e-2af6a02b5735"
  }
]