[
  {
    "id": "14dece88-73f8-4002-8ac5-f01d37a8dba0",
    "name": "Bosobolo",
    "state_id": "2dc5e117-e6c1-4f98-beb7-9575b384248c"
  },
  {
    "id": "e2e41941-5fd2-43f0-ab84-1a59e59cab06",
    "name": "Businga",
    "state_id": "2dc5e117-e6c1-4f98-beb7-9575b384248c"
  },
  {
    "id": "d0843324-f9d2-4454-a2cb-b3d145711343",
    "name": "Gbadolite",
    "state_id": "2dc5e117-e6c1-4f98-beb7-9575b384248c"
  }
]