[
  {
    "id": "e6ab086f-4b91-46ef-95c6-c469567e380e",
    "name": "Asipovichy",
    "state_id": "2df75c01-371c-4c12-9c2b-90f1702e1c9c"
  },
  {
    "id": "762a122c-5b03-47fe-8eb2-dbb2260ec2ce",
    "name": "Asipovitski Rayon",
    "state_id": "2df75c01-371c-4c12-9c2b-90f1702e1c9c"
  },
  {
    "id": "4dfd083f-c98d-4f5d-9c5d-9a552950b25d",
    "name": "Babruysk",
    "state_id": "2df75c01-371c-4c12-9c2b-90f1702e1c9c"
  },
  {
    "id": "716befd8-026c-4e82-8333-39f7e08a8574",
    "name": "Babruyski Rayon",
    "state_id": "2df75c01-371c-4c12-9c2b-90f1702e1c9c"
  },
  {
    "id": "d9c0fd8b-cffe-47b1-a4c8-5fcb645608c3",
    "name": "Buynichy",
    "state_id": "2df75c01-371c-4c12-9c2b-90f1702e1c9c"
  },
  {
    "id": "f4ade9d6-2567-4703-ac64-4079dc0fa417",
    "name": "Byalynichy",
    "state_id": "2df75c01-371c-4c12-9c2b-90f1702e1c9c"
  },
  {
    "id": "ee047dd0-95ad-4cf2-8f24-98cb55107ea8",
    "name": "Byalynitski Rayon",
    "state_id": "2df75c01-371c-4c12-9c2b-90f1702e1c9c"
  },
  {
    "id": "1c40c1a6-0850-4fee-955c-d464e5525844",
    "name": "Bykhaw",
    "state_id": "2df75c01-371c-4c12-9c2b-90f1702e1c9c"
  },
  {
    "id": "b41632cc-4224-49f1-9aaf-c13e5c899c45",
    "name": "Chavuski Rayon",
    "state_id": "2df75c01-371c-4c12-9c2b-90f1702e1c9c"
  },
  {
    "id": "5956cd01-dfcb-43e3-8e97-5670c6925dd9",
    "name": "Chavusy",
    "state_id": "2df75c01-371c-4c12-9c2b-90f1702e1c9c"
  },
  {
    "id": "dbb721ba-f01f-4698-8f85-36a39d4722b8",
    "name": "Cherykaw",
    "state_id": "2df75c01-371c-4c12-9c2b-90f1702e1c9c"
  },
  {
    "id": "6b7e9f99-d137-4823-86cf-9435b471ab70",
    "name": "Cherykawski Rayon",
    "state_id": "2df75c01-371c-4c12-9c2b-90f1702e1c9c"
  },
  {
    "id": "10e26370-8b2c-4863-a102-2c25c2f191ac",
    "name": "Dashkawka",
    "state_id": "2df75c01-371c-4c12-9c2b-90f1702e1c9c"
  },
  {
    "id": "374ecb7d-2c28-4f22-9eb1-8fc9b21f61ec",
    "name": "Drybin",
    "state_id": "2df75c01-371c-4c12-9c2b-90f1702e1c9c"
  },
  {
    "id": "a3df26e9-6de7-45a3-988c-65cf18940762",
    "name": "Drybinski Rayon",
    "state_id": "2df75c01-371c-4c12-9c2b-90f1702e1c9c"
  },
  {
    "id": "6611c8e6-8b1f-4831-b175-0659e5eff302",
    "name": "Hlusha",
    "state_id": "2df75c01-371c-4c12-9c2b-90f1702e1c9c"
  },
  {
    "id": "a12746a0-ce59-4017-857c-6eab05e9a477",
    "name": "Hlusk",
    "state_id": "2df75c01-371c-4c12-9c2b-90f1702e1c9c"
  },
  {
    "id": "456a87a9-2b05-4290-98f6-be56fac65dba",
    "name": "Horatski Rayon",
    "state_id": "2df75c01-371c-4c12-9c2b-90f1702e1c9c"
  },
  {
    "id": "e4db6aa4-192f-4269-b2b1-2c5a7595da83",
    "name": "Horki",
    "state_id": "2df75c01-371c-4c12-9c2b-90f1702e1c9c"
  },
  {
    "id": "019607cb-ba01-48cc-ac3f-b66310e1fd40",
    "name": "Kadino",
    "state_id": "2df75c01-371c-4c12-9c2b-90f1702e1c9c"
  },
  {
    "id": "05c74683-d7b6-4579-b1ae-87b251db9e81",
    "name": "Kamyennyya Lavy",
    "state_id": "2df75c01-371c-4c12-9c2b-90f1702e1c9c"
  },
  {
    "id": "1432c1d4-f516-40bf-b127-91599a440fe9",
    "name": "Kastsyukovichy",
    "state_id": "2df75c01-371c-4c12-9c2b-90f1702e1c9c"
  },
  {
    "id": "0a5a2a7c-2f41-44bd-88e2-b4a01d62baf6",
    "name": "Khodasy",
    "state_id": "2df75c01-371c-4c12-9c2b-90f1702e1c9c"
  },
  {
    "id": "4b69c585-f0aa-4136-83b2-0fb7517bd520",
    "name": "Khotsimsk",
    "state_id": "2df75c01-371c-4c12-9c2b-90f1702e1c9c"
  },
  {
    "id": "091a3953-52cc-4698-9414-f1716e9d63f8",
    "name": "Khotsimski Rayon",
    "state_id": "2df75c01-371c-4c12-9c2b-90f1702e1c9c"
  },
  {
    "id": "09c52cb2-e015-4e60-81f7-7d41328670cd",
    "name": "Kirawsk",
    "state_id": "2df75c01-371c-4c12-9c2b-90f1702e1c9c"
  },
  {
    "id": "16abea5e-287b-4e20-a61a-c25712f58b3d",
    "name": "Klichaw",
    "state_id": "2df75c01-371c-4c12-9c2b-90f1702e1c9c"
  },
  {
    "id": "1eb51e06-24a7-443f-bb40-b167c1497361",
    "name": "Klimavichy",
    "state_id": "2df75c01-371c-4c12-9c2b-90f1702e1c9c"
  },
  {
    "id": "75e8eccf-e2f8-46d8-9aba-282c1657159a",
    "name": "Krasnapol’ski Rayon",
    "state_id": "2df75c01-371c-4c12-9c2b-90f1702e1c9c"
  },
  {
    "id": "38586b9e-592e-4479-aaed-7737900f6764",
    "name": "Krasnapollye",
    "state_id": "2df75c01-371c-4c12-9c2b-90f1702e1c9c"
  },
  {
    "id": "4643afec-b4d7-4287-8a29-ebe9e872b49b",
    "name": "Krasnyy Bereg",
    "state_id": "2df75c01-371c-4c12-9c2b-90f1702e1c9c"
  },
  {
    "id": "bf1b1ca4-fd3f-4e20-9b91-dfe08f7d0e5d",
    "name": "Kruhlaye",
    "state_id": "2df75c01-371c-4c12-9c2b-90f1702e1c9c"
  },
  {
    "id": "6487953f-7340-43ef-9d10-a16a71df92a1",
    "name": "Krychaw",
    "state_id": "2df75c01-371c-4c12-9c2b-90f1702e1c9c"
  },
  {
    "id": "2853442d-440b-49ce-82a6-c207dc3defb8",
    "name": "Mahilyow",
    "state_id": "2df75c01-371c-4c12-9c2b-90f1702e1c9c"
  },
  {
    "id": "4eedeadc-53fd-468d-a46d-3b4acdd0635c",
    "name": "Mahilyowski Rayon",
    "state_id": "2df75c01-371c-4c12-9c2b-90f1702e1c9c"
  },
  {
    "id": "8b1ba457-e0df-4bb5-8078-d1429c5e8f40",
    "name": "Mstsislaw",
    "state_id": "2df75c01-371c-4c12-9c2b-90f1702e1c9c"
  },
  {
    "id": "dc82c3ed-d12f-4dcd-ae01-db01316f4958",
    "name": "Myazhysyatki",
    "state_id": "2df75c01-371c-4c12-9c2b-90f1702e1c9c"
  },
  {
    "id": "24c69e2b-4654-47f8-a636-cf2e1efbd687",
    "name": "Myshkavichy",
    "state_id": "2df75c01-371c-4c12-9c2b-90f1702e1c9c"
  },
  {
    "id": "5c4478b4-cdac-4f63-bc52-2f98207a0602",
    "name": "Palykavichy Pyershyya",
    "state_id": "2df75c01-371c-4c12-9c2b-90f1702e1c9c"
  },
  {
    "id": "0a279999-41d9-4653-9d00-166a51b64512",
    "name": "Posëlok Voskhod",
    "state_id": "2df75c01-371c-4c12-9c2b-90f1702e1c9c"
  },
  {
    "id": "470ddf88-db60-49e9-80c4-325fba745016",
    "name": "Ramanavichy",
    "state_id": "2df75c01-371c-4c12-9c2b-90f1702e1c9c"
  },
  {
    "id": "4f904f3f-d33b-4d63-87f2-f1b27616e10e",
    "name": "Shklow",
    "state_id": "2df75c01-371c-4c12-9c2b-90f1702e1c9c"
  },
  {
    "id": "e8c466cd-b7b1-4119-9834-efde37bc936c",
    "name": "Shklowski Rayon",
    "state_id": "2df75c01-371c-4c12-9c2b-90f1702e1c9c"
  },
  {
    "id": "f1f1871e-67a4-420f-9619-409d0545a7eb",
    "name": "Slawharad",
    "state_id": "2df75c01-371c-4c12-9c2b-90f1702e1c9c"
  },
  {
    "id": "6d007ae2-f865-4283-bf9e-5d9fdd5e6955",
    "name": "Veyno",
    "state_id": "2df75c01-371c-4c12-9c2b-90f1702e1c9c"
  },
  {
    "id": "08839143-0822-4916-82f1-5262a2909473",
    "name": "Vishow",
    "state_id": "2df75c01-371c-4c12-9c2b-90f1702e1c9c"
  },
  {
    "id": "e5671f7b-eaf0-4ace-9fbf-bafc0c389920",
    "name": "Yalizava",
    "state_id": "2df75c01-371c-4c12-9c2b-90f1702e1c9c"
  }
]