[
  {
    "id": "3257ef09-4b83-40c0-aa97-b29083e8f184",
    "name": "‘Ajab Shīr",
    "state_id": "2e1c9db7-9e74-4c5d-bd70-01103d15a445"
  },
  {
    "id": "79072d7b-5b5c-4175-b925-2adb723436b0",
    "name": "Ahar",
    "state_id": "2e1c9db7-9e74-4c5d-bd70-01103d15a445"
  },
  {
    "id": "cd5c28fc-627c-484e-b5a0-eb5a0ad39fde",
    "name": "Bonāb",
    "state_id": "2e1c9db7-9e74-4c5d-bd70-01103d15a445"
  },
  {
    "id": "0f0c8439-7e6c-4dfc-9c90-5a856737507d",
    "name": "Hashtrūd",
    "state_id": "2e1c9db7-9e74-4c5d-bd70-01103d15a445"
  },
  {
    "id": "690aaf37-b7b1-40bc-90f8-ffd07707c494",
    "name": "Marand",
    "state_id": "2e1c9db7-9e74-4c5d-bd70-01103d15a445"
  },
  {
    "id": "791487e6-1adf-401c-b2ff-c861160f0237",
    "name": "Sarāb",
    "state_id": "2e1c9db7-9e74-4c5d-bd70-01103d15a445"
  },
  {
    "id": "53dcc3ab-6327-41ea-b678-d483438efbdc",
    "name": "Shahrestān-e ‘Ajab Shīr",
    "state_id": "2e1c9db7-9e74-4c5d-bd70-01103d15a445"
  },
  {
    "id": "577febf9-a004-442d-be99-a4a67ce3c623",
    "name": "Shahrestān-e Āz̄arshahr",
    "state_id": "2e1c9db7-9e74-4c5d-bd70-01103d15a445"
  },
  {
    "id": "c4b34921-4554-4e5b-9e2c-1d8e6fbb4d4a",
    "name": "Shahrestān-e Bonāb",
    "state_id": "2e1c9db7-9e74-4c5d-bd70-01103d15a445"
  },
  {
    "id": "be6e83ae-275b-44ba-872e-ddf80673f055",
    "name": "Shahrestān-e Bostānābād",
    "state_id": "2e1c9db7-9e74-4c5d-bd70-01103d15a445"
  },
  {
    "id": "1945dfd5-b1c2-4ea9-9f4d-ce55778f2fe5",
    "name": "Shahrestān-e Chārāvīmāq",
    "state_id": "2e1c9db7-9e74-4c5d-bd70-01103d15a445"
  },
  {
    "id": "3b5912ca-0423-42f9-9f22-a7bce3266b06",
    "name": "Shahrestān-e Hashtrūd",
    "state_id": "2e1c9db7-9e74-4c5d-bd70-01103d15a445"
  },
  {
    "id": "a7df5fbd-45f7-4604-a368-8d31874c2b49",
    "name": "Shahrestān-e Herīs",
    "state_id": "2e1c9db7-9e74-4c5d-bd70-01103d15a445"
  },
  {
    "id": "a6cc4bb9-6a05-4330-b068-a1fd1613ed3f",
    "name": "Shahrestān-e Jolfā",
    "state_id": "2e1c9db7-9e74-4c5d-bd70-01103d15a445"
  },
  {
    "id": "9cb6d308-a3ed-4d23-8e91-1313dbc7c3b1",
    "name": "Shahrestān-e Khodā Āfarīn",
    "state_id": "2e1c9db7-9e74-4c5d-bd70-01103d15a445"
  },
  {
    "id": "0959c3e3-017a-4c30-9a85-0031c40dd2ab",
    "name": "Shahrestān-e Malekān",
    "state_id": "2e1c9db7-9e74-4c5d-bd70-01103d15a445"
  },
  {
    "id": "5f04ccc3-14e1-48f7-8a79-1d6b84287f8e",
    "name": "Shahrestān-e Marāgheh",
    "state_id": "2e1c9db7-9e74-4c5d-bd70-01103d15a445"
  },
  {
    "id": "aa79d399-c4c7-4aff-84bc-13afbe731787",
    "name": "Shahrestān-e Mīāneh",
    "state_id": "2e1c9db7-9e74-4c5d-bd70-01103d15a445"
  },
  {
    "id": "3261d08d-10c6-4aeb-8d91-e198d22cd0a0",
    "name": "Shahrestān-e Oskū",
    "state_id": "2e1c9db7-9e74-4c5d-bd70-01103d15a445"
  },
  {
    "id": "f3566e71-9028-4aa6-a20b-95a19baf3929",
    "name": "Shahrestān-e Sarāb",
    "state_id": "2e1c9db7-9e74-4c5d-bd70-01103d15a445"
  },
  {
    "id": "e5c12fb5-4e6d-48e2-9f9d-32fdd45950f4",
    "name": "Shahrestān-e Tabrīz",
    "state_id": "2e1c9db7-9e74-4c5d-bd70-01103d15a445"
  },
  {
    "id": "71b23941-2f11-4787-867c-b3c5e7046f63",
    "name": "Shahrestān-e Varzaqān",
    "state_id": "2e1c9db7-9e74-4c5d-bd70-01103d15a445"
  },
  {
    "id": "5253785c-7dfc-4215-97ce-9d339c855073",
    "name": "Tabriz",
    "state_id": "2e1c9db7-9e74-4c5d-bd70-01103d15a445"
  }
]