[
  {
    "id": "2b546144-1f7b-4001-8e35-27abc2deb08e",
    "name": "Kawambwa",
    "state_id": "2e8c9f16-769e-44fc-be2f-39da9ba78d78"
  },
  {
    "id": "e791699b-70c4-48b1-929e-51c4f3012018",
    "name": "Mansa",
    "state_id": "2e8c9f16-769e-44fc-be2f-39da9ba78d78"
  },
  {
    "id": "5c92a728-9117-4df0-b08e-c90b5f6a535c",
    "name": "Mwense",
    "state_id": "2e8c9f16-769e-44fc-be2f-39da9ba78d78"
  },
  {
    "id": "9f3c6fe2-cfc5-4280-a542-121df02bdde9",
    "name": "Nchelenge",
    "state_id": "2e8c9f16-769e-44fc-be2f-39da9ba78d78"
  },
  {
    "id": "33cb2fc0-410c-4389-96fb-c52d3306f399",
    "name": "Samfya",
    "state_id": "2e8c9f16-769e-44fc-be2f-39da9ba78d78"
  }
]