[
  {
    "id": "e86a953d-9511-4098-8eb7-7bc9b1af04c7",
    "name": "Åled",
    "state_id": "2ebb50a0-d896-4410-83c3-5d6d8ace8422"
  },
  {
    "id": "766f3be5-551e-4091-81e0-b636572a1a39",
    "name": "Åsa",
    "state_id": "2ebb50a0-d896-4410-83c3-5d6d8ace8422"
  },
  {
    "id": "4ad2808d-6146-411b-9e98-b87b8e8415c4",
    "name": "Bua",
    "state_id": "2ebb50a0-d896-4410-83c3-5d6d8ace8422"
  },
  {
    "id": "3fb144b1-1221-49f1-b8cb-75acaacf73b7",
    "name": "Falkenberg",
    "state_id": "2ebb50a0-d896-4410-83c3-5d6d8ace8422"
  },
  {
    "id": "3e724838-41a0-41c8-9a69-5b026068e635",
    "name": "Fjärås kyrkby",
    "state_id": "2ebb50a0-d896-4410-83c3-5d6d8ace8422"
  },
  {
    "id": "55c513e4-1b2f-43eb-b3a2-cb4b6e9bd453",
    "name": "Frillesås",
    "state_id": "2ebb50a0-d896-4410-83c3-5d6d8ace8422"
  },
  {
    "id": "d9327452-0738-4a05-8398-a89735a3d797",
    "name": "Frösakull",
    "state_id": "2ebb50a0-d896-4410-83c3-5d6d8ace8422"
  },
  {
    "id": "2e64e8f2-9dd2-41d4-bfa6-44291a0bf94c",
    "name": "Fyllinge",
    "state_id": "2ebb50a0-d896-4410-83c3-5d6d8ace8422"
  },
  {
    "id": "314e1ed0-1196-4072-8286-92bf388e1c7d",
    "name": "Getinge",
    "state_id": "2ebb50a0-d896-4410-83c3-5d6d8ace8422"
  },
  {
    "id": "b590411a-593b-43db-9e66-3a11dd81210b",
    "name": "Glommen",
    "state_id": "2ebb50a0-d896-4410-83c3-5d6d8ace8422"
  },
  {
    "id": "9aec1a5e-12a0-4280-a2be-a2cb81b161bc",
    "name": "Gullbrandstorp",
    "state_id": "2ebb50a0-d896-4410-83c3-5d6d8ace8422"
  },
  {
    "id": "4991579b-c49f-4f01-a86e-e78d7f8058c4",
    "name": "Halmstad",
    "state_id": "2ebb50a0-d896-4410-83c3-5d6d8ace8422"
  },
  {
    "id": "55c8167c-7c2c-4ba7-ad64-f8c31d04880f",
    "name": "Harplinge",
    "state_id": "2ebb50a0-d896-4410-83c3-5d6d8ace8422"
  },
  {
    "id": "c53ef86f-0f99-4979-9004-a5d4af1c8fa2",
    "name": "Haverdal",
    "state_id": "2ebb50a0-d896-4410-83c3-5d6d8ace8422"
  },
  {
    "id": "9867e93b-d4d5-4653-b76d-aea5ee9760a0",
    "name": "Hyltebruk",
    "state_id": "2ebb50a0-d896-4410-83c3-5d6d8ace8422"
  },
  {
    "id": "2ed53e77-4fb7-483f-af2e-8e6565ad41bc",
    "name": "Knäred",
    "state_id": "2ebb50a0-d896-4410-83c3-5d6d8ace8422"
  },
  {
    "id": "92b97b56-b4b7-497f-9d02-d70ff2a096c9",
    "name": "Kungsbacka",
    "state_id": "2ebb50a0-d896-4410-83c3-5d6d8ace8422"
  },
  {
    "id": "fd259fa1-d636-4d2b-9c91-1d5bfdfa26bf",
    "name": "Laholm",
    "state_id": "2ebb50a0-d896-4410-83c3-5d6d8ace8422"
  },
  {
    "id": "086ae503-ef50-4017-abf8-6dc1d29e5130",
    "name": "Mellbystrand",
    "state_id": "2ebb50a0-d896-4410-83c3-5d6d8ace8422"
  },
  {
    "id": "a0940d4f-e2c6-4de5-8a15-ebe0a18b455d",
    "name": "Mjällby",
    "state_id": "2ebb50a0-d896-4410-83c3-5d6d8ace8422"
  },
  {
    "id": "f143a5fd-3bdf-4ec0-9b67-fbc7541b0eb4",
    "name": "Onsala",
    "state_id": "2ebb50a0-d896-4410-83c3-5d6d8ace8422"
  },
  {
    "id": "82af2c35-ebb1-48c9-892b-f85ef140004d",
    "name": "Oskarström",
    "state_id": "2ebb50a0-d896-4410-83c3-5d6d8ace8422"
  },
  {
    "id": "52882fbb-e6a1-4d48-8aa2-63cd7b955847",
    "name": "Särö",
    "state_id": "2ebb50a0-d896-4410-83c3-5d6d8ace8422"
  },
  {
    "id": "cb0c2421-a2c5-4a97-b2e5-7a8af588483e",
    "name": "Skrea",
    "state_id": "2ebb50a0-d896-4410-83c3-5d6d8ace8422"
  },
  {
    "id": "91ae31b7-cdd9-4620-8392-0d2d00cd084b",
    "name": "Steninge",
    "state_id": "2ebb50a0-d896-4410-83c3-5d6d8ace8422"
  },
  {
    "id": "581d34e2-4f56-41db-8810-e66b5b22387f",
    "name": "Torup",
    "state_id": "2ebb50a0-d896-4410-83c3-5d6d8ace8422"
  },
  {
    "id": "21b6e9f1-b984-4de3-a482-7892d8b89dd6",
    "name": "Träslövsläge",
    "state_id": "2ebb50a0-d896-4410-83c3-5d6d8ace8422"
  },
  {
    "id": "3962a33e-620f-4b66-a052-0abd10b938ba",
    "name": "Trönninge",
    "state_id": "2ebb50a0-d896-4410-83c3-5d6d8ace8422"
  },
  {
    "id": "66f720e0-c3c1-4066-b376-9287f1f9a495",
    "name": "Tvååker",
    "state_id": "2ebb50a0-d896-4410-83c3-5d6d8ace8422"
  },
  {
    "id": "89b048fc-cd9d-4669-bb06-66c2f8f5c59b",
    "name": "Vallda",
    "state_id": "2ebb50a0-d896-4410-83c3-5d6d8ace8422"
  },
  {
    "id": "179578b7-7501-456f-b18a-e480871f2dd7",
    "name": "Varberg",
    "state_id": "2ebb50a0-d896-4410-83c3-5d6d8ace8422"
  },
  {
    "id": "e551af97-69df-44c1-9476-48190fe6d7a7",
    "name": "Västra Hagen",
    "state_id": "2ebb50a0-d896-4410-83c3-5d6d8ace8422"
  },
  {
    "id": "5bf8a656-98c7-44e5-b438-6664c3860063",
    "name": "Veddige",
    "state_id": "2ebb50a0-d896-4410-83c3-5d6d8ace8422"
  },
  {
    "id": "64f93b7a-3150-4af9-be99-aacc192ec2ae",
    "name": "Veinge",
    "state_id": "2ebb50a0-d896-4410-83c3-5d6d8ace8422"
  }
]