[
  {
    "id": "36153467-9eca-4cb7-b1b8-4d86d0d6a659",
    "name": "Budva",
    "state_id": "2f3ac9b1-4181-40d7-8790-9d020e4ade35"
  },
  {
    "id": "b3ad3938-d0ec-4624-b15b-3eaccfc12ba5",
    "name": "Petrovac na Moru",
    "state_id": "2f3ac9b1-4181-40d7-8790-9d020e4ade35"
  }
]