[
  {
    "id": "2a0f8ceb-9d9f-4949-a5ce-608cc31d8c69",
    "name": "Bắc Giang",
    "state_id": "2fb91d12-a8e9-4086-9b5f-09a7759f9510"
  },
  {
    "id": "76891566-1fe4-41e2-9e12-e5b32486861b",
    "name": "Huyện Lục Nam",
    "state_id": "2fb91d12-a8e9-4086-9b5f-09a7759f9510"
  },
  {
    "id": "55b32699-b7f9-4202-97b2-1540137b8ab0",
    "name": "Huyện Lục Ngạn",
    "state_id": "2fb91d12-a8e9-4086-9b5f-09a7759f9510"
  },
  {
    "id": "a24bfd85-a181-41b8-8021-004df6023c5d",
    "name": "Huyện Yên Thế",
    "state_id": "2fb91d12-a8e9-4086-9b5f-09a7759f9510"
  }
]