[
  {
    "id": "c1195223-537a-412c-ba90-07bee2ae9859",
    "name": "Alacakaya İlçesi",
    "state_id": "30262cf8-108d-4753-81ce-62282aaa34d0"
  },
  {
    "id": "d73b0f6e-f127-43f6-83ef-c9c86da74a4b",
    "name": "Altınkum",
    "state_id": "30262cf8-108d-4753-81ce-62282aaa34d0"
  },
  {
    "id": "6a81caf7-84c6-4e4f-a9d8-4964979580d8",
    "name": "Ambar",
    "state_id": "30262cf8-108d-4753-81ce-62282aaa34d0"
  },
  {
    "id": "1fe7871c-2a2e-4e82-b0e4-6d347d67e780",
    "name": "Aralık",
    "state_id": "30262cf8-108d-4753-81ce-62282aaa34d0"
  },
  {
    "id": "f36d79ee-fd73-41b5-b9a3-6367ebfb6ac8",
    "name": "Bağlar",
    "state_id": "30262cf8-108d-4753-81ce-62282aaa34d0"
  },
  {
    "id": "825bdb63-0aed-4c6f-912c-cd83e0d82c67",
    "name": "Bismil",
    "state_id": "30262cf8-108d-4753-81ce-62282aaa34d0"
  },
  {
    "id": "4f32e0f7-9314-44a0-a49b-5dc38a2ae7bf",
    "name": "Çermik",
    "state_id": "30262cf8-108d-4753-81ce-62282aaa34d0"
  },
  {
    "id": "7039f7e7-6e3e-4f45-b999-36beeeb2cc87",
    "name": "Çınar İlçesi",
    "state_id": "30262cf8-108d-4753-81ce-62282aaa34d0"
  },
  {
    "id": "20448de1-de7e-44d0-9547-a6a0ec000b82",
    "name": "Çüngüş",
    "state_id": "30262cf8-108d-4753-81ce-62282aaa34d0"
  },
  {
    "id": "38fec8a5-1ac7-465f-9f54-fabe365e1e01",
    "name": "Dicle",
    "state_id": "30262cf8-108d-4753-81ce-62282aaa34d0"
  },
  {
    "id": "27fe70c4-0d6a-4ece-a55a-e198c3a59a98",
    "name": "Diyarbakır",
    "state_id": "30262cf8-108d-4753-81ce-62282aaa34d0"
  },
  {
    "id": "cfb9a1e0-7900-4435-a3e8-bc28c3b587b5",
    "name": "Eğil",
    "state_id": "30262cf8-108d-4753-81ce-62282aaa34d0"
  },
  {
    "id": "415eb6fe-c840-49ff-af46-7d7fd03e5543",
    "name": "Ergani",
    "state_id": "30262cf8-108d-4753-81ce-62282aaa34d0"
  },
  {
    "id": "e6dc7ccc-00f4-459f-ab51-f865d5786b3d",
    "name": "Hani",
    "state_id": "30262cf8-108d-4753-81ce-62282aaa34d0"
  },
  {
    "id": "d0c89f6b-8164-4e99-a889-bb6bcd808578",
    "name": "Hazro",
    "state_id": "30262cf8-108d-4753-81ce-62282aaa34d0"
  },
  {
    "id": "8588fd63-d78c-4945-a92d-37f367fd4813",
    "name": "Kayapınar",
    "state_id": "30262cf8-108d-4753-81ce-62282aaa34d0"
  },
  {
    "id": "9dca4ca7-0cd6-4b00-8a7f-966c3dc35ae8",
    "name": "Kazancı",
    "state_id": "30262cf8-108d-4753-81ce-62282aaa34d0"
  },
  {
    "id": "12f10403-2b91-4d40-abe5-c6f2cf5272dd",
    "name": "Kerh",
    "state_id": "30262cf8-108d-4753-81ce-62282aaa34d0"
  },
  {
    "id": "b890c48c-9d77-4204-b5bf-9c604d443065",
    "name": "Kocaköy",
    "state_id": "30262cf8-108d-4753-81ce-62282aaa34d0"
  },
  {
    "id": "a87a7ffa-d522-4bbc-b17d-4dfc8318dab3",
    "name": "Köseli",
    "state_id": "30262cf8-108d-4753-81ce-62282aaa34d0"
  },
  {
    "id": "c51124c2-1f95-4b83-a716-47efdb522bff",
    "name": "Kulp",
    "state_id": "30262cf8-108d-4753-81ce-62282aaa34d0"
  },
  {
    "id": "95e6095f-a76c-4aaf-be72-2a499655bc10",
    "name": "Lice",
    "state_id": "30262cf8-108d-4753-81ce-62282aaa34d0"
  },
  {
    "id": "29d2ebb3-0793-48cd-ae67-263e3aaf8c44",
    "name": "Salat",
    "state_id": "30262cf8-108d-4753-81ce-62282aaa34d0"
  },
  {
    "id": "7ef03c9c-b0aa-497b-908b-4419223ffa6b",
    "name": "Silvan",
    "state_id": "30262cf8-108d-4753-81ce-62282aaa34d0"
  },
  {
    "id": "b298df6f-538a-42a1-ac16-7214eb3aa13e",
    "name": "Sinanköy",
    "state_id": "30262cf8-108d-4753-81ce-62282aaa34d0"
  },
  {
    "id": "e6674b33-5737-4e9e-946b-79d3723f3a58",
    "name": "Sur",
    "state_id": "30262cf8-108d-4753-81ce-62282aaa34d0"
  },
  {
    "id": "e5c684b7-ccbc-486e-a618-2c8b5e874c4f",
    "name": "Yaprakbaşı",
    "state_id": "30262cf8-108d-4753-81ce-62282aaa34d0"
  },
  {
    "id": "77abf925-e48c-4856-883a-72f5e476b4fa",
    "name": "Yenişehir",
    "state_id": "30262cf8-108d-4753-81ce-62282aaa34d0"
  }
]