[
  {
    "id": "b6d983f9-7e3b-4048-ba8a-e86e52bd09de",
    "name": "Abbottabad",
    "state_id": "30c03e92-6470-43e2-9da0-72dfb6ea1f6e"
  },
  {
    "id": "aa7411f8-d987-463d-a06c-5b61a9fc0467",
    "name": "Akora",
    "state_id": "30c03e92-6470-43e2-9da0-72dfb6ea1f6e"
  },
  {
    "id": "70d9b46e-b1d2-416b-83ce-ab86c00378f0",
    "name": "Aman Garh",
    "state_id": "30c03e92-6470-43e2-9da0-72dfb6ea1f6e"
  },
  {
    "id": "61a49139-cda3-4a46-8026-d52220920a96",
    "name": "Amirabad",
    "state_id": "30c03e92-6470-43e2-9da0-72dfb6ea1f6e"
  },
  {
    "id": "17fd7669-1d49-4286-8716-820cdc9b44a9",
    "name": "Ashanagro Koto",
    "state_id": "30c03e92-6470-43e2-9da0-72dfb6ea1f6e"
  },
  {
    "id": "595c12a0-7602-4e45-8cba-8962177f8d4f",
    "name": "Baffa",
    "state_id": "30c03e92-6470-43e2-9da0-72dfb6ea1f6e"
  },
  {
    "id": "c3607f2f-999c-44c4-b5df-b192b3eb3d84",
    "name": "Bannu",
    "state_id": "30c03e92-6470-43e2-9da0-72dfb6ea1f6e"
  },
  {
    "id": "92432e80-a818-441b-a44a-053d334ac3ee",
    "name": "Bat Khela",
    "state_id": "30c03e92-6470-43e2-9da0-72dfb6ea1f6e"
  },
  {
    "id": "c1c153b1-adaf-4f6e-8092-d523555ce643",
    "name": "Battagram",
    "state_id": "30c03e92-6470-43e2-9da0-72dfb6ea1f6e"
  },
  {
    "id": "d52c6013-3cfa-48e0-8cf5-dbbc3f5eb6d9",
    "name": "Battagram District",
    "state_id": "30c03e92-6470-43e2-9da0-72dfb6ea1f6e"
  },
  {
    "id": "967abef3-2b2d-4757-96e7-f20ddc266f87",
    "name": "Buner District",
    "state_id": "30c03e92-6470-43e2-9da0-72dfb6ea1f6e"
  },
  {
    "id": "ae1884bb-e74c-4825-b9b2-0dd94a7d2201",
    "name": "Charsadda",
    "state_id": "30c03e92-6470-43e2-9da0-72dfb6ea1f6e"
  },
  {
    "id": "04723d01-3592-4ef1-99a6-82ac21d1733b",
    "name": "Cherat Cantonement",
    "state_id": "30c03e92-6470-43e2-9da0-72dfb6ea1f6e"
  },
  {
    "id": "e73ecd30-4cb1-4a42-910b-5efa7caa73af",
    "name": "Chitral",
    "state_id": "30c03e92-6470-43e2-9da0-72dfb6ea1f6e"
  },
  {
    "id": "f67a1098-dcc1-4877-8288-455b81d2c640",
    "name": "Dera Ismail Khan",
    "state_id": "30c03e92-6470-43e2-9da0-72dfb6ea1f6e"
  },
  {
    "id": "b1eefd75-cd12-4f12-861d-5dbefadb719c",
    "name": "Dera Ismāīl Khān District",
    "state_id": "30c03e92-6470-43e2-9da0-72dfb6ea1f6e"
  },
  {
    "id": "9b01e555-e620-4a9f-9ded-a5ec452df32f",
    "name": "Doaba",
    "state_id": "30c03e92-6470-43e2-9da0-72dfb6ea1f6e"
  },
  {
    "id": "6eb9ace6-f04a-4fd8-ae60-bf29b982b8dd",
    "name": "Hangu",
    "state_id": "30c03e92-6470-43e2-9da0-72dfb6ea1f6e"
  },
  {
    "id": "180e9c76-e1ab-46e3-8c90-1c2f5e0c69eb",
    "name": "Haripur",
    "state_id": "30c03e92-6470-43e2-9da0-72dfb6ea1f6e"
  },
  {
    "id": "b7a402ab-7473-4d97-b0f9-64c4016dc798",
    "name": "Havelian",
    "state_id": "30c03e92-6470-43e2-9da0-72dfb6ea1f6e"
  },
  {
    "id": "cba77d0c-47d4-4197-9136-fa4c9382198c",
    "name": "Kakad Wari Dir Upper",
    "state_id": "30c03e92-6470-43e2-9da0-72dfb6ea1f6e"
  },
  {
    "id": "b7c4dbe0-f0d0-4b11-a17a-d0dd9646b77c",
    "name": "Karak",
    "state_id": "30c03e92-6470-43e2-9da0-72dfb6ea1f6e"
  },
  {
    "id": "1c00a3d6-f5d4-4d83-92a2-3b6f3372aa67",
    "name": "Khalabat",
    "state_id": "30c03e92-6470-43e2-9da0-72dfb6ea1f6e"
  },
  {
    "id": "611ed010-3931-459f-9e7f-57695a6f8f6b",
    "name": "Kohat",
    "state_id": "30c03e92-6470-43e2-9da0-72dfb6ea1f6e"
  },
  {
    "id": "9c4a8084-f234-47ae-8e6b-b14e79557169",
    "name": "Kulachi",
    "state_id": "30c03e92-6470-43e2-9da0-72dfb6ea1f6e"
  },
  {
    "id": "9f5d0be8-891f-45d5-be88-7ebe74a94231",
    "name": "Lachi",
    "state_id": "30c03e92-6470-43e2-9da0-72dfb6ea1f6e"
  },
  {
    "id": "3c22f58f-348e-421b-8115-212552847745",
    "name": "Lakki",
    "state_id": "30c03e92-6470-43e2-9da0-72dfb6ea1f6e"
  },
  {
    "id": "551aeb7e-1a7b-4e27-9b7c-02215f71dd86",
    "name": "Mansehra",
    "state_id": "30c03e92-6470-43e2-9da0-72dfb6ea1f6e"
  },
  {
    "id": "ddd3a94e-944f-4d13-b839-c0347422f15c",
    "name": "Mardan",
    "state_id": "30c03e92-6470-43e2-9da0-72dfb6ea1f6e"
  },
  {
    "id": "195f7969-917c-4c25-8c3a-a497668239f8",
    "name": "Mingora",
    "state_id": "30c03e92-6470-43e2-9da0-72dfb6ea1f6e"
  },
  {
    "id": "5385ecb3-2a21-43f4-9438-2bec5f01e221",
    "name": "Noorabad",
    "state_id": "30c03e92-6470-43e2-9da0-72dfb6ea1f6e"
  },
  {
    "id": "b713bb78-58e4-48b1-ab2d-1fd420857435",
    "name": "Nowshera",
    "state_id": "30c03e92-6470-43e2-9da0-72dfb6ea1f6e"
  },
  {
    "id": "5f8ee9d0-9e28-48a4-8230-e8982556a932",
    "name": "Nowshera Cantonment",
    "state_id": "30c03e92-6470-43e2-9da0-72dfb6ea1f6e"
  },
  {
    "id": "65dcccdd-c8fa-4a19-8899-388e54653fcf",
    "name": "Pabbi",
    "state_id": "30c03e92-6470-43e2-9da0-72dfb6ea1f6e"
  },
  {
    "id": "13f19c11-02eb-4257-a070-f0f869aa6e7f",
    "name": "Paharpur",
    "state_id": "30c03e92-6470-43e2-9da0-72dfb6ea1f6e"
  },
  {
    "id": "7a22d8d9-fe58-4dd6-9d5e-bdd3cb0652e8",
    "name": "Peshawar",
    "state_id": "30c03e92-6470-43e2-9da0-72dfb6ea1f6e"
  },
  {
    "id": "0dc40ece-4ba5-413f-ba01-55a5051146e0",
    "name": "Risalpur Cantonment",
    "state_id": "30c03e92-6470-43e2-9da0-72dfb6ea1f6e"
  },
  {
    "id": "37f0bd9a-9162-40e6-87dd-1162872b81be",
    "name": "Sarai Naurang",
    "state_id": "30c03e92-6470-43e2-9da0-72dfb6ea1f6e"
  },
  {
    "id": "783bfba1-08a7-4526-b5d9-6fa7d93bbaab",
    "name": "Shabqadar",
    "state_id": "30c03e92-6470-43e2-9da0-72dfb6ea1f6e"
  },
  {
    "id": "dc43dc0e-ba79-437b-b4cb-461d4e466e57",
    "name": "Shingli Bala",
    "state_id": "30c03e92-6470-43e2-9da0-72dfb6ea1f6e"
  },
  {
    "id": "095d915d-a069-4cd2-ada7-840fdd74aaed",
    "name": "Shorkot",
    "state_id": "30c03e92-6470-43e2-9da0-72dfb6ea1f6e"
  },
  {
    "id": "91231d98-677b-4d25-9b0f-1e014d01d757",
    "name": "Swabi",
    "state_id": "30c03e92-6470-43e2-9da0-72dfb6ea1f6e"
  },
  {
    "id": "158fe026-f647-40bc-99a6-f1f05ffab5c4",
    "name": "Tangi",
    "state_id": "30c03e92-6470-43e2-9da0-72dfb6ea1f6e"
  },
  {
    "id": "0994ddd8-37b5-4e6b-8d7d-415348c2186e",
    "name": "Tank",
    "state_id": "30c03e92-6470-43e2-9da0-72dfb6ea1f6e"
  },
  {
    "id": "c98647e7-7e07-4848-b84b-76bc54347abe",
    "name": "Thal",
    "state_id": "30c03e92-6470-43e2-9da0-72dfb6ea1f6e"
  },
  {
    "id": "44ffd58f-97e5-4680-af71-01d8803efadd",
    "name": "Topi",
    "state_id": "30c03e92-6470-43e2-9da0-72dfb6ea1f6e"
  },
  {
    "id": "464fdfe9-79d1-46db-b6d8-a189b6d1c6d4",
    "name": "Upper Dir",
    "state_id": "30c03e92-6470-43e2-9da0-72dfb6ea1f6e"
  },
  {
    "id": "71511f37-4d3b-4c1c-8d87-d941ae7170ef",
    "name": "Utmanzai",
    "state_id": "30c03e92-6470-43e2-9da0-72dfb6ea1f6e"
  },
  {
    "id": "9d4067f3-4aa2-4a6a-83ba-791971772b7d",
    "name": "Zaida",
    "state_id": "30c03e92-6470-43e2-9da0-72dfb6ea1f6e"
  }
]