[
  {
    "id": "9621650e-4be5-4d4e-9378-8b854f2cf7cc",
    "name": "Fayrōz Kōh",
    "state_id": "30d7e942-b5b7-40de-b79c-a16c74ca085a"
  },
  {
    "id": "b7e20963-08e0-468d-a705-e31815527d6d",
    "name": "Shahrak",
    "state_id": "30d7e942-b5b7-40de-b79c-a16c74ca085a"
  }
]