[
  {
    "id": "cf0faa6f-46af-4121-9f05-69d507f5e987",
    "name": "Arys",
    "state_id": "3129a251-13cb-49e2-b9e3-2e5b66f3825a"
  },
  {
    "id": "0042854d-e12b-4f13-bd20-11fa6ba114bb",
    "name": "Ashchysay",
    "state_id": "3129a251-13cb-49e2-b9e3-2e5b66f3825a"
  },
  {
    "id": "1cabdf44-6599-4039-8401-065c9cff1d4f",
    "name": "Asyqata",
    "state_id": "3129a251-13cb-49e2-b9e3-2e5b66f3825a"
  },
  {
    "id": "85378b42-ec22-488a-b031-eb7868cb2728",
    "name": "Atakent",
    "state_id": "3129a251-13cb-49e2-b9e3-2e5b66f3825a"
  },
  {
    "id": "67bb9ce4-0002-4266-8362-1c8ca2f03920",
    "name": "Bayzhansay",
    "state_id": "3129a251-13cb-49e2-b9e3-2e5b66f3825a"
  },
  {
    "id": "c205703e-3ffb-45f7-81e2-fc86f2f79304",
    "name": "Belyye Vody",
    "state_id": "3129a251-13cb-49e2-b9e3-2e5b66f3825a"
  },
  {
    "id": "9a78dbcd-8d41-4f34-9221-0259e5dd3b4d",
    "name": "Chardara",
    "state_id": "3129a251-13cb-49e2-b9e3-2e5b66f3825a"
  },
  {
    "id": "f2a1f251-8a3a-4aa1-bbc6-7eeaa9d6f77c",
    "name": "Chayan",
    "state_id": "3129a251-13cb-49e2-b9e3-2e5b66f3825a"
  },
  {
    "id": "b8218eaf-5e3a-4465-86a0-efa8e551daec",
    "name": "Chulakkurgan",
    "state_id": "3129a251-13cb-49e2-b9e3-2e5b66f3825a"
  },
  {
    "id": "8ea586d1-6904-4b60-b79f-fdc00f67b931",
    "name": "Kantagi",
    "state_id": "3129a251-13cb-49e2-b9e3-2e5b66f3825a"
  },
  {
    "id": "71d62cdf-31b4-44a8-a28e-ca8bdfc189ac",
    "name": "Kentau",
    "state_id": "3129a251-13cb-49e2-b9e3-2e5b66f3825a"
  },
  {
    "id": "b73ef83b-eb90-4f5f-a52d-e9d9d211035c",
    "name": "Kokterek",
    "state_id": "3129a251-13cb-49e2-b9e3-2e5b66f3825a"
  },
  {
    "id": "95973feb-32da-447a-b10e-5c3fb70b173a",
    "name": "Lenger",
    "state_id": "3129a251-13cb-49e2-b9e3-2e5b66f3825a"
  },
  {
    "id": "f381f8e7-80d9-4ed7-8261-5afac6e7809d",
    "name": "Leninskoye",
    "state_id": "3129a251-13cb-49e2-b9e3-2e5b66f3825a"
  },
  {
    "id": "6ad168b1-cdaa-48e5-8f86-e83fda391eb7",
    "name": "Maqtaaral Aūdany",
    "state_id": "3129a251-13cb-49e2-b9e3-2e5b66f3825a"
  },
  {
    "id": "59b2500f-3578-4ccf-aa4a-1e047c74689b",
    "name": "Myrzakent",
    "state_id": "3129a251-13cb-49e2-b9e3-2e5b66f3825a"
  },
  {
    "id": "032521c9-288a-4c25-a09c-a3becfc5fdc8",
    "name": "Qogham",
    "state_id": "3129a251-13cb-49e2-b9e3-2e5b66f3825a"
  },
  {
    "id": "7591bccb-e44f-4e92-93e9-0fcd8b3b1063",
    "name": "Saryaghash",
    "state_id": "3129a251-13cb-49e2-b9e3-2e5b66f3825a"
  },
  {
    "id": "fa10c626-c7d7-4d72-b7d3-3c8a821bfedf",
    "name": "Saryaghash Aūdany",
    "state_id": "3129a251-13cb-49e2-b9e3-2e5b66f3825a"
  },
  {
    "id": "0a567941-9fd3-4f61-a3d2-abf75647cbc9",
    "name": "Sastobe",
    "state_id": "3129a251-13cb-49e2-b9e3-2e5b66f3825a"
  },
  {
    "id": "e984f1ed-c06e-420b-9687-db5f512c71f6",
    "name": "Sozaq Aūdany",
    "state_id": "3129a251-13cb-49e2-b9e3-2e5b66f3825a"
  },
  {
    "id": "34dba17f-9afd-4aab-88c6-45fbc44b8d78",
    "name": "Temirlanovka",
    "state_id": "3129a251-13cb-49e2-b9e3-2e5b66f3825a"
  },
  {
    "id": "6609cb87-dfc5-4acb-a218-88e33f70045f",
    "name": "Turar Ryskulov",
    "state_id": "3129a251-13cb-49e2-b9e3-2e5b66f3825a"
  },
  {
    "id": "e432e5a5-a11f-43d5-93b4-8beb6d0b3d95",
    "name": "Turkestan",
    "state_id": "3129a251-13cb-49e2-b9e3-2e5b66f3825a"
  },
  {
    "id": "c08edc69-4928-4961-80d8-34c23ba836b6",
    "name": "Tyul’kubas",
    "state_id": "3129a251-13cb-49e2-b9e3-2e5b66f3825a"
  },
  {
    "id": "e3a1ff72-e412-449b-9ed2-8fce2dc43e03",
    "name": "Zhabagly",
    "state_id": "3129a251-13cb-49e2-b9e3-2e5b66f3825a"
  }
]