[
  {
    "id": "fcdb01b8-1553-4276-a84f-7745cdd833d9",
    "name": "Curug",
    "state_id": "324b5190-2f3a-47d3-842b-35eac9b26238"
  },
  {
    "id": "9284874f-68c8-446c-b899-467fa9fc8d45",
    "name": "Kabupaten Lebak",
    "state_id": "324b5190-2f3a-47d3-842b-35eac9b26238"
  },
  {
    "id": "f64ca469-a890-409c-a00a-35f886ccc9a6",
    "name": "Kabupaten Pandeglang",
    "state_id": "324b5190-2f3a-47d3-842b-35eac9b26238"
  },
  {
    "id": "020bac9c-03f1-4b9c-ae70-783a8ee0ee55",
    "name": "Kabupaten Serang",
    "state_id": "324b5190-2f3a-47d3-842b-35eac9b26238"
  },
  {
    "id": "d3b6bd8c-0753-43d2-868c-e810b9d3d091",
    "name": "Kabupaten Tangerang",
    "state_id": "324b5190-2f3a-47d3-842b-35eac9b26238"
  },
  {
    "id": "10de31ff-3d29-426a-a193-3606c21428aa",
    "name": "Kota Cilegon",
    "state_id": "324b5190-2f3a-47d3-842b-35eac9b26238"
  },
  {
    "id": "732fdcd9-ed4f-4d75-b3a8-9b0f964dac13",
    "name": "Kota Serang",
    "state_id": "324b5190-2f3a-47d3-842b-35eac9b26238"
  },
  {
    "id": "a96a9dde-29aa-4d56-8c30-e9b82e755e77",
    "name": "Kota Tangerang",
    "state_id": "324b5190-2f3a-47d3-842b-35eac9b26238"
  },
  {
    "id": "6989330c-916a-427b-9119-da6484a8a9e3",
    "name": "Kota Tangerang Selatan",
    "state_id": "324b5190-2f3a-47d3-842b-35eac9b26238"
  },
  {
    "id": "c55af6eb-c8e9-4cf8-a7d0-ee23e5a7c60a",
    "name": "Labuan",
    "state_id": "324b5190-2f3a-47d3-842b-35eac9b26238"
  },
  {
    "id": "bdcaca39-130a-471d-92ab-dbba64403e42",
    "name": "Pandeglang",
    "state_id": "324b5190-2f3a-47d3-842b-35eac9b26238"
  },
  {
    "id": "4e2e387c-babd-48b7-8428-972c4f387f82",
    "name": "Rangkasbitung",
    "state_id": "324b5190-2f3a-47d3-842b-35eac9b26238"
  },
  {
    "id": "b0fa12ed-7db8-4b22-8eec-74d11a0100c0",
    "name": "Serang",
    "state_id": "324b5190-2f3a-47d3-842b-35eac9b26238"
  },
  {
    "id": "3f5ccbbe-7bd4-4b01-8f7f-709e41ea7d1e",
    "name": "South Tangerang",
    "state_id": "324b5190-2f3a-47d3-842b-35eac9b26238"
  },
  {
    "id": "b8f91f8e-d08b-48db-b336-1850ed9f0833",
    "name": "Tangerang",
    "state_id": "324b5190-2f3a-47d3-842b-35eac9b26238"
  }
]