[
  {
    "id": "fd486905-d878-43f7-ac62-a375d611e17d",
    "name": "Agarakadzor",
    "state_id": "3283690b-a53a-4a1a-8100-e2decb2e2a00"
  },
  {
    "id": "a6d39ede-9d1b-4cc9-aaa1-92d2ef440ae6",
    "name": "Aghavnadzor",
    "state_id": "3283690b-a53a-4a1a-8100-e2decb2e2a00"
  },
  {
    "id": "fded8c95-836a-4c74-9810-33d844785bb1",
    "name": "Areni",
    "state_id": "3283690b-a53a-4a1a-8100-e2decb2e2a00"
  },
  {
    "id": "0f194128-8224-4cc8-bd19-18859c3a2c8e",
    "name": "Getap’",
    "state_id": "3283690b-a53a-4a1a-8100-e2decb2e2a00"
  },
  {
    "id": "08534f49-d724-48c0-adb6-89454ea18081",
    "name": "Gladzor",
    "state_id": "3283690b-a53a-4a1a-8100-e2decb2e2a00"
  },
  {
    "id": "8c6de239-a834-4f61-9bef-9d31f5195348",
    "name": "Jermuk",
    "state_id": "3283690b-a53a-4a1a-8100-e2decb2e2a00"
  },
  {
    "id": "645fc8dc-a4b7-4fda-b35d-1f4f9341f0a9",
    "name": "Malishka",
    "state_id": "3283690b-a53a-4a1a-8100-e2decb2e2a00"
  },
  {
    "id": "c5a7e335-40a7-4ec3-9319-f296dba04062",
    "name": "Rrind",
    "state_id": "3283690b-a53a-4a1a-8100-e2decb2e2a00"
  },
  {
    "id": "fdca68c0-4209-4940-9fab-2206a2cb042c",
    "name": "Shatin",
    "state_id": "3283690b-a53a-4a1a-8100-e2decb2e2a00"
  },
  {
    "id": "0f903f5e-9796-4afb-a8c5-cc2b3722f96f",
    "name": "Vayk’",
    "state_id": "3283690b-a53a-4a1a-8100-e2decb2e2a00"
  },
  {
    "id": "93289a8b-ef54-4524-a8f7-adc8c3cf6357",
    "name": "Vernashen",
    "state_id": "3283690b-a53a-4a1a-8100-e2decb2e2a00"
  },
  {
    "id": "21355408-ae55-4b80-9cbb-d119ebc487bc",
    "name": "Yeghegis",
    "state_id": "3283690b-a53a-4a1a-8100-e2decb2e2a00"
  },
  {
    "id": "ec7c3975-3120-451c-9439-f21ef36e866c",
    "name": "Yeghegnadzor",
    "state_id": "3283690b-a53a-4a1a-8100-e2decb2e2a00"
  },
  {
    "id": "ee18e0e8-96b0-49a2-add7-a851c1930a72",
    "name": "Zarrit’ap’",
    "state_id": "3283690b-a53a-4a1a-8100-e2decb2e2a00"
  }
]