[
  {
    "id": "e0627932-ae0b-4aa2-be5b-17f253213aff",
    "name": "Ábalos",
    "state_id": "32842e89-43ba-46af-9ebb-c325d5505917"
  },
  {
    "id": "fb471dff-5578-44b8-97e0-7d96099e9fad",
    "name": "Agoncillo",
    "state_id": "32842e89-43ba-46af-9ebb-c325d5505917"
  },
  {
    "id": "7302d273-4b8d-46c0-8da5-67cd0b9dacb6",
    "name": "Aguilar del Río Alhama",
    "state_id": "32842e89-43ba-46af-9ebb-c325d5505917"
  },
  {
    "id": "bb7855ce-a082-4fb4-b8fe-2012d94a7a53",
    "name": "Ajamil",
    "state_id": "32842e89-43ba-46af-9ebb-c325d5505917"
  },
  {
    "id": "5d29d72d-0753-42b7-b37f-1869e5d9b9a9",
    "name": "Albelda de Iregua",
    "state_id": "32842e89-43ba-46af-9ebb-c325d5505917"
  },
  {
    "id": "d8bc01c4-4a45-44e2-a526-a4fd926b7344",
    "name": "Alberite",
    "state_id": "32842e89-43ba-46af-9ebb-c325d5505917"
  },
  {
    "id": "334aa715-361c-40dd-aa93-2014599cea29",
    "name": "Alcanadre",
    "state_id": "32842e89-43ba-46af-9ebb-c325d5505917"
  },
  {
    "id": "b4866e50-f349-44ae-bfb6-4e29cd3aaf1e",
    "name": "Aldeanueva de Ebro",
    "state_id": "32842e89-43ba-46af-9ebb-c325d5505917"
  },
  {
    "id": "9dcacd16-3606-44eb-9b92-b2c2ddc13408",
    "name": "Alesanco",
    "state_id": "32842e89-43ba-46af-9ebb-c325d5505917"
  },
  {
    "id": "cc899051-a8c2-4623-8a25-9b9c1965d76c",
    "name": "Alesón",
    "state_id": "32842e89-43ba-46af-9ebb-c325d5505917"
  },
  {
    "id": "e366013c-1cfc-4eae-8d2a-52543358039c",
    "name": "Alfaro",
    "state_id": "32842e89-43ba-46af-9ebb-c325d5505917"
  },
  {
    "id": "f374f05e-6144-4ce2-bbf3-b33a139b612d",
    "name": "Almarza de Cameros",
    "state_id": "32842e89-43ba-46af-9ebb-c325d5505917"
  },
  {
    "id": "842528a5-0373-47e8-b746-9b8f025be06d",
    "name": "Anguciana",
    "state_id": "32842e89-43ba-46af-9ebb-c325d5505917"
  },
  {
    "id": "fb0f9175-cece-4326-87c0-79bf9641df70",
    "name": "Anguiano",
    "state_id": "32842e89-43ba-46af-9ebb-c325d5505917"
  },
  {
    "id": "1916da7c-bf58-45d7-96b7-97fe48e3a4fb",
    "name": "Arenzana de Abajo",
    "state_id": "32842e89-43ba-46af-9ebb-c325d5505917"
  },
  {
    "id": "eec989f5-7557-4f76-8a1d-3a717ae9a915",
    "name": "Arenzana de Arriba",
    "state_id": "32842e89-43ba-46af-9ebb-c325d5505917"
  },
  {
    "id": "f20dadc2-fd2f-4038-8ca9-91c0f25ffc07",
    "name": "Arnedillo",
    "state_id": "32842e89-43ba-46af-9ebb-c325d5505917"
  },
  {
    "id": "4494c8a7-da51-45e5-a766-9e8c3db1fefc",
    "name": "Arnedo",
    "state_id": "32842e89-43ba-46af-9ebb-c325d5505917"
  },
  {
    "id": "d741c124-7ac6-439c-ae78-1b88e02f8571",
    "name": "Arrúbal",
    "state_id": "32842e89-43ba-46af-9ebb-c325d5505917"
  },
  {
    "id": "d8012420-0785-43a0-a23d-4bdab1280d55",
    "name": "Ausejo",
    "state_id": "32842e89-43ba-46af-9ebb-c325d5505917"
  },
  {
    "id": "411ade2d-45aa-43df-8f56-f1b04452ee95",
    "name": "Autol",
    "state_id": "32842e89-43ba-46af-9ebb-c325d5505917"
  },
  {
    "id": "9c84186e-3297-4860-9ab8-c837dd5ab744",
    "name": "Azofra",
    "state_id": "32842e89-43ba-46af-9ebb-c325d5505917"
  },
  {
    "id": "5591a0f6-c87d-479d-9a10-e944da19e0e1",
    "name": "Badarán",
    "state_id": "32842e89-43ba-46af-9ebb-c325d5505917"
  },
  {
    "id": "39e8eb32-3765-4490-9ed5-e642c56732c5",
    "name": "Bañares",
    "state_id": "32842e89-43ba-46af-9ebb-c325d5505917"
  },
  {
    "id": "d7fc1bba-e529-42c4-8730-c4fd4a6b263c",
    "name": "Baños de Río Tobía",
    "state_id": "32842e89-43ba-46af-9ebb-c325d5505917"
  },
  {
    "id": "397004a5-8320-4761-bc3b-9d8dba0bc542",
    "name": "Baños de Rioja",
    "state_id": "32842e89-43ba-46af-9ebb-c325d5505917"
  },
  {
    "id": "34182040-4850-456b-9ace-352a6b9a532e",
    "name": "Berceo",
    "state_id": "32842e89-43ba-46af-9ebb-c325d5505917"
  },
  {
    "id": "3bf8f3cc-e261-4b08-9c6d-865c6d5070ac",
    "name": "Bergasa",
    "state_id": "32842e89-43ba-46af-9ebb-c325d5505917"
  },
  {
    "id": "ba0d6478-ae45-4529-8558-91e78e8850de",
    "name": "Bergasillas Bajera",
    "state_id": "32842e89-43ba-46af-9ebb-c325d5505917"
  },
  {
    "id": "2ddd1b08-1f00-4776-ac98-a063fb9355b1",
    "name": "Bobadilla",
    "state_id": "32842e89-43ba-46af-9ebb-c325d5505917"
  },
  {
    "id": "20af271f-e9d8-491b-9d95-8082af4a5802",
    "name": "Brieva de Cameros",
    "state_id": "32842e89-43ba-46af-9ebb-c325d5505917"
  },
  {
    "id": "18583cd6-05c5-465e-9296-5c98ca8cc680",
    "name": "Briñas",
    "state_id": "32842e89-43ba-46af-9ebb-c325d5505917"
  },
  {
    "id": "6829fa6e-e39b-406c-b283-91f3ecf362e6",
    "name": "Briones",
    "state_id": "32842e89-43ba-46af-9ebb-c325d5505917"
  },
  {
    "id": "35c87180-b770-498d-badb-15c33cf69eda",
    "name": "Cabezón de Cameros",
    "state_id": "32842e89-43ba-46af-9ebb-c325d5505917"
  },
  {
    "id": "186d0677-43b8-441b-bdd4-c65b51140dc6",
    "name": "Calahorra",
    "state_id": "32842e89-43ba-46af-9ebb-c325d5505917"
  },
  {
    "id": "2db5c0cd-7203-4a9e-9517-0e40411aa337",
    "name": "Canales de la Sierra",
    "state_id": "32842e89-43ba-46af-9ebb-c325d5505917"
  },
  {
    "id": "35a2219a-7e63-4521-9afa-683848fbfc7b",
    "name": "Cañas",
    "state_id": "32842e89-43ba-46af-9ebb-c325d5505917"
  },
  {
    "id": "a2a35d43-76c2-4207-9ff2-2ee11b202b34",
    "name": "Canillas de Río Tuerto",
    "state_id": "32842e89-43ba-46af-9ebb-c325d5505917"
  },
  {
    "id": "f43b1320-db57-41d4-98af-8b918c7d807c",
    "name": "Cárdenas",
    "state_id": "32842e89-43ba-46af-9ebb-c325d5505917"
  },
  {
    "id": "e790164e-9496-4702-811f-eaf5b3a8a41b",
    "name": "Casalarreina",
    "state_id": "32842e89-43ba-46af-9ebb-c325d5505917"
  },
  {
    "id": "f48da593-8e80-4e82-a517-528cb496fd6c",
    "name": "Castañares de Rioja",
    "state_id": "32842e89-43ba-46af-9ebb-c325d5505917"
  },
  {
    "id": "8b65297b-bd4a-4f20-9720-7ebf319f1f02",
    "name": "Cellorigo",
    "state_id": "32842e89-43ba-46af-9ebb-c325d5505917"
  },
  {
    "id": "d03d8f99-e627-47ec-beea-d25576f23d27",
    "name": "Cenicero",
    "state_id": "32842e89-43ba-46af-9ebb-c325d5505917"
  },
  {
    "id": "69bce0b3-42fc-47a4-ad33-37be2d3ef9f1",
    "name": "Cervera del Río Alhama",
    "state_id": "32842e89-43ba-46af-9ebb-c325d5505917"
  },
  {
    "id": "961edcc9-7691-4d86-95c1-ad6909739f0a",
    "name": "Cidamón",
    "state_id": "32842e89-43ba-46af-9ebb-c325d5505917"
  },
  {
    "id": "541a80e1-502d-48d9-a1db-0146e94f8d22",
    "name": "Cihuri",
    "state_id": "32842e89-43ba-46af-9ebb-c325d5505917"
  },
  {
    "id": "53df6d10-f8d2-40ab-a3be-c97662dc1dce",
    "name": "Cirueña",
    "state_id": "32842e89-43ba-46af-9ebb-c325d5505917"
  },
  {
    "id": "0970b794-81bc-4e67-97b9-68fde19b6b6e",
    "name": "Clavijo",
    "state_id": "32842e89-43ba-46af-9ebb-c325d5505917"
  },
  {
    "id": "dd463a9a-0025-4180-ae96-7fda015996c5",
    "name": "Cordovín",
    "state_id": "32842e89-43ba-46af-9ebb-c325d5505917"
  },
  {
    "id": "a36caaf2-f011-4ab8-959a-8f81dde67321",
    "name": "Corera",
    "state_id": "32842e89-43ba-46af-9ebb-c325d5505917"
  },
  {
    "id": "d72b842d-fb4d-447f-bac2-3dd2059534fd",
    "name": "Cornago",
    "state_id": "32842e89-43ba-46af-9ebb-c325d5505917"
  },
  {
    "id": "f8a6cca4-52e1-4a8c-884c-0c4c2d7d1948",
    "name": "Corporales",
    "state_id": "32842e89-43ba-46af-9ebb-c325d5505917"
  },
  {
    "id": "6a8967bb-9a29-4475-a7f9-e7c5d467a7bc",
    "name": "Enciso",
    "state_id": "32842e89-43ba-46af-9ebb-c325d5505917"
  },
  {
    "id": "ff016198-94fc-4bca-86a0-554c0257cb63",
    "name": "Entrena",
    "state_id": "32842e89-43ba-46af-9ebb-c325d5505917"
  },
  {
    "id": "480351db-8b4b-4cc0-a5fd-3d526580bc96",
    "name": "Estollo",
    "state_id": "32842e89-43ba-46af-9ebb-c325d5505917"
  },
  {
    "id": "51ad0399-7c39-4586-8fb8-a03d37aba016",
    "name": "Ezcaray",
    "state_id": "32842e89-43ba-46af-9ebb-c325d5505917"
  },
  {
    "id": "55356763-3679-49cc-aa7e-b191fc08d195",
    "name": "Foncea",
    "state_id": "32842e89-43ba-46af-9ebb-c325d5505917"
  },
  {
    "id": "a30f5227-db35-475a-80a3-6e49803a4e81",
    "name": "Fonzaleche",
    "state_id": "32842e89-43ba-46af-9ebb-c325d5505917"
  },
  {
    "id": "610b5f9d-d88e-4ff5-ab1b-ec3dc046de8e",
    "name": "Fuenmayor",
    "state_id": "32842e89-43ba-46af-9ebb-c325d5505917"
  },
  {
    "id": "4e955cea-8516-4129-882b-692c49859fce",
    "name": "Galbárruli",
    "state_id": "32842e89-43ba-46af-9ebb-c325d5505917"
  },
  {
    "id": "10a79981-8698-415e-9907-6a9c3e5b75e8",
    "name": "Galilea",
    "state_id": "32842e89-43ba-46af-9ebb-c325d5505917"
  },
  {
    "id": "0ab21879-171d-40c8-8abd-1ccfe6574c3a",
    "name": "Gallinero de Cameros",
    "state_id": "32842e89-43ba-46af-9ebb-c325d5505917"
  },
  {
    "id": "a623598b-40d3-44b5-9cf6-e24772264869",
    "name": "Gimileo",
    "state_id": "32842e89-43ba-46af-9ebb-c325d5505917"
  },
  {
    "id": "5c0ec6ff-3404-4340-abf3-9dd2da1e1886",
    "name": "Grañón",
    "state_id": "32842e89-43ba-46af-9ebb-c325d5505917"
  },
  {
    "id": "d440a3e2-17e7-4bfd-a91c-0f419282f8c4",
    "name": "Grávalos",
    "state_id": "32842e89-43ba-46af-9ebb-c325d5505917"
  },
  {
    "id": "d1620c6f-250e-43aa-b4a5-6546a1ae2f67",
    "name": "Haro",
    "state_id": "32842e89-43ba-46af-9ebb-c325d5505917"
  },
  {
    "id": "d09d916b-b329-4e76-ae32-ac58136c2abe",
    "name": "Herce",
    "state_id": "32842e89-43ba-46af-9ebb-c325d5505917"
  },
  {
    "id": "8ae64bcc-9caf-48d5-b4fa-35ece032d990",
    "name": "Herramélluri",
    "state_id": "32842e89-43ba-46af-9ebb-c325d5505917"
  },
  {
    "id": "2a3e4ebc-37ac-4543-bde5-9143e3e99566",
    "name": "Hervías",
    "state_id": "32842e89-43ba-46af-9ebb-c325d5505917"
  },
  {
    "id": "372e3967-0a97-4fd1-b01e-683e6209a739",
    "name": "Hormilla",
    "state_id": "32842e89-43ba-46af-9ebb-c325d5505917"
  },
  {
    "id": "90d9d29b-2973-4bbf-b64c-ed742bae6e04",
    "name": "Hormilleja",
    "state_id": "32842e89-43ba-46af-9ebb-c325d5505917"
  },
  {
    "id": "ad943c76-84b6-43bd-897a-92072fe3f885",
    "name": "Hornillos de Cameros",
    "state_id": "32842e89-43ba-46af-9ebb-c325d5505917"
  },
  {
    "id": "0dfd852f-a58c-4ab6-b4bb-3eef20cf93b8",
    "name": "Hornos de Moncalvillo",
    "state_id": "32842e89-43ba-46af-9ebb-c325d5505917"
  },
  {
    "id": "63efb343-0333-42bd-891e-5c9b63506387",
    "name": "Huércanos",
    "state_id": "32842e89-43ba-46af-9ebb-c325d5505917"
  },
  {
    "id": "e7f8cb7c-4030-40f2-a0e7-0b48dcac217e",
    "name": "Igea",
    "state_id": "32842e89-43ba-46af-9ebb-c325d5505917"
  },
  {
    "id": "e1eb9414-8ce1-49e5-9f74-fbf47459213b",
    "name": "Jalón de Cameros",
    "state_id": "32842e89-43ba-46af-9ebb-c325d5505917"
  },
  {
    "id": "8f5780e6-483b-430d-8a49-7000b8422130",
    "name": "Laguna de Cameros",
    "state_id": "32842e89-43ba-46af-9ebb-c325d5505917"
  },
  {
    "id": "fa5a6391-98df-4cdc-bbe1-5838a0e748f8",
    "name": "Lagunilla del Jubera",
    "state_id": "32842e89-43ba-46af-9ebb-c325d5505917"
  },
  {
    "id": "9b2babdf-55c2-4683-a223-3950f384d9b3",
    "name": "Lardero",
    "state_id": "32842e89-43ba-46af-9ebb-c325d5505917"
  },
  {
    "id": "6062e39d-fe14-409a-8165-fd96af9beae3",
    "name": "Ledesma de la Cogolla",
    "state_id": "32842e89-43ba-46af-9ebb-c325d5505917"
  },
  {
    "id": "803b7b88-053b-4bf8-9f7e-7ae8dd583a71",
    "name": "Leiva",
    "state_id": "32842e89-43ba-46af-9ebb-c325d5505917"
  },
  {
    "id": "4236a5f4-b0bd-4ce3-8c11-2d5a92034501",
    "name": "Leza de Río Leza",
    "state_id": "32842e89-43ba-46af-9ebb-c325d5505917"
  },
  {
    "id": "56423ec3-31f5-43e7-8226-cefd204f812f",
    "name": "Logroño",
    "state_id": "32842e89-43ba-46af-9ebb-c325d5505917"
  },
  {
    "id": "c72e970e-d881-4778-a194-315fb7740f37",
    "name": "Lumbreras",
    "state_id": "32842e89-43ba-46af-9ebb-c325d5505917"
  },
  {
    "id": "f57bb723-59cb-4cf7-82a4-1ac049c39177",
    "name": "Manjarrés",
    "state_id": "32842e89-43ba-46af-9ebb-c325d5505917"
  },
  {
    "id": "6609c44f-e5bb-4fcb-80aa-c89ccfc57c30",
    "name": "Manzanares de Rioja",
    "state_id": "32842e89-43ba-46af-9ebb-c325d5505917"
  },
  {
    "id": "e6bf8dff-d59e-43c5-8afc-1419f736da5d",
    "name": "Matute",
    "state_id": "32842e89-43ba-46af-9ebb-c325d5505917"
  },
  {
    "id": "09e804dc-ca8a-4ddb-a258-4f85a203b25a",
    "name": "Medrano",
    "state_id": "32842e89-43ba-46af-9ebb-c325d5505917"
  },
  {
    "id": "a14ab0fd-5f31-4757-a819-6dadc2c2faea",
    "name": "Munilla",
    "state_id": "32842e89-43ba-46af-9ebb-c325d5505917"
  },
  {
    "id": "45225c56-0107-41f7-be71-cf5d00c3795b",
    "name": "Murillo de Río Leza",
    "state_id": "32842e89-43ba-46af-9ebb-c325d5505917"
  },
  {
    "id": "c21270de-9514-46b7-ab47-62cd23385595",
    "name": "Muro de Aguas",
    "state_id": "32842e89-43ba-46af-9ebb-c325d5505917"
  },
  {
    "id": "ef9478b6-41a5-4d61-9c71-fb779fcb88da",
    "name": "Muro en Cameros",
    "state_id": "32842e89-43ba-46af-9ebb-c325d5505917"
  },
  {
    "id": "b121e1c3-a1a3-40b4-886a-a5c0deee0077",
    "name": "Nájera",
    "state_id": "32842e89-43ba-46af-9ebb-c325d5505917"
  },
  {
    "id": "34667ad7-35b4-4ebb-8253-aa329935fdbf",
    "name": "Nalda",
    "state_id": "32842e89-43ba-46af-9ebb-c325d5505917"
  },
  {
    "id": "df53cc9d-cb2f-4799-9b65-c194969343b4",
    "name": "Navajún",
    "state_id": "32842e89-43ba-46af-9ebb-c325d5505917"
  },
  {
    "id": "26c59465-45ff-422d-bfda-35108983898e",
    "name": "Nieva de Cameros",
    "state_id": "32842e89-43ba-46af-9ebb-c325d5505917"
  },
  {
    "id": "0b1b0852-b3ef-481a-8386-f3eece9b46c0",
    "name": "Ochánduri",
    "state_id": "32842e89-43ba-46af-9ebb-c325d5505917"
  },
  {
    "id": "8e0e528b-e1ed-434b-9505-a78789946665",
    "name": "Ocón",
    "state_id": "32842e89-43ba-46af-9ebb-c325d5505917"
  },
  {
    "id": "c75b43b2-db7f-456a-857a-72f2c5806428",
    "name": "Ojacastro",
    "state_id": "32842e89-43ba-46af-9ebb-c325d5505917"
  },
  {
    "id": "98d98aac-3c00-49ba-8486-c87adca78889",
    "name": "Ollauri",
    "state_id": "32842e89-43ba-46af-9ebb-c325d5505917"
  },
  {
    "id": "b7b5eca5-3b79-489e-b88f-35817c869033",
    "name": "Pazuengos",
    "state_id": "32842e89-43ba-46af-9ebb-c325d5505917"
  },
  {
    "id": "3a99bbc3-3025-4dcf-a954-509e0f6f97d1",
    "name": "Pedroso",
    "state_id": "32842e89-43ba-46af-9ebb-c325d5505917"
  },
  {
    "id": "c49cad5b-8ca0-4b3d-a507-6ac94b90f8b2",
    "name": "Pinillos",
    "state_id": "32842e89-43ba-46af-9ebb-c325d5505917"
  },
  {
    "id": "2f393065-0960-4401-aa9e-a3129614c360",
    "name": "Pradejón",
    "state_id": "32842e89-43ba-46af-9ebb-c325d5505917"
  },
  {
    "id": "e90e00d2-e49f-4447-9688-3eb3ca2116be",
    "name": "Pradillo",
    "state_id": "32842e89-43ba-46af-9ebb-c325d5505917"
  },
  {
    "id": "4895c7fd-81e7-4a67-bc4c-6d2346a052d0",
    "name": "Préjano",
    "state_id": "32842e89-43ba-46af-9ebb-c325d5505917"
  },
  {
    "id": "a6e46ad7-9f2b-4aee-ab40-64c26e61fc49",
    "name": "Provincia de La Rioja",
    "state_id": "32842e89-43ba-46af-9ebb-c325d5505917"
  },
  {
    "id": "0450da86-9425-49cb-8663-4d0d6fb80199",
    "name": "Quel",
    "state_id": "32842e89-43ba-46af-9ebb-c325d5505917"
  },
  {
    "id": "3373f093-6ee3-4e78-b683-a1eadc01129d",
    "name": "Rabanera",
    "state_id": "32842e89-43ba-46af-9ebb-c325d5505917"
  },
  {
    "id": "f8bc5d81-4002-43de-89d6-8b8c49d2f37d",
    "name": "Rincón de Soto",
    "state_id": "32842e89-43ba-46af-9ebb-c325d5505917"
  },
  {
    "id": "a06fe2c7-9a8c-43a2-89ba-ef74284ce93c",
    "name": "Robres del Castillo",
    "state_id": "32842e89-43ba-46af-9ebb-c325d5505917"
  },
  {
    "id": "b0a9b505-36cb-451f-915a-3b58d936924f",
    "name": "Rodezno",
    "state_id": "32842e89-43ba-46af-9ebb-c325d5505917"
  },
  {
    "id": "e3685faa-92bd-414c-9ac3-2c1096ff0f47",
    "name": "Sajazarra",
    "state_id": "32842e89-43ba-46af-9ebb-c325d5505917"
  },
  {
    "id": "e60a854b-fe47-44be-8477-31707752626c",
    "name": "San Asensio",
    "state_id": "32842e89-43ba-46af-9ebb-c325d5505917"
  },
  {
    "id": "e741fe08-3702-4c3d-8e77-daa75eb592d7",
    "name": "San Millán de la Cogolla",
    "state_id": "32842e89-43ba-46af-9ebb-c325d5505917"
  },
  {
    "id": "20adfa05-ba20-469c-af05-03d9b823b8ca",
    "name": "San Millán de Yécora",
    "state_id": "32842e89-43ba-46af-9ebb-c325d5505917"
  },
  {
    "id": "bbf308bd-e0ee-4b6e-a525-8ebaa5f9debe",
    "name": "San Román de Cameros",
    "state_id": "32842e89-43ba-46af-9ebb-c325d5505917"
  },
  {
    "id": "b84a71d9-d660-4f10-8ccc-442dedc59aa6",
    "name": "San Torcuato",
    "state_id": "32842e89-43ba-46af-9ebb-c325d5505917"
  },
  {
    "id": "2b4c9e8e-8e5c-4e71-ac68-ee099b9ba87d",
    "name": "San Vicente de la Sonsierra",
    "state_id": "32842e89-43ba-46af-9ebb-c325d5505917"
  },
  {
    "id": "8fbb1cbc-137e-44bf-8eda-7170a039679f",
    "name": "Santa Coloma",
    "state_id": "32842e89-43ba-46af-9ebb-c325d5505917"
  },
  {
    "id": "0f44c8dd-0c5b-480b-94a9-4629c53af97f",
    "name": "Santa Eulalia Bajera",
    "state_id": "32842e89-43ba-46af-9ebb-c325d5505917"
  },
  {
    "id": "f76362db-9741-4d3c-aae7-e02e070becc7",
    "name": "Santo Domingo de la Calzada",
    "state_id": "32842e89-43ba-46af-9ebb-c325d5505917"
  },
  {
    "id": "8ebb74d8-9276-4cf2-8f99-452bca8c068d",
    "name": "Santurdejo",
    "state_id": "32842e89-43ba-46af-9ebb-c325d5505917"
  },
  {
    "id": "cf3a2d79-1dba-46b4-b00b-8e12958a1a07",
    "name": "Sojuela",
    "state_id": "32842e89-43ba-46af-9ebb-c325d5505917"
  },
  {
    "id": "69926c6c-0af5-485e-97b9-5943e86af625",
    "name": "Sorzano",
    "state_id": "32842e89-43ba-46af-9ebb-c325d5505917"
  },
  {
    "id": "6ac10a91-f237-4155-a4b1-ddab5e4d73f1",
    "name": "Soto en Cameros",
    "state_id": "32842e89-43ba-46af-9ebb-c325d5505917"
  },
  {
    "id": "d35b82a9-c38b-49b2-9de7-1a0bff070457",
    "name": "Terroba",
    "state_id": "32842e89-43ba-46af-9ebb-c325d5505917"
  },
  {
    "id": "a2a3554c-0865-4518-a954-784a30264bd2",
    "name": "Tirgo",
    "state_id": "32842e89-43ba-46af-9ebb-c325d5505917"
  },
  {
    "id": "cb2823bd-5879-4c7f-9d7e-1d9bc4cb770e",
    "name": "Tobía",
    "state_id": "32842e89-43ba-46af-9ebb-c325d5505917"
  },
  {
    "id": "15b5f9eb-e525-4099-b3cc-44cb5d810175",
    "name": "Tormantos",
    "state_id": "32842e89-43ba-46af-9ebb-c325d5505917"
  },
  {
    "id": "31495533-90a0-4f88-b8e0-f082aa8b91e5",
    "name": "Torre en Cameros",
    "state_id": "32842e89-43ba-46af-9ebb-c325d5505917"
  },
  {
    "id": "5da2e10a-7a36-42a1-b8d9-6bfbfb46cfce",
    "name": "Torrecilla en Cameros",
    "state_id": "32842e89-43ba-46af-9ebb-c325d5505917"
  },
  {
    "id": "e31285d6-1ef4-46b8-9930-b683c9fcb7cb",
    "name": "Torrecilla sobre Alesanco",
    "state_id": "32842e89-43ba-46af-9ebb-c325d5505917"
  },
  {
    "id": "af7a6c87-19c1-4d3e-8f14-c885dc9d7ef9",
    "name": "Torremontalbo",
    "state_id": "32842e89-43ba-46af-9ebb-c325d5505917"
  },
  {
    "id": "a7bc7c56-ec38-44bd-93c6-a15aecbc1df2",
    "name": "Treviana",
    "state_id": "32842e89-43ba-46af-9ebb-c325d5505917"
  },
  {
    "id": "04217284-e32f-4a86-9f0d-acf7bb4c22e5",
    "name": "Tricio",
    "state_id": "32842e89-43ba-46af-9ebb-c325d5505917"
  },
  {
    "id": "f669d7a7-e427-40ad-a4b6-3222b8164bb6",
    "name": "Tudelilla",
    "state_id": "32842e89-43ba-46af-9ebb-c325d5505917"
  },
  {
    "id": "e3654348-45df-42b6-b47f-0a6871a207fc",
    "name": "Uruñuela",
    "state_id": "32842e89-43ba-46af-9ebb-c325d5505917"
  },
  {
    "id": "98fe5a96-0226-470b-98b5-24762bb06f00",
    "name": "Valdemadera",
    "state_id": "32842e89-43ba-46af-9ebb-c325d5505917"
  },
  {
    "id": "52d24128-ff5f-44c7-9a0b-30ca2877303e",
    "name": "Valgañón",
    "state_id": "32842e89-43ba-46af-9ebb-c325d5505917"
  },
  {
    "id": "848fda0f-3c8a-4990-bf39-2526767c6e10",
    "name": "Ventosa",
    "state_id": "32842e89-43ba-46af-9ebb-c325d5505917"
  },
  {
    "id": "6ed2814d-2cc5-4615-8fb4-b184a447d0d4",
    "name": "Ventrosa",
    "state_id": "32842e89-43ba-46af-9ebb-c325d5505917"
  },
  {
    "id": "d76bf8b4-ae7e-41dd-b7d6-75eba4a3251d",
    "name": "Viguera",
    "state_id": "32842e89-43ba-46af-9ebb-c325d5505917"
  },
  {
    "id": "abc7b27f-170f-48fd-ae15-5405f87e58ba",
    "name": "Villalba de Rioja",
    "state_id": "32842e89-43ba-46af-9ebb-c325d5505917"
  },
  {
    "id": "c2bc2f90-062e-4511-aae6-7991a043ea31",
    "name": "Villalobar de Rioja",
    "state_id": "32842e89-43ba-46af-9ebb-c325d5505917"
  },
  {
    "id": "d5ed8b82-4756-4152-9e62-9779504a7273",
    "name": "Villamediana de Iregua",
    "state_id": "32842e89-43ba-46af-9ebb-c325d5505917"
  },
  {
    "id": "59c2c221-67f9-42c3-b590-35d9e2538109",
    "name": "Villanueva de Cameros",
    "state_id": "32842e89-43ba-46af-9ebb-c325d5505917"
  },
  {
    "id": "5f3b7f13-3be4-47c4-ba05-33bfe5e6e5ec",
    "name": "Villar de Torre",
    "state_id": "32842e89-43ba-46af-9ebb-c325d5505917"
  },
  {
    "id": "72df4fb8-2868-4419-918c-3f0d61a35958",
    "name": "Villarejo",
    "state_id": "32842e89-43ba-46af-9ebb-c325d5505917"
  },
  {
    "id": "af3cc04c-66af-46bb-8d9f-fc35e7df2585",
    "name": "Villarroya",
    "state_id": "32842e89-43ba-46af-9ebb-c325d5505917"
  },
  {
    "id": "7fcb7cef-d425-4a47-b55d-473ce09e2920",
    "name": "Villarta-Quintana",
    "state_id": "32842e89-43ba-46af-9ebb-c325d5505917"
  },
  {
    "id": "0af44591-83e2-41c0-9706-790810caa5ad",
    "name": "Villavelayo",
    "state_id": "32842e89-43ba-46af-9ebb-c325d5505917"
  },
  {
    "id": "e798f4c2-10ef-49bf-b6d7-162c5b2eb9cd",
    "name": "Villaverde de Rioja",
    "state_id": "32842e89-43ba-46af-9ebb-c325d5505917"
  },
  {
    "id": "d51785ec-c357-40bc-9362-36ea332261d7",
    "name": "Villoslada de Cameros",
    "state_id": "32842e89-43ba-46af-9ebb-c325d5505917"
  },
  {
    "id": "87dfbb26-ff27-4b9a-b4d3-91c76e64742e",
    "name": "Viniegra de Abajo",
    "state_id": "32842e89-43ba-46af-9ebb-c325d5505917"
  },
  {
    "id": "24d2c68c-92bf-4c2e-9a97-802edf217860",
    "name": "Viniegra de Arriba",
    "state_id": "32842e89-43ba-46af-9ebb-c325d5505917"
  },
  {
    "id": "81420b32-f007-44be-bd87-011640e029dd",
    "name": "Zarratón",
    "state_id": "32842e89-43ba-46af-9ebb-c325d5505917"
  },
  {
    "id": "2b736693-fe43-41a4-8bda-cffdda10b82b",
    "name": "Zarzosa",
    "state_id": "32842e89-43ba-46af-9ebb-c325d5505917"
  },
  {
    "id": "6b39cc2c-5bde-455f-be23-3ba03cf524eb",
    "name": "Zorraquín",
    "state_id": "32842e89-43ba-46af-9ebb-c325d5505917"
  }
]