[
  {
    "id": "3ffb5f7b-a6f4-45b7-b315-ec8fcb5f0c29",
    "name": "Debe",
    "state_id": "333ac84a-f261-4272-ac5e-130a75aec6c3"
  },
  {
    "id": "6ed0450c-4699-4357-9768-67e1104df25f",
    "name": "Peñal",
    "state_id": "333ac84a-f261-4272-ac5e-130a75aec6c3"
  }
]