[
  {
    "id": "e13f4eba-904f-4816-b5d9-903f7436284a",
    "name": "‘Afak",
    "state_id": "33434d6c-64ea-4cd0-9c87-d2078206f8ee"
  },
  {
    "id": "59441cf7-9b4b-4484-83e3-30bf6f190e1a",
    "name": "Ad Dīwānīyah",
    "state_id": "33434d6c-64ea-4cd0-9c87-d2078206f8ee"
  },
  {
    "id": "27f964b5-0360-43ab-a25a-ccc15f1c91f6",
    "name": "Ash Shāmīyah",
    "state_id": "33434d6c-64ea-4cd0-9c87-d2078206f8ee"
  },
  {
    "id": "3ebbd3e4-3ffa-4e48-94a2-e8db43f396b3",
    "name": "Nāḩiyat ash Shināfīyah",
    "state_id": "33434d6c-64ea-4cd0-9c87-d2078206f8ee"
  },
  {
    "id": "92ec79f1-38e7-469d-85b0-a4742bdb54c8",
    "name": "Nahiyat Ghammas",
    "state_id": "33434d6c-64ea-4cd0-9c87-d2078206f8ee"
  }
]