[
  {
    "id": "f0754413-9f64-4124-8fbd-e3b3331579f4",
    "name": "Baraki Barak",
    "state_id": "34025351-af41-4303-a6b8-40b343cd8429"
  },
  {
    "id": "0e8f5c0e-f92c-4a1d-bdfb-910e1ac337c8",
    "name": "Ḩukūmatī Azrah",
    "state_id": "34025351-af41-4303-a6b8-40b343cd8429"
  },
  {
    "id": "efd6e290-1625-40a1-a8d7-b5933816b8f7",
    "name": "Pul-e ‘Alam",
    "state_id": "34025351-af41-4303-a6b8-40b343cd8429"
  }
]