[
  {
    "id": "d11e0f2f-a164-43ba-9312-2ff94e277dce",
    "name": "Acıgöl",
    "state_id": "34076c92-97b9-4904-90b3-c65f8526d511"
  },
  {
    "id": "24ac6d6e-a0cb-46c8-b036-fb91efd48e05",
    "name": "Avanos",
    "state_id": "34076c92-97b9-4904-90b3-c65f8526d511"
  },
  {
    "id": "691f3a23-ae9e-4ee0-b9e2-cf74403744fd",
    "name": "Derinkuyu",
    "state_id": "34076c92-97b9-4904-90b3-c65f8526d511"
  },
  {
    "id": "e51d1f8a-b4c5-4bb9-868d-29c37ac7b366",
    "name": "Göreme",
    "state_id": "34076c92-97b9-4904-90b3-c65f8526d511"
  },
  {
    "id": "3b54fe38-ba8d-42f7-9212-a66302cdcd88",
    "name": "Gülşehir",
    "state_id": "34076c92-97b9-4904-90b3-c65f8526d511"
  },
  {
    "id": "1c491edc-28cc-4ff9-9ac9-a21bea72215b",
    "name": "Hacıbektaş",
    "state_id": "34076c92-97b9-4904-90b3-c65f8526d511"
  },
  {
    "id": "361fc055-b80d-45ab-af5e-969f9b220c81",
    "name": "Kozaklı İlçesi",
    "state_id": "34076c92-97b9-4904-90b3-c65f8526d511"
  },
  {
    "id": "9f1c9511-c865-4add-b694-c745a66f5e04",
    "name": "Merkez",
    "state_id": "34076c92-97b9-4904-90b3-c65f8526d511"
  },
  {
    "id": "9cee5fa3-94d9-4297-9417-2ab03ec6fc93",
    "name": "Nevşehir",
    "state_id": "34076c92-97b9-4904-90b3-c65f8526d511"
  },
  {
    "id": "55fe8c5b-7693-4496-b7aa-de184f7562d2",
    "name": "Ürgüp",
    "state_id": "34076c92-97b9-4904-90b3-c65f8526d511"
  }
]