[
  {
    "id": "00cf921e-0867-4a44-82b7-e6edf8edb432",
    "name": "Candelaria de La Frontera",
    "state_id": "3407d163-3475-40e8-93f5-2aa51b9428d7"
  },
  {
    "id": "6f06ef12-f19d-4d55-bf35-6e7707325e1b",
    "name": "Chalchuapa",
    "state_id": "3407d163-3475-40e8-93f5-2aa51b9428d7"
  },
  {
    "id": "cad95db2-96e6-486e-8b5d-e39b9c0b2fe6",
    "name": "Coatepeque",
    "state_id": "3407d163-3475-40e8-93f5-2aa51b9428d7"
  },
  {
    "id": "51b8fdae-bcc3-4a13-a691-e72364d06fa1",
    "name": "El Congo",
    "state_id": "3407d163-3475-40e8-93f5-2aa51b9428d7"
  },
  {
    "id": "90161c78-ba12-410f-a8a7-a7c92149aa8e",
    "name": "Metapán",
    "state_id": "3407d163-3475-40e8-93f5-2aa51b9428d7"
  },
  {
    "id": "c16b0b9e-15a8-4c43-aa93-a6ccb82ddd83",
    "name": "Santa Ana",
    "state_id": "3407d163-3475-40e8-93f5-2aa51b9428d7"
  },
  {
    "id": "81dd390e-e9bc-4c0e-9eac-c5a60a000871",
    "name": "Texistepeque",
    "state_id": "3407d163-3475-40e8-93f5-2aa51b9428d7"
  }
]