[
  {
    "id": "ee6bdeae-07e0-4ffc-9268-7de1b79a9884",
    "name": "Al Mayādīn",
    "state_id": "346c6a50-d436-49dc-826f-a8fd7ec31986"
  },
  {
    "id": "cea1976c-757c-4f08-8842-9268bf24c3f6",
    "name": "Ālbū Kamāl",
    "state_id": "346c6a50-d436-49dc-826f-a8fd7ec31986"
  },
  {
    "id": "c119d573-4910-43f8-a954-00a05cd2e700",
    "name": "Deir ez-Zor",
    "state_id": "346c6a50-d436-49dc-826f-a8fd7ec31986"
  },
  {
    "id": "ad8ea44b-4c2b-4c03-b1a4-b51b87498af0",
    "name": "Hajīn",
    "state_id": "346c6a50-d436-49dc-826f-a8fd7ec31986"
  },
  {
    "id": "0296cd0d-8b30-4860-98f6-c1ff3094803f",
    "name": "Subaykhān",
    "state_id": "346c6a50-d436-49dc-826f-a8fd7ec31986"
  }
]