[
  {
    "id": "cb003e3e-83ad-489d-a088-fab369ba7752",
    "name": "Amphoe Buntharik",
    "state_id": "3478323e-9459-4358-820e-fcb8eec0586f"
  },
  {
    "id": "e450b4ee-c91d-4805-b2cc-607e72a6cc69",
    "name": "Amphoe Det Udom",
    "state_id": "3478323e-9459-4358-820e-fcb8eec0586f"
  },
  {
    "id": "ec24e433-2292-4125-8584-81ae457c19f9",
    "name": "Amphoe Don Mot Daeng",
    "state_id": "3478323e-9459-4358-820e-fcb8eec0586f"
  },
  {
    "id": "9ade61a6-e4de-4b30-8d64-1f812b5e9985",
    "name": "Amphoe Khemmarat",
    "state_id": "3478323e-9459-4358-820e-fcb8eec0586f"
  },
  {
    "id": "9c4b5dd2-fe48-46e4-bd70-41bcbf30dcc8",
    "name": "Amphoe Khong Chiam",
    "state_id": "3478323e-9459-4358-820e-fcb8eec0586f"
  },
  {
    "id": "e2996f69-8ecb-4665-987b-55270f114166",
    "name": "Amphoe Khueang Nai",
    "state_id": "3478323e-9459-4358-820e-fcb8eec0586f"
  },
  {
    "id": "0157b418-8f56-4f82-bae8-b913f2e62a76",
    "name": "Amphoe Kut Khaopun",
    "state_id": "3478323e-9459-4358-820e-fcb8eec0586f"
  },
  {
    "id": "773369ca-a689-4012-bc61-f7ac011699b6",
    "name": "Amphoe Lao Suea Kok",
    "state_id": "3478323e-9459-4358-820e-fcb8eec0586f"
  },
  {
    "id": "6cc32dbc-391d-4698-a803-b12f32189458",
    "name": "Amphoe Muang Sam Sip",
    "state_id": "3478323e-9459-4358-820e-fcb8eec0586f"
  },
  {
    "id": "169f08b8-ca69-40af-8b68-c10dd2a75832",
    "name": "Amphoe Mueang Ubon Ratchathani",
    "state_id": "3478323e-9459-4358-820e-fcb8eec0586f"
  },
  {
    "id": "aa01f03c-bca5-4675-8c68-ce3d73149b74",
    "name": "Amphoe Na Chaluai",
    "state_id": "3478323e-9459-4358-820e-fcb8eec0586f"
  },
  {
    "id": "e1f96da4-201f-49d8-b500-9de3fb006b89",
    "name": "Amphoe Na Tan",
    "state_id": "3478323e-9459-4358-820e-fcb8eec0586f"
  },
  {
    "id": "77029889-1c32-4d90-93b2-237b0cb48294",
    "name": "Amphoe Na Yia",
    "state_id": "3478323e-9459-4358-820e-fcb8eec0586f"
  },
  {
    "id": "c5761cb5-3495-466d-b05e-c4dd51dd0e18",
    "name": "Amphoe Nam Khun",
    "state_id": "3478323e-9459-4358-820e-fcb8eec0586f"
  },
  {
    "id": "9cff25d6-22ad-4217-95b3-58f0d1692057",
    "name": "Amphoe Nam Yuen",
    "state_id": "3478323e-9459-4358-820e-fcb8eec0586f"
  },
  {
    "id": "f69050f6-568b-43dc-8850-15d824f14be7",
    "name": "Amphoe Phibun Mangsahan",
    "state_id": "3478323e-9459-4358-820e-fcb8eec0586f"
  },
  {
    "id": "37b48ca4-b3ba-406d-83ee-17457197376d",
    "name": "Amphoe Pho Sai",
    "state_id": "3478323e-9459-4358-820e-fcb8eec0586f"
  },
  {
    "id": "b97107d7-85d3-4a79-959d-d3dc01d4ffe3",
    "name": "Amphoe Samrong",
    "state_id": "3478323e-9459-4358-820e-fcb8eec0586f"
  },
  {
    "id": "851ea025-0e51-4ba9-872c-9e9c267feea9",
    "name": "Amphoe Sawang Wirawong",
    "state_id": "3478323e-9459-4358-820e-fcb8eec0586f"
  },
  {
    "id": "01ecfb65-7d8f-4997-b457-9add42a2f6a8",
    "name": "Amphoe Si Mueang Mai",
    "state_id": "3478323e-9459-4358-820e-fcb8eec0586f"
  },
  {
    "id": "2e1ec598-bd9b-4680-8871-aab933cdbeae",
    "name": "Amphoe Sirindhorn",
    "state_id": "3478323e-9459-4358-820e-fcb8eec0586f"
  },
  {
    "id": "e8fa35a7-3b4f-4ffd-8510-b65f85bd5d89",
    "name": "Amphoe Tan Sum",
    "state_id": "3478323e-9459-4358-820e-fcb8eec0586f"
  },
  {
    "id": "4f32a668-0292-4df4-bb88-9ac7cace0dd7",
    "name": "Amphoe Thung Si Udom",
    "state_id": "3478323e-9459-4358-820e-fcb8eec0586f"
  },
  {
    "id": "64f31afc-ad3f-49d7-a21e-95971c545b74",
    "name": "Amphoe Trakan Phuet Phon",
    "state_id": "3478323e-9459-4358-820e-fcb8eec0586f"
  },
  {
    "id": "83aef60b-4944-4aa7-be10-abe8ffe84723",
    "name": "Amphoe Warin Chamrap",
    "state_id": "3478323e-9459-4358-820e-fcb8eec0586f"
  },
  {
    "id": "6d529954-c2f7-4155-9cf5-46e18685f4b1",
    "name": "Det Udom",
    "state_id": "3478323e-9459-4358-820e-fcb8eec0586f"
  },
  {
    "id": "d9d7931a-5d3f-4087-9aa2-880975266c04",
    "name": "Phibun Mangsahan",
    "state_id": "3478323e-9459-4358-820e-fcb8eec0586f"
  },
  {
    "id": "423d3553-8328-43aa-b13d-37f47b3cd614",
    "name": "Sawang Wirawong",
    "state_id": "3478323e-9459-4358-820e-fcb8eec0586f"
  },
  {
    "id": "61a9397b-14cd-4474-9132-aef56aea7046",
    "name": "Ubon Ratchathani",
    "state_id": "3478323e-9459-4358-820e-fcb8eec0586f"
  },
  {
    "id": "6c743fb7-4f54-4bdc-9149-587789e08974",
    "name": "Warin Chamrap",
    "state_id": "3478323e-9459-4358-820e-fcb8eec0586f"
  }
]