[
  {
    "id": "0d9a31d5-b708-4a7b-b57f-2febd3615fe6",
    "name": "Arouca",
    "state_id": "34cf759a-3ea5-46bf-8db1-c7749d7768b6"
  },
  {
    "id": "f4490940-a748-4e25-8e75-8c451a64cc77",
    "name": "Paradise",
    "state_id": "34cf759a-3ea5-46bf-8db1-c7749d7768b6"
  },
  {
    "id": "70bdb932-3fc5-416c-bc6b-0f63fb3a5869",
    "name": "Tunapuna",
    "state_id": "34cf759a-3ea5-46bf-8db1-c7749d7768b6"
  }
]