[
  {
    "id": "2cdc4436-b3e9-4e47-b860-e71ed1e67145",
    "name": "Amphoe Ban Kha",
    "state_id": "34fa1254-c779-4b7c-a9dd-4d090b07de86"
  },
  {
    "id": "4bbbd1bc-3f28-4001-9cd2-71ff493e27e1",
    "name": "Amphoe Ban Pong",
    "state_id": "34fa1254-c779-4b7c-a9dd-4d090b07de86"
  },
  {
    "id": "11655757-71fa-45e8-91cd-6ca370e761dc",
    "name": "Amphoe Bang Phae",
    "state_id": "34fa1254-c779-4b7c-a9dd-4d090b07de86"
  },
  {
    "id": "2fb87e62-0b7e-4d87-bf5e-0318d1072179",
    "name": "Amphoe Chom Bueng",
    "state_id": "34fa1254-c779-4b7c-a9dd-4d090b07de86"
  },
  {
    "id": "fd5cde30-d3c6-47d5-94ce-915b7284e825",
    "name": "Amphoe Damnoen Saduak",
    "state_id": "34fa1254-c779-4b7c-a9dd-4d090b07de86"
  },
  {
    "id": "7c10b12a-f73a-4a87-b80d-b8ae6ddc989a",
    "name": "Amphoe Mueang Ratchaburi",
    "state_id": "34fa1254-c779-4b7c-a9dd-4d090b07de86"
  },
  {
    "id": "cfdc2cb7-b776-446b-8165-6a3c61e30701",
    "name": "Amphoe Pak Tho",
    "state_id": "34fa1254-c779-4b7c-a9dd-4d090b07de86"
  },
  {
    "id": "97c49541-5626-4210-99ff-8de4f4bf4832",
    "name": "Amphoe Photharam",
    "state_id": "34fa1254-c779-4b7c-a9dd-4d090b07de86"
  },
  {
    "id": "1d61077b-cd5c-4bed-a26f-cbc3ed89b7dd",
    "name": "Amphoe Suan Phueng",
    "state_id": "34fa1254-c779-4b7c-a9dd-4d090b07de86"
  },
  {
    "id": "9591e400-02ef-4b2b-a37b-d20baeb4e190",
    "name": "Amphoe Wat Phleng",
    "state_id": "34fa1254-c779-4b7c-a9dd-4d090b07de86"
  },
  {
    "id": "359bc9a7-376c-455b-b2be-2412af55a130",
    "name": "Ban Pong",
    "state_id": "34fa1254-c779-4b7c-a9dd-4d090b07de86"
  },
  {
    "id": "dca51378-a7e1-4998-9e24-4112eb5e0041",
    "name": "Bang Phae",
    "state_id": "34fa1254-c779-4b7c-a9dd-4d090b07de86"
  },
  {
    "id": "7adceac4-8766-4b4a-a83e-707356b5d341",
    "name": "Chom Bueng",
    "state_id": "34fa1254-c779-4b7c-a9dd-4d090b07de86"
  },
  {
    "id": "ae8d64a0-e75b-4f43-8352-4b1b0812bca0",
    "name": "Damnoen Saduak",
    "state_id": "34fa1254-c779-4b7c-a9dd-4d090b07de86"
  },
  {
    "id": "ef1f8f39-2b3a-4d97-8152-35e9d646ea7f",
    "name": "Photharam",
    "state_id": "34fa1254-c779-4b7c-a9dd-4d090b07de86"
  },
  {
    "id": "6a01cb45-db41-42a0-a8ff-464da92ed80e",
    "name": "Ratchaburi",
    "state_id": "34fa1254-c779-4b7c-a9dd-4d090b07de86"
  }
]