[
  {
    "id": "c584f638-d7e3-4af5-be7a-8940617feab7",
    "name": "Chanika",
    "state_id": "35a0c522-5d40-46ca-a4f6-efbbf19aa9df"
  },
  {
    "id": "f36b7196-823a-449c-af46-05f25bbb934e",
    "name": "Lushoto",
    "state_id": "35a0c522-5d40-46ca-a4f6-efbbf19aa9df"
  },
  {
    "id": "bc472a8a-3bcc-4c11-986e-f4c60c41244d",
    "name": "Magomeni",
    "state_id": "35a0c522-5d40-46ca-a4f6-efbbf19aa9df"
  },
  {
    "id": "54faf336-106a-4abb-9ca1-ec782de81c71",
    "name": "Majengo",
    "state_id": "35a0c522-5d40-46ca-a4f6-efbbf19aa9df"
  },
  {
    "id": "8718addd-3688-44ed-bc33-fc36fe676510",
    "name": "Makuyuni",
    "state_id": "35a0c522-5d40-46ca-a4f6-efbbf19aa9df"
  },
  {
    "id": "09f40af3-a65e-469c-897d-b62dee505f4b",
    "name": "Maramba",
    "state_id": "35a0c522-5d40-46ca-a4f6-efbbf19aa9df"
  },
  {
    "id": "da625fd7-b614-4f61-8134-1a35961e0f28",
    "name": "Matui",
    "state_id": "35a0c522-5d40-46ca-a4f6-efbbf19aa9df"
  },
  {
    "id": "35b353d0-1b1e-4974-a775-24348c72cf9a",
    "name": "Mazinde",
    "state_id": "35a0c522-5d40-46ca-a4f6-efbbf19aa9df"
  },
  {
    "id": "46134f53-d67c-4b5d-aad7-cb78b04511ca",
    "name": "Mlalo",
    "state_id": "35a0c522-5d40-46ca-a4f6-efbbf19aa9df"
  },
  {
    "id": "31d11efd-06ff-4940-b32e-edfd82234077",
    "name": "Muheza",
    "state_id": "35a0c522-5d40-46ca-a4f6-efbbf19aa9df"
  },
  {
    "id": "9ad17240-f05e-4d05-af45-4bdbbafc64de",
    "name": "Mwanga",
    "state_id": "35a0c522-5d40-46ca-a4f6-efbbf19aa9df"
  },
  {
    "id": "4970ae21-f41f-4cb6-ade6-000c95c8cf30",
    "name": "Pangani",
    "state_id": "35a0c522-5d40-46ca-a4f6-efbbf19aa9df"
  },
  {
    "id": "cd865ec6-9722-4388-95e5-8ae518b14464",
    "name": "Soni",
    "state_id": "35a0c522-5d40-46ca-a4f6-efbbf19aa9df"
  },
  {
    "id": "02fa397f-51b0-4a4a-9973-347f2cdd9872",
    "name": "Tanga",
    "state_id": "35a0c522-5d40-46ca-a4f6-efbbf19aa9df"
  }
]