[
  {
    "id": "1b3cbc39-38c3-4e8b-b241-112f861e4a61",
    "name": "Arboga",
    "state_id": "35f0fcce-abbf-4f30-8873-03cf1065280f"
  },
  {
    "id": "43881c94-3123-4431-b99d-a8f5e29dcc47",
    "name": "Barkarö",
    "state_id": "35f0fcce-abbf-4f30-8873-03cf1065280f"
  },
  {
    "id": "83c614eb-eaac-48de-a4dd-997a2ee1b54e",
    "name": "Dingtuna",
    "state_id": "35f0fcce-abbf-4f30-8873-03cf1065280f"
  },
  {
    "id": "27148318-8b71-40ae-8d1d-c44a97eede00",
    "name": "Enhagen-Ekbacken",
    "state_id": "35f0fcce-abbf-4f30-8873-03cf1065280f"
  },
  {
    "id": "e152c226-5886-4016-a1e2-7051d4e333cb",
    "name": "Fagersta",
    "state_id": "35f0fcce-abbf-4f30-8873-03cf1065280f"
  },
  {
    "id": "f25651f1-52a9-4f67-82d1-e6691b2948e0",
    "name": "Hallstahammar",
    "state_id": "35f0fcce-abbf-4f30-8873-03cf1065280f"
  },
  {
    "id": "ffcf475c-b943-42bb-b6d3-79849e24d7ca",
    "name": "Hökåsen",
    "state_id": "35f0fcce-abbf-4f30-8873-03cf1065280f"
  },
  {
    "id": "2971ded5-11f5-4e86-afdb-a3395d1f1377",
    "name": "Irsta",
    "state_id": "35f0fcce-abbf-4f30-8873-03cf1065280f"
  },
  {
    "id": "abc621c9-24fc-4dde-b5cc-47351168bccf",
    "name": "Kolbäck",
    "state_id": "35f0fcce-abbf-4f30-8873-03cf1065280f"
  },
  {
    "id": "8942af70-6159-4572-8381-e276c2db8144",
    "name": "Kolsva",
    "state_id": "35f0fcce-abbf-4f30-8873-03cf1065280f"
  },
  {
    "id": "f84f48b9-c57c-4882-ae80-edcb1e164441",
    "name": "Köping",
    "state_id": "35f0fcce-abbf-4f30-8873-03cf1065280f"
  },
  {
    "id": "a2466934-6468-4cbb-9364-63cc147d8468",
    "name": "Kungsör",
    "state_id": "35f0fcce-abbf-4f30-8873-03cf1065280f"
  },
  {
    "id": "9e08c8fb-74da-403c-bb67-e2dc8de15b48",
    "name": "Norberg",
    "state_id": "35f0fcce-abbf-4f30-8873-03cf1065280f"
  },
  {
    "id": "c1fd87bf-df3f-4d96-8909-8176b67c5dae",
    "name": "Ramnäs",
    "state_id": "35f0fcce-abbf-4f30-8873-03cf1065280f"
  },
  {
    "id": "62d5c1f6-37bb-497b-ad25-ac65fc417bc9",
    "name": "Sala",
    "state_id": "35f0fcce-abbf-4f30-8873-03cf1065280f"
  },
  {
    "id": "13bd78a1-ba06-499a-99b1-a6e375c01bf3",
    "name": "Skinnskatteberg",
    "state_id": "35f0fcce-abbf-4f30-8873-03cf1065280f"
  },
  {
    "id": "4b03bcc1-a2f9-42c3-831e-2c743333de11",
    "name": "Skultuna",
    "state_id": "35f0fcce-abbf-4f30-8873-03cf1065280f"
  },
  {
    "id": "b8ec4bb4-01da-4504-b876-8a056226b34b",
    "name": "Surahammar",
    "state_id": "35f0fcce-abbf-4f30-8873-03cf1065280f"
  },
  {
    "id": "2ef24bb4-e6a1-4f80-8dd7-2374fc0f8c0b",
    "name": "Tillberga",
    "state_id": "35f0fcce-abbf-4f30-8873-03cf1065280f"
  },
  {
    "id": "c91b7758-86b6-40ab-bbc7-cdc24b048fea",
    "name": "Västerås",
    "state_id": "35f0fcce-abbf-4f30-8873-03cf1065280f"
  }
]