[
  {
    "id": "4e2645f3-11cc-432c-b79e-1f596cf159b4",
    "name": "Birzai",
    "state_id": "364c3f04-71f2-46cc-aa83-db42537833c3"
  },
  {
    "id": "371d8e12-5aac-4015-85e7-6c2d2b9a8bca",
    "name": "Juodupė",
    "state_id": "364c3f04-71f2-46cc-aa83-db42537833c3"
  },
  {
    "id": "abee82e2-29bc-4686-9abc-1699f6f8f6d5",
    "name": "Kupiskis",
    "state_id": "364c3f04-71f2-46cc-aa83-db42537833c3"
  },
  {
    "id": "0c631e8d-481a-4b43-95e6-eec64adf6bd8",
    "name": "Obeliai",
    "state_id": "364c3f04-71f2-46cc-aa83-db42537833c3"
  },
  {
    "id": "b473ec27-38a7-414e-b94b-1ccaba3aa43f",
    "name": "Panevėžys",
    "state_id": "364c3f04-71f2-46cc-aa83-db42537833c3"
  },
  {
    "id": "3143d05c-2dde-4907-882a-1242829728cc",
    "name": "Panevėžys City",
    "state_id": "364c3f04-71f2-46cc-aa83-db42537833c3"
  },
  {
    "id": "b18bcf9e-d371-402e-adc4-195b6fcd0aaa",
    "name": "Panevėžys District Municipality",
    "state_id": "364c3f04-71f2-46cc-aa83-db42537833c3"
  },
  {
    "id": "71be11ce-ea11-45ea-b1bb-ae27373acdfe",
    "name": "Pasvalys",
    "state_id": "364c3f04-71f2-46cc-aa83-db42537833c3"
  },
  {
    "id": "610074ea-af74-4141-b887-01b948d03ee1",
    "name": "Ramygala",
    "state_id": "364c3f04-71f2-46cc-aa83-db42537833c3"
  },
  {
    "id": "deb4f189-5f52-4134-a4cd-45914128df70",
    "name": "Rokiškis",
    "state_id": "364c3f04-71f2-46cc-aa83-db42537833c3"
  },
  {
    "id": "e48abc48-afa7-471b-9a43-06be03c52201",
    "name": "Vabalninkas",
    "state_id": "364c3f04-71f2-46cc-aa83-db42537833c3"
  }
]