[
  {
    "id": "a01c784d-a771-4432-9aeb-c376d885be12",
    "name": "Bỉm Sơn",
    "state_id": "364f3569-063b-4d7f-8891-ee8b6fedd92d"
  },
  {
    "id": "4e110e9c-6ddb-4843-9aba-83a99a45be7f",
    "name": "Huyện Bá Thước",
    "state_id": "364f3569-063b-4d7f-8891-ee8b6fedd92d"
  },
  {
    "id": "9f0859c6-ee74-4d40-b2bd-6cf8a22e8d8b",
    "name": "Huyện Cẩm Thủy",
    "state_id": "364f3569-063b-4d7f-8891-ee8b6fedd92d"
  },
  {
    "id": "04fd8f49-9fcd-4952-a4e7-1291e475bcf3",
    "name": "Huyện Đông Sơn",
    "state_id": "364f3569-063b-4d7f-8891-ee8b6fedd92d"
  },
  {
    "id": "2dbcd355-1118-4d3d-a111-d108145e15e1",
    "name": "Huyện Hà Trung",
    "state_id": "364f3569-063b-4d7f-8891-ee8b6fedd92d"
  },
  {
    "id": "663d471f-f8a2-4786-b2d4-75bc731302eb",
    "name": "Huyện Hậu Lộc",
    "state_id": "364f3569-063b-4d7f-8891-ee8b6fedd92d"
  },
  {
    "id": "1033f8d0-8abb-4347-9b04-d4cfba16cd8c",
    "name": "Huyện Lang Chánh",
    "state_id": "364f3569-063b-4d7f-8891-ee8b6fedd92d"
  },
  {
    "id": "16951249-9bbc-414c-b2dc-cd7e29590b4b",
    "name": "Huyện Mường Lát",
    "state_id": "364f3569-063b-4d7f-8891-ee8b6fedd92d"
  },
  {
    "id": "138e67f6-a517-4dcd-8dc7-fbbfabcfe212",
    "name": "Huyện Nga Sơn",
    "state_id": "364f3569-063b-4d7f-8891-ee8b6fedd92d"
  },
  {
    "id": "52b625c8-f866-40e3-900e-b867ce70db72",
    "name": "Huyện Ngọc Lặc",
    "state_id": "364f3569-063b-4d7f-8891-ee8b6fedd92d"
  },
  {
    "id": "26736980-20bd-40cc-ac69-b944cce8c780",
    "name": "Huyện Như Thanh",
    "state_id": "364f3569-063b-4d7f-8891-ee8b6fedd92d"
  },
  {
    "id": "e5665c37-5d46-498b-8169-f30137f82386",
    "name": "Huyện Như Xuân",
    "state_id": "364f3569-063b-4d7f-8891-ee8b6fedd92d"
  },
  {
    "id": "54e76a32-c419-4451-beaf-484e64defe19",
    "name": "Huyện Nông Cống",
    "state_id": "364f3569-063b-4d7f-8891-ee8b6fedd92d"
  },
  {
    "id": "bff616f5-5313-4930-837c-324c41d3e779",
    "name": "Huyện Quan Hóa",
    "state_id": "364f3569-063b-4d7f-8891-ee8b6fedd92d"
  },
  {
    "id": "64a779c3-d16e-4c58-b710-deb315a3cd7e",
    "name": "Huyện Quan Sơn",
    "state_id": "364f3569-063b-4d7f-8891-ee8b6fedd92d"
  },
  {
    "id": "8f56f792-60f9-4dff-a000-2177b9dfbad6",
    "name": "Huyện Quảng Xương",
    "state_id": "364f3569-063b-4d7f-8891-ee8b6fedd92d"
  },
  {
    "id": "d154a957-2f40-402b-aead-d571eaa9fc6b",
    "name": "Huyện Thiệu Hóa",
    "state_id": "364f3569-063b-4d7f-8891-ee8b6fedd92d"
  },
  {
    "id": "7a6660db-885c-4764-9d58-ee6764cbf911",
    "name": "Huyện Thọ Xuân",
    "state_id": "364f3569-063b-4d7f-8891-ee8b6fedd92d"
  },
  {
    "id": "914416e2-a637-4e12-a896-b44a61e42c3a",
    "name": "Huyện Thường Xuân",
    "state_id": "364f3569-063b-4d7f-8891-ee8b6fedd92d"
  },
  {
    "id": "65205409-895d-4143-813d-c02180dea798",
    "name": "Huyện Triệu Sơn",
    "state_id": "364f3569-063b-4d7f-8891-ee8b6fedd92d"
  },
  {
    "id": "e969e3cb-af6b-4269-b4ae-490c8658fb07",
    "name": "Huyện Vĩnh Lộc",
    "state_id": "364f3569-063b-4d7f-8891-ee8b6fedd92d"
  },
  {
    "id": "55ac29d1-d77d-4ec3-8ca1-8e2d2c73b8c9",
    "name": "Huyện Yên Định",
    "state_id": "364f3569-063b-4d7f-8891-ee8b6fedd92d"
  },
  {
    "id": "8e79ef72-4260-4508-8d06-29e946d3a692",
    "name": "Thanh Hóa",
    "state_id": "364f3569-063b-4d7f-8891-ee8b6fedd92d"
  }
]