[
  {
    "id": "8422b8c5-142e-4b32-ba14-475fc3ce511a",
    "name": "Água de Pena",
    "state_id": "3680f016-f532-4a32-a4d3-50f83b35114e"
  },
  {
    "id": "614a451f-8022-485b-acb0-7426b9a15557",
    "name": "Arco da Calheta",
    "state_id": "3680f016-f532-4a32-a4d3-50f83b35114e"
  },
  {
    "id": "b59fe0cd-df14-434a-8f3f-3aa1aa6ad6fc",
    "name": "Boaventura",
    "state_id": "3680f016-f532-4a32-a4d3-50f83b35114e"
  },
  {
    "id": "cc46291b-9929-46d0-bac2-62535f92dba6",
    "name": "Calheta",
    "state_id": "3680f016-f532-4a32-a4d3-50f83b35114e"
  },
  {
    "id": "3893455a-0d84-48ff-9006-7cdc1dfb83a6",
    "name": "Camacha",
    "state_id": "3680f016-f532-4a32-a4d3-50f83b35114e"
  },
  {
    "id": "dc310f0c-c579-4ec1-a50a-3e8c21256ac7",
    "name": "Câmara de Lobos",
    "state_id": "3680f016-f532-4a32-a4d3-50f83b35114e"
  },
  {
    "id": "aba9b0f0-0c0d-40b6-92bf-5a99ef21f3c1",
    "name": "Campanário",
    "state_id": "3680f016-f532-4a32-a4d3-50f83b35114e"
  },
  {
    "id": "a2c0f1c9-4b54-45f2-9c84-f8ae8aa99085",
    "name": "Canhas",
    "state_id": "3680f016-f532-4a32-a4d3-50f83b35114e"
  },
  {
    "id": "a50492a3-08ba-4680-804a-e445115fa5ed",
    "name": "Caniçal",
    "state_id": "3680f016-f532-4a32-a4d3-50f83b35114e"
  },
  {
    "id": "f488c6a5-1dc9-454e-8408-351a9422478d",
    "name": "Caniço",
    "state_id": "3680f016-f532-4a32-a4d3-50f83b35114e"
  },
  {
    "id": "5898b586-1f76-4483-9a3e-1a6ac185e4bc",
    "name": "Curral das Freiras",
    "state_id": "3680f016-f532-4a32-a4d3-50f83b35114e"
  },
  {
    "id": "97007bea-ace4-4687-a329-63ba93f42316",
    "name": "Estreito da Calheta",
    "state_id": "3680f016-f532-4a32-a4d3-50f83b35114e"
  },
  {
    "id": "aacf75c8-12ae-4daf-85f4-da8c6c9d2373",
    "name": "Faial",
    "state_id": "3680f016-f532-4a32-a4d3-50f83b35114e"
  },
  {
    "id": "ab6ddbfe-afe0-416a-a6cf-93f710e87787",
    "name": "Fajã da Ovelha",
    "state_id": "3680f016-f532-4a32-a4d3-50f83b35114e"
  },
  {
    "id": "59bbd19b-1187-49a8-91d1-636e6906a5b5",
    "name": "Funchal",
    "state_id": "3680f016-f532-4a32-a4d3-50f83b35114e"
  },
  {
    "id": "4f605504-cb83-40ea-b0ce-c984993fbe98",
    "name": "Machico",
    "state_id": "3680f016-f532-4a32-a4d3-50f83b35114e"
  },
  {
    "id": "f11e98bc-2bab-462b-8e53-b4a8f2dab2fc",
    "name": "Nossa Senhora do Monte",
    "state_id": "3680f016-f532-4a32-a4d3-50f83b35114e"
  },
  {
    "id": "4d95c723-1e35-4b50-9aa1-fca7e5040f08",
    "name": "Ponta do Sol",
    "state_id": "3680f016-f532-4a32-a4d3-50f83b35114e"
  },
  {
    "id": "0bf94ce8-a5c7-4754-b5a0-42a53123db2c",
    "name": "Porto da Cruz",
    "state_id": "3680f016-f532-4a32-a4d3-50f83b35114e"
  },
  {
    "id": "fe7a0835-5802-4c72-99e4-d05ac78c88d3",
    "name": "Porto Moniz",
    "state_id": "3680f016-f532-4a32-a4d3-50f83b35114e"
  },
  {
    "id": "0b6cda5b-126e-469e-8882-17a3ff4020e7",
    "name": "Porto Santo",
    "state_id": "3680f016-f532-4a32-a4d3-50f83b35114e"
  },
  {
    "id": "f49616b8-dc14-4aed-8f0f-c079413387ac",
    "name": "Ribeira Brava",
    "state_id": "3680f016-f532-4a32-a4d3-50f83b35114e"
  },
  {
    "id": "8f9d6d9f-508b-45ab-90ff-5e523a8a05e5",
    "name": "Santa Cruz",
    "state_id": "3680f016-f532-4a32-a4d3-50f83b35114e"
  },
  {
    "id": "fcc1023e-6622-47d2-85a5-4f1a70112476",
    "name": "Santana",
    "state_id": "3680f016-f532-4a32-a4d3-50f83b35114e"
  },
  {
    "id": "ccae492e-ffd3-4cf1-9948-8e7b55f1041b",
    "name": "São Jorge",
    "state_id": "3680f016-f532-4a32-a4d3-50f83b35114e"
  },
  {
    "id": "54196499-0b81-42a9-aeca-c05dfa9dea4d",
    "name": "São Martinho",
    "state_id": "3680f016-f532-4a32-a4d3-50f83b35114e"
  },
  {
    "id": "dd4f09f1-ce35-4b2c-8b27-51dc4178d878",
    "name": "São Roque",
    "state_id": "3680f016-f532-4a32-a4d3-50f83b35114e"
  },
  {
    "id": "f65d6d22-37f7-4251-8572-12b270eba337",
    "name": "São Vicente",
    "state_id": "3680f016-f532-4a32-a4d3-50f83b35114e"
  }
]