[
  {
    "id": "c59aa978-3e1a-4ada-9865-e2b05f16c1e2",
    "name": "Ad-Damazin",
    "state_id": "36afe279-3290-4b2c-a6a4-b6408b249b67"
  },
  {
    "id": "a48b19df-02b6-4246-b3f1-eded76e80885",
    "name": "Ar Ruseris",
    "state_id": "36afe279-3290-4b2c-a6a4-b6408b249b67"
  },
  {
    "id": "7cfd5d68-89f4-4e60-92cd-32be3a682a98",
    "name": "Kurmuk",
    "state_id": "36afe279-3290-4b2c-a6a4-b6408b249b67"
  }
]