[
  {
    "id": "64e5d520-7c83-4c79-8d42-28498661603d",
    "name": "Bavorov",
    "state_id": "36d7ade6-4092-44a9-ad73-6e2ef385c520"
  },
  {
    "id": "2f1397ae-8bf8-4941-8fc9-f5fb159b9408",
    "name": "Bechyně",
    "state_id": "36d7ade6-4092-44a9-ad73-6e2ef385c520"
  },
  {
    "id": "edfbc7bf-831b-4ad5-89e2-d653f720bc5b",
    "name": "Benešov nad Černou",
    "state_id": "36d7ade6-4092-44a9-ad73-6e2ef385c520"
  },
  {
    "id": "09d496d0-cdbf-41f0-9152-34df674dd14e",
    "name": "Bernartice",
    "state_id": "36d7ade6-4092-44a9-ad73-6e2ef385c520"
  },
  {
    "id": "b5d4dc37-d4c5-4d04-9a9b-28b51b0cd6e4",
    "name": "Blatná",
    "state_id": "36d7ade6-4092-44a9-ad73-6e2ef385c520"
  },
  {
    "id": "ac6aa036-b8fd-4bbf-b98a-a8296a454ed7",
    "name": "Borek",
    "state_id": "36d7ade6-4092-44a9-ad73-6e2ef385c520"
  },
  {
    "id": "9be8924e-89e6-4577-ae7b-d9056f0de7a9",
    "name": "Borová Lada",
    "state_id": "36d7ade6-4092-44a9-ad73-6e2ef385c520"
  },
  {
    "id": "153547d0-7d51-4ead-b8e6-a80abfa9e0d6",
    "name": "Borovany",
    "state_id": "36d7ade6-4092-44a9-ad73-6e2ef385c520"
  },
  {
    "id": "388ecfa6-0fdc-4fb2-8e74-f55304b63c97",
    "name": "Brloh",
    "state_id": "36d7ade6-4092-44a9-ad73-6e2ef385c520"
  },
  {
    "id": "383f492f-7616-44e6-8bf9-3a140ecdf1f1",
    "name": "České Budějovice",
    "state_id": "36d7ade6-4092-44a9-ad73-6e2ef385c520"
  },
  {
    "id": "7aec041c-b7b4-4061-ba49-b74b061214bf",
    "name": "České Velenice",
    "state_id": "36d7ade6-4092-44a9-ad73-6e2ef385c520"
  },
  {
    "id": "7974795f-1ef5-42f4-a108-7102aefd83ad",
    "name": "Český Krumlov",
    "state_id": "36d7ade6-4092-44a9-ad73-6e2ef385c520"
  },
  {
    "id": "af133930-207c-44d3-bfe9-00a2dea2d4c5",
    "name": "Český Rudolec",
    "state_id": "36d7ade6-4092-44a9-ad73-6e2ef385c520"
  },
  {
    "id": "d293a716-b13d-45a5-9009-3eb624834dc6",
    "name": "Chlum u Třeboně",
    "state_id": "36d7ade6-4092-44a9-ad73-6e2ef385c520"
  },
  {
    "id": "d578f821-04b9-4578-8fd1-706f17affb12",
    "name": "Chotoviny",
    "state_id": "36d7ade6-4092-44a9-ad73-6e2ef385c520"
  },
  {
    "id": "4121aa51-02bb-4d94-a226-1a6a8096282e",
    "name": "Chvalšiny",
    "state_id": "36d7ade6-4092-44a9-ad73-6e2ef385c520"
  },
  {
    "id": "bd93aa83-0b57-44c5-98aa-9e8b77b923be",
    "name": "Chýnov",
    "state_id": "36d7ade6-4092-44a9-ad73-6e2ef385c520"
  },
  {
    "id": "3b8abe54-6075-41e4-8dce-dc4b98520437",
    "name": "Chyšky",
    "state_id": "36d7ade6-4092-44a9-ad73-6e2ef385c520"
  },
  {
    "id": "66c0338d-cbd4-4319-8209-09e969f37eea",
    "name": "Čimelice",
    "state_id": "36d7ade6-4092-44a9-ad73-6e2ef385c520"
  },
  {
    "id": "c8589485-7c33-4a8c-8142-afd9877fa9bf",
    "name": "Čkyně",
    "state_id": "36d7ade6-4092-44a9-ad73-6e2ef385c520"
  },
  {
    "id": "47af2fed-8f62-4e43-86a9-631b3b42a4d8",
    "name": "Dačice",
    "state_id": "36d7ade6-4092-44a9-ad73-6e2ef385c520"
  },
  {
    "id": "61be0ae6-8a2e-43c4-827f-bdcfe6f2ac0a",
    "name": "Dolní Bukovsko",
    "state_id": "36d7ade6-4092-44a9-ad73-6e2ef385c520"
  },
  {
    "id": "6157727a-1457-4987-99cf-6a3d0dc37ed0",
    "name": "Dolní Dvořiště",
    "state_id": "36d7ade6-4092-44a9-ad73-6e2ef385c520"
  },
  {
    "id": "c8364fb8-630a-450e-baa1-d1a0f9d07edd",
    "name": "Dřiteň",
    "state_id": "36d7ade6-4092-44a9-ad73-6e2ef385c520"
  },
  {
    "id": "abe0e208-2233-4d3f-92a7-c7027253bc51",
    "name": "Dubné",
    "state_id": "36d7ade6-4092-44a9-ad73-6e2ef385c520"
  },
  {
    "id": "4c7b1d0a-6cb1-4e63-8074-88c523d3e7f9",
    "name": "Frymburk",
    "state_id": "36d7ade6-4092-44a9-ad73-6e2ef385c520"
  },
  {
    "id": "2dfcea4e-4e23-47bc-9fa1-5395a7c8a0a6",
    "name": "Hluboká nad Vltavou",
    "state_id": "36d7ade6-4092-44a9-ad73-6e2ef385c520"
  },
  {
    "id": "d33d7bc4-8e29-4259-b6c2-477b623983d8",
    "name": "Horní Planá",
    "state_id": "36d7ade6-4092-44a9-ad73-6e2ef385c520"
  },
  {
    "id": "52c461c3-254d-425f-8688-add639a84672",
    "name": "Horní Stropnice",
    "state_id": "36d7ade6-4092-44a9-ad73-6e2ef385c520"
  },
  {
    "id": "34af23f4-8089-406a-9631-3f341f7eaa09",
    "name": "Hrdějovice",
    "state_id": "36d7ade6-4092-44a9-ad73-6e2ef385c520"
  },
  {
    "id": "9594bd60-9df0-417a-a64b-e766aa3d2a9e",
    "name": "Husinec",
    "state_id": "36d7ade6-4092-44a9-ad73-6e2ef385c520"
  },
  {
    "id": "d796d121-bdb0-4fce-b2d8-069a25822c92",
    "name": "Jarošov nad Nežárkou",
    "state_id": "36d7ade6-4092-44a9-ad73-6e2ef385c520"
  },
  {
    "id": "fd64ca6c-4abe-4c0b-8613-b86653211646",
    "name": "Jindřichův Hradec",
    "state_id": "36d7ade6-4092-44a9-ad73-6e2ef385c520"
  },
  {
    "id": "0779d13d-0b1f-44cd-9b09-9a8fef503b76",
    "name": "Jistebnice",
    "state_id": "36d7ade6-4092-44a9-ad73-6e2ef385c520"
  },
  {
    "id": "7363aff5-67b6-445a-86fc-e0ffff28530b",
    "name": "Kájov",
    "state_id": "36d7ade6-4092-44a9-ad73-6e2ef385c520"
  },
  {
    "id": "6e6f69f1-81d6-4aea-9ca1-995b7247f21a",
    "name": "Kamenný Újezd",
    "state_id": "36d7ade6-4092-44a9-ad73-6e2ef385c520"
  },
  {
    "id": "594eea59-5bad-40c0-a49d-0f9e77fe25f2",
    "name": "Kaplice",
    "state_id": "36d7ade6-4092-44a9-ad73-6e2ef385c520"
  },
  {
    "id": "7b2d3bf6-3ba2-44ef-9fa6-a5837694a33d",
    "name": "Kardašova Řečice",
    "state_id": "36d7ade6-4092-44a9-ad73-6e2ef385c520"
  },
  {
    "id": "2dc08689-01a1-4bc8-825f-c7c08546a372",
    "name": "Katovice",
    "state_id": "36d7ade6-4092-44a9-ad73-6e2ef385c520"
  },
  {
    "id": "a8e4507e-a4e1-4869-9e56-e9c1f5fb3e39",
    "name": "Kovářov",
    "state_id": "36d7ade6-4092-44a9-ad73-6e2ef385c520"
  },
  {
    "id": "90b1effe-b947-4a4c-a033-705e44d8d004",
    "name": "Křemže",
    "state_id": "36d7ade6-4092-44a9-ad73-6e2ef385c520"
  },
  {
    "id": "c7ab3fa8-819f-47ea-91c6-a741d00aaff7",
    "name": "Kunžak",
    "state_id": "36d7ade6-4092-44a9-ad73-6e2ef385c520"
  },
  {
    "id": "fc1a3768-d8c7-499b-b039-84a6590dc95c",
    "name": "Ledenice",
    "state_id": "36d7ade6-4092-44a9-ad73-6e2ef385c520"
  },
  {
    "id": "e0154d58-a861-40a9-9b4e-e3f7dc83b533",
    "name": "Lhenice",
    "state_id": "36d7ade6-4092-44a9-ad73-6e2ef385c520"
  },
  {
    "id": "d7bebe1a-7820-4e1f-b498-c60ff49b36a0",
    "name": "Lišov",
    "state_id": "36d7ade6-4092-44a9-ad73-6e2ef385c520"
  },
  {
    "id": "6e2746d9-3c7c-4b80-9473-9e0066f7c7a1",
    "name": "Litvínovice",
    "state_id": "36d7ade6-4092-44a9-ad73-6e2ef385c520"
  },
  {
    "id": "2094f28f-5908-4f67-ac2f-9bb6964b528b",
    "name": "Lomnice nad Lužnicí",
    "state_id": "36d7ade6-4092-44a9-ad73-6e2ef385c520"
  },
  {
    "id": "b243c08b-089f-4fd1-b1ea-2bf2395ea1ea",
    "name": "Loučovice",
    "state_id": "36d7ade6-4092-44a9-ad73-6e2ef385c520"
  },
  {
    "id": "72a05a93-07ec-4267-8d38-f5cc8324f8aa",
    "name": "Malonty",
    "state_id": "36d7ade6-4092-44a9-ad73-6e2ef385c520"
  },
  {
    "id": "e7e7b488-ae1e-4e1a-a9a5-9a37048eb432",
    "name": "Malšice",
    "state_id": "36d7ade6-4092-44a9-ad73-6e2ef385c520"
  },
  {
    "id": "0e7a7f06-bac3-4dcf-a379-3c0605728626",
    "name": "Milevsko",
    "state_id": "36d7ade6-4092-44a9-ad73-6e2ef385c520"
  },
  {
    "id": "4bb2b20f-2852-4609-b504-f761feb2bb90",
    "name": "Mirotice",
    "state_id": "36d7ade6-4092-44a9-ad73-6e2ef385c520"
  },
  {
    "id": "a372e6af-5649-4ebb-86e5-1c93b65586d6",
    "name": "Mirovice",
    "state_id": "36d7ade6-4092-44a9-ad73-6e2ef385c520"
  },
  {
    "id": "dedf70af-252e-4145-a9eb-ca64800e0a9a",
    "name": "Mladá Vožice",
    "state_id": "36d7ade6-4092-44a9-ad73-6e2ef385c520"
  },
  {
    "id": "0c462d3c-68dd-46f9-946e-da93562de13c",
    "name": "Netolice",
    "state_id": "36d7ade6-4092-44a9-ad73-6e2ef385c520"
  },
  {
    "id": "885ff3f0-4b6d-450c-a3aa-7858c5ce99ec",
    "name": "Nová Bystřice",
    "state_id": "36d7ade6-4092-44a9-ad73-6e2ef385c520"
  },
  {
    "id": "94880306-9db8-46f4-b690-616d19a0647b",
    "name": "Nová Včelnice",
    "state_id": "36d7ade6-4092-44a9-ad73-6e2ef385c520"
  },
  {
    "id": "1713565d-76b0-43fe-b27f-a8481b0d0f58",
    "name": "Nové Hrady",
    "state_id": "36d7ade6-4092-44a9-ad73-6e2ef385c520"
  },
  {
    "id": "95498493-2626-4f77-9b04-6247a817aaa3",
    "name": "Okres České Budějovice",
    "state_id": "36d7ade6-4092-44a9-ad73-6e2ef385c520"
  },
  {
    "id": "8a86a697-aa22-4a32-b6a6-811dc9f788d0",
    "name": "Okres Český Krumlov",
    "state_id": "36d7ade6-4092-44a9-ad73-6e2ef385c520"
  },
  {
    "id": "f12bd6b0-b2f4-44c8-a9d9-0893186a27e7",
    "name": "Okres Jindřichův Hradec",
    "state_id": "36d7ade6-4092-44a9-ad73-6e2ef385c520"
  },
  {
    "id": "d4091dfb-d454-421d-a2f8-2acff69ca4b3",
    "name": "Okres Písek",
    "state_id": "36d7ade6-4092-44a9-ad73-6e2ef385c520"
  },
  {
    "id": "b1294172-9c94-4c00-9b47-63a6273e87fc",
    "name": "Okres Prachatice",
    "state_id": "36d7ade6-4092-44a9-ad73-6e2ef385c520"
  },
  {
    "id": "f547810f-81d6-48b4-9a58-368ab3f0eac7",
    "name": "Okres Strakonice",
    "state_id": "36d7ade6-4092-44a9-ad73-6e2ef385c520"
  },
  {
    "id": "319cb995-dbbd-4afe-bcd9-8fd9808a7e05",
    "name": "Okres Tábor",
    "state_id": "36d7ade6-4092-44a9-ad73-6e2ef385c520"
  },
  {
    "id": "127e6dba-ae61-476d-a7ce-6857b360658e",
    "name": "Opařany",
    "state_id": "36d7ade6-4092-44a9-ad73-6e2ef385c520"
  },
  {
    "id": "53daa6cf-251a-4947-815c-8ef95d8c2137",
    "name": "Písek",
    "state_id": "36d7ade6-4092-44a9-ad73-6e2ef385c520"
  },
  {
    "id": "053cbc34-42cd-4eaf-b42c-639297db1699",
    "name": "Planá nad Lužnicí",
    "state_id": "36d7ade6-4092-44a9-ad73-6e2ef385c520"
  },
  {
    "id": "55e3bf80-0a86-40a7-a81d-15a78e089e01",
    "name": "Prachatice",
    "state_id": "36d7ade6-4092-44a9-ad73-6e2ef385c520"
  },
  {
    "id": "4d37833b-657a-4127-83cf-49fdd97b0b8f",
    "name": "Protivín",
    "state_id": "36d7ade6-4092-44a9-ad73-6e2ef385c520"
  },
  {
    "id": "fa54e83b-5b6b-499a-8379-74db793a803a",
    "name": "Radomyšl",
    "state_id": "36d7ade6-4092-44a9-ad73-6e2ef385c520"
  },
  {
    "id": "1341b565-450a-4aeb-8d55-431ffa13b282",
    "name": "Rudolfov",
    "state_id": "36d7ade6-4092-44a9-ad73-6e2ef385c520"
  },
  {
    "id": "9804df14-8e8b-40f3-8e55-6f0c051b058f",
    "name": "Sedlice",
    "state_id": "36d7ade6-4092-44a9-ad73-6e2ef385c520"
  },
  {
    "id": "c3e24807-518a-4a69-94e8-747004977a62",
    "name": "Sepekov",
    "state_id": "36d7ade6-4092-44a9-ad73-6e2ef385c520"
  },
  {
    "id": "af7c3e8e-57a7-46c3-862b-7a3e29cb5756",
    "name": "Ševětín",
    "state_id": "36d7ade6-4092-44a9-ad73-6e2ef385c520"
  },
  {
    "id": "bc018ea4-4622-4f94-aa32-86c5d7d2a346",
    "name": "Sezimovo Ústí",
    "state_id": "36d7ade6-4092-44a9-ad73-6e2ef385c520"
  },
  {
    "id": "86b4e383-6ada-45c6-b1fb-7e04b69cb6dd",
    "name": "Slavonice",
    "state_id": "36d7ade6-4092-44a9-ad73-6e2ef385c520"
  },
  {
    "id": "1ac7cb1e-c909-47be-842f-61beec0b98ec",
    "name": "Soběslav",
    "state_id": "36d7ade6-4092-44a9-ad73-6e2ef385c520"
  },
  {
    "id": "9430f641-fc42-4ba2-bd32-a1f5f28c2df3",
    "name": "Srubec",
    "state_id": "36d7ade6-4092-44a9-ad73-6e2ef385c520"
  },
  {
    "id": "20251180-bb9b-441b-ad02-b0e522c493ba",
    "name": "Stachy",
    "state_id": "36d7ade6-4092-44a9-ad73-6e2ef385c520"
  },
  {
    "id": "2fc46683-13d1-4529-b42a-1c19b5e4233c",
    "name": "Strakonice",
    "state_id": "36d7ade6-4092-44a9-ad73-6e2ef385c520"
  },
  {
    "id": "865f178a-1468-4586-be67-f726f4797bf9",
    "name": "Strmilov",
    "state_id": "36d7ade6-4092-44a9-ad73-6e2ef385c520"
  },
  {
    "id": "571a8feb-e0a8-4ec2-a74e-b03b74831e1b",
    "name": "Strunkovice nad Blanicí",
    "state_id": "36d7ade6-4092-44a9-ad73-6e2ef385c520"
  },
  {
    "id": "1cab3361-4843-46a0-a83d-1b1ce9dde429",
    "name": "Studená",
    "state_id": "36d7ade6-4092-44a9-ad73-6e2ef385c520"
  },
  {
    "id": "a1068466-fd75-4a9a-8dd8-3eadd8f86529",
    "name": "Suchdol nad Lužnicí",
    "state_id": "36d7ade6-4092-44a9-ad73-6e2ef385c520"
  },
  {
    "id": "a6bdb713-9a60-4281-870a-7a988daf35a8",
    "name": "Tábor",
    "state_id": "36d7ade6-4092-44a9-ad73-6e2ef385c520"
  },
  {
    "id": "12d227bc-21ef-4daf-83f4-f7c4fd2b5a08",
    "name": "Třeboň",
    "state_id": "36d7ade6-4092-44a9-ad73-6e2ef385c520"
  },
  {
    "id": "f93e5dc9-72f2-4430-8c20-b904168d65ac",
    "name": "Trhové Sviny",
    "state_id": "36d7ade6-4092-44a9-ad73-6e2ef385c520"
  },
  {
    "id": "11729201-edc8-484d-b036-4926e8d843ed",
    "name": "Týn nad Vltavou",
    "state_id": "36d7ade6-4092-44a9-ad73-6e2ef385c520"
  },
  {
    "id": "a371b0ee-75f1-4345-a641-1f492702150a",
    "name": "Vacov",
    "state_id": "36d7ade6-4092-44a9-ad73-6e2ef385c520"
  },
  {
    "id": "39e100e9-30b1-4a91-b790-e04fffcdec1f",
    "name": "Včelná",
    "state_id": "36d7ade6-4092-44a9-ad73-6e2ef385c520"
  },
  {
    "id": "17fb29f0-521c-48d0-830c-e8c282149d71",
    "name": "Velešín",
    "state_id": "36d7ade6-4092-44a9-ad73-6e2ef385c520"
  },
  {
    "id": "3896b5dd-4e06-4a60-bb93-d2500e28b172",
    "name": "Veselí nad Lužnicí",
    "state_id": "36d7ade6-4092-44a9-ad73-6e2ef385c520"
  },
  {
    "id": "7b36a308-9a32-44a3-981f-8c763b42450f",
    "name": "Větřní",
    "state_id": "36d7ade6-4092-44a9-ad73-6e2ef385c520"
  },
  {
    "id": "a43ad5c1-9ddb-4340-8488-61acf4fbd18a",
    "name": "Vimperk",
    "state_id": "36d7ade6-4092-44a9-ad73-6e2ef385c520"
  },
  {
    "id": "e9daaf34-0124-4fd3-8854-0c9f5b6506f6",
    "name": "Vlachovo Březí",
    "state_id": "36d7ade6-4092-44a9-ad73-6e2ef385c520"
  },
  {
    "id": "5f9cf6a9-88d7-473b-b8e8-c130d298001c",
    "name": "Vodňany",
    "state_id": "36d7ade6-4092-44a9-ad73-6e2ef385c520"
  },
  {
    "id": "2553d64d-a51c-429d-b3ee-a53316a8c3fe",
    "name": "Volary",
    "state_id": "36d7ade6-4092-44a9-ad73-6e2ef385c520"
  },
  {
    "id": "0e9b5217-2247-451c-b987-470b68776289",
    "name": "Volyně",
    "state_id": "36d7ade6-4092-44a9-ad73-6e2ef385c520"
  },
  {
    "id": "d6cac567-4fb7-433c-9091-393fc513ac73",
    "name": "Vyšší Brod",
    "state_id": "36d7ade6-4092-44a9-ad73-6e2ef385c520"
  },
  {
    "id": "e4144f98-fcfd-46ee-b217-736d6721891b",
    "name": "Zdíkov",
    "state_id": "36d7ade6-4092-44a9-ad73-6e2ef385c520"
  },
  {
    "id": "f9351715-36dd-48dc-b9f9-4f06801a2fdb",
    "name": "Zliv",
    "state_id": "36d7ade6-4092-44a9-ad73-6e2ef385c520"
  }
]