[
  {
    "id": "5b3f47ac-b8fc-429f-9d68-707be7095dbe",
    "name": "Abfaltersbach",
    "state_id": "374be35f-1922-4fd9-86cb-904eac1a1e8c"
  },
  {
    "id": "62058832-f4a9-4a80-acf8-06347184638b",
    "name": "Absam",
    "state_id": "374be35f-1922-4fd9-86cb-904eac1a1e8c"
  },
  {
    "id": "ee951f82-dae3-4e01-aee3-38c711671d68",
    "name": "Achenkirch",
    "state_id": "374be35f-1922-4fd9-86cb-904eac1a1e8c"
  },
  {
    "id": "71cd74d1-62c9-4fcd-888a-154f7fcb75c0",
    "name": "Ainet",
    "state_id": "374be35f-1922-4fd9-86cb-904eac1a1e8c"
  },
  {
    "id": "08f5308b-695d-4c06-b9b8-13806ec8a1ff",
    "name": "Aldrans",
    "state_id": "374be35f-1922-4fd9-86cb-904eac1a1e8c"
  },
  {
    "id": "0fc6f63a-b8c5-4902-a6e6-697d01def048",
    "name": "Alpbach",
    "state_id": "374be35f-1922-4fd9-86cb-904eac1a1e8c"
  },
  {
    "id": "63aa512f-d006-405e-a7c2-1d501bd02954",
    "name": "Amlach",
    "state_id": "374be35f-1922-4fd9-86cb-904eac1a1e8c"
  },
  {
    "id": "40465a52-9789-413f-bc0d-4e1b806a5ba7",
    "name": "Ampass",
    "state_id": "374be35f-1922-4fd9-86cb-904eac1a1e8c"
  },
  {
    "id": "76b4c1ce-1212-45a2-9ac0-f573685cfdd5",
    "name": "Amras",
    "state_id": "374be35f-1922-4fd9-86cb-904eac1a1e8c"
  },
  {
    "id": "63d38498-3423-4ab0-aeb6-b792aa2a0a70",
    "name": "Angath",
    "state_id": "374be35f-1922-4fd9-86cb-904eac1a1e8c"
  },
  {
    "id": "b7acbb50-27cb-41d5-92b5-66025431a424",
    "name": "Angerberg",
    "state_id": "374be35f-1922-4fd9-86cb-904eac1a1e8c"
  },
  {
    "id": "7d1ca11b-63b8-49af-b748-9fecefc4099b",
    "name": "Anras",
    "state_id": "374be35f-1922-4fd9-86cb-904eac1a1e8c"
  },
  {
    "id": "3b7fcb76-f2ca-48eb-8451-0fd050a3cb86",
    "name": "Arzl",
    "state_id": "374be35f-1922-4fd9-86cb-904eac1a1e8c"
  },
  {
    "id": "878749e7-83ad-4eba-ba80-e627845efd5a",
    "name": "Arzl im Pitztal",
    "state_id": "374be35f-1922-4fd9-86cb-904eac1a1e8c"
  },
  {
    "id": "6ee2b212-5aa2-4f73-be92-615a6b41218d",
    "name": "Aschau",
    "state_id": "374be35f-1922-4fd9-86cb-904eac1a1e8c"
  },
  {
    "id": "9da36dc8-4590-4b4d-9c2f-80c755f57cc7",
    "name": "Aschau im Zillertal",
    "state_id": "374be35f-1922-4fd9-86cb-904eac1a1e8c"
  },
  {
    "id": "d6aecf32-5630-4ec9-b395-1ae10800d6dc",
    "name": "Aurach",
    "state_id": "374be35f-1922-4fd9-86cb-904eac1a1e8c"
  },
  {
    "id": "1eed1633-826c-4961-8b2d-3b02f8957d31",
    "name": "Außervillgraten",
    "state_id": "374be35f-1922-4fd9-86cb-904eac1a1e8c"
  },
  {
    "id": "0da6d704-6f72-4435-88fb-9f27fb69865c",
    "name": "Axams",
    "state_id": "374be35f-1922-4fd9-86cb-904eac1a1e8c"
  },
  {
    "id": "b9f86bf0-f609-476c-8566-544b1109ea51",
    "name": "Bad Häring",
    "state_id": "374be35f-1922-4fd9-86cb-904eac1a1e8c"
  },
  {
    "id": "cc8ea769-0c53-4740-8115-dc5687a19315",
    "name": "Barwies",
    "state_id": "374be35f-1922-4fd9-86cb-904eac1a1e8c"
  },
  {
    "id": "6c35e324-0ad9-4fd1-a069-ea2e244a7a51",
    "name": "Baumkirchen",
    "state_id": "374be35f-1922-4fd9-86cb-904eac1a1e8c"
  },
  {
    "id": "f582fd32-935e-4a49-ad78-6863dd551556",
    "name": "Berwang",
    "state_id": "374be35f-1922-4fd9-86cb-904eac1a1e8c"
  },
  {
    "id": "cc38f8b1-21be-489e-a609-f10fb5aeab9e",
    "name": "Biberwier",
    "state_id": "374be35f-1922-4fd9-86cb-904eac1a1e8c"
  },
  {
    "id": "0b119460-6a69-4fe6-88dd-d5cd96f8b5ae",
    "name": "Bichlbach",
    "state_id": "374be35f-1922-4fd9-86cb-904eac1a1e8c"
  },
  {
    "id": "7bab113a-6c61-45e0-9076-61b4a7023e59",
    "name": "Birgitz",
    "state_id": "374be35f-1922-4fd9-86cb-904eac1a1e8c"
  },
  {
    "id": "6d26fff2-83be-46bb-8615-4b8b138ac8b7",
    "name": "Brandenberg",
    "state_id": "374be35f-1922-4fd9-86cb-904eac1a1e8c"
  },
  {
    "id": "1a3cee3f-5cf4-4b41-a7a6-7045ec35f0fe",
    "name": "Breitenbach am Inn",
    "state_id": "374be35f-1922-4fd9-86cb-904eac1a1e8c"
  },
  {
    "id": "5293adcd-33bc-40b3-9d40-2cc63f3f55f1",
    "name": "Breitenwang",
    "state_id": "374be35f-1922-4fd9-86cb-904eac1a1e8c"
  },
  {
    "id": "9fcf91f1-62d3-4de7-8399-bec7d6b7f2f2",
    "name": "Brixen im Thale",
    "state_id": "374be35f-1922-4fd9-86cb-904eac1a1e8c"
  },
  {
    "id": "d92bcffe-2195-41b6-b98e-b62c87582dcb",
    "name": "Brixlegg",
    "state_id": "374be35f-1922-4fd9-86cb-904eac1a1e8c"
  },
  {
    "id": "c56ccbe4-7686-40df-a7fc-e2024037ed6a",
    "name": "Bruck am Ziller",
    "state_id": "374be35f-1922-4fd9-86cb-904eac1a1e8c"
  },
  {
    "id": "fb23c8af-f853-4588-811f-38e311a25877",
    "name": "Buch in Tirol",
    "state_id": "374be35f-1922-4fd9-86cb-904eac1a1e8c"
  },
  {
    "id": "0acf783e-bec8-4285-b6ba-8b856f534675",
    "name": "Debant",
    "state_id": "374be35f-1922-4fd9-86cb-904eac1a1e8c"
  },
  {
    "id": "c871c928-493c-4558-b945-9e5c46103a93",
    "name": "Dölsach",
    "state_id": "374be35f-1922-4fd9-86cb-904eac1a1e8c"
  },
  {
    "id": "bfa3d797-91c6-4e1c-9a93-d08d3fc591ed",
    "name": "Ebbs",
    "state_id": "374be35f-1922-4fd9-86cb-904eac1a1e8c"
  },
  {
    "id": "7d4dfba2-23ca-4abe-8d28-d43a21d44410",
    "name": "Eben am Achensee",
    "state_id": "374be35f-1922-4fd9-86cb-904eac1a1e8c"
  },
  {
    "id": "4f4e27cf-ddd4-4235-bc67-39a9f6a04ce5",
    "name": "Ehenbichl",
    "state_id": "374be35f-1922-4fd9-86cb-904eac1a1e8c"
  },
  {
    "id": "82a83bd1-0f39-451b-9b19-ac9f58b9e737",
    "name": "Ehrwald",
    "state_id": "374be35f-1922-4fd9-86cb-904eac1a1e8c"
  },
  {
    "id": "40607805-03e8-4dad-a9c7-f7eb63020e84",
    "name": "Elbigenalp",
    "state_id": "374be35f-1922-4fd9-86cb-904eac1a1e8c"
  },
  {
    "id": "bfd5e7ce-6b46-44ac-848b-c951174cb001",
    "name": "Ellbögen",
    "state_id": "374be35f-1922-4fd9-86cb-904eac1a1e8c"
  },
  {
    "id": "62c15dba-267c-4a9d-9ce4-cd7bb6d02d95",
    "name": "Ellmau",
    "state_id": "374be35f-1922-4fd9-86cb-904eac1a1e8c"
  },
  {
    "id": "45d585bc-10a0-4e8f-8338-7d3b1a3bcf35",
    "name": "Elmen",
    "state_id": "374be35f-1922-4fd9-86cb-904eac1a1e8c"
  },
  {
    "id": "53207d62-6656-40bb-9ece-b6b1d4bd804c",
    "name": "Endach",
    "state_id": "374be35f-1922-4fd9-86cb-904eac1a1e8c"
  },
  {
    "id": "db1db207-08c0-4a78-aa65-ca219823e3b4",
    "name": "Erl",
    "state_id": "374be35f-1922-4fd9-86cb-904eac1a1e8c"
  },
  {
    "id": "312902c4-f883-4535-bf1b-d85ac8c1784c",
    "name": "Erpfendorf",
    "state_id": "374be35f-1922-4fd9-86cb-904eac1a1e8c"
  },
  {
    "id": "29719812-8c2d-4885-b4a3-9a677b8aef11",
    "name": "Fendels",
    "state_id": "374be35f-1922-4fd9-86cb-904eac1a1e8c"
  },
  {
    "id": "d617a108-529d-4e50-a1e4-2b1791d33aed",
    "name": "Fieberbrunn",
    "state_id": "374be35f-1922-4fd9-86cb-904eac1a1e8c"
  },
  {
    "id": "4f0f02c1-00ef-4edf-941d-0fb91882bf75",
    "name": "Fiecht",
    "state_id": "374be35f-1922-4fd9-86cb-904eac1a1e8c"
  },
  {
    "id": "1f6032bb-6d47-4a1d-a3bf-91e953970a76",
    "name": "Finkenberg",
    "state_id": "374be35f-1922-4fd9-86cb-904eac1a1e8c"
  },
  {
    "id": "83600afb-f4ae-44a5-9046-239cd8ab364f",
    "name": "Fiss",
    "state_id": "374be35f-1922-4fd9-86cb-904eac1a1e8c"
  },
  {
    "id": "6eb51149-d89c-4d31-8406-add914fd3766",
    "name": "Flaurling",
    "state_id": "374be35f-1922-4fd9-86cb-904eac1a1e8c"
  },
  {
    "id": "ca48a73b-6b03-49c4-b83f-35dc09b125c8",
    "name": "Fliess",
    "state_id": "374be35f-1922-4fd9-86cb-904eac1a1e8c"
  },
  {
    "id": "6ad0eabe-7085-43aa-a920-7c10f8bb2dad",
    "name": "Flirsch",
    "state_id": "374be35f-1922-4fd9-86cb-904eac1a1e8c"
  },
  {
    "id": "2d8e390a-96c5-40ab-b156-4a0c595fe686",
    "name": "Forchach",
    "state_id": "374be35f-1922-4fd9-86cb-904eac1a1e8c"
  },
  {
    "id": "83dbf497-6fe2-4ae2-ad45-c464d46e6be8",
    "name": "Fritzens",
    "state_id": "374be35f-1922-4fd9-86cb-904eac1a1e8c"
  },
  {
    "id": "a6073752-d262-4b24-adba-7e637b492419",
    "name": "Fügen",
    "state_id": "374be35f-1922-4fd9-86cb-904eac1a1e8c"
  },
  {
    "id": "61aedd0c-06b7-4912-a945-363ba6df5e80",
    "name": "Fügenberg",
    "state_id": "374be35f-1922-4fd9-86cb-904eac1a1e8c"
  },
  {
    "id": "cc11b273-b27f-42c0-91c9-593345c58e23",
    "name": "Fulpmes",
    "state_id": "374be35f-1922-4fd9-86cb-904eac1a1e8c"
  },
  {
    "id": "c2a06f2d-8450-4cff-b634-afda60842ddc",
    "name": "Gallzein",
    "state_id": "374be35f-1922-4fd9-86cb-904eac1a1e8c"
  },
  {
    "id": "5e74e4c4-ed12-44c2-b1aa-eb8c2cd510ef",
    "name": "Galtür",
    "state_id": "374be35f-1922-4fd9-86cb-904eac1a1e8c"
  },
  {
    "id": "ddbac518-0012-46e5-b854-70286c9ccb77",
    "name": "Gerlos",
    "state_id": "374be35f-1922-4fd9-86cb-904eac1a1e8c"
  },
  {
    "id": "7f6fcdd0-5626-4bf2-b1e5-9b428657ff3e",
    "name": "Gerlosberg",
    "state_id": "374be35f-1922-4fd9-86cb-904eac1a1e8c"
  },
  {
    "id": "814798fe-627b-4da0-aad2-76229e732b6b",
    "name": "Gnadenwald",
    "state_id": "374be35f-1922-4fd9-86cb-904eac1a1e8c"
  },
  {
    "id": "b37d1c45-1da4-4f48-b6d5-db709499e3fe",
    "name": "Going",
    "state_id": "374be35f-1922-4fd9-86cb-904eac1a1e8c"
  },
  {
    "id": "af2a30a0-03dd-43a8-b130-4d5de13fa4f4",
    "name": "Götzens",
    "state_id": "374be35f-1922-4fd9-86cb-904eac1a1e8c"
  },
  {
    "id": "dea2ea9f-3af8-4d90-bc28-ddf6795bf2b9",
    "name": "Gramais",
    "state_id": "374be35f-1922-4fd9-86cb-904eac1a1e8c"
  },
  {
    "id": "e6e09133-46c7-4e7a-9016-aa520033b82e",
    "name": "Grän",
    "state_id": "374be35f-1922-4fd9-86cb-904eac1a1e8c"
  },
  {
    "id": "981b5963-baa0-4394-929d-b3f52d4cb345",
    "name": "Gries am Brenner",
    "state_id": "374be35f-1922-4fd9-86cb-904eac1a1e8c"
  },
  {
    "id": "d0eecdf1-f49d-48bb-9e0e-4388821dc471",
    "name": "Gries im Sellrain",
    "state_id": "374be35f-1922-4fd9-86cb-904eac1a1e8c"
  },
  {
    "id": "4d7ca088-3a24-46a4-8ace-eb19d519e169",
    "name": "Grins",
    "state_id": "374be35f-1922-4fd9-86cb-904eac1a1e8c"
  },
  {
    "id": "9f7e40c0-3bd2-403d-b109-1f9346d11f82",
    "name": "Grinzens",
    "state_id": "374be35f-1922-4fd9-86cb-904eac1a1e8c"
  },
  {
    "id": "645f7357-de5a-4aeb-9c66-28367697e5d1",
    "name": "Gschnitz",
    "state_id": "374be35f-1922-4fd9-86cb-904eac1a1e8c"
  },
  {
    "id": "5cdd0f00-0697-4beb-99a4-2dfb432fc9c0",
    "name": "Haiming",
    "state_id": "374be35f-1922-4fd9-86cb-904eac1a1e8c"
  },
  {
    "id": "9174f786-fe83-407a-92f6-6aca071ee78c",
    "name": "Hainzenberg",
    "state_id": "374be35f-1922-4fd9-86cb-904eac1a1e8c"
  },
  {
    "id": "ffdea6c1-0ad2-4540-93e5-3cc834d2b61f",
    "name": "Hall in Tirol",
    "state_id": "374be35f-1922-4fd9-86cb-904eac1a1e8c"
  },
  {
    "id": "0ef5140e-244e-4ece-86a3-546180c75040",
    "name": "Hart im Zillertal",
    "state_id": "374be35f-1922-4fd9-86cb-904eac1a1e8c"
  },
  {
    "id": "9e24c000-bfaf-419e-9f95-9803e50ca708",
    "name": "Häselgehr",
    "state_id": "374be35f-1922-4fd9-86cb-904eac1a1e8c"
  },
  {
    "id": "086a9df6-9d3f-4096-b296-2fa69c2dd2ca",
    "name": "Hatting",
    "state_id": "374be35f-1922-4fd9-86cb-904eac1a1e8c"
  },
  {
    "id": "2836a9ce-5599-4f0f-8055-e29b8c56257c",
    "name": "Heinfels",
    "state_id": "374be35f-1922-4fd9-86cb-904eac1a1e8c"
  },
  {
    "id": "34cf1c53-f2c0-41aa-803f-d68c6bc0e3e0",
    "name": "Heiterwang",
    "state_id": "374be35f-1922-4fd9-86cb-904eac1a1e8c"
  },
  {
    "id": "a3c2e5a7-cb8b-4e40-a062-daa1d8b0df75",
    "name": "Hippach",
    "state_id": "374be35f-1922-4fd9-86cb-904eac1a1e8c"
  },
  {
    "id": "11912a6a-fc78-426c-8951-bc59c847adc1",
    "name": "Hochfilzen",
    "state_id": "374be35f-1922-4fd9-86cb-904eac1a1e8c"
  },
  {
    "id": "8d5fa5a9-e83d-4a24-9869-790d1df52f05",
    "name": "Höfen",
    "state_id": "374be35f-1922-4fd9-86cb-904eac1a1e8c"
  },
  {
    "id": "e565c810-6144-47f7-bf1c-4ebd18aaa319",
    "name": "Holzgau",
    "state_id": "374be35f-1922-4fd9-86cb-904eac1a1e8c"
  },
  {
    "id": "8b737bd2-cc38-4844-84a3-d0fc120517e1",
    "name": "Hopfgarten im Brixental",
    "state_id": "374be35f-1922-4fd9-86cb-904eac1a1e8c"
  },
  {
    "id": "663438e4-6887-491d-ad9b-c8ad3c8c3fe3",
    "name": "Hopfgarten in Defereggen",
    "state_id": "374be35f-1922-4fd9-86cb-904eac1a1e8c"
  },
  {
    "id": "f2ac362c-030e-4843-a6fa-3139139f6d15",
    "name": "Hötting",
    "state_id": "374be35f-1922-4fd9-86cb-904eac1a1e8c"
  },
  {
    "id": "3a5b1aae-cec4-4606-9809-eb1e663f705c",
    "name": "Igls",
    "state_id": "374be35f-1922-4fd9-86cb-904eac1a1e8c"
  },
  {
    "id": "908d5948-2ddd-449d-ab11-7a95af833ac7",
    "name": "Imst",
    "state_id": "374be35f-1922-4fd9-86cb-904eac1a1e8c"
  },
  {
    "id": "e9ceecb7-fe6c-4bbd-906f-75f8b03e1989",
    "name": "Imsterberg",
    "state_id": "374be35f-1922-4fd9-86cb-904eac1a1e8c"
  },
  {
    "id": "a1bf35e7-a91a-40ab-b7cd-794a1d381101",
    "name": "Innervillgraten",
    "state_id": "374be35f-1922-4fd9-86cb-904eac1a1e8c"
  },
  {
    "id": "82366e36-2251-415b-966d-46599637d17e",
    "name": "Innsbruck",
    "state_id": "374be35f-1922-4fd9-86cb-904eac1a1e8c"
  },
  {
    "id": "57494360-3bd1-4984-a6ca-2b673dd1ee4c",
    "name": "Innsbruck Stadt",
    "state_id": "374be35f-1922-4fd9-86cb-904eac1a1e8c"
  },
  {
    "id": "1782884c-4f23-4ca1-b61a-8f22b01e6ab7",
    "name": "Inzing",
    "state_id": "374be35f-1922-4fd9-86cb-904eac1a1e8c"
  },
  {
    "id": "da96819c-2c5e-4b13-9ea8-88fe789ee988",
    "name": "Ischgl",
    "state_id": "374be35f-1922-4fd9-86cb-904eac1a1e8c"
  },
  {
    "id": "30247b72-4c0b-426c-855f-19c6624b58d3",
    "name": "Itter",
    "state_id": "374be35f-1922-4fd9-86cb-904eac1a1e8c"
  },
  {
    "id": "d30f109b-201e-45ec-a9f5-19ab52897ce7",
    "name": "Jenbach",
    "state_id": "374be35f-1922-4fd9-86cb-904eac1a1e8c"
  },
  {
    "id": "80dda4f9-f424-452c-8ae1-54ac095354ed",
    "name": "Jerzens",
    "state_id": "374be35f-1922-4fd9-86cb-904eac1a1e8c"
  },
  {
    "id": "63c0d417-ca1c-4581-82f7-225b70222585",
    "name": "Jochberg",
    "state_id": "374be35f-1922-4fd9-86cb-904eac1a1e8c"
  },
  {
    "id": "94f4c1e7-616c-40cf-9c19-29f4592c9c2e",
    "name": "Jungholz",
    "state_id": "374be35f-1922-4fd9-86cb-904eac1a1e8c"
  },
  {
    "id": "af836b1c-c815-4693-9aab-f0dde41cbaaf",
    "name": "Kaltenbach",
    "state_id": "374be35f-1922-4fd9-86cb-904eac1a1e8c"
  },
  {
    "id": "09732d73-4311-4d36-a1ce-ba1f151bd14f",
    "name": "Kapfing",
    "state_id": "374be35f-1922-4fd9-86cb-904eac1a1e8c"
  },
  {
    "id": "dbf89205-1a1c-42e8-8449-fae219586a4c",
    "name": "Kappl",
    "state_id": "374be35f-1922-4fd9-86cb-904eac1a1e8c"
  },
  {
    "id": "d372047d-3204-416d-bb96-d3a0a23f861a",
    "name": "Karres",
    "state_id": "374be35f-1922-4fd9-86cb-904eac1a1e8c"
  },
  {
    "id": "25ef44dd-efa8-4e6e-81c6-30fefe7b2f01",
    "name": "Karrösten",
    "state_id": "374be35f-1922-4fd9-86cb-904eac1a1e8c"
  },
  {
    "id": "a7e917f9-11c4-4b13-a9fc-678cd6f7f26c",
    "name": "Kartitsch",
    "state_id": "374be35f-1922-4fd9-86cb-904eac1a1e8c"
  },
  {
    "id": "af6c3e79-af25-4944-a896-a79a4e687a16",
    "name": "Kauns",
    "state_id": "374be35f-1922-4fd9-86cb-904eac1a1e8c"
  },
  {
    "id": "eaaa82f1-5aec-418c-99ad-be18ea8c85d1",
    "name": "Kematen in Tirol",
    "state_id": "374be35f-1922-4fd9-86cb-904eac1a1e8c"
  },
  {
    "id": "16214c19-24fd-4275-9545-92236aa6b460",
    "name": "Kirchberg in Tirol",
    "state_id": "374be35f-1922-4fd9-86cb-904eac1a1e8c"
  },
  {
    "id": "8bcb64cd-d694-490f-b5c8-65aae8658d50",
    "name": "Kirchbichl",
    "state_id": "374be35f-1922-4fd9-86cb-904eac1a1e8c"
  },
  {
    "id": "4c62e153-4691-46b7-9a21-0d2149a76e51",
    "name": "Kirchdorf in Tirol",
    "state_id": "374be35f-1922-4fd9-86cb-904eac1a1e8c"
  },
  {
    "id": "fd0832f0-a0b2-46b7-9e22-dc3b82273a83",
    "name": "Kitzbühel",
    "state_id": "374be35f-1922-4fd9-86cb-904eac1a1e8c"
  },
  {
    "id": "5ed27b9a-0317-4a57-99d1-a7b4ac80d1a7",
    "name": "Kolsass",
    "state_id": "374be35f-1922-4fd9-86cb-904eac1a1e8c"
  },
  {
    "id": "276852fb-af00-4025-9fb1-37836ff9ca68",
    "name": "Kolsassberg",
    "state_id": "374be35f-1922-4fd9-86cb-904eac1a1e8c"
  },
  {
    "id": "fc906716-25b5-4f07-907d-c3a00a2e220f",
    "name": "Kössen",
    "state_id": "374be35f-1922-4fd9-86cb-904eac1a1e8c"
  },
  {
    "id": "dc9579e2-e0d5-49b0-971d-982ff8c1e02c",
    "name": "Kramsach",
    "state_id": "374be35f-1922-4fd9-86cb-904eac1a1e8c"
  },
  {
    "id": "34bdb82a-33cf-4ef3-80e7-1da6d3eda5e3",
    "name": "Kufstein",
    "state_id": "374be35f-1922-4fd9-86cb-904eac1a1e8c"
  },
  {
    "id": "f7d32f21-07fd-4a16-8418-06e64db6fc0c",
    "name": "Kundl",
    "state_id": "374be35f-1922-4fd9-86cb-904eac1a1e8c"
  },
  {
    "id": "28b20ef6-47c5-45c1-8e90-833f9da83428",
    "name": "Ladis",
    "state_id": "374be35f-1922-4fd9-86cb-904eac1a1e8c"
  },
  {
    "id": "574ecf38-0625-4a83-8654-e838e6a4458d",
    "name": "Landeck",
    "state_id": "374be35f-1922-4fd9-86cb-904eac1a1e8c"
  },
  {
    "id": "9f20ce44-a53a-48a2-b7c1-61da9d50e883",
    "name": "Längenfeld",
    "state_id": "374be35f-1922-4fd9-86cb-904eac1a1e8c"
  },
  {
    "id": "1b10004a-6b29-4db5-bdbb-78b078c28602",
    "name": "Lans",
    "state_id": "374be35f-1922-4fd9-86cb-904eac1a1e8c"
  },
  {
    "id": "bf08917c-ffbc-468d-a1c6-798fce1f45c1",
    "name": "Lavant",
    "state_id": "374be35f-1922-4fd9-86cb-904eac1a1e8c"
  },
  {
    "id": "46f0a29a-8aa9-48cb-b11a-f5c93a40ee1f",
    "name": "Lechaschau",
    "state_id": "374be35f-1922-4fd9-86cb-904eac1a1e8c"
  },
  {
    "id": "de8eafb3-0fb2-4bb3-820d-530c0d49f0c1",
    "name": "Leisach",
    "state_id": "374be35f-1922-4fd9-86cb-904eac1a1e8c"
  },
  {
    "id": "75b9f30c-9771-4ee6-93da-1c52aefab989",
    "name": "Lermoos",
    "state_id": "374be35f-1922-4fd9-86cb-904eac1a1e8c"
  },
  {
    "id": "0dfba715-8bc9-4797-82ae-89deecb8c392",
    "name": "Leutasch",
    "state_id": "374be35f-1922-4fd9-86cb-904eac1a1e8c"
  },
  {
    "id": "fcf348c3-5a81-4b61-9cd4-e7ea62dbd240",
    "name": "Lienz",
    "state_id": "374be35f-1922-4fd9-86cb-904eac1a1e8c"
  },
  {
    "id": "494d39f7-b6cc-4414-93d7-0da6e764ed40",
    "name": "Mariastein",
    "state_id": "374be35f-1922-4fd9-86cb-904eac1a1e8c"
  },
  {
    "id": "6b7bda57-323a-47ae-a53c-86fddac54120",
    "name": "Mariatal",
    "state_id": "374be35f-1922-4fd9-86cb-904eac1a1e8c"
  },
  {
    "id": "a0b9609f-416f-4457-9e87-5c1d0483fbd3",
    "name": "Matrei am Brenner",
    "state_id": "374be35f-1922-4fd9-86cb-904eac1a1e8c"
  },
  {
    "id": "e0925efa-ba64-491e-a99d-fca30ff7d776",
    "name": "Matrei in Osttirol",
    "state_id": "374be35f-1922-4fd9-86cb-904eac1a1e8c"
  },
  {
    "id": "a49b1372-4798-450e-b907-e30a82457adc",
    "name": "Maurach",
    "state_id": "374be35f-1922-4fd9-86cb-904eac1a1e8c"
  },
  {
    "id": "75d7140a-8367-48c7-b741-0cd4002913a4",
    "name": "Mayrhofen",
    "state_id": "374be35f-1922-4fd9-86cb-904eac1a1e8c"
  },
  {
    "id": "089f06c3-926d-42c7-838e-4eaf30c7ff68",
    "name": "Medraz",
    "state_id": "374be35f-1922-4fd9-86cb-904eac1a1e8c"
  },
  {
    "id": "3a03db38-ceb0-4862-91e9-8b42c16bb9d9",
    "name": "Mieders",
    "state_id": "374be35f-1922-4fd9-86cb-904eac1a1e8c"
  },
  {
    "id": "9832e34a-6a01-4ef3-bfc6-69633344944d",
    "name": "Mieming",
    "state_id": "374be35f-1922-4fd9-86cb-904eac1a1e8c"
  },
  {
    "id": "11c23e98-3f2b-453a-adfb-92894d41c52a",
    "name": "Mils bei Imst",
    "state_id": "374be35f-1922-4fd9-86cb-904eac1a1e8c"
  },
  {
    "id": "58bd9d5c-06f2-4dfc-8220-109b1d64447e",
    "name": "Mils bei Solbad Hall",
    "state_id": "374be35f-1922-4fd9-86cb-904eac1a1e8c"
  },
  {
    "id": "0c26d2f9-cec5-465e-9701-8e7f75b213be",
    "name": "Mitterndorf",
    "state_id": "374be35f-1922-4fd9-86cb-904eac1a1e8c"
  },
  {
    "id": "c7b847ac-9fba-4dcc-92da-bda82876c26c",
    "name": "Mötz",
    "state_id": "374be35f-1922-4fd9-86cb-904eac1a1e8c"
  },
  {
    "id": "45e412f2-d631-4bec-9f2a-2f60ade7f121",
    "name": "Mühlau",
    "state_id": "374be35f-1922-4fd9-86cb-904eac1a1e8c"
  },
  {
    "id": "77107d5b-6313-4e68-bda5-e3a30533710c",
    "name": "Mühlbachl",
    "state_id": "374be35f-1922-4fd9-86cb-904eac1a1e8c"
  },
  {
    "id": "c1a20e77-0b9a-41cc-8d67-e091b2babcf2",
    "name": "Münster",
    "state_id": "374be35f-1922-4fd9-86cb-904eac1a1e8c"
  },
  {
    "id": "366890c9-a2ed-49e7-a4f8-4d118b90fb9d",
    "name": "Musau",
    "state_id": "374be35f-1922-4fd9-86cb-904eac1a1e8c"
  },
  {
    "id": "a1aa4ff4-bc15-4cfe-8f57-74941bbeb146",
    "name": "Mutters",
    "state_id": "374be35f-1922-4fd9-86cb-904eac1a1e8c"
  },
  {
    "id": "2804f4c3-49a0-48fb-84a8-5e6a5d931bec",
    "name": "Namlos",
    "state_id": "374be35f-1922-4fd9-86cb-904eac1a1e8c"
  },
  {
    "id": "99328804-bfa2-40cf-aec9-8504bd6d19a3",
    "name": "Nassereith",
    "state_id": "374be35f-1922-4fd9-86cb-904eac1a1e8c"
  },
  {
    "id": "f95d398b-d866-4a8e-b931-82cced28e78f",
    "name": "Natters",
    "state_id": "374be35f-1922-4fd9-86cb-904eac1a1e8c"
  },
  {
    "id": "05128bcc-bf2e-4499-844c-e4898c848750",
    "name": "Nauders",
    "state_id": "374be35f-1922-4fd9-86cb-904eac1a1e8c"
  },
  {
    "id": "0cbaa985-32a9-4ed2-9dc0-43a8f8941636",
    "name": "Nesselwängle",
    "state_id": "374be35f-1922-4fd9-86cb-904eac1a1e8c"
  },
  {
    "id": "2906ea7c-a4bc-4b19-a2c8-c9f371299233",
    "name": "Neustift im Stubaital",
    "state_id": "374be35f-1922-4fd9-86cb-904eac1a1e8c"
  },
  {
    "id": "4ba92618-7027-4eba-8e63-3dc8da8ed085",
    "name": "Niederau",
    "state_id": "374be35f-1922-4fd9-86cb-904eac1a1e8c"
  },
  {
    "id": "2d46cc96-f0af-4364-a4bb-0323e441488c",
    "name": "Niederbreitenbach",
    "state_id": "374be35f-1922-4fd9-86cb-904eac1a1e8c"
  },
  {
    "id": "975365e2-6027-4d6f-8cf4-2e13895a1d14",
    "name": "Niederndorf",
    "state_id": "374be35f-1922-4fd9-86cb-904eac1a1e8c"
  },
  {
    "id": "02eb13ed-eb8a-4255-8b5d-2b1f86a18419",
    "name": "Nikolsdorf",
    "state_id": "374be35f-1922-4fd9-86cb-904eac1a1e8c"
  },
  {
    "id": "e6f0dfe5-6e49-44cc-9ab8-73005d45e0ae",
    "name": "Oberau",
    "state_id": "374be35f-1922-4fd9-86cb-904eac1a1e8c"
  },
  {
    "id": "dadcd30f-0b8c-4b2c-ba5b-17135e803236",
    "name": "Oberhofen im Inntal",
    "state_id": "374be35f-1922-4fd9-86cb-904eac1a1e8c"
  },
  {
    "id": "2f932277-9371-45ed-92f1-e282881aad2e",
    "name": "Oberlienz",
    "state_id": "374be35f-1922-4fd9-86cb-904eac1a1e8c"
  },
  {
    "id": "2100b331-f105-4766-9208-e1d0ba6c4ecb",
    "name": "Obermieming",
    "state_id": "374be35f-1922-4fd9-86cb-904eac1a1e8c"
  },
  {
    "id": "f8fcf720-e934-4548-8dce-8f6fe06442f6",
    "name": "Obernberg am Brenner",
    "state_id": "374be35f-1922-4fd9-86cb-904eac1a1e8c"
  },
  {
    "id": "312b60b6-a94c-4a7a-a376-0bd56d1ef17c",
    "name": "Oberndorf in Tirol",
    "state_id": "374be35f-1922-4fd9-86cb-904eac1a1e8c"
  },
  {
    "id": "0e422565-f6f0-4c2e-ad59-f84af96269f7",
    "name": "Oberperfuss",
    "state_id": "374be35f-1922-4fd9-86cb-904eac1a1e8c"
  },
  {
    "id": "33f92a22-843a-4e5f-8968-283040bb8e66",
    "name": "Obertilliach",
    "state_id": "374be35f-1922-4fd9-86cb-904eac1a1e8c"
  },
  {
    "id": "67efe82f-6365-4943-8189-8ffb237b33b5",
    "name": "Obsteig",
    "state_id": "374be35f-1922-4fd9-86cb-904eac1a1e8c"
  },
  {
    "id": "a15aede4-7a52-44aa-86be-c687228f7222",
    "name": "Oetz",
    "state_id": "374be35f-1922-4fd9-86cb-904eac1a1e8c"
  },
  {
    "id": "dde5a599-795e-43d0-946e-e4980935a9a0",
    "name": "Ötztal-Bahnhof",
    "state_id": "374be35f-1922-4fd9-86cb-904eac1a1e8c"
  },
  {
    "id": "b41c8a9a-084a-4720-b43f-479e72678f7d",
    "name": "Patsch",
    "state_id": "374be35f-1922-4fd9-86cb-904eac1a1e8c"
  },
  {
    "id": "ea215dd9-fb23-400a-ac3a-90b0efdb35ac",
    "name": "Pettnau",
    "state_id": "374be35f-1922-4fd9-86cb-904eac1a1e8c"
  },
  {
    "id": "0ad84464-8ef7-46e4-9c4e-b45fc7dc18ab",
    "name": "Pettneu",
    "state_id": "374be35f-1922-4fd9-86cb-904eac1a1e8c"
  },
  {
    "id": "014bd93d-d0ef-4255-b3f4-ace541b1bfa2",
    "name": "Pfaffenhofen",
    "state_id": "374be35f-1922-4fd9-86cb-904eac1a1e8c"
  },
  {
    "id": "4ccab449-7d85-4529-9789-b3763b2ce70a",
    "name": "Pflach",
    "state_id": "374be35f-1922-4fd9-86cb-904eac1a1e8c"
  },
  {
    "id": "585aa043-6f48-4e6f-a1d9-4dd7bf2cbe09",
    "name": "Pfons",
    "state_id": "374be35f-1922-4fd9-86cb-904eac1a1e8c"
  },
  {
    "id": "3999b2f7-920f-4e2d-a226-fa345cfa56b5",
    "name": "Pfunds",
    "state_id": "374be35f-1922-4fd9-86cb-904eac1a1e8c"
  },
  {
    "id": "6353412d-2df2-4d4e-91e3-2b1b62eadfff",
    "name": "Pians",
    "state_id": "374be35f-1922-4fd9-86cb-904eac1a1e8c"
  },
  {
    "id": "b6821363-8d84-44c4-a191-3f4f02b2f0c1",
    "name": "Pill",
    "state_id": "374be35f-1922-4fd9-86cb-904eac1a1e8c"
  },
  {
    "id": "796f0247-486a-4cca-9ab8-0d07bdd70ff1",
    "name": "Politischer Bezirk Imst",
    "state_id": "374be35f-1922-4fd9-86cb-904eac1a1e8c"
  },
  {
    "id": "7e7a853b-9a19-4f9f-a905-d32db42e197d",
    "name": "Politischer Bezirk Innsbruck Land",
    "state_id": "374be35f-1922-4fd9-86cb-904eac1a1e8c"
  },
  {
    "id": "7b604266-b4f6-4d3a-87cf-9df75b4ea70d",
    "name": "Politischer Bezirk Kitzbühel",
    "state_id": "374be35f-1922-4fd9-86cb-904eac1a1e8c"
  },
  {
    "id": "7f6023c4-265d-4794-9ebf-bce7ab542ab2",
    "name": "Politischer Bezirk Kufstein",
    "state_id": "374be35f-1922-4fd9-86cb-904eac1a1e8c"
  },
  {
    "id": "77c05235-671d-4429-9b56-baaa76579043",
    "name": "Politischer Bezirk Landeck",
    "state_id": "374be35f-1922-4fd9-86cb-904eac1a1e8c"
  },
  {
    "id": "65ed5141-92e7-4f61-9500-7c2cfe17d3cd",
    "name": "Politischer Bezirk Lienz",
    "state_id": "374be35f-1922-4fd9-86cb-904eac1a1e8c"
  },
  {
    "id": "9ec07c85-7876-47b0-871c-8b909a528c52",
    "name": "Politischer Bezirk Reutte",
    "state_id": "374be35f-1922-4fd9-86cb-904eac1a1e8c"
  },
  {
    "id": "a1851b0a-1ea7-48c6-9b61-d335160e7788",
    "name": "Politischer Bezirk Schwaz",
    "state_id": "374be35f-1922-4fd9-86cb-904eac1a1e8c"
  },
  {
    "id": "a97b6ecd-ad8d-4e59-9c44-388ca9cb8a79",
    "name": "Polling in Tirol",
    "state_id": "374be35f-1922-4fd9-86cb-904eac1a1e8c"
  },
  {
    "id": "205c9f65-28da-4073-9d2c-ff4005756ac4",
    "name": "Pradl",
    "state_id": "374be35f-1922-4fd9-86cb-904eac1a1e8c"
  },
  {
    "id": "c958ce79-9516-4365-bf11-5a31e3236c1e",
    "name": "Prutz",
    "state_id": "374be35f-1922-4fd9-86cb-904eac1a1e8c"
  },
  {
    "id": "5c881f83-757b-4a72-adb9-22b3c10c6949",
    "name": "Radfeld",
    "state_id": "374be35f-1922-4fd9-86cb-904eac1a1e8c"
  },
  {
    "id": "dda49f13-86ae-48e4-913b-57f393960b3e",
    "name": "Ramsau im Zillertal",
    "state_id": "374be35f-1922-4fd9-86cb-904eac1a1e8c"
  },
  {
    "id": "50806797-bb18-4f0f-82ff-2f0bd3b4deb7",
    "name": "Ranggen",
    "state_id": "374be35f-1922-4fd9-86cb-904eac1a1e8c"
  },
  {
    "id": "7ecda90b-4028-49bf-989d-82f829b15a31",
    "name": "Rattenberg",
    "state_id": "374be35f-1922-4fd9-86cb-904eac1a1e8c"
  },
  {
    "id": "b12062a4-9ef7-4d30-b41d-ee44dcc048e7",
    "name": "Reith bei Kitzbühel",
    "state_id": "374be35f-1922-4fd9-86cb-904eac1a1e8c"
  },
  {
    "id": "c7b12e44-3493-436a-8486-261deb78628e",
    "name": "Reith bei Seefeld",
    "state_id": "374be35f-1922-4fd9-86cb-904eac1a1e8c"
  },
  {
    "id": "bc14468f-7249-4bf2-af17-3ca19736efd8",
    "name": "Reith im Alpbachtal",
    "state_id": "374be35f-1922-4fd9-86cb-904eac1a1e8c"
  },
  {
    "id": "a281b9bf-dfd8-4c5d-babb-a01e674b9377",
    "name": "Rettenschöss",
    "state_id": "374be35f-1922-4fd9-86cb-904eac1a1e8c"
  },
  {
    "id": "af1e45c5-f07b-451d-9e18-f5d38e17db04",
    "name": "Reutte",
    "state_id": "374be35f-1922-4fd9-86cb-904eac1a1e8c"
  },
  {
    "id": "e61b65a9-90ef-4025-888d-fd8a7d4ff84f",
    "name": "Ried im Oberinntal",
    "state_id": "374be35f-1922-4fd9-86cb-904eac1a1e8c"
  },
  {
    "id": "66bce36f-1558-410f-9715-65762f53b23d",
    "name": "Ried im Zillertal",
    "state_id": "374be35f-1922-4fd9-86cb-904eac1a1e8c"
  },
  {
    "id": "238f9b0f-fe15-4051-827d-b933acd70788",
    "name": "Rietz",
    "state_id": "374be35f-1922-4fd9-86cb-904eac1a1e8c"
  },
  {
    "id": "167cde51-8d89-4a7b-8374-ed64da96ed2e",
    "name": "Rinn",
    "state_id": "374be35f-1922-4fd9-86cb-904eac1a1e8c"
  },
  {
    "id": "e29f1dca-a54e-443d-9c16-ab304f16a986",
    "name": "Rohrberg",
    "state_id": "374be35f-1922-4fd9-86cb-904eac1a1e8c"
  },
  {
    "id": "0c45ff0c-4174-4444-a285-f9a9f8c65177",
    "name": "Roppen",
    "state_id": "374be35f-1922-4fd9-86cb-904eac1a1e8c"
  },
  {
    "id": "98a4ccda-76c0-467c-8606-b1e876e2374b",
    "name": "Rum",
    "state_id": "374be35f-1922-4fd9-86cb-904eac1a1e8c"
  },
  {
    "id": "80f4fc71-9edb-4693-92fb-704537a1ee5e",
    "name": "Sankt Johann in Tirol",
    "state_id": "374be35f-1922-4fd9-86cb-904eac1a1e8c"
  },
  {
    "id": "93065821-ae8b-4618-b46f-1131d3dbd1fd",
    "name": "Sankt Ulrich am Pillersee",
    "state_id": "374be35f-1922-4fd9-86cb-904eac1a1e8c"
  },
  {
    "id": "bbfc0190-b9e7-4f66-9f73-f27a351880b9",
    "name": "Sankt Veit in Defereggen",
    "state_id": "374be35f-1922-4fd9-86cb-904eac1a1e8c"
  },
  {
    "id": "ad1119cf-734e-4229-a4f3-17a950c542c2",
    "name": "Sautens",
    "state_id": "374be35f-1922-4fd9-86cb-904eac1a1e8c"
  },
  {
    "id": "12016265-3358-45b6-9f2f-edd0f4b4998b",
    "name": "Scharnitz",
    "state_id": "374be35f-1922-4fd9-86cb-904eac1a1e8c"
  },
  {
    "id": "d8ea2c85-dc9b-4b38-b33a-b8bdddb78b1a",
    "name": "Schattwald",
    "state_id": "374be35f-1922-4fd9-86cb-904eac1a1e8c"
  },
  {
    "id": "06d842d9-827a-4c30-9deb-b19c8626463b",
    "name": "Scheffau am Wilden Kaiser",
    "state_id": "374be35f-1922-4fd9-86cb-904eac1a1e8c"
  },
  {
    "id": "18a2022b-cb9d-49c2-a3f3-06d53d5e9baf",
    "name": "Schlaiten",
    "state_id": "374be35f-1922-4fd9-86cb-904eac1a1e8c"
  },
  {
    "id": "e48b6df2-438d-4060-8ae4-544612652656",
    "name": "Schlitters",
    "state_id": "374be35f-1922-4fd9-86cb-904eac1a1e8c"
  },
  {
    "id": "b090cb80-8c84-4029-8452-d1d71d7cdec0",
    "name": "Schönberg im Stubaital",
    "state_id": "374be35f-1922-4fd9-86cb-904eac1a1e8c"
  },
  {
    "id": "db8059bb-ca18-42ee-8a45-98d97ac9b644",
    "name": "Schönwies",
    "state_id": "374be35f-1922-4fd9-86cb-904eac1a1e8c"
  },
  {
    "id": "1897229c-27c8-4c72-9bd1-c4ed5812aa12",
    "name": "Schwaz",
    "state_id": "374be35f-1922-4fd9-86cb-904eac1a1e8c"
  },
  {
    "id": "d5bc55c6-a595-4a63-94ea-9fb979caf19e",
    "name": "Schwendau",
    "state_id": "374be35f-1922-4fd9-86cb-904eac1a1e8c"
  },
  {
    "id": "8059995c-d2e3-4501-ab27-fab3af75a8dc",
    "name": "Schwendt",
    "state_id": "374be35f-1922-4fd9-86cb-904eac1a1e8c"
  },
  {
    "id": "ef7598c9-88a0-439b-a11d-d3c299c58531",
    "name": "Schwoich",
    "state_id": "374be35f-1922-4fd9-86cb-904eac1a1e8c"
  },
  {
    "id": "07249e0f-f56a-45a4-a989-2c5b97ea4c12",
    "name": "See",
    "state_id": "374be35f-1922-4fd9-86cb-904eac1a1e8c"
  },
  {
    "id": "90125804-bf15-4c77-b5df-8ef9ecb6aa1b",
    "name": "Seefeld in Tirol",
    "state_id": "374be35f-1922-4fd9-86cb-904eac1a1e8c"
  },
  {
    "id": "205496ce-41b9-4e0d-95f1-56c85d52aa53",
    "name": "Sellrain",
    "state_id": "374be35f-1922-4fd9-86cb-904eac1a1e8c"
  },
  {
    "id": "2be6be8d-f821-4992-87a1-151b772a3a64",
    "name": "Serfaus",
    "state_id": "374be35f-1922-4fd9-86cb-904eac1a1e8c"
  },
  {
    "id": "21d60298-2bc3-4336-9813-5253dee4055e",
    "name": "Sillian",
    "state_id": "374be35f-1922-4fd9-86cb-904eac1a1e8c"
  },
  {
    "id": "2e154a07-f506-40cc-9678-7d4bdcc4b048",
    "name": "Silz",
    "state_id": "374be35f-1922-4fd9-86cb-904eac1a1e8c"
  },
  {
    "id": "f4e99f85-0ee1-4393-99ab-7544c9f71bc0",
    "name": "Sistrans",
    "state_id": "374be35f-1922-4fd9-86cb-904eac1a1e8c"
  },
  {
    "id": "1afad1e0-0d4f-4d21-b30b-dd9ec35a918d",
    "name": "Sölden",
    "state_id": "374be35f-1922-4fd9-86cb-904eac1a1e8c"
  },
  {
    "id": "288be660-b7f6-4813-92e6-798ae86db33b",
    "name": "Söll",
    "state_id": "374be35f-1922-4fd9-86cb-904eac1a1e8c"
  },
  {
    "id": "207ad5f5-20bc-4cf6-9d9d-d6a42d003588",
    "name": "St Anton am Arlberg",
    "state_id": "374be35f-1922-4fd9-86cb-904eac1a1e8c"
  },
  {
    "id": "34293ada-4cad-4f4e-be6e-28ec7584a8e4",
    "name": "Stams",
    "state_id": "374be35f-1922-4fd9-86cb-904eac1a1e8c"
  },
  {
    "id": "09d3b833-1fcf-49b7-bc10-bd40ccf8faf7",
    "name": "Stans",
    "state_id": "374be35f-1922-4fd9-86cb-904eac1a1e8c"
  },
  {
    "id": "eb34b91f-5c41-447e-8d62-f1ec5bed7bf9",
    "name": "Stanz bei Landeck",
    "state_id": "374be35f-1922-4fd9-86cb-904eac1a1e8c"
  },
  {
    "id": "c7793878-969e-4669-8429-e54891056f95",
    "name": "Stanzach",
    "state_id": "374be35f-1922-4fd9-86cb-904eac1a1e8c"
  },
  {
    "id": "449d527a-5367-4bf7-9251-c0961330ffa5",
    "name": "Steeg",
    "state_id": "374be35f-1922-4fd9-86cb-904eac1a1e8c"
  },
  {
    "id": "48f109f0-dd34-403e-9bc2-93b90aea0a00",
    "name": "Steinach am Brenner",
    "state_id": "374be35f-1922-4fd9-86cb-904eac1a1e8c"
  },
  {
    "id": "a9c54e3d-a421-434e-8152-cbfed49ae45c",
    "name": "Strass im Zillertal",
    "state_id": "374be35f-1922-4fd9-86cb-904eac1a1e8c"
  },
  {
    "id": "04d3b283-d2f3-41c0-9dd2-f16b61094f00",
    "name": "Strassen",
    "state_id": "374be35f-1922-4fd9-86cb-904eac1a1e8c"
  },
  {
    "id": "ec5ed8de-57d6-44c4-91e2-57fbc1b9d067",
    "name": "Strengen",
    "state_id": "374be35f-1922-4fd9-86cb-904eac1a1e8c"
  },
  {
    "id": "03a00f6d-0238-4d00-941c-db5ca977f7d0",
    "name": "Stumm",
    "state_id": "374be35f-1922-4fd9-86cb-904eac1a1e8c"
  },
  {
    "id": "7eb7d966-4889-4d16-b7b9-aae5ce416b8d",
    "name": "Stummerberg",
    "state_id": "374be35f-1922-4fd9-86cb-904eac1a1e8c"
  },
  {
    "id": "a9c3d3f2-863d-4632-8daf-0c9b79fe01a6",
    "name": "Tannheim",
    "state_id": "374be35f-1922-4fd9-86cb-904eac1a1e8c"
  },
  {
    "id": "3aa93403-5ab6-4eb0-9026-33e4aeed0714",
    "name": "Tarrenz",
    "state_id": "374be35f-1922-4fd9-86cb-904eac1a1e8c"
  },
  {
    "id": "880eb764-0f63-4eee-8105-6743392f388f",
    "name": "Telfes im Stubai",
    "state_id": "374be35f-1922-4fd9-86cb-904eac1a1e8c"
  },
  {
    "id": "0b4a68e0-32d7-48c0-b241-1ec4b5bd4d78",
    "name": "Telfs",
    "state_id": "374be35f-1922-4fd9-86cb-904eac1a1e8c"
  },
  {
    "id": "84acab85-9847-41c2-9028-28c8a574e269",
    "name": "Terfens",
    "state_id": "374be35f-1922-4fd9-86cb-904eac1a1e8c"
  },
  {
    "id": "ade5b125-b204-4e84-bdad-8d33ddbcc66a",
    "name": "Thaur",
    "state_id": "374be35f-1922-4fd9-86cb-904eac1a1e8c"
  },
  {
    "id": "dd06e6f6-2ca2-45f7-b404-0c0d0e1a5861",
    "name": "Thurn",
    "state_id": "374be35f-1922-4fd9-86cb-904eac1a1e8c"
  },
  {
    "id": "26e4fd44-2dd4-4f96-b15c-07e795542311",
    "name": "Tobadill",
    "state_id": "374be35f-1922-4fd9-86cb-904eac1a1e8c"
  },
  {
    "id": "5b12dffe-44e4-42dc-9cee-4c9d66d852dc",
    "name": "Trins",
    "state_id": "374be35f-1922-4fd9-86cb-904eac1a1e8c"
  },
  {
    "id": "79a7d0b8-975a-4ce3-9baf-0566e89862a1",
    "name": "Tristach",
    "state_id": "374be35f-1922-4fd9-86cb-904eac1a1e8c"
  },
  {
    "id": "8892d5a5-3298-4f54-9489-23a9b271c4d6",
    "name": "Tulfes",
    "state_id": "374be35f-1922-4fd9-86cb-904eac1a1e8c"
  },
  {
    "id": "3dd630cd-7614-4501-9533-99282ee97fc3",
    "name": "Tux",
    "state_id": "374be35f-1922-4fd9-86cb-904eac1a1e8c"
  },
  {
    "id": "b8a19e74-989f-4507-b944-d0a03c2c7e80",
    "name": "Uderns",
    "state_id": "374be35f-1922-4fd9-86cb-904eac1a1e8c"
  },
  {
    "id": "0d5fdf66-015e-4a6f-8e31-b73371bbccca",
    "name": "Umhausen",
    "state_id": "374be35f-1922-4fd9-86cb-904eac1a1e8c"
  },
  {
    "id": "e86c92d8-ae69-4cfc-b1d2-14905496831d",
    "name": "Unterlangkampfen",
    "state_id": "374be35f-1922-4fd9-86cb-904eac1a1e8c"
  },
  {
    "id": "ccd844b2-2bed-450b-b618-5cee4d9b4943",
    "name": "Unterperfuss",
    "state_id": "374be35f-1922-4fd9-86cb-904eac1a1e8c"
  },
  {
    "id": "16e4d9c9-120b-4336-a935-229f6e756b07",
    "name": "Untertilliach",
    "state_id": "374be35f-1922-4fd9-86cb-904eac1a1e8c"
  },
  {
    "id": "ac2e6657-bb51-44ad-9f23-40847a46f770",
    "name": "Vals",
    "state_id": "374be35f-1922-4fd9-86cb-904eac1a1e8c"
  },
  {
    "id": "6919f2f3-6c9e-4e83-9d79-1a1d0dfa2c6c",
    "name": "Vils",
    "state_id": "374be35f-1922-4fd9-86cb-904eac1a1e8c"
  },
  {
    "id": "25de7a14-9fd4-458a-81b4-63724a35fafd",
    "name": "Virgen",
    "state_id": "374be35f-1922-4fd9-86cb-904eac1a1e8c"
  },
  {
    "id": "ec90d18f-598b-4e63-9d51-febbc0cc3e71",
    "name": "Volders",
    "state_id": "374be35f-1922-4fd9-86cb-904eac1a1e8c"
  },
  {
    "id": "89716aeb-e7dd-47ab-ba5a-3555e434dbf1",
    "name": "Voldöpp",
    "state_id": "374be35f-1922-4fd9-86cb-904eac1a1e8c"
  },
  {
    "id": "dc0b3a79-e19a-4706-a61b-49bc2e0e7a6d",
    "name": "Völs",
    "state_id": "374be35f-1922-4fd9-86cb-904eac1a1e8c"
  },
  {
    "id": "f0c3bdb9-4c5c-440f-bf91-ea3f0a5dddf3",
    "name": "Vomp",
    "state_id": "374be35f-1922-4fd9-86cb-904eac1a1e8c"
  },
  {
    "id": "49b7781c-2963-4f51-96d5-c2c8b0b0f733",
    "name": "Vorderhornbach",
    "state_id": "374be35f-1922-4fd9-86cb-904eac1a1e8c"
  },
  {
    "id": "6e18682a-6384-45f8-9100-3c18dd994216",
    "name": "Vorderthiersee",
    "state_id": "374be35f-1922-4fd9-86cb-904eac1a1e8c"
  },
  {
    "id": "d6363dd7-1bdb-4e76-a779-3a4794462e76",
    "name": "Waidring",
    "state_id": "374be35f-1922-4fd9-86cb-904eac1a1e8c"
  },
  {
    "id": "4692bf92-bf3b-4dde-8a8f-652284b628a2",
    "name": "Walchsee",
    "state_id": "374be35f-1922-4fd9-86cb-904eac1a1e8c"
  },
  {
    "id": "98154915-7ebd-42b4-a1fa-f017a0a47764",
    "name": "Wängle",
    "state_id": "374be35f-1922-4fd9-86cb-904eac1a1e8c"
  },
  {
    "id": "6141b8e7-ecb4-4e5e-95c8-8b054db43e7e",
    "name": "Wattenberg",
    "state_id": "374be35f-1922-4fd9-86cb-904eac1a1e8c"
  },
  {
    "id": "e737bbb3-b9e2-4323-90ac-e2cf657e9dc5",
    "name": "Wattens",
    "state_id": "374be35f-1922-4fd9-86cb-904eac1a1e8c"
  },
  {
    "id": "3fff254c-f7dc-4d88-ad22-3489e4ab4d6e",
    "name": "Weer",
    "state_id": "374be35f-1922-4fd9-86cb-904eac1a1e8c"
  },
  {
    "id": "190c0da8-5d78-4841-87c2-cc19797e2380",
    "name": "Weerberg",
    "state_id": "374be35f-1922-4fd9-86cb-904eac1a1e8c"
  },
  {
    "id": "e3bb5383-da7f-4ab1-b8c1-eab9cd420a9d",
    "name": "Weissach",
    "state_id": "374be35f-1922-4fd9-86cb-904eac1a1e8c"
  },
  {
    "id": "ee580a2c-f0e2-4091-a045-fcb3c95c1e59",
    "name": "Weissenbach am Lech",
    "state_id": "374be35f-1922-4fd9-86cb-904eac1a1e8c"
  },
  {
    "id": "88a18427-4dbe-4e53-a0d6-d7c0bdcce1a4",
    "name": "Wenns",
    "state_id": "374be35f-1922-4fd9-86cb-904eac1a1e8c"
  },
  {
    "id": "cf303416-9481-4c8c-bf32-fd2b95c8e91a",
    "name": "Westendorf",
    "state_id": "374be35f-1922-4fd9-86cb-904eac1a1e8c"
  },
  {
    "id": "2b1323a4-9ad0-4b3f-9e29-74dbf4365c75",
    "name": "Wiesing",
    "state_id": "374be35f-1922-4fd9-86cb-904eac1a1e8c"
  },
  {
    "id": "7bd02caa-4ef6-4a6c-b8ac-4d1b2c40e3fc",
    "name": "Wildermieming",
    "state_id": "374be35f-1922-4fd9-86cb-904eac1a1e8c"
  },
  {
    "id": "ec00fab7-e772-4ef7-9dd7-18446d841f16",
    "name": "Wildschönau",
    "state_id": "374be35f-1922-4fd9-86cb-904eac1a1e8c"
  },
  {
    "id": "f1e70370-d72a-44f1-998c-2cacb86e5c8f",
    "name": "Wilten",
    "state_id": "374be35f-1922-4fd9-86cb-904eac1a1e8c"
  },
  {
    "id": "4fed5a4d-bb4a-41c4-80a8-52cf4dfcddcb",
    "name": "Wörgl",
    "state_id": "374be35f-1922-4fd9-86cb-904eac1a1e8c"
  },
  {
    "id": "e3576a36-858e-44aa-8ad2-6fade6baa61f",
    "name": "Zams",
    "state_id": "374be35f-1922-4fd9-86cb-904eac1a1e8c"
  },
  {
    "id": "f9698f48-97f8-421c-891e-82b834dda099",
    "name": "Zell",
    "state_id": "374be35f-1922-4fd9-86cb-904eac1a1e8c"
  },
  {
    "id": "05a163ea-d837-4af2-bf0e-48ed60790654",
    "name": "Zell am Ziller",
    "state_id": "374be35f-1922-4fd9-86cb-904eac1a1e8c"
  },
  {
    "id": "e018045f-06b8-43f6-8d32-70df71abff02",
    "name": "Zellberg",
    "state_id": "374be35f-1922-4fd9-86cb-904eac1a1e8c"
  },
  {
    "id": "4eda7ed5-43cb-4942-a2f1-c3d103330534",
    "name": "Zirl",
    "state_id": "374be35f-1922-4fd9-86cb-904eac1a1e8c"
  },
  {
    "id": "69974d0e-68f9-4948-aad0-4b8bfc0d0581",
    "name": "Zöblen",
    "state_id": "374be35f-1922-4fd9-86cb-904eac1a1e8c"
  }
]