[
  {
    "id": "90f2bdd6-1a5c-492d-97c7-348ae68cb97a",
    "name": "Baabda",
    "state_id": "382ce9f2-2513-4023-819c-5835312b865f"
  },
  {
    "id": "8f8f5d20-114d-4714-9e96-04073fd43bb3",
    "name": "Bhamdoun",
    "state_id": "382ce9f2-2513-4023-819c-5835312b865f"
  },
  {
    "id": "9a267498-991e-4f81-8a8a-9bcf0f26a27f",
    "name": "Bhamdoûn el Mhatta",
    "state_id": "382ce9f2-2513-4023-819c-5835312b865f"
  },
  {
    "id": "016ae95e-9cb8-492c-8999-9f5e8032f316",
    "name": "Caza de Baabda",
    "state_id": "382ce9f2-2513-4023-819c-5835312b865f"
  },
  {
    "id": "dc8e6beb-e0f9-440f-8964-cdbf25da1316",
    "name": "Jbaïl",
    "state_id": "382ce9f2-2513-4023-819c-5835312b865f"
  },
  {
    "id": "6347df70-b58d-4f8c-be8a-059347f0737e",
    "name": "Jounieh",
    "state_id": "382ce9f2-2513-4023-819c-5835312b865f"
  }
]