[
  {
    "id": "ff3e65ee-a6f1-4d6c-8b33-697c19ef9950",
    "name": "Abhaneri",
    "state_id": "383763c3-f421-4824-aa48-b39465a6ff46"
  },
  {
    "id": "802314e2-c9d2-445e-9a61-402f28c87233",
    "name": "Abu",
    "state_id": "383763c3-f421-4824-aa48-b39465a6ff46"
  },
  {
    "id": "4285103d-7bd4-4275-b61e-5caa4570a340",
    "name": "Abu Road",
    "state_id": "383763c3-f421-4824-aa48-b39465a6ff46"
  },
  {
    "id": "ce2056fa-2c85-4a99-9d5c-8a00f21989bc",
    "name": "Ajmer",
    "state_id": "383763c3-f421-4824-aa48-b39465a6ff46"
  },
  {
    "id": "f6336919-9828-4931-a8c3-ae1f2db66e23",
    "name": "Aklera",
    "state_id": "383763c3-f421-4824-aa48-b39465a6ff46"
  },
  {
    "id": "f8857088-1aea-4cf0-97c8-48f592f456a3",
    "name": "Alwar",
    "state_id": "383763c3-f421-4824-aa48-b39465a6ff46"
  },
  {
    "id": "cc631969-da92-48ca-b5cf-5efaf9def322",
    "name": "Amet",
    "state_id": "383763c3-f421-4824-aa48-b39465a6ff46"
  },
  {
    "id": "eb583560-543d-4007-9487-d7edd7a68a93",
    "name": "Anta",
    "state_id": "383763c3-f421-4824-aa48-b39465a6ff46"
  },
  {
    "id": "40448ac9-fd7c-49b2-9006-936936f5cdae",
    "name": "Anupgarh",
    "state_id": "383763c3-f421-4824-aa48-b39465a6ff46"
  },
  {
    "id": "33fac5ff-4024-40b8-8282-3b326128bc5c",
    "name": "Asind",
    "state_id": "383763c3-f421-4824-aa48-b39465a6ff46"
  },
  {
    "id": "8f25c0fd-8b15-4941-97e6-6f866e27c134",
    "name": "Bagar",
    "state_id": "383763c3-f421-4824-aa48-b39465a6ff46"
  },
  {
    "id": "c45e99dd-d7ab-4778-b28a-a36e0c5de2ef",
    "name": "Bakani",
    "state_id": "383763c3-f421-4824-aa48-b39465a6ff46"
  },
  {
    "id": "d63c1449-1517-4f1a-9482-4a288db75c4b",
    "name": "Bali",
    "state_id": "383763c3-f421-4824-aa48-b39465a6ff46"
  },
  {
    "id": "5b3b785f-9af0-4ed8-9c34-55384e5bea8f",
    "name": "Balotra",
    "state_id": "383763c3-f421-4824-aa48-b39465a6ff46"
  },
  {
    "id": "64a70a1d-eb0c-45dc-8871-8d12a64dddef",
    "name": "Bandikui",
    "state_id": "383763c3-f421-4824-aa48-b39465a6ff46"
  },
  {
    "id": "0fc6ba85-4cfa-48dd-925d-4ec56e00fee9",
    "name": "Banswara",
    "state_id": "383763c3-f421-4824-aa48-b39465a6ff46"
  },
  {
    "id": "963c997d-37ff-4087-bfe7-c535fa1a519b",
    "name": "Baran",
    "state_id": "383763c3-f421-4824-aa48-b39465a6ff46"
  },
  {
    "id": "972af1a9-29f8-49c3-81ec-33c5f9fe34a5",
    "name": "Bari",
    "state_id": "383763c3-f421-4824-aa48-b39465a6ff46"
  },
  {
    "id": "f77fc381-9cf8-4bf7-b0a9-56582cbc36ec",
    "name": "Bari Sadri",
    "state_id": "383763c3-f421-4824-aa48-b39465a6ff46"
  },
  {
    "id": "933b2370-c616-4969-92a3-fa70b9884010",
    "name": "Barmer",
    "state_id": "383763c3-f421-4824-aa48-b39465a6ff46"
  },
  {
    "id": "b9369f95-24eb-48b4-8a0b-3462c3159903",
    "name": "Basi",
    "state_id": "383763c3-f421-4824-aa48-b39465a6ff46"
  },
  {
    "id": "0e868afa-3262-4a59-964b-b7a18149e94a",
    "name": "Basni",
    "state_id": "383763c3-f421-4824-aa48-b39465a6ff46"
  },
  {
    "id": "210dea17-fdd9-4ffc-9f46-75bd20388a46",
    "name": "Baswa",
    "state_id": "383763c3-f421-4824-aa48-b39465a6ff46"
  },
  {
    "id": "69a76295-0d7d-4152-80e2-972ccea0d37a",
    "name": "Bayana",
    "state_id": "383763c3-f421-4824-aa48-b39465a6ff46"
  },
  {
    "id": "5e4fd373-5142-4214-9933-7eeeef9db075",
    "name": "Beawar",
    "state_id": "383763c3-f421-4824-aa48-b39465a6ff46"
  },
  {
    "id": "6667634f-2318-4637-bc10-8e417dadada7",
    "name": "Begun",
    "state_id": "383763c3-f421-4824-aa48-b39465a6ff46"
  },
  {
    "id": "27f4d2a4-26c5-4eb3-9b82-609d05d4d716",
    "name": "Behror",
    "state_id": "383763c3-f421-4824-aa48-b39465a6ff46"
  },
  {
    "id": "4d5b881e-9bf9-4d6b-ae63-d5d095ecd2fb",
    "name": "Bhadasar",
    "state_id": "383763c3-f421-4824-aa48-b39465a6ff46"
  },
  {
    "id": "e62a40c1-8a9e-43bf-8aeb-3ad1db3c9992",
    "name": "Bhadra",
    "state_id": "383763c3-f421-4824-aa48-b39465a6ff46"
  },
  {
    "id": "646d1c2f-206a-4e0c-9a7c-951c561bbfdb",
    "name": "Bharatpur",
    "state_id": "383763c3-f421-4824-aa48-b39465a6ff46"
  },
  {
    "id": "6c7e2632-bed2-437e-af4f-f389d2918ea4",
    "name": "Bhasawar",
    "state_id": "383763c3-f421-4824-aa48-b39465a6ff46"
  },
  {
    "id": "c8b1d4ad-aece-4a72-b1a3-709eb3ed179d",
    "name": "Bhilwara",
    "state_id": "383763c3-f421-4824-aa48-b39465a6ff46"
  },
  {
    "id": "91f5690c-66d1-4c18-a293-462d37d32659",
    "name": "Bhindar",
    "state_id": "383763c3-f421-4824-aa48-b39465a6ff46"
  },
  {
    "id": "06f4c5af-bed2-4bae-a289-a9b4558a3e16",
    "name": "Bhinmal",
    "state_id": "383763c3-f421-4824-aa48-b39465a6ff46"
  },
  {
    "id": "9f1798da-cadb-470e-9b17-43001165a68e",
    "name": "Bhiwadi",
    "state_id": "383763c3-f421-4824-aa48-b39465a6ff46"
  },
  {
    "id": "6825c6ac-5b8b-40e9-8c9e-755fe2a199eb",
    "name": "Bhuma",
    "state_id": "383763c3-f421-4824-aa48-b39465a6ff46"
  },
  {
    "id": "e0c939a4-db7b-4622-bbca-34db934cc983",
    "name": "Bikaner",
    "state_id": "383763c3-f421-4824-aa48-b39465a6ff46"
  },
  {
    "id": "982cedec-4a56-40db-8360-3c837598308f",
    "name": "Bilara",
    "state_id": "383763c3-f421-4824-aa48-b39465a6ff46"
  },
  {
    "id": "63875548-3fcf-4053-b78b-9e7cdc3be65d",
    "name": "Bissau",
    "state_id": "383763c3-f421-4824-aa48-b39465a6ff46"
  },
  {
    "id": "0975e525-a26b-4281-ab1f-203cc103b69d",
    "name": "Borkhera",
    "state_id": "383763c3-f421-4824-aa48-b39465a6ff46"
  },
  {
    "id": "2e763ba9-8386-47cf-9f96-54b0eff97035",
    "name": "Bundi",
    "state_id": "383763c3-f421-4824-aa48-b39465a6ff46"
  },
  {
    "id": "8f431a99-f121-4df7-b931-6c48ddc0a30e",
    "name": "Chaksu",
    "state_id": "383763c3-f421-4824-aa48-b39465a6ff46"
  },
  {
    "id": "e3b5ea40-ad5e-4ed5-8b45-e0f6d4520553",
    "name": "Chechat",
    "state_id": "383763c3-f421-4824-aa48-b39465a6ff46"
  },
  {
    "id": "69b9bca4-10ac-4fd3-a9de-d9b15cde34f9",
    "name": "Chhabra",
    "state_id": "383763c3-f421-4824-aa48-b39465a6ff46"
  },
  {
    "id": "50e3b1bd-8e00-4ca3-8441-444ebf4b3367",
    "name": "Chhapar",
    "state_id": "383763c3-f421-4824-aa48-b39465a6ff46"
  },
  {
    "id": "0046f212-fbf6-45d9-9c47-88270301d6df",
    "name": "Chhoti Sadri",
    "state_id": "383763c3-f421-4824-aa48-b39465a6ff46"
  },
  {
    "id": "86be948b-7d83-42e1-b265-f39048cc60d7",
    "name": "Chidawa",
    "state_id": "383763c3-f421-4824-aa48-b39465a6ff46"
  },
  {
    "id": "370750c2-438e-450b-b006-d95eccd9b76d",
    "name": "Chittaurgarh",
    "state_id": "383763c3-f421-4824-aa48-b39465a6ff46"
  },
  {
    "id": "53fa5a3a-6ee7-4b19-bd37-8ac69c65f9db",
    "name": "Churu",
    "state_id": "383763c3-f421-4824-aa48-b39465a6ff46"
  },
  {
    "id": "1e5a52b5-b5ca-4e45-a8be-a155947fbbe2",
    "name": "Dariba",
    "state_id": "383763c3-f421-4824-aa48-b39465a6ff46"
  },
  {
    "id": "d418ee36-8a16-41fc-932a-892871c5a6b8",
    "name": "Dausa",
    "state_id": "383763c3-f421-4824-aa48-b39465a6ff46"
  },
  {
    "id": "a3cc3a20-cdbb-4d01-8b0c-caae1d8d4cbc",
    "name": "Deoli",
    "state_id": "383763c3-f421-4824-aa48-b39465a6ff46"
  },
  {
    "id": "84c8c215-e4c9-4010-9f2e-593446fd780e",
    "name": "Deshnoke",
    "state_id": "383763c3-f421-4824-aa48-b39465a6ff46"
  },
  {
    "id": "b70a61bc-5795-4a4e-81ce-e33645f36b66",
    "name": "Devgarh",
    "state_id": "383763c3-f421-4824-aa48-b39465a6ff46"
  },
  {
    "id": "7f426adc-b2a4-4bf5-9a8c-1668d113106b",
    "name": "Dhaulpur",
    "state_id": "383763c3-f421-4824-aa48-b39465a6ff46"
  },
  {
    "id": "586d4979-b988-48a8-a6f3-8de8b9e772f7",
    "name": "Didwana",
    "state_id": "383763c3-f421-4824-aa48-b39465a6ff46"
  },
  {
    "id": "2b6d5f4d-cfc6-459b-b4e7-e3d7c47b927c",
    "name": "Dig",
    "state_id": "383763c3-f421-4824-aa48-b39465a6ff46"
  },
  {
    "id": "bf975c7d-c45f-4439-ac95-1170837a7bb9",
    "name": "Dungarpur",
    "state_id": "383763c3-f421-4824-aa48-b39465a6ff46"
  },
  {
    "id": "c9f16c31-9195-4760-939f-66ca76e276e1",
    "name": "Fatehpur",
    "state_id": "383763c3-f421-4824-aa48-b39465a6ff46"
  },
  {
    "id": "92e6e00d-e105-44ad-bc3e-efcc2d5e0f10",
    "name": "Galiakot",
    "state_id": "383763c3-f421-4824-aa48-b39465a6ff46"
  },
  {
    "id": "b3210afc-e665-4a90-bf27-c3c16fc7ba21",
    "name": "Ganganagar",
    "state_id": "383763c3-f421-4824-aa48-b39465a6ff46"
  },
  {
    "id": "17479ecf-90f3-406b-9795-81aede4d97f0",
    "name": "Gangapur",
    "state_id": "383763c3-f421-4824-aa48-b39465a6ff46"
  },
  {
    "id": "eabd6e6f-c5a2-4c7b-9884-00ff8c92858c",
    "name": "Govindgarh",
    "state_id": "383763c3-f421-4824-aa48-b39465a6ff46"
  },
  {
    "id": "018a0072-b2dc-424a-9e19-527f2afb361f",
    "name": "Gulabpura",
    "state_id": "383763c3-f421-4824-aa48-b39465a6ff46"
  },
  {
    "id": "2b816d0f-a7d6-4cb8-b0da-8986af33e960",
    "name": "Hanumangarh",
    "state_id": "383763c3-f421-4824-aa48-b39465a6ff46"
  },
  {
    "id": "dae39eb8-e12b-40b9-a472-6e1888c81f88",
    "name": "Hindaun",
    "state_id": "383763c3-f421-4824-aa48-b39465a6ff46"
  },
  {
    "id": "2000bdec-9d01-4841-bdc6-ed06d0dca51d",
    "name": "Jahazpur",
    "state_id": "383763c3-f421-4824-aa48-b39465a6ff46"
  },
  {
    "id": "b4cb785b-6159-45fd-b23a-dd7c30cb4da7",
    "name": "Jaipur",
    "state_id": "383763c3-f421-4824-aa48-b39465a6ff46"
  },
  {
    "id": "18c65d69-07e6-4da7-9a50-9141896af025",
    "name": "Jaisalmer",
    "state_id": "383763c3-f421-4824-aa48-b39465a6ff46"
  },
  {
    "id": "b3cb3773-db66-473a-840d-dab219049c3d",
    "name": "Jaitaran",
    "state_id": "383763c3-f421-4824-aa48-b39465a6ff46"
  },
  {
    "id": "7871f15c-882e-497b-825b-092e20826a20",
    "name": "Jalor",
    "state_id": "383763c3-f421-4824-aa48-b39465a6ff46"
  },
  {
    "id": "10d889d3-6adc-4fa2-8621-d63e140bb3fa",
    "name": "Jalore",
    "state_id": "383763c3-f421-4824-aa48-b39465a6ff46"
  },
  {
    "id": "fef33509-132c-441f-8ad3-0973b66c5de7",
    "name": "Jhalawar",
    "state_id": "383763c3-f421-4824-aa48-b39465a6ff46"
  },
  {
    "id": "9431ed5b-488c-4dae-8729-558ab4c4ab80",
    "name": "Jhalrapatan",
    "state_id": "383763c3-f421-4824-aa48-b39465a6ff46"
  },
  {
    "id": "db0ec42d-01c3-4400-88fa-6e73b6b310ef",
    "name": "Jhunjhunun",
    "state_id": "383763c3-f421-4824-aa48-b39465a6ff46"
  },
  {
    "id": "dab48ad7-7223-48d1-9885-f4f5abdcb680",
    "name": "Jobner",
    "state_id": "383763c3-f421-4824-aa48-b39465a6ff46"
  },
  {
    "id": "14107ba9-5549-462c-bd1b-1d0ac50480fd",
    "name": "Jodhpur",
    "state_id": "383763c3-f421-4824-aa48-b39465a6ff46"
  },
  {
    "id": "4c1b9304-6aa3-41ec-89ca-61272bdb357d",
    "name": "Kaman",
    "state_id": "383763c3-f421-4824-aa48-b39465a6ff46"
  },
  {
    "id": "3d74b57d-d732-497f-ab49-3bd3959e35b8",
    "name": "Kanor",
    "state_id": "383763c3-f421-4824-aa48-b39465a6ff46"
  },
  {
    "id": "91a23154-1f1e-4d64-b97b-a4febee84609",
    "name": "Kapren",
    "state_id": "383763c3-f421-4824-aa48-b39465a6ff46"
  },
  {
    "id": "ade22259-5cd4-4806-a3ea-287e26aabd11",
    "name": "Karanpur",
    "state_id": "383763c3-f421-4824-aa48-b39465a6ff46"
  },
  {
    "id": "5ebbd224-81c7-4828-9f77-62551f80a3c1",
    "name": "Karauli",
    "state_id": "383763c3-f421-4824-aa48-b39465a6ff46"
  },
  {
    "id": "94f769e4-f181-44c1-a2cd-f4522c3bcc4f",
    "name": "Kekri",
    "state_id": "383763c3-f421-4824-aa48-b39465a6ff46"
  },
  {
    "id": "dc2a1d79-4f8b-495e-99fe-853463ccb2b7",
    "name": "Keshorai Patan",
    "state_id": "383763c3-f421-4824-aa48-b39465a6ff46"
  },
  {
    "id": "b3f65fda-4420-46e7-acf4-ae1e75a174b1",
    "name": "Khandela",
    "state_id": "383763c3-f421-4824-aa48-b39465a6ff46"
  },
  {
    "id": "b434310c-af0d-4c9a-ae33-0279703366ce",
    "name": "Khanpur",
    "state_id": "383763c3-f421-4824-aa48-b39465a6ff46"
  },
  {
    "id": "ec724be6-adcb-4308-afd7-e33d52f8f5dd",
    "name": "Khetri",
    "state_id": "383763c3-f421-4824-aa48-b39465a6ff46"
  },
  {
    "id": "26cdff49-5f1b-458c-9c5e-2d884b7d2e91",
    "name": "Kishangarh",
    "state_id": "383763c3-f421-4824-aa48-b39465a6ff46"
  },
  {
    "id": "bbc45524-f85b-463b-bbfe-f1a940f7f8b9",
    "name": "Kota",
    "state_id": "383763c3-f421-4824-aa48-b39465a6ff46"
  },
  {
    "id": "b2ef7884-59ee-4165-84d7-3ba7aeb17dcc",
    "name": "Kotputli",
    "state_id": "383763c3-f421-4824-aa48-b39465a6ff46"
  },
  {
    "id": "1db465d5-4cec-404b-9040-5dc834b34cef",
    "name": "Kuchaman",
    "state_id": "383763c3-f421-4824-aa48-b39465a6ff46"
  },
  {
    "id": "4fe39f74-fa1c-486e-9670-ea331af02f8a",
    "name": "Kuchera",
    "state_id": "383763c3-f421-4824-aa48-b39465a6ff46"
  },
  {
    "id": "71645ba4-0306-4281-935b-9254e7138ff0",
    "name": "Kumher",
    "state_id": "383763c3-f421-4824-aa48-b39465a6ff46"
  },
  {
    "id": "2ae15082-157d-4648-950f-46a5ac904fe9",
    "name": "Kushalgarh",
    "state_id": "383763c3-f421-4824-aa48-b39465a6ff46"
  },
  {
    "id": "13c9cf72-e41c-452e-b81b-4e4b1efe80f0",
    "name": "Lachhmangarh Sikar",
    "state_id": "383763c3-f421-4824-aa48-b39465a6ff46"
  },
  {
    "id": "7019a3d1-6a24-4a06-9337-f83765157b5f",
    "name": "Ladnun",
    "state_id": "383763c3-f421-4824-aa48-b39465a6ff46"
  },
  {
    "id": "0de2f22e-11ff-42c7-aecd-84b65bb4b4da",
    "name": "Lakheri",
    "state_id": "383763c3-f421-4824-aa48-b39465a6ff46"
  },
  {
    "id": "3dca7235-afed-4c40-ac25-186d6dd894b2",
    "name": "Lalsot",
    "state_id": "383763c3-f421-4824-aa48-b39465a6ff46"
  },
  {
    "id": "fb4d5bcb-4a43-492c-9a7c-269fd0bd2928",
    "name": "Losal",
    "state_id": "383763c3-f421-4824-aa48-b39465a6ff46"
  },
  {
    "id": "0cb570c9-9db1-4757-950b-a9652780c809",
    "name": "Mahwah",
    "state_id": "383763c3-f421-4824-aa48-b39465a6ff46"
  },
  {
    "id": "e5ad9ca9-9fcb-485c-9874-8a5b1bfe444e",
    "name": "Makrana",
    "state_id": "383763c3-f421-4824-aa48-b39465a6ff46"
  },
  {
    "id": "923d9e9f-2c0d-4b2d-a049-bad245a15ac1",
    "name": "Malpura",
    "state_id": "383763c3-f421-4824-aa48-b39465a6ff46"
  },
  {
    "id": "2cfac85a-51bb-4610-a878-93f3f11500b9",
    "name": "Mandal",
    "state_id": "383763c3-f421-4824-aa48-b39465a6ff46"
  },
  {
    "id": "f7b59904-d508-4860-95b8-ea9b0ae38aa6",
    "name": "Mandalgarh",
    "state_id": "383763c3-f421-4824-aa48-b39465a6ff46"
  },
  {
    "id": "5e5c1520-4a22-41cb-b09a-777348d36e3e",
    "name": "Mandawar",
    "state_id": "383763c3-f421-4824-aa48-b39465a6ff46"
  },
  {
    "id": "37931544-0733-46c9-8ad3-131beee60d0a",
    "name": "Mangrol",
    "state_id": "383763c3-f421-4824-aa48-b39465a6ff46"
  },
  {
    "id": "b8bdd53c-428d-4106-a731-df6820a4bf78",
    "name": "Manohar Thana",
    "state_id": "383763c3-f421-4824-aa48-b39465a6ff46"
  },
  {
    "id": "ca731047-9df7-4667-9760-0fdc5086cc70",
    "name": "Manoharpur",
    "state_id": "383763c3-f421-4824-aa48-b39465a6ff46"
  },
  {
    "id": "3429e8af-55d8-4769-b223-8fc46c953036",
    "name": "Meethari Marwar",
    "state_id": "383763c3-f421-4824-aa48-b39465a6ff46"
  },
  {
    "id": "1a481e57-62d8-44e3-9ce6-c351f45f7d4c",
    "name": "Merta",
    "state_id": "383763c3-f421-4824-aa48-b39465a6ff46"
  },
  {
    "id": "912b223c-ab37-4dc9-a91e-3b93aea654e4",
    "name": "Mundwa",
    "state_id": "383763c3-f421-4824-aa48-b39465a6ff46"
  },
  {
    "id": "3c55807c-dcd6-4f6c-8199-c4e5c6e8440b",
    "name": "Nadbai",
    "state_id": "383763c3-f421-4824-aa48-b39465a6ff46"
  },
  {
    "id": "abb5b72f-744e-446d-b6fc-7798ae2f01b3",
    "name": "Nagar",
    "state_id": "383763c3-f421-4824-aa48-b39465a6ff46"
  },
  {
    "id": "8f6460c9-a625-46ac-90eb-921a77c861fa",
    "name": "Nagaur",
    "state_id": "383763c3-f421-4824-aa48-b39465a6ff46"
  },
  {
    "id": "dbe23ed0-d854-4e87-95a0-e70b8b26406d",
    "name": "Nainwa",
    "state_id": "383763c3-f421-4824-aa48-b39465a6ff46"
  },
  {
    "id": "eaf042ad-049e-46db-8d1f-89c53cce1be9",
    "name": "Napasar",
    "state_id": "383763c3-f421-4824-aa48-b39465a6ff46"
  },
  {
    "id": "5fa970cc-2f9c-41a4-bb31-5230858ad35e",
    "name": "Naraina",
    "state_id": "383763c3-f421-4824-aa48-b39465a6ff46"
  },
  {
    "id": "61aa3be9-f13c-4740-b42f-e9674a411c84",
    "name": "Nasirabad",
    "state_id": "383763c3-f421-4824-aa48-b39465a6ff46"
  },
  {
    "id": "71fafcbe-1bab-4c07-bc6a-655ddaed7b09",
    "name": "Nathdwara",
    "state_id": "383763c3-f421-4824-aa48-b39465a6ff46"
  },
  {
    "id": "cf931dfa-3234-42c0-9526-70336e1b770d",
    "name": "Nawa",
    "state_id": "383763c3-f421-4824-aa48-b39465a6ff46"
  },
  {
    "id": "58cd982d-40de-47d2-a6e8-ddc59a22eb50",
    "name": "Nawalgarh",
    "state_id": "383763c3-f421-4824-aa48-b39465a6ff46"
  },
  {
    "id": "d91b4c1a-f14b-4b6d-b701-f91f56ad99ae",
    "name": "Neem ka Thana",
    "state_id": "383763c3-f421-4824-aa48-b39465a6ff46"
  },
  {
    "id": "eaacdfcf-e4ff-43a0-8466-e5a48d3a0c50",
    "name": "Nimaj",
    "state_id": "383763c3-f421-4824-aa48-b39465a6ff46"
  },
  {
    "id": "dcbe0f04-cc64-4838-8f33-d4750d4c7683",
    "name": "Nimbahera",
    "state_id": "383763c3-f421-4824-aa48-b39465a6ff46"
  },
  {
    "id": "c42463f4-4ea0-4715-9349-7c3a40f3e743",
    "name": "Niwai",
    "state_id": "383763c3-f421-4824-aa48-b39465a6ff46"
  },
  {
    "id": "74ff7b55-e15a-4684-af95-42c8f3c6e544",
    "name": "Nohar",
    "state_id": "383763c3-f421-4824-aa48-b39465a6ff46"
  },
  {
    "id": "8ab73a45-aea2-4aa1-8a0a-9cdf55156a8e",
    "name": "Nokha",
    "state_id": "383763c3-f421-4824-aa48-b39465a6ff46"
  },
  {
    "id": "7da1ce45-40a3-4667-b2f4-7de84d01d47b",
    "name": "Padampur",
    "state_id": "383763c3-f421-4824-aa48-b39465a6ff46"
  },
  {
    "id": "f3f29d9d-f717-4976-8320-dc88650940ca",
    "name": "Pali",
    "state_id": "383763c3-f421-4824-aa48-b39465a6ff46"
  },
  {
    "id": "f5a3b02c-d1da-404c-b496-e742c616751d",
    "name": "Partapur",
    "state_id": "383763c3-f421-4824-aa48-b39465a6ff46"
  },
  {
    "id": "5e984eb1-2bfc-492f-863a-061f28f228b3",
    "name": "Parvatsar",
    "state_id": "383763c3-f421-4824-aa48-b39465a6ff46"
  },
  {
    "id": "d529a1e7-e514-4785-a3d5-ff224ffc88db",
    "name": "Phalodi",
    "state_id": "383763c3-f421-4824-aa48-b39465a6ff46"
  },
  {
    "id": "154a7da1-c75d-482a-9353-9d0b2ab6fddf",
    "name": "Phulera",
    "state_id": "383763c3-f421-4824-aa48-b39465a6ff46"
  },
  {
    "id": "a12be1a1-5052-4065-bb4d-4bdc9cac25be",
    "name": "Pilani",
    "state_id": "383763c3-f421-4824-aa48-b39465a6ff46"
  },
  {
    "id": "685208a9-8b23-4b3e-9af0-86ddeeddcc78",
    "name": "Pilibangan",
    "state_id": "383763c3-f421-4824-aa48-b39465a6ff46"
  },
  {
    "id": "27069352-7973-45c8-95f8-4bf1bfa7c2a6",
    "name": "Pindwara",
    "state_id": "383763c3-f421-4824-aa48-b39465a6ff46"
  },
  {
    "id": "1f5ffe22-f1ed-4bb9-953f-2e092f2a9fc1",
    "name": "Pipar",
    "state_id": "383763c3-f421-4824-aa48-b39465a6ff46"
  },
  {
    "id": "71bd37ed-c45b-471e-9b88-75f4cbf05dde",
    "name": "Pirawa",
    "state_id": "383763c3-f421-4824-aa48-b39465a6ff46"
  },
  {
    "id": "b9b4bb2b-e254-4c98-b1a3-e722a3b66611",
    "name": "Pokaran",
    "state_id": "383763c3-f421-4824-aa48-b39465a6ff46"
  },
  {
    "id": "c8bbf8a8-909c-477d-9e12-9720afaeca04",
    "name": "Pratapgarh",
    "state_id": "383763c3-f421-4824-aa48-b39465a6ff46"
  },
  {
    "id": "80af3452-e928-4c87-ba0c-00beae330bb9",
    "name": "Pushkar",
    "state_id": "383763c3-f421-4824-aa48-b39465a6ff46"
  },
  {
    "id": "9704dc6d-f685-490c-817d-76d92c1b5793",
    "name": "Raipur",
    "state_id": "383763c3-f421-4824-aa48-b39465a6ff46"
  },
  {
    "id": "5df9b345-51bf-48b1-8121-818018595411",
    "name": "Raisinghnagar",
    "state_id": "383763c3-f421-4824-aa48-b39465a6ff46"
  },
  {
    "id": "ced4e589-30c9-4587-af2e-2cd69f4e5764",
    "name": "Rajakhera",
    "state_id": "383763c3-f421-4824-aa48-b39465a6ff46"
  },
  {
    "id": "df02cc63-d6f7-4a80-b44c-bb2cc2079e25",
    "name": "Rajaldesar",
    "state_id": "383763c3-f421-4824-aa48-b39465a6ff46"
  },
  {
    "id": "cc3a9e9c-dfa0-406c-a166-cfc89e2d3903",
    "name": "Rajgarh",
    "state_id": "383763c3-f421-4824-aa48-b39465a6ff46"
  },
  {
    "id": "7df3ca54-e1a2-4a27-a63d-f639acdee26a",
    "name": "Rajsamand",
    "state_id": "383763c3-f421-4824-aa48-b39465a6ff46"
  },
  {
    "id": "d893669d-e2bb-45ef-98c0-633a1c23bbe1",
    "name": "Ramganj Mandi",
    "state_id": "383763c3-f421-4824-aa48-b39465a6ff46"
  },
  {
    "id": "cdcb8e63-759c-46bd-8ced-fb4c47c49191",
    "name": "Ramgarh",
    "state_id": "383763c3-f421-4824-aa48-b39465a6ff46"
  },
  {
    "id": "c492bf38-4278-467c-9b00-00022c4f5a24",
    "name": "Rani",
    "state_id": "383763c3-f421-4824-aa48-b39465a6ff46"
  },
  {
    "id": "2ae4564a-dc66-43a3-8fce-18d98edd75a2",
    "name": "Ratangarh",
    "state_id": "383763c3-f421-4824-aa48-b39465a6ff46"
  },
  {
    "id": "edf196d4-94d3-4b91-9e55-1f09d8fd70b8",
    "name": "Rawatbhata",
    "state_id": "383763c3-f421-4824-aa48-b39465a6ff46"
  },
  {
    "id": "dedbb3a0-c632-4c00-8f35-8dddc6d98564",
    "name": "Rawatsar",
    "state_id": "383763c3-f421-4824-aa48-b39465a6ff46"
  },
  {
    "id": "43107888-b202-4a94-8a17-e9db7a29219d",
    "name": "Ringas",
    "state_id": "383763c3-f421-4824-aa48-b39465a6ff46"
  },
  {
    "id": "4123b148-30ec-4552-97c9-a5a9119358fa",
    "name": "Sadri",
    "state_id": "383763c3-f421-4824-aa48-b39465a6ff46"
  },
  {
    "id": "ff4be032-84c0-4599-a4bd-c5b57b2bc44b",
    "name": "Salumbar",
    "state_id": "383763c3-f421-4824-aa48-b39465a6ff46"
  },
  {
    "id": "0712c724-b734-48e7-8009-dfa5270cd422",
    "name": "Sambhar",
    "state_id": "383763c3-f421-4824-aa48-b39465a6ff46"
  },
  {
    "id": "235472cc-b1af-4e1a-9604-12f369b423aa",
    "name": "Samdari",
    "state_id": "383763c3-f421-4824-aa48-b39465a6ff46"
  },
  {
    "id": "cd8463d3-3d6e-4280-bd9e-47ccdb2768e2",
    "name": "Sanchor",
    "state_id": "383763c3-f421-4824-aa48-b39465a6ff46"
  },
  {
    "id": "0ffdfb8c-dd9b-4ea8-aa66-e956021bb83f",
    "name": "Sangaria",
    "state_id": "383763c3-f421-4824-aa48-b39465a6ff46"
  },
  {
    "id": "55a9be3d-4687-4660-901b-d3de6f7d9973",
    "name": "Sangod",
    "state_id": "383763c3-f421-4824-aa48-b39465a6ff46"
  },
  {
    "id": "99b6bcd7-eeaa-4b61-99f5-d67a105d075f",
    "name": "Sardarshahr",
    "state_id": "383763c3-f421-4824-aa48-b39465a6ff46"
  },
  {
    "id": "c2fd9b4e-170d-4ca9-a658-84ae80f17f29",
    "name": "Sarwar",
    "state_id": "383763c3-f421-4824-aa48-b39465a6ff46"
  },
  {
    "id": "a3d1ceeb-7fdf-404e-8ff7-de4090a99e78",
    "name": "Sawai Madhopur",
    "state_id": "383763c3-f421-4824-aa48-b39465a6ff46"
  },
  {
    "id": "16a9393a-2999-40d0-a0b9-db595dbedf37",
    "name": "Shahpura",
    "state_id": "383763c3-f421-4824-aa48-b39465a6ff46"
  },
  {
    "id": "828ba9dd-e217-4370-8d41-6597b1e28d26",
    "name": "Sheoganj",
    "state_id": "383763c3-f421-4824-aa48-b39465a6ff46"
  },
  {
    "id": "9c375fc0-270c-4904-a935-e3a41d498888",
    "name": "Sikar",
    "state_id": "383763c3-f421-4824-aa48-b39465a6ff46"
  },
  {
    "id": "dc1d4743-652b-4da6-b247-9d021794df7c",
    "name": "Sirohi",
    "state_id": "383763c3-f421-4824-aa48-b39465a6ff46"
  },
  {
    "id": "06895770-5a3b-4c0f-9edb-f6a901b0535d",
    "name": "Siwana",
    "state_id": "383763c3-f421-4824-aa48-b39465a6ff46"
  },
  {
    "id": "3ae6dd3d-95c2-4aa3-84fc-1b6ca41725e8",
    "name": "Sojat",
    "state_id": "383763c3-f421-4824-aa48-b39465a6ff46"
  },
  {
    "id": "575a1116-2cdd-4a23-bf18-51bff4e1d556",
    "name": "Sri Dungargarh",
    "state_id": "383763c3-f421-4824-aa48-b39465a6ff46"
  },
  {
    "id": "d0765b27-57ff-4e1a-a203-e8a97ac4e593",
    "name": "Sri Madhopur",
    "state_id": "383763c3-f421-4824-aa48-b39465a6ff46"
  },
  {
    "id": "e1f8f023-54fc-4f5a-ac05-fe091067574d",
    "name": "Sujangarh",
    "state_id": "383763c3-f421-4824-aa48-b39465a6ff46"
  },
  {
    "id": "b7de3ef4-bade-49d3-80bd-6b8087a12104",
    "name": "Suket",
    "state_id": "383763c3-f421-4824-aa48-b39465a6ff46"
  },
  {
    "id": "a97b6741-889d-41b6-bfa6-977e8d0c2fed",
    "name": "Sunel",
    "state_id": "383763c3-f421-4824-aa48-b39465a6ff46"
  },
  {
    "id": "b5359f7d-121d-4151-9f89-b4f83638c942",
    "name": "Surajgarh",
    "state_id": "383763c3-f421-4824-aa48-b39465a6ff46"
  },
  {
    "id": "63a0f158-3942-40e3-9464-24e30e95a6ef",
    "name": "Suratgarh",
    "state_id": "383763c3-f421-4824-aa48-b39465a6ff46"
  },
  {
    "id": "9e65a1fb-74a4-4b7f-9e60-e62e793a3284",
    "name": "Takhatgarh",
    "state_id": "383763c3-f421-4824-aa48-b39465a6ff46"
  },
  {
    "id": "40865e40-b86b-4cb5-beb4-77aecd1ef617",
    "name": "Taranagar",
    "state_id": "383763c3-f421-4824-aa48-b39465a6ff46"
  },
  {
    "id": "5ae0ea73-bd64-4626-9dec-0ab711adc8f8",
    "name": "Tijara",
    "state_id": "383763c3-f421-4824-aa48-b39465a6ff46"
  },
  {
    "id": "3922eecf-2643-4ee9-a509-e8f88a5c72c0",
    "name": "Todabhim",
    "state_id": "383763c3-f421-4824-aa48-b39465a6ff46"
  },
  {
    "id": "98338127-fe85-439d-9ee8-713e263c2c6b",
    "name": "Todaraisingh",
    "state_id": "383763c3-f421-4824-aa48-b39465a6ff46"
  },
  {
    "id": "f35cca14-4e1a-46a9-82d6-4bd0700e2685",
    "name": "Tonk",
    "state_id": "383763c3-f421-4824-aa48-b39465a6ff46"
  },
  {
    "id": "04f5b453-9c52-4b38-9f40-0064c713f2fb",
    "name": "Udaipur",
    "state_id": "383763c3-f421-4824-aa48-b39465a6ff46"
  },
  {
    "id": "c28a104e-636d-49d0-aff0-ff16373f3e2f",
    "name": "Udpura",
    "state_id": "383763c3-f421-4824-aa48-b39465a6ff46"
  },
  {
    "id": "1a73ff45-8c31-4393-abbc-5aebb65d9f16",
    "name": "Uniara",
    "state_id": "383763c3-f421-4824-aa48-b39465a6ff46"
  },
  {
    "id": "4af044d4-16a5-4c37-8333-4314ec28a14c",
    "name": "Wer",
    "state_id": "383763c3-f421-4824-aa48-b39465a6ff46"
  }
]