[
  {
    "id": "ca5b100d-f6c1-42a7-9dd5-286cfbbfde72",
    "name": "Abriola",
    "state_id": "39a741e1-01e4-4c34-833e-11d8dde666be"
  },
  {
    "id": "9df53c17-bfb7-42e9-95da-a617f3a49817",
    "name": "Accettura",
    "state_id": "39a741e1-01e4-4c34-833e-11d8dde666be"
  },
  {
    "id": "8d4c6ce4-5cd1-4756-b8a7-61778f18c609",
    "name": "Acerenza",
    "state_id": "39a741e1-01e4-4c34-833e-11d8dde666be"
  },
  {
    "id": "f2f8f713-410f-4db9-87b7-104bd5dbfc14",
    "name": "Albano di Lucania",
    "state_id": "39a741e1-01e4-4c34-833e-11d8dde666be"
  },
  {
    "id": "0b429f96-702e-4d40-963d-6548fd60e028",
    "name": "Aliano",
    "state_id": "39a741e1-01e4-4c34-833e-11d8dde666be"
  },
  {
    "id": "3613fdce-785d-4d6e-b315-1a9b85bbf076",
    "name": "Anzi",
    "state_id": "39a741e1-01e4-4c34-833e-11d8dde666be"
  },
  {
    "id": "a7e039e7-424a-4f78-b075-c9d54afe4fa9",
    "name": "Armento",
    "state_id": "39a741e1-01e4-4c34-833e-11d8dde666be"
  },
  {
    "id": "08f22b0a-9739-4ec3-97f1-96b7291ec126",
    "name": "Atella",
    "state_id": "39a741e1-01e4-4c34-833e-11d8dde666be"
  },
  {
    "id": "75d1a24f-c583-40ad-95c2-99b6d3758893",
    "name": "Avigliano",
    "state_id": "39a741e1-01e4-4c34-833e-11d8dde666be"
  },
  {
    "id": "ae5128d6-49f0-426c-a406-50102bb92483",
    "name": "Balvano",
    "state_id": "39a741e1-01e4-4c34-833e-11d8dde666be"
  },
  {
    "id": "bd47fa71-8ffe-4cf0-b418-69dc4dd1308d",
    "name": "Banzi",
    "state_id": "39a741e1-01e4-4c34-833e-11d8dde666be"
  },
  {
    "id": "3c06d2ad-c4a4-460a-9fef-d01e4e7c537f",
    "name": "Baragiano",
    "state_id": "39a741e1-01e4-4c34-833e-11d8dde666be"
  },
  {
    "id": "300a908b-1cad-4856-a0c2-31f347224baf",
    "name": "Barile",
    "state_id": "39a741e1-01e4-4c34-833e-11d8dde666be"
  },
  {
    "id": "97ea3de9-297c-42b9-bad0-a231648a03c8",
    "name": "Bella",
    "state_id": "39a741e1-01e4-4c34-833e-11d8dde666be"
  },
  {
    "id": "5f90722f-8933-4978-8979-25919d27c9ad",
    "name": "Bernalda",
    "state_id": "39a741e1-01e4-4c34-833e-11d8dde666be"
  },
  {
    "id": "fc43e5ec-c0fe-41f4-aa84-4ce720f2ab13",
    "name": "Brienza",
    "state_id": "39a741e1-01e4-4c34-833e-11d8dde666be"
  },
  {
    "id": "aa681348-dc4b-4007-98be-34e97f9ccffb",
    "name": "Brindisi Montagna",
    "state_id": "39a741e1-01e4-4c34-833e-11d8dde666be"
  },
  {
    "id": "8f3e83f2-c978-46ea-b221-90b4bc1b481a",
    "name": "Calciano",
    "state_id": "39a741e1-01e4-4c34-833e-11d8dde666be"
  },
  {
    "id": "5be78b53-20be-4e63-afc4-798443694ef2",
    "name": "Calvello",
    "state_id": "39a741e1-01e4-4c34-833e-11d8dde666be"
  },
  {
    "id": "5f4da62d-42c2-4b31-a184-95d510f5b2ad",
    "name": "Calvera",
    "state_id": "39a741e1-01e4-4c34-833e-11d8dde666be"
  },
  {
    "id": "7812be58-f383-4694-9105-038d5b2b88a8",
    "name": "Campomaggiore",
    "state_id": "39a741e1-01e4-4c34-833e-11d8dde666be"
  },
  {
    "id": "29d0f4fd-6e69-4824-8292-c11e1e63bab1",
    "name": "Cancellara",
    "state_id": "39a741e1-01e4-4c34-833e-11d8dde666be"
  },
  {
    "id": "59124207-cff1-4077-bcde-5a653d7c69bd",
    "name": "Carbone",
    "state_id": "39a741e1-01e4-4c34-833e-11d8dde666be"
  },
  {
    "id": "c7ad593b-4d22-44b3-9ee1-d94abd0de54e",
    "name": "Castelgrande",
    "state_id": "39a741e1-01e4-4c34-833e-11d8dde666be"
  },
  {
    "id": "fd73a9df-05a5-4fbe-b45f-d444ec0d7a8e",
    "name": "Castelluccio Inferiore",
    "state_id": "39a741e1-01e4-4c34-833e-11d8dde666be"
  },
  {
    "id": "7bf0eae7-b0cb-44be-9e69-176e8714de3e",
    "name": "Castelluccio Superiore",
    "state_id": "39a741e1-01e4-4c34-833e-11d8dde666be"
  },
  {
    "id": "a1da3362-353b-4ba3-8f47-6447e31290f3",
    "name": "Castelmezzano",
    "state_id": "39a741e1-01e4-4c34-833e-11d8dde666be"
  },
  {
    "id": "35149965-e1dd-477e-9831-ed6cdfa13043",
    "name": "Castelsaraceno",
    "state_id": "39a741e1-01e4-4c34-833e-11d8dde666be"
  },
  {
    "id": "2023f244-b032-45a0-84ea-db00fe62a3fa",
    "name": "Castronuovo di Sant'Andrea",
    "state_id": "39a741e1-01e4-4c34-833e-11d8dde666be"
  },
  {
    "id": "aecac7ae-b60a-4e6a-abfd-4ac8877c98b3",
    "name": "Cersosimo",
    "state_id": "39a741e1-01e4-4c34-833e-11d8dde666be"
  },
  {
    "id": "5f9c8dab-35fd-47eb-8766-f6a9aee91569",
    "name": "Chiaromonte",
    "state_id": "39a741e1-01e4-4c34-833e-11d8dde666be"
  },
  {
    "id": "90e846c4-7661-4c86-a302-0ddd08b3ca9a",
    "name": "Cirigliano",
    "state_id": "39a741e1-01e4-4c34-833e-11d8dde666be"
  },
  {
    "id": "6a6bd923-b556-43db-8ed0-88622140b6cd",
    "name": "Colobraro",
    "state_id": "39a741e1-01e4-4c34-833e-11d8dde666be"
  },
  {
    "id": "95ed656c-f08d-4d92-a5e5-460faca0c997",
    "name": "Corleto Perticara",
    "state_id": "39a741e1-01e4-4c34-833e-11d8dde666be"
  },
  {
    "id": "7e8490a2-fd1d-4616-aceb-1634ac551410",
    "name": "Craco-Sant'Angelo",
    "state_id": "39a741e1-01e4-4c34-833e-11d8dde666be"
  },
  {
    "id": "857e2894-6e5b-4192-981f-6bba689b7620",
    "name": "Episcopia",
    "state_id": "39a741e1-01e4-4c34-833e-11d8dde666be"
  },
  {
    "id": "2f748654-2f93-48be-aa91-8ecb3fc8cea4",
    "name": "Fardella",
    "state_id": "39a741e1-01e4-4c34-833e-11d8dde666be"
  },
  {
    "id": "b7a7e56d-4c77-428a-8c1d-59714a4ec856",
    "name": "Ferrandina",
    "state_id": "39a741e1-01e4-4c34-833e-11d8dde666be"
  },
  {
    "id": "ec88d8c3-d082-4524-90a0-bc12577828ba",
    "name": "Filiano",
    "state_id": "39a741e1-01e4-4c34-833e-11d8dde666be"
  },
  {
    "id": "6c3a86a1-8dc5-4fc5-ab88-c92b887cdc12",
    "name": "Forenza",
    "state_id": "39a741e1-01e4-4c34-833e-11d8dde666be"
  },
  {
    "id": "ba673531-3a3b-4623-9a0c-e94e53c3ef8a",
    "name": "Francavilla in Sinni",
    "state_id": "39a741e1-01e4-4c34-833e-11d8dde666be"
  },
  {
    "id": "089402f3-44b8-4937-9fdf-b618e082b768",
    "name": "Gallicchio",
    "state_id": "39a741e1-01e4-4c34-833e-11d8dde666be"
  },
  {
    "id": "7b97371e-2efb-42e9-af09-f99b41b79aad",
    "name": "Garaguso",
    "state_id": "39a741e1-01e4-4c34-833e-11d8dde666be"
  },
  {
    "id": "53d40dd5-eb7d-42d9-9cbf-4aa4efac9f50",
    "name": "Genzano di Lucania",
    "state_id": "39a741e1-01e4-4c34-833e-11d8dde666be"
  },
  {
    "id": "bff33c48-494f-4047-837e-0d5a7afda9c1",
    "name": "Ginestra",
    "state_id": "39a741e1-01e4-4c34-833e-11d8dde666be"
  },
  {
    "id": "a7ba6f53-e7c6-40e9-940b-290bb6d5d77d",
    "name": "Gorgoglione",
    "state_id": "39a741e1-01e4-4c34-833e-11d8dde666be"
  },
  {
    "id": "3bc9ca9e-9a97-4b5d-bcf7-981709f893b9",
    "name": "Grassano",
    "state_id": "39a741e1-01e4-4c34-833e-11d8dde666be"
  },
  {
    "id": "75d4c325-99df-4a5e-999c-2e025ac7005d",
    "name": "Grottole",
    "state_id": "39a741e1-01e4-4c34-833e-11d8dde666be"
  },
  {
    "id": "94bea627-aeab-4494-8e17-69364c151730",
    "name": "Grumento Nova",
    "state_id": "39a741e1-01e4-4c34-833e-11d8dde666be"
  },
  {
    "id": "9abdf6de-a636-40a6-841c-fe3c6823cc40",
    "name": "Guardia Perticara",
    "state_id": "39a741e1-01e4-4c34-833e-11d8dde666be"
  },
  {
    "id": "1bc2eb74-8922-41d0-aaac-4fc74485f246",
    "name": "Irsina",
    "state_id": "39a741e1-01e4-4c34-833e-11d8dde666be"
  },
  {
    "id": "6b365b96-f7e8-42cc-ac55-7c5bb579331d",
    "name": "La Martella",
    "state_id": "39a741e1-01e4-4c34-833e-11d8dde666be"
  },
  {
    "id": "c49b78da-85f2-46a8-b807-23bc20cf2124",
    "name": "Lagonegro",
    "state_id": "39a741e1-01e4-4c34-833e-11d8dde666be"
  },
  {
    "id": "e91c0960-4875-4e59-aad0-e74f5c67f118",
    "name": "Latronico",
    "state_id": "39a741e1-01e4-4c34-833e-11d8dde666be"
  },
  {
    "id": "34ce93b5-6f08-45fc-80fe-bd31c1a20029",
    "name": "Laurenzana",
    "state_id": "39a741e1-01e4-4c34-833e-11d8dde666be"
  },
  {
    "id": "96d8cc97-1727-46b7-aa43-c1c6b074c6e5",
    "name": "Lauria",
    "state_id": "39a741e1-01e4-4c34-833e-11d8dde666be"
  },
  {
    "id": "5fe08349-a7b3-40c9-ae95-ded7758b9a4d",
    "name": "Lavello",
    "state_id": "39a741e1-01e4-4c34-833e-11d8dde666be"
  },
  {
    "id": "1867611c-d705-4970-b76e-cfddbf0f7b26",
    "name": "Lido",
    "state_id": "39a741e1-01e4-4c34-833e-11d8dde666be"
  },
  {
    "id": "c6d5f82e-32b6-458e-89a2-ed7e83eb1d86",
    "name": "Maratea",
    "state_id": "39a741e1-01e4-4c34-833e-11d8dde666be"
  },
  {
    "id": "30bc029c-d528-4561-ac63-6fe9e5b2da77",
    "name": "Marconia",
    "state_id": "39a741e1-01e4-4c34-833e-11d8dde666be"
  },
  {
    "id": "3446fff6-a5ba-46bc-8eaf-5f5065564426",
    "name": "Marsico Nuovo",
    "state_id": "39a741e1-01e4-4c34-833e-11d8dde666be"
  },
  {
    "id": "9b67fa1b-bb16-4893-9532-b3b72b3b4217",
    "name": "Marsicovetere",
    "state_id": "39a741e1-01e4-4c34-833e-11d8dde666be"
  },
  {
    "id": "5af4682f-b280-461e-ac10-0922e7df075a",
    "name": "Maschito",
    "state_id": "39a741e1-01e4-4c34-833e-11d8dde666be"
  },
  {
    "id": "9358354f-7e11-4043-ba92-07399448954a",
    "name": "Matera",
    "state_id": "39a741e1-01e4-4c34-833e-11d8dde666be"
  },
  {
    "id": "6bf18d60-aa95-42dd-88cb-1e8f443a1677",
    "name": "Melfi",
    "state_id": "39a741e1-01e4-4c34-833e-11d8dde666be"
  },
  {
    "id": "d93fbb76-5d00-4558-88e9-88ee70b9b3cd",
    "name": "Miglionico",
    "state_id": "39a741e1-01e4-4c34-833e-11d8dde666be"
  },
  {
    "id": "4460529d-5cce-47e7-9bf3-0f66c3489799",
    "name": "Missanello",
    "state_id": "39a741e1-01e4-4c34-833e-11d8dde666be"
  },
  {
    "id": "8de49997-3135-48c0-b674-25790ff6e785",
    "name": "Moliterno",
    "state_id": "39a741e1-01e4-4c34-833e-11d8dde666be"
  },
  {
    "id": "b5ca63e3-d26d-45f3-b207-6f433303885c",
    "name": "Montalbano Jonico",
    "state_id": "39a741e1-01e4-4c34-833e-11d8dde666be"
  },
  {
    "id": "4b9e94ad-d49c-4945-858b-20e3939f16e8",
    "name": "Montemilone",
    "state_id": "39a741e1-01e4-4c34-833e-11d8dde666be"
  },
  {
    "id": "ff462ff1-e742-4ea3-a269-d66fa18c4cf6",
    "name": "Montemurro",
    "state_id": "39a741e1-01e4-4c34-833e-11d8dde666be"
  },
  {
    "id": "5752800f-f5fd-4495-a5c3-1e55fd2c4b15",
    "name": "Montescaglioso",
    "state_id": "39a741e1-01e4-4c34-833e-11d8dde666be"
  },
  {
    "id": "05e3c580-45e9-4ead-b8d7-9f436028ed74",
    "name": "Muro Lucano",
    "state_id": "39a741e1-01e4-4c34-833e-11d8dde666be"
  },
  {
    "id": "d1c62b52-799d-4a0f-a578-ad56017918a5",
    "name": "Nemoli",
    "state_id": "39a741e1-01e4-4c34-833e-11d8dde666be"
  },
  {
    "id": "a7ca1616-2a37-4621-89d9-8fedb661fb09",
    "name": "Noepoli",
    "state_id": "39a741e1-01e4-4c34-833e-11d8dde666be"
  },
  {
    "id": "6f03ba4c-50e2-4221-9689-7e5b895f9eb4",
    "name": "Nova Siri",
    "state_id": "39a741e1-01e4-4c34-833e-11d8dde666be"
  },
  {
    "id": "f1961aec-ffc7-4b07-ab2f-79931fe22fc1",
    "name": "Nova Siri Scalo",
    "state_id": "39a741e1-01e4-4c34-833e-11d8dde666be"
  },
  {
    "id": "7eab5184-8885-4f81-8dab-b5d46c491012",
    "name": "Oliveto Lucano",
    "state_id": "39a741e1-01e4-4c34-833e-11d8dde666be"
  },
  {
    "id": "a8bf5fa0-533a-4545-9954-277f1233330b",
    "name": "Oppido Lucano",
    "state_id": "39a741e1-01e4-4c34-833e-11d8dde666be"
  },
  {
    "id": "8430126a-f69c-4d68-8c2c-652a092b7b01",
    "name": "Palazzo San Gervasio",
    "state_id": "39a741e1-01e4-4c34-833e-11d8dde666be"
  },
  {
    "id": "d74921a1-bd14-4899-b7c7-8e6dacd111bc",
    "name": "Paterno",
    "state_id": "39a741e1-01e4-4c34-833e-11d8dde666be"
  },
  {
    "id": "b9d65ac2-dba7-44cf-acef-c0201ad8a963",
    "name": "Pescopagano",
    "state_id": "39a741e1-01e4-4c34-833e-11d8dde666be"
  },
  {
    "id": "1afac70b-8d25-42e9-90bc-a821bcba4172",
    "name": "Picerno",
    "state_id": "39a741e1-01e4-4c34-833e-11d8dde666be"
  },
  {
    "id": "a9cf315a-9ef4-4901-b201-7b5736b0735f",
    "name": "Pietragalla",
    "state_id": "39a741e1-01e4-4c34-833e-11d8dde666be"
  },
  {
    "id": "676011eb-33d6-40ef-8202-087a2c0279de",
    "name": "Pietrapertosa",
    "state_id": "39a741e1-01e4-4c34-833e-11d8dde666be"
  },
  {
    "id": "9c9bbbe2-6878-4b38-97a3-07db01cd18b8",
    "name": "Pignola",
    "state_id": "39a741e1-01e4-4c34-833e-11d8dde666be"
  },
  {
    "id": "612cec21-16db-487f-9409-090782b67fb2",
    "name": "Pisticci",
    "state_id": "39a741e1-01e4-4c34-833e-11d8dde666be"
  },
  {
    "id": "e93365e2-ab85-4325-9664-dda2e009e747",
    "name": "Policoro",
    "state_id": "39a741e1-01e4-4c34-833e-11d8dde666be"
  },
  {
    "id": "bde9a4ed-3b40-40de-8704-8913e4397ea9",
    "name": "Pomarico",
    "state_id": "39a741e1-01e4-4c34-833e-11d8dde666be"
  },
  {
    "id": "6d1d0637-f1fe-4596-8211-8f8fe0ff0d41",
    "name": "Potenza",
    "state_id": "39a741e1-01e4-4c34-833e-11d8dde666be"
  },
  {
    "id": "09f6d06b-bac0-4b72-9667-e05f883e4cca",
    "name": "Provincia di Matera",
    "state_id": "39a741e1-01e4-4c34-833e-11d8dde666be"
  },
  {
    "id": "a2385ce4-23f3-4713-902c-12306935976b",
    "name": "Provincia di Potenza",
    "state_id": "39a741e1-01e4-4c34-833e-11d8dde666be"
  },
  {
    "id": "571e77ad-f9a0-4580-928b-e6f82230c0b4",
    "name": "Rapolla",
    "state_id": "39a741e1-01e4-4c34-833e-11d8dde666be"
  },
  {
    "id": "73c272fc-282e-4438-8690-6d68452f6fac",
    "name": "Rapone",
    "state_id": "39a741e1-01e4-4c34-833e-11d8dde666be"
  },
  {
    "id": "56cc0f0f-d21b-4ebb-a181-2654ff211061",
    "name": "Rionero in Vulture",
    "state_id": "39a741e1-01e4-4c34-833e-11d8dde666be"
  },
  {
    "id": "8bfc0688-a653-47cd-921a-ad78bab4fdde",
    "name": "Ripacandida",
    "state_id": "39a741e1-01e4-4c34-833e-11d8dde666be"
  },
  {
    "id": "a66b0381-2f92-4fc0-aaab-c5adc89fdd0d",
    "name": "Rivello",
    "state_id": "39a741e1-01e4-4c34-833e-11d8dde666be"
  },
  {
    "id": "e229a232-51e1-4b39-a350-76daa89f4532",
    "name": "Roccanova",
    "state_id": "39a741e1-01e4-4c34-833e-11d8dde666be"
  },
  {
    "id": "418ab5e8-092a-4d2f-b34f-120fefa2623a",
    "name": "Rotonda",
    "state_id": "39a741e1-01e4-4c34-833e-11d8dde666be"
  },
  {
    "id": "6cf704dd-2562-4459-bbeb-fc5a7125eded",
    "name": "Rotondella",
    "state_id": "39a741e1-01e4-4c34-833e-11d8dde666be"
  },
  {
    "id": "12f618f5-4ad1-4f8a-b76d-7dfabbcfd0ad",
    "name": "Ruoti",
    "state_id": "39a741e1-01e4-4c34-833e-11d8dde666be"
  },
  {
    "id": "1e79c6f4-99d7-48d4-869c-ad9b03b3744d",
    "name": "Ruvo del Monte",
    "state_id": "39a741e1-01e4-4c34-833e-11d8dde666be"
  },
  {
    "id": "25c500d2-62e7-44ac-80a8-eb41d001a0b9",
    "name": "Salandra",
    "state_id": "39a741e1-01e4-4c34-833e-11d8dde666be"
  },
  {
    "id": "e05c73e3-e69b-420a-9c38-1cffc15a9c3e",
    "name": "San Brancato",
    "state_id": "39a741e1-01e4-4c34-833e-11d8dde666be"
  },
  {
    "id": "8c6c8cd2-4c51-4703-882a-c9f666fcfc6f",
    "name": "San Chirico Nuovo",
    "state_id": "39a741e1-01e4-4c34-833e-11d8dde666be"
  },
  {
    "id": "9dfc2836-40da-4691-baac-a272a60567dc",
    "name": "San Chirico Raparo",
    "state_id": "39a741e1-01e4-4c34-833e-11d8dde666be"
  },
  {
    "id": "47146741-2127-49a4-b900-f4f818d420a9",
    "name": "San Costantino Albanese",
    "state_id": "39a741e1-01e4-4c34-833e-11d8dde666be"
  },
  {
    "id": "f4e83771-6510-45ec-b545-8a04b3f7b5bf",
    "name": "San Fele",
    "state_id": "39a741e1-01e4-4c34-833e-11d8dde666be"
  },
  {
    "id": "3ba01810-960d-48f4-a1e8-141c74bc10bc",
    "name": "San Giorgio Lucano",
    "state_id": "39a741e1-01e4-4c34-833e-11d8dde666be"
  },
  {
    "id": "255b6346-01b0-4631-a6ce-7a089c170453",
    "name": "San Martino d'Agri",
    "state_id": "39a741e1-01e4-4c34-833e-11d8dde666be"
  },
  {
    "id": "d0577fc7-a6bc-41a3-9234-c02a80c57d19",
    "name": "San Mauro Forte",
    "state_id": "39a741e1-01e4-4c34-833e-11d8dde666be"
  },
  {
    "id": "23de47dd-dc4c-49b3-a106-4791372f48dc",
    "name": "San Paolo Albanese",
    "state_id": "39a741e1-01e4-4c34-833e-11d8dde666be"
  },
  {
    "id": "57e37b8a-bc12-452d-9be1-a25eccf3064b",
    "name": "San Severino Lucano",
    "state_id": "39a741e1-01e4-4c34-833e-11d8dde666be"
  },
  {
    "id": "185005d8-4bf2-46fa-8e98-dd21a3306f28",
    "name": "Sant'Angelo le Fratte",
    "state_id": "39a741e1-01e4-4c34-833e-11d8dde666be"
  },
  {
    "id": "3a26455a-ef39-4a71-8a09-9176e8679b25",
    "name": "Sant'Arcangelo",
    "state_id": "39a741e1-01e4-4c34-833e-11d8dde666be"
  },
  {
    "id": "c4679ab3-6fb9-46d4-ae69-33c4e5579cd9",
    "name": "Sarconi",
    "state_id": "39a741e1-01e4-4c34-833e-11d8dde666be"
  },
  {
    "id": "36dad1c1-e250-4559-8bcc-fbddb4a4e277",
    "name": "Sasso di Castalda",
    "state_id": "39a741e1-01e4-4c34-833e-11d8dde666be"
  },
  {
    "id": "5105b5c0-f1ab-4ddf-9054-2e316cdc58a3",
    "name": "Satriano di Lucania",
    "state_id": "39a741e1-01e4-4c34-833e-11d8dde666be"
  },
  {
    "id": "e2cd82c1-3893-44e6-ba2c-be29a402c6ba",
    "name": "Savoia di Lucania",
    "state_id": "39a741e1-01e4-4c34-833e-11d8dde666be"
  },
  {
    "id": "34c1f1ec-2d82-4da0-a461-89e7b8859241",
    "name": "Scalo di Baragiano",
    "state_id": "39a741e1-01e4-4c34-833e-11d8dde666be"
  },
  {
    "id": "091a3b52-9077-4a3f-9afb-bff7fa36d7f0",
    "name": "Scanzano Jonico",
    "state_id": "39a741e1-01e4-4c34-833e-11d8dde666be"
  },
  {
    "id": "b8fceb87-521d-448c-9694-d0f5d23cb625",
    "name": "Senise",
    "state_id": "39a741e1-01e4-4c34-833e-11d8dde666be"
  },
  {
    "id": "f3a1e489-18df-476d-950f-47829cc97fb5",
    "name": "Spinoso",
    "state_id": "39a741e1-01e4-4c34-833e-11d8dde666be"
  },
  {
    "id": "50a9f70d-813f-484b-9fea-a0ec7ecdada6",
    "name": "Stigliano",
    "state_id": "39a741e1-01e4-4c34-833e-11d8dde666be"
  },
  {
    "id": "4f187568-87e9-4e9b-a4e9-90724a72df8b",
    "name": "Teana",
    "state_id": "39a741e1-01e4-4c34-833e-11d8dde666be"
  },
  {
    "id": "be5cc483-8457-401b-ab94-7a46c43a060f",
    "name": "Terranova di Pollino",
    "state_id": "39a741e1-01e4-4c34-833e-11d8dde666be"
  },
  {
    "id": "2b5e47de-08a3-4e9e-bead-80860edb497e",
    "name": "Tito",
    "state_id": "39a741e1-01e4-4c34-833e-11d8dde666be"
  },
  {
    "id": "0ca4e025-8da9-4a4b-8de3-3e14eee9079c",
    "name": "Tolve",
    "state_id": "39a741e1-01e4-4c34-833e-11d8dde666be"
  },
  {
    "id": "33881d24-b9be-4213-ad32-4de1fd85a918",
    "name": "Tramutola",
    "state_id": "39a741e1-01e4-4c34-833e-11d8dde666be"
  },
  {
    "id": "5453daad-009f-474d-b421-67d3157ac8e5",
    "name": "Trecchina",
    "state_id": "39a741e1-01e4-4c34-833e-11d8dde666be"
  },
  {
    "id": "19e59e6f-184e-45c8-bc7c-770e76ae45ae",
    "name": "Tricarico",
    "state_id": "39a741e1-01e4-4c34-833e-11d8dde666be"
  },
  {
    "id": "91ffbc0e-c98d-4d53-82c5-2828cfc08413",
    "name": "Trivigno",
    "state_id": "39a741e1-01e4-4c34-833e-11d8dde666be"
  },
  {
    "id": "5201cba7-8b88-4c78-b4d7-095749516384",
    "name": "Tursi",
    "state_id": "39a741e1-01e4-4c34-833e-11d8dde666be"
  },
  {
    "id": "17416c0b-4a08-49dd-9679-26717111b512",
    "name": "Vaglio Basilicata",
    "state_id": "39a741e1-01e4-4c34-833e-11d8dde666be"
  },
  {
    "id": "86dc15af-8fc2-497c-a440-dcf2ab42de25",
    "name": "Valsinni",
    "state_id": "39a741e1-01e4-4c34-833e-11d8dde666be"
  },
  {
    "id": "85a56a8f-f5be-46f5-839d-7a9bf4016add",
    "name": "Venosa",
    "state_id": "39a741e1-01e4-4c34-833e-11d8dde666be"
  },
  {
    "id": "d7a293d2-5dd5-4122-85d8-d694ba1320ec",
    "name": "Vietri di Potenza",
    "state_id": "39a741e1-01e4-4c34-833e-11d8dde666be"
  },
  {
    "id": "dc2b27ee-8872-46a3-8c8c-d0f8c68f4597",
    "name": "Viggianello",
    "state_id": "39a741e1-01e4-4c34-833e-11d8dde666be"
  },
  {
    "id": "6ff99f32-05d5-47ea-aeef-d277233a1283",
    "name": "Viggiano",
    "state_id": "39a741e1-01e4-4c34-833e-11d8dde666be"
  },
  {
    "id": "3895fccc-abd7-4d0f-a234-e96fb49cf1bc",
    "name": "Villa d'Agri",
    "state_id": "39a741e1-01e4-4c34-833e-11d8dde666be"
  },
  {
    "id": "50c6b146-de7d-4bc4-b21d-9978554e96f9",
    "name": "Zona 179",
    "state_id": "39a741e1-01e4-4c34-833e-11d8dde666be"
  }
]