[
  {
    "id": "6f3d3786-5314-4441-8b75-0a8b28647277",
    "name": "Abrikosovka",
    "state_id": "39ce410b-b630-4b07-a9d0-c9cbfb3ad7c1"
  },
  {
    "id": "454e2c6c-8740-4238-9e86-0d7f2eefdd23",
    "name": "Abrikosovo",
    "state_id": "39ce410b-b630-4b07-a9d0-c9cbfb3ad7c1"
  },
  {
    "id": "9a2fbc52-a26b-4ada-872e-78ec29d448d4",
    "name": "Aeroflotskiy",
    "state_id": "39ce410b-b630-4b07-a9d0-c9cbfb3ad7c1"
  },
  {
    "id": "907ce83e-dc1a-4d3f-b44c-a497f6a8f82f",
    "name": "Agrarnoye",
    "state_id": "39ce410b-b630-4b07-a9d0-c9cbfb3ad7c1"
  },
  {
    "id": "0cc93eb7-855b-486e-8661-f2b888c825d2",
    "name": "Akimovka",
    "state_id": "39ce410b-b630-4b07-a9d0-c9cbfb3ad7c1"
  },
  {
    "id": "8c1de582-0519-4d39-8e5b-7c2830e5c3a0",
    "name": "Aleksandrovka",
    "state_id": "39ce410b-b630-4b07-a9d0-c9cbfb3ad7c1"
  },
  {
    "id": "a2954cf4-206f-4284-aa0f-3204537736f9",
    "name": "Alekseyevka",
    "state_id": "39ce410b-b630-4b07-a9d0-c9cbfb3ad7c1"
  },
  {
    "id": "712219db-e13c-47e6-aff6-f1555f3efee9",
    "name": "Alupka",
    "state_id": "39ce410b-b630-4b07-a9d0-c9cbfb3ad7c1"
  },
  {
    "id": "3d4239a9-45a2-4cf0-a283-5acb48d181ba",
    "name": "Alushta",
    "state_id": "39ce410b-b630-4b07-a9d0-c9cbfb3ad7c1"
  },
  {
    "id": "935c1941-1446-42c6-8e48-34d9bb61139e",
    "name": "Amurskoye",
    "state_id": "39ce410b-b630-4b07-a9d0-c9cbfb3ad7c1"
  },
  {
    "id": "5eb4fdd8-c477-44ba-aab5-18381be948cc",
    "name": "Armyansk",
    "state_id": "39ce410b-b630-4b07-a9d0-c9cbfb3ad7c1"
  },
  {
    "id": "a9d82a6f-bcb0-48d6-ae46-194582de92f5",
    "name": "Aromatnoye",
    "state_id": "39ce410b-b630-4b07-a9d0-c9cbfb3ad7c1"
  },
  {
    "id": "afe955ac-1afe-44ab-b064-21849dc8faa6",
    "name": "Azovskoye",
    "state_id": "39ce410b-b630-4b07-a9d0-c9cbfb3ad7c1"
  },
  {
    "id": "0e13cf11-f869-4cca-9d83-f8f61a3c89b3",
    "name": "Baherove",
    "state_id": "39ce410b-b630-4b07-a9d0-c9cbfb3ad7c1"
  },
  {
    "id": "231cf827-85ad-47c1-871e-803e83cc4700",
    "name": "Bakhchysarai",
    "state_id": "39ce410b-b630-4b07-a9d0-c9cbfb3ad7c1"
  },
  {
    "id": "b86a90a8-4b49-4560-b330-e79ae3d8833a",
    "name": "Bakhchysarai Raion",
    "state_id": "39ce410b-b630-4b07-a9d0-c9cbfb3ad7c1"
  },
  {
    "id": "43cc1f30-4c17-4e26-affc-8e2a4a7a681a",
    "name": "Batal’noye",
    "state_id": "39ce410b-b630-4b07-a9d0-c9cbfb3ad7c1"
  },
  {
    "id": "f495a8c6-9a11-4d49-82b1-be22a0a0ba9b",
    "name": "Belinskoye",
    "state_id": "39ce410b-b630-4b07-a9d0-c9cbfb3ad7c1"
  },
  {
    "id": "fc130106-e6ea-49d3-a9c0-86beaac97e9e",
    "name": "Beloglinka",
    "state_id": "39ce410b-b630-4b07-a9d0-c9cbfb3ad7c1"
  },
  {
    "id": "6b106b9f-370b-4b5d-9ffe-3a94688ac4f7",
    "name": "Belogorskiy rayon",
    "state_id": "39ce410b-b630-4b07-a9d0-c9cbfb3ad7c1"
  },
  {
    "id": "56305227-b7df-44ab-8d55-944c674af9be",
    "name": "Beregovoye",
    "state_id": "39ce410b-b630-4b07-a9d0-c9cbfb3ad7c1"
  },
  {
    "id": "9831a85f-e8c6-4c08-80dd-4af441a8b04f",
    "name": "Berezovka",
    "state_id": "39ce410b-b630-4b07-a9d0-c9cbfb3ad7c1"
  },
  {
    "id": "b545a404-3ec3-41de-b203-703d9b9c6eec",
    "name": "Bilohirsk",
    "state_id": "39ce410b-b630-4b07-a9d0-c9cbfb3ad7c1"
  },
  {
    "id": "548b3818-cee4-4977-abbd-fb54c43b715c",
    "name": "Blizhneye",
    "state_id": "39ce410b-b630-4b07-a9d0-c9cbfb3ad7c1"
  },
  {
    "id": "deea5de6-d80b-4b49-aa27-5e737a2ab2f0",
    "name": "Bogatoye",
    "state_id": "39ce410b-b630-4b07-a9d0-c9cbfb3ad7c1"
  },
  {
    "id": "114657d5-f6de-4ff6-bd84-a1adc5ae488d",
    "name": "Botanicheskoye",
    "state_id": "39ce410b-b630-4b07-a9d0-c9cbfb3ad7c1"
  },
  {
    "id": "a2b86917-4fa4-4c4f-8509-df22431bb68a",
    "name": "Bratskoye",
    "state_id": "39ce410b-b630-4b07-a9d0-c9cbfb3ad7c1"
  },
  {
    "id": "a5321dfc-ef1c-497e-8117-026c356cedeb",
    "name": "Chapayevka",
    "state_id": "39ce410b-b630-4b07-a9d0-c9cbfb3ad7c1"
  },
  {
    "id": "4deea8d7-b979-44ad-990f-0eed1ca8c1a3",
    "name": "Chaykino",
    "state_id": "39ce410b-b630-4b07-a9d0-c9cbfb3ad7c1"
  },
  {
    "id": "19917d86-5bb7-4e41-bce4-b69f30ebc653",
    "name": "Chelyadinovo",
    "state_id": "39ce410b-b630-4b07-a9d0-c9cbfb3ad7c1"
  },
  {
    "id": "19027488-830e-4645-8c0d-d4360236534b",
    "name": "Chernomorskiy rayon",
    "state_id": "39ce410b-b630-4b07-a9d0-c9cbfb3ad7c1"
  },
  {
    "id": "d6bdc33b-f63d-4533-9314-2644e0603032",
    "name": "Chernomorskoye",
    "state_id": "39ce410b-b630-4b07-a9d0-c9cbfb3ad7c1"
  },
  {
    "id": "c09240c3-0587-47d1-9479-6d87d2a376d4",
    "name": "Chernopolye",
    "state_id": "39ce410b-b630-4b07-a9d0-c9cbfb3ad7c1"
  },
  {
    "id": "9f583f2f-116e-4659-8e93-9e7dae533a27",
    "name": "Chernovo",
    "state_id": "39ce410b-b630-4b07-a9d0-c9cbfb3ad7c1"
  },
  {
    "id": "40e5cf62-05c1-4c6f-8be7-86af83cc3c19",
    "name": "Chernozemnoye",
    "state_id": "39ce410b-b630-4b07-a9d0-c9cbfb3ad7c1"
  },
  {
    "id": "fa95aaf0-d8f1-429b-8f23-90fba900e77b",
    "name": "Chernyshevo",
    "state_id": "39ce410b-b630-4b07-a9d0-c9cbfb3ad7c1"
  },
  {
    "id": "8003809e-1012-45b0-b770-016dd9e4a61e",
    "name": "Chervonoye",
    "state_id": "39ce410b-b630-4b07-a9d0-c9cbfb3ad7c1"
  },
  {
    "id": "df563d40-9cff-4cdf-8008-084f41cd658e",
    "name": "Chisten’koye",
    "state_id": "39ce410b-b630-4b07-a9d0-c9cbfb3ad7c1"
  },
  {
    "id": "13cc8aaf-4af0-4e8d-983d-6be31b8b0b9e",
    "name": "Chistopolye",
    "state_id": "39ce410b-b630-4b07-a9d0-c9cbfb3ad7c1"
  },
  {
    "id": "d7b6b785-3fee-4872-b7d2-4b861c62e423",
    "name": "Chkalovo",
    "state_id": "39ce410b-b630-4b07-a9d0-c9cbfb3ad7c1"
  },
  {
    "id": "d9fa0791-7399-40c9-a245-a69cc51f9888",
    "name": "Dachnoye",
    "state_id": "39ce410b-b630-4b07-a9d0-c9cbfb3ad7c1"
  },
  {
    "id": "fc97d0f7-727b-496c-a69a-6d53cbf8df4b",
    "name": "Dalekoye",
    "state_id": "39ce410b-b630-4b07-a9d0-c9cbfb3ad7c1"
  },
  {
    "id": "87c9e2a1-a81d-4e6c-8982-3ed0d8907872",
    "name": "Dmitrovka",
    "state_id": "39ce410b-b630-4b07-a9d0-c9cbfb3ad7c1"
  },
  {
    "id": "3856ba2d-0c02-469b-83ba-749932634aee",
    "name": "Dneprovka",
    "state_id": "39ce410b-b630-4b07-a9d0-c9cbfb3ad7c1"
  },
  {
    "id": "17214cdd-adc2-4c01-8be8-107fc7082d52",
    "name": "Dobroye",
    "state_id": "39ce410b-b630-4b07-a9d0-c9cbfb3ad7c1"
  },
  {
    "id": "703305a2-cd04-4bab-93ed-623e5563ac28",
    "name": "Dobrushino",
    "state_id": "39ce410b-b630-4b07-a9d0-c9cbfb3ad7c1"
  },
  {
    "id": "012a6c59-6e50-413b-b2ea-3e3081b3263a",
    "name": "Dolinnoye",
    "state_id": "39ce410b-b630-4b07-a9d0-c9cbfb3ad7c1"
  },
  {
    "id": "37a727e5-1e66-493a-af54-888e47735612",
    "name": "Donskoye",
    "state_id": "39ce410b-b630-4b07-a9d0-c9cbfb3ad7c1"
  },
  {
    "id": "f889d445-6d7c-4c7e-baa1-ac5bc7b2ee15",
    "name": "Drofino",
    "state_id": "39ce410b-b630-4b07-a9d0-c9cbfb3ad7c1"
  },
  {
    "id": "036a9ce0-146b-4b7b-a6c6-720b68b5748b",
    "name": "Dubki",
    "state_id": "39ce410b-b630-4b07-a9d0-c9cbfb3ad7c1"
  },
  {
    "id": "9bd072c9-b0ef-4bff-ace0-630a6a4c1d96",
    "name": "Dzhankoy",
    "state_id": "39ce410b-b630-4b07-a9d0-c9cbfb3ad7c1"
  },
  {
    "id": "68ba0fc1-94cd-4363-85df-71621464b0b6",
    "name": "Dzhankoyskiy rayon",
    "state_id": "39ce410b-b630-4b07-a9d0-c9cbfb3ad7c1"
  },
  {
    "id": "078c484b-2980-4d41-9a15-3c7e22832eba",
    "name": "Feodosiya",
    "state_id": "39ce410b-b630-4b07-a9d0-c9cbfb3ad7c1"
  },
  {
    "id": "3563375a-81a3-4ac8-9718-4feca65f62b0",
    "name": "Filatovka",
    "state_id": "39ce410b-b630-4b07-a9d0-c9cbfb3ad7c1"
  },
  {
    "id": "3c250b51-d45d-4d05-9964-e5fc093bf624",
    "name": "Fontany",
    "state_id": "39ce410b-b630-4b07-a9d0-c9cbfb3ad7c1"
  },
  {
    "id": "1c040cf0-0bb7-4589-b2b4-fbac1d8bd06c",
    "name": "Foros",
    "state_id": "39ce410b-b630-4b07-a9d0-c9cbfb3ad7c1"
  },
  {
    "id": "2f475bca-dca9-430f-abd6-67ca3f6a202f",
    "name": "Frunze",
    "state_id": "39ce410b-b630-4b07-a9d0-c9cbfb3ad7c1"
  },
  {
    "id": "3e1a20bd-f1a9-4b10-bc14-4c6278391744",
    "name": "Gaspra",
    "state_id": "39ce410b-b630-4b07-a9d0-c9cbfb3ad7c1"
  },
  {
    "id": "698b7f3e-f6d6-4bf2-92f3-12f51f3767cd",
    "name": "Geroyskoye",
    "state_id": "39ce410b-b630-4b07-a9d0-c9cbfb3ad7c1"
  },
  {
    "id": "6e22b5ed-a53d-4e01-83ac-3a7e5197ff78",
    "name": "Glazovka",
    "state_id": "39ce410b-b630-4b07-a9d0-c9cbfb3ad7c1"
  },
  {
    "id": "5810a26d-cae7-4cb8-9df9-db803b8a2a92",
    "name": "Golubinka",
    "state_id": "39ce410b-b630-4b07-a9d0-c9cbfb3ad7c1"
  },
  {
    "id": "bf7b869a-daa6-4fed-bb5e-d156820f77c0",
    "name": "Gornostayevka",
    "state_id": "39ce410b-b630-4b07-a9d0-c9cbfb3ad7c1"
  },
  {
    "id": "9c826932-9bf1-43e2-aa78-70a6bd417d6f",
    "name": "Gorodskoy okrug Alushta",
    "state_id": "39ce410b-b630-4b07-a9d0-c9cbfb3ad7c1"
  },
  {
    "id": "41f1a18c-8d7d-4d40-9a8d-d6448104cef5",
    "name": "Gorodskoy okrug Armyansk",
    "state_id": "39ce410b-b630-4b07-a9d0-c9cbfb3ad7c1"
  },
  {
    "id": "2bdb5e7c-eec0-4493-9f15-1a412c4a355c",
    "name": "Gorodskoy okrug Dzhankoy",
    "state_id": "39ce410b-b630-4b07-a9d0-c9cbfb3ad7c1"
  },
  {
    "id": "7d760f17-7230-4524-9c4e-86c1a0ecb460",
    "name": "Gorodskoy okrug Feodosiya",
    "state_id": "39ce410b-b630-4b07-a9d0-c9cbfb3ad7c1"
  },
  {
    "id": "7261414f-2e9e-42c3-8112-cccb45157272",
    "name": "Gorodskoy okrug Krasnoperekopsk",
    "state_id": "39ce410b-b630-4b07-a9d0-c9cbfb3ad7c1"
  },
  {
    "id": "1fd93902-fa18-485c-b774-574d2276cf09",
    "name": "Gorodskoy okrug Saki",
    "state_id": "39ce410b-b630-4b07-a9d0-c9cbfb3ad7c1"
  },
  {
    "id": "e4790451-218e-464e-9e98-3eac14741e22",
    "name": "Gorodskoy okrug Simferopol",
    "state_id": "39ce410b-b630-4b07-a9d0-c9cbfb3ad7c1"
  },
  {
    "id": "44b87fb8-d9e2-41a6-996f-aedb7e5093e9",
    "name": "Gorodskoy okrug Sudak",
    "state_id": "39ce410b-b630-4b07-a9d0-c9cbfb3ad7c1"
  },
  {
    "id": "58f73592-dcb9-40ba-989e-12acd0014980",
    "name": "Gorodskoy okrug Yalta",
    "state_id": "39ce410b-b630-4b07-a9d0-c9cbfb3ad7c1"
  },
  {
    "id": "567b225d-33ad-4601-85d9-1ff5569e3649",
    "name": "Gorodskoy okrug Yevpatoriya",
    "state_id": "39ce410b-b630-4b07-a9d0-c9cbfb3ad7c1"
  },
  {
    "id": "8af98b1a-8610-47d3-8881-f0b8901b6c17",
    "name": "Gresovskiy",
    "state_id": "39ce410b-b630-4b07-a9d0-c9cbfb3ad7c1"
  },
  {
    "id": "a19407d3-eda5-480a-b48f-f1fa9d554c24",
    "name": "Grishino",
    "state_id": "39ce410b-b630-4b07-a9d0-c9cbfb3ad7c1"
  },
  {
    "id": "4249f388-ed1c-479d-ae60-b49ae5e80c04",
    "name": "Grushevka",
    "state_id": "39ce410b-b630-4b07-a9d0-c9cbfb3ad7c1"
  },
  {
    "id": "a062baf5-a104-49d5-b272-f7be5a0e2386",
    "name": "Gurzuf",
    "state_id": "39ce410b-b630-4b07-a9d0-c9cbfb3ad7c1"
  },
  {
    "id": "022c8ec1-cdea-4178-a27f-aa6a2df4b49c",
    "name": "Hvardiiske",
    "state_id": "39ce410b-b630-4b07-a9d0-c9cbfb3ad7c1"
  },
  {
    "id": "3db5f673-4139-46f9-b918-e6d433a0fec1",
    "name": "Ilychyovo",
    "state_id": "39ce410b-b630-4b07-a9d0-c9cbfb3ad7c1"
  },
  {
    "id": "9aa68469-c54f-4fcd-bba0-b59216839e6d",
    "name": "Ilyichevo",
    "state_id": "39ce410b-b630-4b07-a9d0-c9cbfb3ad7c1"
  },
  {
    "id": "f7639086-a8a3-4ce1-9a01-0bc2a911d36f",
    "name": "Ilyinka",
    "state_id": "39ce410b-b630-4b07-a9d0-c9cbfb3ad7c1"
  },
  {
    "id": "2a831a22-e50f-43d7-990b-488792b011bc",
    "name": "Ishun’",
    "state_id": "39ce410b-b630-4b07-a9d0-c9cbfb3ad7c1"
  },
  {
    "id": "a47c2d0c-2280-4261-8227-8eb9dc73f24c",
    "name": "Ivanovka",
    "state_id": "39ce410b-b630-4b07-a9d0-c9cbfb3ad7c1"
  },
  {
    "id": "513ffefe-b189-4c62-8a79-e83f20c9f35c",
    "name": "Izobil’noye",
    "state_id": "39ce410b-b630-4b07-a9d0-c9cbfb3ad7c1"
  },
  {
    "id": "0e5d70f1-fa09-4909-bdc9-055490d3a6fc",
    "name": "Izumrudnoye",
    "state_id": "39ce410b-b630-4b07-a9d0-c9cbfb3ad7c1"
  },
  {
    "id": "ff846edb-15da-4930-89a7-3e44f1a2557c",
    "name": "Izyumovka",
    "state_id": "39ce410b-b630-4b07-a9d0-c9cbfb3ad7c1"
  },
  {
    "id": "1ba1a7ed-1a25-46d7-b416-98b627b2cad9",
    "name": "Kalinino",
    "state_id": "39ce410b-b630-4b07-a9d0-c9cbfb3ad7c1"
  },
  {
    "id": "a5819ca3-e6b6-4143-8d3e-b5adff968db8",
    "name": "Kalinovka",
    "state_id": "39ce410b-b630-4b07-a9d0-c9cbfb3ad7c1"
  },
  {
    "id": "0a26f975-fd5b-4f68-9b35-6fdef2bf16d8",
    "name": "Kamenolomnya",
    "state_id": "39ce410b-b630-4b07-a9d0-c9cbfb3ad7c1"
  },
  {
    "id": "a7743fe0-8e74-408d-b3ce-664c0ff7d630",
    "name": "Kashtanovoye",
    "state_id": "39ce410b-b630-4b07-a9d0-c9cbfb3ad7c1"
  },
  {
    "id": "5595e5a0-550f-4de7-85d5-edca8a368be4",
    "name": "Kashtany",
    "state_id": "39ce410b-b630-4b07-a9d0-c9cbfb3ad7c1"
  },
  {
    "id": "67effacf-fd35-4b64-a634-a874af099cac",
    "name": "Kerch",
    "state_id": "39ce410b-b630-4b07-a9d0-c9cbfb3ad7c1"
  },
  {
    "id": "9c63a671-b4a5-4ac7-b139-324f1097b090",
    "name": "Kerchens'ka Mis'ka Rada",
    "state_id": "39ce410b-b630-4b07-a9d0-c9cbfb3ad7c1"
  },
  {
    "id": "67bdd71d-5325-4a02-86df-24f88f08a3c2",
    "name": "Kholmovka",
    "state_id": "39ce410b-b630-4b07-a9d0-c9cbfb3ad7c1"
  },
  {
    "id": "0767e616-430f-4725-8804-f6a30df5f50c",
    "name": "Kirovo",
    "state_id": "39ce410b-b630-4b07-a9d0-c9cbfb3ad7c1"
  },
  {
    "id": "f8ada391-f722-447a-800f-7a5b0ee0a68c",
    "name": "Kirovske Raion",
    "state_id": "39ce410b-b630-4b07-a9d0-c9cbfb3ad7c1"
  },
  {
    "id": "adeac62b-faa4-4e7b-9480-6b8ff29e293b",
    "name": "Kirovskoye",
    "state_id": "39ce410b-b630-4b07-a9d0-c9cbfb3ad7c1"
  },
  {
    "id": "ae11c1fd-73b3-449c-be14-bb129cb3d8fe",
    "name": "Klepinino",
    "state_id": "39ce410b-b630-4b07-a9d0-c9cbfb3ad7c1"
  },
  {
    "id": "30caaa7f-2e41-4736-b08e-5b4b002bf652",
    "name": "Koktebel",
    "state_id": "39ce410b-b630-4b07-a9d0-c9cbfb3ad7c1"
  },
  {
    "id": "1dbba847-2463-4c51-90ef-e969d1a09bf3",
    "name": "Kol’chugino",
    "state_id": "39ce410b-b630-4b07-a9d0-c9cbfb3ad7c1"
  },
  {
    "id": "48d9ca5f-5098-430a-8bfa-5d8e9969512a",
    "name": "Kol’tsovo",
    "state_id": "39ce410b-b630-4b07-a9d0-c9cbfb3ad7c1"
  },
  {
    "id": "2c712125-f240-41a2-aa5c-1a343fd4fcc9",
    "name": "Kolodeznoye",
    "state_id": "39ce410b-b630-4b07-a9d0-c9cbfb3ad7c1"
  },
  {
    "id": "4d883d06-aace-4c39-8ab1-a99ca3fec6ce",
    "name": "Koloski",
    "state_id": "39ce410b-b630-4b07-a9d0-c9cbfb3ad7c1"
  },
  {
    "id": "e43bfdb8-6541-4cbb-a31c-4341f1b30209",
    "name": "Komsomol’skoye",
    "state_id": "39ce410b-b630-4b07-a9d0-c9cbfb3ad7c1"
  },
  {
    "id": "3fbc25f6-2c53-4f87-a3d6-725d196fe60e",
    "name": "Kondratyevo",
    "state_id": "39ce410b-b630-4b07-a9d0-c9cbfb3ad7c1"
  },
  {
    "id": "2075cd39-662d-4066-a837-a6a842ace3ea",
    "name": "Konstantinovka",
    "state_id": "39ce410b-b630-4b07-a9d0-c9cbfb3ad7c1"
  },
  {
    "id": "32abc9c5-eeb5-4d37-a3ab-7e93b7b9dc4e",
    "name": "Koreiz",
    "state_id": "39ce410b-b630-4b07-a9d0-c9cbfb3ad7c1"
  },
  {
    "id": "1e326a41-ae78-496d-a3b9-5556bc85fab9",
    "name": "Kormovoye",
    "state_id": "39ce410b-b630-4b07-a9d0-c9cbfb3ad7c1"
  },
  {
    "id": "46ecfa24-2611-4b2c-a589-c6268147a07c",
    "name": "Kostochkovka",
    "state_id": "39ce410b-b630-4b07-a9d0-c9cbfb3ad7c1"
  },
  {
    "id": "b37693db-33b2-43af-98f3-1742f8a7e9ae",
    "name": "Kotel’nikovo",
    "state_id": "39ce410b-b630-4b07-a9d0-c9cbfb3ad7c1"
  },
  {
    "id": "e2eaa425-2792-4b74-a96e-aeaa7d7d42bd",
    "name": "Kovyl’noye",
    "state_id": "39ce410b-b630-4b07-a9d0-c9cbfb3ad7c1"
  },
  {
    "id": "d69f74a1-ede8-44dc-bc5b-3db1ff40d3cc",
    "name": "Krasna Zor'ka",
    "state_id": "39ce410b-b630-4b07-a9d0-c9cbfb3ad7c1"
  },
  {
    "id": "086e7a32-52b8-4847-9349-059f8dda1fd8",
    "name": "Krasnaya Polyana",
    "state_id": "39ce410b-b630-4b07-a9d0-c9cbfb3ad7c1"
  },
  {
    "id": "c408fe80-859e-49b5-aaec-f70f1936f842",
    "name": "Krasnoarmeyskoye",
    "state_id": "39ce410b-b630-4b07-a9d0-c9cbfb3ad7c1"
  },
  {
    "id": "b6dd52bf-ae4d-436f-8c65-263a616829d8",
    "name": "Krasnoflotskoye",
    "state_id": "39ce410b-b630-4b07-a9d0-c9cbfb3ad7c1"
  },
  {
    "id": "9e36fd2e-b2d0-4310-8fc2-ed52d0336f85",
    "name": "Krasnogorka",
    "state_id": "39ce410b-b630-4b07-a9d0-c9cbfb3ad7c1"
  },
  {
    "id": "ff7dff1c-0a2e-4c59-9034-a75579eaf9c4",
    "name": "Krasnogvardeyskoye",
    "state_id": "39ce410b-b630-4b07-a9d0-c9cbfb3ad7c1"
  },
  {
    "id": "3f886a94-f1f6-4025-b381-aa35cf7d242a",
    "name": "Krasnohvardiiske Raion",
    "state_id": "39ce410b-b630-4b07-a9d0-c9cbfb3ad7c1"
  },
  {
    "id": "2abaa83c-4d79-498c-9112-44bc4b2a3a70",
    "name": "Krasnokamenka",
    "state_id": "39ce410b-b630-4b07-a9d0-c9cbfb3ad7c1"
  },
  {
    "id": "5605016b-b133-47a1-9014-4219eee02e01",
    "name": "Krasnolesye",
    "state_id": "39ce410b-b630-4b07-a9d0-c9cbfb3ad7c1"
  },
  {
    "id": "a5537695-a9df-4802-ac0e-78659dd672f0",
    "name": "Krasnoperekops’k",
    "state_id": "39ce410b-b630-4b07-a9d0-c9cbfb3ad7c1"
  },
  {
    "id": "c9a94330-0a1e-4a24-9033-355e3992219d",
    "name": "Krasnoperekopsk Raion",
    "state_id": "39ce410b-b630-4b07-a9d0-c9cbfb3ad7c1"
  },
  {
    "id": "8612400c-9f96-4b25-89f0-111e36358e30",
    "name": "Krasnoyarskoye",
    "state_id": "39ce410b-b630-4b07-a9d0-c9cbfb3ad7c1"
  },
  {
    "id": "c011e79b-3e4b-47c6-a292-77f8fe89b604",
    "name": "Krasnoye",
    "state_id": "39ce410b-b630-4b07-a9d0-c9cbfb3ad7c1"
  },
  {
    "id": "e83b7e01-88c0-4333-b89e-b3413b18f2dc",
    "name": "Krasnoznamenka",
    "state_id": "39ce410b-b630-4b07-a9d0-c9cbfb3ad7c1"
  },
  {
    "id": "7a2aaa4d-79dd-4106-9627-b7d6e8647777",
    "name": "Krasnyi Mak",
    "state_id": "39ce410b-b630-4b07-a9d0-c9cbfb3ad7c1"
  },
  {
    "id": "04866250-1312-497c-9a8a-fad1b81bb8ca",
    "name": "Krayneye",
    "state_id": "39ce410b-b630-4b07-a9d0-c9cbfb3ad7c1"
  },
  {
    "id": "83dd44cd-712b-4aff-998f-4a86fecd37d9",
    "name": "Krest’yanovka",
    "state_id": "39ce410b-b630-4b07-a9d0-c9cbfb3ad7c1"
  },
  {
    "id": "dba4675a-981b-4deb-a7d8-2efb58bb43a9",
    "name": "Krinichnoye",
    "state_id": "39ce410b-b630-4b07-a9d0-c9cbfb3ad7c1"
  },
  {
    "id": "68c2a6ba-7075-4c16-82b1-0ea5edc56acb",
    "name": "Krymka",
    "state_id": "39ce410b-b630-4b07-a9d0-c9cbfb3ad7c1"
  },
  {
    "id": "45af88c2-337d-4d43-9d54-bae29e60e737",
    "name": "Krymskaya Roza",
    "state_id": "39ce410b-b630-4b07-a9d0-c9cbfb3ad7c1"
  },
  {
    "id": "fff9b014-a2c2-4fac-ae1a-c1b47d12d053",
    "name": "Krymskoye",
    "state_id": "39ce410b-b630-4b07-a9d0-c9cbfb3ad7c1"
  },
  {
    "id": "d7da2507-8b3a-4426-afaa-e4cb56a85451",
    "name": "Kuibyshevo",
    "state_id": "39ce410b-b630-4b07-a9d0-c9cbfb3ad7c1"
  },
  {
    "id": "a10e2466-1b67-4d4d-a055-0c4e7d88e510",
    "name": "Kukushkino",
    "state_id": "39ce410b-b630-4b07-a9d0-c9cbfb3ad7c1"
  },
  {
    "id": "d7588404-a3c5-4f0f-94a1-ac1a83114a42",
    "name": "Kurskoye",
    "state_id": "39ce410b-b630-4b07-a9d0-c9cbfb3ad7c1"
  },
  {
    "id": "8d4ec847-6a2e-48f2-b704-550db7c392b6",
    "name": "L’govskoye",
    "state_id": "39ce410b-b630-4b07-a9d0-c9cbfb3ad7c1"
  },
  {
    "id": "d4910a7b-925f-4606-881d-d2c681e90357",
    "name": "Lekarstvennoye",
    "state_id": "39ce410b-b630-4b07-a9d0-c9cbfb3ad7c1"
  },
  {
    "id": "71de66ce-54cd-40c6-b356-7e095470faf9",
    "name": "Lenine Raion",
    "state_id": "39ce410b-b630-4b07-a9d0-c9cbfb3ad7c1"
  },
  {
    "id": "b31d3843-bf4f-4d15-bf2d-9f912146e710",
    "name": "Lenino",
    "state_id": "39ce410b-b630-4b07-a9d0-c9cbfb3ad7c1"
  },
  {
    "id": "aaa58bb1-31db-4575-9eb2-92e145fc2564",
    "name": "Leninskoye",
    "state_id": "39ce410b-b630-4b07-a9d0-c9cbfb3ad7c1"
  },
  {
    "id": "60ce27fc-3d9a-4ffb-a2be-6f7aea1cc976",
    "name": "Lesnovka",
    "state_id": "39ce410b-b630-4b07-a9d0-c9cbfb3ad7c1"
  },
  {
    "id": "83b99d8d-fa18-408b-a3f0-2d5baba80abb",
    "name": "Levadki",
    "state_id": "39ce410b-b630-4b07-a9d0-c9cbfb3ad7c1"
  },
  {
    "id": "d0122b1e-b1a5-4890-807f-0ee26460a5ea",
    "name": "Listvennoye",
    "state_id": "39ce410b-b630-4b07-a9d0-c9cbfb3ad7c1"
  },
  {
    "id": "4b3cb848-ad33-4ad1-8969-dc138a5c12e0",
    "name": "Litvinenkovo",
    "state_id": "39ce410b-b630-4b07-a9d0-c9cbfb3ad7c1"
  },
  {
    "id": "59691556-7d5b-4997-92a0-9d683035303b",
    "name": "Livadia",
    "state_id": "39ce410b-b630-4b07-a9d0-c9cbfb3ad7c1"
  },
  {
    "id": "76c5a1e1-ff9d-42ed-98c7-1f96bcab1bd9",
    "name": "Lobanovo",
    "state_id": "39ce410b-b630-4b07-a9d0-c9cbfb3ad7c1"
  },
  {
    "id": "886bf386-6b41-44ff-97e8-e9cf598288d1",
    "name": "Lozovoye",
    "state_id": "39ce410b-b630-4b07-a9d0-c9cbfb3ad7c1"
  },
  {
    "id": "2610380a-7f76-4d31-877f-1a3768b604c8",
    "name": "Luchistoye",
    "state_id": "39ce410b-b630-4b07-a9d0-c9cbfb3ad7c1"
  },
  {
    "id": "48efc574-0fc7-4505-a410-1729c64cc1f2",
    "name": "Luganskoye",
    "state_id": "39ce410b-b630-4b07-a9d0-c9cbfb3ad7c1"
  },
  {
    "id": "2f1d9677-8815-43f4-9b43-ccca6e0525b2",
    "name": "Lugovoye",
    "state_id": "39ce410b-b630-4b07-a9d0-c9cbfb3ad7c1"
  },
  {
    "id": "d513f8dc-6037-446e-b9dc-b944d97ed8ad",
    "name": "Magazinka",
    "state_id": "39ce410b-b630-4b07-a9d0-c9cbfb3ad7c1"
  },
  {
    "id": "9fa1e4f0-f9ce-496a-8610-d77c338ab78a",
    "name": "Malen’koye",
    "state_id": "39ce410b-b630-4b07-a9d0-c9cbfb3ad7c1"
  },
  {
    "id": "cca7f7e4-5f19-4053-9cb1-e0237e577b37",
    "name": "Malorechenskoye",
    "state_id": "39ce410b-b630-4b07-a9d0-c9cbfb3ad7c1"
  },
  {
    "id": "06defaa6-9b80-4bf6-86d9-ce6c4f3ae8a9",
    "name": "Maly Mayak",
    "state_id": "39ce410b-b630-4b07-a9d0-c9cbfb3ad7c1"
  },
  {
    "id": "d6dbfa6f-b8f6-4c70-b712-3e589c628558",
    "name": "Mar’yanovka",
    "state_id": "39ce410b-b630-4b07-a9d0-c9cbfb3ad7c1"
  },
  {
    "id": "5ef61c1c-4298-480a-a6ea-84d339d545ce",
    "name": "Marfovka",
    "state_id": "39ce410b-b630-4b07-a9d0-c9cbfb3ad7c1"
  },
  {
    "id": "597e2268-cff4-471b-99f4-3f96d85811de",
    "name": "Maryevka",
    "state_id": "39ce410b-b630-4b07-a9d0-c9cbfb3ad7c1"
  },
  {
    "id": "a49ecf8f-1fca-45b6-a839-c75d266473d4",
    "name": "Maslovo",
    "state_id": "39ce410b-b630-4b07-a9d0-c9cbfb3ad7c1"
  },
  {
    "id": "903e2989-162b-44e7-bfd2-fa98d8b4b967",
    "name": "Massandra",
    "state_id": "39ce410b-b630-4b07-a9d0-c9cbfb3ad7c1"
  },
  {
    "id": "07b4b89d-44ea-42b4-bb58-38e89ccfaa85",
    "name": "Mayskoye",
    "state_id": "39ce410b-b630-4b07-a9d0-c9cbfb3ad7c1"
  },
  {
    "id": "0b7cc53a-125f-47d4-b964-6b68b315c877",
    "name": "Mazanka",
    "state_id": "39ce410b-b630-4b07-a9d0-c9cbfb3ad7c1"
  },
  {
    "id": "f2ac383e-f6b9-4a51-b550-9319a728df95",
    "name": "Medvedevka",
    "state_id": "39ce410b-b630-4b07-a9d0-c9cbfb3ad7c1"
  },
  {
    "id": "b38e0655-5c0f-4d0f-8e2a-10207df5e915",
    "name": "Medvedevo",
    "state_id": "39ce410b-b630-4b07-a9d0-c9cbfb3ad7c1"
  },
  {
    "id": "3d9a57ce-6963-424a-baf3-647dc9ca4170",
    "name": "Mel’nichnoye",
    "state_id": "39ce410b-b630-4b07-a9d0-c9cbfb3ad7c1"
  },
  {
    "id": "dfecbcf1-5915-4694-951d-b6a44a95afda",
    "name": "Mezhvodnoye",
    "state_id": "39ce410b-b630-4b07-a9d0-c9cbfb3ad7c1"
  },
  {
    "id": "6632f003-6104-4cdc-b007-c96c6484eee7",
    "name": "Michurinskoye",
    "state_id": "39ce410b-b630-4b07-a9d0-c9cbfb3ad7c1"
  },
  {
    "id": "dd62d921-acbb-49ae-bad1-6153f14a8719",
    "name": "Mikhaylovka",
    "state_id": "39ce410b-b630-4b07-a9d0-c9cbfb3ad7c1"
  },
  {
    "id": "008c0495-7bd8-47eb-a78a-bd802663d775",
    "name": "Mirnovka",
    "state_id": "39ce410b-b630-4b07-a9d0-c9cbfb3ad7c1"
  },
  {
    "id": "b19b4975-eae8-42b4-8fc7-8f7da4aa8ada",
    "name": "Mirnoye",
    "state_id": "39ce410b-b630-4b07-a9d0-c9cbfb3ad7c1"
  },
  {
    "id": "07c1c37a-74c6-4a3b-8d49-b82dc4a0fbe8",
    "name": "Mirny",
    "state_id": "39ce410b-b630-4b07-a9d0-c9cbfb3ad7c1"
  },
  {
    "id": "9eaa73d8-1347-4958-a601-a751ae4871b4",
    "name": "Mitrofanovka",
    "state_id": "39ce410b-b630-4b07-a9d0-c9cbfb3ad7c1"
  },
  {
    "id": "4c65da3f-5db4-447a-96ba-ceca273bbc24",
    "name": "Mityayevo",
    "state_id": "39ce410b-b630-4b07-a9d0-c9cbfb3ad7c1"
  },
  {
    "id": "d6573e20-6dad-4447-b8a6-98e4f1c73c1c",
    "name": "Molochnoye",
    "state_id": "39ce410b-b630-4b07-a9d0-c9cbfb3ad7c1"
  },
  {
    "id": "521665de-2eb0-4811-bbfd-2f62768fe2bf",
    "name": "Molodyozhnoye",
    "state_id": "39ce410b-b630-4b07-a9d0-c9cbfb3ad7c1"
  },
  {
    "id": "c94ad080-9bd1-41e6-94f1-ed88a68a229f",
    "name": "Morskoye",
    "state_id": "39ce410b-b630-4b07-a9d0-c9cbfb3ad7c1"
  },
  {
    "id": "54151f1d-c2c5-4974-b054-50c7573ecc12",
    "name": "Muromskoye",
    "state_id": "39ce410b-b630-4b07-a9d0-c9cbfb3ad7c1"
  },
  {
    "id": "72fa12b8-c45d-4101-bea8-a8b30d7bc858",
    "name": "Muskatnoye",
    "state_id": "39ce410b-b630-4b07-a9d0-c9cbfb3ad7c1"
  },
  {
    "id": "2a3b1e2d-8f08-4daa-84e3-c558f7051528",
    "name": "Mysovoe",
    "state_id": "39ce410b-b630-4b07-a9d0-c9cbfb3ad7c1"
  },
  {
    "id": "75af8984-b6db-4013-a54a-b79b3ce990c2",
    "name": "Nasypnoe",
    "state_id": "39ce410b-b630-4b07-a9d0-c9cbfb3ad7c1"
  },
  {
    "id": "e8ce0855-a12f-4cf3-a0ec-43ef2273d2fc",
    "name": "Naydenovka",
    "state_id": "39ce410b-b630-4b07-a9d0-c9cbfb3ad7c1"
  },
  {
    "id": "fc65d931-73e3-424b-8ee8-cee2be8844d0",
    "name": "Nekrasovka",
    "state_id": "39ce410b-b630-4b07-a9d0-c9cbfb3ad7c1"
  },
  {
    "id": "789d3150-8a42-46db-b39e-b65445812e86",
    "name": "Nekrasovo",
    "state_id": "39ce410b-b630-4b07-a9d0-c9cbfb3ad7c1"
  },
  {
    "id": "05b827c0-6987-44aa-83d8-46437cd13635",
    "name": "Nikita",
    "state_id": "39ce410b-b630-4b07-a9d0-c9cbfb3ad7c1"
  },
  {
    "id": "af8e799e-4023-4def-a934-f4096fd8399f",
    "name": "Nikolayevka",
    "state_id": "39ce410b-b630-4b07-a9d0-c9cbfb3ad7c1"
  },
  {
    "id": "3e4f3603-c455-41b1-938a-92beccf64ee9",
    "name": "Nizhnegorskiy",
    "state_id": "39ce410b-b630-4b07-a9d0-c9cbfb3ad7c1"
  },
  {
    "id": "6890bfdf-4d8a-4e38-ba2b-3f5e984a3c00",
    "name": "Nizhnegorskiy rayon",
    "state_id": "39ce410b-b630-4b07-a9d0-c9cbfb3ad7c1"
  },
  {
    "id": "8b6baa89-e041-4231-8924-84954efad796",
    "name": "Novoandreyevka",
    "state_id": "39ce410b-b630-4b07-a9d0-c9cbfb3ad7c1"
  },
  {
    "id": "008cd19a-0f9e-4588-9e3e-898a120c50d8",
    "name": "Novoestoniya",
    "state_id": "39ce410b-b630-4b07-a9d0-c9cbfb3ad7c1"
  },
  {
    "id": "04e6ca24-5c51-4082-aaed-fc0e5aef8d18",
    "name": "Novofedorovka",
    "state_id": "39ce410b-b630-4b07-a9d0-c9cbfb3ad7c1"
  },
  {
    "id": "4bcc51ce-936f-4288-8a79-746c65568af1",
    "name": "Novogrigoryevka",
    "state_id": "39ce410b-b630-4b07-a9d0-c9cbfb3ad7c1"
  },
  {
    "id": "bd7b90a3-0fdb-4da2-8605-bf6979fde0a1",
    "name": "Novoivanovka",
    "state_id": "39ce410b-b630-4b07-a9d0-c9cbfb3ad7c1"
  },
  {
    "id": "f7495686-db7d-4578-8bd0-2a4fdeea5e96",
    "name": "Novokrymskoye",
    "state_id": "39ce410b-b630-4b07-a9d0-c9cbfb3ad7c1"
  },
  {
    "id": "da3e03b1-308b-4064-9277-e26f1f7c780b",
    "name": "Novonikolayevka",
    "state_id": "39ce410b-b630-4b07-a9d0-c9cbfb3ad7c1"
  },
  {
    "id": "389be284-9abd-493c-9964-fa5e6ac86da8",
    "name": "Novoozyornoye",
    "state_id": "39ce410b-b630-4b07-a9d0-c9cbfb3ad7c1"
  },
  {
    "id": "dab7d046-8435-42c6-9cb8-2b073373099d",
    "name": "Novopavlovka",
    "state_id": "39ce410b-b630-4b07-a9d0-c9cbfb3ad7c1"
  },
  {
    "id": "b53a40ff-4f8d-46f3-a38d-cc9b71cdc664",
    "name": "Novopokrovka",
    "state_id": "39ce410b-b630-4b07-a9d0-c9cbfb3ad7c1"
  },
  {
    "id": "523658b9-c103-40c3-92e4-c6b152d7eaa6",
    "name": "Novosel’skoye",
    "state_id": "39ce410b-b630-4b07-a9d0-c9cbfb3ad7c1"
  },
  {
    "id": "c58c57c4-2e4f-4884-8156-e994cb19d0c2",
    "name": "Novoselovskoye",
    "state_id": "39ce410b-b630-4b07-a9d0-c9cbfb3ad7c1"
  },
  {
    "id": "8c9f3321-513f-4fab-8bf4-3f75a2f17c1c",
    "name": "Novostepnoye",
    "state_id": "39ce410b-b630-4b07-a9d0-c9cbfb3ad7c1"
  },
  {
    "id": "7c355620-b427-45e4-b62a-9dd8d326e12c",
    "name": "Novosyolovka",
    "state_id": "39ce410b-b630-4b07-a9d0-c9cbfb3ad7c1"
  },
  {
    "id": "dc8411ee-3178-474d-8438-bc2951feebc6",
    "name": "Novozhilovka",
    "state_id": "39ce410b-b630-4b07-a9d0-c9cbfb3ad7c1"
  },
  {
    "id": "b4601413-2458-4a19-9a71-e44f2aee91bc",
    "name": "Novy Svet",
    "state_id": "39ce410b-b630-4b07-a9d0-c9cbfb3ad7c1"
  },
  {
    "id": "8f76c19c-7f13-4f8c-9314-4d49b75b5e6d",
    "name": "Okhotnikovo",
    "state_id": "39ce410b-b630-4b07-a9d0-c9cbfb3ad7c1"
  },
  {
    "id": "d3f6f4af-bf9d-419d-ad73-69c2adebe0fd",
    "name": "Okhotskoye",
    "state_id": "39ce410b-b630-4b07-a9d0-c9cbfb3ad7c1"
  },
  {
    "id": "424defdf-cbc3-48f1-a057-017d19c76c3e",
    "name": "Oktyabr'skoye",
    "state_id": "39ce410b-b630-4b07-a9d0-c9cbfb3ad7c1"
  },
  {
    "id": "b757762e-adbd-465a-af0d-83897fcc0904",
    "name": "Oktyabr’skoye",
    "state_id": "39ce410b-b630-4b07-a9d0-c9cbfb3ad7c1"
  },
  {
    "id": "53be143e-9896-4188-b3b4-6400f1ad6072",
    "name": "Okunevka",
    "state_id": "39ce410b-b630-4b07-a9d0-c9cbfb3ad7c1"
  },
  {
    "id": "ea9de870-5bd2-4403-9688-e626c85ffaf3",
    "name": "Olenevka",
    "state_id": "39ce410b-b630-4b07-a9d0-c9cbfb3ad7c1"
  },
  {
    "id": "873cdb16-3e01-439f-91a7-3db99d494020",
    "name": "Ordzhonikidze",
    "state_id": "39ce410b-b630-4b07-a9d0-c9cbfb3ad7c1"
  },
  {
    "id": "d516fd16-051e-42a4-8dc1-c126883eeb90",
    "name": "Orekhovo",
    "state_id": "39ce410b-b630-4b07-a9d0-c9cbfb3ad7c1"
  },
  {
    "id": "b6d0e1f7-2b2c-4293-9f68-f966b9ac04fc",
    "name": "Orlovskoye",
    "state_id": "39ce410b-b630-4b07-a9d0-c9cbfb3ad7c1"
  },
  {
    "id": "e85ae6cc-f97c-4dab-bf5b-e24f926d9a23",
    "name": "Ostanino",
    "state_id": "39ce410b-b630-4b07-a9d0-c9cbfb3ad7c1"
  },
  {
    "id": "781427e6-6dc5-4fa1-92c1-469550017cfa",
    "name": "Ostrovskoye",
    "state_id": "39ce410b-b630-4b07-a9d0-c9cbfb3ad7c1"
  },
  {
    "id": "e5f0cfa0-2424-4d6a-a4a9-ee48060eee9a",
    "name": "Pakharevka",
    "state_id": "39ce410b-b630-4b07-a9d0-c9cbfb3ad7c1"
  },
  {
    "id": "cad9d3d2-96a7-40a4-833e-74f6f8208c53",
    "name": "Partenit",
    "state_id": "39ce410b-b630-4b07-a9d0-c9cbfb3ad7c1"
  },
  {
    "id": "96dcec7c-9752-4e05-8880-51ae04a407d7",
    "name": "Partizanskoye",
    "state_id": "39ce410b-b630-4b07-a9d0-c9cbfb3ad7c1"
  },
  {
    "id": "b8b621fa-be2a-44cd-ad34-d00ef22d033a",
    "name": "Partizany",
    "state_id": "39ce410b-b630-4b07-a9d0-c9cbfb3ad7c1"
  },
  {
    "id": "5a6355df-9831-4713-b59b-29c6e233b132",
    "name": "Pereval'noye",
    "state_id": "39ce410b-b630-4b07-a9d0-c9cbfb3ad7c1"
  },
  {
    "id": "a278233b-f923-4f45-8e29-29bdf400b9da",
    "name": "Perovo",
    "state_id": "39ce410b-b630-4b07-a9d0-c9cbfb3ad7c1"
  },
  {
    "id": "cdf72274-d01e-4c41-8511-d26cff1981ec",
    "name": "Pervomayskiy rayon",
    "state_id": "39ce410b-b630-4b07-a9d0-c9cbfb3ad7c1"
  },
  {
    "id": "07109cdc-aec6-43ea-8331-6ec22cba99fc",
    "name": "Pervomayskoye",
    "state_id": "39ce410b-b630-4b07-a9d0-c9cbfb3ad7c1"
  },
  {
    "id": "bb3bbf37-a1b1-4b7f-b1dc-41e88adbdb69",
    "name": "Peschanoye",
    "state_id": "39ce410b-b630-4b07-a9d0-c9cbfb3ad7c1"
  },
  {
    "id": "e65cc361-f239-4f32-9879-a419f521090e",
    "name": "Petrovka",
    "state_id": "39ce410b-b630-4b07-a9d0-c9cbfb3ad7c1"
  },
  {
    "id": "26d30292-1acd-414b-b110-0d8253f26b74",
    "name": "Pionerskoye",
    "state_id": "39ce410b-b630-4b07-a9d0-c9cbfb3ad7c1"
  },
  {
    "id": "5dbe2ba5-3090-4048-bc2b-82b929349205",
    "name": "Plodovoye",
    "state_id": "39ce410b-b630-4b07-a9d0-c9cbfb3ad7c1"
  },
  {
    "id": "e06f1f7f-7eef-4e23-b012-0d5c4f215e78",
    "name": "Pobednoye",
    "state_id": "39ce410b-b630-4b07-a9d0-c9cbfb3ad7c1"
  },
  {
    "id": "b1c3889e-4e98-49ea-9a26-e002816d651d",
    "name": "Pochetnoye",
    "state_id": "39ce410b-b630-4b07-a9d0-c9cbfb3ad7c1"
  },
  {
    "id": "11b1e642-acbc-4f83-9e99-a207066658fd",
    "name": "Poltavka",
    "state_id": "39ce410b-b630-4b07-a9d0-c9cbfb3ad7c1"
  },
  {
    "id": "44f379d0-fb16-4a96-87ee-7c8b2e40e716",
    "name": "Poshtove",
    "state_id": "39ce410b-b630-4b07-a9d0-c9cbfb3ad7c1"
  },
  {
    "id": "008177cd-8b37-4dbe-b54a-1f2f034b3c27",
    "name": "Pozharskoye",
    "state_id": "39ce410b-b630-4b07-a9d0-c9cbfb3ad7c1"
  },
  {
    "id": "8522635e-a9a4-4b5f-94ea-96a4f3f3ec12",
    "name": "Pravda",
    "state_id": "39ce410b-b630-4b07-a9d0-c9cbfb3ad7c1"
  },
  {
    "id": "1de7e108-ea03-4608-8330-ddc118a323cd",
    "name": "Primorskiy",
    "state_id": "39ce410b-b630-4b07-a9d0-c9cbfb3ad7c1"
  },
  {
    "id": "9db01a9b-dd9b-4735-9671-bd8adf8e2894",
    "name": "Priozyornoye",
    "state_id": "39ce410b-b630-4b07-a9d0-c9cbfb3ad7c1"
  },
  {
    "id": "d3e449af-aa8a-4ad6-bca2-0ff97c0782a4",
    "name": "Privetnoye",
    "state_id": "39ce410b-b630-4b07-a9d0-c9cbfb3ad7c1"
  },
  {
    "id": "ae1ab5e1-a15d-4fc9-b45b-e12a7afcd322",
    "name": "Prostornoye",
    "state_id": "39ce410b-b630-4b07-a9d0-c9cbfb3ad7c1"
  },
  {
    "id": "442961dd-2e20-44cc-a7ae-36ded9e354c8",
    "name": "Prudovoye",
    "state_id": "39ce410b-b630-4b07-a9d0-c9cbfb3ad7c1"
  },
  {
    "id": "c9f73f94-b958-4a0b-9c44-227080879c37",
    "name": "Prudy",
    "state_id": "39ce410b-b630-4b07-a9d0-c9cbfb3ad7c1"
  },
  {
    "id": "7d3f3a78-4bcf-4e8a-8499-63e8f9d188fe",
    "name": "Pshenichnoye",
    "state_id": "39ce410b-b630-4b07-a9d0-c9cbfb3ad7c1"
  },
  {
    "id": "6e9eb35a-f13c-4bb6-af1d-34d33aff8ff7",
    "name": "Pushkino",
    "state_id": "39ce410b-b630-4b07-a9d0-c9cbfb3ad7c1"
  },
  {
    "id": "3f812e32-9ff6-4b6d-b0b9-6dd95d3bdd11",
    "name": "Pyatikhatka",
    "state_id": "39ce410b-b630-4b07-a9d0-c9cbfb3ad7c1"
  },
  {
    "id": "c16d02af-5434-45ea-824e-5db4ae33f2a4",
    "name": "Razdol’nenskiy rayon",
    "state_id": "39ce410b-b630-4b07-a9d0-c9cbfb3ad7c1"
  },
  {
    "id": "af1740b6-c183-4201-bd67-88ccc862722f",
    "name": "Razdol’noye",
    "state_id": "39ce410b-b630-4b07-a9d0-c9cbfb3ad7c1"
  },
  {
    "id": "5a2725c1-31a7-42da-b634-47842db88b41",
    "name": "Rodnikovo",
    "state_id": "39ce410b-b630-4b07-a9d0-c9cbfb3ad7c1"
  },
  {
    "id": "cc7b5f0f-8052-495d-817e-40fe6fe6521d",
    "name": "Romashkino",
    "state_id": "39ce410b-b630-4b07-a9d0-c9cbfb3ad7c1"
  },
  {
    "id": "23df23ef-9ad8-4e1d-a674-892855e2bd1e",
    "name": "Roshchino",
    "state_id": "39ce410b-b630-4b07-a9d0-c9cbfb3ad7c1"
  },
  {
    "id": "2cb893bb-3789-46ff-b147-0d52dbd8b3db",
    "name": "Roskoshnoye",
    "state_id": "39ce410b-b630-4b07-a9d0-c9cbfb3ad7c1"
  },
  {
    "id": "903ecb02-81ae-421a-bb58-5c9241f83de8",
    "name": "Rovnoye",
    "state_id": "39ce410b-b630-4b07-a9d0-c9cbfb3ad7c1"
  },
  {
    "id": "2fc06e69-2fd8-48fe-9188-4955c4096570",
    "name": "Ruch’i",
    "state_id": "39ce410b-b630-4b07-a9d0-c9cbfb3ad7c1"
  },
  {
    "id": "955ad8b5-82c8-4423-a4b0-a66d63ec5ff4",
    "name": "Rusakovka",
    "state_id": "39ce410b-b630-4b07-a9d0-c9cbfb3ad7c1"
  },
  {
    "id": "b59fcd57-be49-4517-9eed-4c34ac524b94",
    "name": "Rybach'e",
    "state_id": "39ce410b-b630-4b07-a9d0-c9cbfb3ad7c1"
  },
  {
    "id": "b9b08a0c-2629-4f94-a75f-10f38b958b5c",
    "name": "Sadovoye",
    "state_id": "39ce410b-b630-4b07-a9d0-c9cbfb3ad7c1"
  },
  {
    "id": "40d82e01-25eb-4c4d-b7dc-9821d8be3bcd",
    "name": "Saki",
    "state_id": "39ce410b-b630-4b07-a9d0-c9cbfb3ad7c1"
  },
  {
    "id": "8adcab43-006d-41db-abd4-29af85530b0b",
    "name": "Sakskiy rayon",
    "state_id": "39ce410b-b630-4b07-a9d0-c9cbfb3ad7c1"
  },
  {
    "id": "5a305ecd-e69b-4a39-b2ad-f22c1525acf4",
    "name": "Sary-Bash",
    "state_id": "39ce410b-b630-4b07-a9d0-c9cbfb3ad7c1"
  },
  {
    "id": "a16782d4-2b39-42b0-bd55-babe6edda608",
    "name": "Semisotka",
    "state_id": "39ce410b-b630-4b07-a9d0-c9cbfb3ad7c1"
  },
  {
    "id": "89455ac1-58b9-4128-907e-7ad68fefd216",
    "name": "Senokosnoye",
    "state_id": "39ce410b-b630-4b07-a9d0-c9cbfb3ad7c1"
  },
  {
    "id": "f8f7b95f-8398-4d0e-9a75-013cb3947312",
    "name": "Serebryanka",
    "state_id": "39ce410b-b630-4b07-a9d0-c9cbfb3ad7c1"
  },
  {
    "id": "e859815d-e0a1-4b69-bbdc-7681adf6c5e8",
    "name": "Shchebetovka",
    "state_id": "39ce410b-b630-4b07-a9d0-c9cbfb3ad7c1"
  },
  {
    "id": "17c857d9-c6a0-409b-a663-1cef67422cdb",
    "name": "Shchyolkino",
    "state_id": "39ce410b-b630-4b07-a9d0-c9cbfb3ad7c1"
  },
  {
    "id": "d516a1de-3502-4e14-aad4-e545fc8babee",
    "name": "Shelkovichnoye",
    "state_id": "39ce410b-b630-4b07-a9d0-c9cbfb3ad7c1"
  },
  {
    "id": "2848bff8-91c8-401d-bef8-e2b8a083d9c0",
    "name": "Shirokoye",
    "state_id": "39ce410b-b630-4b07-a9d0-c9cbfb3ad7c1"
  },
  {
    "id": "6e08d0c2-aa72-41e8-8fe9-305ca66c0cf3",
    "name": "Shkol’noye",
    "state_id": "39ce410b-b630-4b07-a9d0-c9cbfb3ad7c1"
  },
  {
    "id": "f055efea-1644-4c2e-a993-d86ac9b18cf1",
    "name": "Shtormovoye",
    "state_id": "39ce410b-b630-4b07-a9d0-c9cbfb3ad7c1"
  },
  {
    "id": "f166027a-1846-425e-8302-881b43ac2894",
    "name": "Simeiz",
    "state_id": "39ce410b-b630-4b07-a9d0-c9cbfb3ad7c1"
  },
  {
    "id": "ef74f73c-7d33-4f8f-ab0c-98a881d6bd3a",
    "name": "Simferopol",
    "state_id": "39ce410b-b630-4b07-a9d0-c9cbfb3ad7c1"
  },
  {
    "id": "fb508936-78c8-44f9-aa2d-684afcc59092",
    "name": "Simferopol Raion",
    "state_id": "39ce410b-b630-4b07-a9d0-c9cbfb3ad7c1"
  },
  {
    "id": "f3dcb4a8-cd29-49f8-8c0a-f7f97a41ce20",
    "name": "Sinitsyno",
    "state_id": "39ce410b-b630-4b07-a9d0-c9cbfb3ad7c1"
  },
  {
    "id": "e116e0bc-ad1d-4d5a-99b3-0932f5c5506d",
    "name": "Sizovka",
    "state_id": "39ce410b-b630-4b07-a9d0-c9cbfb3ad7c1"
  },
  {
    "id": "001b0a62-5e4d-4989-8f7f-abd832444996",
    "name": "Skalistoye",
    "state_id": "39ce410b-b630-4b07-a9d0-c9cbfb3ad7c1"
  },
  {
    "id": "2fb8167c-1617-487c-9021-05db9c1d26e7",
    "name": "Skvortsovo",
    "state_id": "39ce410b-b630-4b07-a9d0-c9cbfb3ad7c1"
  },
  {
    "id": "4b055a8f-3a32-481f-a7c8-8359216221b2",
    "name": "Slavnoye",
    "state_id": "39ce410b-b630-4b07-a9d0-c9cbfb3ad7c1"
  },
  {
    "id": "79e9c2e9-7f97-4959-93d4-3ec382743f68",
    "name": "Slavyanskoye",
    "state_id": "39ce410b-b630-4b07-a9d0-c9cbfb3ad7c1"
  },
  {
    "id": "a0f41072-b820-4e4c-86dc-f14ee1d45ce5",
    "name": "Sofiivka",
    "state_id": "39ce410b-b630-4b07-a9d0-c9cbfb3ad7c1"
  },
  {
    "id": "aa9bba9b-b2f3-4214-bb7c-79945a3f836b",
    "name": "Sokolinoye",
    "state_id": "39ce410b-b630-4b07-a9d0-c9cbfb3ad7c1"
  },
  {
    "id": "f5c93187-a685-4a4d-895c-c3f40427f343",
    "name": "Solnechnaya Dolina",
    "state_id": "39ce410b-b630-4b07-a9d0-c9cbfb3ad7c1"
  },
  {
    "id": "fe314267-5d59-460e-90b7-1344fccf3252",
    "name": "Solnechnogorskoye",
    "state_id": "39ce410b-b630-4b07-a9d0-c9cbfb3ad7c1"
  },
  {
    "id": "4591acd1-fee0-49c8-bc36-717b21f15a26",
    "name": "Solnechnoye",
    "state_id": "39ce410b-b630-4b07-a9d0-c9cbfb3ad7c1"
  },
  {
    "id": "381e524e-aa69-4365-b490-cf578b691628",
    "name": "Sovetskiy",
    "state_id": "39ce410b-b630-4b07-a9d0-c9cbfb3ad7c1"
  },
  {
    "id": "50189d11-c20a-41cb-81f9-9f9fe93c7295",
    "name": "Sovietskyi Raion",
    "state_id": "39ce410b-b630-4b07-a9d0-c9cbfb3ad7c1"
  },
  {
    "id": "1e24fbd5-da3a-4d07-ac79-5066ea901c60",
    "name": "Sovkhoznoye",
    "state_id": "39ce410b-b630-4b07-a9d0-c9cbfb3ad7c1"
  },
  {
    "id": "06344039-96e8-4655-8148-9d65bba0c793",
    "name": "Stakhanovka",
    "state_id": "39ce410b-b630-4b07-a9d0-c9cbfb3ad7c1"
  },
  {
    "id": "0f6acab5-4e9a-4bd5-b933-6549a02276b9",
    "name": "Stal’noye",
    "state_id": "39ce410b-b630-4b07-a9d0-c9cbfb3ad7c1"
  },
  {
    "id": "bfd5dfb6-7b82-472c-8f0c-7e7ebe4d4a4d",
    "name": "Stary Krym",
    "state_id": "39ce410b-b630-4b07-a9d0-c9cbfb3ad7c1"
  },
  {
    "id": "9290db05-da24-4cba-a1df-1b6654001afa",
    "name": "Stepnoye",
    "state_id": "39ce410b-b630-4b07-a9d0-c9cbfb3ad7c1"
  },
  {
    "id": "54496d8f-3328-4003-849d-2756bcd4bf8d",
    "name": "Stolbovoye",
    "state_id": "39ce410b-b630-4b07-a9d0-c9cbfb3ad7c1"
  },
  {
    "id": "4b8cf62a-3f1d-4ecf-927f-4ac814c11b68",
    "name": "Strogonovka",
    "state_id": "39ce410b-b630-4b07-a9d0-c9cbfb3ad7c1"
  },
  {
    "id": "0f5b481f-fc10-4e41-86af-2b76a326f37c",
    "name": "Sudak",
    "state_id": "39ce410b-b630-4b07-a9d0-c9cbfb3ad7c1"
  },
  {
    "id": "ebdbd805-e1a5-4d0a-a460-cfe14ab5ebfa",
    "name": "Susanino",
    "state_id": "39ce410b-b630-4b07-a9d0-c9cbfb3ad7c1"
  },
  {
    "id": "65ea0f68-8dd8-4baf-a06c-5e1ac7f45241",
    "name": "Suvorovo",
    "state_id": "39ce410b-b630-4b07-a9d0-c9cbfb3ad7c1"
  },
  {
    "id": "9cea4b9d-ca27-4c84-912c-f22fc8f05f9d",
    "name": "Suvorovskoye",
    "state_id": "39ce410b-b630-4b07-a9d0-c9cbfb3ad7c1"
  },
  {
    "id": "22ae02e7-f316-44f2-b265-e4ae5b06548f",
    "name": "Svetloye",
    "state_id": "39ce410b-b630-4b07-a9d0-c9cbfb3ad7c1"
  },
  {
    "id": "edcf1db8-063a-446d-8e73-1286e014bfb8",
    "name": "Tabachnoye",
    "state_id": "39ce410b-b630-4b07-a9d0-c9cbfb3ad7c1"
  },
  {
    "id": "48c47c2f-242b-486d-b944-88eaf8c03b64",
    "name": "Tankovoye",
    "state_id": "39ce410b-b630-4b07-a9d0-c9cbfb3ad7c1"
  },
  {
    "id": "a7dd73f5-105d-4c8c-8808-88152e814564",
    "name": "Tenistoye",
    "state_id": "39ce410b-b630-4b07-a9d0-c9cbfb3ad7c1"
  },
  {
    "id": "ffb5d7d3-eabe-4734-a03d-b34cc8b7d630",
    "name": "Teplovka",
    "state_id": "39ce410b-b630-4b07-a9d0-c9cbfb3ad7c1"
  },
  {
    "id": "7d5dd4a1-9f10-4a8d-a92e-098ad7f77055",
    "name": "Tokarevo",
    "state_id": "39ce410b-b630-4b07-a9d0-c9cbfb3ad7c1"
  },
  {
    "id": "673a775c-ce68-4a1e-a634-c239edb8802d",
    "name": "Trudovoye",
    "state_id": "39ce410b-b630-4b07-a9d0-c9cbfb3ad7c1"
  },
  {
    "id": "83fa9d61-fca2-4eae-9c64-574e87322529",
    "name": "Tselinnoye",
    "state_id": "39ce410b-b630-4b07-a9d0-c9cbfb3ad7c1"
  },
  {
    "id": "587df260-02ff-4d99-8c23-4548faddcccd",
    "name": "Tsvetochnoye",
    "state_id": "39ce410b-b630-4b07-a9d0-c9cbfb3ad7c1"
  },
  {
    "id": "6aa69eb4-a36b-457f-9ea3-12d15a415d23",
    "name": "Turgenevka",
    "state_id": "39ce410b-b630-4b07-a9d0-c9cbfb3ad7c1"
  },
  {
    "id": "073c5d50-c9ac-4cb9-8411-716cdd48e729",
    "name": "Uglovoye",
    "state_id": "39ce410b-b630-4b07-a9d0-c9cbfb3ad7c1"
  },
  {
    "id": "1d52fb63-8b92-485c-b823-69c20480c40f",
    "name": "Ukrainka",
    "state_id": "39ce410b-b630-4b07-a9d0-c9cbfb3ad7c1"
  },
  {
    "id": "02164261-d8e5-4fb7-93ca-99b7aae37737",
    "name": "Ukromnoye",
    "state_id": "39ce410b-b630-4b07-a9d0-c9cbfb3ad7c1"
  },
  {
    "id": "567826a2-58b0-4f90-b2ee-246ccdd77b11",
    "name": "Urozhaynoye",
    "state_id": "39ce410b-b630-4b07-a9d0-c9cbfb3ad7c1"
  },
  {
    "id": "7f77170c-fc98-49fc-9696-df01a45f48e9",
    "name": "Uvarovka",
    "state_id": "39ce410b-b630-4b07-a9d0-c9cbfb3ad7c1"
  },
  {
    "id": "deed491e-0df3-4610-9296-04f010c11767",
    "name": "Uvarovo",
    "state_id": "39ce410b-b630-4b07-a9d0-c9cbfb3ad7c1"
  },
  {
    "id": "363f3683-097a-42e9-955b-682f48d6a431",
    "name": "Uyutnoye",
    "state_id": "39ce410b-b630-4b07-a9d0-c9cbfb3ad7c1"
  },
  {
    "id": "1ba2a518-cae4-4f95-9f40-725dc9bd878c",
    "name": "Vasilyevka",
    "state_id": "39ce410b-b630-4b07-a9d0-c9cbfb3ad7c1"
  },
  {
    "id": "7d86204e-fe48-4560-8ac4-ef80b2ce6a4f",
    "name": "Veresayevo",
    "state_id": "39ce410b-b630-4b07-a9d0-c9cbfb3ad7c1"
  },
  {
    "id": "758fd1a0-abcc-4902-a1a7-0a7a8f77ed15",
    "name": "Verkhorechye",
    "state_id": "39ce410b-b630-4b07-a9d0-c9cbfb3ad7c1"
  },
  {
    "id": "32b8273c-6d50-4b6b-a16d-629c88611448",
    "name": "Vesele",
    "state_id": "39ce410b-b630-4b07-a9d0-c9cbfb3ad7c1"
  },
  {
    "id": "5d2ffaf0-e0df-47c1-992b-4619402d7e3d",
    "name": "Veselovka",
    "state_id": "39ce410b-b630-4b07-a9d0-c9cbfb3ad7c1"
  },
  {
    "id": "72b3ea95-25ca-40d3-a489-11b138db167e",
    "name": "Vilino",
    "state_id": "39ce410b-b630-4b07-a9d0-c9cbfb3ad7c1"
  },
  {
    "id": "51909db2-8bf2-44e2-a569-6232ce488238",
    "name": "Vinnitskoye",
    "state_id": "39ce410b-b630-4b07-a9d0-c9cbfb3ad7c1"
  },
  {
    "id": "cf7937d7-d6d3-42fe-aa6d-5a2ea97bc975",
    "name": "Vinogradnoye",
    "state_id": "39ce410b-b630-4b07-a9d0-c9cbfb3ad7c1"
  },
  {
    "id": "b75fd187-7ec0-4619-8fc1-97f132ac69e3",
    "name": "Vinogradovo",
    "state_id": "39ce410b-b630-4b07-a9d0-c9cbfb3ad7c1"
  },
  {
    "id": "53436265-88c6-410e-9ff4-8855665fafa5",
    "name": "Vishennoye",
    "state_id": "39ce410b-b630-4b07-a9d0-c9cbfb3ad7c1"
  },
  {
    "id": "38575d07-421a-4845-a037-ec846314f47f",
    "name": "Vishnyovka",
    "state_id": "39ce410b-b630-4b07-a9d0-c9cbfb3ad7c1"
  },
  {
    "id": "82284d2c-9360-4839-9603-1356b5c1000b",
    "name": "Vladimirovka",
    "state_id": "39ce410b-b630-4b07-a9d0-c9cbfb3ad7c1"
  },
  {
    "id": "6f4b52dc-7e3e-478e-b81e-421863d0751f",
    "name": "Vladislavovka",
    "state_id": "39ce410b-b630-4b07-a9d0-c9cbfb3ad7c1"
  },
  {
    "id": "3a934f5e-26b8-44cd-85c4-b8d6e5056ce9",
    "name": "Voinka",
    "state_id": "39ce410b-b630-4b07-a9d0-c9cbfb3ad7c1"
  },
  {
    "id": "9fce7692-6360-4fdd-9c74-9e905faa362f",
    "name": "Vol’noye",
    "state_id": "39ce410b-b630-4b07-a9d0-c9cbfb3ad7c1"
  },
  {
    "id": "570a2fcd-ac57-456f-80a1-2536b8fb11b8",
    "name": "Vorobyovo",
    "state_id": "39ce410b-b630-4b07-a9d0-c9cbfb3ad7c1"
  },
  {
    "id": "ef744dc1-63e4-4f98-8c3b-07f487d2815a",
    "name": "Voskhod",
    "state_id": "39ce410b-b630-4b07-a9d0-c9cbfb3ad7c1"
  },
  {
    "id": "70a53752-4ea3-4b63-b4f9-548c4dbd8e29",
    "name": "Voykovo",
    "state_id": "39ce410b-b630-4b07-a9d0-c9cbfb3ad7c1"
  },
  {
    "id": "033d4ebb-9a35-46d9-ac28-17169e38563b",
    "name": "Yalta",
    "state_id": "39ce410b-b630-4b07-a9d0-c9cbfb3ad7c1"
  },
  {
    "id": "bd8c7818-913e-47ea-876c-a7a4a8e9c2a7",
    "name": "Yantarnoye",
    "state_id": "39ce410b-b630-4b07-a9d0-c9cbfb3ad7c1"
  },
  {
    "id": "dfeba9c4-9fee-48c8-8b2e-e1a2005bfd68",
    "name": "Yarkoye",
    "state_id": "39ce410b-b630-4b07-a9d0-c9cbfb3ad7c1"
  },
  {
    "id": "8b1b1021-9517-4b84-b070-efc474935546",
    "name": "Yarkoye Pole",
    "state_id": "39ce410b-b630-4b07-a9d0-c9cbfb3ad7c1"
  },
  {
    "id": "2d2d1517-353e-4d2e-9f1b-792c64681f59",
    "name": "Yasnopolyanskoye",
    "state_id": "39ce410b-b630-4b07-a9d0-c9cbfb3ad7c1"
  },
  {
    "id": "37f77753-9a31-49e2-bf05-11ee1715e896",
    "name": "Yemelyanovka",
    "state_id": "39ce410b-b630-4b07-a9d0-c9cbfb3ad7c1"
  },
  {
    "id": "7885af3b-dd25-4a4f-9f3d-fd9953860e9e",
    "name": "Yermakovo",
    "state_id": "39ce410b-b630-4b07-a9d0-c9cbfb3ad7c1"
  },
  {
    "id": "fd4b7638-8d4a-447f-8ab0-1a149dabf18a",
    "name": "Yevpatoriya",
    "state_id": "39ce410b-b630-4b07-a9d0-c9cbfb3ad7c1"
  },
  {
    "id": "21efa924-262d-4493-82f1-0e5b5900fed1",
    "name": "Zalesye",
    "state_id": "39ce410b-b630-4b07-a9d0-c9cbfb3ad7c1"
  },
  {
    "id": "4c1e8816-92e6-4486-83ea-357d549ad4f4",
    "name": "Zaozyornoye",
    "state_id": "39ce410b-b630-4b07-a9d0-c9cbfb3ad7c1"
  },
  {
    "id": "2d6a5ac4-c7d8-4100-acba-2160ebf7bd67",
    "name": "Zarechnoye",
    "state_id": "39ce410b-b630-4b07-a9d0-c9cbfb3ad7c1"
  },
  {
    "id": "4a49ed98-9fbb-4f61-ad29-f6b9f3bbd0ca",
    "name": "Zavet-Leninskiy",
    "state_id": "39ce410b-b630-4b07-a9d0-c9cbfb3ad7c1"
  },
  {
    "id": "622142f6-76fb-4f39-a9d3-a21abba3880a",
    "name": "Zavetnoye",
    "state_id": "39ce410b-b630-4b07-a9d0-c9cbfb3ad7c1"
  },
  {
    "id": "8632a77f-3cfc-44d6-99d1-3a93754ebd94",
    "name": "Zelenogorskoye",
    "state_id": "39ce410b-b630-4b07-a9d0-c9cbfb3ad7c1"
  },
  {
    "id": "0a311d6a-bde8-41ef-b282-282eefb56956",
    "name": "Zelyonoye",
    "state_id": "39ce410b-b630-4b07-a9d0-c9cbfb3ad7c1"
  },
  {
    "id": "30b55d9e-f70b-4214-9a42-5042efaaf0e3",
    "name": "Zemlyanichnoye",
    "state_id": "39ce410b-b630-4b07-a9d0-c9cbfb3ad7c1"
  },
  {
    "id": "55dc6aa4-dce0-49ef-b528-27572edbc375",
    "name": "Zernovoye",
    "state_id": "39ce410b-b630-4b07-a9d0-c9cbfb3ad7c1"
  },
  {
    "id": "0e0bda3f-d448-4e5b-954e-f61a9ec3c77c",
    "name": "Zheleznodorozhnoye",
    "state_id": "39ce410b-b630-4b07-a9d0-c9cbfb3ad7c1"
  },
  {
    "id": "7df577fd-adaf-458c-b61d-f9ec9b4d7464",
    "name": "Zhelyabovka",
    "state_id": "39ce410b-b630-4b07-a9d0-c9cbfb3ad7c1"
  },
  {
    "id": "868290c5-2270-42ee-813f-592891700256",
    "name": "Zhemchuzhina",
    "state_id": "39ce410b-b630-4b07-a9d0-c9cbfb3ad7c1"
  },
  {
    "id": "4e45ac19-571c-4bf8-93a7-99a4cd77d194",
    "name": "Zhuravki",
    "state_id": "39ce410b-b630-4b07-a9d0-c9cbfb3ad7c1"
  },
  {
    "id": "a412bf0b-f693-4ac9-ab45-dc92d251a3e7",
    "name": "Zhuravli",
    "state_id": "39ce410b-b630-4b07-a9d0-c9cbfb3ad7c1"
  },
  {
    "id": "680f5b69-b42a-424f-b78f-21343c5d342b",
    "name": "Zhuravlyovka",
    "state_id": "39ce410b-b630-4b07-a9d0-c9cbfb3ad7c1"
  },
  {
    "id": "60981e08-9fe7-4298-8fcb-00ba1db13e65",
    "name": "Zimino",
    "state_id": "39ce410b-b630-4b07-a9d0-c9cbfb3ad7c1"
  },
  {
    "id": "08f3cb60-5bd9-4f6a-8ab8-383f26199d94",
    "name": "Zolotoye Pole",
    "state_id": "39ce410b-b630-4b07-a9d0-c9cbfb3ad7c1"
  },
  {
    "id": "47e2a300-1b84-498b-9a32-82aab09c4924",
    "name": "Zorkino",
    "state_id": "39ce410b-b630-4b07-a9d0-c9cbfb3ad7c1"
  },
  {
    "id": "9db63a33-8a24-4b43-a406-75d836009af3",
    "name": "Zuya",
    "state_id": "39ce410b-b630-4b07-a9d0-c9cbfb3ad7c1"
  },
  {
    "id": "39c6ea70-38fa-4a9d-82c2-36f3f3cbeafc",
    "name": "Zybiny",
    "state_id": "39ce410b-b630-4b07-a9d0-c9cbfb3ad7c1"
  }
]