[
  {
    "id": "4e32eb83-b51e-4210-8062-8e3812c0c209",
    "name": "‘Izbat al Burj",
    "state_id": "3a07acc7-960a-4ae9-afa2-ef66d7758a5d"
  },
  {
    "id": "c029ce5a-08e0-48e3-9eb9-1370a7e9546d",
    "name": "Ajā",
    "state_id": "3a07acc7-960a-4ae9-afa2-ef66d7758a5d"
  },
  {
    "id": "8cd21887-dbee-46cc-9277-7db46c86bfa0",
    "name": "Al Jammālīyah",
    "state_id": "3a07acc7-960a-4ae9-afa2-ef66d7758a5d"
  },
  {
    "id": "a76df24c-466f-4617-a572-a2f2c756d451",
    "name": "Al Manşūrah",
    "state_id": "3a07acc7-960a-4ae9-afa2-ef66d7758a5d"
  },
  {
    "id": "d4c88e72-7755-409a-82af-faf7f23a271e",
    "name": "Al Manzalah",
    "state_id": "3a07acc7-960a-4ae9-afa2-ef66d7758a5d"
  },
  {
    "id": "8981ae83-e9da-42e8-97f9-60a0724e7258",
    "name": "Al Maţarīyah",
    "state_id": "3a07acc7-960a-4ae9-afa2-ef66d7758a5d"
  },
  {
    "id": "7a526b77-ce80-4d7a-a7ac-ace9f19e01c1",
    "name": "Bilqās",
    "state_id": "3a07acc7-960a-4ae9-afa2-ef66d7758a5d"
  },
  {
    "id": "8e7ac421-8a0c-49df-81b9-ffacae5036aa",
    "name": "Dikirnis",
    "state_id": "3a07acc7-960a-4ae9-afa2-ef66d7758a5d"
  },
  {
    "id": "ed7eda3b-b795-4256-a983-d61b1912f0c7",
    "name": "Minyat an Naşr",
    "state_id": "3a07acc7-960a-4ae9-afa2-ef66d7758a5d"
  },
  {
    "id": "0d931e0a-e672-4cac-8e6f-2e2235018a45",
    "name": "Shirbīn",
    "state_id": "3a07acc7-960a-4ae9-afa2-ef66d7758a5d"
  },
  {
    "id": "bf9ee636-5592-4003-b1fa-428cf23f3d49",
    "name": "Ţalkhā",
    "state_id": "3a07acc7-960a-4ae9-afa2-ef66d7758a5d"
  }
]