[
  {
    "id": "9444f267-c452-4508-a83f-600d02f32972",
    "name": "Bukittinggi",
    "state_id": "3a14503f-e3d9-4cd5-855e-f3b3e2cdaa77"
  },
  {
    "id": "637145f7-3458-41ce-918b-e93f98443c76",
    "name": "Kabupaten Agam",
    "state_id": "3a14503f-e3d9-4cd5-855e-f3b3e2cdaa77"
  },
  {
    "id": "5175c0dd-2e4b-4a64-854f-b837d99e000c",
    "name": "Kabupaten Dharmasraya",
    "state_id": "3a14503f-e3d9-4cd5-855e-f3b3e2cdaa77"
  },
  {
    "id": "fcd5fff9-ef57-49be-b138-bea3b3955bb2",
    "name": "Kabupaten Kepulauan Mentawai",
    "state_id": "3a14503f-e3d9-4cd5-855e-f3b3e2cdaa77"
  },
  {
    "id": "9b2e2f31-8f68-4039-8a41-37eeb20fd8ef",
    "name": "Kabupaten Lima Puluh Kota",
    "state_id": "3a14503f-e3d9-4cd5-855e-f3b3e2cdaa77"
  },
  {
    "id": "eb0442a8-6804-4048-8482-a4f2a51c0537",
    "name": "Kabupaten Padang Pariaman",
    "state_id": "3a14503f-e3d9-4cd5-855e-f3b3e2cdaa77"
  },
  {
    "id": "51ae5e3c-109a-43a3-b31b-0230cf8ae0cc",
    "name": "Kabupaten Pasaman",
    "state_id": "3a14503f-e3d9-4cd5-855e-f3b3e2cdaa77"
  },
  {
    "id": "caa2efd5-bc82-488e-9ef8-088a0ae9759f",
    "name": "Kabupaten Pasaman Barat",
    "state_id": "3a14503f-e3d9-4cd5-855e-f3b3e2cdaa77"
  },
  {
    "id": "1ea912dd-78eb-41aa-95f4-34074ef806e7",
    "name": "Kabupaten Pesisir Selatan",
    "state_id": "3a14503f-e3d9-4cd5-855e-f3b3e2cdaa77"
  },
  {
    "id": "772d63c0-a9b3-498c-8007-1294e40f3386",
    "name": "Kabupaten Sijunjung",
    "state_id": "3a14503f-e3d9-4cd5-855e-f3b3e2cdaa77"
  },
  {
    "id": "01960dad-be0e-4b21-91de-0cfc465518d4",
    "name": "Kabupaten Solok",
    "state_id": "3a14503f-e3d9-4cd5-855e-f3b3e2cdaa77"
  },
  {
    "id": "f19237a6-a872-4d3d-b598-7395fd753d5f",
    "name": "Kabupaten Solok Selatan",
    "state_id": "3a14503f-e3d9-4cd5-855e-f3b3e2cdaa77"
  },
  {
    "id": "561fa9aa-f3ec-4675-b3b2-2026fd52186f",
    "name": "Kabupaten Tanah Datar",
    "state_id": "3a14503f-e3d9-4cd5-855e-f3b3e2cdaa77"
  },
  {
    "id": "166d23db-c6af-41c6-a710-3948db8f23eb",
    "name": "Kota Bukittinggi",
    "state_id": "3a14503f-e3d9-4cd5-855e-f3b3e2cdaa77"
  },
  {
    "id": "962af3ac-6332-4275-b2e1-eb913dee9765",
    "name": "Kota Padang",
    "state_id": "3a14503f-e3d9-4cd5-855e-f3b3e2cdaa77"
  },
  {
    "id": "606fa36c-41ed-451b-bf51-ca0eac4698ad",
    "name": "Kota Padang Panjang",
    "state_id": "3a14503f-e3d9-4cd5-855e-f3b3e2cdaa77"
  },
  {
    "id": "e8c404f2-3b11-4f3f-8616-595eea933448",
    "name": "Kota Pariaman",
    "state_id": "3a14503f-e3d9-4cd5-855e-f3b3e2cdaa77"
  },
  {
    "id": "cdeac818-f70e-4077-baa7-6b7f8b024a7d",
    "name": "Kota Payakumbuh",
    "state_id": "3a14503f-e3d9-4cd5-855e-f3b3e2cdaa77"
  },
  {
    "id": "5a34260f-2813-4e53-911e-07da00005554",
    "name": "Kota Sawah Lunto",
    "state_id": "3a14503f-e3d9-4cd5-855e-f3b3e2cdaa77"
  },
  {
    "id": "c68a5fc2-1344-45d9-b509-4f46679f8c65",
    "name": "Kota Solok",
    "state_id": "3a14503f-e3d9-4cd5-855e-f3b3e2cdaa77"
  },
  {
    "id": "366da9cd-4bd0-4201-b8b6-aaa56492d11e",
    "name": "Padang",
    "state_id": "3a14503f-e3d9-4cd5-855e-f3b3e2cdaa77"
  },
  {
    "id": "9266b843-f10d-4b67-a0a4-5780aad3f052",
    "name": "Pariaman",
    "state_id": "3a14503f-e3d9-4cd5-855e-f3b3e2cdaa77"
  },
  {
    "id": "41ea3345-236a-4953-89d9-e34f0a45591b",
    "name": "Payakumbuh",
    "state_id": "3a14503f-e3d9-4cd5-855e-f3b3e2cdaa77"
  },
  {
    "id": "d07054e9-e5c0-4920-88b4-c0922ac910a0",
    "name": "Sijunjung",
    "state_id": "3a14503f-e3d9-4cd5-855e-f3b3e2cdaa77"
  },
  {
    "id": "ce685505-aa26-40f6-9955-f3f3d63d0bea",
    "name": "Solok",
    "state_id": "3a14503f-e3d9-4cd5-855e-f3b3e2cdaa77"
  }
]