[
  {
    "id": "115c9ede-6e1a-4070-ae4e-fe591cd89926",
    "name": "Abu Ghraib District",
    "state_id": "3a9c27ca-a7a1-492b-bae5-b36dc2b86bf8"
  },
  {
    "id": "01ffaba2-3284-4ac6-911d-753b91489f42",
    "name": "Abū Ghurayb",
    "state_id": "3a9c27ca-a7a1-492b-bae5-b36dc2b86bf8"
  },
  {
    "id": "ad193e7b-8100-40e9-9c56-683c6f7c5ffd",
    "name": "Baghdad",
    "state_id": "3a9c27ca-a7a1-492b-bae5-b36dc2b86bf8"
  }
]