[
  {
    "id": "e5d9e7d6-5bb2-497c-8b81-875c1352bc1b",
    "name": "Agbabu",
    "state_id": "3dc7bfbd-9f71-4975-bcf3-10b0293adc64"
  },
  {
    "id": "7015774c-bf94-4fb4-a818-84531f20289d",
    "name": "Akure",
    "state_id": "3dc7bfbd-9f71-4975-bcf3-10b0293adc64"
  },
  {
    "id": "e0d5584b-7a3b-4432-9910-8c38aa400a85",
    "name": "Idanre",
    "state_id": "3dc7bfbd-9f71-4975-bcf3-10b0293adc64"
  },
  {
    "id": "ce88bc78-10e0-4d24-992b-7ac6436ed19c",
    "name": "Ifon",
    "state_id": "3dc7bfbd-9f71-4975-bcf3-10b0293adc64"
  },
  {
    "id": "3da3031c-cb45-453f-9ca3-6de9cb914e1f",
    "name": "Ilare",
    "state_id": "3dc7bfbd-9f71-4975-bcf3-10b0293adc64"
  },
  {
    "id": "b920d8b1-9d05-4c8c-bd34-a7f5389c69b4",
    "name": "Ode",
    "state_id": "3dc7bfbd-9f71-4975-bcf3-10b0293adc64"
  },
  {
    "id": "5024a968-d025-4819-8917-82de35eaaaf4",
    "name": "Ondo",
    "state_id": "3dc7bfbd-9f71-4975-bcf3-10b0293adc64"
  },
  {
    "id": "215181d9-88c5-4060-a503-e9d068847588",
    "name": "Ore",
    "state_id": "3dc7bfbd-9f71-4975-bcf3-10b0293adc64"
  },
  {
    "id": "bda1ec68-ddd1-44f4-8d51-1a35ee2a0683",
    "name": "Owo",
    "state_id": "3dc7bfbd-9f71-4975-bcf3-10b0293adc64"
  }
]