[
  {
    "id": "5e3d8333-83a5-424e-bd77-7345e03e4b89",
    "name": "Adorf",
    "state_id": "3e2d441e-c1a0-4b41-9d5b-5a353717bbe6"
  },
  {
    "id": "9544a19e-8cd0-4c1a-9b85-97c31f617211",
    "name": "Albertstadt",
    "state_id": "3e2d441e-c1a0-4b41-9d5b-5a353717bbe6"
  },
  {
    "id": "cbd95037-6b4b-4d0b-8f4d-077fe2c44e77",
    "name": "Altenberg",
    "state_id": "3e2d441e-c1a0-4b41-9d5b-5a353717bbe6"
  },
  {
    "id": "636762d5-c191-4d71-a460-c0895c627347",
    "name": "Altmittweida",
    "state_id": "3e2d441e-c1a0-4b41-9d5b-5a353717bbe6"
  },
  {
    "id": "cb079ccf-832d-4eb9-abdb-79b273f84644",
    "name": "Annaberg-Buchholz",
    "state_id": "3e2d441e-c1a0-4b41-9d5b-5a353717bbe6"
  },
  {
    "id": "03b4a211-c9bf-4417-a18e-a33af29e6b39",
    "name": "Arzberg",
    "state_id": "3e2d441e-c1a0-4b41-9d5b-5a353717bbe6"
  },
  {
    "id": "e818bbf1-e036-4425-a017-859e289008d8",
    "name": "Aue",
    "state_id": "3e2d441e-c1a0-4b41-9d5b-5a353717bbe6"
  },
  {
    "id": "21052fed-73f7-42c8-b42d-af23b317470a",
    "name": "Auerbach",
    "state_id": "3e2d441e-c1a0-4b41-9d5b-5a353717bbe6"
  },
  {
    "id": "c8f55600-21dc-41f4-8524-e9afc19f2980",
    "name": "Augustusburg",
    "state_id": "3e2d441e-c1a0-4b41-9d5b-5a353717bbe6"
  },
  {
    "id": "b16e75ac-97f9-4661-8a50-2108fccf3fe9",
    "name": "Bad Brambach",
    "state_id": "3e2d441e-c1a0-4b41-9d5b-5a353717bbe6"
  },
  {
    "id": "a63926aa-9f0b-44be-8232-487b68485e7e",
    "name": "Bad Düben",
    "state_id": "3e2d441e-c1a0-4b41-9d5b-5a353717bbe6"
  },
  {
    "id": "f799785c-39d6-42e0-bb76-df58c84568f9",
    "name": "Bad Elster",
    "state_id": "3e2d441e-c1a0-4b41-9d5b-5a353717bbe6"
  },
  {
    "id": "1a0c0a66-d5bd-48e2-87bb-0c963a7c6644",
    "name": "Bad Lausick",
    "state_id": "3e2d441e-c1a0-4b41-9d5b-5a353717bbe6"
  },
  {
    "id": "48498304-bc49-4b2f-abbd-7350bf7e73f9",
    "name": "Bad Muskau",
    "state_id": "3e2d441e-c1a0-4b41-9d5b-5a353717bbe6"
  },
  {
    "id": "b17ad10b-f41b-40e6-a330-435fdc6bbefd",
    "name": "Bad Schandau",
    "state_id": "3e2d441e-c1a0-4b41-9d5b-5a353717bbe6"
  },
  {
    "id": "d5d69c23-3eb0-4af3-bcad-1ff7ae5f0745",
    "name": "Bad Schlema",
    "state_id": "3e2d441e-c1a0-4b41-9d5b-5a353717bbe6"
  },
  {
    "id": "fa871761-32ef-4f06-a724-92f091c2f330",
    "name": "Bannewitz",
    "state_id": "3e2d441e-c1a0-4b41-9d5b-5a353717bbe6"
  },
  {
    "id": "b2c42c4e-6f7e-45d1-9347-3eac05a9028b",
    "name": "Bärenstein",
    "state_id": "3e2d441e-c1a0-4b41-9d5b-5a353717bbe6"
  },
  {
    "id": "b496be07-4346-4a3c-965b-064a1d997361",
    "name": "Bautzen",
    "state_id": "3e2d441e-c1a0-4b41-9d5b-5a353717bbe6"
  },
  {
    "id": "1342c283-7eb5-42d3-91d3-93c5530245a8",
    "name": "Beierfeld",
    "state_id": "3e2d441e-c1a0-4b41-9d5b-5a353717bbe6"
  },
  {
    "id": "5d78de72-d879-4760-83a7-4673bce0feee",
    "name": "Beiersdorf",
    "state_id": "3e2d441e-c1a0-4b41-9d5b-5a353717bbe6"
  },
  {
    "id": "7de87a1a-eddb-4e4a-a028-a866dea08864",
    "name": "Beilrode",
    "state_id": "3e2d441e-c1a0-4b41-9d5b-5a353717bbe6"
  },
  {
    "id": "35a1fc47-b442-46a3-be8d-d772915adf0f",
    "name": "Belgern",
    "state_id": "3e2d441e-c1a0-4b41-9d5b-5a353717bbe6"
  },
  {
    "id": "46bf686f-f1db-4ec5-80bb-b6cfb3d3046c",
    "name": "Belgershain",
    "state_id": "3e2d441e-c1a0-4b41-9d5b-5a353717bbe6"
  },
  {
    "id": "3fa861a0-120f-4dd2-a0a1-90279a12d8aa",
    "name": "Bennewitz",
    "state_id": "3e2d441e-c1a0-4b41-9d5b-5a353717bbe6"
  },
  {
    "id": "74e130a5-f2bb-41f7-b9fd-718a230642ac",
    "name": "Bergen",
    "state_id": "3e2d441e-c1a0-4b41-9d5b-5a353717bbe6"
  },
  {
    "id": "952802ca-8903-4238-a249-2976e10c18d7",
    "name": "Bernsbach",
    "state_id": "3e2d441e-c1a0-4b41-9d5b-5a353717bbe6"
  },
  {
    "id": "9dce5413-66d5-4066-adfb-ec00cc0e98d8",
    "name": "Bernsdorf",
    "state_id": "3e2d441e-c1a0-4b41-9d5b-5a353717bbe6"
  },
  {
    "id": "93a4dc26-6c07-46b8-ad9e-36c8fe146690",
    "name": "Bernstadt",
    "state_id": "3e2d441e-c1a0-4b41-9d5b-5a353717bbe6"
  },
  {
    "id": "49dc73c4-7040-46c7-85bd-0d4516784c04",
    "name": "Berthelsdorf",
    "state_id": "3e2d441e-c1a0-4b41-9d5b-5a353717bbe6"
  },
  {
    "id": "79efa17b-e50f-4fa3-8f75-bd621f63c409",
    "name": "Bertsdorf-Hörnitz",
    "state_id": "3e2d441e-c1a0-4b41-9d5b-5a353717bbe6"
  },
  {
    "id": "dbb29bed-d64c-46de-8a4f-3a04e2a48fd6",
    "name": "Bischofswerda",
    "state_id": "3e2d441e-c1a0-4b41-9d5b-5a353717bbe6"
  },
  {
    "id": "28fe81e1-aab6-48f9-9278-529f4fa0f3e2",
    "name": "Bockau",
    "state_id": "3e2d441e-c1a0-4b41-9d5b-5a353717bbe6"
  },
  {
    "id": "de4c64f3-e1cb-4812-bf44-8607082ef19f",
    "name": "Bockelwitz",
    "state_id": "3e2d441e-c1a0-4b41-9d5b-5a353717bbe6"
  },
  {
    "id": "142eee5f-5622-4157-b5ba-aa1c902db440",
    "name": "Böhlen",
    "state_id": "3e2d441e-c1a0-4b41-9d5b-5a353717bbe6"
  },
  {
    "id": "af76fbdb-a042-4e1a-aa0c-029d315250d1",
    "name": "Borna",
    "state_id": "3e2d441e-c1a0-4b41-9d5b-5a353717bbe6"
  },
  {
    "id": "699dee82-c79e-4b93-998b-802a38c28194",
    "name": "Börnichen",
    "state_id": "3e2d441e-c1a0-4b41-9d5b-5a353717bbe6"
  },
  {
    "id": "40794c21-0bfb-4c22-bc64-941a803f96d0",
    "name": "Borsdorf",
    "state_id": "3e2d441e-c1a0-4b41-9d5b-5a353717bbe6"
  },
  {
    "id": "445ddb46-83ab-42f3-bd8b-502adad4ecf0",
    "name": "Borstendorf",
    "state_id": "3e2d441e-c1a0-4b41-9d5b-5a353717bbe6"
  },
  {
    "id": "c0a39b3f-be54-4802-af63-391c4b2b5309",
    "name": "Bösenbrunn",
    "state_id": "3e2d441e-c1a0-4b41-9d5b-5a353717bbe6"
  },
  {
    "id": "8aa16306-ed0a-4aba-ac8e-695d83bcc6ab",
    "name": "Boxberg",
    "state_id": "3e2d441e-c1a0-4b41-9d5b-5a353717bbe6"
  },
  {
    "id": "ddb768d1-f16a-46ae-bda1-45cda8f1fc47",
    "name": "Brand-Erbisdorf",
    "state_id": "3e2d441e-c1a0-4b41-9d5b-5a353717bbe6"
  },
  {
    "id": "8483bc17-562b-4cd4-aafd-29a54adc7617",
    "name": "Brandis",
    "state_id": "3e2d441e-c1a0-4b41-9d5b-5a353717bbe6"
  },
  {
    "id": "1d3010b8-dbe6-4a8c-8a60-2aa97605a614",
    "name": "Breitenbrunn",
    "state_id": "3e2d441e-c1a0-4b41-9d5b-5a353717bbe6"
  },
  {
    "id": "dcdcfa67-7de7-496d-adf3-52b3ac1e7bfc",
    "name": "Burgstädt",
    "state_id": "3e2d441e-c1a0-4b41-9d5b-5a353717bbe6"
  },
  {
    "id": "9487f62e-62db-43f9-a04d-6d7450a8b972",
    "name": "Burkau",
    "state_id": "3e2d441e-c1a0-4b41-9d5b-5a353717bbe6"
  },
  {
    "id": "45f5b6e5-5180-45c8-a943-a2705d5f9e2e",
    "name": "Burkhardtsdorf",
    "state_id": "3e2d441e-c1a0-4b41-9d5b-5a353717bbe6"
  },
  {
    "id": "3d45119c-2007-410a-aab3-ebf591154f3d",
    "name": "Callenberg",
    "state_id": "3e2d441e-c1a0-4b41-9d5b-5a353717bbe6"
  },
  {
    "id": "5a082ecf-70e1-4a37-8a27-45d0dfd1f42a",
    "name": "Cavertitz",
    "state_id": "3e2d441e-c1a0-4b41-9d5b-5a353717bbe6"
  },
  {
    "id": "b97a41ea-21fd-4e23-a1ce-30453ed9e88f",
    "name": "Chemnitz",
    "state_id": "3e2d441e-c1a0-4b41-9d5b-5a353717bbe6"
  },
  {
    "id": "6e275b7d-9c0d-4008-a8ab-13ffeb71bcd0",
    "name": "Claußnitz",
    "state_id": "3e2d441e-c1a0-4b41-9d5b-5a353717bbe6"
  },
  {
    "id": "18cac10e-bd0e-4714-a564-10bfeba6b8ec",
    "name": "Colditz",
    "state_id": "3e2d441e-c1a0-4b41-9d5b-5a353717bbe6"
  },
  {
    "id": "fcc09ecc-d223-456a-90ff-3428f68a4fa6",
    "name": "Coswig",
    "state_id": "3e2d441e-c1a0-4b41-9d5b-5a353717bbe6"
  },
  {
    "id": "d8f2580e-c825-4bbe-b971-d95fc0cff100",
    "name": "Crimmitschau",
    "state_id": "3e2d441e-c1a0-4b41-9d5b-5a353717bbe6"
  },
  {
    "id": "385a7a7a-7cc9-4092-ad80-32505bb0cac8",
    "name": "Crostau",
    "state_id": "3e2d441e-c1a0-4b41-9d5b-5a353717bbe6"
  },
  {
    "id": "b3f25572-3edf-4d48-a683-d13ed8260ac9",
    "name": "Crostwitz",
    "state_id": "3e2d441e-c1a0-4b41-9d5b-5a353717bbe6"
  },
  {
    "id": "9ff9f009-eb08-4af6-9062-50dd20ada6f5",
    "name": "Crottendorf",
    "state_id": "3e2d441e-c1a0-4b41-9d5b-5a353717bbe6"
  },
  {
    "id": "649c9ba8-32dd-45a9-9bbd-f628be9f2dfb",
    "name": "Cunewalde",
    "state_id": "3e2d441e-c1a0-4b41-9d5b-5a353717bbe6"
  },
  {
    "id": "afa910c2-4f7c-4f17-a5fe-d97fd472ba1c",
    "name": "Dahlen",
    "state_id": "3e2d441e-c1a0-4b41-9d5b-5a353717bbe6"
  },
  {
    "id": "41934717-c799-423f-afed-9082141bcb32",
    "name": "Delitzsch",
    "state_id": "3e2d441e-c1a0-4b41-9d5b-5a353717bbe6"
  },
  {
    "id": "6d38c9fd-cea7-48be-82b4-ca278465fef5",
    "name": "Demitz-Thumitz",
    "state_id": "3e2d441e-c1a0-4b41-9d5b-5a353717bbe6"
  },
  {
    "id": "56e1a8a7-712d-4a3d-a016-fae6547cb063",
    "name": "Dennheritz",
    "state_id": "3e2d441e-c1a0-4b41-9d5b-5a353717bbe6"
  },
  {
    "id": "05a95526-ea71-46cf-aab5-dadc9ce14639",
    "name": "Deutzen",
    "state_id": "3e2d441e-c1a0-4b41-9d5b-5a353717bbe6"
  },
  {
    "id": "73ad4aac-6f0e-42bd-889d-b44dccf44466",
    "name": "Dippoldiswalde",
    "state_id": "3e2d441e-c1a0-4b41-9d5b-5a353717bbe6"
  },
  {
    "id": "7890885f-6560-401c-b1f6-5f744f1896ea",
    "name": "Döbeln",
    "state_id": "3e2d441e-c1a0-4b41-9d5b-5a353717bbe6"
  },
  {
    "id": "95c2c453-1774-4429-b2b7-b0b54e3b2470",
    "name": "Döbernitz",
    "state_id": "3e2d441e-c1a0-4b41-9d5b-5a353717bbe6"
  },
  {
    "id": "9e1d94b4-8dd3-403a-b2fb-5ae3a8476ffc",
    "name": "Doberschütz",
    "state_id": "3e2d441e-c1a0-4b41-9d5b-5a353717bbe6"
  },
  {
    "id": "26d23de7-7ca2-40c8-9865-491c33d5be18",
    "name": "Dohma",
    "state_id": "3e2d441e-c1a0-4b41-9d5b-5a353717bbe6"
  },
  {
    "id": "e70e4b1c-00b0-44e4-84fa-bb9b6183a050",
    "name": "Dohna",
    "state_id": "3e2d441e-c1a0-4b41-9d5b-5a353717bbe6"
  },
  {
    "id": "417f6faf-40c6-4b33-a4b1-0cd23e43a14c",
    "name": "Dommitzsch",
    "state_id": "3e2d441e-c1a0-4b41-9d5b-5a353717bbe6"
  },
  {
    "id": "689d73d7-58af-4616-a931-64d1fae80c5b",
    "name": "Dorfchemnitz",
    "state_id": "3e2d441e-c1a0-4b41-9d5b-5a353717bbe6"
  },
  {
    "id": "70e0dadd-0d2f-4d3e-89d0-465b2ea8cb35",
    "name": "Dorfhain",
    "state_id": "3e2d441e-c1a0-4b41-9d5b-5a353717bbe6"
  },
  {
    "id": "1fe95b27-4bc4-43e8-8f16-33d15a68a412",
    "name": "Drebach",
    "state_id": "3e2d441e-c1a0-4b41-9d5b-5a353717bbe6"
  },
  {
    "id": "0d74dee6-3abd-4dfb-8b22-fd1cbbde3365",
    "name": "Dresden",
    "state_id": "3e2d441e-c1a0-4b41-9d5b-5a353717bbe6"
  },
  {
    "id": "959e1d0b-7f57-4256-a2c6-a425d2fc8a0b",
    "name": "Dürrhennersdorf",
    "state_id": "3e2d441e-c1a0-4b41-9d5b-5a353717bbe6"
  },
  {
    "id": "b4c79ef4-dc57-4fdc-bd9f-634811edfa1e",
    "name": "Dürrröhrsdorf",
    "state_id": "3e2d441e-c1a0-4b41-9d5b-5a353717bbe6"
  },
  {
    "id": "a11e048e-8785-4ea6-b91f-41619a9fb565",
    "name": "Ebersbach",
    "state_id": "3e2d441e-c1a0-4b41-9d5b-5a353717bbe6"
  },
  {
    "id": "fbf0e86b-233b-47a0-84c1-306ac8742ec7",
    "name": "Ehrenfriedersdorf",
    "state_id": "3e2d441e-c1a0-4b41-9d5b-5a353717bbe6"
  },
  {
    "id": "0b22c50b-45cc-4a74-a011-215735fa7455",
    "name": "Eibau",
    "state_id": "3e2d441e-c1a0-4b41-9d5b-5a353717bbe6"
  },
  {
    "id": "79675304-01f2-4022-a27d-0c1125655dcd",
    "name": "Eibenstock",
    "state_id": "3e2d441e-c1a0-4b41-9d5b-5a353717bbe6"
  },
  {
    "id": "80c9ae23-08e4-4a06-b27f-6bf01c2225d2",
    "name": "Eichigt",
    "state_id": "3e2d441e-c1a0-4b41-9d5b-5a353717bbe6"
  },
  {
    "id": "54447499-f35f-4a17-9d3b-57d99a0020c4",
    "name": "Eilenburg",
    "state_id": "3e2d441e-c1a0-4b41-9d5b-5a353717bbe6"
  },
  {
    "id": "7d4a0568-5c79-4770-a51a-55e0a1b7f2f5",
    "name": "Ellefeld",
    "state_id": "3e2d441e-c1a0-4b41-9d5b-5a353717bbe6"
  },
  {
    "id": "0c71459b-07d2-470b-83d0-b7c2a3947688",
    "name": "Elsnig",
    "state_id": "3e2d441e-c1a0-4b41-9d5b-5a353717bbe6"
  },
  {
    "id": "d0a11a8c-c258-44c2-8b6d-0f437a15a97f",
    "name": "Elsterberg",
    "state_id": "3e2d441e-c1a0-4b41-9d5b-5a353717bbe6"
  },
  {
    "id": "97b59dac-7ea7-4242-917b-009f15323ef7",
    "name": "Elstertrebnitz",
    "state_id": "3e2d441e-c1a0-4b41-9d5b-5a353717bbe6"
  },
  {
    "id": "a9238061-b945-483b-9918-aab3c866bbd4",
    "name": "Elstra",
    "state_id": "3e2d441e-c1a0-4b41-9d5b-5a353717bbe6"
  },
  {
    "id": "7c92119b-db0c-4e44-8199-772017dfe732",
    "name": "Elterlein",
    "state_id": "3e2d441e-c1a0-4b41-9d5b-5a353717bbe6"
  },
  {
    "id": "e65c2de3-86a9-4adb-8d83-612630083b8c",
    "name": "Eppendorf",
    "state_id": "3e2d441e-c1a0-4b41-9d5b-5a353717bbe6"
  },
  {
    "id": "ea643324-a9de-4eb2-ac20-38685b7b1593",
    "name": "Erlau",
    "state_id": "3e2d441e-c1a0-4b41-9d5b-5a353717bbe6"
  },
  {
    "id": "6f6ebd0a-c20e-468d-9f90-42b9a02e1fa8",
    "name": "Erlbach",
    "state_id": "3e2d441e-c1a0-4b41-9d5b-5a353717bbe6"
  },
  {
    "id": "e136fc03-e112-4341-9fc3-b442b21bc9fd",
    "name": "Espenhain",
    "state_id": "3e2d441e-c1a0-4b41-9d5b-5a353717bbe6"
  },
  {
    "id": "0515813c-ccb0-4e3d-9938-147783d5b446",
    "name": "Falkenau",
    "state_id": "3e2d441e-c1a0-4b41-9d5b-5a353717bbe6"
  },
  {
    "id": "f03a1280-bb34-4357-addc-935687ec9cbd",
    "name": "Falkenhain",
    "state_id": "3e2d441e-c1a0-4b41-9d5b-5a353717bbe6"
  },
  {
    "id": "903f86cf-678e-4d54-866f-d401e9135335",
    "name": "Falkenstein",
    "state_id": "3e2d441e-c1a0-4b41-9d5b-5a353717bbe6"
  },
  {
    "id": "115cb391-738a-4cf3-ae94-94e304ed9932",
    "name": "Flöha",
    "state_id": "3e2d441e-c1a0-4b41-9d5b-5a353717bbe6"
  },
  {
    "id": "0cb8d48f-7ff1-4549-b8b1-68bd4b0a9818",
    "name": "Frankenberg",
    "state_id": "3e2d441e-c1a0-4b41-9d5b-5a353717bbe6"
  },
  {
    "id": "87957f13-db72-413c-8580-de8eb732888f",
    "name": "Frankenstein",
    "state_id": "3e2d441e-c1a0-4b41-9d5b-5a353717bbe6"
  },
  {
    "id": "6a55e5df-a72b-4e49-9af8-7ae15e51ef6c",
    "name": "Frankenthal",
    "state_id": "3e2d441e-c1a0-4b41-9d5b-5a353717bbe6"
  },
  {
    "id": "9a587466-8d00-4cc3-84ed-dfdac6da4e94",
    "name": "Frauenstein",
    "state_id": "3e2d441e-c1a0-4b41-9d5b-5a353717bbe6"
  },
  {
    "id": "e27153f8-bfb8-4a1c-b102-796a7c17b63f",
    "name": "Fraureuth",
    "state_id": "3e2d441e-c1a0-4b41-9d5b-5a353717bbe6"
  },
  {
    "id": "18c9d6bb-5140-4b19-a834-fe9268fc671c",
    "name": "Freiberg",
    "state_id": "3e2d441e-c1a0-4b41-9d5b-5a353717bbe6"
  },
  {
    "id": "ea8944d2-9c81-4b5e-b6a6-6c1c5ef1b656",
    "name": "Freital",
    "state_id": "3e2d441e-c1a0-4b41-9d5b-5a353717bbe6"
  },
  {
    "id": "9c6b1366-a4d4-49c9-9170-47fd5176c21a",
    "name": "Friedersdorf",
    "state_id": "3e2d441e-c1a0-4b41-9d5b-5a353717bbe6"
  },
  {
    "id": "996da3e8-b0af-4d7f-a03f-48e6e13892d6",
    "name": "Frohburg",
    "state_id": "3e2d441e-c1a0-4b41-9d5b-5a353717bbe6"
  },
  {
    "id": "89c5dc0d-c607-4b59-a159-e92e1fa33a39",
    "name": "Gablenz",
    "state_id": "3e2d441e-c1a0-4b41-9d5b-5a353717bbe6"
  },
  {
    "id": "e6c4dbbb-0df6-47ee-860b-e720f2c51d89",
    "name": "Geising",
    "state_id": "3e2d441e-c1a0-4b41-9d5b-5a353717bbe6"
  },
  {
    "id": "8a407be8-2e6b-491f-85ea-c2ef2c7e6e32",
    "name": "Geithain",
    "state_id": "3e2d441e-c1a0-4b41-9d5b-5a353717bbe6"
  },
  {
    "id": "4f52bb99-1773-4e08-8e59-036f69c6e7c7",
    "name": "Gelenau",
    "state_id": "3e2d441e-c1a0-4b41-9d5b-5a353717bbe6"
  },
  {
    "id": "ef49adff-4b5a-4e9f-9254-0c95ee0ea723",
    "name": "Geringswalde",
    "state_id": "3e2d441e-c1a0-4b41-9d5b-5a353717bbe6"
  },
  {
    "id": "d386a10a-ecc5-4056-8f04-5bcbf03a37c2",
    "name": "Gersdorf",
    "state_id": "3e2d441e-c1a0-4b41-9d5b-5a353717bbe6"
  },
  {
    "id": "a1cb82fb-2507-4a94-af26-6fcaa249bf51",
    "name": "Geyer",
    "state_id": "3e2d441e-c1a0-4b41-9d5b-5a353717bbe6"
  },
  {
    "id": "bb3738cc-2a23-42b1-a9d5-151ef830d5ff",
    "name": "Glashütte",
    "state_id": "3e2d441e-c1a0-4b41-9d5b-5a353717bbe6"
  },
  {
    "id": "e6b4b747-9925-4fa0-81b0-142fa02cf250",
    "name": "Glaubitz",
    "state_id": "3e2d441e-c1a0-4b41-9d5b-5a353717bbe6"
  },
  {
    "id": "52fbb2ed-3f17-4e58-8506-22ce5e242d3d",
    "name": "Glauchau",
    "state_id": "3e2d441e-c1a0-4b41-9d5b-5a353717bbe6"
  },
  {
    "id": "c45deec3-6d66-43be-9be5-12947103ffd4",
    "name": "Göda",
    "state_id": "3e2d441e-c1a0-4b41-9d5b-5a353717bbe6"
  },
  {
    "id": "aed9ccc6-5548-4778-9728-da3c6191afb1",
    "name": "Görlitz",
    "state_id": "3e2d441e-c1a0-4b41-9d5b-5a353717bbe6"
  },
  {
    "id": "530fb302-bfc5-4035-a81b-cd8c36e72991",
    "name": "Gornau",
    "state_id": "3e2d441e-c1a0-4b41-9d5b-5a353717bbe6"
  },
  {
    "id": "7ffe8239-917e-482b-93ce-5192b90e5e03",
    "name": "Gornsdorf",
    "state_id": "3e2d441e-c1a0-4b41-9d5b-5a353717bbe6"
  },
  {
    "id": "c3d78bee-b6cd-4fe7-b0fb-ee664e028775",
    "name": "Grimma",
    "state_id": "3e2d441e-c1a0-4b41-9d5b-5a353717bbe6"
  },
  {
    "id": "3013928f-bdb3-4d24-aecb-07939e6f2c8c",
    "name": "Groitzsch",
    "state_id": "3e2d441e-c1a0-4b41-9d5b-5a353717bbe6"
  },
  {
    "id": "7b4fa73a-14f9-42c4-bb2e-d082d0ab7510",
    "name": "Groß Düben",
    "state_id": "3e2d441e-c1a0-4b41-9d5b-5a353717bbe6"
  },
  {
    "id": "65b633ee-5248-4dad-b45e-97f44bdf2a02",
    "name": "Großbardau",
    "state_id": "3e2d441e-c1a0-4b41-9d5b-5a353717bbe6"
  },
  {
    "id": "37b043f6-006e-4341-9d91-8706dd4c65bb",
    "name": "Großbothen",
    "state_id": "3e2d441e-c1a0-4b41-9d5b-5a353717bbe6"
  },
  {
    "id": "651fb4e7-bfa6-415c-bf1f-d371254f35a8",
    "name": "Großdubrau",
    "state_id": "3e2d441e-c1a0-4b41-9d5b-5a353717bbe6"
  },
  {
    "id": "31725506-408a-49fb-b3fd-fe46ba26bfa0",
    "name": "Großenhain",
    "state_id": "3e2d441e-c1a0-4b41-9d5b-5a353717bbe6"
  },
  {
    "id": "67aa14cd-4b7f-4e24-84b3-bbec4cf25653",
    "name": "Großharthau",
    "state_id": "3e2d441e-c1a0-4b41-9d5b-5a353717bbe6"
  },
  {
    "id": "28a257a2-fdac-4fb0-a260-c5fe5efbee1a",
    "name": "Großhartmannsdorf",
    "state_id": "3e2d441e-c1a0-4b41-9d5b-5a353717bbe6"
  },
  {
    "id": "326666b5-498b-4e11-b25b-c1d2337e862d",
    "name": "Großhennersdorf",
    "state_id": "3e2d441e-c1a0-4b41-9d5b-5a353717bbe6"
  },
  {
    "id": "2dc153e6-5527-4115-8ee7-d6bbeaab7c56",
    "name": "Großlehna",
    "state_id": "3e2d441e-c1a0-4b41-9d5b-5a353717bbe6"
  },
  {
    "id": "4ca8481e-f5f1-41cc-9bfb-b8b9af80138b",
    "name": "Großnaundorf",
    "state_id": "3e2d441e-c1a0-4b41-9d5b-5a353717bbe6"
  },
  {
    "id": "1a70a7d4-db6b-4348-ba47-17aca26115ef",
    "name": "Großolbersdorf",
    "state_id": "3e2d441e-c1a0-4b41-9d5b-5a353717bbe6"
  },
  {
    "id": "4201e772-751f-44cd-83d9-18cc27fa88ff",
    "name": "Großpösna",
    "state_id": "3e2d441e-c1a0-4b41-9d5b-5a353717bbe6"
  },
  {
    "id": "adf1b93a-6f55-40da-9e8c-344ea6661819",
    "name": "Großpostwitz",
    "state_id": "3e2d441e-c1a0-4b41-9d5b-5a353717bbe6"
  },
  {
    "id": "14d76dba-e3a1-48f9-b7fd-921aff62d2b9",
    "name": "Großröhrsdorf",
    "state_id": "3e2d441e-c1a0-4b41-9d5b-5a353717bbe6"
  },
  {
    "id": "9126b23b-11cd-427a-94bd-2b4b4bcf36da",
    "name": "Großrückerswalde",
    "state_id": "3e2d441e-c1a0-4b41-9d5b-5a353717bbe6"
  },
  {
    "id": "225b576c-8d8a-4ff5-aad7-7e95d55011c4",
    "name": "Großschirma",
    "state_id": "3e2d441e-c1a0-4b41-9d5b-5a353717bbe6"
  },
  {
    "id": "7122b319-296d-44f0-bb15-9c78dd5220a0",
    "name": "Großschönau",
    "state_id": "3e2d441e-c1a0-4b41-9d5b-5a353717bbe6"
  },
  {
    "id": "bbeb6f5a-bd92-443c-ac66-62499f79a4d7",
    "name": "Großschweidnitz",
    "state_id": "3e2d441e-c1a0-4b41-9d5b-5a353717bbe6"
  },
  {
    "id": "671fa22d-d2c7-461e-95b6-f7877c0009c5",
    "name": "Großweitzschen",
    "state_id": "3e2d441e-c1a0-4b41-9d5b-5a353717bbe6"
  },
  {
    "id": "3683d98d-0d70-4efd-8724-e882fbf60340",
    "name": "Grünbach",
    "state_id": "3e2d441e-c1a0-4b41-9d5b-5a353717bbe6"
  },
  {
    "id": "f38b3e4f-a531-4036-8526-b64f633e7b9d",
    "name": "Grünhain",
    "state_id": "3e2d441e-c1a0-4b41-9d5b-5a353717bbe6"
  },
  {
    "id": "de75b22c-bced-453e-9132-4002c217cc64",
    "name": "Grünhainichen",
    "state_id": "3e2d441e-c1a0-4b41-9d5b-5a353717bbe6"
  },
  {
    "id": "f4884280-da8c-420b-9abd-39fe1e6626d6",
    "name": "Guttau",
    "state_id": "3e2d441e-c1a0-4b41-9d5b-5a353717bbe6"
  },
  {
    "id": "6aa3b4e2-715d-4e9b-a1c0-1c670ddbeb86",
    "name": "Hähnichen",
    "state_id": "3e2d441e-c1a0-4b41-9d5b-5a353717bbe6"
  },
  {
    "id": "cf092a4f-fd48-4b8c-9b0e-8e1d70272747",
    "name": "Hainewalde",
    "state_id": "3e2d441e-c1a0-4b41-9d5b-5a353717bbe6"
  },
  {
    "id": "cbf77971-743c-4b3d-be8c-ce6409b3219e",
    "name": "Hainichen",
    "state_id": "3e2d441e-c1a0-4b41-9d5b-5a353717bbe6"
  },
  {
    "id": "03c25875-ce90-4004-bffa-3f1af2dcbd33",
    "name": "Halsbrücke",
    "state_id": "3e2d441e-c1a0-4b41-9d5b-5a353717bbe6"
  },
  {
    "id": "b6c5731f-a69a-4742-b43c-6d551a52d888",
    "name": "Hammerbrücke",
    "state_id": "3e2d441e-c1a0-4b41-9d5b-5a353717bbe6"
  },
  {
    "id": "41c667d4-adfe-4395-ba52-70a711a6757b",
    "name": "Hartenstein",
    "state_id": "3e2d441e-c1a0-4b41-9d5b-5a353717bbe6"
  },
  {
    "id": "90712e97-3950-4326-95d2-b702c552a3ef",
    "name": "Hartha",
    "state_id": "3e2d441e-c1a0-4b41-9d5b-5a353717bbe6"
  },
  {
    "id": "801e8608-9d17-4a1b-8e04-31bb02c5891e",
    "name": "Hartmannsdorf",
    "state_id": "3e2d441e-c1a0-4b41-9d5b-5a353717bbe6"
  },
  {
    "id": "e6863eaa-9b9f-440b-9326-d712b09af85f",
    "name": "Haselbachtal",
    "state_id": "3e2d441e-c1a0-4b41-9d5b-5a353717bbe6"
  },
  {
    "id": "34e3725c-3ecd-4da2-9939-2ca6d248c1f5",
    "name": "Hauswalde",
    "state_id": "3e2d441e-c1a0-4b41-9d5b-5a353717bbe6"
  },
  {
    "id": "818ef884-3cc1-46d9-b25f-65bdf27cdf56",
    "name": "Heidenau",
    "state_id": "3e2d441e-c1a0-4b41-9d5b-5a353717bbe6"
  },
  {
    "id": "454277bd-357a-42a4-a29c-afc8a88bdcfb",
    "name": "Hermsdorf",
    "state_id": "3e2d441e-c1a0-4b41-9d5b-5a353717bbe6"
  },
  {
    "id": "2e7dbd41-6dd7-4430-b011-656b0e050e45",
    "name": "Herrnhut",
    "state_id": "3e2d441e-c1a0-4b41-9d5b-5a353717bbe6"
  },
  {
    "id": "161e57c1-49a5-4748-9cfe-d7f77fc9eee8",
    "name": "Hilbersdorf",
    "state_id": "3e2d441e-c1a0-4b41-9d5b-5a353717bbe6"
  },
  {
    "id": "9d901e63-009e-4f1c-a855-e897a8ebb2a3",
    "name": "Hirschfeld",
    "state_id": "3e2d441e-c1a0-4b41-9d5b-5a353717bbe6"
  },
  {
    "id": "948401f1-b3b9-4afb-86e4-dedcb35caf76",
    "name": "Hirschfelde",
    "state_id": "3e2d441e-c1a0-4b41-9d5b-5a353717bbe6"
  },
  {
    "id": "22c60143-8c0a-4b7c-b863-0614382e773e",
    "name": "Hochkirch",
    "state_id": "3e2d441e-c1a0-4b41-9d5b-5a353717bbe6"
  },
  {
    "id": "b2c46ffd-34ee-4006-81a5-f3b8abe6d692",
    "name": "Höckendorf",
    "state_id": "3e2d441e-c1a0-4b41-9d5b-5a353717bbe6"
  },
  {
    "id": "4d979bfb-1cc3-4148-908b-c2db2ee693b3",
    "name": "Hohburg",
    "state_id": "3e2d441e-c1a0-4b41-9d5b-5a353717bbe6"
  },
  {
    "id": "0caab5e1-2ac3-4bc8-924a-174ea9cc646f",
    "name": "Hohenstein-Ernstthal",
    "state_id": "3e2d441e-c1a0-4b41-9d5b-5a353717bbe6"
  },
  {
    "id": "25ac2b20-f270-42a4-97a9-a0a32b69a024",
    "name": "Hohndorf",
    "state_id": "3e2d441e-c1a0-4b41-9d5b-5a353717bbe6"
  },
  {
    "id": "0b1ce814-a1db-44ab-a166-d4171b4a8288",
    "name": "Hohnstein",
    "state_id": "3e2d441e-c1a0-4b41-9d5b-5a353717bbe6"
  },
  {
    "id": "b0167a43-a6f9-45a6-a759-1b77199b64ce",
    "name": "Horka",
    "state_id": "3e2d441e-c1a0-4b41-9d5b-5a353717bbe6"
  },
  {
    "id": "de465e42-f530-4bab-b30f-f6b9af757be1",
    "name": "Hormersdorf",
    "state_id": "3e2d441e-c1a0-4b41-9d5b-5a353717bbe6"
  },
  {
    "id": "53b3afff-b61a-4179-871f-38da33c9fc0d",
    "name": "Hoyerswerda",
    "state_id": "3e2d441e-c1a0-4b41-9d5b-5a353717bbe6"
  },
  {
    "id": "1f90bafb-3e8e-477c-b475-bf2cb91080e3",
    "name": "Jahnsdorf",
    "state_id": "3e2d441e-c1a0-4b41-9d5b-5a353717bbe6"
  },
  {
    "id": "252ab1e9-5044-4901-a16a-c06ead0fd98d",
    "name": "Jesewitz",
    "state_id": "3e2d441e-c1a0-4b41-9d5b-5a353717bbe6"
  },
  {
    "id": "47ad843c-7c3a-4f26-a4c6-aed7a3d1feea",
    "name": "Johanngeorgenstadt",
    "state_id": "3e2d441e-c1a0-4b41-9d5b-5a353717bbe6"
  },
  {
    "id": "00df7424-1eb6-42ec-8e6b-e3df9589f75f",
    "name": "Jöhstadt",
    "state_id": "3e2d441e-c1a0-4b41-9d5b-5a353717bbe6"
  },
  {
    "id": "00c17ea8-aadf-44ae-a128-17b2818bf5b9",
    "name": "Kamenz",
    "state_id": "3e2d441e-c1a0-4b41-9d5b-5a353717bbe6"
  },
  {
    "id": "4ca6bb32-94a4-4bff-b5ba-ce52f43ea83f",
    "name": "Kirchberg",
    "state_id": "3e2d441e-c1a0-4b41-9d5b-5a353717bbe6"
  },
  {
    "id": "d04cd5e9-422c-46d2-8ceb-936f31c3284a",
    "name": "Kirschau",
    "state_id": "3e2d441e-c1a0-4b41-9d5b-5a353717bbe6"
  },
  {
    "id": "99ae8fb1-d84d-4ad2-9290-fa700caf7259",
    "name": "Kitzen",
    "state_id": "3e2d441e-c1a0-4b41-9d5b-5a353717bbe6"
  },
  {
    "id": "a85ec5b6-af00-44ef-a193-6e5b413e303c",
    "name": "Kitzscher",
    "state_id": "3e2d441e-c1a0-4b41-9d5b-5a353717bbe6"
  },
  {
    "id": "74d9402a-99c3-40ab-aca3-5a85d43ed500",
    "name": "Klingenthal",
    "state_id": "3e2d441e-c1a0-4b41-9d5b-5a353717bbe6"
  },
  {
    "id": "b4df2bdc-fd6d-4af0-aa9b-004dac64735d",
    "name": "Klipphausen",
    "state_id": "3e2d441e-c1a0-4b41-9d5b-5a353717bbe6"
  },
  {
    "id": "375d1133-4e98-4e56-9a76-0c28711e3e84",
    "name": "Klitten",
    "state_id": "3e2d441e-c1a0-4b41-9d5b-5a353717bbe6"
  },
  {
    "id": "0cf5ee8e-4783-45d9-b94e-6767817dc92b",
    "name": "Kodersdorf",
    "state_id": "3e2d441e-c1a0-4b41-9d5b-5a353717bbe6"
  },
  {
    "id": "887f6b7b-47c5-44d9-8322-16d1960665a6",
    "name": "Königsbrück",
    "state_id": "3e2d441e-c1a0-4b41-9d5b-5a353717bbe6"
  },
  {
    "id": "384c6bd2-1818-48ca-877a-c507e3ddeb24",
    "name": "Königsfeld",
    "state_id": "3e2d441e-c1a0-4b41-9d5b-5a353717bbe6"
  },
  {
    "id": "72099cae-7a4b-45c7-820d-95bcf3fb6c0e",
    "name": "Königshain",
    "state_id": "3e2d441e-c1a0-4b41-9d5b-5a353717bbe6"
  },
  {
    "id": "e62e4048-fa99-4ed7-84e5-dad1680c3fdc",
    "name": "Königstein",
    "state_id": "3e2d441e-c1a0-4b41-9d5b-5a353717bbe6"
  },
  {
    "id": "6ee53581-9c0b-4633-b17e-784f513785ef",
    "name": "Königswalde",
    "state_id": "3e2d441e-c1a0-4b41-9d5b-5a353717bbe6"
  },
  {
    "id": "1e6b84e7-c547-47ae-b250-61f5ba8ae527",
    "name": "Königswartha",
    "state_id": "3e2d441e-c1a0-4b41-9d5b-5a353717bbe6"
  },
  {
    "id": "d925f50c-f6bc-4690-b090-50e62c5817c7",
    "name": "Kossa",
    "state_id": "3e2d441e-c1a0-4b41-9d5b-5a353717bbe6"
  },
  {
    "id": "40e12d51-5409-44ff-913e-ddd15ffe8428",
    "name": "Krauschwitz",
    "state_id": "3e2d441e-c1a0-4b41-9d5b-5a353717bbe6"
  },
  {
    "id": "e6b1af1b-93b2-45e7-ae89-560803db7afa",
    "name": "Kreischa",
    "state_id": "3e2d441e-c1a0-4b41-9d5b-5a353717bbe6"
  },
  {
    "id": "3107c37c-c051-46bb-97e1-1e97b9b5301b",
    "name": "Kriebstein",
    "state_id": "3e2d441e-c1a0-4b41-9d5b-5a353717bbe6"
  },
  {
    "id": "7b0a427d-5558-41cb-914b-29ff0da6a050",
    "name": "Krostitz",
    "state_id": "3e2d441e-c1a0-4b41-9d5b-5a353717bbe6"
  },
  {
    "id": "83f87f8d-3eb0-46c8-9edc-694125d3df6d",
    "name": "Kubschütz",
    "state_id": "3e2d441e-c1a0-4b41-9d5b-5a353717bbe6"
  },
  {
    "id": "6be2f2e9-619a-4835-9510-4e0fac0cb8b0",
    "name": "Kurort Gohrisch",
    "state_id": "3e2d441e-c1a0-4b41-9d5b-5a353717bbe6"
  },
  {
    "id": "15dbe0ed-b5b3-45f2-b8e3-8362a1991257",
    "name": "Kurort Jonsdorf",
    "state_id": "3e2d441e-c1a0-4b41-9d5b-5a353717bbe6"
  },
  {
    "id": "68aaf93a-09f6-4452-867a-f72f25b9cc87",
    "name": "Kurort Oberwiesenthal",
    "state_id": "3e2d441e-c1a0-4b41-9d5b-5a353717bbe6"
  },
  {
    "id": "f4d8eca9-c7a3-4716-b79a-ee5bba89a3a9",
    "name": "Kurort Oybin",
    "state_id": "3e2d441e-c1a0-4b41-9d5b-5a353717bbe6"
  },
  {
    "id": "a7b4b990-536c-4361-9d95-00fc42dfe825",
    "name": "Lampertswalde",
    "state_id": "3e2d441e-c1a0-4b41-9d5b-5a353717bbe6"
  },
  {
    "id": "7426ee69-d98d-4743-bd91-61afbaeafb4d",
    "name": "Langenbernsdorf",
    "state_id": "3e2d441e-c1a0-4b41-9d5b-5a353717bbe6"
  },
  {
    "id": "7f57e99a-de08-4ea6-af16-833ac76d728e",
    "name": "Laußig",
    "state_id": "3e2d441e-c1a0-4b41-9d5b-5a353717bbe6"
  },
  {
    "id": "382fa95f-233a-4af3-b80d-5ecbe460c295",
    "name": "Laußnitz",
    "state_id": "3e2d441e-c1a0-4b41-9d5b-5a353717bbe6"
  },
  {
    "id": "8cf74c36-214f-412c-9f11-7f7fe4c6c1a8",
    "name": "Lauter",
    "state_id": "3e2d441e-c1a0-4b41-9d5b-5a353717bbe6"
  },
  {
    "id": "124b7e80-3408-4ed6-9068-dd010836072b",
    "name": "Lawalde",
    "state_id": "3e2d441e-c1a0-4b41-9d5b-5a353717bbe6"
  },
  {
    "id": "5612b663-5141-466f-a5d9-72c9e7963849",
    "name": "Leipzig",
    "state_id": "3e2d441e-c1a0-4b41-9d5b-5a353717bbe6"
  },
  {
    "id": "47a0d257-0dbb-411c-aef8-4ac4821fe11c",
    "name": "Leisnig",
    "state_id": "3e2d441e-c1a0-4b41-9d5b-5a353717bbe6"
  },
  {
    "id": "2f6272d1-da37-47a7-a0c6-902259eb569c",
    "name": "Lengefeld",
    "state_id": "3e2d441e-c1a0-4b41-9d5b-5a353717bbe6"
  },
  {
    "id": "3b6facb5-4c91-4332-b776-664cb548477a",
    "name": "Lengenfeld",
    "state_id": "3e2d441e-c1a0-4b41-9d5b-5a353717bbe6"
  },
  {
    "id": "2d2ac5f6-0184-423b-9ea3-dbb224610009",
    "name": "Leubnitz",
    "state_id": "3e2d441e-c1a0-4b41-9d5b-5a353717bbe6"
  },
  {
    "id": "558d023b-c940-4e95-b7d9-c671b4e0af72",
    "name": "Leubsdorf",
    "state_id": "3e2d441e-c1a0-4b41-9d5b-5a353717bbe6"
  },
  {
    "id": "dd554d0c-5723-49f0-9a18-b8e22d4ad816",
    "name": "Leutersdorf",
    "state_id": "3e2d441e-c1a0-4b41-9d5b-5a353717bbe6"
  },
  {
    "id": "18604de5-aa09-4bb3-a9af-61b217693c27",
    "name": "Lichtenberg",
    "state_id": "3e2d441e-c1a0-4b41-9d5b-5a353717bbe6"
  },
  {
    "id": "703cbbd5-43f7-4573-a0c3-4b59b135ae44",
    "name": "Lichtenstein",
    "state_id": "3e2d441e-c1a0-4b41-9d5b-5a353717bbe6"
  },
  {
    "id": "d727560e-334b-407e-8866-392fd38d7d6a",
    "name": "Lichtentanne",
    "state_id": "3e2d441e-c1a0-4b41-9d5b-5a353717bbe6"
  },
  {
    "id": "e0734dea-92e7-42fe-a9df-0020b4642783",
    "name": "Liebstadt",
    "state_id": "3e2d441e-c1a0-4b41-9d5b-5a353717bbe6"
  },
  {
    "id": "607a3073-49cf-4bf9-bff4-46289f322fa6",
    "name": "Limbach",
    "state_id": "3e2d441e-c1a0-4b41-9d5b-5a353717bbe6"
  },
  {
    "id": "b58b491f-0919-46b6-b7a1-3af4568f7513",
    "name": "Limbach-Oberfrohna",
    "state_id": "3e2d441e-c1a0-4b41-9d5b-5a353717bbe6"
  },
  {
    "id": "18675bb9-993b-4acc-929d-9b99c5d5b4ec",
    "name": "Löbau",
    "state_id": "3e2d441e-c1a0-4b41-9d5b-5a353717bbe6"
  },
  {
    "id": "62e4ff9d-f2d1-4d1c-95e3-aaa817b0fb84",
    "name": "Löbnitz",
    "state_id": "3e2d441e-c1a0-4b41-9d5b-5a353717bbe6"
  },
  {
    "id": "f2754c0c-90be-447c-8c96-06e93707e642",
    "name": "Lobstädt",
    "state_id": "3e2d441e-c1a0-4b41-9d5b-5a353717bbe6"
  },
  {
    "id": "df26ea3e-7617-4218-b022-bd9302643288",
    "name": "Lohmen",
    "state_id": "3e2d441e-c1a0-4b41-9d5b-5a353717bbe6"
  },
  {
    "id": "9cb35317-6cd8-401f-a69d-8c981856083b",
    "name": "Lohsa",
    "state_id": "3e2d441e-c1a0-4b41-9d5b-5a353717bbe6"
  },
  {
    "id": "00e006a2-2850-46d8-852e-62c062125a7a",
    "name": "Lommatzsch",
    "state_id": "3e2d441e-c1a0-4b41-9d5b-5a353717bbe6"
  },
  {
    "id": "b835ab75-590a-4ceb-b63d-fbeb5edf742d",
    "name": "Lößnitz",
    "state_id": "3e2d441e-c1a0-4b41-9d5b-5a353717bbe6"
  },
  {
    "id": "6d913066-3309-4006-8f24-ff21d137eb68",
    "name": "Lugau",
    "state_id": "3e2d441e-c1a0-4b41-9d5b-5a353717bbe6"
  },
  {
    "id": "070d5421-c011-466f-8bb5-ef8bd765c2f9",
    "name": "Lunzenau",
    "state_id": "3e2d441e-c1a0-4b41-9d5b-5a353717bbe6"
  },
  {
    "id": "7080432d-9ddf-43c3-8d6b-7d4cc3ed72ba",
    "name": "Machern",
    "state_id": "3e2d441e-c1a0-4b41-9d5b-5a353717bbe6"
  },
  {
    "id": "dcf2a425-0935-4f21-93d5-e8d3e35b27d1",
    "name": "Malschwitz",
    "state_id": "3e2d441e-c1a0-4b41-9d5b-5a353717bbe6"
  },
  {
    "id": "b6bd483d-d97f-4c37-9b99-f9e1721feff8",
    "name": "Marienberg",
    "state_id": "3e2d441e-c1a0-4b41-9d5b-5a353717bbe6"
  },
  {
    "id": "d48566c5-98ef-4f7d-9097-dfc38259344b",
    "name": "Markersbach",
    "state_id": "3e2d441e-c1a0-4b41-9d5b-5a353717bbe6"
  },
  {
    "id": "68d1e2a9-b0a8-4ad4-b343-754ce841b94d",
    "name": "Markersdorf",
    "state_id": "3e2d441e-c1a0-4b41-9d5b-5a353717bbe6"
  },
  {
    "id": "49c0ee8e-6c35-468e-85b8-f9a3bdab16a2",
    "name": "Markkleeberg",
    "state_id": "3e2d441e-c1a0-4b41-9d5b-5a353717bbe6"
  },
  {
    "id": "3900adb9-3518-4eac-b8f9-8a6d47290eff",
    "name": "Markneukirchen",
    "state_id": "3e2d441e-c1a0-4b41-9d5b-5a353717bbe6"
  },
  {
    "id": "5027c063-6fa2-4547-a22f-08f3012fa848",
    "name": "Markranstädt",
    "state_id": "3e2d441e-c1a0-4b41-9d5b-5a353717bbe6"
  },
  {
    "id": "832d2fc3-595d-4f37-ada4-ab79bf084d06",
    "name": "Meerane",
    "state_id": "3e2d441e-c1a0-4b41-9d5b-5a353717bbe6"
  },
  {
    "id": "96343837-f69d-4512-a846-f1f4aa6e8713",
    "name": "Mehltheuer",
    "state_id": "3e2d441e-c1a0-4b41-9d5b-5a353717bbe6"
  },
  {
    "id": "5ab66163-3267-43cb-bf31-b9eeab743555",
    "name": "Meissen",
    "state_id": "3e2d441e-c1a0-4b41-9d5b-5a353717bbe6"
  },
  {
    "id": "84da6d40-cc6b-4a90-b71c-63cf5bd15978",
    "name": "Mildenau",
    "state_id": "3e2d441e-c1a0-4b41-9d5b-5a353717bbe6"
  },
  {
    "id": "dae70feb-97d4-458f-858c-134d84eb671f",
    "name": "Mittelherwigsdorf",
    "state_id": "3e2d441e-c1a0-4b41-9d5b-5a353717bbe6"
  },
  {
    "id": "cbd79cd9-5c1a-401a-9104-095b861eeb7c",
    "name": "Mittweida",
    "state_id": "3e2d441e-c1a0-4b41-9d5b-5a353717bbe6"
  },
  {
    "id": "f181bf95-b2a5-41af-815a-24fd1e6ab62b",
    "name": "Mochau",
    "state_id": "3e2d441e-c1a0-4b41-9d5b-5a353717bbe6"
  },
  {
    "id": "32bde08d-80ef-48e1-b2d1-476d99cd0133",
    "name": "Mockrehna",
    "state_id": "3e2d441e-c1a0-4b41-9d5b-5a353717bbe6"
  },
  {
    "id": "cca96053-7017-48b5-86dc-a3dcf016592b",
    "name": "Moritzburg",
    "state_id": "3e2d441e-c1a0-4b41-9d5b-5a353717bbe6"
  },
  {
    "id": "4962e19a-7372-4cfc-8fad-afb3677252ee",
    "name": "Mücka",
    "state_id": "3e2d441e-c1a0-4b41-9d5b-5a353717bbe6"
  },
  {
    "id": "034e66c9-b279-4f74-8e06-bc14aa1ee99d",
    "name": "Mügeln",
    "state_id": "3e2d441e-c1a0-4b41-9d5b-5a353717bbe6"
  },
  {
    "id": "37609b66-9a25-426a-9acc-d7d4945da7a9",
    "name": "Mühlau",
    "state_id": "3e2d441e-c1a0-4b41-9d5b-5a353717bbe6"
  },
  {
    "id": "53eb06f9-a54c-407d-9a50-4058da5a0e72",
    "name": "Mühltroff",
    "state_id": "3e2d441e-c1a0-4b41-9d5b-5a353717bbe6"
  },
  {
    "id": "f9419db7-2cf7-4f4d-bb8f-d057dbdca85c",
    "name": "Mulda",
    "state_id": "3e2d441e-c1a0-4b41-9d5b-5a353717bbe6"
  },
  {
    "id": "00cacf58-51d9-4d1f-9ec1-59cbe260ac82",
    "name": "Mülsen",
    "state_id": "3e2d441e-c1a0-4b41-9d5b-5a353717bbe6"
  },
  {
    "id": "2356bd10-9e86-4fa1-a3ce-5e608316676e",
    "name": "Mutzschen",
    "state_id": "3e2d441e-c1a0-4b41-9d5b-5a353717bbe6"
  },
  {
    "id": "5cd8e32a-9e8d-400f-a290-d1916dfdd1af",
    "name": "Mylau",
    "state_id": "3e2d441e-c1a0-4b41-9d5b-5a353717bbe6"
  },
  {
    "id": "5cbee97d-3b89-4fb6-8376-37308f819ffb",
    "name": "Narsdorf",
    "state_id": "3e2d441e-c1a0-4b41-9d5b-5a353717bbe6"
  },
  {
    "id": "2520f83d-ca97-4bad-a916-a4f2cdba59b1",
    "name": "Naundorf",
    "state_id": "3e2d441e-c1a0-4b41-9d5b-5a353717bbe6"
  },
  {
    "id": "884ae3dd-8985-4379-91e3-fbbd19e62012",
    "name": "Naunhof",
    "state_id": "3e2d441e-c1a0-4b41-9d5b-5a353717bbe6"
  },
  {
    "id": "6d7ff1d1-f088-4bfc-84a7-3342b25d0b56",
    "name": "Nauwalde",
    "state_id": "3e2d441e-c1a0-4b41-9d5b-5a353717bbe6"
  },
  {
    "id": "d22acf17-a66d-433e-82a4-2d5e5835a43d",
    "name": "Nebelschütz",
    "state_id": "3e2d441e-c1a0-4b41-9d5b-5a353717bbe6"
  },
  {
    "id": "db533ff1-d4d6-472c-aa9b-d21f62cd63c6",
    "name": "Nerchau",
    "state_id": "3e2d441e-c1a0-4b41-9d5b-5a353717bbe6"
  },
  {
    "id": "baef28b0-c400-43a4-8d90-5ea9a84db0d3",
    "name": "Neschwitz",
    "state_id": "3e2d441e-c1a0-4b41-9d5b-5a353717bbe6"
  },
  {
    "id": "b0fad99f-f1fc-4250-be29-ed9a52159274",
    "name": "Netzschkau",
    "state_id": "3e2d441e-c1a0-4b41-9d5b-5a353717bbe6"
  },
  {
    "id": "83350ff0-97a7-4fdd-9d35-0104527d497f",
    "name": "Neuensalz",
    "state_id": "3e2d441e-c1a0-4b41-9d5b-5a353717bbe6"
  },
  {
    "id": "80f0ff8f-b3ed-462c-bb27-972ed09dca96",
    "name": "Neugersdorf",
    "state_id": "3e2d441e-c1a0-4b41-9d5b-5a353717bbe6"
  },
  {
    "id": "402158a5-dc11-4160-96e4-fa4daf3d01ff",
    "name": "Neuhausen",
    "state_id": "3e2d441e-c1a0-4b41-9d5b-5a353717bbe6"
  },
  {
    "id": "9f3972a0-0739-461b-adde-7e7045adba33",
    "name": "Neukieritzsch",
    "state_id": "3e2d441e-c1a0-4b41-9d5b-5a353717bbe6"
  },
  {
    "id": "699fa5ae-c998-40c1-8d31-bc65f3e074a8",
    "name": "Neukirch",
    "state_id": "3e2d441e-c1a0-4b41-9d5b-5a353717bbe6"
  },
  {
    "id": "fa170cb1-15e6-4959-95ea-e159b451366d",
    "name": "Neukirch/Lausitz",
    "state_id": "3e2d441e-c1a0-4b41-9d5b-5a353717bbe6"
  },
  {
    "id": "d1621c0e-8d40-47b4-9b86-0673f1fe73d3",
    "name": "Neukirchen",
    "state_id": "3e2d441e-c1a0-4b41-9d5b-5a353717bbe6"
  },
  {
    "id": "cedd0017-3ed4-4d0d-a33e-ad1e57ec2224",
    "name": "Neumark",
    "state_id": "3e2d441e-c1a0-4b41-9d5b-5a353717bbe6"
  },
  {
    "id": "7dd8259e-163a-4e25-8e36-d152e85bf2b4",
    "name": "Neusalza-Spremberg",
    "state_id": "3e2d441e-c1a0-4b41-9d5b-5a353717bbe6"
  },
  {
    "id": "52f4c4de-4e9a-48a4-8748-2343591ffb19",
    "name": "Neustadt in Sachsen",
    "state_id": "3e2d441e-c1a0-4b41-9d5b-5a353717bbe6"
  },
  {
    "id": "c2b867d6-ba69-460e-922d-47d568fe1255",
    "name": "Neustadt Vogtland",
    "state_id": "3e2d441e-c1a0-4b41-9d5b-5a353717bbe6"
  },
  {
    "id": "1e085a86-2dfc-44bd-90e8-6b706ce20e58",
    "name": "Niederau",
    "state_id": "3e2d441e-c1a0-4b41-9d5b-5a353717bbe6"
  },
  {
    "id": "7d7d4093-54e7-4771-924d-4c7067298799",
    "name": "Niedercunnersdorf",
    "state_id": "3e2d441e-c1a0-4b41-9d5b-5a353717bbe6"
  },
  {
    "id": "1cdbe611-2ead-46dd-8804-1a41853d6e4c",
    "name": "Niederdorf",
    "state_id": "3e2d441e-c1a0-4b41-9d5b-5a353717bbe6"
  },
  {
    "id": "343fc372-c797-4fcc-806b-792695ebcc29",
    "name": "Niederfrohna",
    "state_id": "3e2d441e-c1a0-4b41-9d5b-5a353717bbe6"
  },
  {
    "id": "525ec0f9-f85c-4f8d-aec1-33f9bc404b5e",
    "name": "Niederschöna",
    "state_id": "3e2d441e-c1a0-4b41-9d5b-5a353717bbe6"
  },
  {
    "id": "7ba8b426-613f-416d-816f-cc4006214a58",
    "name": "Niederstriegis",
    "state_id": "3e2d441e-c1a0-4b41-9d5b-5a353717bbe6"
  },
  {
    "id": "392d6924-db57-451d-89f4-4fffc390cef1",
    "name": "Niederwiesa",
    "state_id": "3e2d441e-c1a0-4b41-9d5b-5a353717bbe6"
  },
  {
    "id": "01900049-ebeb-46bd-8bb3-0acdf5c01fa8",
    "name": "Niesky",
    "state_id": "3e2d441e-c1a0-4b41-9d5b-5a353717bbe6"
  },
  {
    "id": "edd3eaad-a015-493b-95b1-bf2c1cf4f193",
    "name": "Nossen",
    "state_id": "3e2d441e-c1a0-4b41-9d5b-5a353717bbe6"
  },
  {
    "id": "acde4290-5772-4792-8a94-709c7d3a2f91",
    "name": "Nünchritz",
    "state_id": "3e2d441e-c1a0-4b41-9d5b-5a353717bbe6"
  },
  {
    "id": "ccb1e26c-5bd7-49b5-9c1c-6a0d48eed2c4",
    "name": "Obercunnersdorf",
    "state_id": "3e2d441e-c1a0-4b41-9d5b-5a353717bbe6"
  },
  {
    "id": "dc794ec4-e41a-41d3-a620-10a0accbe2f0",
    "name": "Obergurig",
    "state_id": "3e2d441e-c1a0-4b41-9d5b-5a353717bbe6"
  },
  {
    "id": "01282584-15fe-4fb7-8c51-81256ed5b739",
    "name": "Oberlichtenau",
    "state_id": "3e2d441e-c1a0-4b41-9d5b-5a353717bbe6"
  },
  {
    "id": "ef5aa349-fc9e-435e-a401-96b5aa879f5b",
    "name": "Oberlungwitz",
    "state_id": "3e2d441e-c1a0-4b41-9d5b-5a353717bbe6"
  },
  {
    "id": "8922e575-5642-427f-824a-ccc1132d04ba",
    "name": "Oberschöna",
    "state_id": "3e2d441e-c1a0-4b41-9d5b-5a353717bbe6"
  },
  {
    "id": "7b0e1480-5275-49f1-b769-a33e5846f846",
    "name": "Oberwiera",
    "state_id": "3e2d441e-c1a0-4b41-9d5b-5a353717bbe6"
  },
  {
    "id": "71ed75c6-d466-4dc0-8ce8-66cbe4a4c4b4",
    "name": "Oederan",
    "state_id": "3e2d441e-c1a0-4b41-9d5b-5a353717bbe6"
  },
  {
    "id": "562dbab1-1f6f-4b40-8d34-1989366f1cbb",
    "name": "Oelsnitz",
    "state_id": "3e2d441e-c1a0-4b41-9d5b-5a353717bbe6"
  },
  {
    "id": "dd949683-103c-4535-9e99-5269356c35c3",
    "name": "Ohorn",
    "state_id": "3e2d441e-c1a0-4b41-9d5b-5a353717bbe6"
  },
  {
    "id": "906b0a25-a58f-4efe-8593-bf8afb6fb25d",
    "name": "Olbernhau",
    "state_id": "3e2d441e-c1a0-4b41-9d5b-5a353717bbe6"
  },
  {
    "id": "897677d2-2886-4fcc-a5c0-3b0110623032",
    "name": "Olbersdorf",
    "state_id": "3e2d441e-c1a0-4b41-9d5b-5a353717bbe6"
  },
  {
    "id": "436ef8a0-9ef5-42ee-872e-48a66dc6e7e9",
    "name": "Oppach",
    "state_id": "3e2d441e-c1a0-4b41-9d5b-5a353717bbe6"
  },
  {
    "id": "64d0e2d6-7100-4453-a089-d555c0c5a983",
    "name": "Oschatz",
    "state_id": "3e2d441e-c1a0-4b41-9d5b-5a353717bbe6"
  },
  {
    "id": "2acd1f4b-dc8f-49b9-9010-afab25e958e1",
    "name": "Oßling",
    "state_id": "3e2d441e-c1a0-4b41-9d5b-5a353717bbe6"
  },
  {
    "id": "82828faf-3b2c-4ef3-b0a6-b007564ec125",
    "name": "Ostrau",
    "state_id": "3e2d441e-c1a0-4b41-9d5b-5a353717bbe6"
  },
  {
    "id": "d745dc23-3586-4c5d-a640-3537fe65424f",
    "name": "Ostritz",
    "state_id": "3e2d441e-c1a0-4b41-9d5b-5a353717bbe6"
  },
  {
    "id": "6619d603-9a28-4c89-a882-f1b57cbdf80b",
    "name": "Ottendorf-Okrilla",
    "state_id": "3e2d441e-c1a0-4b41-9d5b-5a353717bbe6"
  },
  {
    "id": "94b02438-f61d-4afe-a05b-c73e8b9a9a5d",
    "name": "Otterwisch",
    "state_id": "3e2d441e-c1a0-4b41-9d5b-5a353717bbe6"
  },
  {
    "id": "34511131-4292-42e5-aaa2-7b5fb6c901e2",
    "name": "Panschwitz-Kuckau",
    "state_id": "3e2d441e-c1a0-4b41-9d5b-5a353717bbe6"
  },
  {
    "id": "ed96b395-51a6-4e67-ab85-b8e2e2550a62",
    "name": "Pausa",
    "state_id": "3e2d441e-c1a0-4b41-9d5b-5a353717bbe6"
  },
  {
    "id": "f01ac751-da16-4206-932a-0694f5cd721f",
    "name": "Pegau",
    "state_id": "3e2d441e-c1a0-4b41-9d5b-5a353717bbe6"
  },
  {
    "id": "53ed0f43-3242-4db1-8d87-a4667e59c95d",
    "name": "Penig",
    "state_id": "3e2d441e-c1a0-4b41-9d5b-5a353717bbe6"
  },
  {
    "id": "fb4c47e9-8af8-416b-b762-9d91563aad40",
    "name": "Pfaffroda",
    "state_id": "3e2d441e-c1a0-4b41-9d5b-5a353717bbe6"
  },
  {
    "id": "24b247b8-1170-4913-ab01-d0fa0035d31a",
    "name": "Pirna",
    "state_id": "3e2d441e-c1a0-4b41-9d5b-5a353717bbe6"
  },
  {
    "id": "18d4ccf5-0a94-4186-b539-5425c0b9d188",
    "name": "Plauen",
    "state_id": "3e2d441e-c1a0-4b41-9d5b-5a353717bbe6"
  },
  {
    "id": "ec7f2079-4912-4a1d-bacb-d7ed9df01c7c",
    "name": "Pobershau",
    "state_id": "3e2d441e-c1a0-4b41-9d5b-5a353717bbe6"
  },
  {
    "id": "2a4e547e-2d31-4cb6-acc1-d86f5fa92bf7",
    "name": "Pockau",
    "state_id": "3e2d441e-c1a0-4b41-9d5b-5a353717bbe6"
  },
  {
    "id": "f377aaaa-6100-488f-8a2a-00be8a9a8e0a",
    "name": "Pöhl",
    "state_id": "3e2d441e-c1a0-4b41-9d5b-5a353717bbe6"
  },
  {
    "id": "c688e5f9-4eea-4c5a-8220-0df0b4a0bd6a",
    "name": "Pöhla",
    "state_id": "3e2d441e-c1a0-4b41-9d5b-5a353717bbe6"
  },
  {
    "id": "658d622f-9446-4062-bf2e-1d8bc773b5aa",
    "name": "Porschdorf",
    "state_id": "3e2d441e-c1a0-4b41-9d5b-5a353717bbe6"
  },
  {
    "id": "dc448dba-01be-4544-be17-77b6c9fd1fc9",
    "name": "Pretzschendorf",
    "state_id": "3e2d441e-c1a0-4b41-9d5b-5a353717bbe6"
  },
  {
    "id": "8d8269d5-3606-46d1-b6b1-e04af002bfd9",
    "name": "Priestewitz",
    "state_id": "3e2d441e-c1a0-4b41-9d5b-5a353717bbe6"
  },
  {
    "id": "8918114d-e3f1-4e41-8d16-baa527b2ef47",
    "name": "Puschwitz",
    "state_id": "3e2d441e-c1a0-4b41-9d5b-5a353717bbe6"
  },
  {
    "id": "718509c4-9488-4ccd-b0dd-3c0ee29953c2",
    "name": "Quitzdorf",
    "state_id": "3e2d441e-c1a0-4b41-9d5b-5a353717bbe6"
  },
  {
    "id": "38583780-7c94-4ac5-9c3a-3fe08b558b80",
    "name": "Rabenau",
    "state_id": "3e2d441e-c1a0-4b41-9d5b-5a353717bbe6"
  },
  {
    "id": "1f0cdc77-5a0c-47fa-89bd-2e41a2e7c67b",
    "name": "Räckelwitz",
    "state_id": "3e2d441e-c1a0-4b41-9d5b-5a353717bbe6"
  },
  {
    "id": "d572130d-b5f9-459f-9586-5dc6254986c3",
    "name": "Rackwitz",
    "state_id": "3e2d441e-c1a0-4b41-9d5b-5a353717bbe6"
  },
  {
    "id": "ebe1e41f-cc20-4e66-a8e5-c5048441ff5a",
    "name": "Radeberg",
    "state_id": "3e2d441e-c1a0-4b41-9d5b-5a353717bbe6"
  },
  {
    "id": "61d767f7-3277-4019-a6ec-0582b11c55ed",
    "name": "Radebeul",
    "state_id": "3e2d441e-c1a0-4b41-9d5b-5a353717bbe6"
  },
  {
    "id": "cfb9cc2d-b2db-4ce7-90c8-355d48f7692b",
    "name": "Radeburg",
    "state_id": "3e2d441e-c1a0-4b41-9d5b-5a353717bbe6"
  },
  {
    "id": "00d23e01-46aa-43e1-ae08-8f3fbfa89732",
    "name": "Radibor",
    "state_id": "3e2d441e-c1a0-4b41-9d5b-5a353717bbe6"
  },
  {
    "id": "eb887eca-f31c-4e24-8061-c75b99306508",
    "name": "Rammenau",
    "state_id": "3e2d441e-c1a0-4b41-9d5b-5a353717bbe6"
  },
  {
    "id": "b457b758-3c61-4ff4-8cde-442b62752ed0",
    "name": "Raschau",
    "state_id": "3e2d441e-c1a0-4b41-9d5b-5a353717bbe6"
  },
  {
    "id": "51ba2917-67c3-4ada-aef2-4c4951b2542e",
    "name": "Rathmannsdorf",
    "state_id": "3e2d441e-c1a0-4b41-9d5b-5a353717bbe6"
  },
  {
    "id": "1937a3ce-30ec-4ef9-a2de-f1ac90bcf579",
    "name": "Rechenberg-Bienenmühle",
    "state_id": "3e2d441e-c1a0-4b41-9d5b-5a353717bbe6"
  },
  {
    "id": "122af965-cb06-422f-8273-7bf5f81a1876",
    "name": "Regis-Breitingen",
    "state_id": "3e2d441e-c1a0-4b41-9d5b-5a353717bbe6"
  },
  {
    "id": "b9b2fb58-4b0a-4acc-8475-fac24a668e71",
    "name": "Reichenbach",
    "state_id": "3e2d441e-c1a0-4b41-9d5b-5a353717bbe6"
  },
  {
    "id": "8da4718b-2082-447b-a13b-b62bf9ec70b5",
    "name": "Reichenbach/Vogtland",
    "state_id": "3e2d441e-c1a0-4b41-9d5b-5a353717bbe6"
  },
  {
    "id": "f574271d-dab1-4549-8145-2363d5340329",
    "name": "Reinhardtsgrimma",
    "state_id": "3e2d441e-c1a0-4b41-9d5b-5a353717bbe6"
  },
  {
    "id": "0afabeee-d6e0-402c-b7c2-bd0560989db0",
    "name": "Reinsberg",
    "state_id": "3e2d441e-c1a0-4b41-9d5b-5a353717bbe6"
  },
  {
    "id": "92dadd10-082f-4676-a82d-4613a6de6f66",
    "name": "Reinsdorf",
    "state_id": "3e2d441e-c1a0-4b41-9d5b-5a353717bbe6"
  },
  {
    "id": "a3eb9e9f-fec7-4911-936a-ffe02a82a630",
    "name": "Remse",
    "state_id": "3e2d441e-c1a0-4b41-9d5b-5a353717bbe6"
  },
  {
    "id": "deb736a9-9e8f-4e16-b588-40b1cdd5c045",
    "name": "Reuth",
    "state_id": "3e2d441e-c1a0-4b41-9d5b-5a353717bbe6"
  },
  {
    "id": "5d09ad9a-a2c2-41df-905b-46e13c870f8e",
    "name": "Riesa",
    "state_id": "3e2d441e-c1a0-4b41-9d5b-5a353717bbe6"
  },
  {
    "id": "126d7a50-54e7-4562-8abb-f41cd0cd0f37",
    "name": "Rietschen",
    "state_id": "3e2d441e-c1a0-4b41-9d5b-5a353717bbe6"
  },
  {
    "id": "4e6c7821-6e32-42ab-841f-d2ee53d0e1cf",
    "name": "Rittersgrün",
    "state_id": "3e2d441e-c1a0-4b41-9d5b-5a353717bbe6"
  },
  {
    "id": "d91436fd-85a9-492b-9f1b-6d4dbd4711bd",
    "name": "Rochlitz",
    "state_id": "3e2d441e-c1a0-4b41-9d5b-5a353717bbe6"
  },
  {
    "id": "0b94f429-9ee1-415b-a79a-5bc3e6ab2d49",
    "name": "Rodewisch",
    "state_id": "3e2d441e-c1a0-4b41-9d5b-5a353717bbe6"
  },
  {
    "id": "69b29ce1-331e-4856-904b-9568db4d049f",
    "name": "Rossau",
    "state_id": "3e2d441e-c1a0-4b41-9d5b-5a353717bbe6"
  },
  {
    "id": "a0aa709c-63f9-4da4-8cf5-9712d4ba6223",
    "name": "Roßwein",
    "state_id": "3e2d441e-c1a0-4b41-9d5b-5a353717bbe6"
  },
  {
    "id": "2e4af9a4-40e2-4313-a7f2-be5d8aa62578",
    "name": "Rötha",
    "state_id": "3e2d441e-c1a0-4b41-9d5b-5a353717bbe6"
  },
  {
    "id": "b060e4f9-d38b-4949-953c-376d9481e0fc",
    "name": "Rothenburg",
    "state_id": "3e2d441e-c1a0-4b41-9d5b-5a353717bbe6"
  },
  {
    "id": "31f47c07-77d7-4a04-8589-3993937309c2",
    "name": "Sankt Egidien",
    "state_id": "3e2d441e-c1a0-4b41-9d5b-5a353717bbe6"
  },
  {
    "id": "1dd319a4-2877-4d09-a1c9-feff98e82e93",
    "name": "Sayda",
    "state_id": "3e2d441e-c1a0-4b41-9d5b-5a353717bbe6"
  },
  {
    "id": "faf58ca4-b806-4397-878d-a13d2f6034b8",
    "name": "Scharfenstein",
    "state_id": "3e2d441e-c1a0-4b41-9d5b-5a353717bbe6"
  },
  {
    "id": "fdadb2fb-548e-4f32-999b-4237e6f1a7c1",
    "name": "Scheibenberg",
    "state_id": "3e2d441e-c1a0-4b41-9d5b-5a353717bbe6"
  },
  {
    "id": "f64a23c0-a971-47ed-b859-8a34f0aa40de",
    "name": "Schildau",
    "state_id": "3e2d441e-c1a0-4b41-9d5b-5a353717bbe6"
  },
  {
    "id": "ac6221ae-8b79-46cd-bb07-e05bd86bdce7",
    "name": "Schirgiswalde",
    "state_id": "3e2d441e-c1a0-4b41-9d5b-5a353717bbe6"
  },
  {
    "id": "84a14646-9e9a-4807-8e44-93322b1c2140",
    "name": "Schkeuditz",
    "state_id": "3e2d441e-c1a0-4b41-9d5b-5a353717bbe6"
  },
  {
    "id": "4f3701cb-b0a3-45c9-8d23-4a55444dbc60",
    "name": "Schlegel",
    "state_id": "3e2d441e-c1a0-4b41-9d5b-5a353717bbe6"
  },
  {
    "id": "d773bf42-5e5c-4d49-9992-0dc75717a94b",
    "name": "Schleife",
    "state_id": "3e2d441e-c1a0-4b41-9d5b-5a353717bbe6"
  },
  {
    "id": "1e5dbb4a-5187-48b3-a678-edfab4ed2a38",
    "name": "Schlettau",
    "state_id": "3e2d441e-c1a0-4b41-9d5b-5a353717bbe6"
  },
  {
    "id": "aa93a042-8800-46a7-bfd1-a65e87c69e20",
    "name": "Schmiedeberg",
    "state_id": "3e2d441e-c1a0-4b41-9d5b-5a353717bbe6"
  },
  {
    "id": "c533be3b-8fe5-4230-94fc-b763836610ba",
    "name": "Schneeberg",
    "state_id": "3e2d441e-c1a0-4b41-9d5b-5a353717bbe6"
  },
  {
    "id": "656b0684-e04e-43bb-952a-3597ffcc5623",
    "name": "Schönau-Berzdorf",
    "state_id": "3e2d441e-c1a0-4b41-9d5b-5a353717bbe6"
  },
  {
    "id": "7fa4b2f7-bee5-4c21-88b9-a0a12073d7a7",
    "name": "Schönbach",
    "state_id": "3e2d441e-c1a0-4b41-9d5b-5a353717bbe6"
  },
  {
    "id": "2e8630cd-9c6c-4daa-aac3-f60237261a88",
    "name": "Schönberg",
    "state_id": "3e2d441e-c1a0-4b41-9d5b-5a353717bbe6"
  },
  {
    "id": "1596cec8-4e9d-4b02-bceb-dc01e4bb730d",
    "name": "Schöneck",
    "state_id": "3e2d441e-c1a0-4b41-9d5b-5a353717bbe6"
  },
  {
    "id": "a9af7948-8bc4-4dfb-a0f7-209b981d9f71",
    "name": "Schönfeld",
    "state_id": "3e2d441e-c1a0-4b41-9d5b-5a353717bbe6"
  },
  {
    "id": "a42fb414-23e7-4a18-ba07-111310124e6d",
    "name": "Schönheide",
    "state_id": "3e2d441e-c1a0-4b41-9d5b-5a353717bbe6"
  },
  {
    "id": "59dd1e22-3e52-49c2-a1f0-e59ebad13d1f",
    "name": "Schwarzenberg",
    "state_id": "3e2d441e-c1a0-4b41-9d5b-5a353717bbe6"
  },
  {
    "id": "0aee6ff5-fa64-4cbc-b184-aed035d5103d",
    "name": "Schwepnitz",
    "state_id": "3e2d441e-c1a0-4b41-9d5b-5a353717bbe6"
  },
  {
    "id": "f95d16a9-0cbb-409a-9a0b-870ad5e30df2",
    "name": "Sebnitz",
    "state_id": "3e2d441e-c1a0-4b41-9d5b-5a353717bbe6"
  },
  {
    "id": "9409f5e6-a34d-4411-a062-dae1847635ca",
    "name": "Seelitz",
    "state_id": "3e2d441e-c1a0-4b41-9d5b-5a353717bbe6"
  },
  {
    "id": "a1818381-75b0-454e-9750-18be6927493c",
    "name": "Seiffen",
    "state_id": "3e2d441e-c1a0-4b41-9d5b-5a353717bbe6"
  },
  {
    "id": "3681328c-eba8-45bc-8cb8-9908bbb65c2f",
    "name": "Seifhennersdorf",
    "state_id": "3e2d441e-c1a0-4b41-9d5b-5a353717bbe6"
  },
  {
    "id": "06489ec3-edfb-47d5-9890-bed49ca90605",
    "name": "Sohland",
    "state_id": "3e2d441e-c1a0-4b41-9d5b-5a353717bbe6"
  },
  {
    "id": "0268b659-5c1d-48fb-b656-f0d5238bcb49",
    "name": "Sohland am Rotstein",
    "state_id": "3e2d441e-c1a0-4b41-9d5b-5a353717bbe6"
  },
  {
    "id": "b0d8feb3-2696-4d9a-a182-7e6542989ea3",
    "name": "Sosa",
    "state_id": "3e2d441e-c1a0-4b41-9d5b-5a353717bbe6"
  },
  {
    "id": "0254126f-67d7-4921-aa20-b202a6e2a609",
    "name": "Stadt Wehlen",
    "state_id": "3e2d441e-c1a0-4b41-9d5b-5a353717bbe6"
  },
  {
    "id": "e5dd27bd-bf37-47c2-977a-71a28c745e0a",
    "name": "Stauchitz",
    "state_id": "3e2d441e-c1a0-4b41-9d5b-5a353717bbe6"
  },
  {
    "id": "2a66e224-bb3e-486d-b85d-0ae8128f5d4f",
    "name": "Steina",
    "state_id": "3e2d441e-c1a0-4b41-9d5b-5a353717bbe6"
  },
  {
    "id": "f916ba93-44fc-44ac-8e26-304834b9c8f0",
    "name": "Steinigtwolmsdorf",
    "state_id": "3e2d441e-c1a0-4b41-9d5b-5a353717bbe6"
  },
  {
    "id": "697fe14d-d798-419c-b893-6138a560d18a",
    "name": "Stollberg",
    "state_id": "3e2d441e-c1a0-4b41-9d5b-5a353717bbe6"
  },
  {
    "id": "21b6e308-f4cf-4915-91d3-c95bd2ad40e4",
    "name": "Stolpen",
    "state_id": "3e2d441e-c1a0-4b41-9d5b-5a353717bbe6"
  },
  {
    "id": "102a7e2c-34f2-4495-8705-94120882a3bb",
    "name": "Strehla",
    "state_id": "3e2d441e-c1a0-4b41-9d5b-5a353717bbe6"
  },
  {
    "id": "2f0cdd6f-831d-48a2-8915-8536f04cfb99",
    "name": "Struppen",
    "state_id": "3e2d441e-c1a0-4b41-9d5b-5a353717bbe6"
  },
  {
    "id": "ed2e0fe6-32fe-4ba6-a0b0-9a2ff5579806",
    "name": "Stützengrün",
    "state_id": "3e2d441e-c1a0-4b41-9d5b-5a353717bbe6"
  },
  {
    "id": "15362a4c-fe6b-4141-956e-a6821c260a82",
    "name": "Syrau",
    "state_id": "3e2d441e-c1a0-4b41-9d5b-5a353717bbe6"
  },
  {
    "id": "8755586b-d0a4-422e-8403-7bd571a74047",
    "name": "Tannenberg",
    "state_id": "3e2d441e-c1a0-4b41-9d5b-5a353717bbe6"
  },
  {
    "id": "25baea54-bc05-4a2d-b984-21c3d5324c58",
    "name": "Tannenbergsthal",
    "state_id": "3e2d441e-c1a0-4b41-9d5b-5a353717bbe6"
  },
  {
    "id": "f63a7c89-b9ae-472d-92fd-49dae56460d4",
    "name": "Taucha",
    "state_id": "3e2d441e-c1a0-4b41-9d5b-5a353717bbe6"
  },
  {
    "id": "4e3aca65-a4af-41a2-bd03-63bb4da4498a",
    "name": "Taura",
    "state_id": "3e2d441e-c1a0-4b41-9d5b-5a353717bbe6"
  },
  {
    "id": "f8844794-351b-4427-8e71-08984242e0e3",
    "name": "Tauscha",
    "state_id": "3e2d441e-c1a0-4b41-9d5b-5a353717bbe6"
  },
  {
    "id": "613c1d4e-f168-48fe-b1c2-7449b85e3bee",
    "name": "Thalheim",
    "state_id": "3e2d441e-c1a0-4b41-9d5b-5a353717bbe6"
  },
  {
    "id": "a7c2e25e-a333-4386-b269-4b4bbf26ef99",
    "name": "Thallwitz",
    "state_id": "3e2d441e-c1a0-4b41-9d5b-5a353717bbe6"
  },
  {
    "id": "e4cd9b3d-a98d-4c63-b138-3e3356d7223d",
    "name": "Tharandt",
    "state_id": "3e2d441e-c1a0-4b41-9d5b-5a353717bbe6"
  },
  {
    "id": "cb47d395-65b7-4d79-b032-26a60d6b5a05",
    "name": "Theuma",
    "state_id": "3e2d441e-c1a0-4b41-9d5b-5a353717bbe6"
  },
  {
    "id": "3ab6ec91-e41b-41bc-b1f8-c7b8fbae7f4d",
    "name": "Thiendorf",
    "state_id": "3e2d441e-c1a0-4b41-9d5b-5a353717bbe6"
  },
  {
    "id": "95b60387-0d5b-4802-bd61-645f04306193",
    "name": "Thum",
    "state_id": "3e2d441e-c1a0-4b41-9d5b-5a353717bbe6"
  },
  {
    "id": "b4504c4d-0b06-4730-ae60-57393a698c94",
    "name": "Tirpersdorf",
    "state_id": "3e2d441e-c1a0-4b41-9d5b-5a353717bbe6"
  },
  {
    "id": "5e8d96a7-d616-451e-a68c-f16bb198f099",
    "name": "Torgau",
    "state_id": "3e2d441e-c1a0-4b41-9d5b-5a353717bbe6"
  },
  {
    "id": "73f3800e-68e0-4c50-98e2-d96018a53a1b",
    "name": "Trebendorf",
    "state_id": "3e2d441e-c1a0-4b41-9d5b-5a353717bbe6"
  },
  {
    "id": "13479560-09e5-45ed-86dd-d54bcc05f542",
    "name": "Trebsen",
    "state_id": "3e2d441e-c1a0-4b41-9d5b-5a353717bbe6"
  },
  {
    "id": "3480972e-6644-439f-9710-15441e9eac06",
    "name": "Treuen",
    "state_id": "3e2d441e-c1a0-4b41-9d5b-5a353717bbe6"
  },
  {
    "id": "7929870e-5fb0-4cc2-b32b-b80733fd3d33",
    "name": "Triebel",
    "state_id": "3e2d441e-c1a0-4b41-9d5b-5a353717bbe6"
  },
  {
    "id": "addd9cea-dc76-49a1-bd82-d8abb7d04c5b",
    "name": "Trossin",
    "state_id": "3e2d441e-c1a0-4b41-9d5b-5a353717bbe6"
  },
  {
    "id": "c36dcbdf-0eef-4dfd-9729-bd43656c0d0e",
    "name": "Uhyst",
    "state_id": "3e2d441e-c1a0-4b41-9d5b-5a353717bbe6"
  },
  {
    "id": "2a40fde2-382e-410b-a75d-922ac8862a10",
    "name": "Venusberg",
    "state_id": "3e2d441e-c1a0-4b41-9d5b-5a353717bbe6"
  },
  {
    "id": "53c4261b-acde-4677-9a8c-2faf8b176e70",
    "name": "Wachau",
    "state_id": "3e2d441e-c1a0-4b41-9d5b-5a353717bbe6"
  },
  {
    "id": "2e3f5cff-397c-4016-8595-256f8da3f05f",
    "name": "Waldenburg",
    "state_id": "3e2d441e-c1a0-4b41-9d5b-5a353717bbe6"
  },
  {
    "id": "caf0e66f-6a68-4274-9e10-ca8584bcffe5",
    "name": "Waldheim",
    "state_id": "3e2d441e-c1a0-4b41-9d5b-5a353717bbe6"
  },
  {
    "id": "d6b7680f-254e-4a71-af9a-142ac994da3e",
    "name": "Waldkirchen",
    "state_id": "3e2d441e-c1a0-4b41-9d5b-5a353717bbe6"
  },
  {
    "id": "130d442c-52cd-4f9a-9314-1336e66d4a99",
    "name": "Wechselburg",
    "state_id": "3e2d441e-c1a0-4b41-9d5b-5a353717bbe6"
  },
  {
    "id": "9115630d-5f21-4645-a01c-45287de79ced",
    "name": "Weinböhla",
    "state_id": "3e2d441e-c1a0-4b41-9d5b-5a353717bbe6"
  },
  {
    "id": "78ba4c66-6c3f-4686-b975-2a9d3b71cb8d",
    "name": "Weischlitz",
    "state_id": "3e2d441e-c1a0-4b41-9d5b-5a353717bbe6"
  },
  {
    "id": "8625470f-8602-48d4-ad3b-ea58428330d5",
    "name": "Weißenberg",
    "state_id": "3e2d441e-c1a0-4b41-9d5b-5a353717bbe6"
  },
  {
    "id": "8107cc16-4b7b-4718-bfa0-0601f62c0651",
    "name": "Weißenborn",
    "state_id": "3e2d441e-c1a0-4b41-9d5b-5a353717bbe6"
  },
  {
    "id": "60124eb1-e3b9-4ce7-b920-4b4ce19ff4de",
    "name": "Weißig",
    "state_id": "3e2d441e-c1a0-4b41-9d5b-5a353717bbe6"
  },
  {
    "id": "5d3acb9e-7ac5-4655-b3a9-41bfe91b09d8",
    "name": "Weißkeißel",
    "state_id": "3e2d441e-c1a0-4b41-9d5b-5a353717bbe6"
  },
  {
    "id": "f594f922-3aef-4316-bcbf-75f00c8adf74",
    "name": "Weißwasser",
    "state_id": "3e2d441e-c1a0-4b41-9d5b-5a353717bbe6"
  },
  {
    "id": "0d2c05d3-b2e0-44cd-98ed-c6817d75aaa6",
    "name": "Werda",
    "state_id": "3e2d441e-c1a0-4b41-9d5b-5a353717bbe6"
  },
  {
    "id": "7d819134-1263-4467-ada0-ea61c7d88a53",
    "name": "Werdau",
    "state_id": "3e2d441e-c1a0-4b41-9d5b-5a353717bbe6"
  },
  {
    "id": "081c0c33-a0f9-43f3-93c6-f3b4c10a550c",
    "name": "Wermsdorf",
    "state_id": "3e2d441e-c1a0-4b41-9d5b-5a353717bbe6"
  },
  {
    "id": "fa9a5bdb-a349-44be-ab27-294d79f71e82",
    "name": "Wiedemar",
    "state_id": "3e2d441e-c1a0-4b41-9d5b-5a353717bbe6"
  },
  {
    "id": "cd65c002-9d18-4a08-ba8c-dfda4335866f",
    "name": "Wiednitz",
    "state_id": "3e2d441e-c1a0-4b41-9d5b-5a353717bbe6"
  },
  {
    "id": "350b4661-8638-4fba-bfb9-ad94327236e6",
    "name": "Wiesa",
    "state_id": "3e2d441e-c1a0-4b41-9d5b-5a353717bbe6"
  },
  {
    "id": "88b4b5bc-0238-4011-b0b6-4816aced0145",
    "name": "Wildenfels",
    "state_id": "3e2d441e-c1a0-4b41-9d5b-5a353717bbe6"
  },
  {
    "id": "027d1412-b85d-4fb6-9ca2-ca33c38ac03d",
    "name": "Wildenhain",
    "state_id": "3e2d441e-c1a0-4b41-9d5b-5a353717bbe6"
  },
  {
    "id": "a2b88326-41f2-495a-a0f8-30800792f77a",
    "name": "Wilkau-Haßlau",
    "state_id": "3e2d441e-c1a0-4b41-9d5b-5a353717bbe6"
  },
  {
    "id": "d3714947-c614-4d0a-8699-c69f7580c641",
    "name": "Wilsdruff",
    "state_id": "3e2d441e-c1a0-4b41-9d5b-5a353717bbe6"
  },
  {
    "id": "a74a8f2a-13fe-42a2-98d6-3402e28204cf",
    "name": "Wilthen",
    "state_id": "3e2d441e-c1a0-4b41-9d5b-5a353717bbe6"
  },
  {
    "id": "ecadd7a9-e7b5-45b0-b7fc-24eab3ab5eb8",
    "name": "Wittgensdorf",
    "state_id": "3e2d441e-c1a0-4b41-9d5b-5a353717bbe6"
  },
  {
    "id": "f573bb32-8fab-4fdf-9de8-d61f720bc994",
    "name": "Wittichenau",
    "state_id": "3e2d441e-c1a0-4b41-9d5b-5a353717bbe6"
  },
  {
    "id": "ca3aae48-198a-49e1-8590-4b1ba929c3f9",
    "name": "Wolkenstein",
    "state_id": "3e2d441e-c1a0-4b41-9d5b-5a353717bbe6"
  },
  {
    "id": "245c78aa-8063-48a9-ac51-3ebf4995dc7a",
    "name": "Wülknitz",
    "state_id": "3e2d441e-c1a0-4b41-9d5b-5a353717bbe6"
  },
  {
    "id": "681b5cfd-6998-440f-a6e7-1ca07d884d95",
    "name": "Wurzen",
    "state_id": "3e2d441e-c1a0-4b41-9d5b-5a353717bbe6"
  },
  {
    "id": "a5e176fe-8675-4b08-b02b-853051fdefc0",
    "name": "Zabeltitz",
    "state_id": "3e2d441e-c1a0-4b41-9d5b-5a353717bbe6"
  },
  {
    "id": "b49fb719-bc24-4358-8913-6c0d4d604d7e",
    "name": "Zeithain",
    "state_id": "3e2d441e-c1a0-4b41-9d5b-5a353717bbe6"
  },
  {
    "id": "f51a2e31-d306-4500-8c11-6a9def726ef7",
    "name": "Zinna",
    "state_id": "3e2d441e-c1a0-4b41-9d5b-5a353717bbe6"
  },
  {
    "id": "98be74be-ad42-4315-a7a1-5b93a984bd42",
    "name": "Zittau",
    "state_id": "3e2d441e-c1a0-4b41-9d5b-5a353717bbe6"
  },
  {
    "id": "f9dbadcf-bf94-43a3-99bb-39bb8eb9599a",
    "name": "Zöblitz",
    "state_id": "3e2d441e-c1a0-4b41-9d5b-5a353717bbe6"
  },
  {
    "id": "95a650e2-3868-47ce-a9d3-8565d62e0e83",
    "name": "Zschadrass",
    "state_id": "3e2d441e-c1a0-4b41-9d5b-5a353717bbe6"
  },
  {
    "id": "1ebb431f-4366-42ce-a307-f813b6275c4c",
    "name": "Zschepplin",
    "state_id": "3e2d441e-c1a0-4b41-9d5b-5a353717bbe6"
  },
  {
    "id": "22a704ed-3c2f-4b1c-a9f6-7e9c9754012f",
    "name": "Zschopau",
    "state_id": "3e2d441e-c1a0-4b41-9d5b-5a353717bbe6"
  },
  {
    "id": "4545c1ca-6f76-4f9b-b635-9a44f33b3947",
    "name": "Zschorlau",
    "state_id": "3e2d441e-c1a0-4b41-9d5b-5a353717bbe6"
  },
  {
    "id": "c5ec45be-c47b-43c2-950f-d3f9e19b6dd0",
    "name": "Zschortau",
    "state_id": "3e2d441e-c1a0-4b41-9d5b-5a353717bbe6"
  },
  {
    "id": "dbe10b68-42fa-4a34-9cdd-611b836944ae",
    "name": "Zwenkau",
    "state_id": "3e2d441e-c1a0-4b41-9d5b-5a353717bbe6"
  },
  {
    "id": "ff81c9a7-a9d8-47f0-a461-eacee29f3349",
    "name": "Zwickau",
    "state_id": "3e2d441e-c1a0-4b41-9d5b-5a353717bbe6"
  },
  {
    "id": "7f38369e-6dc2-447a-94ff-c916ae5dcba1",
    "name": "Zwochau",
    "state_id": "3e2d441e-c1a0-4b41-9d5b-5a353717bbe6"
  },
  {
    "id": "31c38cd3-1293-4816-8256-fcc19dd56bca",
    "name": "Zwönitz",
    "state_id": "3e2d441e-c1a0-4b41-9d5b-5a353717bbe6"
  },
  {
    "id": "47ee29e6-5673-43fd-a61a-20a07932ef56",
    "name": "Zwota",
    "state_id": "3e2d441e-c1a0-4b41-9d5b-5a353717bbe6"
  }
]