[
  {
    "id": "654456cf-71a0-4fb9-a4b9-4d5d29068a10",
    "name": "Ainaži",
    "state_id": "3e7abf15-1b11-457b-9d01-5f130d5d6369"
  },
  {
    "id": "1ec6ff03-520a-4228-bbea-050f3e300869",
    "name": "Salacgrīva",
    "state_id": "3e7abf15-1b11-457b-9d01-5f130d5d6369"
  }
]