[
  {
    "id": "3dc7b400-e853-432a-a7b9-3cdbfcd06cd4",
    "name": "Anyksciai",
    "state_id": "3eaa1e6f-b3bb-4bc7-8dd5-42a8dec000aa"
  },
  {
    "id": "d7a4bb34-fbf7-4c44-8f77-f4d595116a08",
    "name": "Dūkštas",
    "state_id": "3eaa1e6f-b3bb-4bc7-8dd5-42a8dec000aa"
  },
  {
    "id": "b8779ac0-c963-4291-9041-5061ef1cc5d3",
    "name": "Ignalina",
    "state_id": "3eaa1e6f-b3bb-4bc7-8dd5-42a8dec000aa"
  },
  {
    "id": "5d8c3023-b055-4e22-a2c6-f8533d4598ee",
    "name": "Moletai",
    "state_id": "3eaa1e6f-b3bb-4bc7-8dd5-42a8dec000aa"
  },
  {
    "id": "690cd04d-5151-42d1-87a4-b2079e40114b",
    "name": "Utena",
    "state_id": "3eaa1e6f-b3bb-4bc7-8dd5-42a8dec000aa"
  },
  {
    "id": "9f625b6f-a8e7-4310-9f64-63efdfae1077",
    "name": "Visaginas",
    "state_id": "3eaa1e6f-b3bb-4bc7-8dd5-42a8dec000aa"
  },
  {
    "id": "183a44f7-4034-42e6-8a58-dc20da503030",
    "name": "Zarasai",
    "state_id": "3eaa1e6f-b3bb-4bc7-8dd5-42a8dec000aa"
  }
]