[
  {
    "id": "e8d28ca4-3022-4058-abe5-5eb209a27531",
    "name": "Amphoe Benchalak",
    "state_id": "3eebeca3-ce4f-4b57-bc53-4e102320831e"
  },
  {
    "id": "2eb6fef8-d393-4e52-8730-1b5901eb08e0",
    "name": "Amphoe Bueng Bun",
    "state_id": "3eebeca3-ce4f-4b57-bc53-4e102320831e"
  },
  {
    "id": "123a3d5f-6f0e-4792-bad9-149c710eceb1",
    "name": "Amphoe Huai Thap Than",
    "state_id": "3eebeca3-ce4f-4b57-bc53-4e102320831e"
  },
  {
    "id": "632ea62e-497d-4a8f-b894-0b2fa52f44da",
    "name": "Amphoe Kantharalak",
    "state_id": "3eebeca3-ce4f-4b57-bc53-4e102320831e"
  },
  {
    "id": "31f8a5a4-f057-4d9e-88b0-6585b8fd4309",
    "name": "Amphoe Kanthararom",
    "state_id": "3eebeca3-ce4f-4b57-bc53-4e102320831e"
  },
  {
    "id": "91df3dab-df94-4023-95c7-5b0b1ed3b33b",
    "name": "Amphoe Khukhan",
    "state_id": "3eebeca3-ce4f-4b57-bc53-4e102320831e"
  },
  {
    "id": "d1454ee1-c737-4dbd-b81f-a468ed99bec0",
    "name": "Amphoe Khun Han",
    "state_id": "3eebeca3-ce4f-4b57-bc53-4e102320831e"
  },
  {
    "id": "5913d6c5-eda3-4a0c-8322-42f69cfdb0a0",
    "name": "Amphoe Mueang Chan",
    "state_id": "3eebeca3-ce4f-4b57-bc53-4e102320831e"
  },
  {
    "id": "29e92e3f-f7ad-40bf-8cfd-575f68cf0494",
    "name": "Amphoe Mueang Sisaket",
    "state_id": "3eebeca3-ce4f-4b57-bc53-4e102320831e"
  },
  {
    "id": "50f98859-5e4c-43e5-a76c-307843259db5",
    "name": "Amphoe Nam Kliang",
    "state_id": "3eebeca3-ce4f-4b57-bc53-4e102320831e"
  },
  {
    "id": "dbd4ef8b-cd9d-436f-b990-65cebe23da72",
    "name": "Amphoe Non Khun",
    "state_id": "3eebeca3-ce4f-4b57-bc53-4e102320831e"
  },
  {
    "id": "671a78df-6f59-45bb-b250-91bbea2b08c0",
    "name": "Amphoe Phayu",
    "state_id": "3eebeca3-ce4f-4b57-bc53-4e102320831e"
  },
  {
    "id": "447f3958-8814-49a7-8020-8c6586ded258",
    "name": "Amphoe Pho Si Suwan",
    "state_id": "3eebeca3-ce4f-4b57-bc53-4e102320831e"
  },
  {
    "id": "233a727f-8528-4e8a-9024-09967e2ea692",
    "name": "Amphoe Phrai Bueng",
    "state_id": "3eebeca3-ce4f-4b57-bc53-4e102320831e"
  },
  {
    "id": "3c22d37e-d4c8-4303-999f-6e692e9fd401",
    "name": "Amphoe Phu Sing",
    "state_id": "3eebeca3-ce4f-4b57-bc53-4e102320831e"
  },
  {
    "id": "d5b71891-ff4f-426e-b7a2-1446c06ceecf",
    "name": "Amphoe Prang Ku",
    "state_id": "3eebeca3-ce4f-4b57-bc53-4e102320831e"
  },
  {
    "id": "73bc44bb-6415-47d2-97be-ae3dbfd8a51c",
    "name": "Amphoe Rasi Salai",
    "state_id": "3eebeca3-ce4f-4b57-bc53-4e102320831e"
  },
  {
    "id": "d8cfdf67-e090-42c3-a290-94825f00677e",
    "name": "Amphoe Si Rattana",
    "state_id": "3eebeca3-ce4f-4b57-bc53-4e102320831e"
  },
  {
    "id": "c2d31ab4-2538-44c8-a190-6597e75d5e79",
    "name": "Amphoe Sila Lat",
    "state_id": "3eebeca3-ce4f-4b57-bc53-4e102320831e"
  },
  {
    "id": "bc209061-fa87-420e-9950-cef9a5879e0c",
    "name": "Amphoe Uthumphon Phisai",
    "state_id": "3eebeca3-ce4f-4b57-bc53-4e102320831e"
  },
  {
    "id": "ef9af008-709f-4b88-aba8-ab626477575a",
    "name": "Amphoe Wang Hin",
    "state_id": "3eebeca3-ce4f-4b57-bc53-4e102320831e"
  },
  {
    "id": "57672953-a4f9-4aba-8d48-ef309a510c60",
    "name": "Amphoe Yang Chum Noi",
    "state_id": "3eebeca3-ce4f-4b57-bc53-4e102320831e"
  },
  {
    "id": "4d7b0a45-ae8b-4733-92cd-da2d91e99925",
    "name": "Kantharalak",
    "state_id": "3eebeca3-ce4f-4b57-bc53-4e102320831e"
  },
  {
    "id": "d28c1e01-5fc6-4772-94eb-0e97b23d6415",
    "name": "Phrai Bueng",
    "state_id": "3eebeca3-ce4f-4b57-bc53-4e102320831e"
  },
  {
    "id": "16b18d2f-66a0-45a4-a416-c163e24c62f4",
    "name": "Si Sa Ket",
    "state_id": "3eebeca3-ce4f-4b57-bc53-4e102320831e"
  }
]