[
  {
    "id": "429e21ce-8344-44bc-a7a6-bddb80ff9acc",
    "name": "Keroka",
    "state_id": "3f137c40-ca16-4568-8320-c6d35cecd81d"
  },
  {
    "id": "9152b0ef-8965-429d-82ac-a26618f57897",
    "name": "Nyamira",
    "state_id": "3f137c40-ca16-4568-8320-c6d35cecd81d"
  }
]