[
  {
    "id": "2e5b7bf2-67a0-4ecb-bf10-458b1dfea82b",
    "name": "Ad Darbāsīyah",
    "state_id": "3f6d97f1-afd5-47b6-a4b3-e5adec6943b4"
  },
  {
    "id": "2c80b186-3f26-4acc-a3b1-86b2b8b6c1e6",
    "name": "Al Ḩasakah",
    "state_id": "3f6d97f1-afd5-47b6-a4b3-e5adec6943b4"
  },
  {
    "id": "dd8b2eb8-b9d7-4b94-8549-8a0d214ad122",
    "name": "Al Mālikīyah",
    "state_id": "3f6d97f1-afd5-47b6-a4b3-e5adec6943b4"
  },
  {
    "id": "8d9ffc59-5c0a-4cba-9fb0-a92a311337ff",
    "name": "Al Qāmishlī",
    "state_id": "3f6d97f1-afd5-47b6-a4b3-e5adec6943b4"
  },
  {
    "id": "3e065646-38f1-4e9c-a68e-d54c0d22faf6",
    "name": "Al-Malikiyah District",
    "state_id": "3f6d97f1-afd5-47b6-a4b3-e5adec6943b4"
  },
  {
    "id": "7a011f9a-8803-4951-b934-b05fb01585fb",
    "name": "Amude",
    "state_id": "3f6d97f1-afd5-47b6-a4b3-e5adec6943b4"
  }
]