[
  {
    "id": "a1ab5b82-1d55-4922-8c8a-4cc0bbd76302",
    "name": "Agârbiciu",
    "state_id": "3ff08f13-f69a-41f6-a45b-57b199a2710c"
  },
  {
    "id": "482900b1-7f0f-4178-b1bf-4be558899359",
    "name": "Agnita",
    "state_id": "3ff08f13-f69a-41f6-a45b-57b199a2710c"
  },
  {
    "id": "4f27576d-cb3f-4d3f-91b6-0d8c8cd6b186",
    "name": "Alămor",
    "state_id": "3ff08f13-f69a-41f6-a45b-57b199a2710c"
  },
  {
    "id": "998c9a88-d889-4dcb-bd96-be8d2b36fef8",
    "name": "Alma",
    "state_id": "3ff08f13-f69a-41f6-a45b-57b199a2710c"
  },
  {
    "id": "be8030cc-34ac-4ea1-a8ba-4afc32e27d11",
    "name": "Alțâna",
    "state_id": "3ff08f13-f69a-41f6-a45b-57b199a2710c"
  },
  {
    "id": "70031f51-6144-4617-a210-ec56fb5d2b17",
    "name": "Apoldu de Jos",
    "state_id": "3ff08f13-f69a-41f6-a45b-57b199a2710c"
  },
  {
    "id": "c86c4da7-ef20-4183-a6ca-c59fc404ae3a",
    "name": "Arpaşu de Jos",
    "state_id": "3ff08f13-f69a-41f6-a45b-57b199a2710c"
  },
  {
    "id": "2eedf35b-0795-49f3-bfd6-dc4271db235c",
    "name": "Arpașu de Sus",
    "state_id": "3ff08f13-f69a-41f6-a45b-57b199a2710c"
  },
  {
    "id": "e4fbfab0-4147-4707-8494-35068e49eb28",
    "name": "Aţel",
    "state_id": "3ff08f13-f69a-41f6-a45b-57b199a2710c"
  },
  {
    "id": "7760e748-c7cd-4a14-b51f-506cf98a163d",
    "name": "Avrig",
    "state_id": "3ff08f13-f69a-41f6-a45b-57b199a2710c"
  },
  {
    "id": "d7641864-66c0-4e6b-8617-c84565a2d544",
    "name": "Axente Sever",
    "state_id": "3ff08f13-f69a-41f6-a45b-57b199a2710c"
  },
  {
    "id": "f42e7666-0bac-4841-8523-8f9f1d7d32ab",
    "name": "Bârghiş",
    "state_id": "3ff08f13-f69a-41f6-a45b-57b199a2710c"
  },
  {
    "id": "522951af-7de6-49d9-b8c7-14a207fb0e81",
    "name": "Bazna",
    "state_id": "3ff08f13-f69a-41f6-a45b-57b199a2710c"
  },
  {
    "id": "8c10a690-1029-47e3-8af0-377f81d5b4d0",
    "name": "Biertan",
    "state_id": "3ff08f13-f69a-41f6-a45b-57b199a2710c"
  },
  {
    "id": "e3dedb0c-062e-4756-83b8-ea0efaab3806",
    "name": "Blăjel",
    "state_id": "3ff08f13-f69a-41f6-a45b-57b199a2710c"
  },
  {
    "id": "79df6eea-6de9-452b-8c24-ed87d2935711",
    "name": "Boian",
    "state_id": "3ff08f13-f69a-41f6-a45b-57b199a2710c"
  },
  {
    "id": "9bca4c45-9a72-4f45-a0ab-55baf315f787",
    "name": "Boița",
    "state_id": "3ff08f13-f69a-41f6-a45b-57b199a2710c"
  },
  {
    "id": "5585644a-6d08-4c85-95d2-d83b3890f022",
    "name": "Brădeni",
    "state_id": "3ff08f13-f69a-41f6-a45b-57b199a2710c"
  },
  {
    "id": "13fe2f10-b7f9-4e35-812c-a3645c98f34d",
    "name": "Bradu",
    "state_id": "3ff08f13-f69a-41f6-a45b-57b199a2710c"
  },
  {
    "id": "0bcda521-f111-4971-8901-66970ceb8221",
    "name": "Brateiu",
    "state_id": "3ff08f13-f69a-41f6-a45b-57b199a2710c"
  },
  {
    "id": "409d03ce-72e0-418f-8194-bf7635733340",
    "name": "Bruiu",
    "state_id": "3ff08f13-f69a-41f6-a45b-57b199a2710c"
  },
  {
    "id": "fb900027-d20e-4f00-a3d9-131bc201bd5c",
    "name": "Cârţa",
    "state_id": "3ff08f13-f69a-41f6-a45b-57b199a2710c"
  },
  {
    "id": "3be322da-9d45-4507-b3f8-29fd670cf8f5",
    "name": "Cârţişoara",
    "state_id": "3ff08f13-f69a-41f6-a45b-57b199a2710c"
  },
  {
    "id": "cd8bbd86-d5a2-4095-bf5b-caad4b572b9b",
    "name": "Chirpăr",
    "state_id": "3ff08f13-f69a-41f6-a45b-57b199a2710c"
  },
  {
    "id": "ec10d9ac-907e-4f95-9cf1-79cf00c638ce",
    "name": "Cisnădie",
    "state_id": "3ff08f13-f69a-41f6-a45b-57b199a2710c"
  },
  {
    "id": "69e49515-388b-4c1d-aa54-0e29b22b941f",
    "name": "Comuna Alma",
    "state_id": "3ff08f13-f69a-41f6-a45b-57b199a2710c"
  },
  {
    "id": "77352b40-574c-469a-915a-8bdebcb37e8d",
    "name": "Comuna Alțâna",
    "state_id": "3ff08f13-f69a-41f6-a45b-57b199a2710c"
  },
  {
    "id": "8b5fa02c-995b-45c9-abe8-217954062a08",
    "name": "Comuna Apoldu de Jos",
    "state_id": "3ff08f13-f69a-41f6-a45b-57b199a2710c"
  },
  {
    "id": "fc19474c-7918-4c3b-b909-cfcef94bb370",
    "name": "Comuna Arpaşu de Jos",
    "state_id": "3ff08f13-f69a-41f6-a45b-57b199a2710c"
  },
  {
    "id": "69ab356e-1c65-405e-8500-189611c1f98f",
    "name": "Comuna Aţel",
    "state_id": "3ff08f13-f69a-41f6-a45b-57b199a2710c"
  },
  {
    "id": "795445a8-b224-44c4-8b38-17b5a61e6ce2",
    "name": "Comuna Axente Sever",
    "state_id": "3ff08f13-f69a-41f6-a45b-57b199a2710c"
  },
  {
    "id": "ef25fe7a-95a4-4a3e-bff0-39dabeb2dd25",
    "name": "Comuna Bârghiş",
    "state_id": "3ff08f13-f69a-41f6-a45b-57b199a2710c"
  },
  {
    "id": "574eba9f-6ee7-4c63-b16a-d745b32c85dd",
    "name": "Comuna Bazna",
    "state_id": "3ff08f13-f69a-41f6-a45b-57b199a2710c"
  },
  {
    "id": "6cf65aa3-e462-47f4-97b0-8b2a61cb1c95",
    "name": "Comuna Biertan",
    "state_id": "3ff08f13-f69a-41f6-a45b-57b199a2710c"
  },
  {
    "id": "20ca0d4b-89b0-4446-bbb5-66ab6223c75a",
    "name": "Comuna Blăjel",
    "state_id": "3ff08f13-f69a-41f6-a45b-57b199a2710c"
  },
  {
    "id": "c402d3c2-1cd0-4335-8d8e-55e8c9647a14",
    "name": "Comuna Boiţa",
    "state_id": "3ff08f13-f69a-41f6-a45b-57b199a2710c"
  },
  {
    "id": "3fa84da3-6567-4ecd-89bc-f71f5fac462f",
    "name": "Comuna Brădeni",
    "state_id": "3ff08f13-f69a-41f6-a45b-57b199a2710c"
  },
  {
    "id": "3492d997-b6f2-4f56-9d37-6ee8ba23c8e8",
    "name": "Comuna Brateiu",
    "state_id": "3ff08f13-f69a-41f6-a45b-57b199a2710c"
  },
  {
    "id": "e83116a3-de78-470d-8fcb-cb85395cee47",
    "name": "Comuna Bruiu",
    "state_id": "3ff08f13-f69a-41f6-a45b-57b199a2710c"
  },
  {
    "id": "ebc0f6a5-f8a0-4559-a549-4b44ac3a4906",
    "name": "Comuna Cârţa",
    "state_id": "3ff08f13-f69a-41f6-a45b-57b199a2710c"
  },
  {
    "id": "3de5ce83-eb7e-49cc-a7bc-b6abb9aec25d",
    "name": "Comuna Cârţişoara",
    "state_id": "3ff08f13-f69a-41f6-a45b-57b199a2710c"
  },
  {
    "id": "0b98b688-834d-46a8-896b-35fe44c66ac0",
    "name": "Comuna Chirpăr",
    "state_id": "3ff08f13-f69a-41f6-a45b-57b199a2710c"
  },
  {
    "id": "93e72c70-ecd3-4a52-a5ec-1793bc801ae8",
    "name": "Comuna Cristian",
    "state_id": "3ff08f13-f69a-41f6-a45b-57b199a2710c"
  },
  {
    "id": "02c8878e-ca17-4c1a-afd7-7ac177a9592b",
    "name": "Comuna Dârlos",
    "state_id": "3ff08f13-f69a-41f6-a45b-57b199a2710c"
  },
  {
    "id": "0a6b4c82-703e-4923-af52-7bcf4a16b79b",
    "name": "Comuna Gura Râului",
    "state_id": "3ff08f13-f69a-41f6-a45b-57b199a2710c"
  },
  {
    "id": "0845e238-3bca-4484-910d-fd65e53675aa",
    "name": "Comuna Hoghilag",
    "state_id": "3ff08f13-f69a-41f6-a45b-57b199a2710c"
  },
  {
    "id": "57e8a4f8-4d3c-496d-b61b-9f6555ee6999",
    "name": "Comuna Iacobeni",
    "state_id": "3ff08f13-f69a-41f6-a45b-57b199a2710c"
  },
  {
    "id": "da9ddb0f-486c-447a-86eb-4dfd7800e2c7",
    "name": "Comuna Jina",
    "state_id": "3ff08f13-f69a-41f6-a45b-57b199a2710c"
  },
  {
    "id": "64f38fe4-c9f8-4f03-8c91-7a86b88e12b4",
    "name": "Comuna Laslea",
    "state_id": "3ff08f13-f69a-41f6-a45b-57b199a2710c"
  },
  {
    "id": "888097e0-3ae8-44ea-a255-0ce987281d01",
    "name": "Comuna Loamneş",
    "state_id": "3ff08f13-f69a-41f6-a45b-57b199a2710c"
  },
  {
    "id": "7519484f-7129-4320-95ed-125afb0f2eb7",
    "name": "Comuna Ludoş",
    "state_id": "3ff08f13-f69a-41f6-a45b-57b199a2710c"
  },
  {
    "id": "748d87cd-6d67-412d-ac71-afd7ad4575a7",
    "name": "Comuna Marpod",
    "state_id": "3ff08f13-f69a-41f6-a45b-57b199a2710c"
  },
  {
    "id": "71b15a68-2f29-4c87-8b9b-cd0d9ea21a96",
    "name": "Comuna Merghindeal",
    "state_id": "3ff08f13-f69a-41f6-a45b-57b199a2710c"
  },
  {
    "id": "14244699-c214-4f27-ae2a-0e5a48d1c8f9",
    "name": "Comuna Micăsasa",
    "state_id": "3ff08f13-f69a-41f6-a45b-57b199a2710c"
  },
  {
    "id": "659fc895-0432-46aa-a285-f88860f524e3",
    "name": "Comuna Mihăileni",
    "state_id": "3ff08f13-f69a-41f6-a45b-57b199a2710c"
  },
  {
    "id": "274d2996-1ef0-4bdd-a692-fb42fa2a7251",
    "name": "Comuna Moşna",
    "state_id": "3ff08f13-f69a-41f6-a45b-57b199a2710c"
  },
  {
    "id": "f35a656b-acfd-4d2b-9375-b0b086284127",
    "name": "Comuna Nocrich",
    "state_id": "3ff08f13-f69a-41f6-a45b-57b199a2710c"
  },
  {
    "id": "20eff6f1-4150-4821-9ce5-8bfc08adc02a",
    "name": "Comuna Orlat",
    "state_id": "3ff08f13-f69a-41f6-a45b-57b199a2710c"
  },
  {
    "id": "5391ff13-2174-4839-b7ad-2d95a8eb23dd",
    "name": "Comuna Păuca",
    "state_id": "3ff08f13-f69a-41f6-a45b-57b199a2710c"
  },
  {
    "id": "6bc3dc58-3dfb-435a-b352-d00541d72a61",
    "name": "Comuna Poiana Sibiului",
    "state_id": "3ff08f13-f69a-41f6-a45b-57b199a2710c"
  },
  {
    "id": "da4a91ad-9667-4556-9e47-ae6e0ecdf024",
    "name": "Comuna Poplaca",
    "state_id": "3ff08f13-f69a-41f6-a45b-57b199a2710c"
  },
  {
    "id": "ef632edb-1584-415c-9694-bc0443cf025a",
    "name": "Comuna Porumbacu de Jos",
    "state_id": "3ff08f13-f69a-41f6-a45b-57b199a2710c"
  },
  {
    "id": "b4eb451f-31a1-4bf7-afa1-2490f39ad9fe",
    "name": "Comuna Racoviţa",
    "state_id": "3ff08f13-f69a-41f6-a45b-57b199a2710c"
  },
  {
    "id": "f816e2fe-b84e-4407-8429-6b616df9acec",
    "name": "Comuna Răşinari",
    "state_id": "3ff08f13-f69a-41f6-a45b-57b199a2710c"
  },
  {
    "id": "9b6595f1-5483-47ac-86ba-43f2560d7ce8",
    "name": "Comuna Râu Sadului",
    "state_id": "3ff08f13-f69a-41f6-a45b-57b199a2710c"
  },
  {
    "id": "386cd19d-56e9-4dbb-bb01-556cf9354d5e",
    "name": "Comuna Roşia",
    "state_id": "3ff08f13-f69a-41f6-a45b-57b199a2710c"
  },
  {
    "id": "96df4e8c-252f-4ebe-a575-58d2175f25cc",
    "name": "Comuna Sadu",
    "state_id": "3ff08f13-f69a-41f6-a45b-57b199a2710c"
  },
  {
    "id": "797eae9e-5277-4e50-97d6-7b5dbca62ec3",
    "name": "Comuna Şeica Mare",
    "state_id": "3ff08f13-f69a-41f6-a45b-57b199a2710c"
  },
  {
    "id": "59649c4b-bf71-4190-99d9-162be238e79c",
    "name": "Comuna Şeica Mică",
    "state_id": "3ff08f13-f69a-41f6-a45b-57b199a2710c"
  },
  {
    "id": "2ce1239a-f091-4f30-9e77-a9ae196b4fc3",
    "name": "Comuna Şelimbăr",
    "state_id": "3ff08f13-f69a-41f6-a45b-57b199a2710c"
  },
  {
    "id": "fd04a304-d6a5-4976-a8d6-8790fda784b2",
    "name": "Comuna Slimnic",
    "state_id": "3ff08f13-f69a-41f6-a45b-57b199a2710c"
  },
  {
    "id": "1f184a18-82cb-4e22-886c-dfc486757630",
    "name": "Comuna Şura Mare",
    "state_id": "3ff08f13-f69a-41f6-a45b-57b199a2710c"
  },
  {
    "id": "10b680db-bc8b-440d-90ea-fbfa90a1c820",
    "name": "Comuna Şura Mică",
    "state_id": "3ff08f13-f69a-41f6-a45b-57b199a2710c"
  },
  {
    "id": "e26bb475-4efe-460c-afcd-ddddc1e7c711",
    "name": "Comuna Târnava",
    "state_id": "3ff08f13-f69a-41f6-a45b-57b199a2710c"
  },
  {
    "id": "15725755-489c-45b6-8a76-da3686b7fdd7",
    "name": "Comuna Tilişca",
    "state_id": "3ff08f13-f69a-41f6-a45b-57b199a2710c"
  },
  {
    "id": "f1e1f29e-4242-42c3-9557-4046e23adcbb",
    "name": "Comuna Turnu Roşu",
    "state_id": "3ff08f13-f69a-41f6-a45b-57b199a2710c"
  },
  {
    "id": "6f9caaa2-4da4-46a5-9c23-9d7d00080f17",
    "name": "Comuna Valea Viilor",
    "state_id": "3ff08f13-f69a-41f6-a45b-57b199a2710c"
  },
  {
    "id": "77401c41-4630-4ac3-8078-994f55091877",
    "name": "Comuna Vurpăr",
    "state_id": "3ff08f13-f69a-41f6-a45b-57b199a2710c"
  },
  {
    "id": "f6901cb2-4d1a-40bf-ab13-c0db2b1f1165",
    "name": "Copşa Mică",
    "state_id": "3ff08f13-f69a-41f6-a45b-57b199a2710c"
  },
  {
    "id": "14e37d1f-a740-4226-b7e0-2fdc7585d61b",
    "name": "Cristian",
    "state_id": "3ff08f13-f69a-41f6-a45b-57b199a2710c"
  },
  {
    "id": "9181a142-4338-483d-8592-73273ced7f8f",
    "name": "Dârlos",
    "state_id": "3ff08f13-f69a-41f6-a45b-57b199a2710c"
  },
  {
    "id": "41ffaca6-a26f-41e1-b75c-0de02954fb1d",
    "name": "Dumbrăveni",
    "state_id": "3ff08f13-f69a-41f6-a45b-57b199a2710c"
  },
  {
    "id": "b3172d18-ae21-4454-93bb-04763d5020fe",
    "name": "Gura Râului",
    "state_id": "3ff08f13-f69a-41f6-a45b-57b199a2710c"
  },
  {
    "id": "78e616a7-1809-4584-b9aa-c491a9dafbc8",
    "name": "Hoghilag",
    "state_id": "3ff08f13-f69a-41f6-a45b-57b199a2710c"
  },
  {
    "id": "6344c2ae-2ee1-4582-8b60-000d7aac40a6",
    "name": "Iacobeni",
    "state_id": "3ff08f13-f69a-41f6-a45b-57b199a2710c"
  },
  {
    "id": "2733a070-df27-4848-9c00-e66246e48a2c",
    "name": "Ighișu Nou",
    "state_id": "3ff08f13-f69a-41f6-a45b-57b199a2710c"
  },
  {
    "id": "d686e957-68ae-4a5f-ba7b-15c298f2a074",
    "name": "Jina",
    "state_id": "3ff08f13-f69a-41f6-a45b-57b199a2710c"
  },
  {
    "id": "544af60e-704a-44a1-865e-012ca30b08dc",
    "name": "Laslea",
    "state_id": "3ff08f13-f69a-41f6-a45b-57b199a2710c"
  },
  {
    "id": "1a80c8f9-ded0-4ff0-90f4-565cdff1a412",
    "name": "Loamneş",
    "state_id": "3ff08f13-f69a-41f6-a45b-57b199a2710c"
  },
  {
    "id": "f759065a-df32-44e9-a523-d2d4afd59410",
    "name": "Ludoş",
    "state_id": "3ff08f13-f69a-41f6-a45b-57b199a2710c"
  },
  {
    "id": "82253cc3-a6f4-43dc-8f4d-8ae3a14e3419",
    "name": "Mălâncrav",
    "state_id": "3ff08f13-f69a-41f6-a45b-57b199a2710c"
  },
  {
    "id": "3b5260a8-35ed-4a06-a318-3ffd9107987e",
    "name": "Marpod",
    "state_id": "3ff08f13-f69a-41f6-a45b-57b199a2710c"
  },
  {
    "id": "b7a0e71f-9279-4447-b2f1-d7ae4fb802ee",
    "name": "Mârșa",
    "state_id": "3ff08f13-f69a-41f6-a45b-57b199a2710c"
  },
  {
    "id": "0c7a37e0-214f-4afd-a2f9-ecd718739f57",
    "name": "Mediaş",
    "state_id": "3ff08f13-f69a-41f6-a45b-57b199a2710c"
  },
  {
    "id": "a9e77e09-9dd9-4a98-b359-0545f33b967f",
    "name": "Merghindeal",
    "state_id": "3ff08f13-f69a-41f6-a45b-57b199a2710c"
  },
  {
    "id": "e9d486f6-3f87-4df1-8b87-f1be60db32f3",
    "name": "Micăsasa",
    "state_id": "3ff08f13-f69a-41f6-a45b-57b199a2710c"
  },
  {
    "id": "646c103d-072d-4c00-a1c5-e88b2ee235fe",
    "name": "Miercurea Sibiului",
    "state_id": "3ff08f13-f69a-41f6-a45b-57b199a2710c"
  },
  {
    "id": "175b7ec2-cbbc-4d55-b5af-657422d48a32",
    "name": "Mihăileni",
    "state_id": "3ff08f13-f69a-41f6-a45b-57b199a2710c"
  },
  {
    "id": "3662984e-d758-49a5-9854-5ad1bd32af53",
    "name": "Moşna",
    "state_id": "3ff08f13-f69a-41f6-a45b-57b199a2710c"
  },
  {
    "id": "39f39396-7f9f-4473-b32b-5eb79cf85111",
    "name": "Municipiul Mediaş",
    "state_id": "3ff08f13-f69a-41f6-a45b-57b199a2710c"
  },
  {
    "id": "a6d61a95-8030-4562-8dfe-95916d972561",
    "name": "Municipiul Sibiu",
    "state_id": "3ff08f13-f69a-41f6-a45b-57b199a2710c"
  },
  {
    "id": "2d4c9baa-244b-424e-822a-789ce8b061a9",
    "name": "Nocrich",
    "state_id": "3ff08f13-f69a-41f6-a45b-57b199a2710c"
  },
  {
    "id": "506a65e7-e1a5-4207-8da3-ff8d3873e15e",
    "name": "Nou",
    "state_id": "3ff08f13-f69a-41f6-a45b-57b199a2710c"
  },
  {
    "id": "62d61e0d-e86b-408e-b7f2-e295f2dbfc5d",
    "name": "Ocna Sibiului",
    "state_id": "3ff08f13-f69a-41f6-a45b-57b199a2710c"
  },
  {
    "id": "560c17c3-b86a-40d8-897c-81af68894bc3",
    "name": "Oraş Agnita",
    "state_id": "3ff08f13-f69a-41f6-a45b-57b199a2710c"
  },
  {
    "id": "06c7531d-addb-40d6-9605-1cc9eedcd0ef",
    "name": "Oraş Avrig",
    "state_id": "3ff08f13-f69a-41f6-a45b-57b199a2710c"
  },
  {
    "id": "6edee089-d50c-4611-b75e-34cdcf31df2a",
    "name": "Oraş Cisnãdie",
    "state_id": "3ff08f13-f69a-41f6-a45b-57b199a2710c"
  },
  {
    "id": "11e80f00-6c57-46ac-9cc0-55270c93cad1",
    "name": "Oraş Copşa Micã",
    "state_id": "3ff08f13-f69a-41f6-a45b-57b199a2710c"
  },
  {
    "id": "71042c9f-9cf4-4a33-88e4-1c8a60fc4b2d",
    "name": "Oraş Dumbrãveni",
    "state_id": "3ff08f13-f69a-41f6-a45b-57b199a2710c"
  },
  {
    "id": "497f966a-e74c-4739-93fc-ffdf8f44105a",
    "name": "Oraş Miercurea Sibiului",
    "state_id": "3ff08f13-f69a-41f6-a45b-57b199a2710c"
  },
  {
    "id": "3cd4b873-a87e-4984-a2a6-576e9742a1ee",
    "name": "Oraş Ocna Sibiului",
    "state_id": "3ff08f13-f69a-41f6-a45b-57b199a2710c"
  },
  {
    "id": "b23a1159-0afa-469c-aed2-b7393545b59e",
    "name": "Oraş Sãlişte",
    "state_id": "3ff08f13-f69a-41f6-a45b-57b199a2710c"
  },
  {
    "id": "2e2b0b78-7916-4893-a55d-25bcbffce394",
    "name": "Oraş Tãlmaciu",
    "state_id": "3ff08f13-f69a-41f6-a45b-57b199a2710c"
  },
  {
    "id": "8f88899c-d6b8-43c7-99ad-538d121b6cfa",
    "name": "Orlat",
    "state_id": "3ff08f13-f69a-41f6-a45b-57b199a2710c"
  },
  {
    "id": "d02a6843-4bf0-48a6-a5a0-5dea11d16d07",
    "name": "Păuca",
    "state_id": "3ff08f13-f69a-41f6-a45b-57b199a2710c"
  },
  {
    "id": "7da2233c-e7fb-45a9-9de8-210dd4868826",
    "name": "Poiana Sibiului",
    "state_id": "3ff08f13-f69a-41f6-a45b-57b199a2710c"
  },
  {
    "id": "26b21457-89a5-4db4-96e0-ec83d12adc2b",
    "name": "Poplaca",
    "state_id": "3ff08f13-f69a-41f6-a45b-57b199a2710c"
  },
  {
    "id": "77b0ffe7-06c7-4e51-a3b4-ac845fdb50d7",
    "name": "Porumbacu de Jos",
    "state_id": "3ff08f13-f69a-41f6-a45b-57b199a2710c"
  },
  {
    "id": "5677f051-c555-4fd5-a9d0-d0e9722eaec2",
    "name": "Racoviţa",
    "state_id": "3ff08f13-f69a-41f6-a45b-57b199a2710c"
  },
  {
    "id": "aca66686-560b-43c3-a120-b2bb3220d10d",
    "name": "Răşinari",
    "state_id": "3ff08f13-f69a-41f6-a45b-57b199a2710c"
  },
  {
    "id": "95010647-59b1-446c-9a68-885ad4186a97",
    "name": "Râu Sadului",
    "state_id": "3ff08f13-f69a-41f6-a45b-57b199a2710c"
  },
  {
    "id": "3386e92f-afa0-4551-a709-bf552c3e6fab",
    "name": "Roşia",
    "state_id": "3ff08f13-f69a-41f6-a45b-57b199a2710c"
  },
  {
    "id": "1f0434af-9e6b-477b-b4cd-96d6ceacbadd",
    "name": "Ruja",
    "state_id": "3ff08f13-f69a-41f6-a45b-57b199a2710c"
  },
  {
    "id": "8ad76fcd-d93b-40f7-9fe7-3f9d1813f1ca",
    "name": "Sadu",
    "state_id": "3ff08f13-f69a-41f6-a45b-57b199a2710c"
  },
  {
    "id": "97e9dbc5-419c-413c-ade5-719fb2489b4d",
    "name": "Sălişte",
    "state_id": "3ff08f13-f69a-41f6-a45b-57b199a2710c"
  },
  {
    "id": "77a6bb53-1974-43f6-91b5-2cea289d7d61",
    "name": "Șaroș pe Târnave",
    "state_id": "3ff08f13-f69a-41f6-a45b-57b199a2710c"
  },
  {
    "id": "d12d76c2-156d-4808-9c50-7ebd952749bb",
    "name": "Şeíca Mare",
    "state_id": "3ff08f13-f69a-41f6-a45b-57b199a2710c"
  },
  {
    "id": "6857ccd0-15f4-4081-8c4d-638312f48a05",
    "name": "Şeica Mică",
    "state_id": "3ff08f13-f69a-41f6-a45b-57b199a2710c"
  },
  {
    "id": "3e4edceb-4f2a-4d7b-8355-f1d0677a2301",
    "name": "Şelimbăr",
    "state_id": "3ff08f13-f69a-41f6-a45b-57b199a2710c"
  },
  {
    "id": "7d310456-15e8-4bc1-8ffe-d7f0e174461e",
    "name": "Sibiu",
    "state_id": "3ff08f13-f69a-41f6-a45b-57b199a2710c"
  },
  {
    "id": "3161557f-72b6-42cb-93c3-7235f8a8982e",
    "name": "Slimnic",
    "state_id": "3ff08f13-f69a-41f6-a45b-57b199a2710c"
  },
  {
    "id": "075ea19f-c4b8-42c0-9441-6ea8d1f7ab46",
    "name": "Şura Mare",
    "state_id": "3ff08f13-f69a-41f6-a45b-57b199a2710c"
  },
  {
    "id": "94e61600-9627-4755-b24a-2d0803b2890d",
    "name": "Şura Mică",
    "state_id": "3ff08f13-f69a-41f6-a45b-57b199a2710c"
  },
  {
    "id": "ee7c68e2-b0b7-4d67-8535-376f58b612c7",
    "name": "Tălmăcel",
    "state_id": "3ff08f13-f69a-41f6-a45b-57b199a2710c"
  },
  {
    "id": "f5e9d9e3-9393-4706-a7c7-a5bf81ab1115",
    "name": "Tălmaciu",
    "state_id": "3ff08f13-f69a-41f6-a45b-57b199a2710c"
  },
  {
    "id": "31019ae3-394e-4dbe-9d49-d658390f3ed3",
    "name": "Târnava",
    "state_id": "3ff08f13-f69a-41f6-a45b-57b199a2710c"
  },
  {
    "id": "aa51176c-639e-4200-8f6e-f68b6d2aa230",
    "name": "Tilişca",
    "state_id": "3ff08f13-f69a-41f6-a45b-57b199a2710c"
  },
  {
    "id": "92af22bc-35fc-48a9-8e0d-a37ca459796f",
    "name": "Turnu Roşu",
    "state_id": "3ff08f13-f69a-41f6-a45b-57b199a2710c"
  },
  {
    "id": "83adeecd-9dcf-4668-be60-60de48781b4a",
    "name": "Valea Viilor",
    "state_id": "3ff08f13-f69a-41f6-a45b-57b199a2710c"
  },
  {
    "id": "dd2afcf9-96f0-48d8-abed-5d8719a120ec",
    "name": "Veștem",
    "state_id": "3ff08f13-f69a-41f6-a45b-57b199a2710c"
  },
  {
    "id": "4b8270d9-beee-4622-81e2-acd7594f5f14",
    "name": "Vurpăr",
    "state_id": "3ff08f13-f69a-41f6-a45b-57b199a2710c"
  }
]