[
  {
    "id": "45db2871-d42d-460b-94a7-e5a28e154f41",
    "name": "Alvdal",
    "state_id": "40585e04-6e95-40af-9623-52fbb6a7eabb"
  },
  {
    "id": "f63b19eb-164b-4996-8800-eb93feb9f728",
    "name": "Åmot",
    "state_id": "40585e04-6e95-40af-9623-52fbb6a7eabb"
  },
  {
    "id": "38bf4b81-c34d-45b1-9386-fa1028b2663d",
    "name": "Åsnes",
    "state_id": "40585e04-6e95-40af-9623-52fbb6a7eabb"
  },
  {
    "id": "0e9cfdda-0cfe-417f-b75d-f004ddf136c2",
    "name": "Brumunddal",
    "state_id": "40585e04-6e95-40af-9623-52fbb6a7eabb"
  },
  {
    "id": "0c0bdeb4-0174-4b15-831f-3bcb5fddcaf3",
    "name": "Eidskog",
    "state_id": "40585e04-6e95-40af-9623-52fbb6a7eabb"
  },
  {
    "id": "60bb5588-f554-416e-a604-6fc368e7062a",
    "name": "Elverum",
    "state_id": "40585e04-6e95-40af-9623-52fbb6a7eabb"
  },
  {
    "id": "723d68d8-13fa-46f9-9d1b-0797a981c93a",
    "name": "Engerdal",
    "state_id": "40585e04-6e95-40af-9623-52fbb6a7eabb"
  },
  {
    "id": "c27b19c1-4db8-4c9c-9591-37e2c70ee43b",
    "name": "Folldal",
    "state_id": "40585e04-6e95-40af-9623-52fbb6a7eabb"
  },
  {
    "id": "8b92f4d0-a0b3-42ac-a816-73b6f95e776d",
    "name": "Grue",
    "state_id": "40585e04-6e95-40af-9623-52fbb6a7eabb"
  },
  {
    "id": "1249ad03-24a2-455a-a4c2-1ac839cf2a1f",
    "name": "Hamar",
    "state_id": "40585e04-6e95-40af-9623-52fbb6a7eabb"
  },
  {
    "id": "a2d78d98-a6c9-4584-8969-31bdb9c8ef68",
    "name": "Innbygda",
    "state_id": "40585e04-6e95-40af-9623-52fbb6a7eabb"
  },
  {
    "id": "b37fcd0e-5144-4d29-9066-83c4a50d9a95",
    "name": "Kirkenær",
    "state_id": "40585e04-6e95-40af-9623-52fbb6a7eabb"
  },
  {
    "id": "4cf55776-eff5-4e47-bd63-53e5e13c3bbb",
    "name": "Kongsvinger",
    "state_id": "40585e04-6e95-40af-9623-52fbb6a7eabb"
  },
  {
    "id": "37466635-af3e-473c-89fc-df666dce2ba4",
    "name": "Koppang",
    "state_id": "40585e04-6e95-40af-9623-52fbb6a7eabb"
  },
  {
    "id": "2b1b6c8a-37fb-4def-9bd7-489be66ed639",
    "name": "Løten",
    "state_id": "40585e04-6e95-40af-9623-52fbb6a7eabb"
  },
  {
    "id": "feb01be2-1cbe-4850-9ff7-5c85120892d9",
    "name": "Moelv",
    "state_id": "40585e04-6e95-40af-9623-52fbb6a7eabb"
  },
  {
    "id": "112a3fc5-e467-4c89-8718-b57a3541d9e0",
    "name": "Nord-Odal",
    "state_id": "40585e04-6e95-40af-9623-52fbb6a7eabb"
  },
  {
    "id": "2c2d2db9-cbf3-4f7f-aa19-5c23b395c01f",
    "name": "Os",
    "state_id": "40585e04-6e95-40af-9623-52fbb6a7eabb"
  },
  {
    "id": "f23c03c2-91f4-4a4e-b2de-8bc909e54703",
    "name": "Rena",
    "state_id": "40585e04-6e95-40af-9623-52fbb6a7eabb"
  },
  {
    "id": "3d646da1-7537-4a48-96f0-68da71767f76",
    "name": "Rendalen",
    "state_id": "40585e04-6e95-40af-9623-52fbb6a7eabb"
  },
  {
    "id": "b08c89f3-48b6-43f0-915e-0ad665cb8731",
    "name": "Ringsaker",
    "state_id": "40585e04-6e95-40af-9623-52fbb6a7eabb"
  },
  {
    "id": "a9463f7b-7a75-4b0e-bf7e-0f82af44429a",
    "name": "Sand",
    "state_id": "40585e04-6e95-40af-9623-52fbb6a7eabb"
  },
  {
    "id": "f8d80b5d-2f18-4b2a-9aa5-056bb356c493",
    "name": "Skarnes",
    "state_id": "40585e04-6e95-40af-9623-52fbb6a7eabb"
  },
  {
    "id": "be5b9def-8d16-4bee-b380-62bf807478ea",
    "name": "Skotterud",
    "state_id": "40585e04-6e95-40af-9623-52fbb6a7eabb"
  },
  {
    "id": "23b1efd9-4874-4fba-a82d-5ebb9d767663",
    "name": "Sør-Odal",
    "state_id": "40585e04-6e95-40af-9623-52fbb6a7eabb"
  },
  {
    "id": "7ecddabc-1984-43be-8add-e6ee5c74a5e5",
    "name": "Spetalen",
    "state_id": "40585e04-6e95-40af-9623-52fbb6a7eabb"
  },
  {
    "id": "b93eeaeb-6380-4b90-a2e3-5de45279c7d6",
    "name": "Stange",
    "state_id": "40585e04-6e95-40af-9623-52fbb6a7eabb"
  },
  {
    "id": "fe533d2b-6d9e-4b7e-b422-00b982c9607a",
    "name": "Stor-Elvdal",
    "state_id": "40585e04-6e95-40af-9623-52fbb6a7eabb"
  },
  {
    "id": "71fa1717-77d0-4f00-8736-d34700d03f70",
    "name": "Tolga",
    "state_id": "40585e04-6e95-40af-9623-52fbb6a7eabb"
  },
  {
    "id": "84a0008e-0514-4347-a507-9eb89a03cadd",
    "name": "Trysil",
    "state_id": "40585e04-6e95-40af-9623-52fbb6a7eabb"
  },
  {
    "id": "cfebd5c5-b0c2-4902-91d6-33f2d9f6c175",
    "name": "Tynset",
    "state_id": "40585e04-6e95-40af-9623-52fbb6a7eabb"
  },
  {
    "id": "831f6e10-0adf-4fe9-9a44-f7f56067d9f0",
    "name": "Våler",
    "state_id": "40585e04-6e95-40af-9623-52fbb6a7eabb"
  }
]