[
  {
    "id": "2133c4f6-a47d-4638-ade5-64aeffa62307",
    "name": "Bébédja",
    "state_id": "4103d5de-6e4d-4984-9c7e-be94118321c0"
  },
  {
    "id": "d433a7da-fb71-4885-8768-223b0b908bb2",
    "name": "Béboto",
    "state_id": "4103d5de-6e4d-4984-9c7e-be94118321c0"
  },
  {
    "id": "faa81ec8-b290-4e1e-a780-0cdb8ddd77b7",
    "name": "Doba",
    "state_id": "4103d5de-6e4d-4984-9c7e-be94118321c0"
  }
]