[
  {
    "id": "e4b3ebc1-3746-401e-9434-32f0fdc4a0ac",
    "name": "Ar Rahad",
    "state_id": "42437ff7-f48c-4d5c-9cf4-41e134eb636e"
  },
  {
    "id": "c2aeaa19-eda3-4aa6-b46c-b8d4e0298e19",
    "name": "Bārah",
    "state_id": "42437ff7-f48c-4d5c-9cf4-41e134eb636e"
  },
  {
    "id": "3874bea5-9b8e-4524-959f-b9fce1b1f3ad",
    "name": "El Obeid",
    "state_id": "42437ff7-f48c-4d5c-9cf4-41e134eb636e"
  },
  {
    "id": "710ac13c-ecbb-46e0-ba8f-b4b070d3038a",
    "name": "Umm Ruwaba",
    "state_id": "42437ff7-f48c-4d5c-9cf4-41e134eb636e"
  }
]