[
  {
    "id": "e75bcd85-5c36-406e-a04b-35498d568ee4",
    "name": "Albeşti",
    "state_id": "42be9c85-7bfb-40a7-9d36-c9ad42e5df75"
  },
  {
    "id": "4327ac2d-a373-4af7-bb96-2ca7f8d077cf",
    "name": "Albeştii Pământeni",
    "state_id": "42be9c85-7bfb-40a7-9d36-c9ad42e5df75"
  },
  {
    "id": "325243b0-9ee9-499d-a4df-18c0466fb538",
    "name": "Albeștii Ungureni",
    "state_id": "42be9c85-7bfb-40a7-9d36-c9ad42e5df75"
  },
  {
    "id": "76e06d74-48d9-44f8-b72a-8855ef2092d3",
    "name": "Albota",
    "state_id": "42be9c85-7bfb-40a7-9d36-c9ad42e5df75"
  },
  {
    "id": "00aa87dc-effe-4776-86a6-076f14c63a7a",
    "name": "Albota de Jos",
    "state_id": "42be9c85-7bfb-40a7-9d36-c9ad42e5df75"
  },
  {
    "id": "6a0f069c-ab20-417f-9fa7-f65e08417aa4",
    "name": "Aninoasa",
    "state_id": "42be9c85-7bfb-40a7-9d36-c9ad42e5df75"
  },
  {
    "id": "68c12ecd-492c-45a2-a070-368377f29811",
    "name": "Arefu",
    "state_id": "42be9c85-7bfb-40a7-9d36-c9ad42e5df75"
  },
  {
    "id": "b487050d-c214-4a46-b679-2a7422043aac",
    "name": "Argeșelu",
    "state_id": "42be9c85-7bfb-40a7-9d36-c9ad42e5df75"
  },
  {
    "id": "252bf869-9719-4ea0-bfe5-f51a62e59ebc",
    "name": "Băbana",
    "state_id": "42be9c85-7bfb-40a7-9d36-c9ad42e5df75"
  },
  {
    "id": "c4013db4-7c25-417a-9019-869d7ef07f70",
    "name": "Bădești",
    "state_id": "42be9c85-7bfb-40a7-9d36-c9ad42e5df75"
  },
  {
    "id": "2a543d40-10bc-4e25-8145-8d9d68f6b449",
    "name": "Băiculeşti",
    "state_id": "42be9c85-7bfb-40a7-9d36-c9ad42e5df75"
  },
  {
    "id": "53cf9340-de46-49a4-ab08-debe9e184fe3",
    "name": "Băjești",
    "state_id": "42be9c85-7bfb-40a7-9d36-c9ad42e5df75"
  },
  {
    "id": "ec1e210b-c1eb-45b6-85fe-da4fafc041c7",
    "name": "Bălileşti",
    "state_id": "42be9c85-7bfb-40a7-9d36-c9ad42e5df75"
  },
  {
    "id": "c88e15d6-da41-4846-a9bb-56a21fc20e13",
    "name": "Bărăști",
    "state_id": "42be9c85-7bfb-40a7-9d36-c9ad42e5df75"
  },
  {
    "id": "a3a78279-e7e2-4d79-949e-6a9ecd51506c",
    "name": "Bârla",
    "state_id": "42be9c85-7bfb-40a7-9d36-c9ad42e5df75"
  },
  {
    "id": "55597685-093a-4da4-95c1-b5ae29b7c0fc",
    "name": "Bârlogu",
    "state_id": "42be9c85-7bfb-40a7-9d36-c9ad42e5df75"
  },
  {
    "id": "4a556731-60a0-4aab-827b-91b0e345e895",
    "name": "Başcov",
    "state_id": "42be9c85-7bfb-40a7-9d36-c9ad42e5df75"
  },
  {
    "id": "16dfc030-d47d-45b2-a0e0-3586b3b8e2af",
    "name": "Beleţi",
    "state_id": "42be9c85-7bfb-40a7-9d36-c9ad42e5df75"
  },
  {
    "id": "065c4554-19c0-4f35-91c2-50da60e4c0ff",
    "name": "Berevoeşti",
    "state_id": "42be9c85-7bfb-40a7-9d36-c9ad42e5df75"
  },
  {
    "id": "9f1343ec-23d0-480c-adc8-f10a4c8bd6e8",
    "name": "Bogaţi",
    "state_id": "42be9c85-7bfb-40a7-9d36-c9ad42e5df75"
  },
  {
    "id": "48d42930-0154-4241-8fad-51514141e8eb",
    "name": "Boteni",
    "state_id": "42be9c85-7bfb-40a7-9d36-c9ad42e5df75"
  },
  {
    "id": "9a9c6b1b-77f8-4da7-a6d9-beb45f63bc9a",
    "name": "Boţeşti",
    "state_id": "42be9c85-7bfb-40a7-9d36-c9ad42e5df75"
  },
  {
    "id": "141539b1-f5c2-4664-aebd-6620ea2c3cdb",
    "name": "Bradu",
    "state_id": "42be9c85-7bfb-40a7-9d36-c9ad42e5df75"
  },
  {
    "id": "27db2318-a9e1-4002-a997-e91853bb7bcc",
    "name": "Brăduleţ",
    "state_id": "42be9c85-7bfb-40a7-9d36-c9ad42e5df75"
  },
  {
    "id": "b6fd8f3b-0b29-4206-a695-b43718ba07a1",
    "name": "Bucșenești",
    "state_id": "42be9c85-7bfb-40a7-9d36-c9ad42e5df75"
  },
  {
    "id": "d5322321-939d-4d31-b4d7-4c6b0e008220",
    "name": "Bucșenești-Lotași",
    "state_id": "42be9c85-7bfb-40a7-9d36-c9ad42e5df75"
  },
  {
    "id": "942f646b-8576-4c46-8009-85c0d03ea3c4",
    "name": "Budeasa Mică",
    "state_id": "42be9c85-7bfb-40a7-9d36-c9ad42e5df75"
  },
  {
    "id": "9c6f6ba1-68df-4f5a-b1f3-4137b1c3108b",
    "name": "Bughea de Jos",
    "state_id": "42be9c85-7bfb-40a7-9d36-c9ad42e5df75"
  },
  {
    "id": "4b521ce3-d93b-4b4a-9d7e-fd8e5bd67189",
    "name": "Bughea de Sus",
    "state_id": "42be9c85-7bfb-40a7-9d36-c9ad42e5df75"
  },
  {
    "id": "da6d12b9-57d5-4f4b-ad6b-a6d5654c7a7b",
    "name": "Buzoeşti",
    "state_id": "42be9c85-7bfb-40a7-9d36-c9ad42e5df75"
  },
  {
    "id": "f0485967-8815-4a8a-a1ad-6003e6674deb",
    "name": "Căldăraru",
    "state_id": "42be9c85-7bfb-40a7-9d36-c9ad42e5df75"
  },
  {
    "id": "2b547b43-dd47-4de2-bf6e-73df2efbf5cd",
    "name": "Călineşti",
    "state_id": "42be9c85-7bfb-40a7-9d36-c9ad42e5df75"
  },
  {
    "id": "e107fe65-726b-4e6c-b2ae-6bfce7b2410b",
    "name": "Câmpulung",
    "state_id": "42be9c85-7bfb-40a7-9d36-c9ad42e5df75"
  },
  {
    "id": "af3adcaf-43cf-4b4c-9c62-15678532ca01",
    "name": "Căpățânenii Pământeni",
    "state_id": "42be9c85-7bfb-40a7-9d36-c9ad42e5df75"
  },
  {
    "id": "7b3e031b-c2ca-424d-a45e-59ab06cb64cd",
    "name": "Capu Piscului",
    "state_id": "42be9c85-7bfb-40a7-9d36-c9ad42e5df75"
  },
  {
    "id": "1d0a228d-08e5-43c4-955d-9fbd6c7a20fa",
    "name": "Căteasca",
    "state_id": "42be9c85-7bfb-40a7-9d36-c9ad42e5df75"
  },
  {
    "id": "aec50090-f453-448d-8521-85311acab9cb",
    "name": "Ceparii Pământeni",
    "state_id": "42be9c85-7bfb-40a7-9d36-c9ad42e5df75"
  },
  {
    "id": "d29a54d8-04bd-4513-9fb4-6c08398ea2ea",
    "name": "Cetăţeni",
    "state_id": "42be9c85-7bfb-40a7-9d36-c9ad42e5df75"
  },
  {
    "id": "1181a7f7-be84-44eb-9414-75c20198eb01",
    "name": "Cicănești",
    "state_id": "42be9c85-7bfb-40a7-9d36-c9ad42e5df75"
  },
  {
    "id": "c98957b4-a47f-4c9a-9a24-6d6660ba2e0d",
    "name": "Ciofrângeni",
    "state_id": "42be9c85-7bfb-40a7-9d36-c9ad42e5df75"
  },
  {
    "id": "cace4e0e-56e4-4c50-a5cf-22b922d5f37c",
    "name": "Ciomăgeşti",
    "state_id": "42be9c85-7bfb-40a7-9d36-c9ad42e5df75"
  },
  {
    "id": "e53d158f-33d7-4539-9fe9-7b21e3e65b8e",
    "name": "Ciulnița",
    "state_id": "42be9c85-7bfb-40a7-9d36-c9ad42e5df75"
  },
  {
    "id": "67b1344e-04af-4c49-b1cf-88f81327f5e9",
    "name": "Cocu",
    "state_id": "42be9c85-7bfb-40a7-9d36-c9ad42e5df75"
  },
  {
    "id": "93812ee5-efc8-4dcd-a494-2b339b585aa6",
    "name": "Colibași",
    "state_id": "42be9c85-7bfb-40a7-9d36-c9ad42e5df75"
  },
  {
    "id": "6b5f028c-3eab-4768-941e-26ca5cb24808",
    "name": "Comuna Albeștii de Argeș",
    "state_id": "42be9c85-7bfb-40a7-9d36-c9ad42e5df75"
  },
  {
    "id": "90ea55b0-9b93-4ab5-bfbc-fcae52124f0c",
    "name": "Comuna Albeștii de Muscel",
    "state_id": "42be9c85-7bfb-40a7-9d36-c9ad42e5df75"
  },
  {
    "id": "71b84446-9137-4548-9054-f857994a59e6",
    "name": "Comuna Albota",
    "state_id": "42be9c85-7bfb-40a7-9d36-c9ad42e5df75"
  },
  {
    "id": "514bb104-2379-473b-8cc1-a235e57ef107",
    "name": "Comuna Aninoasa",
    "state_id": "42be9c85-7bfb-40a7-9d36-c9ad42e5df75"
  },
  {
    "id": "23259b89-7649-4aed-90a7-36237d895c3e",
    "name": "Comuna Arefu",
    "state_id": "42be9c85-7bfb-40a7-9d36-c9ad42e5df75"
  },
  {
    "id": "ec7b3a51-c73e-4e1f-aebd-b69a41bf0576",
    "name": "Comuna Băbana",
    "state_id": "42be9c85-7bfb-40a7-9d36-c9ad42e5df75"
  },
  {
    "id": "66acb5a2-8a73-42e0-9c3b-1fe8d3d091f5",
    "name": "Comuna Băiculeşti",
    "state_id": "42be9c85-7bfb-40a7-9d36-c9ad42e5df75"
  },
  {
    "id": "eb8fedc3-efc8-455a-810a-9b7b0eb0ad4f",
    "name": "Comuna Bălileşti",
    "state_id": "42be9c85-7bfb-40a7-9d36-c9ad42e5df75"
  },
  {
    "id": "9f0f2a7c-4774-4372-9904-5a1f086abfba",
    "name": "Comuna Bârla",
    "state_id": "42be9c85-7bfb-40a7-9d36-c9ad42e5df75"
  },
  {
    "id": "ae65b808-28f8-4cce-abd9-259fb1214414",
    "name": "Comuna Başcov",
    "state_id": "42be9c85-7bfb-40a7-9d36-c9ad42e5df75"
  },
  {
    "id": "0a901dc6-dd72-46af-b9bd-b8a3f0a47b81",
    "name": "Comuna Beleţi-Negreşti",
    "state_id": "42be9c85-7bfb-40a7-9d36-c9ad42e5df75"
  },
  {
    "id": "d95d706d-8788-4ba2-9782-db064fbd79ed",
    "name": "Comuna Berevoeşti",
    "state_id": "42be9c85-7bfb-40a7-9d36-c9ad42e5df75"
  },
  {
    "id": "26fd2423-d6b9-41a5-938d-23a1237f3bdf",
    "name": "Comuna Bogaţi",
    "state_id": "42be9c85-7bfb-40a7-9d36-c9ad42e5df75"
  },
  {
    "id": "a62e9097-6299-4bba-b31f-149e45eaf02f",
    "name": "Comuna Boteni",
    "state_id": "42be9c85-7bfb-40a7-9d36-c9ad42e5df75"
  },
  {
    "id": "eb2080b4-0925-44f4-95cd-74abf3ff6c00",
    "name": "Comuna Boţeşti",
    "state_id": "42be9c85-7bfb-40a7-9d36-c9ad42e5df75"
  },
  {
    "id": "2688d6bb-d0a2-4809-ab46-f25684b4a774",
    "name": "Comuna Bradu",
    "state_id": "42be9c85-7bfb-40a7-9d36-c9ad42e5df75"
  },
  {
    "id": "9cbf5a52-0e4a-41b6-97f9-4e89881df4b0",
    "name": "Comuna Brăduleţ",
    "state_id": "42be9c85-7bfb-40a7-9d36-c9ad42e5df75"
  },
  {
    "id": "d81c167b-df3f-41c2-81e5-d5c463703cec",
    "name": "Comuna Budeasa",
    "state_id": "42be9c85-7bfb-40a7-9d36-c9ad42e5df75"
  },
  {
    "id": "8158fa4d-66d6-448f-9844-d906997e2052",
    "name": "Comuna Bughea de Jos",
    "state_id": "42be9c85-7bfb-40a7-9d36-c9ad42e5df75"
  },
  {
    "id": "22bc32d4-4b88-431a-9e09-1205c32f56da",
    "name": "Comuna Bughea de Sus",
    "state_id": "42be9c85-7bfb-40a7-9d36-c9ad42e5df75"
  },
  {
    "id": "2f6529e8-72c8-41c4-9bb3-13d7d444421e",
    "name": "Comuna Buzoeşti",
    "state_id": "42be9c85-7bfb-40a7-9d36-c9ad42e5df75"
  },
  {
    "id": "84bc4046-ad8c-4ee6-8fd6-899c15e3ca14",
    "name": "Comuna Căldăraru",
    "state_id": "42be9c85-7bfb-40a7-9d36-c9ad42e5df75"
  },
  {
    "id": "403c4a4a-9b32-4260-a394-62a560efdeef",
    "name": "Comuna Călineşti",
    "state_id": "42be9c85-7bfb-40a7-9d36-c9ad42e5df75"
  },
  {
    "id": "4b496c28-a360-4c94-abf7-6773a2e09e41",
    "name": "Comuna Căteasca",
    "state_id": "42be9c85-7bfb-40a7-9d36-c9ad42e5df75"
  },
  {
    "id": "4a36b0bc-eeee-4e2b-8329-4b79b8c3bdbb",
    "name": "Comuna Cepari",
    "state_id": "42be9c85-7bfb-40a7-9d36-c9ad42e5df75"
  },
  {
    "id": "780cc57e-4b63-4b70-91c2-3af08811539a",
    "name": "Comuna Cetăţeni",
    "state_id": "42be9c85-7bfb-40a7-9d36-c9ad42e5df75"
  },
  {
    "id": "c20f71c1-b64a-4f2a-9abe-d55d978f2c3b",
    "name": "Comuna Cicănești",
    "state_id": "42be9c85-7bfb-40a7-9d36-c9ad42e5df75"
  },
  {
    "id": "f8d1378b-5f67-4bc2-8dc0-911ff8af18fb",
    "name": "Comuna Ciofrângeni",
    "state_id": "42be9c85-7bfb-40a7-9d36-c9ad42e5df75"
  },
  {
    "id": "deb84d8f-7c0f-459d-b796-000e9bc7c1ba",
    "name": "Comuna Ciomăgeşti",
    "state_id": "42be9c85-7bfb-40a7-9d36-c9ad42e5df75"
  },
  {
    "id": "b76ca1b5-e1fe-4ab1-b932-d4ffb8e05368",
    "name": "Comuna Cocu",
    "state_id": "42be9c85-7bfb-40a7-9d36-c9ad42e5df75"
  },
  {
    "id": "a88afdbf-8c77-4db8-b821-2b203f3c83a9",
    "name": "Comuna Corbeni",
    "state_id": "42be9c85-7bfb-40a7-9d36-c9ad42e5df75"
  },
  {
    "id": "bf626331-218d-41df-938c-59c58c69584d",
    "name": "Comuna Corbi",
    "state_id": "42be9c85-7bfb-40a7-9d36-c9ad42e5df75"
  },
  {
    "id": "bae9c963-f954-48b1-90a4-aa6a7954f82d",
    "name": "Comuna Coşeşti",
    "state_id": "42be9c85-7bfb-40a7-9d36-c9ad42e5df75"
  },
  {
    "id": "499dee9c-23dd-48b2-92ad-347c39b099b1",
    "name": "Comuna Cotmeana",
    "state_id": "42be9c85-7bfb-40a7-9d36-c9ad42e5df75"
  },
  {
    "id": "f51d5553-c25c-4ac6-88ad-2d7f64397195",
    "name": "Comuna Cuca",
    "state_id": "42be9c85-7bfb-40a7-9d36-c9ad42e5df75"
  },
  {
    "id": "39371fe9-3209-4839-9ce4-2f1265d4a68f",
    "name": "Comuna Dâmbovicioara",
    "state_id": "42be9c85-7bfb-40a7-9d36-c9ad42e5df75"
  },
  {
    "id": "c168900e-4484-473b-8976-e7f285cfe708",
    "name": "Comuna Dărmăneşti",
    "state_id": "42be9c85-7bfb-40a7-9d36-c9ad42e5df75"
  },
  {
    "id": "07f9de51-1072-4d08-850c-95aeb7f55184",
    "name": "Comuna Davideşti",
    "state_id": "42be9c85-7bfb-40a7-9d36-c9ad42e5df75"
  },
  {
    "id": "f8d3e516-6512-4078-ba68-18e7b4a23c26",
    "name": "Comuna Dobreşti",
    "state_id": "42be9c85-7bfb-40a7-9d36-c9ad42e5df75"
  },
  {
    "id": "568d2e47-f78f-47fb-adfc-ec711c1bab83",
    "name": "Comuna Domneşti",
    "state_id": "42be9c85-7bfb-40a7-9d36-c9ad42e5df75"
  },
  {
    "id": "9c08a2ad-176b-44a2-9e2c-53ed6b668206",
    "name": "Comuna Drăganu",
    "state_id": "42be9c85-7bfb-40a7-9d36-c9ad42e5df75"
  },
  {
    "id": "8badae21-59dd-47d3-9290-4367552b3c20",
    "name": "Comuna Dragoslavele",
    "state_id": "42be9c85-7bfb-40a7-9d36-c9ad42e5df75"
  },
  {
    "id": "04e18fbf-1c1d-4b8c-a400-8c9891c3c384",
    "name": "Comuna Godeni",
    "state_id": "42be9c85-7bfb-40a7-9d36-c9ad42e5df75"
  },
  {
    "id": "3671f58d-5ab3-4266-80f2-4544da63f8e0",
    "name": "Comuna Hârseşti",
    "state_id": "42be9c85-7bfb-40a7-9d36-c9ad42e5df75"
  },
  {
    "id": "26468bad-84d0-4fcf-91df-a7f335c92061",
    "name": "Comuna Hârtieşti",
    "state_id": "42be9c85-7bfb-40a7-9d36-c9ad42e5df75"
  },
  {
    "id": "baaac45b-3e0a-444c-8fe6-ab49d7b356c2",
    "name": "Comuna Izvoru",
    "state_id": "42be9c85-7bfb-40a7-9d36-c9ad42e5df75"
  },
  {
    "id": "854d20f1-ec34-43e7-af5a-80211031bd46",
    "name": "Comuna Leordeni",
    "state_id": "42be9c85-7bfb-40a7-9d36-c9ad42e5df75"
  },
  {
    "id": "2bdcbf59-59f8-4481-836e-f6b289082b38",
    "name": "Comuna Lereşti",
    "state_id": "42be9c85-7bfb-40a7-9d36-c9ad42e5df75"
  },
  {
    "id": "05ecaebc-b63b-48e9-9973-3c07dc2c3aed",
    "name": "Comuna Lunca Corbului",
    "state_id": "42be9c85-7bfb-40a7-9d36-c9ad42e5df75"
  },
  {
    "id": "77294636-2121-4272-b365-8fdef33693c4",
    "name": "Comuna Mălureni",
    "state_id": "42be9c85-7bfb-40a7-9d36-c9ad42e5df75"
  },
  {
    "id": "d5fdccca-92cc-4424-bc23-972c6f6f867c",
    "name": "Comuna Mărăcineni",
    "state_id": "42be9c85-7bfb-40a7-9d36-c9ad42e5df75"
  },
  {
    "id": "e918264f-6214-4c51-b703-5c087f577dad",
    "name": "Comuna Merișani",
    "state_id": "42be9c85-7bfb-40a7-9d36-c9ad42e5df75"
  },
  {
    "id": "f4c919a6-9418-4943-9686-5fca6ec326b8",
    "name": "Comuna Miceşti",
    "state_id": "42be9c85-7bfb-40a7-9d36-c9ad42e5df75"
  },
  {
    "id": "4de3cedf-d6e0-4267-99b7-797df2d5b120",
    "name": "Comuna Mihăeşti",
    "state_id": "42be9c85-7bfb-40a7-9d36-c9ad42e5df75"
  },
  {
    "id": "9ca8e357-e4f9-4067-b4ae-5ce914ee42ea",
    "name": "Comuna Mioarele",
    "state_id": "42be9c85-7bfb-40a7-9d36-c9ad42e5df75"
  },
  {
    "id": "b6be10c5-6d2d-4b37-ba2b-8fee711c18fb",
    "name": "Comuna Miroşi",
    "state_id": "42be9c85-7bfb-40a7-9d36-c9ad42e5df75"
  },
  {
    "id": "7ab47dab-1eca-468e-bd23-be623d52ee63",
    "name": "Comuna Morărești",
    "state_id": "42be9c85-7bfb-40a7-9d36-c9ad42e5df75"
  },
  {
    "id": "258344a2-0f3e-42c1-b663-596f30e308ae",
    "name": "Comuna Moşoaia",
    "state_id": "42be9c85-7bfb-40a7-9d36-c9ad42e5df75"
  },
  {
    "id": "84b5237b-0dcd-4a06-9591-69ea36070ecd",
    "name": "Comuna Mozăceni",
    "state_id": "42be9c85-7bfb-40a7-9d36-c9ad42e5df75"
  },
  {
    "id": "38559c71-a28a-4c57-b75d-95f34aba96a2",
    "name": "Comuna Mușătești",
    "state_id": "42be9c85-7bfb-40a7-9d36-c9ad42e5df75"
  },
  {
    "id": "0b70bbeb-4ea2-41b9-a864-da794e124b59",
    "name": "Comuna Negraşi",
    "state_id": "42be9c85-7bfb-40a7-9d36-c9ad42e5df75"
  },
  {
    "id": "32c06a9f-8541-41ec-ac9c-2a6850fdcb4f",
    "name": "Comuna Nucşoara",
    "state_id": "42be9c85-7bfb-40a7-9d36-c9ad42e5df75"
  },
  {
    "id": "df0d23d4-c6ca-4341-90dc-f0cb8efde1b8",
    "name": "Comuna Oarja",
    "state_id": "42be9c85-7bfb-40a7-9d36-c9ad42e5df75"
  },
  {
    "id": "0e1eacb8-f994-41c3-8124-e5b12d580840",
    "name": "Comuna Pietroşani",
    "state_id": "42be9c85-7bfb-40a7-9d36-c9ad42e5df75"
  },
  {
    "id": "7a46ae2e-b525-4ff9-8c9f-59045d2107c9",
    "name": "Comuna Poiana Lacului",
    "state_id": "42be9c85-7bfb-40a7-9d36-c9ad42e5df75"
  },
  {
    "id": "1c322357-b1e0-4440-8da0-e433d9eee35b",
    "name": "Comuna Poienarii de Argeş",
    "state_id": "42be9c85-7bfb-40a7-9d36-c9ad42e5df75"
  },
  {
    "id": "8364cea1-7970-4f51-9ec4-5021ca4193f7",
    "name": "Comuna Poienarii de Muscel",
    "state_id": "42be9c85-7bfb-40a7-9d36-c9ad42e5df75"
  },
  {
    "id": "0b13780d-7d8f-4113-a825-b637c992428a",
    "name": "Comuna Popeşti",
    "state_id": "42be9c85-7bfb-40a7-9d36-c9ad42e5df75"
  },
  {
    "id": "6fa06115-c06d-40aa-825a-e6fa002b835b",
    "name": "Comuna Priboieni",
    "state_id": "42be9c85-7bfb-40a7-9d36-c9ad42e5df75"
  },
  {
    "id": "fe510928-bf99-4419-beff-e079eb7fdd7c",
    "name": "Comuna Râca",
    "state_id": "42be9c85-7bfb-40a7-9d36-c9ad42e5df75"
  },
  {
    "id": "91d4b4be-0032-4215-989c-93b445952dbb",
    "name": "Comuna Răteşti",
    "state_id": "42be9c85-7bfb-40a7-9d36-c9ad42e5df75"
  },
  {
    "id": "adc77b15-a3df-4eec-aa07-b912dff2d57f",
    "name": "Comuna Recea",
    "state_id": "42be9c85-7bfb-40a7-9d36-c9ad42e5df75"
  },
  {
    "id": "01c590d6-ac7a-44cf-a1df-340f941791e9",
    "name": "Comuna Rociu",
    "state_id": "42be9c85-7bfb-40a7-9d36-c9ad42e5df75"
  },
  {
    "id": "398b8541-44c4-45c2-8e53-98165e44d445",
    "name": "Comuna Rucăr",
    "state_id": "42be9c85-7bfb-40a7-9d36-c9ad42e5df75"
  },
  {
    "id": "cbb9260f-14b2-4c45-b0c2-d8c423bd54f5",
    "name": "Comuna Sălătrucu",
    "state_id": "42be9c85-7bfb-40a7-9d36-c9ad42e5df75"
  },
  {
    "id": "6d2b8cfc-9c47-4edd-9905-148872a9b35d",
    "name": "Comuna Săpata",
    "state_id": "42be9c85-7bfb-40a7-9d36-c9ad42e5df75"
  },
  {
    "id": "13d6af1b-11e6-443f-91be-c645c7b8050c",
    "name": "Comuna Schitu-Goleşti",
    "state_id": "42be9c85-7bfb-40a7-9d36-c9ad42e5df75"
  },
  {
    "id": "811230fb-3ed4-42da-80a7-088607336bdb",
    "name": "Comuna Slobozia",
    "state_id": "42be9c85-7bfb-40a7-9d36-c9ad42e5df75"
  },
  {
    "id": "e89e02e1-4672-4296-b307-4e184247edeb",
    "name": "Comuna Stâlpeni",
    "state_id": "42be9c85-7bfb-40a7-9d36-c9ad42e5df75"
  },
  {
    "id": "b9c6951a-fad4-494d-8875-f35cb9be39db",
    "name": "Comuna Ştefan cel Mare",
    "state_id": "42be9c85-7bfb-40a7-9d36-c9ad42e5df75"
  },
  {
    "id": "2de7b6e4-edfb-4095-9740-a5eaa5a83178",
    "name": "Comuna Stoeneşti",
    "state_id": "42be9c85-7bfb-40a7-9d36-c9ad42e5df75"
  },
  {
    "id": "fb2ba140-0ca0-4023-9c3f-195e7283729e",
    "name": "Comuna Stolnici",
    "state_id": "42be9c85-7bfb-40a7-9d36-c9ad42e5df75"
  },
  {
    "id": "7c0bfdf4-8d70-494c-a9cc-1430695f9c9b",
    "name": "Comuna Şuici",
    "state_id": "42be9c85-7bfb-40a7-9d36-c9ad42e5df75"
  },
  {
    "id": "0db5efcd-8004-4167-bf17-a1018abd3c10",
    "name": "Comuna Suseni",
    "state_id": "42be9c85-7bfb-40a7-9d36-c9ad42e5df75"
  },
  {
    "id": "ba262c0e-6d61-4cf4-9c73-d0d4f51b9973",
    "name": "Comuna Teiu",
    "state_id": "42be9c85-7bfb-40a7-9d36-c9ad42e5df75"
  },
  {
    "id": "55048184-ec99-451b-9143-f6be5f47123c",
    "name": "Comuna Tigveni",
    "state_id": "42be9c85-7bfb-40a7-9d36-c9ad42e5df75"
  },
  {
    "id": "6702b949-72d7-432c-a0b9-39e81dbcaf95",
    "name": "Comuna Țițești",
    "state_id": "42be9c85-7bfb-40a7-9d36-c9ad42e5df75"
  },
  {
    "id": "4880081d-b882-4079-97a6-eaf8ecf60fb4",
    "name": "Comuna Uda",
    "state_id": "42be9c85-7bfb-40a7-9d36-c9ad42e5df75"
  },
  {
    "id": "1e839716-4d9c-4913-b281-5b7540bc50e5",
    "name": "Comuna Ungheni",
    "state_id": "42be9c85-7bfb-40a7-9d36-c9ad42e5df75"
  },
  {
    "id": "1eefd97b-727f-4f66-972f-ec99f5355d7c",
    "name": "Comuna Valea Danului",
    "state_id": "42be9c85-7bfb-40a7-9d36-c9ad42e5df75"
  },
  {
    "id": "64072bd7-6967-4ca4-869b-06545b2c3d5a",
    "name": "Comuna Valea Iaşului",
    "state_id": "42be9c85-7bfb-40a7-9d36-c9ad42e5df75"
  },
  {
    "id": "96bcd9d6-6fd1-40c2-bff1-298fdb7b0eb2",
    "name": "Comuna Valea Mare-Pravăţ",
    "state_id": "42be9c85-7bfb-40a7-9d36-c9ad42e5df75"
  },
  {
    "id": "d491d74d-e756-4754-86d0-dd4b8ec93f73",
    "name": "Comuna Vedea",
    "state_id": "42be9c85-7bfb-40a7-9d36-c9ad42e5df75"
  },
  {
    "id": "b48223f4-ce54-4193-aabe-ef1691bbc547",
    "name": "Comuna Vlădeşti",
    "state_id": "42be9c85-7bfb-40a7-9d36-c9ad42e5df75"
  },
  {
    "id": "8bb6bbf4-acee-4e91-bdc1-9d31b8a0f843",
    "name": "Comuna Vultureşti",
    "state_id": "42be9c85-7bfb-40a7-9d36-c9ad42e5df75"
  },
  {
    "id": "07a5d50c-6699-4646-b215-d80b0d90db7e",
    "name": "Conțești",
    "state_id": "42be9c85-7bfb-40a7-9d36-c9ad42e5df75"
  },
  {
    "id": "e37e9e8d-fe4d-452b-9911-6dfbc148ddc6",
    "name": "Corbeni",
    "state_id": "42be9c85-7bfb-40a7-9d36-c9ad42e5df75"
  },
  {
    "id": "69268819-d1d0-443d-a7a0-6f32c6459120",
    "name": "Corbi",
    "state_id": "42be9c85-7bfb-40a7-9d36-c9ad42e5df75"
  },
  {
    "id": "6e3d5860-9aab-4df8-a5ce-36c4c383090d",
    "name": "Cornățel",
    "state_id": "42be9c85-7bfb-40a7-9d36-c9ad42e5df75"
  },
  {
    "id": "5bfb855c-5367-4ec1-a9ae-b76460da0d93",
    "name": "Coşeşti",
    "state_id": "42be9c85-7bfb-40a7-9d36-c9ad42e5df75"
  },
  {
    "id": "8b464386-1bc7-4bf7-b20a-7cb73c404480",
    "name": "Costeşti",
    "state_id": "42be9c85-7bfb-40a7-9d36-c9ad42e5df75"
  },
  {
    "id": "ea07dc9f-63d3-4368-822a-0ce096207abd",
    "name": "Cotenești",
    "state_id": "42be9c85-7bfb-40a7-9d36-c9ad42e5df75"
  },
  {
    "id": "a4cf0e04-5bef-4ff8-bfb4-474cf0e06095",
    "name": "Cotmeana",
    "state_id": "42be9c85-7bfb-40a7-9d36-c9ad42e5df75"
  },
  {
    "id": "50c55671-9116-444b-a26a-a45407125710",
    "name": "Cuca",
    "state_id": "42be9c85-7bfb-40a7-9d36-c9ad42e5df75"
  },
  {
    "id": "71e21080-013e-441d-ac0c-31dc2e7370dc",
    "name": "Curtea de Argeş",
    "state_id": "42be9c85-7bfb-40a7-9d36-c9ad42e5df75"
  },
  {
    "id": "7f9b7083-25bf-4c5f-8933-881371aa9f77",
    "name": "Dâmbovicioara",
    "state_id": "42be9c85-7bfb-40a7-9d36-c9ad42e5df75"
  },
  {
    "id": "8ec859c9-2c8e-478b-b511-50100ac5b16d",
    "name": "Dărmăneşti",
    "state_id": "42be9c85-7bfb-40a7-9d36-c9ad42e5df75"
  },
  {
    "id": "d4cb88ca-3312-49cb-ba38-c3becd4994a7",
    "name": "Davideşti",
    "state_id": "42be9c85-7bfb-40a7-9d36-c9ad42e5df75"
  },
  {
    "id": "2a35b592-fa04-4164-ae9f-010d42343590",
    "name": "Dobreşti",
    "state_id": "42be9c85-7bfb-40a7-9d36-c9ad42e5df75"
  },
  {
    "id": "0f2bbab8-99f0-43e0-b256-3e4201a0ee50",
    "name": "Dobrotu",
    "state_id": "42be9c85-7bfb-40a7-9d36-c9ad42e5df75"
  },
  {
    "id": "187f3078-3f8b-49fe-ad0e-79f5a01b756e",
    "name": "Domneşti",
    "state_id": "42be9c85-7bfb-40a7-9d36-c9ad42e5df75"
  },
  {
    "id": "80e956bb-c625-4f28-ac38-13cc124c8f9e",
    "name": "Drăganu-Olteni",
    "state_id": "42be9c85-7bfb-40a7-9d36-c9ad42e5df75"
  },
  {
    "id": "2509399d-4ee5-4033-898e-90ce798b9a12",
    "name": "Drăghici",
    "state_id": "42be9c85-7bfb-40a7-9d36-c9ad42e5df75"
  },
  {
    "id": "5316b656-262b-4863-a79d-57983d343731",
    "name": "Dragoslavele",
    "state_id": "42be9c85-7bfb-40a7-9d36-c9ad42e5df75"
  },
  {
    "id": "a7f5e3e8-a83d-4e44-8ec6-10e5c678f856",
    "name": "Făgetu",
    "state_id": "42be9c85-7bfb-40a7-9d36-c9ad42e5df75"
  },
  {
    "id": "48887e29-83a0-45ee-9792-658541a9a464",
    "name": "Gălășești",
    "state_id": "42be9c85-7bfb-40a7-9d36-c9ad42e5df75"
  },
  {
    "id": "2055a253-6964-4f1c-8720-4e2df5362ee4",
    "name": "Geamăna",
    "state_id": "42be9c85-7bfb-40a7-9d36-c9ad42e5df75"
  },
  {
    "id": "e7bd6ce3-49f6-414e-a37c-c71856b111d9",
    "name": "Godeni",
    "state_id": "42be9c85-7bfb-40a7-9d36-c9ad42e5df75"
  },
  {
    "id": "0e6b74f3-bb11-4653-8845-0820e520614e",
    "name": "Golești",
    "state_id": "42be9c85-7bfb-40a7-9d36-c9ad42e5df75"
  },
  {
    "id": "93431dcd-81c2-482d-96a6-eddd94667a03",
    "name": "Gorganu",
    "state_id": "42be9c85-7bfb-40a7-9d36-c9ad42e5df75"
  },
  {
    "id": "f839b6b8-1efa-4f59-b2a5-8ecf6aae39c9",
    "name": "Hârseşti",
    "state_id": "42be9c85-7bfb-40a7-9d36-c9ad42e5df75"
  },
  {
    "id": "76a69330-40c4-4523-93b5-60e535ea5602",
    "name": "Hârtieşti",
    "state_id": "42be9c85-7bfb-40a7-9d36-c9ad42e5df75"
  },
  {
    "id": "df9dc3e5-7062-4b0e-a63f-2fc2b304e245",
    "name": "Humele",
    "state_id": "42be9c85-7bfb-40a7-9d36-c9ad42e5df75"
  },
  {
    "id": "5a241420-06ed-4515-a451-38b96db947b7",
    "name": "Izvoru",
    "state_id": "42be9c85-7bfb-40a7-9d36-c9ad42e5df75"
  },
  {
    "id": "5d51053c-f377-4736-996e-70f732061ae0",
    "name": "Izvoru de Sus",
    "state_id": "42be9c85-7bfb-40a7-9d36-c9ad42e5df75"
  },
  {
    "id": "d93d2e54-4556-4250-8b76-5f8a6b65986a",
    "name": "Jugur",
    "state_id": "42be9c85-7bfb-40a7-9d36-c9ad42e5df75"
  },
  {
    "id": "0e44fc89-c324-487b-bca5-d79a63fc8168",
    "name": "Jupânești",
    "state_id": "42be9c85-7bfb-40a7-9d36-c9ad42e5df75"
  },
  {
    "id": "53827495-9c7c-4870-b294-65c1f19e765c",
    "name": "Lăzărești",
    "state_id": "42be9c85-7bfb-40a7-9d36-c9ad42e5df75"
  },
  {
    "id": "d49b2ae2-e8fe-41e5-92ff-665f423e683b",
    "name": "Leicești",
    "state_id": "42be9c85-7bfb-40a7-9d36-c9ad42e5df75"
  },
  {
    "id": "cdc7b219-4faf-4eac-bbcc-39c1b5228be9",
    "name": "Leordeni",
    "state_id": "42be9c85-7bfb-40a7-9d36-c9ad42e5df75"
  },
  {
    "id": "45adf30a-e96e-4efe-99ec-8ff4ae3ed4ba",
    "name": "Lereşti",
    "state_id": "42be9c85-7bfb-40a7-9d36-c9ad42e5df75"
  },
  {
    "id": "e61d36ee-bfcd-4986-9699-787445e08bd0",
    "name": "Livezeni",
    "state_id": "42be9c85-7bfb-40a7-9d36-c9ad42e5df75"
  },
  {
    "id": "dcf4211d-ac2c-46fe-870d-b741861555f5",
    "name": "Lunca Corbului",
    "state_id": "42be9c85-7bfb-40a7-9d36-c9ad42e5df75"
  },
  {
    "id": "046ef478-ddfa-4736-ac29-de055a8b29ed",
    "name": "Mălureni",
    "state_id": "42be9c85-7bfb-40a7-9d36-c9ad42e5df75"
  },
  {
    "id": "d3c5ddb9-5c20-4393-a84f-d44f60709265",
    "name": "Mărăcineni",
    "state_id": "42be9c85-7bfb-40a7-9d36-c9ad42e5df75"
  },
  {
    "id": "00ee77bc-cf9a-4613-b6c1-6cd3eb380cbe",
    "name": "Mareș",
    "state_id": "42be9c85-7bfb-40a7-9d36-c9ad42e5df75"
  },
  {
    "id": "1b97fb26-80e1-4068-9fe7-3a6d69e91bfc",
    "name": "Mârţeşti",
    "state_id": "42be9c85-7bfb-40a7-9d36-c9ad42e5df75"
  },
  {
    "id": "4e330452-ca9f-42b8-9ad3-feccbde7fcb3",
    "name": "Mățău",
    "state_id": "42be9c85-7bfb-40a7-9d36-c9ad42e5df75"
  },
  {
    "id": "d4b604e9-63cc-47d0-9347-7ee65ee63c3a",
    "name": "Merişani",
    "state_id": "42be9c85-7bfb-40a7-9d36-c9ad42e5df75"
  },
  {
    "id": "5076f686-afd9-4199-b74d-140dfc9aabf6",
    "name": "Miceşti",
    "state_id": "42be9c85-7bfb-40a7-9d36-c9ad42e5df75"
  },
  {
    "id": "4c9a2cf3-e9bb-4999-8b88-ea6d63d24741",
    "name": "Mihăeşti",
    "state_id": "42be9c85-7bfb-40a7-9d36-c9ad42e5df75"
  },
  {
    "id": "2f44f6f5-5c9d-4948-8fc7-53a632ec82c5",
    "name": "Mioveni",
    "state_id": "42be9c85-7bfb-40a7-9d36-c9ad42e5df75"
  },
  {
    "id": "bdaf98b8-e266-44ca-a6b8-ca47268c73a7",
    "name": "Miroşi",
    "state_id": "42be9c85-7bfb-40a7-9d36-c9ad42e5df75"
  },
  {
    "id": "6dcac70a-99ad-4a32-bcbd-4074f30a82c7",
    "name": "Morăreşti",
    "state_id": "42be9c85-7bfb-40a7-9d36-c9ad42e5df75"
  },
  {
    "id": "0eeec53b-069f-4326-b28e-51a574ea39f5",
    "name": "Moşoaia",
    "state_id": "42be9c85-7bfb-40a7-9d36-c9ad42e5df75"
  },
  {
    "id": "29fa75f4-48b8-4ef7-973b-41784891f2d4",
    "name": "Mozăceni",
    "state_id": "42be9c85-7bfb-40a7-9d36-c9ad42e5df75"
  },
  {
    "id": "07cd5c1b-0326-4c5c-8370-e6922e68eda6",
    "name": "Municipiul Câmpulung",
    "state_id": "42be9c85-7bfb-40a7-9d36-c9ad42e5df75"
  },
  {
    "id": "848b2ff6-3475-4952-9a87-a7bcb1bc7718",
    "name": "Municipiul Curtea de Argeș",
    "state_id": "42be9c85-7bfb-40a7-9d36-c9ad42e5df75"
  },
  {
    "id": "25730561-b0bb-48ad-a3fd-9178d40ede2b",
    "name": "Municipiul Piteşti",
    "state_id": "42be9c85-7bfb-40a7-9d36-c9ad42e5df75"
  },
  {
    "id": "484380ba-1471-419f-b04b-9a7fc3c93c67",
    "name": "Mușătești",
    "state_id": "42be9c85-7bfb-40a7-9d36-c9ad42e5df75"
  },
  {
    "id": "4ba7f059-f995-4202-86cd-f1dacd1cb005",
    "name": "Negraşi",
    "state_id": "42be9c85-7bfb-40a7-9d36-c9ad42e5df75"
  },
  {
    "id": "631860d8-1059-41e6-bd64-62ec611203e8",
    "name": "Nucşoara",
    "state_id": "42be9c85-7bfb-40a7-9d36-c9ad42e5df75"
  },
  {
    "id": "3e85e6c6-d6b5-4982-a1e2-5e2797174ba1",
    "name": "Oarja",
    "state_id": "42be9c85-7bfb-40a7-9d36-c9ad42e5df75"
  },
  {
    "id": "ea78ffa1-2246-4770-aa78-aff25281629a",
    "name": "Oarja Sat",
    "state_id": "42be9c85-7bfb-40a7-9d36-c9ad42e5df75"
  },
  {
    "id": "a99ffd10-8ce8-4e3e-b557-6665b46c2acc",
    "name": "Oeștii Pământeni",
    "state_id": "42be9c85-7bfb-40a7-9d36-c9ad42e5df75"
  },
  {
    "id": "2d504d50-beec-4dba-8c37-3b1c536b11d2",
    "name": "Oraș Costeşti",
    "state_id": "42be9c85-7bfb-40a7-9d36-c9ad42e5df75"
  },
  {
    "id": "4f2b3b4d-3dd1-4dd8-884f-7a38fbaee644",
    "name": "Oraș Mioveni",
    "state_id": "42be9c85-7bfb-40a7-9d36-c9ad42e5df75"
  },
  {
    "id": "4952663d-9393-4b27-97f0-2c25e0039366",
    "name": "Oraș Ştefăneşti",
    "state_id": "42be9c85-7bfb-40a7-9d36-c9ad42e5df75"
  },
  {
    "id": "0eea8ee8-4c11-43d7-b228-dbeac4478341",
    "name": "Oraș Topoloveni",
    "state_id": "42be9c85-7bfb-40a7-9d36-c9ad42e5df75"
  },
  {
    "id": "a4638e96-a7f7-40ac-9977-adfcafa953ad",
    "name": "Pătuleni",
    "state_id": "42be9c85-7bfb-40a7-9d36-c9ad42e5df75"
  },
  {
    "id": "08f522ae-4251-48be-aa23-5ddccef6b881",
    "name": "Petrești",
    "state_id": "42be9c85-7bfb-40a7-9d36-c9ad42e5df75"
  },
  {
    "id": "3543989c-035a-4338-964b-b4c4e779e694",
    "name": "Pietroşani",
    "state_id": "42be9c85-7bfb-40a7-9d36-c9ad42e5df75"
  },
  {
    "id": "e6ffa211-a3b1-4ae9-87c1-b4bb3554645e",
    "name": "Piteşti",
    "state_id": "42be9c85-7bfb-40a7-9d36-c9ad42e5df75"
  },
  {
    "id": "f9eff77a-802b-4194-a8b8-41c8dde18ef0",
    "name": "Poiana Lacului",
    "state_id": "42be9c85-7bfb-40a7-9d36-c9ad42e5df75"
  },
  {
    "id": "7137a011-22be-4b83-bcca-e837ef433326",
    "name": "Poienari",
    "state_id": "42be9c85-7bfb-40a7-9d36-c9ad42e5df75"
  },
  {
    "id": "b3602a84-24f1-42c8-9fea-d602a85fa21a",
    "name": "Popeşti",
    "state_id": "42be9c85-7bfb-40a7-9d36-c9ad42e5df75"
  },
  {
    "id": "5ab2954c-440d-46c9-a34d-3eab987dc029",
    "name": "Priboieni",
    "state_id": "42be9c85-7bfb-40a7-9d36-c9ad42e5df75"
  },
  {
    "id": "e67a4548-8af3-4793-978a-abae680b787f",
    "name": "Purcăreni",
    "state_id": "42be9c85-7bfb-40a7-9d36-c9ad42e5df75"
  },
  {
    "id": "295a5b73-bba0-48b3-ac31-c31db7caf5dd",
    "name": "Râca",
    "state_id": "42be9c85-7bfb-40a7-9d36-c9ad42e5df75"
  },
  {
    "id": "c0ff393e-c1a3-4725-be49-5157fbeebef5",
    "name": "Racovița",
    "state_id": "42be9c85-7bfb-40a7-9d36-c9ad42e5df75"
  },
  {
    "id": "2dd1c270-7069-4c5b-98e6-81bdbb5d500a",
    "name": "Rădești",
    "state_id": "42be9c85-7bfb-40a7-9d36-c9ad42e5df75"
  },
  {
    "id": "bb4931ff-a20d-4b57-ac16-7b2b939ad4ac",
    "name": "Răteşti",
    "state_id": "42be9c85-7bfb-40a7-9d36-c9ad42e5df75"
  },
  {
    "id": "18485149-ff49-4a6e-8b6a-313ff700171b",
    "name": "Recea",
    "state_id": "42be9c85-7bfb-40a7-9d36-c9ad42e5df75"
  },
  {
    "id": "4c7ed0bc-4f20-42d3-a777-49bf116468ca",
    "name": "Retevoiești",
    "state_id": "42be9c85-7bfb-40a7-9d36-c9ad42e5df75"
  },
  {
    "id": "55b80337-d29b-4742-9e8a-21f4ffe8f5a0",
    "name": "Rociu",
    "state_id": "42be9c85-7bfb-40a7-9d36-c9ad42e5df75"
  },
  {
    "id": "7e335413-a639-462c-8f7d-08464e10adaf",
    "name": "Rucăr",
    "state_id": "42be9c85-7bfb-40a7-9d36-c9ad42e5df75"
  },
  {
    "id": "afbae1d5-c15a-47cf-9cab-21921eb7431d",
    "name": "Sălătrucu",
    "state_id": "42be9c85-7bfb-40a7-9d36-c9ad42e5df75"
  },
  {
    "id": "c217ff4f-7cf2-43b6-b4c1-19bb0f95d4ad",
    "name": "Schitu-Goleşti",
    "state_id": "42be9c85-7bfb-40a7-9d36-c9ad42e5df75"
  },
  {
    "id": "843672bc-53b3-4fc1-8696-0531103bc533",
    "name": "Șerbănești",
    "state_id": "42be9c85-7bfb-40a7-9d36-c9ad42e5df75"
  },
  {
    "id": "9c2953d7-966a-465d-87a8-1ab599b7effb",
    "name": "Șerboeni",
    "state_id": "42be9c85-7bfb-40a7-9d36-c9ad42e5df75"
  },
  {
    "id": "27bbe04d-a75c-4e00-b422-940bd73f7e27",
    "name": "Slănic",
    "state_id": "42be9c85-7bfb-40a7-9d36-c9ad42e5df75"
  },
  {
    "id": "62b3b8a6-a815-441a-931b-5b80c15ebdf0",
    "name": "Slobozia",
    "state_id": "42be9c85-7bfb-40a7-9d36-c9ad42e5df75"
  },
  {
    "id": "35428a4f-052d-43f5-880c-20a948204602",
    "name": "Stâlpeni",
    "state_id": "42be9c85-7bfb-40a7-9d36-c9ad42e5df75"
  },
  {
    "id": "d084615b-c650-41da-9bf3-c72fde3a5911",
    "name": "Ştefan cel Mare",
    "state_id": "42be9c85-7bfb-40a7-9d36-c9ad42e5df75"
  },
  {
    "id": "83f2bdf3-efc8-4fb0-8605-0dfe4c7aaad5",
    "name": "Ştefăneşti",
    "state_id": "42be9c85-7bfb-40a7-9d36-c9ad42e5df75"
  },
  {
    "id": "2dc750a2-df11-43e5-8fb3-4f518e99276f",
    "name": "Stoeneşti",
    "state_id": "42be9c85-7bfb-40a7-9d36-c9ad42e5df75"
  },
  {
    "id": "c22522bc-df39-4bbf-b810-20a2795335e6",
    "name": "Stolnici",
    "state_id": "42be9c85-7bfb-40a7-9d36-c9ad42e5df75"
  },
  {
    "id": "754fcaee-1f21-4d53-8df6-83b9240ad086",
    "name": "Strâmbeni",
    "state_id": "42be9c85-7bfb-40a7-9d36-c9ad42e5df75"
  },
  {
    "id": "a248142b-e901-4a7d-b5f6-df153815cedc",
    "name": "Stroești",
    "state_id": "42be9c85-7bfb-40a7-9d36-c9ad42e5df75"
  },
  {
    "id": "69c75de1-24a1-4a61-a81a-2bb0a1708938",
    "name": "Şuici",
    "state_id": "42be9c85-7bfb-40a7-9d36-c9ad42e5df75"
  },
  {
    "id": "4236d059-b275-43ac-8662-8ec43e270a4d",
    "name": "Surdulești",
    "state_id": "42be9c85-7bfb-40a7-9d36-c9ad42e5df75"
  },
  {
    "id": "79493e24-b644-4c05-b037-c43b8593d626",
    "name": "Suseni",
    "state_id": "42be9c85-7bfb-40a7-9d36-c9ad42e5df75"
  },
  {
    "id": "7297bb6b-d75f-4190-aadd-79652a21aee4",
    "name": "Teiu",
    "state_id": "42be9c85-7bfb-40a7-9d36-c9ad42e5df75"
  },
  {
    "id": "6ffa04ed-18ce-497b-91fe-da3ed72ae76b",
    "name": "Tigveni",
    "state_id": "42be9c85-7bfb-40a7-9d36-c9ad42e5df75"
  },
  {
    "id": "411b8dbd-a6f0-4715-810d-b15a0c05e06a",
    "name": "Titeşti",
    "state_id": "42be9c85-7bfb-40a7-9d36-c9ad42e5df75"
  },
  {
    "id": "329ccbfb-54bb-4709-a857-d13328b1f9f3",
    "name": "Toplița",
    "state_id": "42be9c85-7bfb-40a7-9d36-c9ad42e5df75"
  },
  {
    "id": "da6fe822-a3e0-4625-a2dc-07ce8bf21b2e",
    "name": "Topoloveni",
    "state_id": "42be9c85-7bfb-40a7-9d36-c9ad42e5df75"
  },
  {
    "id": "891aabff-3123-4c02-97a0-9f13a6228f17",
    "name": "Tutana",
    "state_id": "42be9c85-7bfb-40a7-9d36-c9ad42e5df75"
  },
  {
    "id": "8ac93e65-d33d-4bfd-8643-1a1280283dee",
    "name": "Uda",
    "state_id": "42be9c85-7bfb-40a7-9d36-c9ad42e5df75"
  },
  {
    "id": "6f697f45-d469-4455-9ae6-98903463ed27",
    "name": "Ungheni",
    "state_id": "42be9c85-7bfb-40a7-9d36-c9ad42e5df75"
  },
  {
    "id": "4c858eee-0868-4689-a17f-01ea9e7abdf4",
    "name": "Valea Caselor",
    "state_id": "42be9c85-7bfb-40a7-9d36-c9ad42e5df75"
  },
  {
    "id": "cb37b371-3554-4e98-b82f-27e6c3308f40",
    "name": "Valea Danului",
    "state_id": "42be9c85-7bfb-40a7-9d36-c9ad42e5df75"
  },
  {
    "id": "faef962b-3ffa-47b9-a755-a905622603be",
    "name": "Valea Iaşului",
    "state_id": "42be9c85-7bfb-40a7-9d36-c9ad42e5df75"
  },
  {
    "id": "7530e35f-c901-4d40-8378-9a7b2ca6c6f3",
    "name": "Valea Mare Pravăț",
    "state_id": "42be9c85-7bfb-40a7-9d36-c9ad42e5df75"
  },
  {
    "id": "9b5a3664-53a7-49af-b69d-21871f9a1212",
    "name": "Valea Mare-Podgoria",
    "state_id": "42be9c85-7bfb-40a7-9d36-c9ad42e5df75"
  },
  {
    "id": "74e2e2bd-1540-4eeb-ae00-9d69c0b1fb33",
    "name": "Valea Popii",
    "state_id": "42be9c85-7bfb-40a7-9d36-c9ad42e5df75"
  },
  {
    "id": "1e491fec-a207-4133-935a-123c780d9ef3",
    "name": "Văleni-Podgoria",
    "state_id": "42be9c85-7bfb-40a7-9d36-c9ad42e5df75"
  },
  {
    "id": "ac42094b-4e4a-463c-98fa-8949ef3c7043",
    "name": "Vedea",
    "state_id": "42be9c85-7bfb-40a7-9d36-c9ad42e5df75"
  },
  {
    "id": "9f9e638d-bdce-4193-876c-3271035b3b80",
    "name": "Vlădești",
    "state_id": "42be9c85-7bfb-40a7-9d36-c9ad42e5df75"
  },
  {
    "id": "5d9042d3-bac6-4d0d-84cc-58c7115633f8",
    "name": "Voinești",
    "state_id": "42be9c85-7bfb-40a7-9d36-c9ad42e5df75"
  },
  {
    "id": "9f8e927e-92f1-45ba-a528-32ee73389a81",
    "name": "Vrănești",
    "state_id": "42be9c85-7bfb-40a7-9d36-c9ad42e5df75"
  },
  {
    "id": "7ed2682d-beb4-400b-ada2-0aa5013d135a",
    "name": "Vulturești",
    "state_id": "42be9c85-7bfb-40a7-9d36-c9ad42e5df75"
  }
]