[
  {
    "id": "b7f28b08-c1e0-433d-8daa-c6e0994dd6d1",
    "name": "Abuja",
    "state_id": "42d11f67-1538-4d9d-883e-2c4376070995"
  },
  {
    "id": "933ec511-aff9-4c0c-b073-08c93e40861a",
    "name": "Kuje",
    "state_id": "42d11f67-1538-4d9d-883e-2c4376070995"
  },
  {
    "id": "78f1f2b7-6b91-4e8b-b408-e54a1b9cea61",
    "name": "Kwali",
    "state_id": "42d11f67-1538-4d9d-883e-2c4376070995"
  },
  {
    "id": "51bf1574-8453-4be5-914f-061ead8f1f37",
    "name": "Madala",
    "state_id": "42d11f67-1538-4d9d-883e-2c4376070995"
  }
]