[
  {
    "id": "711cb2bd-4cea-4d72-91c9-ce901bdea172",
    "name": "Anadyr",
    "state_id": "43314f25-8379-453c-9cd7-58f954c1c49f"
  },
  {
    "id": "25c31529-9cc5-45b8-9419-835349798d53",
    "name": "Anadyrskiy Rayon",
    "state_id": "43314f25-8379-453c-9cd7-58f954c1c49f"
  },
  {
    "id": "c427c7ca-c7ea-4510-b9c9-7f8fea95b694",
    "name": "Beringovskiy",
    "state_id": "43314f25-8379-453c-9cd7-58f954c1c49f"
  },
  {
    "id": "0ce4c8ff-d11e-4e4b-94a3-4251f9ca91af",
    "name": "Bilibino",
    "state_id": "43314f25-8379-453c-9cd7-58f954c1c49f"
  },
  {
    "id": "0b2a4901-ba3d-4b4b-9958-8c888d718452",
    "name": "Egvekinot",
    "state_id": "43314f25-8379-453c-9cd7-58f954c1c49f"
  },
  {
    "id": "0da1b9e4-6dec-434b-be5c-a96fa369069f",
    "name": "Lavrentiya",
    "state_id": "43314f25-8379-453c-9cd7-58f954c1c49f"
  },
  {
    "id": "19c7003c-cac6-4aa5-8b00-1b96b5e20d28",
    "name": "Lorino",
    "state_id": "43314f25-8379-453c-9cd7-58f954c1c49f"
  },
  {
    "id": "81ef070d-75e9-4180-bfbd-66c83e1a8646",
    "name": "Pevek",
    "state_id": "43314f25-8379-453c-9cd7-58f954c1c49f"
  },
  {
    "id": "2dff5ce8-6eb4-40e7-a491-9de5c0eacba7",
    "name": "Provideniya",
    "state_id": "43314f25-8379-453c-9cd7-58f954c1c49f"
  },
  {
    "id": "e5e70be6-beac-4b51-a072-6af7be6a8b95",
    "name": "Providenskiy Rayon",
    "state_id": "43314f25-8379-453c-9cd7-58f954c1c49f"
  }
]