[
  {
    "id": "080144d1-d221-4764-a75b-ccb770f67e81",
    "name": "Huyện Mưòng Tè",
    "state_id": "43471bff-8db1-4796-ba67-9d893b77e19d"
  },
  {
    "id": "6369be09-5b2c-4a21-aa64-3d019d46e0b8",
    "name": "Huyện Tam Đường",
    "state_id": "43471bff-8db1-4796-ba67-9d893b77e19d"
  },
  {
    "id": "81e9262a-086a-4a3f-9f08-46062da06699",
    "name": "Huyện Than Uyên",
    "state_id": "43471bff-8db1-4796-ba67-9d893b77e19d"
  }
]