[
  {
    "id": "abb3a837-1387-4cff-ba8a-879eb89597d0",
    "name": "Gamba",
    "state_id": "437747be-e042-46c4-858b-661210f2bd30"
  },
  {
    "id": "48c2b4eb-3ca6-4451-933e-6c2c4f6f3755",
    "name": "Omboué",
    "state_id": "437747be-e042-46c4-858b-661210f2bd30"
  },
  {
    "id": "b48d85c0-2a64-4903-aea7-f55e469c21a6",
    "name": "Port-Gentil",
    "state_id": "437747be-e042-46c4-858b-661210f2bd30"
  }
]