[
  {
    "id": "3052fc1f-f074-4a39-bb6c-7e61c2cc2f29",
    "name": "Atar",
    "state_id": "43d63398-06cd-4ca2-8cd7-f1b4596feba8"
  },
  {
    "id": "2e46f260-84b8-4d4a-9b2a-51afd5e8e766",
    "name": "Chingueṭṭi",
    "state_id": "43d63398-06cd-4ca2-8cd7-f1b4596feba8"
  }
]