[
  {
    "id": "44999274-2ef1-4cdc-9aed-2b8e9af10c77",
    "name": "Amphoe Ban Hong",
    "state_id": "44bec6f9-847f-421c-a708-e53ed259c05a"
  },
  {
    "id": "43d3dcd7-2aa0-4630-aff2-ff2966ed8ee8",
    "name": "Amphoe Ban Thi",
    "state_id": "44bec6f9-847f-421c-a708-e53ed259c05a"
  },
  {
    "id": "f2ef7171-36ff-4d6a-b013-5f8de6bd9733",
    "name": "Amphoe Li",
    "state_id": "44bec6f9-847f-421c-a708-e53ed259c05a"
  },
  {
    "id": "db3eca6c-65fb-4cac-8e01-2044392d06b4",
    "name": "Amphoe Mae Tha",
    "state_id": "44bec6f9-847f-421c-a708-e53ed259c05a"
  },
  {
    "id": "f2f57d2d-34e1-480a-b343-ca417d094e25",
    "name": "Amphoe Mueang Lamphun",
    "state_id": "44bec6f9-847f-421c-a708-e53ed259c05a"
  },
  {
    "id": "76e69e39-404b-4570-b690-2184232f3cf4",
    "name": "Amphoe Pa Sang",
    "state_id": "44bec6f9-847f-421c-a708-e53ed259c05a"
  },
  {
    "id": "c5b60f19-ee61-41f2-8758-452b507f6a53",
    "name": "Amphoe Thung Hua Chang",
    "state_id": "44bec6f9-847f-421c-a708-e53ed259c05a"
  },
  {
    "id": "72d43cd4-263d-43cd-a6ec-65f61626cd01",
    "name": "Amphoe Wiang Nong Long",
    "state_id": "44bec6f9-847f-421c-a708-e53ed259c05a"
  },
  {
    "id": "32dedd4e-0693-40a5-ac3b-bd826b82201c",
    "name": "Lamphun",
    "state_id": "44bec6f9-847f-421c-a708-e53ed259c05a"
  },
  {
    "id": "818ca235-ec43-4662-87c1-9987bcaa68b7",
    "name": "Mae Tha",
    "state_id": "44bec6f9-847f-421c-a708-e53ed259c05a"
  },
  {
    "id": "359465dd-546d-4d8b-a455-e975828292d3",
    "name": "Pa Sang",
    "state_id": "44bec6f9-847f-421c-a708-e53ed259c05a"
  }
]