[
  {
    "id": "052ec1c0-9316-4805-a676-d143ee755087",
    "name": "Bankim",
    "state_id": "4506c245-5865-4469-bb65-1b98d96fb264"
  },
  {
    "id": "8cf4a92d-d3ce-412f-93c0-74da45eb0ebd",
    "name": "Banyo",
    "state_id": "4506c245-5865-4469-bb65-1b98d96fb264"
  },
  {
    "id": "736afb60-3c81-463d-a2d7-219deb5b0428",
    "name": "Bélel",
    "state_id": "4506c245-5865-4469-bb65-1b98d96fb264"
  },
  {
    "id": "9b9128c4-19ba-4e94-a7a8-07116f3a0aa5",
    "name": "Djohong",
    "state_id": "4506c245-5865-4469-bb65-1b98d96fb264"
  },
  {
    "id": "9b507065-9003-4772-bf78-ce32561e923c",
    "name": "Kontcha",
    "state_id": "4506c245-5865-4469-bb65-1b98d96fb264"
  },
  {
    "id": "d86f3533-7cb1-4527-9193-d41837196f07",
    "name": "Mayo-Banyo",
    "state_id": "4506c245-5865-4469-bb65-1b98d96fb264"
  },
  {
    "id": "61e4cbb4-accd-460a-bc73-41dbf26d4220",
    "name": "Meïganga",
    "state_id": "4506c245-5865-4469-bb65-1b98d96fb264"
  },
  {
    "id": "bbf2b80a-f22a-4d6d-9014-d214e6b40bcd",
    "name": "Ngaoundéré",
    "state_id": "4506c245-5865-4469-bb65-1b98d96fb264"
  },
  {
    "id": "75dbca75-67f6-4a32-97d1-22bdb88d8df1",
    "name": "Somié",
    "state_id": "4506c245-5865-4469-bb65-1b98d96fb264"
  },
  {
    "id": "198761a8-80b0-4040-9038-1ffe299c42be",
    "name": "Tibati",
    "state_id": "4506c245-5865-4469-bb65-1b98d96fb264"
  },
  {
    "id": "08b9c5be-356b-4b31-812d-f25ce7f5e93d",
    "name": "Tignère",
    "state_id": "4506c245-5865-4469-bb65-1b98d96fb264"
  },
  {
    "id": "164920ac-772f-4dd0-bf03-ba9a3bd46956",
    "name": "Vina",
    "state_id": "4506c245-5865-4469-bb65-1b98d96fb264"
  }
]