[
  {
    "id": "dbd7b843-e58f-4bb8-9f03-1981db593845",
    "name": "Camp Diable",
    "state_id": "457b82bc-b65c-4c0c-9523-a134ad2ee588"
  },
  {
    "id": "e39e9908-7382-4c62-88ce-7d6f51c244af",
    "name": "Chamouny",
    "state_id": "457b82bc-b65c-4c0c-9523-a134ad2ee588"
  },
  {
    "id": "355f6030-7507-4b78-a937-39091b5a91a9",
    "name": "Chemin Grenier",
    "state_id": "457b82bc-b65c-4c0c-9523-a134ad2ee588"
  },
  {
    "id": "334a23cd-afe6-470c-b9bf-f9123bb42c30",
    "name": "Grand Bois",
    "state_id": "457b82bc-b65c-4c0c-9523-a134ad2ee588"
  },
  {
    "id": "e078ac4e-fb57-44ff-bb2a-b5c470b6d41e",
    "name": "Rivière des Anguilles",
    "state_id": "457b82bc-b65c-4c0c-9523-a134ad2ee588"
  },
  {
    "id": "096bff1a-14c5-43a9-a52a-744793137209",
    "name": "Saint Aubin",
    "state_id": "457b82bc-b65c-4c0c-9523-a134ad2ee588"
  },
  {
    "id": "05382aa5-f817-481f-9910-a7facdb12230",
    "name": "Souillac",
    "state_id": "457b82bc-b65c-4c0c-9523-a134ad2ee588"
  },
  {
    "id": "a947c276-8330-4e01-b1af-c9b4e062cc56",
    "name": "Surinam",
    "state_id": "457b82bc-b65c-4c0c-9523-a134ad2ee588"
  }
]