[
  {
    "id": "711ed024-c32b-4966-8013-f0e9f6ae88c4",
    "name": "Bishnupur",
    "state_id": "45f53aa4-c1a5-4caa-8e3e-b0c0c0a382c7"
  },
  {
    "id": "9ed7fad7-dbe8-4246-9292-fb5edf6dedac",
    "name": "Churachandpur",
    "state_id": "45f53aa4-c1a5-4caa-8e3e-b0c0c0a382c7"
  },
  {
    "id": "ba9b0f3a-190c-4adc-bfca-52095cd44a31",
    "name": "Imphal",
    "state_id": "45f53aa4-c1a5-4caa-8e3e-b0c0c0a382c7"
  },
  {
    "id": "a7040fb0-7323-4b25-b9db-6cf5175b15e4",
    "name": "Kakching",
    "state_id": "45f53aa4-c1a5-4caa-8e3e-b0c0c0a382c7"
  },
  {
    "id": "0a59622a-5e59-491d-b3dc-aa2104dc204f",
    "name": "Mayang Imphal",
    "state_id": "45f53aa4-c1a5-4caa-8e3e-b0c0c0a382c7"
  },
  {
    "id": "3aed5915-5d05-4f28-9dec-cf5ddae11105",
    "name": "Moirang",
    "state_id": "45f53aa4-c1a5-4caa-8e3e-b0c0c0a382c7"
  },
  {
    "id": "0f6f0829-c317-4907-b863-c82e6b75de7c",
    "name": "Phek",
    "state_id": "45f53aa4-c1a5-4caa-8e3e-b0c0c0a382c7"
  },
  {
    "id": "2439c959-db39-4859-931e-d87fb02aa8e0",
    "name": "Senapati",
    "state_id": "45f53aa4-c1a5-4caa-8e3e-b0c0c0a382c7"
  },
  {
    "id": "d2ea9dda-4b53-4273-87ad-914e965f56eb",
    "name": "Tamenglong",
    "state_id": "45f53aa4-c1a5-4caa-8e3e-b0c0c0a382c7"
  },
  {
    "id": "c54e96e7-734b-4a1c-9f6d-01b88093874a",
    "name": "Thoubal",
    "state_id": "45f53aa4-c1a5-4caa-8e3e-b0c0c0a382c7"
  },
  {
    "id": "8bac3d48-08c5-46ba-b41c-42b849c05f19",
    "name": "Ukhrul",
    "state_id": "45f53aa4-c1a5-4caa-8e3e-b0c0c0a382c7"
  },
  {
    "id": "58f3f21b-cb02-45d0-ab2c-3a786e4b42c8",
    "name": "Wangjing",
    "state_id": "45f53aa4-c1a5-4caa-8e3e-b0c0c0a382c7"
  },
  {
    "id": "f0b0b33c-dcc8-4e3e-bda2-314b6cf2fc08",
    "name": "Yairipok",
    "state_id": "45f53aa4-c1a5-4caa-8e3e-b0c0c0a382c7"
  }
]