[
  {
    "id": "be1174b4-12ac-4ecc-8f36-2e5782ccaa44",
    "name": "Kerbakhiar",
    "state_id": "463e5ad9-282c-47b7-857c-4c161e6402de"
  },
  {
    "id": "d28c71fe-646f-422a-98a5-2e59f722e661",
    "name": "Vank",
    "state_id": "463e5ad9-282c-47b7-857c-4c161e6402de"
  }
]