[
  {
    "id": "496e51e9-cfdb-43c7-a9e5-9c524d690752",
    "name": "Adur",
    "state_id": "4647ae4b-1e1a-4df8-b0d5-dd8f2d3df2d6"
  },
  {
    "id": "4519f0c7-7079-4533-aa00-52036e065c1c",
    "name": "Alappuzha",
    "state_id": "4647ae4b-1e1a-4df8-b0d5-dd8f2d3df2d6"
  },
  {
    "id": "7622e3f2-49d9-4484-843d-62fe55c0dc3d",
    "name": "Aluva",
    "state_id": "4647ae4b-1e1a-4df8-b0d5-dd8f2d3df2d6"
  },
  {
    "id": "9e165c81-1e61-4e15-a8f1-c1cd410d632d",
    "name": "Alwaye",
    "state_id": "4647ae4b-1e1a-4df8-b0d5-dd8f2d3df2d6"
  },
  {
    "id": "39c4e8aa-c243-4855-a12e-b3eb4c9206c1",
    "name": "Angamali",
    "state_id": "4647ae4b-1e1a-4df8-b0d5-dd8f2d3df2d6"
  },
  {
    "id": "04a02e6a-c445-4fb9-b8d7-d3a86460db50",
    "name": "Aroor",
    "state_id": "4647ae4b-1e1a-4df8-b0d5-dd8f2d3df2d6"
  },
  {
    "id": "885e8609-703e-4014-9135-b2d723881e16",
    "name": "Arukutti",
    "state_id": "4647ae4b-1e1a-4df8-b0d5-dd8f2d3df2d6"
  },
  {
    "id": "1d37fe2d-549b-4477-8464-1de7cfb405ee",
    "name": "Attingal",
    "state_id": "4647ae4b-1e1a-4df8-b0d5-dd8f2d3df2d6"
  },
  {
    "id": "5b9124f4-00c1-4628-a683-96628ce692f4",
    "name": "Avanoor",
    "state_id": "4647ae4b-1e1a-4df8-b0d5-dd8f2d3df2d6"
  },
  {
    "id": "b8d4c7de-6bec-4c47-ac76-a77554c95006",
    "name": "Azhikkal",
    "state_id": "4647ae4b-1e1a-4df8-b0d5-dd8f2d3df2d6"
  },
  {
    "id": "f886582c-e205-4613-859b-a368697f8c43",
    "name": "Badagara",
    "state_id": "4647ae4b-1e1a-4df8-b0d5-dd8f2d3df2d6"
  },
  {
    "id": "c7ec08ed-7b39-40e2-8560-9dbe20e095ec",
    "name": "Beypore",
    "state_id": "4647ae4b-1e1a-4df8-b0d5-dd8f2d3df2d6"
  },
  {
    "id": "28516eb3-c920-41fb-8d43-f04bfab8729c",
    "name": "Changanacheri",
    "state_id": "4647ae4b-1e1a-4df8-b0d5-dd8f2d3df2d6"
  },
  {
    "id": "7e4fa162-33de-4c70-99d8-5a7b1695169d",
    "name": "Chēlakara",
    "state_id": "4647ae4b-1e1a-4df8-b0d5-dd8f2d3df2d6"
  },
  {
    "id": "7f090e51-c0ac-419a-b4af-8320d5fd865e",
    "name": "Chengannur",
    "state_id": "4647ae4b-1e1a-4df8-b0d5-dd8f2d3df2d6"
  },
  {
    "id": "e8b84028-83b6-4701-95a2-09678dbad4e5",
    "name": "Cherpulassery",
    "state_id": "4647ae4b-1e1a-4df8-b0d5-dd8f2d3df2d6"
  },
  {
    "id": "b2367b65-9f20-4b97-9d8d-c03620f80266",
    "name": "Cherthala",
    "state_id": "4647ae4b-1e1a-4df8-b0d5-dd8f2d3df2d6"
  },
  {
    "id": "b68b4f5b-11a9-448d-8795-2de64cd1978c",
    "name": "Chetwayi",
    "state_id": "4647ae4b-1e1a-4df8-b0d5-dd8f2d3df2d6"
  },
  {
    "id": "a8b0bfda-d668-4668-bcc8-16293772d102",
    "name": "Chittur",
    "state_id": "4647ae4b-1e1a-4df8-b0d5-dd8f2d3df2d6"
  },
  {
    "id": "646b384f-88d0-4ac5-91ea-8ddfcc241169",
    "name": "Cochin",
    "state_id": "4647ae4b-1e1a-4df8-b0d5-dd8f2d3df2d6"
  },
  {
    "id": "0575c10b-46bb-4ee4-a319-13babd5cebcd",
    "name": "Dharmadam",
    "state_id": "4647ae4b-1e1a-4df8-b0d5-dd8f2d3df2d6"
  },
  {
    "id": "7ed97825-4bd0-4995-8e78-0ec55614ae27",
    "name": "Edakkulam",
    "state_id": "4647ae4b-1e1a-4df8-b0d5-dd8f2d3df2d6"
  },
  {
    "id": "beaf577c-c276-47c2-8597-7d998673278e",
    "name": "Elur",
    "state_id": "4647ae4b-1e1a-4df8-b0d5-dd8f2d3df2d6"
  },
  {
    "id": "d0b435c2-369c-440d-aafa-b0baaf9e7450",
    "name": "Erattupetta",
    "state_id": "4647ae4b-1e1a-4df8-b0d5-dd8f2d3df2d6"
  },
  {
    "id": "303be898-2dd7-4a76-a798-10a7605e2908",
    "name": "Ernakulam",
    "state_id": "4647ae4b-1e1a-4df8-b0d5-dd8f2d3df2d6"
  },
  {
    "id": "ef52de0c-a767-4003-8d1f-6bff8d83f061",
    "name": "Ferokh",
    "state_id": "4647ae4b-1e1a-4df8-b0d5-dd8f2d3df2d6"
  },
  {
    "id": "400945d4-7cf7-4e13-b4c7-bf5705896acd",
    "name": "Guruvayur",
    "state_id": "4647ae4b-1e1a-4df8-b0d5-dd8f2d3df2d6"
  },
  {
    "id": "b23d6745-cac1-4cc6-b9ca-f352b19fe61f",
    "name": "Idukki",
    "state_id": "4647ae4b-1e1a-4df8-b0d5-dd8f2d3df2d6"
  },
  {
    "id": "1418734e-f7be-4943-ac7c-b8d0cfd3dfba",
    "name": "Iringal",
    "state_id": "4647ae4b-1e1a-4df8-b0d5-dd8f2d3df2d6"
  },
  {
    "id": "91f791e2-623d-4569-b885-81d33f10ffdd",
    "name": "Irinjalakuda",
    "state_id": "4647ae4b-1e1a-4df8-b0d5-dd8f2d3df2d6"
  },
  {
    "id": "df35b809-7730-4f6e-b151-c03f02db95b0",
    "name": "Kadakkavoor",
    "state_id": "4647ae4b-1e1a-4df8-b0d5-dd8f2d3df2d6"
  },
  {
    "id": "61e5adde-a67f-4f22-bc8a-7286e2ab34a1",
    "name": "Kalamassery",
    "state_id": "4647ae4b-1e1a-4df8-b0d5-dd8f2d3df2d6"
  },
  {
    "id": "252a6631-7cd9-438a-bbc0-8ba11006bef9",
    "name": "Kalavoor",
    "state_id": "4647ae4b-1e1a-4df8-b0d5-dd8f2d3df2d6"
  },
  {
    "id": "b75677a9-fd68-4156-8051-13f13b1eb7db",
    "name": "Kalpatta",
    "state_id": "4647ae4b-1e1a-4df8-b0d5-dd8f2d3df2d6"
  },
  {
    "id": "ffe0d846-7651-46fd-a04c-216d7be3c4d4",
    "name": "Kannangad",
    "state_id": "4647ae4b-1e1a-4df8-b0d5-dd8f2d3df2d6"
  },
  {
    "id": "414ce54f-44aa-4f68-819a-246ee3445355",
    "name": "Kannavam",
    "state_id": "4647ae4b-1e1a-4df8-b0d5-dd8f2d3df2d6"
  },
  {
    "id": "b811a0b0-d95d-427c-80f1-98558e8c4afa",
    "name": "Kannur",
    "state_id": "4647ae4b-1e1a-4df8-b0d5-dd8f2d3df2d6"
  },
  {
    "id": "5a29ce57-3983-4165-8108-a48276721068",
    "name": "Kasaragod",
    "state_id": "4647ae4b-1e1a-4df8-b0d5-dd8f2d3df2d6"
  },
  {
    "id": "5be1ad45-ab15-4015-b37d-728df65e84dc",
    "name": "Kasaragod District",
    "state_id": "4647ae4b-1e1a-4df8-b0d5-dd8f2d3df2d6"
  },
  {
    "id": "3f9b2227-10c8-41e4-b97b-3edc50e17ff8",
    "name": "Kattanam",
    "state_id": "4647ae4b-1e1a-4df8-b0d5-dd8f2d3df2d6"
  },
  {
    "id": "265bb39c-9d7a-4ee4-b086-12190ec581a3",
    "name": "Kayankulam",
    "state_id": "4647ae4b-1e1a-4df8-b0d5-dd8f2d3df2d6"
  },
  {
    "id": "dc6ac92f-ddb1-4f14-b1c3-166ed2b3a67f",
    "name": "Kizhake Chalakudi",
    "state_id": "4647ae4b-1e1a-4df8-b0d5-dd8f2d3df2d6"
  },
  {
    "id": "6cbf1837-4baa-4328-b44f-b82ec1d3d783",
    "name": "Kodungallur",
    "state_id": "4647ae4b-1e1a-4df8-b0d5-dd8f2d3df2d6"
  },
  {
    "id": "fc97d369-fb5b-4f23-8dfa-fed98a7682ef",
    "name": "Kollam",
    "state_id": "4647ae4b-1e1a-4df8-b0d5-dd8f2d3df2d6"
  },
  {
    "id": "c1fdc3a6-0cb1-4b8d-8e4e-d1ea10b0d44f",
    "name": "Kotamangalam",
    "state_id": "4647ae4b-1e1a-4df8-b0d5-dd8f2d3df2d6"
  },
  {
    "id": "78cd68d7-2934-451d-b24d-fad91c5de207",
    "name": "Kottayam",
    "state_id": "4647ae4b-1e1a-4df8-b0d5-dd8f2d3df2d6"
  },
  {
    "id": "e4ca2469-3eca-4f53-ac8b-88e5d53c522b",
    "name": "Kovalam",
    "state_id": "4647ae4b-1e1a-4df8-b0d5-dd8f2d3df2d6"
  },
  {
    "id": "cac120c3-2b62-4267-8105-aa5bff5e4f4f",
    "name": "Kozhikode",
    "state_id": "4647ae4b-1e1a-4df8-b0d5-dd8f2d3df2d6"
  },
  {
    "id": "976b4157-048f-4031-aa37-5bfe6a89d54d",
    "name": "Kumbalam",
    "state_id": "4647ae4b-1e1a-4df8-b0d5-dd8f2d3df2d6"
  },
  {
    "id": "012989ae-ca6c-401d-8637-e6a73767a1c8",
    "name": "Kunnamangalam",
    "state_id": "4647ae4b-1e1a-4df8-b0d5-dd8f2d3df2d6"
  },
  {
    "id": "925493b7-fa09-4fdc-ac62-8cb4f9527b05",
    "name": "Kunnamkulam",
    "state_id": "4647ae4b-1e1a-4df8-b0d5-dd8f2d3df2d6"
  },
  {
    "id": "51fa8936-9126-4be4-a8b9-13970a3c6140",
    "name": "Kunnumma",
    "state_id": "4647ae4b-1e1a-4df8-b0d5-dd8f2d3df2d6"
  },
  {
    "id": "1c11631a-aba8-4ed9-aedd-4af29d787212",
    "name": "Kutiatodu",
    "state_id": "4647ae4b-1e1a-4df8-b0d5-dd8f2d3df2d6"
  },
  {
    "id": "ca0026cf-d449-44b4-893d-18eec3ebafeb",
    "name": "Kuttampuzha",
    "state_id": "4647ae4b-1e1a-4df8-b0d5-dd8f2d3df2d6"
  },
  {
    "id": "80a75083-b343-4a88-8e8f-c2c3a4c2b84d",
    "name": "Lalam",
    "state_id": "4647ae4b-1e1a-4df8-b0d5-dd8f2d3df2d6"
  },
  {
    "id": "1f733536-fc1a-436c-a0fc-e62a454f85b3",
    "name": "Mahē",
    "state_id": "4647ae4b-1e1a-4df8-b0d5-dd8f2d3df2d6"
  },
  {
    "id": "0bb51d1c-344c-4de7-a503-1fede39f0c94",
    "name": "Malappuram",
    "state_id": "4647ae4b-1e1a-4df8-b0d5-dd8f2d3df2d6"
  },
  {
    "id": "a160f878-3715-49a1-922f-62aac31aa7ea",
    "name": "Manjeri",
    "state_id": "4647ae4b-1e1a-4df8-b0d5-dd8f2d3df2d6"
  },
  {
    "id": "54f9ee30-d3f6-4a99-a06f-68b02a75a33c",
    "name": "Manjēshvar",
    "state_id": "4647ae4b-1e1a-4df8-b0d5-dd8f2d3df2d6"
  },
  {
    "id": "f4a9b0e2-8b33-4aaf-9257-343fc066eb3b",
    "name": "Mannarakkat",
    "state_id": "4647ae4b-1e1a-4df8-b0d5-dd8f2d3df2d6"
  },
  {
    "id": "ae2c04e3-d835-4d60-b9f7-e305fc607cce",
    "name": "Marayur",
    "state_id": "4647ae4b-1e1a-4df8-b0d5-dd8f2d3df2d6"
  },
  {
    "id": "c84f0a96-b1ce-4478-9f3c-9d45be7aaf4f",
    "name": "Mattanur",
    "state_id": "4647ae4b-1e1a-4df8-b0d5-dd8f2d3df2d6"
  },
  {
    "id": "dd21a127-27e8-4550-9c83-48622c0fdb77",
    "name": "Mavelikara",
    "state_id": "4647ae4b-1e1a-4df8-b0d5-dd8f2d3df2d6"
  },
  {
    "id": "69aa95f6-8461-43e7-a41b-e4c9052b5090",
    "name": "Mavoor",
    "state_id": "4647ae4b-1e1a-4df8-b0d5-dd8f2d3df2d6"
  },
  {
    "id": "316ed7c5-149e-4f9e-aaa4-59cfe415df77",
    "name": "Muluppilagadu",
    "state_id": "4647ae4b-1e1a-4df8-b0d5-dd8f2d3df2d6"
  },
  {
    "id": "a01eaa07-9011-4e0d-a3e2-deec6b7f2b5a",
    "name": "Munnar",
    "state_id": "4647ae4b-1e1a-4df8-b0d5-dd8f2d3df2d6"
  },
  {
    "id": "961e9424-3a37-412e-aff8-169185e03443",
    "name": "Muvattupula",
    "state_id": "4647ae4b-1e1a-4df8-b0d5-dd8f2d3df2d6"
  },
  {
    "id": "7b13ef71-7c9b-4cb5-b267-79c470e4f333",
    "name": "Muvattupuzha",
    "state_id": "4647ae4b-1e1a-4df8-b0d5-dd8f2d3df2d6"
  },
  {
    "id": "d2d208eb-88e8-49ec-b692-3ff4f6bc829d",
    "name": "Nadapuram",
    "state_id": "4647ae4b-1e1a-4df8-b0d5-dd8f2d3df2d6"
  },
  {
    "id": "4b3fb8ba-df2a-4845-acef-758afd63157a",
    "name": "Naduvannur",
    "state_id": "4647ae4b-1e1a-4df8-b0d5-dd8f2d3df2d6"
  },
  {
    "id": "3b14d6eb-3ef2-4a0a-989a-c8288b16344d",
    "name": "Nedumangad",
    "state_id": "4647ae4b-1e1a-4df8-b0d5-dd8f2d3df2d6"
  },
  {
    "id": "cfeae402-4e8b-4aae-bdb8-262ca5987e37",
    "name": "Neyyattinkara",
    "state_id": "4647ae4b-1e1a-4df8-b0d5-dd8f2d3df2d6"
  },
  {
    "id": "cd23048b-2d5a-41a7-82e9-5502ffa6db5e",
    "name": "Nilēshwar",
    "state_id": "4647ae4b-1e1a-4df8-b0d5-dd8f2d3df2d6"
  },
  {
    "id": "275ced64-0d96-4503-914b-c7637e26c9cb",
    "name": "Ottappalam",
    "state_id": "4647ae4b-1e1a-4df8-b0d5-dd8f2d3df2d6"
  },
  {
    "id": "60a100c2-b24b-47e1-8d42-ed55e68837cb",
    "name": "Palackattumala",
    "state_id": "4647ae4b-1e1a-4df8-b0d5-dd8f2d3df2d6"
  },
  {
    "id": "87b60a74-ac51-4035-9d5f-26d37b561657",
    "name": "Palakkad district",
    "state_id": "4647ae4b-1e1a-4df8-b0d5-dd8f2d3df2d6"
  },
  {
    "id": "7c2b7dc6-6a4c-4c44-9f30-24a3c0de0a93",
    "name": "Palghat",
    "state_id": "4647ae4b-1e1a-4df8-b0d5-dd8f2d3df2d6"
  },
  {
    "id": "7b4f4cae-1cf6-4d0e-9952-40dc25450bd9",
    "name": "Panamaram",
    "state_id": "4647ae4b-1e1a-4df8-b0d5-dd8f2d3df2d6"
  },
  {
    "id": "3f4568c5-0ef1-4f35-9d5e-3362c36195cc",
    "name": "Pappinisshēri",
    "state_id": "4647ae4b-1e1a-4df8-b0d5-dd8f2d3df2d6"
  },
  {
    "id": "5578c7ee-2526-45c4-8ffd-0bb488c2b26d",
    "name": "Paravur Tekkumbhagam",
    "state_id": "4647ae4b-1e1a-4df8-b0d5-dd8f2d3df2d6"
  },
  {
    "id": "fe466ba7-b48f-46e4-9ecf-1a7760ee1abe",
    "name": "Pariyapuram",
    "state_id": "4647ae4b-1e1a-4df8-b0d5-dd8f2d3df2d6"
  },
  {
    "id": "46517f8c-70bf-4c77-ae75-d38766fbe232",
    "name": "Pathanamthitta",
    "state_id": "4647ae4b-1e1a-4df8-b0d5-dd8f2d3df2d6"
  },
  {
    "id": "41acf4a2-777f-4c62-bbf2-c3f702f989c0",
    "name": "Pattanamtitta",
    "state_id": "4647ae4b-1e1a-4df8-b0d5-dd8f2d3df2d6"
  },
  {
    "id": "c041ca5f-2fa5-4394-a93c-54e56db287f9",
    "name": "Payyannur",
    "state_id": "4647ae4b-1e1a-4df8-b0d5-dd8f2d3df2d6"
  },
  {
    "id": "0e94f025-48ba-4601-9d78-cd1bcf55a4d1",
    "name": "Perumbavoor",
    "state_id": "4647ae4b-1e1a-4df8-b0d5-dd8f2d3df2d6"
  },
  {
    "id": "793635dd-2032-4997-bca8-7cdbc79867cc",
    "name": "Perumpavur",
    "state_id": "4647ae4b-1e1a-4df8-b0d5-dd8f2d3df2d6"
  },
  {
    "id": "01bb6800-635d-40cc-ab0a-638047a70275",
    "name": "Perya",
    "state_id": "4647ae4b-1e1a-4df8-b0d5-dd8f2d3df2d6"
  },
  {
    "id": "944befaf-b3c6-4fb9-a962-33d3e05626e8",
    "name": "Piravam",
    "state_id": "4647ae4b-1e1a-4df8-b0d5-dd8f2d3df2d6"
  },
  {
    "id": "b97c50e3-6ba6-478b-ad6a-2c9716882210",
    "name": "Ponmana",
    "state_id": "4647ae4b-1e1a-4df8-b0d5-dd8f2d3df2d6"
  },
  {
    "id": "5e9b69c3-c928-4862-af26-1350d6ebd425",
    "name": "Ponnani",
    "state_id": "4647ae4b-1e1a-4df8-b0d5-dd8f2d3df2d6"
  },
  {
    "id": "8362ca2e-57f5-4c73-814d-8cf2eaee1489",
    "name": "Punalur",
    "state_id": "4647ae4b-1e1a-4df8-b0d5-dd8f2d3df2d6"
  },
  {
    "id": "41316876-b206-4a8e-995b-20c405c62108",
    "name": "Ramamangalam",
    "state_id": "4647ae4b-1e1a-4df8-b0d5-dd8f2d3df2d6"
  },
  {
    "id": "901f2673-253e-430b-a981-57676191aa5e",
    "name": "Shertallai",
    "state_id": "4647ae4b-1e1a-4df8-b0d5-dd8f2d3df2d6"
  },
  {
    "id": "54efa5cb-25a5-44c8-bdd5-03a73ad3042d",
    "name": "Shōranur",
    "state_id": "4647ae4b-1e1a-4df8-b0d5-dd8f2d3df2d6"
  },
  {
    "id": "fe615431-f142-443e-b63f-b291fc85440a",
    "name": "Talipparamba",
    "state_id": "4647ae4b-1e1a-4df8-b0d5-dd8f2d3df2d6"
  },
  {
    "id": "094ca523-a3a5-4e29-b870-d496a59e7f2f",
    "name": "Tellicherry",
    "state_id": "4647ae4b-1e1a-4df8-b0d5-dd8f2d3df2d6"
  },
  {
    "id": "f77a89b5-823e-4636-ae6f-966b1f567f37",
    "name": "Thanniyam",
    "state_id": "4647ae4b-1e1a-4df8-b0d5-dd8f2d3df2d6"
  },
  {
    "id": "8f5489e2-973a-44fd-8f30-fc9dad20eb3e",
    "name": "Thiruvananthapuram",
    "state_id": "4647ae4b-1e1a-4df8-b0d5-dd8f2d3df2d6"
  },
  {
    "id": "50ae9c18-38df-4150-aa25-14b955ff4ff4",
    "name": "Thrissur",
    "state_id": "4647ae4b-1e1a-4df8-b0d5-dd8f2d3df2d6"
  },
  {
    "id": "06d7315a-e6c4-470a-aa9b-f62be637611b",
    "name": "Thrissur District",
    "state_id": "4647ae4b-1e1a-4df8-b0d5-dd8f2d3df2d6"
  },
  {
    "id": "e725e46b-f59f-4658-90d4-2379e7f5bc88",
    "name": "Tirur",
    "state_id": "4647ae4b-1e1a-4df8-b0d5-dd8f2d3df2d6"
  },
  {
    "id": "e4885b50-4db1-413c-a614-691d773e5329",
    "name": "Tiruvalla",
    "state_id": "4647ae4b-1e1a-4df8-b0d5-dd8f2d3df2d6"
  },
  {
    "id": "603cdbf0-6d37-4f7b-a1c4-0804dc0385c8",
    "name": "Vaikam",
    "state_id": "4647ae4b-1e1a-4df8-b0d5-dd8f2d3df2d6"
  },
  {
    "id": "8855ce9f-7216-44de-ac52-f3338525e53a",
    "name": "Varkala",
    "state_id": "4647ae4b-1e1a-4df8-b0d5-dd8f2d3df2d6"
  },
  {
    "id": "552f76fd-b8a5-4389-af3a-babfd145063e",
    "name": "Vayalar",
    "state_id": "4647ae4b-1e1a-4df8-b0d5-dd8f2d3df2d6"
  },
  {
    "id": "3a2c7647-d649-4cf4-b283-8d525990ff5f",
    "name": "Vettur",
    "state_id": "4647ae4b-1e1a-4df8-b0d5-dd8f2d3df2d6"
  },
  {
    "id": "92391a67-aa37-403d-8518-dd312413fa95",
    "name": "Wayanad",
    "state_id": "4647ae4b-1e1a-4df8-b0d5-dd8f2d3df2d6"
  }
]