[
  {
    "id": "fedb5fb4-7a4f-420b-b879-27aec5c1dfc0",
    "name": "Bolobo",
    "state_id": "4653ce2a-7d24-4312-ad1e-4dbdc17a0e71"
  },
  {
    "id": "f2b89270-cb45-40ea-8cbc-263decfccf7b",
    "name": "Inongo",
    "state_id": "4653ce2a-7d24-4312-ad1e-4dbdc17a0e71"
  },
  {
    "id": "c64d7e10-28d1-4cf3-b176-ec933705e905",
    "name": "Mushie",
    "state_id": "4653ce2a-7d24-4312-ad1e-4dbdc17a0e71"
  },
  {
    "id": "3bd43c75-9faa-4674-a9f4-433783980fc5",
    "name": "Nioki",
    "state_id": "4653ce2a-7d24-4312-ad1e-4dbdc17a0e71"
  }
]