[
  {
    "id": "25dc16d1-fc8b-4d6d-a1c4-b77b75cceaea",
    "name": "Delogožda",
    "state_id": "46e5b0d8-8874-4aa5-8e8f-a61db63fab49"
  },
  {
    "id": "cc8a036b-0e32-4c11-9520-1d9d8239c01b",
    "name": "Labunista",
    "state_id": "46e5b0d8-8874-4aa5-8e8f-a61db63fab49"
  },
  {
    "id": "1f4f28fd-772a-42e9-b65f-172208df512b",
    "name": "Lukovo",
    "state_id": "46e5b0d8-8874-4aa5-8e8f-a61db63fab49"
  },
  {
    "id": "a9ada53b-5ece-44d3-8849-db253c905964",
    "name": "Mislesevo",
    "state_id": "46e5b0d8-8874-4aa5-8e8f-a61db63fab49"
  },
  {
    "id": "a94937f7-7109-426e-a426-252835680149",
    "name": "Oktisi",
    "state_id": "46e5b0d8-8874-4aa5-8e8f-a61db63fab49"
  },
  {
    "id": "87d2222c-8bee-4727-b666-5dfd2a753948",
    "name": "Radolista",
    "state_id": "46e5b0d8-8874-4aa5-8e8f-a61db63fab49"
  },
  {
    "id": "4d8fa29b-5f28-4853-b650-4f97dcb39ae9",
    "name": "Struga",
    "state_id": "46e5b0d8-8874-4aa5-8e8f-a61db63fab49"
  },
  {
    "id": "a2c82e2e-9070-4180-a138-cf8dc0bd0f60",
    "name": "Velesta",
    "state_id": "46e5b0d8-8874-4aa5-8e8f-a61db63fab49"
  }
]