[
  {
    "id": "2e7a5f34-e298-41d0-ba85-580b3a366698",
    "name": "Algarrobo",
    "state_id": "4779fa81-22e5-4d93-b715-88cb10daab59"
  },
  {
    "id": "e109d229-32bc-443e-9f3e-ab3283f8dac1",
    "name": "Cabildo",
    "state_id": "4779fa81-22e5-4d93-b715-88cb10daab59"
  },
  {
    "id": "3d5fe157-9f6a-4788-9b6c-695eae55e0c8",
    "name": "Calle Larga",
    "state_id": "4779fa81-22e5-4d93-b715-88cb10daab59"
  },
  {
    "id": "92dd6160-8779-4ab2-a1f7-5e2cc6d923f8",
    "name": "Cartagena",
    "state_id": "4779fa81-22e5-4d93-b715-88cb10daab59"
  },
  {
    "id": "b49b519e-c23d-41e1-aa19-26a893ac84ab",
    "name": "Casablanca",
    "state_id": "4779fa81-22e5-4d93-b715-88cb10daab59"
  },
  {
    "id": "17483355-8d36-4863-a678-2eeaf9262508",
    "name": "Catemu",
    "state_id": "4779fa81-22e5-4d93-b715-88cb10daab59"
  },
  {
    "id": "38fe1ebc-bde9-4ebe-a50c-2f8615890fff",
    "name": "Concón",
    "state_id": "4779fa81-22e5-4d93-b715-88cb10daab59"
  },
  {
    "id": "3933021d-6055-4542-a494-a3762fe1651c",
    "name": "El Quisco",
    "state_id": "4779fa81-22e5-4d93-b715-88cb10daab59"
  },
  {
    "id": "7784d69c-4c2d-4a45-8d94-20009795d8f8",
    "name": "El Tabo",
    "state_id": "4779fa81-22e5-4d93-b715-88cb10daab59"
  },
  {
    "id": "b5e5d9ea-304b-4f6d-8188-5dfc1d1f731b",
    "name": "Hijuelas",
    "state_id": "4779fa81-22e5-4d93-b715-88cb10daab59"
  },
  {
    "id": "29fe9a44-0641-4862-a1d4-862d04df6df5",
    "name": "Isla de Pascua",
    "state_id": "4779fa81-22e5-4d93-b715-88cb10daab59"
  },
  {
    "id": "d4fee62b-a3e5-4367-bdaf-27df1ae62011",
    "name": "Juan Fernández",
    "state_id": "4779fa81-22e5-4d93-b715-88cb10daab59"
  },
  {
    "id": "3c109472-0549-468f-99aa-36138b651566",
    "name": "La Calera",
    "state_id": "4779fa81-22e5-4d93-b715-88cb10daab59"
  },
  {
    "id": "a9e5a836-8bcd-4c72-809c-7c4cf71b6eae",
    "name": "La Cruz",
    "state_id": "4779fa81-22e5-4d93-b715-88cb10daab59"
  },
  {
    "id": "c52ff3e6-8f02-41eb-beac-acad2938bb66",
    "name": "La Ligua",
    "state_id": "4779fa81-22e5-4d93-b715-88cb10daab59"
  },
  {
    "id": "43a0169d-3642-4327-95ba-f3aed61e6bbb",
    "name": "Limache",
    "state_id": "4779fa81-22e5-4d93-b715-88cb10daab59"
  },
  {
    "id": "d5a50c98-e6e3-4e0c-8f00-1151b8685e62",
    "name": "Llaillay",
    "state_id": "4779fa81-22e5-4d93-b715-88cb10daab59"
  },
  {
    "id": "c2a80522-f7e7-4522-ba31-d85c42c7aac5",
    "name": "Los Andes",
    "state_id": "4779fa81-22e5-4d93-b715-88cb10daab59"
  },
  {
    "id": "495c0d09-58dd-453e-94b9-4eeabe90baa5",
    "name": "Nogales",
    "state_id": "4779fa81-22e5-4d93-b715-88cb10daab59"
  },
  {
    "id": "0722538f-85e9-4676-99bd-a06c0492c9f4",
    "name": "Olmué",
    "state_id": "4779fa81-22e5-4d93-b715-88cb10daab59"
  },
  {
    "id": "92a29ffa-b6ca-4996-bd1b-31ea40b3070b",
    "name": "Panquehue",
    "state_id": "4779fa81-22e5-4d93-b715-88cb10daab59"
  },
  {
    "id": "d0ced200-3d25-4e0c-9bd5-6ab9f63d4138",
    "name": "Papudo",
    "state_id": "4779fa81-22e5-4d93-b715-88cb10daab59"
  },
  {
    "id": "415365c2-2d15-46b7-9d63-300d91ab5f1b",
    "name": "Petorca",
    "state_id": "4779fa81-22e5-4d93-b715-88cb10daab59"
  },
  {
    "id": "4d974310-a464-44f5-8cd5-80e5cfa777cd",
    "name": "Puchuncaví",
    "state_id": "4779fa81-22e5-4d93-b715-88cb10daab59"
  },
  {
    "id": "f353d0d4-8bea-402a-a0b9-63da392b8f09",
    "name": "Putaendo",
    "state_id": "4779fa81-22e5-4d93-b715-88cb10daab59"
  },
  {
    "id": "3247bcfa-4ac4-43d4-a245-867b78357daf",
    "name": "Quillota",
    "state_id": "4779fa81-22e5-4d93-b715-88cb10daab59"
  },
  {
    "id": "7d35fe41-54cd-4225-87dd-142578546ec3",
    "name": "Quilpué",
    "state_id": "4779fa81-22e5-4d93-b715-88cb10daab59"
  },
  {
    "id": "ace1caa7-877b-4a62-b9fc-bd6114bfeea2",
    "name": "Quintero",
    "state_id": "4779fa81-22e5-4d93-b715-88cb10daab59"
  },
  {
    "id": "0ed1a971-76a1-4a72-8831-8ba374b05eff",
    "name": "Rinconada",
    "state_id": "4779fa81-22e5-4d93-b715-88cb10daab59"
  },
  {
    "id": "e7ff7363-6865-4b76-824a-dd9bb7092428",
    "name": "San Antonio",
    "state_id": "4779fa81-22e5-4d93-b715-88cb10daab59"
  },
  {
    "id": "13bbafde-54dc-4b21-ac85-c374f7b047df",
    "name": "San Esteban",
    "state_id": "4779fa81-22e5-4d93-b715-88cb10daab59"
  },
  {
    "id": "e99ce7b2-a01b-4da8-9884-e68b936f85d8",
    "name": "San Felipe",
    "state_id": "4779fa81-22e5-4d93-b715-88cb10daab59"
  },
  {
    "id": "8d69d2e1-505b-4048-8617-520ab0aa8ee4",
    "name": "Santa María",
    "state_id": "4779fa81-22e5-4d93-b715-88cb10daab59"
  },
  {
    "id": "bc9e382a-3f74-4584-bc23-e1cdf5b806ef",
    "name": "Santo Domingo",
    "state_id": "4779fa81-22e5-4d93-b715-88cb10daab59"
  },
  {
    "id": "a70d5af2-4831-4743-a9a9-9a704bc9f775",
    "name": "Valparaíso",
    "state_id": "4779fa81-22e5-4d93-b715-88cb10daab59"
  },
  {
    "id": "c288ea2a-3b05-454c-8ce0-e48c52b12ee7",
    "name": "Villa Alemana",
    "state_id": "4779fa81-22e5-4d93-b715-88cb10daab59"
  },
  {
    "id": "d0f45b32-106b-4b21-aeee-2243be3e9a94",
    "name": "Viña del Mar",
    "state_id": "4779fa81-22e5-4d93-b715-88cb10daab59"
  },
  {
    "id": "243e529d-d5e7-4ded-93dc-00b98bc8e1a1",
    "name": "Zapallar",
    "state_id": "4779fa81-22e5-4d93-b715-88cb10daab59"
  }
]