[
  {
    "id": "3bf25886-7523-44b2-bcb0-5035b2375456",
    "name": "Ocniţa",
    "state_id": "47a5ea81-85cb-48ed-8fef-d5acb45e5b9d"
  },
  {
    "id": "c5f91c7d-c0d9-460b-bf2a-15f49664ce7a",
    "name": "Otaci",
    "state_id": "47a5ea81-85cb-48ed-8fef-d5acb45e5b9d"
  }
]