[
  {
    "id": "6da5a759-64f3-4748-8b34-a68b0d5aff92",
    "name": "Huyện Chư Păh",
    "state_id": "4ab3e223-4dd0-48f6-8006-445ca5ee4759"
  },
  {
    "id": "4bd56f73-af36-4677-b39e-38e59af9b251",
    "name": "Huyện Chư Prông",
    "state_id": "4ab3e223-4dd0-48f6-8006-445ca5ee4759"
  },
  {
    "id": "4094e624-099b-4c08-9de6-8f6cae29ccf8",
    "name": "Huyện Chư Sê",
    "state_id": "4ab3e223-4dd0-48f6-8006-445ca5ee4759"
  },
  {
    "id": "8912e471-f1b5-4904-bbe2-e3570d717e98",
    "name": "Huyện Đức Cơ",
    "state_id": "4ab3e223-4dd0-48f6-8006-445ca5ee4759"
  },
  {
    "id": "c5138baf-814b-413e-b702-f598337c4a44",
    "name": "Huyện Ia Grai",
    "state_id": "4ab3e223-4dd0-48f6-8006-445ca5ee4759"
  },
  {
    "id": "69ad1191-09db-4204-8143-c967c76127db",
    "name": "Huyện KBang",
    "state_id": "4ab3e223-4dd0-48f6-8006-445ca5ee4759"
  },
  {
    "id": "92702393-b803-4d7a-b538-25b016bf3fd0",
    "name": "Huyện Kông Chro",
    "state_id": "4ab3e223-4dd0-48f6-8006-445ca5ee4759"
  },
  {
    "id": "d16af3ee-8e78-4116-bf54-8d95d954a860",
    "name": "Huyện Krông Pa",
    "state_id": "4ab3e223-4dd0-48f6-8006-445ca5ee4759"
  },
  {
    "id": "7e94268c-6d90-4d4b-a144-2e982bebce2d",
    "name": "Huyện Mang Yang",
    "state_id": "4ab3e223-4dd0-48f6-8006-445ca5ee4759"
  },
  {
    "id": "8426347a-5639-4e17-a0c1-09e5307279de",
    "name": "Pleiku",
    "state_id": "4ab3e223-4dd0-48f6-8006-445ca5ee4759"
  }
]