[
  {
    "id": "f6916e83-2ef5-4e28-9935-2017148b6d2f",
    "name": "Baalbek",
    "state_id": "4ba65097-f64b-4838-b67c-c68d7896fedd"
  },
  {
    "id": "57ab9f0c-7505-4e68-997a-9cb42ff6fcad",
    "name": "Caza de Baalbek",
    "state_id": "4ba65097-f64b-4838-b67c-c68d7896fedd"
  }
]