[
  {
    "id": "d7a1a186-511d-4987-94eb-f7f3554b3e72",
    "name": "Cumaribo",
    "state_id": "4c533864-c5c4-4fb9-ac49-42fc5b40123f"
  },
  {
    "id": "69d020ad-385c-4ac6-9f40-3e6667a326a1",
    "name": "La Primavera",
    "state_id": "4c533864-c5c4-4fb9-ac49-42fc5b40123f"
  },
  {
    "id": "6eb17716-b076-4816-ac8a-dcb1ad7e4ee5",
    "name": "Puerto Carreño",
    "state_id": "4c533864-c5c4-4fb9-ac49-42fc5b40123f"
  },
  {
    "id": "0ff73403-273d-477d-81ba-7166681a5ed0",
    "name": "Santa Rosalia",
    "state_id": "4c533864-c5c4-4fb9-ac49-42fc5b40123f"
  }
]