[
  {
    "id": "69d980c2-75fe-4e1a-b770-02c55e9cf501",
    "name": "Aenon Town",
    "state_id": "4c5a6010-2c91-43a8-8fdd-6f33eadc0b3c"
  },
  {
    "id": "a68e3bfb-2c59-4665-8889-de47b46d181f",
    "name": "Alley",
    "state_id": "4c5a6010-2c91-43a8-8fdd-6f33eadc0b3c"
  },
  {
    "id": "fda24a5f-eb90-44c8-9b8d-4da8bef4b267",
    "name": "Alston",
    "state_id": "4c5a6010-2c91-43a8-8fdd-6f33eadc0b3c"
  },
  {
    "id": "b07e846b-7d24-478b-8f90-8b30a41bf7bf",
    "name": "Ashley",
    "state_id": "4c5a6010-2c91-43a8-8fdd-6f33eadc0b3c"
  },
  {
    "id": "3294d224-ba4c-400c-9168-2ef0d09b7cb3",
    "name": "Banks",
    "state_id": "4c5a6010-2c91-43a8-8fdd-6f33eadc0b3c"
  },
  {
    "id": "3cd8d663-f8b9-4eed-9a3e-c533e010fe30",
    "name": "Beckford Kraal",
    "state_id": "4c5a6010-2c91-43a8-8fdd-6f33eadc0b3c"
  },
  {
    "id": "2f212600-92ce-4659-9fa7-fd03bb60af1b",
    "name": "Brandon Hill",
    "state_id": "4c5a6010-2c91-43a8-8fdd-6f33eadc0b3c"
  },
  {
    "id": "372d5c28-226d-43f3-a4a0-5017e2c69bdc",
    "name": "Brixton Hill",
    "state_id": "4c5a6010-2c91-43a8-8fdd-6f33eadc0b3c"
  },
  {
    "id": "b3ab6b8e-e538-46ce-a4b0-b30bf77e7539",
    "name": "Bucknor",
    "state_id": "4c5a6010-2c91-43a8-8fdd-6f33eadc0b3c"
  },
  {
    "id": "3032450b-10d9-414a-84c4-28dcadd11c45",
    "name": "Bucks Common",
    "state_id": "4c5a6010-2c91-43a8-8fdd-6f33eadc0b3c"
  },
  {
    "id": "7779bdbd-1510-4ae5-94ce-1cd20c3b3f8c",
    "name": "Bushy Park",
    "state_id": "4c5a6010-2c91-43a8-8fdd-6f33eadc0b3c"
  },
  {
    "id": "ba396188-34de-4f7f-af3d-cba68aa9a3bf",
    "name": "Chapelton",
    "state_id": "4c5a6010-2c91-43a8-8fdd-6f33eadc0b3c"
  },
  {
    "id": "06a6547f-173f-48e7-9388-2c82bc9ce336",
    "name": "Chateau",
    "state_id": "4c5a6010-2c91-43a8-8fdd-6f33eadc0b3c"
  },
  {
    "id": "d567a14e-fa9b-485a-9423-f9a2a03cd701",
    "name": "Cockpit",
    "state_id": "4c5a6010-2c91-43a8-8fdd-6f33eadc0b3c"
  },
  {
    "id": "6fd209ac-d440-4947-ba37-6c9e87b0b966",
    "name": "Coffee Piece",
    "state_id": "4c5a6010-2c91-43a8-8fdd-6f33eadc0b3c"
  },
  {
    "id": "f3878f7c-0e58-4002-9f6f-4c0c3bc5be40",
    "name": "Colonels Ridge",
    "state_id": "4c5a6010-2c91-43a8-8fdd-6f33eadc0b3c"
  },
  {
    "id": "8fde5655-ea24-4de4-8c8e-c0e83089cce0",
    "name": "Coxswain",
    "state_id": "4c5a6010-2c91-43a8-8fdd-6f33eadc0b3c"
  },
  {
    "id": "c194dd8a-89dc-449e-9f12-7b6ae1ee7675",
    "name": "Crofts Hill",
    "state_id": "4c5a6010-2c91-43a8-8fdd-6f33eadc0b3c"
  },
  {
    "id": "4f56d4dc-c785-4a21-9bea-8d8c148e5f92",
    "name": "Crooked River",
    "state_id": "4c5a6010-2c91-43a8-8fdd-6f33eadc0b3c"
  },
  {
    "id": "a96d2c34-63bc-44aa-a801-f5b6797185e3",
    "name": "Cumberland",
    "state_id": "4c5a6010-2c91-43a8-8fdd-6f33eadc0b3c"
  },
  {
    "id": "12bc965f-07d0-40ce-aadc-b207203c0d6a",
    "name": "Curatoe Hill",
    "state_id": "4c5a6010-2c91-43a8-8fdd-6f33eadc0b3c"
  },
  {
    "id": "9af40d79-aa4d-4b45-be19-8f29b36c2c06",
    "name": "Dawkins",
    "state_id": "4c5a6010-2c91-43a8-8fdd-6f33eadc0b3c"
  },
  {
    "id": "3f14d828-74cc-4fd3-a4c1-aa2d3fb2eb44",
    "name": "Effortville",
    "state_id": "4c5a6010-2c91-43a8-8fdd-6f33eadc0b3c"
  },
  {
    "id": "443b4610-b3a0-45d1-a498-0ca33fa4350c",
    "name": "Four Paths",
    "state_id": "4c5a6010-2c91-43a8-8fdd-6f33eadc0b3c"
  },
  {
    "id": "62fa9261-9667-40e6-84f2-0a6c14f763a1",
    "name": "Frankfield",
    "state_id": "4c5a6010-2c91-43a8-8fdd-6f33eadc0b3c"
  },
  {
    "id": "779944b6-8c0d-4ecc-bc8c-6525b1ce6c84",
    "name": "Freetown",
    "state_id": "4c5a6010-2c91-43a8-8fdd-6f33eadc0b3c"
  },
  {
    "id": "4a61e584-db7a-423c-bfc1-ee9460e90360",
    "name": "Gimme-me-bit",
    "state_id": "4c5a6010-2c91-43a8-8fdd-6f33eadc0b3c"
  },
  {
    "id": "38a32add-eb43-4fbd-b6a6-adec36c3e32e",
    "name": "Glenmuir",
    "state_id": "4c5a6010-2c91-43a8-8fdd-6f33eadc0b3c"
  },
  {
    "id": "4a14d5f2-4f25-41dc-9fbd-aa6ddec1fd0f",
    "name": "Grantham",
    "state_id": "4c5a6010-2c91-43a8-8fdd-6f33eadc0b3c"
  },
  {
    "id": "65362fe1-37e4-48e5-9fc9-a12495fac6ae",
    "name": "Gravel Hill",
    "state_id": "4c5a6010-2c91-43a8-8fdd-6f33eadc0b3c"
  },
  {
    "id": "d944c795-b7a3-45a2-afbe-f5147dfc9ed6",
    "name": "Hayes",
    "state_id": "4c5a6010-2c91-43a8-8fdd-6f33eadc0b3c"
  },
  {
    "id": "800e8f3f-30c8-4ce5-b280-516190abe417",
    "name": "Hazard",
    "state_id": "4c5a6010-2c91-43a8-8fdd-6f33eadc0b3c"
  },
  {
    "id": "159852fc-2711-4091-984e-4d028918b2ad",
    "name": "Inverness",
    "state_id": "4c5a6010-2c91-43a8-8fdd-6f33eadc0b3c"
  },
  {
    "id": "03594d92-215f-41eb-8713-19c29100100f",
    "name": "James Hill",
    "state_id": "4c5a6010-2c91-43a8-8fdd-6f33eadc0b3c"
  },
  {
    "id": "b7d1b578-afcb-47a0-94fa-e7e8140ad715",
    "name": "Johns Hall",
    "state_id": "4c5a6010-2c91-43a8-8fdd-6f33eadc0b3c"
  },
  {
    "id": "4fbc83fe-1345-4b5f-88e8-93773b618958",
    "name": "Kellits",
    "state_id": "4c5a6010-2c91-43a8-8fdd-6f33eadc0b3c"
  },
  {
    "id": "ba9d81ec-9e1e-4993-b5d8-de06251d55d1",
    "name": "Limit",
    "state_id": "4c5a6010-2c91-43a8-8fdd-6f33eadc0b3c"
  },
  {
    "id": "5c443627-7795-4d0e-990a-af73b9537793",
    "name": "Lionel Town",
    "state_id": "4c5a6010-2c91-43a8-8fdd-6f33eadc0b3c"
  },
  {
    "id": "ed3393a8-8d22-4dfe-9fbe-1d09cf9e0bfb",
    "name": "Longville Park",
    "state_id": "4c5a6010-2c91-43a8-8fdd-6f33eadc0b3c"
  },
  {
    "id": "86f9fcbc-232e-4834-a93d-eb4343be0c04",
    "name": "Longwood",
    "state_id": "4c5a6010-2c91-43a8-8fdd-6f33eadc0b3c"
  },
  {
    "id": "9900bab9-5ecb-4ee8-b02e-0edeb46665cf",
    "name": "May Pen",
    "state_id": "4c5a6010-2c91-43a8-8fdd-6f33eadc0b3c"
  },
  {
    "id": "7d16a6e4-7d64-4273-b349-f5ec6024e8a2",
    "name": "May Pen Proper",
    "state_id": "4c5a6010-2c91-43a8-8fdd-6f33eadc0b3c"
  },
  {
    "id": "48bbe7c5-92e0-436e-9df0-c27f365f50fc",
    "name": "Milk River",
    "state_id": "4c5a6010-2c91-43a8-8fdd-6f33eadc0b3c"
  },
  {
    "id": "8f4f2d57-1143-4a36-a3f2-66341dcdc21c",
    "name": "Mineral Heights",
    "state_id": "4c5a6010-2c91-43a8-8fdd-6f33eadc0b3c"
  },
  {
    "id": "b6240f48-1429-48ca-ac4d-ee6b837c4da2",
    "name": "Mitchell Town",
    "state_id": "4c5a6010-2c91-43a8-8fdd-6f33eadc0b3c"
  },
  {
    "id": "8eddc550-aaf9-4bc0-b174-415719bffbfb",
    "name": "Moores",
    "state_id": "4c5a6010-2c91-43a8-8fdd-6f33eadc0b3c"
  },
  {
    "id": "9422b50d-57be-41dd-a2d4-a4d95b7cef53",
    "name": "Morgans Forest",
    "state_id": "4c5a6010-2c91-43a8-8fdd-6f33eadc0b3c"
  },
  {
    "id": "ec49ae8f-7c53-47fc-8a79-9cee4f9b9faa",
    "name": "Morgans Pass",
    "state_id": "4c5a6010-2c91-43a8-8fdd-6f33eadc0b3c"
  },
  {
    "id": "512db3a6-4810-4f7e-a0d4-9b6bee019a9b",
    "name": "Mount Airy",
    "state_id": "4c5a6010-2c91-43a8-8fdd-6f33eadc0b3c"
  },
  {
    "id": "c0612cbb-706b-4fbd-a152-ca8bc7503deb",
    "name": "New Denbigh",
    "state_id": "4c5a6010-2c91-43a8-8fdd-6f33eadc0b3c"
  },
  {
    "id": "33bb19db-ad79-4b95-9836-ecaf3f0ceb8f",
    "name": "New Longsville",
    "state_id": "4c5a6010-2c91-43a8-8fdd-6f33eadc0b3c"
  },
  {
    "id": "a33efd60-7862-4305-8ef2-85e48e051c36",
    "name": "Old Denbigh",
    "state_id": "4c5a6010-2c91-43a8-8fdd-6f33eadc0b3c"
  },
  {
    "id": "bb23cc1f-3d18-42a9-b9bf-4583f8424c48",
    "name": "Orange Hill",
    "state_id": "4c5a6010-2c91-43a8-8fdd-6f33eadc0b3c"
  },
  {
    "id": "94511cec-c81f-4b6c-8238-cc8a88a8dfed",
    "name": "Osbourne Store",
    "state_id": "4c5a6010-2c91-43a8-8fdd-6f33eadc0b3c"
  },
  {
    "id": "3424c076-c587-43bb-915c-6e09125ef346",
    "name": "Paisley",
    "state_id": "4c5a6010-2c91-43a8-8fdd-6f33eadc0b3c"
  },
  {
    "id": "97798a62-24c1-4496-9caf-ec3a50d21eae",
    "name": "Palmers Cross",
    "state_id": "4c5a6010-2c91-43a8-8fdd-6f33eadc0b3c"
  },
  {
    "id": "119f849f-d301-4b7b-a0dd-9b9bf4ba2c00",
    "name": "Part of Banana Ground",
    "state_id": "4c5a6010-2c91-43a8-8fdd-6f33eadc0b3c"
  },
  {
    "id": "c2fc42bf-a2e4-450a-9859-3c888434cb6f",
    "name": "Part of Douglas Castle",
    "state_id": "4c5a6010-2c91-43a8-8fdd-6f33eadc0b3c"
  },
  {
    "id": "7d610937-b5bb-4f25-b3fa-ce8e0415dd1c",
    "name": "Part of Kellits",
    "state_id": "4c5a6010-2c91-43a8-8fdd-6f33eadc0b3c"
  },
  {
    "id": "06e88e6b-0e67-4c40-a6fb-55ec5c1d51d3",
    "name": "Peckham",
    "state_id": "4c5a6010-2c91-43a8-8fdd-6f33eadc0b3c"
  },
  {
    "id": "10693814-9bad-4f14-b6dc-89ca353ade32",
    "name": "Pennants",
    "state_id": "4c5a6010-2c91-43a8-8fdd-6f33eadc0b3c"
  },
  {
    "id": "8ee3cd1f-6224-45d1-aa41-fda6f1ce0811",
    "name": "Pleasant Valley",
    "state_id": "4c5a6010-2c91-43a8-8fdd-6f33eadc0b3c"
  },
  {
    "id": "d4b2c0c6-5174-4e49-be88-0788d13172e9",
    "name": "Portland Cottage",
    "state_id": "4c5a6010-2c91-43a8-8fdd-6f33eadc0b3c"
  },
  {
    "id": "dcf223f8-8094-4f48-8a07-c5dd2d2f5991",
    "name": "Porus",
    "state_id": "4c5a6010-2c91-43a8-8fdd-6f33eadc0b3c"
  },
  {
    "id": "86d73b98-eaff-4e5a-a302-44aa0f803277",
    "name": "Race Course",
    "state_id": "4c5a6010-2c91-43a8-8fdd-6f33eadc0b3c"
  },
  {
    "id": "2b302424-ece8-4424-a675-f3586fe75eae",
    "name": "Richmond Park",
    "state_id": "4c5a6010-2c91-43a8-8fdd-6f33eadc0b3c"
  },
  {
    "id": "e8ee8b21-cadd-4f15-b3a5-3a74c52ef68e",
    "name": "Ritchies",
    "state_id": "4c5a6010-2c91-43a8-8fdd-6f33eadc0b3c"
  },
  {
    "id": "b3802be8-8b3a-47bd-b6bd-191b8ea04744",
    "name": "Rock",
    "state_id": "4c5a6010-2c91-43a8-8fdd-6f33eadc0b3c"
  },
  {
    "id": "884f9087-caa4-4c03-81e0-a87f1d0e9396",
    "name": "Rock River",
    "state_id": "4c5a6010-2c91-43a8-8fdd-6f33eadc0b3c"
  },
  {
    "id": "b01c5041-e063-4503-9d9d-4d0c7c128476",
    "name": "Rocky Point",
    "state_id": "4c5a6010-2c91-43a8-8fdd-6f33eadc0b3c"
  },
  {
    "id": "3d55ebe1-4267-43aa-8d2e-5d5b2dce13a4",
    "name": "Salt River",
    "state_id": "4c5a6010-2c91-43a8-8fdd-6f33eadc0b3c"
  },
  {
    "id": "1ff66b05-1024-4b90-bf12-7c89df477511",
    "name": "Sandy Bay",
    "state_id": "4c5a6010-2c91-43a8-8fdd-6f33eadc0b3c"
  },
  {
    "id": "75a7f157-9454-43d1-9f37-3cb79adc2038",
    "name": "Sanguinetti",
    "state_id": "4c5a6010-2c91-43a8-8fdd-6f33eadc0b3c"
  },
  {
    "id": "e0e8a4c8-a4a1-477a-9e4f-9d9a810f2f6d",
    "name": "Sedgepond",
    "state_id": "4c5a6010-2c91-43a8-8fdd-6f33eadc0b3c"
  },
  {
    "id": "2ce73040-da75-487d-811f-2669e914ae5d",
    "name": "Silent Hill",
    "state_id": "4c5a6010-2c91-43a8-8fdd-6f33eadc0b3c"
  },
  {
    "id": "528a2fe2-c847-42f1-81b5-93190dff4766",
    "name": "Smithville",
    "state_id": "4c5a6010-2c91-43a8-8fdd-6f33eadc0b3c"
  },
  {
    "id": "53271c1c-11b2-47d5-8a22-0d16c830d430",
    "name": "Spaldings",
    "state_id": "4c5a6010-2c91-43a8-8fdd-6f33eadc0b3c"
  },
  {
    "id": "098f94cb-4939-4fbd-be7e-a25dae633937",
    "name": "Summerfield",
    "state_id": "4c5a6010-2c91-43a8-8fdd-6f33eadc0b3c"
  },
  {
    "id": "ffa8630b-3491-47d9-b321-8007c7e78578",
    "name": "Thompson Town",
    "state_id": "4c5a6010-2c91-43a8-8fdd-6f33eadc0b3c"
  },
  {
    "id": "8703fafa-bdc2-459c-b0c2-ba7ac636996b",
    "name": "Tollgate",
    "state_id": "4c5a6010-2c91-43a8-8fdd-6f33eadc0b3c"
  },
  {
    "id": "ca8ff3cd-cf98-4dbc-b49b-38c5fb27a3e9",
    "name": "Treadlight",
    "state_id": "4c5a6010-2c91-43a8-8fdd-6f33eadc0b3c"
  },
  {
    "id": "dc080c09-3093-4359-8e57-ed2406f01b23",
    "name": "Trout Hall",
    "state_id": "4c5a6010-2c91-43a8-8fdd-6f33eadc0b3c"
  },
  {
    "id": "6ec2a072-5922-46b6-8d2a-b190a697f9e3",
    "name": "Turners",
    "state_id": "4c5a6010-2c91-43a8-8fdd-6f33eadc0b3c"
  },
  {
    "id": "b7829c22-d186-45e4-b3a1-229dcd13561e",
    "name": "Water Lane",
    "state_id": "4c5a6010-2c91-43a8-8fdd-6f33eadc0b3c"
  },
  {
    "id": "025002af-a02d-4ecc-a3a7-10ecc016ef24",
    "name": "Woodhall",
    "state_id": "4c5a6010-2c91-43a8-8fdd-6f33eadc0b3c"
  },
  {
    "id": "8590e457-508a-4388-bb37-f40490c24459",
    "name": "York Town",
    "state_id": "4c5a6010-2c91-43a8-8fdd-6f33eadc0b3c"
  }
]