[
  {
    "id": "86e8b7b6-25a3-4c54-9473-c17ee61a750c",
    "name": "Cairo",
    "state_id": "4c8c43ca-50de-4bc9-b7d8-dbe906882803"
  },
  {
    "id": "dcfd704a-3cfe-4c7f-95a1-2ac09127272e",
    "name": "Ḩalwān",
    "state_id": "4c8c43ca-50de-4bc9-b7d8-dbe906882803"
  },
  {
    "id": "010a2b0b-7c4b-4097-b24d-d1891ef6f88c",
    "name": "New Cairo",
    "state_id": "4c8c43ca-50de-4bc9-b7d8-dbe906882803"
  }
]