[
  {
    "id": "17206990-2d66-43f3-9656-12a824ed1abf",
    "name": "Basqal",
    "state_id": "4c942d8d-e1af-419a-a11d-7a2dfb73a8da"
  },
  {
    "id": "d7c47321-25b6-4707-a227-8fe160a3ae45",
    "name": "İsmayıllı",
    "state_id": "4c942d8d-e1af-419a-a11d-7a2dfb73a8da"
  }
]