[
  {
    "id": "fbcb1908-6278-4ba4-953b-f8e4e4bdd4bd",
    "name": "Ishqoshim",
    "state_id": "4cdad521-aa95-4c2e-a19d-d05c1a998560"
  },
  {
    "id": "5adaa156-92ca-4f25-a749-ee72be570480",
    "name": "Khorugh",
    "state_id": "4cdad521-aa95-4c2e-a19d-d05c1a998560"
  },
  {
    "id": "ab062dab-671c-409c-a84b-41c929548b96",
    "name": "Murghob",
    "state_id": "4cdad521-aa95-4c2e-a19d-d05c1a998560"
  },
  {
    "id": "01a01dba-4549-439f-94ef-9f8cd32fabe0",
    "name": "Nohiyai Shughnon",
    "state_id": "4cdad521-aa95-4c2e-a19d-d05c1a998560"
  }
]