[
  {
    "id": "9cd38e11-7374-48be-b6f4-abb5a810aed3",
    "name": "Goulouré",
    "state_id": "4d218727-b681-4844-a8e3-d503f9af32e9"
  },
  {
    "id": "6cb08475-76f2-44d3-9a1e-4c2df815fd31",
    "name": "Kokologo",
    "state_id": "4d218727-b681-4844-a8e3-d503f9af32e9"
  },
  {
    "id": "cf7714e4-a1be-470d-ae7d-7364598e213a",
    "name": "Koudougou",
    "state_id": "4d218727-b681-4844-a8e3-d503f9af32e9"
  },
  {
    "id": "49011074-05d8-4224-b0ac-3310e381062c",
    "name": "Léo",
    "state_id": "4d218727-b681-4844-a8e3-d503f9af32e9"
  },
  {
    "id": "47557724-d067-403e-b87a-951a04a76f1f",
    "name": "Pitmoaga",
    "state_id": "4d218727-b681-4844-a8e3-d503f9af32e9"
  },
  {
    "id": "709a61c4-defb-4bf3-86d4-5b7ef310fc32",
    "name": "Province de la Sissili",
    "state_id": "4d218727-b681-4844-a8e3-d503f9af32e9"
  },
  {
    "id": "ba624118-eeba-4f5c-8f96-4bb0110dd6ac",
    "name": "Province du Boulkiemdé",
    "state_id": "4d218727-b681-4844-a8e3-d503f9af32e9"
  },
  {
    "id": "d399a3bd-b303-4f58-8d9e-ad296cc3fbab",
    "name": "Province du Sanguié",
    "state_id": "4d218727-b681-4844-a8e3-d503f9af32e9"
  },
  {
    "id": "6fad2e0b-f97d-4dcd-b372-1a229bb7d14b",
    "name": "Province du Ziro",
    "state_id": "4d218727-b681-4844-a8e3-d503f9af32e9"
  },
  {
    "id": "6d6b68f0-23da-4ba3-83cb-2aa1370f4223",
    "name": "Réo",
    "state_id": "4d218727-b681-4844-a8e3-d503f9af32e9"
  },
  {
    "id": "c3cc7d1b-b024-4eda-b2bd-2e9c181aa370",
    "name": "Sapouy",
    "state_id": "4d218727-b681-4844-a8e3-d503f9af32e9"
  }
]