[
  {
    "id": "7e81c31f-c683-4d8b-8885-1b7838c62d72",
    "name": "Agía Triáda",
    "state_id": "4d732e91-c981-49ae-bf49-d58d9e65b11a"
  },
  {
    "id": "7ea1ad0b-ced9-49a7-965b-77605d549f70",
    "name": "Agnanteró",
    "state_id": "4d732e91-c981-49ae-bf49-d58d9e65b11a"
  },
  {
    "id": "a02a8833-38a2-41a3-be08-c1c0bf566155",
    "name": "Anávra",
    "state_id": "4d732e91-c981-49ae-bf49-d58d9e65b11a"
  },
  {
    "id": "00359ddd-5d08-4b35-bb82-c6b965e3e6ab",
    "name": "Anthiró",
    "state_id": "4d732e91-c981-49ae-bf49-d58d9e65b11a"
  },
  {
    "id": "e6c60217-8b94-4c93-8b74-4ed48fefdd5a",
    "name": "Artesianó",
    "state_id": "4d732e91-c981-49ae-bf49-d58d9e65b11a"
  },
  {
    "id": "5cba30a3-21be-49eb-836e-5694331607fa",
    "name": "Itéa",
    "state_id": "4d732e91-c981-49ae-bf49-d58d9e65b11a"
  },
  {
    "id": "9e700385-948d-4714-9892-175815b7e2eb",
    "name": "Kallifóni",
    "state_id": "4d732e91-c981-49ae-bf49-d58d9e65b11a"
  },
  {
    "id": "c2604119-8480-4115-ba6d-bf5cd710d4bd",
    "name": "Kallíthiro",
    "state_id": "4d732e91-c981-49ae-bf49-d58d9e65b11a"
  },
  {
    "id": "280f94a8-4f37-494f-b88a-cb6f9cbecf39",
    "name": "Kardítsa",
    "state_id": "4d732e91-c981-49ae-bf49-d58d9e65b11a"
  },
  {
    "id": "7fe80257-96a4-4e9c-976e-c09073cb3ea8",
    "name": "Karditsomagoúla",
    "state_id": "4d732e91-c981-49ae-bf49-d58d9e65b11a"
  },
  {
    "id": "b91db6c0-fd4b-4cdd-b9e0-b368d1f3f9ba",
    "name": "Karpochóri",
    "state_id": "4d732e91-c981-49ae-bf49-d58d9e65b11a"
  },
  {
    "id": "f1fdbfa6-f183-453d-9857-a00945d9a6ea",
    "name": "Magoúla",
    "state_id": "4d732e91-c981-49ae-bf49-d58d9e65b11a"
  },
  {
    "id": "5580d4b6-2373-4bb4-9f1b-a433fffded1e",
    "name": "Makrychóri",
    "state_id": "4d732e91-c981-49ae-bf49-d58d9e65b11a"
  },
  {
    "id": "9c994e94-4665-4b7a-9f9c-8d327c051b9c",
    "name": "Mavrommáti",
    "state_id": "4d732e91-c981-49ae-bf49-d58d9e65b11a"
  },
  {
    "id": "3e31be1e-f06b-41af-8f80-f3cd0e3b3f4b",
    "name": "Mitrópoli",
    "state_id": "4d732e91-c981-49ae-bf49-d58d9e65b11a"
  },
  {
    "id": "782663bb-6d0d-4b30-bbce-2e9a5ca537ee",
    "name": "Morfovoúni",
    "state_id": "4d732e91-c981-49ae-bf49-d58d9e65b11a"
  },
  {
    "id": "57646898-c9c6-47cf-8dea-50d5e17c2e78",
    "name": "Mouzáki",
    "state_id": "4d732e91-c981-49ae-bf49-d58d9e65b11a"
  },
  {
    "id": "f6971afa-4807-4981-ae9c-24e2aa1b8aeb",
    "name": "Palamás",
    "state_id": "4d732e91-c981-49ae-bf49-d58d9e65b11a"
  },
  {
    "id": "a6873a8b-f7c7-450e-8ea4-9ed5b9a99023",
    "name": "Proástio",
    "state_id": "4d732e91-c981-49ae-bf49-d58d9e65b11a"
  },
  {
    "id": "403458ab-b59d-46ed-bb2f-9f1197b97569",
    "name": "Sofádes",
    "state_id": "4d732e91-c981-49ae-bf49-d58d9e65b11a"
  }
]