[
  {
    "id": "6a367d9d-9a1f-487d-ae92-45d8cb643dbb",
    "name": "Bechlín",
    "state_id": "4d81733c-3cb9-49b9-92f0-1916629a2b8d"
  },
  {
    "id": "c3850fd7-a99b-4bcd-90c2-ebef46f1f529",
    "name": "Bečov",
    "state_id": "4d81733c-3cb9-49b9-92f0-1916629a2b8d"
  },
  {
    "id": "8c5b4b76-151c-4e13-8130-da7350f1b3dd",
    "name": "Benešov nad Ploučnicí",
    "state_id": "4d81733c-3cb9-49b9-92f0-1916629a2b8d"
  },
  {
    "id": "cd1e020d-827f-4a10-9004-a5f5c5fb775f",
    "name": "Bílina",
    "state_id": "4d81733c-3cb9-49b9-92f0-1916629a2b8d"
  },
  {
    "id": "1caafba1-e960-40bc-a8cc-a2edd1050778",
    "name": "Bílina Kyselka",
    "state_id": "4d81733c-3cb9-49b9-92f0-1916629a2b8d"
  },
  {
    "id": "ac1ac2e9-2302-4b40-b948-70c1d686a82b",
    "name": "Bohušovice nad Ohří",
    "state_id": "4d81733c-3cb9-49b9-92f0-1916629a2b8d"
  },
  {
    "id": "3d558a4a-5db0-47b7-b881-4373e68ba136",
    "name": "Braňany",
    "state_id": "4d81733c-3cb9-49b9-92f0-1916629a2b8d"
  },
  {
    "id": "221419c6-3567-47cc-80f5-2b571c09d965",
    "name": "Březno",
    "state_id": "4d81733c-3cb9-49b9-92f0-1916629a2b8d"
  },
  {
    "id": "bcc23a52-50fd-429b-868a-8b51badd7440",
    "name": "Budyně nad Ohří",
    "state_id": "4d81733c-3cb9-49b9-92f0-1916629a2b8d"
  },
  {
    "id": "c27e1304-f6c7-40a0-8046-48c950d482f0",
    "name": "Bystřany",
    "state_id": "4d81733c-3cb9-49b9-92f0-1916629a2b8d"
  },
  {
    "id": "2ed56527-bbfa-4964-9d5e-92240d0e01b8",
    "name": "Černčice",
    "state_id": "4d81733c-3cb9-49b9-92f0-1916629a2b8d"
  },
  {
    "id": "af644a29-d6f6-4378-8903-0a72b931a55b",
    "name": "Česká Kamenice",
    "state_id": "4d81733c-3cb9-49b9-92f0-1916629a2b8d"
  },
  {
    "id": "bd58bd0c-9318-4a5c-ba20-5bdb3fd1efab",
    "name": "Chabařovice",
    "state_id": "4d81733c-3cb9-49b9-92f0-1916629a2b8d"
  },
  {
    "id": "fccbba66-2aaa-4514-b3f9-c8621704ec46",
    "name": "Chlumec",
    "state_id": "4d81733c-3cb9-49b9-92f0-1916629a2b8d"
  },
  {
    "id": "97e81939-6e68-443d-82bb-82f3f8b70ce1",
    "name": "Chomutov",
    "state_id": "4d81733c-3cb9-49b9-92f0-1916629a2b8d"
  },
  {
    "id": "8907b6ab-2b99-499f-b78c-839be39891ce",
    "name": "Chřibská",
    "state_id": "4d81733c-3cb9-49b9-92f0-1916629a2b8d"
  },
  {
    "id": "8fa4912f-68e2-4eea-8b97-901e09148d07",
    "name": "Čížkovice",
    "state_id": "4d81733c-3cb9-49b9-92f0-1916629a2b8d"
  },
  {
    "id": "876fcb4a-f8c9-45d2-b676-df265f1015a2",
    "name": "Děčín",
    "state_id": "4d81733c-3cb9-49b9-92f0-1916629a2b8d"
  },
  {
    "id": "b64ad4d8-4bb8-4fff-97f4-1da27054bdba",
    "name": "Dobroměřice",
    "state_id": "4d81733c-3cb9-49b9-92f0-1916629a2b8d"
  },
  {
    "id": "ab7a5e7b-4806-4ecf-b202-6063b3578cd8",
    "name": "Dolní Podluží",
    "state_id": "4d81733c-3cb9-49b9-92f0-1916629a2b8d"
  },
  {
    "id": "60b92d8c-8d7d-4ee2-99ab-df8a0abc6296",
    "name": "Dolní Poustevna",
    "state_id": "4d81733c-3cb9-49b9-92f0-1916629a2b8d"
  },
  {
    "id": "5483f4cd-b004-4a20-a692-d1c0ba083004",
    "name": "Dubí",
    "state_id": "4d81733c-3cb9-49b9-92f0-1916629a2b8d"
  },
  {
    "id": "9182ed58-2e8b-485c-8226-50732ee81958",
    "name": "Duchcov",
    "state_id": "4d81733c-3cb9-49b9-92f0-1916629a2b8d"
  },
  {
    "id": "7cbb5b94-9161-4238-ab76-30c3116c9e1a",
    "name": "Horní Jiřetín",
    "state_id": "4d81733c-3cb9-49b9-92f0-1916629a2b8d"
  },
  {
    "id": "2a56f436-7d38-471b-aaad-9e6ceb6809f4",
    "name": "Hošťka",
    "state_id": "4d81733c-3cb9-49b9-92f0-1916629a2b8d"
  },
  {
    "id": "bc1bde32-ecd7-4e92-99a8-107b32bb7a70",
    "name": "Hostomice",
    "state_id": "4d81733c-3cb9-49b9-92f0-1916629a2b8d"
  },
  {
    "id": "64e6ac61-428e-4054-b7ea-39eb8d4e1dd9",
    "name": "Hrob",
    "state_id": "4d81733c-3cb9-49b9-92f0-1916629a2b8d"
  },
  {
    "id": "7fdfd8fb-90cb-4971-85f7-17d7a9bc607e",
    "name": "Jílové",
    "state_id": "4d81733c-3cb9-49b9-92f0-1916629a2b8d"
  },
  {
    "id": "d4fb3520-339b-406f-9e92-c9fa2826904d",
    "name": "Jiříkov",
    "state_id": "4d81733c-3cb9-49b9-92f0-1916629a2b8d"
  },
  {
    "id": "67f82db1-cec4-45c4-97d2-753c1fd27cda",
    "name": "Jirkov",
    "state_id": "4d81733c-3cb9-49b9-92f0-1916629a2b8d"
  },
  {
    "id": "65de876d-051e-4216-91ff-b27eb9aed13c",
    "name": "Kadaň",
    "state_id": "4d81733c-3cb9-49b9-92f0-1916629a2b8d"
  },
  {
    "id": "8e799dc3-7697-423a-b59e-0ee6fa5cc446",
    "name": "Klášterec nad Ohří",
    "state_id": "4d81733c-3cb9-49b9-92f0-1916629a2b8d"
  },
  {
    "id": "416778f6-beba-4015-8444-b83c5654ecec",
    "name": "Košťany",
    "state_id": "4d81733c-3cb9-49b9-92f0-1916629a2b8d"
  },
  {
    "id": "dea382ea-669a-4c8b-bb5e-064bc49fc751",
    "name": "Kovářská",
    "state_id": "4d81733c-3cb9-49b9-92f0-1916629a2b8d"
  },
  {
    "id": "0e6e1336-0d6e-41bf-9bd9-a6c428eb6f86",
    "name": "Krásná Lípa",
    "state_id": "4d81733c-3cb9-49b9-92f0-1916629a2b8d"
  },
  {
    "id": "9f1bf34b-4c0c-4c94-811b-fe59a1c11f46",
    "name": "Křešice",
    "state_id": "4d81733c-3cb9-49b9-92f0-1916629a2b8d"
  },
  {
    "id": "a3b26d7e-a27b-42da-af5e-d2df2e05403f",
    "name": "Krupka",
    "state_id": "4d81733c-3cb9-49b9-92f0-1916629a2b8d"
  },
  {
    "id": "80448570-c512-4506-893d-7e037ed647fe",
    "name": "Kryry",
    "state_id": "4d81733c-3cb9-49b9-92f0-1916629a2b8d"
  },
  {
    "id": "5f2cdfd9-0b31-4178-9528-df088c42b7d4",
    "name": "Lenešice",
    "state_id": "4d81733c-3cb9-49b9-92f0-1916629a2b8d"
  },
  {
    "id": "681a3180-ef95-4b51-8b62-d8b5b1be4dc8",
    "name": "Liběšice",
    "state_id": "4d81733c-3cb9-49b9-92f0-1916629a2b8d"
  },
  {
    "id": "004441a3-d590-4e11-a7a0-0d55d571a2c5",
    "name": "Libochovice",
    "state_id": "4d81733c-3cb9-49b9-92f0-1916629a2b8d"
  },
  {
    "id": "35792416-4029-4c20-9fb8-32d71a7323a7",
    "name": "Libouchec",
    "state_id": "4d81733c-3cb9-49b9-92f0-1916629a2b8d"
  },
  {
    "id": "e577b057-9ee4-4a50-8eeb-87d9d032d9fb",
    "name": "Litoměřice",
    "state_id": "4d81733c-3cb9-49b9-92f0-1916629a2b8d"
  },
  {
    "id": "43a8e9e7-727f-4148-ac95-188114233777",
    "name": "Litvínov",
    "state_id": "4d81733c-3cb9-49b9-92f0-1916629a2b8d"
  },
  {
    "id": "b3900f23-c588-4d02-9c0b-3e4e4b20a4f5",
    "name": "Lom u Mostu",
    "state_id": "4d81733c-3cb9-49b9-92f0-1916629a2b8d"
  },
  {
    "id": "cde9eb20-667f-47f2-a7af-a29f12ce2ce5",
    "name": "Louny",
    "state_id": "4d81733c-3cb9-49b9-92f0-1916629a2b8d"
  },
  {
    "id": "9d064d62-c460-499e-ba66-873979841c70",
    "name": "Lovosice",
    "state_id": "4d81733c-3cb9-49b9-92f0-1916629a2b8d"
  },
  {
    "id": "6a97d7ea-4e3e-4cba-8e60-66f6be83bbbe",
    "name": "Lubenec",
    "state_id": "4d81733c-3cb9-49b9-92f0-1916629a2b8d"
  },
  {
    "id": "ebd205b0-14f8-4888-ba43-30ae6057cd4f",
    "name": "Měcholupy",
    "state_id": "4d81733c-3cb9-49b9-92f0-1916629a2b8d"
  },
  {
    "id": "84d24f74-0d7f-45a9-9bce-134e2642a91d",
    "name": "Meziboři",
    "state_id": "4d81733c-3cb9-49b9-92f0-1916629a2b8d"
  },
  {
    "id": "ac3f101a-69ab-425c-aeeb-17ef9d14e462",
    "name": "Mikulášovice",
    "state_id": "4d81733c-3cb9-49b9-92f0-1916629a2b8d"
  },
  {
    "id": "c615a013-9722-4f5f-b988-5456e53c82ca",
    "name": "Most",
    "state_id": "4d81733c-3cb9-49b9-92f0-1916629a2b8d"
  },
  {
    "id": "369220c6-96fc-4ed2-b942-de0841c1883e",
    "name": "Novosedlice",
    "state_id": "4d81733c-3cb9-49b9-92f0-1916629a2b8d"
  },
  {
    "id": "a9b0004c-1bf7-4f19-9ee1-6921110e418f",
    "name": "Obrnice",
    "state_id": "4d81733c-3cb9-49b9-92f0-1916629a2b8d"
  },
  {
    "id": "2185aa2f-3bdd-4ae3-8165-18c9a2e0fd46",
    "name": "Okres Chomutov",
    "state_id": "4d81733c-3cb9-49b9-92f0-1916629a2b8d"
  },
  {
    "id": "a14e4366-942e-406c-af71-af5c5d54c8c2",
    "name": "Okres Děčín",
    "state_id": "4d81733c-3cb9-49b9-92f0-1916629a2b8d"
  },
  {
    "id": "00c58d25-4e68-4b83-8433-2aae26a9e290",
    "name": "Okres Litoměřice",
    "state_id": "4d81733c-3cb9-49b9-92f0-1916629a2b8d"
  },
  {
    "id": "0546c5a5-3c53-49ee-b5fe-1338344e2770",
    "name": "Okres Louny",
    "state_id": "4d81733c-3cb9-49b9-92f0-1916629a2b8d"
  },
  {
    "id": "c0490a2c-2d02-4c1c-bd3c-4130a5efeaa1",
    "name": "Okres Most",
    "state_id": "4d81733c-3cb9-49b9-92f0-1916629a2b8d"
  },
  {
    "id": "80d78208-e827-4ee6-a5e6-00d53701eb4c",
    "name": "Okres Teplice",
    "state_id": "4d81733c-3cb9-49b9-92f0-1916629a2b8d"
  },
  {
    "id": "1328e066-1c3f-42a5-afbc-a90f0005e606",
    "name": "Okres Ústí nad Labem",
    "state_id": "4d81733c-3cb9-49b9-92f0-1916629a2b8d"
  },
  {
    "id": "9df3e366-c614-4bde-b67a-de4c19f353fb",
    "name": "Osek",
    "state_id": "4d81733c-3cb9-49b9-92f0-1916629a2b8d"
  },
  {
    "id": "462c6438-73cc-477b-9c40-e3809dbbe98d",
    "name": "Perštejn",
    "state_id": "4d81733c-3cb9-49b9-92f0-1916629a2b8d"
  },
  {
    "id": "fc901d20-7644-46d4-a825-2541df9b86c4",
    "name": "Peruc",
    "state_id": "4d81733c-3cb9-49b9-92f0-1916629a2b8d"
  },
  {
    "id": "ceea6441-ca37-43e6-9ecf-2d35845ff18b",
    "name": "Podbořany",
    "state_id": "4d81733c-3cb9-49b9-92f0-1916629a2b8d"
  },
  {
    "id": "95307619-71bf-40a0-88db-89ce3b27bce3",
    "name": "Polepy",
    "state_id": "4d81733c-3cb9-49b9-92f0-1916629a2b8d"
  },
  {
    "id": "f5bafc82-fab4-4cdd-acaa-8cdc5254fe82",
    "name": "Postoloprty",
    "state_id": "4d81733c-3cb9-49b9-92f0-1916629a2b8d"
  },
  {
    "id": "422d4908-dd2b-4e2f-8ba1-a12b62f5e8c0",
    "name": "Povrly",
    "state_id": "4d81733c-3cb9-49b9-92f0-1916629a2b8d"
  },
  {
    "id": "e8f8382a-7390-4890-9d67-5221cec46f4f",
    "name": "Proboštov",
    "state_id": "4d81733c-3cb9-49b9-92f0-1916629a2b8d"
  },
  {
    "id": "83d90d97-97c4-4d34-ba99-e27b8f7a868e",
    "name": "Radonice",
    "state_id": "4d81733c-3cb9-49b9-92f0-1916629a2b8d"
  },
  {
    "id": "fb956a84-76fe-4c2b-a0e2-5d025612bb38",
    "name": "Řehlovice",
    "state_id": "4d81733c-3cb9-49b9-92f0-1916629a2b8d"
  },
  {
    "id": "a7cf3790-acf7-46df-96e1-3690c1b95e11",
    "name": "Roudnice nad Labem",
    "state_id": "4d81733c-3cb9-49b9-92f0-1916629a2b8d"
  },
  {
    "id": "9d8c650c-afdf-4b96-846c-c74fa5d1d3c4",
    "name": "Rumburk",
    "state_id": "4d81733c-3cb9-49b9-92f0-1916629a2b8d"
  },
  {
    "id": "7912cbac-da6d-4887-9fc4-522b06520a54",
    "name": "Šluknov",
    "state_id": "4d81733c-3cb9-49b9-92f0-1916629a2b8d"
  },
  {
    "id": "16a9ddd8-aa74-4397-8e87-f7d516917259",
    "name": "Staré Křečany",
    "state_id": "4d81733c-3cb9-49b9-92f0-1916629a2b8d"
  },
  {
    "id": "bfbcf426-6256-4719-a803-9ba33f9e0c59",
    "name": "Štětí",
    "state_id": "4d81733c-3cb9-49b9-92f0-1916629a2b8d"
  },
  {
    "id": "c4856f47-16c1-49f5-9679-0ae73bc3d7e0",
    "name": "Teplice",
    "state_id": "4d81733c-3cb9-49b9-92f0-1916629a2b8d"
  },
  {
    "id": "bb9e384d-17f0-4ab9-9cb7-617fc605727b",
    "name": "Terezín",
    "state_id": "4d81733c-3cb9-49b9-92f0-1916629a2b8d"
  },
  {
    "id": "608393c1-e074-4af2-b6a8-3d6a6ad8353d",
    "name": "Třebenice",
    "state_id": "4d81733c-3cb9-49b9-92f0-1916629a2b8d"
  },
  {
    "id": "23f9e9df-3ecb-4e6b-adbc-3f07bb0e39c2",
    "name": "Trmice",
    "state_id": "4d81733c-3cb9-49b9-92f0-1916629a2b8d"
  },
  {
    "id": "4d93ad2e-be0e-43fd-b946-05781b30524d",
    "name": "Údlice",
    "state_id": "4d81733c-3cb9-49b9-92f0-1916629a2b8d"
  },
  {
    "id": "1b1be19b-b84e-4e6c-a32e-3e5962fefb22",
    "name": "Úštěk",
    "state_id": "4d81733c-3cb9-49b9-92f0-1916629a2b8d"
  },
  {
    "id": "8d871a40-3406-4dd4-96dd-283527a0c0f8",
    "name": "Varnsdorf",
    "state_id": "4d81733c-3cb9-49b9-92f0-1916629a2b8d"
  },
  {
    "id": "05b32c37-1977-4299-bdf3-44d9bd24c267",
    "name": "Vejprty",
    "state_id": "4d81733c-3cb9-49b9-92f0-1916629a2b8d"
  },
  {
    "id": "eee50c70-5347-4b2d-9436-3292adeb747f",
    "name": "Velemín",
    "state_id": "4d81733c-3cb9-49b9-92f0-1916629a2b8d"
  },
  {
    "id": "cecafe92-780c-42d6-a620-80c94549317e",
    "name": "Velké Březno",
    "state_id": "4d81733c-3cb9-49b9-92f0-1916629a2b8d"
  },
  {
    "id": "b8216edb-19d0-4f61-98b3-779a99fbe90b",
    "name": "Velký Šenov",
    "state_id": "4d81733c-3cb9-49b9-92f0-1916629a2b8d"
  },
  {
    "id": "9590d8f9-0dc1-4a09-9782-f7eeb78309fe",
    "name": "Verneřice",
    "state_id": "4d81733c-3cb9-49b9-92f0-1916629a2b8d"
  },
  {
    "id": "2edcf808-d723-49ab-adfe-3b291fae9fb9",
    "name": "Vilémov",
    "state_id": "4d81733c-3cb9-49b9-92f0-1916629a2b8d"
  },
  {
    "id": "09f040d7-f876-4b98-923b-2db53dc40b0e",
    "name": "Vroutek",
    "state_id": "4d81733c-3cb9-49b9-92f0-1916629a2b8d"
  },
  {
    "id": "9bf36fd8-9418-4f46-a066-a6e526bc881b",
    "name": "Zabrušany",
    "state_id": "4d81733c-3cb9-49b9-92f0-1916629a2b8d"
  },
  {
    "id": "a0564c9d-48b2-409c-8fd7-4904f8a550be",
    "name": "Žatec",
    "state_id": "4d81733c-3cb9-49b9-92f0-1916629a2b8d"
  },
  {
    "id": "aa91db30-d39d-41ac-bc68-bdce1ca7782f",
    "name": "Žitenice",
    "state_id": "4d81733c-3cb9-49b9-92f0-1916629a2b8d"
  }
]