[
  {
    "id": "07c05b73-5523-4f4f-8a96-15bd57083d94",
    "name": "Abelardo L. Rodríguez",
    "state_id": "4d97b788-50e4-495b-b3eb-485a14bf2d26"
  },
  {
    "id": "563f02f2-3df2-4450-a695-8eab784ba7f2",
    "name": "Alfredo V. Bonfil",
    "state_id": "4d97b788-50e4-495b-b3eb-485a14bf2d26"
  },
  {
    "id": "839f1056-3cb6-4bb4-9172-ef452ab5eba5",
    "name": "Altamira de Zináparo",
    "state_id": "4d97b788-50e4-495b-b3eb-485a14bf2d26"
  },
  {
    "id": "e88049ba-0e0e-4ba0-bde7-09f44efd32b0",
    "name": "Atasta",
    "state_id": "4d97b788-50e4-495b-b3eb-485a14bf2d26"
  },
  {
    "id": "34cdbba1-11d9-44d2-9f1f-979047ca2970",
    "name": "Bacabchén",
    "state_id": "4d97b788-50e4-495b-b3eb-485a14bf2d26"
  },
  {
    "id": "4280ff38-ef5b-47f6-83f2-a7a20c1997ea",
    "name": "Bécal",
    "state_id": "4d97b788-50e4-495b-b3eb-485a14bf2d26"
  },
  {
    "id": "2ba64eb0-2649-4ea0-b5ed-628d08f2b401",
    "name": "Benito Juárez Uno",
    "state_id": "4d97b788-50e4-495b-b3eb-485a14bf2d26"
  },
  {
    "id": "9bc26f3c-0aa0-4fc0-974c-f8569a83996f",
    "name": "Bolonchén de Rejón",
    "state_id": "4d97b788-50e4-495b-b3eb-485a14bf2d26"
  },
  {
    "id": "e4541129-2c40-432b-a412-ade5ed5fae2c",
    "name": "Calakmul",
    "state_id": "4d97b788-50e4-495b-b3eb-485a14bf2d26"
  },
  {
    "id": "b640e680-a48f-4eef-a15b-5a4333320728",
    "name": "Calkiní",
    "state_id": "4d97b788-50e4-495b-b3eb-485a14bf2d26"
  },
  {
    "id": "08652d78-61e2-4e0e-ae3c-da985c3857ca",
    "name": "Campeche",
    "state_id": "4d97b788-50e4-495b-b3eb-485a14bf2d26"
  },
  {
    "id": "124deae2-dfd2-43b3-92ca-5711aeeda8d1",
    "name": "Candelaria",
    "state_id": "4d97b788-50e4-495b-b3eb-485a14bf2d26"
  },
  {
    "id": "194d9613-5e5a-435f-8097-778b472d54ec",
    "name": "Carmen",
    "state_id": "4d97b788-50e4-495b-b3eb-485a14bf2d26"
  },
  {
    "id": "cb731253-a1ed-49c4-8ed2-07bc243405df",
    "name": "Carrillo Puerto",
    "state_id": "4d97b788-50e4-495b-b3eb-485a14bf2d26"
  },
  {
    "id": "c56ff179-3a40-4504-b3a8-c2230dd1a3d7",
    "name": "Castamay",
    "state_id": "4d97b788-50e4-495b-b3eb-485a14bf2d26"
  },
  {
    "id": "576bb87f-3182-464e-b002-9b440503eca1",
    "name": "Champotón",
    "state_id": "4d97b788-50e4-495b-b3eb-485a14bf2d26"
  },
  {
    "id": "75f69a0b-e1bb-44ad-a0f4-0f0571ef780d",
    "name": "Chicbul",
    "state_id": "4d97b788-50e4-495b-b3eb-485a14bf2d26"
  },
  {
    "id": "f3a7e8b6-6e5d-49df-a857-e9149b0bb2fb",
    "name": "Chiná",
    "state_id": "4d97b788-50e4-495b-b3eb-485a14bf2d26"
  },
  {
    "id": "f385f262-c9fd-409f-ae93-7bb49815f7fe",
    "name": "Chunchintok",
    "state_id": "4d97b788-50e4-495b-b3eb-485a14bf2d26"
  },
  {
    "id": "36ae2695-783a-4e49-8196-67c6a916e915",
    "name": "Ciudad del Carmen",
    "state_id": "4d97b788-50e4-495b-b3eb-485a14bf2d26"
  },
  {
    "id": "85eab0a4-4f00-4f61-8dc2-c4ed2f93a59f",
    "name": "Colonia Emiliano Zapata",
    "state_id": "4d97b788-50e4-495b-b3eb-485a14bf2d26"
  },
  {
    "id": "037a4a0e-7751-4b41-ad3d-83988e0458ad",
    "name": "Constitución",
    "state_id": "4d97b788-50e4-495b-b3eb-485a14bf2d26"
  },
  {
    "id": "2c99f6b7-e68a-428b-9605-c0aeb6cc2681",
    "name": "Cumpich",
    "state_id": "4d97b788-50e4-495b-b3eb-485a14bf2d26"
  },
  {
    "id": "d69c7ad7-e525-4704-bdbc-cb4ac068e4ad",
    "name": "División del Norte",
    "state_id": "4d97b788-50e4-495b-b3eb-485a14bf2d26"
  },
  {
    "id": "af657489-3476-4a1b-817b-5c04c79d69f4",
    "name": "Don Samuel",
    "state_id": "4d97b788-50e4-495b-b3eb-485a14bf2d26"
  },
  {
    "id": "df68ac12-5bce-4a87-99b7-bd21992e5934",
    "name": "Dzibalchén",
    "state_id": "4d97b788-50e4-495b-b3eb-485a14bf2d26"
  },
  {
    "id": "3eac3108-78f1-42d6-8b2a-7d7e7398e960",
    "name": "Dzitbalché",
    "state_id": "4d97b788-50e4-495b-b3eb-485a14bf2d26"
  },
  {
    "id": "e748e0b0-8e18-41a6-bd69-c80feef29b20",
    "name": "El Aguacatal",
    "state_id": "4d97b788-50e4-495b-b3eb-485a14bf2d26"
  },
  {
    "id": "bf9683b9-7c8f-4128-b230-6b775a376e69",
    "name": "El Naranjo",
    "state_id": "4d97b788-50e4-495b-b3eb-485a14bf2d26"
  },
  {
    "id": "6a65da2a-8144-41cb-bde4-92091ad1cd19",
    "name": "Escárcega",
    "state_id": "4d97b788-50e4-495b-b3eb-485a14bf2d26"
  },
  {
    "id": "09ac146d-bfc1-4523-b05a-e2644ad5ea1e",
    "name": "Hampolol",
    "state_id": "4d97b788-50e4-495b-b3eb-485a14bf2d26"
  },
  {
    "id": "bcc0fd0e-537b-4e51-bcd0-adbb24adb9cd",
    "name": "Haro",
    "state_id": "4d97b788-50e4-495b-b3eb-485a14bf2d26"
  },
  {
    "id": "5611c6de-72a5-47e9-9713-ea5d51f688bf",
    "name": "Hecelchakán",
    "state_id": "4d97b788-50e4-495b-b3eb-485a14bf2d26"
  },
  {
    "id": "81aa8fc6-75a9-494e-87ff-f359d773a069",
    "name": "Hool",
    "state_id": "4d97b788-50e4-495b-b3eb-485a14bf2d26"
  },
  {
    "id": "0fbdee0f-82c8-4162-a594-a83295aa5641",
    "name": "Hopelchén",
    "state_id": "4d97b788-50e4-495b-b3eb-485a14bf2d26"
  },
  {
    "id": "46e5d7d0-9348-4bdf-8819-223c870409ed",
    "name": "Isla Aguada",
    "state_id": "4d97b788-50e4-495b-b3eb-485a14bf2d26"
  },
  {
    "id": "1b027068-1fb5-4f7d-8f95-b4dc7a010cd2",
    "name": "Iturbide",
    "state_id": "4d97b788-50e4-495b-b3eb-485a14bf2d26"
  },
  {
    "id": "26d7744d-703a-4eaf-be2c-601d3b37ffc7",
    "name": "La Joya",
    "state_id": "4d97b788-50e4-495b-b3eb-485a14bf2d26"
  },
  {
    "id": "b5b7177e-84a9-4b1d-832a-34fefffc1469",
    "name": "La Libertad",
    "state_id": "4d97b788-50e4-495b-b3eb-485a14bf2d26"
  },
  {
    "id": "6ae69848-a926-4ce0-baf1-219c3918774b",
    "name": "Lerma",
    "state_id": "4d97b788-50e4-495b-b3eb-485a14bf2d26"
  },
  {
    "id": "f31208a3-a6f1-420a-be03-dc801e68637b",
    "name": "Licenciado Gustavo Díaz Ordaz (18 de Marzo)",
    "state_id": "4d97b788-50e4-495b-b3eb-485a14bf2d26"
  },
  {
    "id": "07268c32-b537-4049-87ff-bd9066a841c8",
    "name": "Los Laureles",
    "state_id": "4d97b788-50e4-495b-b3eb-485a14bf2d26"
  },
  {
    "id": "9f24a362-ae19-4bca-8568-904b50c85a86",
    "name": "Mamantel",
    "state_id": "4d97b788-50e4-495b-b3eb-485a14bf2d26"
  },
  {
    "id": "58673b28-9629-4a4a-b26f-2e4f5143cfce",
    "name": "Matamoros",
    "state_id": "4d97b788-50e4-495b-b3eb-485a14bf2d26"
  },
  {
    "id": "72740805-79bb-4071-833a-7a04d2b0a2b9",
    "name": "Maya Tecún I",
    "state_id": "4d97b788-50e4-495b-b3eb-485a14bf2d26"
  },
  {
    "id": "2bf58750-a442-4ec9-83d2-e45cc2394511",
    "name": "Nuevo Progreso",
    "state_id": "4d97b788-50e4-495b-b3eb-485a14bf2d26"
  },
  {
    "id": "38b1a7c3-5394-4c20-9b82-50cc986c9e54",
    "name": "Nunkiní",
    "state_id": "4d97b788-50e4-495b-b3eb-485a14bf2d26"
  },
  {
    "id": "50f79981-02e1-47f3-bb21-b8aaa24169f1",
    "name": "Palizada",
    "state_id": "4d97b788-50e4-495b-b3eb-485a14bf2d26"
  },
  {
    "id": "b532e19c-cc80-47fa-a264-33a2891bbd2d",
    "name": "Pich",
    "state_id": "4d97b788-50e4-495b-b3eb-485a14bf2d26"
  },
  {
    "id": "ee87fc3f-0491-41d0-8cf1-6e20489c1d7e",
    "name": "Pocboc",
    "state_id": "4d97b788-50e4-495b-b3eb-485a14bf2d26"
  },
  {
    "id": "c67c2574-8f6b-4c3f-ab85-c6281c576239",
    "name": "Pomuch",
    "state_id": "4d97b788-50e4-495b-b3eb-485a14bf2d26"
  },
  {
    "id": "7a6461f5-6d9f-4af7-92d9-ac7c6f9bdc25",
    "name": "Sabancuy",
    "state_id": "4d97b788-50e4-495b-b3eb-485a14bf2d26"
  },
  {
    "id": "09717429-b748-44ca-b9f9-4bcd87e22bb4",
    "name": "San Antonio Cárdenas",
    "state_id": "4d97b788-50e4-495b-b3eb-485a14bf2d26"
  },
  {
    "id": "7e9a0777-b86b-43fd-8c6c-2a359402a701",
    "name": "San Antonio Sahcabchén",
    "state_id": "4d97b788-50e4-495b-b3eb-485a14bf2d26"
  },
  {
    "id": "5d7e72b1-db99-49f8-9e78-8d96406dd6a3",
    "name": "San Francisco Kobén",
    "state_id": "4d97b788-50e4-495b-b3eb-485a14bf2d26"
  },
  {
    "id": "a2699a45-c3af-41bc-ae87-0f18954e9d45",
    "name": "San Pablo Pixtún",
    "state_id": "4d97b788-50e4-495b-b3eb-485a14bf2d26"
  },
  {
    "id": "e36ff03e-0be4-4e53-8e6d-077a41a23f08",
    "name": "Santa Cruz",
    "state_id": "4d97b788-50e4-495b-b3eb-485a14bf2d26"
  },
  {
    "id": "9870bed6-dcc8-4a22-93ad-1cf15458c140",
    "name": "Santa Cruz Ex-Hacienda",
    "state_id": "4d97b788-50e4-495b-b3eb-485a14bf2d26"
  },
  {
    "id": "947ef9a6-5af7-4baa-8c85-b7cca871bbf4",
    "name": "Santa Cruz Pueblo",
    "state_id": "4d97b788-50e4-495b-b3eb-485a14bf2d26"
  },
  {
    "id": "f7f095e9-fca9-4055-875f-910f7043f465",
    "name": "Santo Domingo Kesté",
    "state_id": "4d97b788-50e4-495b-b3eb-485a14bf2d26"
  },
  {
    "id": "6719e47f-6532-4c43-8e40-1e2d1ca85622",
    "name": "Seybaplaya",
    "state_id": "4d97b788-50e4-495b-b3eb-485a14bf2d26"
  },
  {
    "id": "14b91f03-297f-41a1-b1bb-0dcd750af14f",
    "name": "Sihochac",
    "state_id": "4d97b788-50e4-495b-b3eb-485a14bf2d26"
  },
  {
    "id": "7a658fd2-2af9-40b1-8620-957ec57536bb",
    "name": "Suc-Tuc",
    "state_id": "4d97b788-50e4-495b-b3eb-485a14bf2d26"
  },
  {
    "id": "ee44d4ad-e9e2-4b4d-bb65-cb1d73476e03",
    "name": "Tankuché",
    "state_id": "4d97b788-50e4-495b-b3eb-485a14bf2d26"
  },
  {
    "id": "30dfee8f-05c7-4140-8b54-da09a591e833",
    "name": "Tenabo",
    "state_id": "4d97b788-50e4-495b-b3eb-485a14bf2d26"
  },
  {
    "id": "68898a2d-8ec0-464b-9cbb-c9fa19913358",
    "name": "Tepakán",
    "state_id": "4d97b788-50e4-495b-b3eb-485a14bf2d26"
  },
  {
    "id": "2b7c4569-36e6-452b-9ef3-8e29584c3332",
    "name": "Tikinmul",
    "state_id": "4d97b788-50e4-495b-b3eb-485a14bf2d26"
  },
  {
    "id": "47688ad6-2d75-4493-af86-fd99f7dd2e85",
    "name": "Ukúm",
    "state_id": "4d97b788-50e4-495b-b3eb-485a14bf2d26"
  },
  {
    "id": "4ca191cf-30b8-468e-b1e1-b9665ac24623",
    "name": "Villa Madero",
    "state_id": "4d97b788-50e4-495b-b3eb-485a14bf2d26"
  },
  {
    "id": "437d8729-6193-4aed-bc51-7966e010d5bd",
    "name": "Xbacab",
    "state_id": "4d97b788-50e4-495b-b3eb-485a14bf2d26"
  },
  {
    "id": "9f9cc471-72b7-4c74-9d4a-3fc98846e586",
    "name": "Xmabén",
    "state_id": "4d97b788-50e4-495b-b3eb-485a14bf2d26"
  },
  {
    "id": "29b1c58d-31a3-4e36-abf9-66be8ff87eaf",
    "name": "Xpujil",
    "state_id": "4d97b788-50e4-495b-b3eb-485a14bf2d26"
  },
  {
    "id": "71b3c2c7-9de2-4eaa-9678-bfebfe3df876",
    "name": "Zoh-Laguna",
    "state_id": "4d97b788-50e4-495b-b3eb-485a14bf2d26"
  }
]