[
  {
    "id": "e1b6f3d9-bc92-43e1-a3e8-b803f8ecd790",
    "name": "Alberton",
    "state_id": "4e6a21d5-fc96-4b3a-87b8-c0a7c43caa3c"
  },
  {
    "id": "320aaa85-5dd8-4b36-9c67-05d6503b53f8",
    "name": "Belfast",
    "state_id": "4e6a21d5-fc96-4b3a-87b8-c0a7c43caa3c"
  },
  {
    "id": "117ab833-45a3-48cf-bbb4-075251d889ad",
    "name": "Charlottetown",
    "state_id": "4e6a21d5-fc96-4b3a-87b8-c0a7c43caa3c"
  },
  {
    "id": "f21f898d-5220-4e80-8f05-55a6c48f5aa2",
    "name": "Cornwall",
    "state_id": "4e6a21d5-fc96-4b3a-87b8-c0a7c43caa3c"
  },
  {
    "id": "9a710747-3655-414b-992e-4bc457c24e0f",
    "name": "Fallingbrook",
    "state_id": "4e6a21d5-fc96-4b3a-87b8-c0a7c43caa3c"
  },
  {
    "id": "c20b6f7d-89ae-4bdd-b593-61d618756a4c",
    "name": "Kensington",
    "state_id": "4e6a21d5-fc96-4b3a-87b8-c0a7c43caa3c"
  },
  {
    "id": "138a0c11-0e58-4147-bf4d-bcfe691bd155",
    "name": "Montague",
    "state_id": "4e6a21d5-fc96-4b3a-87b8-c0a7c43caa3c"
  },
  {
    "id": "e7516760-f40a-4263-8abe-b20d37e471ee",
    "name": "Souris",
    "state_id": "4e6a21d5-fc96-4b3a-87b8-c0a7c43caa3c"
  },
  {
    "id": "822c8dfb-48b9-40e3-89c1-ea14a0735f7a",
    "name": "Summerside",
    "state_id": "4e6a21d5-fc96-4b3a-87b8-c0a7c43caa3c"
  }
]