[
  {
    "id": "408c5113-a27f-4b52-9c14-e8ce32c23dca",
    "name": "Beïnamar",
    "state_id": "4ed4035d-27d1-4e46-a644-33400ab316a6"
  },
  {
    "id": "6c3f223a-093c-4870-8cdb-7c5bf7fcaec8",
    "name": "Benoy",
    "state_id": "4ed4035d-27d1-4e46-a644-33400ab316a6"
  },
  {
    "id": "d2c046a6-d52f-46b0-bcd0-bd3d429310a6",
    "name": "Lac Wey",
    "state_id": "4ed4035d-27d1-4e46-a644-33400ab316a6"
  },
  {
    "id": "5d626dd4-693e-4218-875f-995ce5ca2532",
    "name": "Moundou",
    "state_id": "4ed4035d-27d1-4e46-a644-33400ab316a6"
  }
]