[
  {
    "id": "08c74ac8-a0e9-4d6a-b0af-9b7944a12e60",
    "name": "Ad Dindar",
    "state_id": "4ee2fc44-ee75-4775-a5e4-aa4d7888657a"
  },
  {
    "id": "5e9bcaf9-4630-4cb4-96c5-f523aa9d366c",
    "name": "As Sūkī",
    "state_id": "4ee2fc44-ee75-4775-a5e4-aa4d7888657a"
  },
  {
    "id": "1c94a1fb-cee6-4273-a3d6-e8ff7dc9c0c6",
    "name": "Jalqani",
    "state_id": "4ee2fc44-ee75-4775-a5e4-aa4d7888657a"
  },
  {
    "id": "96bcbd50-9bb9-433b-b348-59781c6880f2",
    "name": "Kināna",
    "state_id": "4ee2fc44-ee75-4775-a5e4-aa4d7888657a"
  },
  {
    "id": "4bfbb545-9709-4ae1-846f-bc929ed84cf6",
    "name": "Maiurno",
    "state_id": "4ee2fc44-ee75-4775-a5e4-aa4d7888657a"
  },
  {
    "id": "a7300702-299c-4659-b5a6-cbf02b9774b6",
    "name": "Singa",
    "state_id": "4ee2fc44-ee75-4775-a5e4-aa4d7888657a"
  },
  {
    "id": "f88975da-ec98-4586-8315-cbfe62f45bed",
    "name": "Sinnar",
    "state_id": "4ee2fc44-ee75-4775-a5e4-aa4d7888657a"
  }
]