[
  {
    "id": "30d81ca4-acd1-473e-b48a-8fdb9dde6f26",
    "name": "Adıyaman",
    "state_id": "4eee62b4-1883-4a15-b3bf-ef477959a38e"
  },
  {
    "id": "07e54c3c-3e06-4cca-a686-73d4f0b88802",
    "name": "Aralık İlçesi",
    "state_id": "4eee62b4-1883-4a15-b3bf-ef477959a38e"
  },
  {
    "id": "18b79829-7164-4dd8-9e56-185b3667c558",
    "name": "Besni",
    "state_id": "4eee62b4-1883-4a15-b3bf-ef477959a38e"
  },
  {
    "id": "9dc12920-ee13-48a8-93d4-246445315822",
    "name": "Çelikhan",
    "state_id": "4eee62b4-1883-4a15-b3bf-ef477959a38e"
  },
  {
    "id": "4b966eb3-db67-49cb-b2f7-09e232328ae9",
    "name": "Gerger",
    "state_id": "4eee62b4-1883-4a15-b3bf-ef477959a38e"
  },
  {
    "id": "2b025d60-f1bc-4672-8256-d3bc70375854",
    "name": "Gölbaşı",
    "state_id": "4eee62b4-1883-4a15-b3bf-ef477959a38e"
  },
  {
    "id": "f207c235-8860-4420-9028-6a3598dbbca9",
    "name": "Kâhta",
    "state_id": "4eee62b4-1883-4a15-b3bf-ef477959a38e"
  },
  {
    "id": "21967beb-8ecf-4197-9231-825ac23a499e",
    "name": "Merkez",
    "state_id": "4eee62b4-1883-4a15-b3bf-ef477959a38e"
  },
  {
    "id": "0816291e-17ae-46db-9531-1815c90a6c83",
    "name": "Samsat",
    "state_id": "4eee62b4-1883-4a15-b3bf-ef477959a38e"
  },
  {
    "id": "b35a3f96-4b9a-4491-a0bb-8b621a53047f",
    "name": "Sincik",
    "state_id": "4eee62b4-1883-4a15-b3bf-ef477959a38e"
  },
  {
    "id": "77114b81-2af3-43fd-9e91-5126611c0b01",
    "name": "Tut",
    "state_id": "4eee62b4-1883-4a15-b3bf-ef477959a38e"
  }
]