[
  {
    "id": "b64a2bd0-2efa-4568-962d-4487ae861aad",
    "name": "Amphoe Khun Yuam",
    "state_id": "4ef064de-4c15-45bc-b6e6-1037cff6f6f7"
  },
  {
    "id": "ea3b1c80-e4a1-4f48-90ea-fae9778518d4",
    "name": "Amphoe Mae La Noi",
    "state_id": "4ef064de-4c15-45bc-b6e6-1037cff6f6f7"
  },
  {
    "id": "7fff5b9d-0f4d-47b6-8b41-82f559093937",
    "name": "Amphoe Mae Sariang",
    "state_id": "4ef064de-4c15-45bc-b6e6-1037cff6f6f7"
  },
  {
    "id": "62b54ebb-355d-486d-b795-1591a80c52d0",
    "name": "Amphoe Mueang Mae Hong Son",
    "state_id": "4ef064de-4c15-45bc-b6e6-1037cff6f6f7"
  },
  {
    "id": "19b7d1a5-4223-4e0f-82a6-bdc59f8b45fe",
    "name": "Amphoe Pai",
    "state_id": "4ef064de-4c15-45bc-b6e6-1037cff6f6f7"
  },
  {
    "id": "2eed7ff8-fddd-4438-87a2-ed2a290db16e",
    "name": "Amphoe Pang Mapha",
    "state_id": "4ef064de-4c15-45bc-b6e6-1037cff6f6f7"
  },
  {
    "id": "208d17f6-c844-4990-a19d-a9d665f02571",
    "name": "Amphoe Sop Moei",
    "state_id": "4ef064de-4c15-45bc-b6e6-1037cff6f6f7"
  },
  {
    "id": "b26ebebb-437e-4a9a-b8f1-ac4a78c2b377",
    "name": "Mae Hong Son",
    "state_id": "4ef064de-4c15-45bc-b6e6-1037cff6f6f7"
  }
]