[
  {
    "id": "62db33b0-c200-447b-bc75-8ad0d9173469",
    "name": "Andrijaševci",
    "state_id": "4f15a008-731b-4328-94d6-b91e9617713e"
  },
  {
    "id": "0493b9f8-1cdd-4e71-aa11-577a9ae3d871",
    "name": "Babina Greda",
    "state_id": "4f15a008-731b-4328-94d6-b91e9617713e"
  },
  {
    "id": "4f736d02-c3a7-40f8-ba6a-4456e21d291e",
    "name": "Bobota",
    "state_id": "4f15a008-731b-4328-94d6-b91e9617713e"
  },
  {
    "id": "d863f118-9b5a-4cc4-88c6-20ecf9a42e78",
    "name": "Bogdanovci",
    "state_id": "4f15a008-731b-4328-94d6-b91e9617713e"
  },
  {
    "id": "ba41e7ca-2aff-4967-9963-2e4dfca2d169",
    "name": "Borovo",
    "state_id": "4f15a008-731b-4328-94d6-b91e9617713e"
  },
  {
    "id": "4a623319-8792-47bb-a6f7-e7c5ab3acdf6",
    "name": "Borovo Selo",
    "state_id": "4f15a008-731b-4328-94d6-b91e9617713e"
  },
  {
    "id": "d7d48f35-51cc-4f42-81b2-2b61a6013764",
    "name": "Bošnjaci",
    "state_id": "4f15a008-731b-4328-94d6-b91e9617713e"
  },
  {
    "id": "d7756573-4adb-4716-b961-b5266078ea42",
    "name": "Bršadin",
    "state_id": "4f15a008-731b-4328-94d6-b91e9617713e"
  },
  {
    "id": "812a37f8-0d0d-4b6c-86e1-4c552705f1a9",
    "name": "Cerić",
    "state_id": "4f15a008-731b-4328-94d6-b91e9617713e"
  },
  {
    "id": "f1413b0e-174b-4125-9d3b-62e4230d133a",
    "name": "Cerna",
    "state_id": "4f15a008-731b-4328-94d6-b91e9617713e"
  },
  {
    "id": "85429ef4-e1b9-44db-a5cf-894dcfddd5dc",
    "name": "Drenovci",
    "state_id": "4f15a008-731b-4328-94d6-b91e9617713e"
  },
  {
    "id": "7a32c615-4b38-4440-8bd1-50ee0baa9b5f",
    "name": "Grad Vinkovci",
    "state_id": "4f15a008-731b-4328-94d6-b91e9617713e"
  },
  {
    "id": "6fca591b-3b82-40b2-b481-9a205bf7fd0a",
    "name": "Grad Vukovar",
    "state_id": "4f15a008-731b-4328-94d6-b91e9617713e"
  },
  {
    "id": "ffd1c92a-c070-4f32-83f7-4b30f515e780",
    "name": "Grad Županja",
    "state_id": "4f15a008-731b-4328-94d6-b91e9617713e"
  },
  {
    "id": "8b321af1-abb7-487c-ae1d-0fe6ea6f83c8",
    "name": "Gradište",
    "state_id": "4f15a008-731b-4328-94d6-b91e9617713e"
  },
  {
    "id": "bd3a3e95-6b08-4313-9db4-6604abd0535b",
    "name": "Gunja",
    "state_id": "4f15a008-731b-4328-94d6-b91e9617713e"
  },
  {
    "id": "f0dc553f-9fc5-420f-9b07-b66187955102",
    "name": "Ilok",
    "state_id": "4f15a008-731b-4328-94d6-b91e9617713e"
  },
  {
    "id": "571c280a-548d-4bf6-b533-4713de702ea2",
    "name": "Ivankovo",
    "state_id": "4f15a008-731b-4328-94d6-b91e9617713e"
  },
  {
    "id": "72a813d1-c4b6-47c3-997b-428eedab0334",
    "name": "Jarmina",
    "state_id": "4f15a008-731b-4328-94d6-b91e9617713e"
  },
  {
    "id": "bb74241b-fbd5-4144-848d-c3c5d3a5318c",
    "name": "Komletinci",
    "state_id": "4f15a008-731b-4328-94d6-b91e9617713e"
  },
  {
    "id": "fbab0f64-9dca-4264-a582-cab4ad7a23f3",
    "name": "Lovas",
    "state_id": "4f15a008-731b-4328-94d6-b91e9617713e"
  },
  {
    "id": "538fb31b-b40c-4888-8e76-952c8d4d2b17",
    "name": "Markušica",
    "state_id": "4f15a008-731b-4328-94d6-b91e9617713e"
  },
  {
    "id": "e3e12fa6-294e-4326-99f9-778d5b02938e",
    "name": "Mirkovci",
    "state_id": "4f15a008-731b-4328-94d6-b91e9617713e"
  },
  {
    "id": "86289d31-70df-437f-88ff-9c70cfdc7662",
    "name": "Negoslavci",
    "state_id": "4f15a008-731b-4328-94d6-b91e9617713e"
  },
  {
    "id": "2ec1e950-f8ad-48c3-9841-4ab535d99df0",
    "name": "Nijemci",
    "state_id": "4f15a008-731b-4328-94d6-b91e9617713e"
  },
  {
    "id": "0d55abfd-f0bc-4b0b-ac31-fe5e71310dda",
    "name": "Nuštar",
    "state_id": "4f15a008-731b-4328-94d6-b91e9617713e"
  },
  {
    "id": "62e7b3e6-aa1b-4afd-9800-f352bd6e003d",
    "name": "Otok",
    "state_id": "4f15a008-731b-4328-94d6-b91e9617713e"
  },
  {
    "id": "4fce62c3-135b-4398-82d6-b1fe797c8d2d",
    "name": "Privlaka",
    "state_id": "4f15a008-731b-4328-94d6-b91e9617713e"
  },
  {
    "id": "9dbc3376-db4d-4e95-bc79-77c5cf404640",
    "name": "Retkovci",
    "state_id": "4f15a008-731b-4328-94d6-b91e9617713e"
  },
  {
    "id": "4fa3521b-9745-46f1-8eed-1509b3e80d8d",
    "name": "Rokovci",
    "state_id": "4f15a008-731b-4328-94d6-b91e9617713e"
  },
  {
    "id": "d9ff3030-50d9-4eac-bf8d-748068c2327a",
    "name": "Soljani",
    "state_id": "4f15a008-731b-4328-94d6-b91e9617713e"
  },
  {
    "id": "543b5d99-9ce8-4149-9a29-332b80da6194",
    "name": "Stari Jankovci",
    "state_id": "4f15a008-731b-4328-94d6-b91e9617713e"
  },
  {
    "id": "dfba5e85-7b11-42f2-940a-d8ff0396ccd7",
    "name": "Štitar",
    "state_id": "4f15a008-731b-4328-94d6-b91e9617713e"
  },
  {
    "id": "80026d4b-ec0f-4e0d-95be-af657824e129",
    "name": "Tordinci",
    "state_id": "4f15a008-731b-4328-94d6-b91e9617713e"
  },
  {
    "id": "c84e5b1b-56f9-42c1-a890-3607aed2b4b2",
    "name": "Tovarnik",
    "state_id": "4f15a008-731b-4328-94d6-b91e9617713e"
  },
  {
    "id": "5deedd42-489f-4106-9f53-183e06a25f8e",
    "name": "Trpinja",
    "state_id": "4f15a008-731b-4328-94d6-b91e9617713e"
  },
  {
    "id": "094f8587-ccb2-4988-b495-6f6ecc12a8cf",
    "name": "Vinkovci",
    "state_id": "4f15a008-731b-4328-94d6-b91e9617713e"
  },
  {
    "id": "00b19381-2c2c-4b47-969b-5247ff43cf35",
    "name": "Vođinci",
    "state_id": "4f15a008-731b-4328-94d6-b91e9617713e"
  },
  {
    "id": "51a10980-2092-4835-9856-d4bc41d93f88",
    "name": "Vrbanja",
    "state_id": "4f15a008-731b-4328-94d6-b91e9617713e"
  },
  {
    "id": "b1657b7c-a670-46eb-98ab-d9f839c8bcf2",
    "name": "Vukovar",
    "state_id": "4f15a008-731b-4328-94d6-b91e9617713e"
  },
  {
    "id": "fceafdcb-4225-4398-8f02-a603d06c93c8",
    "name": "Županja",
    "state_id": "4f15a008-731b-4328-94d6-b91e9617713e"
  }
]