[
  {
    "id": "eacffeef-a298-4bf6-aa83-f69f23e4272d",
    "name": "Agrínio",
    "state_id": "4f35ed94-41fd-4946-873d-feef2e38793f"
  },
  {
    "id": "6f1e395c-3acf-4120-8e56-8355b0285d0e",
    "name": "Aígio",
    "state_id": "4f35ed94-41fd-4946-873d-feef2e38793f"
  },
  {
    "id": "3a1cd401-6c51-4b82-a31a-d69c66e99109",
    "name": "Aitolikó",
    "state_id": "4f35ed94-41fd-4946-873d-feef2e38793f"
  },
  {
    "id": "14be845b-941e-4caf-9268-5621f748afeb",
    "name": "Aíyira",
    "state_id": "4f35ed94-41fd-4946-873d-feef2e38793f"
  },
  {
    "id": "cca1bf53-a8f3-4503-8584-b6e6d4aa4989",
    "name": "Akráta",
    "state_id": "4f35ed94-41fd-4946-873d-feef2e38793f"
  },
  {
    "id": "91d4b367-7dbf-4012-83c7-226b6c58ba98",
    "name": "Aktaío",
    "state_id": "4f35ed94-41fd-4946-873d-feef2e38793f"
  },
  {
    "id": "9a3aa62b-f3da-4ea4-88f5-6a826644542d",
    "name": "Alfeioúsa",
    "state_id": "4f35ed94-41fd-4946-873d-feef2e38793f"
  },
  {
    "id": "9bc3cff6-42a4-4e36-bb75-40c6d685906b",
    "name": "Amaliáda",
    "state_id": "4f35ed94-41fd-4946-873d-feef2e38793f"
  },
  {
    "id": "5ef13271-fdcf-4523-90bf-b4b2a3805cde",
    "name": "Amfilochía",
    "state_id": "4f35ed94-41fd-4946-873d-feef2e38793f"
  },
  {
    "id": "a3138c29-1d14-4d52-8750-a745b3ab118c",
    "name": "Andravída",
    "state_id": "4f35ed94-41fd-4946-873d-feef2e38793f"
  },
  {
    "id": "10e479c2-1c6b-4d48-80f4-98a5d54ebad5",
    "name": "Angelókastro",
    "state_id": "4f35ed94-41fd-4946-873d-feef2e38793f"
  },
  {
    "id": "964668ce-3de9-40bc-9a58-32ffd82eae97",
    "name": "Áno Kastrítsi",
    "state_id": "4f35ed94-41fd-4946-873d-feef2e38793f"
  },
  {
    "id": "4d8b66ed-a5bf-495c-8589-62d666ba56b1",
    "name": "Antirrio",
    "state_id": "4f35ed94-41fd-4946-873d-feef2e38793f"
  },
  {
    "id": "e41019ea-c171-43b4-ac03-28472744a357",
    "name": "Archaía Olympía",
    "state_id": "4f35ed94-41fd-4946-873d-feef2e38793f"
  },
  {
    "id": "447ce13c-a5c8-4950-8074-0ee8e821db66",
    "name": "Archontochóri",
    "state_id": "4f35ed94-41fd-4946-873d-feef2e38793f"
  },
  {
    "id": "bb750815-9c16-4e33-9b12-4908c8171e95",
    "name": "Arkoúdi",
    "state_id": "4f35ed94-41fd-4946-873d-feef2e38793f"
  },
  {
    "id": "cf998b88-4f23-46a8-ad23-a63fe745815e",
    "name": "Astakós",
    "state_id": "4f35ed94-41fd-4946-873d-feef2e38793f"
  },
  {
    "id": "0c2edb12-a31a-4651-a40d-9cb4d04ed254",
    "name": "Áyios Konstandínos",
    "state_id": "4f35ed94-41fd-4946-873d-feef2e38793f"
  },
  {
    "id": "3dfe4266-c64e-4b7c-8992-0ed3c80b864d",
    "name": "Chalandrítsa",
    "state_id": "4f35ed94-41fd-4946-873d-feef2e38793f"
  },
  {
    "id": "67cc322a-56fa-4bc3-836d-289e89c27df6",
    "name": "Chávari",
    "state_id": "4f35ed94-41fd-4946-873d-feef2e38793f"
  },
  {
    "id": "ecbf475b-879e-4e7d-837e-8696798f98bd",
    "name": "Dhokímion",
    "state_id": "4f35ed94-41fd-4946-873d-feef2e38793f"
  },
  {
    "id": "ae1114da-3528-4457-9759-ae76274f45e0",
    "name": "Epitálio",
    "state_id": "4f35ed94-41fd-4946-873d-feef2e38793f"
  },
  {
    "id": "f5de7815-eb6d-4713-b553-03b3c59da33d",
    "name": "Fyteíes",
    "state_id": "4f35ed94-41fd-4946-873d-feef2e38793f"
  },
  {
    "id": "5056024a-895b-4696-b317-6353d8127bee",
    "name": "Galatás",
    "state_id": "4f35ed94-41fd-4946-873d-feef2e38793f"
  },
  {
    "id": "f01f08b2-0ef1-413c-b597-ef5bca227579",
    "name": "Gastoúni",
    "state_id": "4f35ed94-41fd-4946-873d-feef2e38793f"
  },
  {
    "id": "126cab59-7d11-4a65-a0a9-305401bc3e89",
    "name": "Gavaloú",
    "state_id": "4f35ed94-41fd-4946-873d-feef2e38793f"
  },
  {
    "id": "1af19902-aecf-4b68-bba2-cd90332df44a",
    "name": "Goúmero",
    "state_id": "4f35ed94-41fd-4946-873d-feef2e38793f"
  },
  {
    "id": "f8a41af3-47f0-4383-aa2b-63d2d5da1164",
    "name": "Kainoúryion",
    "state_id": "4f35ed94-41fd-4946-873d-feef2e38793f"
  },
  {
    "id": "a7ed1c44-8382-4346-97c3-848be9884169",
    "name": "Kalávryta",
    "state_id": "4f35ed94-41fd-4946-873d-feef2e38793f"
  },
  {
    "id": "3f5e34f7-d6f5-4dda-8f0d-6076aeb65ace",
    "name": "Kamárai",
    "state_id": "4f35ed94-41fd-4946-873d-feef2e38793f"
  },
  {
    "id": "d6162fc0-4999-4c79-b8e6-6156e2185f3f",
    "name": "Kandíla",
    "state_id": "4f35ed94-41fd-4946-873d-feef2e38793f"
  },
  {
    "id": "a14dfd9c-494f-4cf9-b772-1843038c078c",
    "name": "Karátoula",
    "state_id": "4f35ed94-41fd-4946-873d-feef2e38793f"
  },
  {
    "id": "6850a24a-b129-408f-af88-fdb2fcfd6708",
    "name": "Kardamás",
    "state_id": "4f35ed94-41fd-4946-873d-feef2e38793f"
  },
  {
    "id": "314fa32f-8046-4d5a-a1d1-c60d387f993e",
    "name": "Káto Achaḯa",
    "state_id": "4f35ed94-41fd-4946-873d-feef2e38793f"
  },
  {
    "id": "75fd252a-2c72-4160-b15a-fcbdc6f3f9e9",
    "name": "Káto Mazaráki",
    "state_id": "4f35ed94-41fd-4946-873d-feef2e38793f"
  },
  {
    "id": "34b41e19-fd50-4cd9-8015-66b1bf9271a0",
    "name": "Katochí",
    "state_id": "4f35ed94-41fd-4946-873d-feef2e38793f"
  },
  {
    "id": "f933c6f9-bf44-4f81-bcff-7f84ff98de58",
    "name": "Katoúna",
    "state_id": "4f35ed94-41fd-4946-873d-feef2e38793f"
  },
  {
    "id": "4db7d78d-82b2-4b28-b44f-45962849fe89",
    "name": "Kavásila",
    "state_id": "4f35ed94-41fd-4946-873d-feef2e38793f"
  },
  {
    "id": "575f041e-7883-47fb-9442-5fb5f8f12f5f",
    "name": "Kréstena",
    "state_id": "4f35ed94-41fd-4946-873d-feef2e38793f"
  },
  {
    "id": "d97e64a9-4e50-4328-a098-380be1bf29eb",
    "name": "Kríkellos",
    "state_id": "4f35ed94-41fd-4946-873d-feef2e38793f"
  },
  {
    "id": "17858710-eb8f-419b-830e-09d8e546e0f1",
    "name": "Kyllíni",
    "state_id": "4f35ed94-41fd-4946-873d-feef2e38793f"
  },
  {
    "id": "7821e16c-f6f1-4636-a8b1-8130e84317cb",
    "name": "Lálas",
    "state_id": "4f35ed94-41fd-4946-873d-feef2e38793f"
  },
  {
    "id": "17b8b519-b860-43a7-96bc-4e0cf308e250",
    "name": "Lápas",
    "state_id": "4f35ed94-41fd-4946-873d-feef2e38793f"
  },
  {
    "id": "b6f89233-e07b-4f3d-b147-1264b3cf4835",
    "name": "Lechainá",
    "state_id": "4f35ed94-41fd-4946-873d-feef2e38793f"
  },
  {
    "id": "406feecd-36d7-446b-8352-e07433d40e8c",
    "name": "Lepenoú",
    "state_id": "4f35ed94-41fd-4946-873d-feef2e38793f"
  },
  {
    "id": "b1b1b7c7-c936-43b9-8c09-040fdffefc67",
    "name": "Limnokhórion",
    "state_id": "4f35ed94-41fd-4946-873d-feef2e38793f"
  },
  {
    "id": "bb329e0a-f39b-48d9-a174-3e5f4a15e175",
    "name": "Makrísia",
    "state_id": "4f35ed94-41fd-4946-873d-feef2e38793f"
  },
  {
    "id": "ceddda15-4b4c-4542-9021-0b11a552563f",
    "name": "Manoláda",
    "state_id": "4f35ed94-41fd-4946-873d-feef2e38793f"
  },
  {
    "id": "c7324c7d-fbb2-4a25-b665-eb669a0d03be",
    "name": "Mataránga",
    "state_id": "4f35ed94-41fd-4946-873d-feef2e38793f"
  },
  {
    "id": "e32d52ae-0087-4929-92e6-db7b40f8363e",
    "name": "Megáli Khóra",
    "state_id": "4f35ed94-41fd-4946-873d-feef2e38793f"
  },
  {
    "id": "224c8e21-b3b6-4a0c-a4e2-d50dc4274464",
    "name": "Menídi",
    "state_id": "4f35ed94-41fd-4946-873d-feef2e38793f"
  },
  {
    "id": "f643bc33-bffa-4819-87bd-88ea9cd6f0c1",
    "name": "Mesolóngi",
    "state_id": "4f35ed94-41fd-4946-873d-feef2e38793f"
  },
  {
    "id": "29e43ec7-082a-4b95-8e97-ebde6d8c2f78",
    "name": "Mindilóglion",
    "state_id": "4f35ed94-41fd-4946-873d-feef2e38793f"
  },
  {
    "id": "05924d88-cd76-4335-a1e3-9d7709592029",
    "name": "Monastiráki",
    "state_id": "4f35ed94-41fd-4946-873d-feef2e38793f"
  },
  {
    "id": "e110cd92-65cd-427a-85f1-b387c6de7ee0",
    "name": "Myrsíni",
    "state_id": "4f35ed94-41fd-4946-873d-feef2e38793f"
  },
  {
    "id": "678bb320-81ac-4dd1-ad71-d0e400238556",
    "name": "Náfpaktos",
    "state_id": "4f35ed94-41fd-4946-873d-feef2e38793f"
  },
  {
    "id": "1380efcd-eeac-40b6-b7f8-991080fd1090",
    "name": "Néa Manoláda",
    "state_id": "4f35ed94-41fd-4946-873d-feef2e38793f"
  },
  {
    "id": "91238f34-af07-452b-b954-97f2be695a4b",
    "name": "Neápolis",
    "state_id": "4f35ed94-41fd-4946-873d-feef2e38793f"
  },
  {
    "id": "73423f65-0a57-457b-a7f7-c25bd527f2b8",
    "name": "Neochóri",
    "state_id": "4f35ed94-41fd-4946-873d-feef2e38793f"
  },
  {
    "id": "c9667ee9-5354-468a-a2d6-237d77fd2491",
    "name": "Neochórion",
    "state_id": "4f35ed94-41fd-4946-873d-feef2e38793f"
  },
  {
    "id": "2992aa71-1a57-471a-8d52-eb951fd23d96",
    "name": "Nomós Achaḯas",
    "state_id": "4f35ed94-41fd-4946-873d-feef2e38793f"
  },
  {
    "id": "a51d8054-d46d-41ef-83db-dfd826714351",
    "name": "Nomós Aitolías kai Akarnanías",
    "state_id": "4f35ed94-41fd-4946-873d-feef2e38793f"
  },
  {
    "id": "011dd9dc-f30f-4e05-851e-1c1839ac5609",
    "name": "Nomós Ileías",
    "state_id": "4f35ed94-41fd-4946-873d-feef2e38793f"
  },
  {
    "id": "f473f33a-795f-4162-b190-4494556543b4",
    "name": "Ovriá",
    "state_id": "4f35ed94-41fd-4946-873d-feef2e38793f"
  },
  {
    "id": "eb62a707-4968-487a-82c5-f28a3949e68d",
    "name": "Pálairos",
    "state_id": "4f35ed94-41fd-4946-873d-feef2e38793f"
  },
  {
    "id": "7ba226b1-b490-405e-a86d-b027d3f90a97",
    "name": "Panaitólion",
    "state_id": "4f35ed94-41fd-4946-873d-feef2e38793f"
  },
  {
    "id": "ad02ce76-f359-4a01-8364-2abf9db19753",
    "name": "Pappadhátai",
    "state_id": "4f35ed94-41fd-4946-873d-feef2e38793f"
  },
  {
    "id": "4f15ae6a-f990-4f0f-acaf-915c8e80a8e3",
    "name": "Paralía",
    "state_id": "4f35ed94-41fd-4946-873d-feef2e38793f"
  },
  {
    "id": "37e7f90b-4dcc-4dc2-ae44-fc2597cce09c",
    "name": "Paravóla",
    "state_id": "4f35ed94-41fd-4946-873d-feef2e38793f"
  },
  {
    "id": "47c2a499-0484-4920-8daf-786d828baf49",
    "name": "Pátra",
    "state_id": "4f35ed94-41fd-4946-873d-feef2e38793f"
  },
  {
    "id": "4e413c76-0b9b-4a06-a4bc-f6be737498f0",
    "name": "Pelópi",
    "state_id": "4f35ed94-41fd-4946-873d-feef2e38793f"
  },
  {
    "id": "0d63eb0e-ade4-4a9a-9294-b1007cb78c7d",
    "name": "Plátanos",
    "state_id": "4f35ed94-41fd-4946-873d-feef2e38793f"
  },
  {
    "id": "199ca4f8-9ee6-4d7a-b41f-f8a3ec9dca79",
    "name": "Pýrgos",
    "state_id": "4f35ed94-41fd-4946-873d-feef2e38793f"
  },
  {
    "id": "94d830ad-e3c7-4ea0-9338-99a40f5d9a52",
    "name": "Río",
    "state_id": "4f35ed94-41fd-4946-873d-feef2e38793f"
  },
  {
    "id": "292881c0-a59b-4336-8b76-c3edc282602e",
    "name": "Rododáfni",
    "state_id": "4f35ed94-41fd-4946-873d-feef2e38793f"
  },
  {
    "id": "be99ff06-8f9a-47f8-97ed-c7ed9188579b",
    "name": "Royítika",
    "state_id": "4f35ed94-41fd-4946-873d-feef2e38793f"
  },
  {
    "id": "dad27675-12a7-473c-9f08-e5de35e19c27",
    "name": "Sardínia",
    "state_id": "4f35ed94-41fd-4946-873d-feef2e38793f"
  },
  {
    "id": "28ebe2a4-90b9-42c2-997b-d585af5ecebd",
    "name": "Savália",
    "state_id": "4f35ed94-41fd-4946-873d-feef2e38793f"
  },
  {
    "id": "07050b78-814f-4bf6-b346-1f35e180c71a",
    "name": "Stános",
    "state_id": "4f35ed94-41fd-4946-873d-feef2e38793f"
  },
  {
    "id": "7effb4f9-d406-4f6f-8038-6c214724bece",
    "name": "Sylivainiótika",
    "state_id": "4f35ed94-41fd-4946-873d-feef2e38793f"
  },
  {
    "id": "3d51a749-522a-4f83-ae43-c428f59f694d",
    "name": "Synoikismós Chavaríou",
    "state_id": "4f35ed94-41fd-4946-873d-feef2e38793f"
  },
  {
    "id": "193bd843-e149-470f-8d91-54f0c7be1f35",
    "name": "Témeni",
    "state_id": "4f35ed94-41fd-4946-873d-feef2e38793f"
  },
  {
    "id": "a6c56517-7d47-46bf-8c1e-c4733de895a2",
    "name": "Thérmo",
    "state_id": "4f35ed94-41fd-4946-873d-feef2e38793f"
  },
  {
    "id": "ed602f6a-cd3a-4b94-ab28-aa48401afd34",
    "name": "Triandaíika",
    "state_id": "4f35ed94-41fd-4946-873d-feef2e38793f"
  },
  {
    "id": "995cb5ee-288f-41e7-a2a5-15a020a2b433",
    "name": "Várda",
    "state_id": "4f35ed94-41fd-4946-873d-feef2e38793f"
  },
  {
    "id": "254d76d5-a976-4b83-8a48-75ce2b216449",
    "name": "Vartholomió",
    "state_id": "4f35ed94-41fd-4946-873d-feef2e38793f"
  },
  {
    "id": "6f3f6205-8cab-472a-a8d4-35365f231ee8",
    "name": "Varvásaina",
    "state_id": "4f35ed94-41fd-4946-873d-feef2e38793f"
  },
  {
    "id": "94c597c6-c5de-46cd-824a-610eb72d3dcb",
    "name": "Vónitsa",
    "state_id": "4f35ed94-41fd-4946-873d-feef2e38793f"
  },
  {
    "id": "3e5662af-74e6-4658-aa0a-8b434a119f4f",
    "name": "Vrachnaíika",
    "state_id": "4f35ed94-41fd-4946-873d-feef2e38793f"
  },
  {
    "id": "b020fa64-6291-4511-b219-ef85ddc621bc",
    "name": "Zacháro",
    "state_id": "4f35ed94-41fd-4946-873d-feef2e38793f"
  }
]