[
  {
    "id": "cb6f1659-ce85-4b84-91d8-a3bfc119bbf9",
    "name": "Ban Houakhoua",
    "state_id": "4f46effa-c666-4f08-9924-89b541b3c6c3"
  },
  {
    "id": "5993f2bb-5597-437c-ab4f-d9cf458c6db1",
    "name": "Ban Houayxay",
    "state_id": "4f46effa-c666-4f08-9924-89b541b3c6c3"
  },
  {
    "id": "533cd684-1466-4ae5-9ea8-b123c01e4bba",
    "name": "Muang Houayxay",
    "state_id": "4f46effa-c666-4f08-9924-89b541b3c6c3"
  },
  {
    "id": "19089bc0-66d5-4c2c-9f90-c810e02beaff",
    "name": "Muang Meung",
    "state_id": "4f46effa-c666-4f08-9924-89b541b3c6c3"
  },
  {
    "id": "eefcfc6c-1add-4f50-9c8d-d7fedd4f9fd2",
    "name": "Muang Paktha",
    "state_id": "4f46effa-c666-4f08-9924-89b541b3c6c3"
  },
  {
    "id": "36a7dd00-8a56-4118-bb9c-e403e64564b7",
    "name": "Muang Pha Oudôm",
    "state_id": "4f46effa-c666-4f08-9924-89b541b3c6c3"
  },
  {
    "id": "63b7ea1f-3dfc-4a39-8768-8448d4105cea",
    "name": "Muang Tônpheung",
    "state_id": "4f46effa-c666-4f08-9924-89b541b3c6c3"
  }
]