[
  {
    "id": "cd41884a-4af4-4f59-b622-eb0392a865ee",
    "name": "Albania",
    "state_id": "4fa634d2-69f6-4c6b-b818-e5cf1799cc4c"
  },
  {
    "id": "e235eddd-86fa-4bcc-8738-b85420027745",
    "name": "Belén de Los Andaquies",
    "state_id": "4fa634d2-69f6-4c6b-b818-e5cf1799cc4c"
  },
  {
    "id": "849c392d-e684-44d5-8e60-557a763f83d3",
    "name": "Cartagena del Chairá",
    "state_id": "4fa634d2-69f6-4c6b-b818-e5cf1799cc4c"
  },
  {
    "id": "b0f97e93-e828-4dad-a5a6-2ce63d81fe8f",
    "name": "Curillo",
    "state_id": "4fa634d2-69f6-4c6b-b818-e5cf1799cc4c"
  },
  {
    "id": "ea67e920-d5bb-465a-abc3-2f7e3c7380c1",
    "name": "El Doncello",
    "state_id": "4fa634d2-69f6-4c6b-b818-e5cf1799cc4c"
  },
  {
    "id": "71fdf02c-f24d-4c9b-a56f-f01a6919aae7",
    "name": "El Paujil",
    "state_id": "4fa634d2-69f6-4c6b-b818-e5cf1799cc4c"
  },
  {
    "id": "1cf54290-97da-420d-95ac-d2f99e83625f",
    "name": "Florencia",
    "state_id": "4fa634d2-69f6-4c6b-b818-e5cf1799cc4c"
  },
  {
    "id": "5c647e55-7580-4bb3-aa63-8c23cc661da4",
    "name": "La Montañita",
    "state_id": "4fa634d2-69f6-4c6b-b818-e5cf1799cc4c"
  },
  {
    "id": "92ab0d04-0b45-4606-b2c3-83109ec9f5a9",
    "name": "Milán",
    "state_id": "4fa634d2-69f6-4c6b-b818-e5cf1799cc4c"
  },
  {
    "id": "4fe2daaf-35d3-4d5d-b061-d6912285a8fd",
    "name": "Morelia",
    "state_id": "4fa634d2-69f6-4c6b-b818-e5cf1799cc4c"
  },
  {
    "id": "dc9535d6-fd58-45c2-9595-77c5270bcdae",
    "name": "Puerto Rico",
    "state_id": "4fa634d2-69f6-4c6b-b818-e5cf1799cc4c"
  },
  {
    "id": "932ab990-313a-4144-965b-276e1bad2633",
    "name": "San José del Fragua",
    "state_id": "4fa634d2-69f6-4c6b-b818-e5cf1799cc4c"
  },
  {
    "id": "c7c184ea-99bb-46cc-8fc2-a01b3fbba820",
    "name": "San Vicente del Caguán",
    "state_id": "4fa634d2-69f6-4c6b-b818-e5cf1799cc4c"
  },
  {
    "id": "a7606288-e8b7-4276-b6ef-18f6e748bf1b",
    "name": "Solano",
    "state_id": "4fa634d2-69f6-4c6b-b818-e5cf1799cc4c"
  },
  {
    "id": "440358bf-9166-4fd6-978f-d6211ca85ca4",
    "name": "Solita",
    "state_id": "4fa634d2-69f6-4c6b-b818-e5cf1799cc4c"
  },
  {
    "id": "a4370619-b309-4bbb-a0de-8d930cba5661",
    "name": "Valparaíso",
    "state_id": "4fa634d2-69f6-4c6b-b818-e5cf1799cc4c"
  }
]