[
  {
    "id": "17610b74-8608-4178-83cc-f355912cabce",
    "name": "Abelardo L. Rodríguez",
    "state_id": "4fed4c28-2d4c-4d68-bacf-33a48931f155"
  },
  {
    "id": "1ab139a2-6258-4640-967e-a40f7d048fc2",
    "name": "Acamilpa",
    "state_id": "4fed4c28-2d4c-4d68-bacf-33a48931f155"
  },
  {
    "id": "6959e9fb-6614-43f8-a1a3-3815b840653f",
    "name": "Achichipico",
    "state_id": "4fed4c28-2d4c-4d68-bacf-33a48931f155"
  },
  {
    "id": "fc769320-57d7-4e70-a18d-cdb4eeec9bfd",
    "name": "Adolfo López Mateos",
    "state_id": "4fed4c28-2d4c-4d68-bacf-33a48931f155"
  },
  {
    "id": "ee574003-cbd1-492b-a7c1-82ebe76a9299",
    "name": "Ahuehuetzingo",
    "state_id": "4fed4c28-2d4c-4d68-bacf-33a48931f155"
  },
  {
    "id": "13ff8838-6ab0-4d85-a2e1-7cd84a2b659e",
    "name": "Alfredo V. Bonfil (Chacampalco)",
    "state_id": "4fed4c28-2d4c-4d68-bacf-33a48931f155"
  },
  {
    "id": "d1ff1f89-7ea0-467d-801d-839199e35571",
    "name": "Alpuyeca",
    "state_id": "4fed4c28-2d4c-4d68-bacf-33a48931f155"
  },
  {
    "id": "f4b1ca8d-3e65-4886-800b-b881130d8929",
    "name": "Amacuitlapilco",
    "state_id": "4fed4c28-2d4c-4d68-bacf-33a48931f155"
  },
  {
    "id": "176a7c9e-3364-43ba-becc-2a1f0c6afa34",
    "name": "Amacuzac",
    "state_id": "4fed4c28-2d4c-4d68-bacf-33a48931f155"
  },
  {
    "id": "5a750c92-6c68-43e3-b147-b44f799d3547",
    "name": "Amatlán de Quetzalcoatl",
    "state_id": "4fed4c28-2d4c-4d68-bacf-33a48931f155"
  },
  {
    "id": "ba23fd9c-c095-46f4-bd2b-7ba7fdaba281",
    "name": "Amayuca",
    "state_id": "4fed4c28-2d4c-4d68-bacf-33a48931f155"
  },
  {
    "id": "725947d1-2853-423c-ab03-cdfc27c681ab",
    "name": "Amilcingo",
    "state_id": "4fed4c28-2d4c-4d68-bacf-33a48931f155"
  },
  {
    "id": "6c5e976d-fe74-445d-9040-bf0b613c88f0",
    "name": "Anenecuilco",
    "state_id": "4fed4c28-2d4c-4d68-bacf-33a48931f155"
  },
  {
    "id": "7eee5b83-bfaa-48de-9349-17a12f053bee",
    "name": "Arroyo Vista Hermosa",
    "state_id": "4fed4c28-2d4c-4d68-bacf-33a48931f155"
  },
  {
    "id": "cdf2f935-9182-45cb-8f1f-62a6690cfc21",
    "name": "Atlacahualoya",
    "state_id": "4fed4c28-2d4c-4d68-bacf-33a48931f155"
  },
  {
    "id": "40527333-0ab6-4252-8262-70879b85a2d9",
    "name": "Atlacholoaya",
    "state_id": "4fed4c28-2d4c-4d68-bacf-33a48931f155"
  },
  {
    "id": "f016aaa2-3f8b-493f-a245-863360d5ccd8",
    "name": "Atlatlahucan",
    "state_id": "4fed4c28-2d4c-4d68-bacf-33a48931f155"
  },
  {
    "id": "5673e7b6-9d7b-42a3-a88f-921c08a157a6",
    "name": "Atotonilco",
    "state_id": "4fed4c28-2d4c-4d68-bacf-33a48931f155"
  },
  {
    "id": "3f09c586-d55b-4628-89d2-4b0eb0e18097",
    "name": "Axochiapan",
    "state_id": "4fed4c28-2d4c-4d68-bacf-33a48931f155"
  },
  {
    "id": "64a68bd7-adf7-4641-ab9d-88df35b317ee",
    "name": "Ayala",
    "state_id": "4fed4c28-2d4c-4d68-bacf-33a48931f155"
  },
  {
    "id": "7d0e09f5-582d-4460-beb5-40268ff0046f",
    "name": "Bonifacio García",
    "state_id": "4fed4c28-2d4c-4d68-bacf-33a48931f155"
  },
  {
    "id": "de8cd972-fce5-430a-8d42-c37c7d8d7400",
    "name": "Buenavista",
    "state_id": "4fed4c28-2d4c-4d68-bacf-33a48931f155"
  },
  {
    "id": "e3464a89-fae4-4f55-8ed3-0cfed84483c6",
    "name": "Calera Chica",
    "state_id": "4fed4c28-2d4c-4d68-bacf-33a48931f155"
  },
  {
    "id": "8930ddfe-078d-45d9-8228-41dbca04f62b",
    "name": "Calle Real",
    "state_id": "4fed4c28-2d4c-4d68-bacf-33a48931f155"
  },
  {
    "id": "e94bf605-e169-4c19-b48f-ad46396afcd9",
    "name": "Casahuatlán",
    "state_id": "4fed4c28-2d4c-4d68-bacf-33a48931f155"
  },
  {
    "id": "7ef8a682-c635-4e36-b3a4-aed97c347bd8",
    "name": "Cerritos de Cárdenas",
    "state_id": "4fed4c28-2d4c-4d68-bacf-33a48931f155"
  },
  {
    "id": "20e6ad7f-7fb1-46a9-a26a-105362cf2bd0",
    "name": "Chalcatzingo",
    "state_id": "4fed4c28-2d4c-4d68-bacf-33a48931f155"
  },
  {
    "id": "014a5867-643c-4fd5-944d-9c3f2a70706e",
    "name": "Chavarría",
    "state_id": "4fed4c28-2d4c-4d68-bacf-33a48931f155"
  },
  {
    "id": "2611d8ef-c576-4807-a9fd-98175ac8e53b",
    "name": "Chiconcuac",
    "state_id": "4fed4c28-2d4c-4d68-bacf-33a48931f155"
  },
  {
    "id": "8d62494a-1a2e-4909-af15-17808b45b002",
    "name": "Chinameca",
    "state_id": "4fed4c28-2d4c-4d68-bacf-33a48931f155"
  },
  {
    "id": "1a9a86ee-7cbb-460f-b7e8-7ba9abc603c9",
    "name": "Ciudad Ayala",
    "state_id": "4fed4c28-2d4c-4d68-bacf-33a48931f155"
  },
  {
    "id": "3be9c052-4336-48ae-91f5-3c7aa5171eb7",
    "name": "Cliserio Alanís (San Gaspar)",
    "state_id": "4fed4c28-2d4c-4d68-bacf-33a48931f155"
  },
  {
    "id": "d2e5739b-b5c6-4f09-bab4-adaa00e0eb3f",
    "name": "Coahuixtla",
    "state_id": "4fed4c28-2d4c-4d68-bacf-33a48931f155"
  },
  {
    "id": "8487f20d-46c8-4619-be7a-c152ad623f7e",
    "name": "Coatetelco",
    "state_id": "4fed4c28-2d4c-4d68-bacf-33a48931f155"
  },
  {
    "id": "acbcffb8-9eda-414b-8c02-d75362325785",
    "name": "Coatlán del Río",
    "state_id": "4fed4c28-2d4c-4d68-bacf-33a48931f155"
  },
  {
    "id": "da3f083e-9c07-406c-961a-a3f447b50b6f",
    "name": "Cocoyoc",
    "state_id": "4fed4c28-2d4c-4d68-bacf-33a48931f155"
  },
  {
    "id": "b00bc373-560e-400a-bbe5-707c22b31b27",
    "name": "Cocoyotla",
    "state_id": "4fed4c28-2d4c-4d68-bacf-33a48931f155"
  },
  {
    "id": "e4edb57e-2a6e-467b-984e-998e22f41052",
    "name": "Colonia Ángel Bocanegra (Adolfo López Mateos)",
    "state_id": "4fed4c28-2d4c-4d68-bacf-33a48931f155"
  },
  {
    "id": "7220a931-855b-4f1d-882a-534abbedb200",
    "name": "Colonia el Florido",
    "state_id": "4fed4c28-2d4c-4d68-bacf-33a48931f155"
  },
  {
    "id": "ddcb8a5d-0f87-45f8-b255-f6a87a057343",
    "name": "Colonia las Arboledas",
    "state_id": "4fed4c28-2d4c-4d68-bacf-33a48931f155"
  },
  {
    "id": "75eb7724-eac4-438f-a2bc-33e6e7f98c84",
    "name": "Colonia los Cerritos",
    "state_id": "4fed4c28-2d4c-4d68-bacf-33a48931f155"
  },
  {
    "id": "0a19b41a-ef0d-41ce-b57e-4e912cc3de30",
    "name": "Colonia Obrera",
    "state_id": "4fed4c28-2d4c-4d68-bacf-33a48931f155"
  },
  {
    "id": "630d004b-69de-404a-9c43-33f357fd38b8",
    "name": "Colonia Palo Prieto (Chipitongo)",
    "state_id": "4fed4c28-2d4c-4d68-bacf-33a48931f155"
  },
  {
    "id": "0e1a2141-340d-4159-a848-1c4f6cf5dbc3",
    "name": "Colonia San Francisco",
    "state_id": "4fed4c28-2d4c-4d68-bacf-33a48931f155"
  },
  {
    "id": "778340f7-3ade-4184-8ce5-1effd4bdc214",
    "name": "Constancio Farfán (La Pascuala)",
    "state_id": "4fed4c28-2d4c-4d68-bacf-33a48931f155"
  },
  {
    "id": "68ced2a0-892b-4af2-902d-20e026530951",
    "name": "Cuauchichinola",
    "state_id": "4fed4c28-2d4c-4d68-bacf-33a48931f155"
  },
  {
    "id": "d974cdd5-0e74-4af1-8ed6-3f5853f6462b",
    "name": "Cuauhtempan (San Andrés Cuauhtempan)",
    "state_id": "4fed4c28-2d4c-4d68-bacf-33a48931f155"
  },
  {
    "id": "6b6c5136-65cb-4e8e-aa88-c3c1c3da2c62",
    "name": "Cuautla",
    "state_id": "4fed4c28-2d4c-4d68-bacf-33a48931f155"
  },
  {
    "id": "0ee0da46-cdf9-480a-bb0f-edd3827349ae",
    "name": "Cuentepec",
    "state_id": "4fed4c28-2d4c-4d68-bacf-33a48931f155"
  },
  {
    "id": "9741b490-98f0-44a1-b51a-ce6148e809e9",
    "name": "Cuernavaca",
    "state_id": "4fed4c28-2d4c-4d68-bacf-33a48931f155"
  },
  {
    "id": "539cdc09-a51a-4b74-b489-924bbb1bbf00",
    "name": "Dos Ríos",
    "state_id": "4fed4c28-2d4c-4d68-bacf-33a48931f155"
  },
  {
    "id": "7742ac2e-fe02-4ef2-a593-546f40728960",
    "name": "El Carmen",
    "state_id": "4fed4c28-2d4c-4d68-bacf-33a48931f155"
  },
  {
    "id": "e95f0c45-f69e-4002-b8d1-2ad4909380ee",
    "name": "El Estudiante",
    "state_id": "4fed4c28-2d4c-4d68-bacf-33a48931f155"
  },
  {
    "id": "b7b81c61-1605-410d-ae6f-e8f1b9767b78",
    "name": "El Mirador",
    "state_id": "4fed4c28-2d4c-4d68-bacf-33a48931f155"
  },
  {
    "id": "abf55ab2-eb9b-4df0-87d8-d01f1f4d9fb1",
    "name": "El Rodeo",
    "state_id": "4fed4c28-2d4c-4d68-bacf-33a48931f155"
  },
  {
    "id": "a6485313-26a1-4491-88b3-3988e5270263",
    "name": "El Salitre",
    "state_id": "4fed4c28-2d4c-4d68-bacf-33a48931f155"
  },
  {
    "id": "d039224b-8046-4793-8407-35a5107a18fc",
    "name": "Emiliano Zapata",
    "state_id": "4fed4c28-2d4c-4d68-bacf-33a48931f155"
  },
  {
    "id": "a1faa505-9434-4ac0-b724-3a8948e21a5d",
    "name": "Emiliano Zapata (Casahuates)",
    "state_id": "4fed4c28-2d4c-4d68-bacf-33a48931f155"
  },
  {
    "id": "035353d0-d6a8-47e1-aa2a-5cea2bbcca31",
    "name": "Enthavi",
    "state_id": "4fed4c28-2d4c-4d68-bacf-33a48931f155"
  },
  {
    "id": "cf155fec-6275-4c27-ac5f-16965fcb23bb",
    "name": "Ex-Hacienda el Hospital",
    "state_id": "4fed4c28-2d4c-4d68-bacf-33a48931f155"
  },
  {
    "id": "aaa4958f-6c87-43d5-af22-f6433b4d5f22",
    "name": "Felipe Neri (Cuatepec)",
    "state_id": "4fed4c28-2d4c-4d68-bacf-33a48931f155"
  },
  {
    "id": "adf62727-5872-49f7-bfe8-543e2b008cad",
    "name": "Fraccionamiento Lomas de Ahuatlán",
    "state_id": "4fed4c28-2d4c-4d68-bacf-33a48931f155"
  },
  {
    "id": "4292e0ec-0c35-41fe-bfc9-98dcd9bccc1f",
    "name": "Fraccionamiento Universo",
    "state_id": "4fed4c28-2d4c-4d68-bacf-33a48931f155"
  },
  {
    "id": "7896230a-d754-4ab2-a733-a0a18dece3f4",
    "name": "Galeana",
    "state_id": "4fed4c28-2d4c-4d68-bacf-33a48931f155"
  },
  {
    "id": "b826cbe8-c007-492c-908b-9a1750a4c9e0",
    "name": "Higuerón",
    "state_id": "4fed4c28-2d4c-4d68-bacf-33a48931f155"
  },
  {
    "id": "4af3b0e4-853f-48f2-b6db-a4e7cf622be8",
    "name": "Huajintlán",
    "state_id": "4fed4c28-2d4c-4d68-bacf-33a48931f155"
  },
  {
    "id": "1b8d2143-bdc1-49ce-b12e-1b701d740519",
    "name": "Huatecalco",
    "state_id": "4fed4c28-2d4c-4d68-bacf-33a48931f155"
  },
  {
    "id": "f1bb1a2e-ca9f-451c-9b05-72d809aa80ef",
    "name": "Huazulco",
    "state_id": "4fed4c28-2d4c-4d68-bacf-33a48931f155"
  },
  {
    "id": "6a34d578-004c-427b-aeec-4c462d260647",
    "name": "Huecahuasco",
    "state_id": "4fed4c28-2d4c-4d68-bacf-33a48931f155"
  },
  {
    "id": "018292ee-7996-4ff8-a49d-ec47028e957d",
    "name": "Huepalcalco (San Miguel)",
    "state_id": "4fed4c28-2d4c-4d68-bacf-33a48931f155"
  },
  {
    "id": "9e7f9221-e976-4242-bf33-dbc4674b6352",
    "name": "Hueyapan",
    "state_id": "4fed4c28-2d4c-4d68-bacf-33a48931f155"
  },
  {
    "id": "b8b81e3e-824a-47cc-b98c-2fa274e0bc96",
    "name": "Huitchila",
    "state_id": "4fed4c28-2d4c-4d68-bacf-33a48931f155"
  },
  {
    "id": "67bc926f-db91-41ad-9cbb-0cd6a7d70b8d",
    "name": "Huitzilac",
    "state_id": "4fed4c28-2d4c-4d68-bacf-33a48931f155"
  },
  {
    "id": "d3f6f771-c416-4e53-a41a-9e4fb30d67a8",
    "name": "Huitzililla",
    "state_id": "4fed4c28-2d4c-4d68-bacf-33a48931f155"
  },
  {
    "id": "f243bcb1-b938-4f9d-bc46-c60c80a8b742",
    "name": "Ignacio Bastida (Santa Catarina Tlayca)",
    "state_id": "4fed4c28-2d4c-4d68-bacf-33a48931f155"
  },
  {
    "id": "5e6fb76f-5cd9-4c9a-939e-01f2bba63bce",
    "name": "Independencia",
    "state_id": "4fed4c28-2d4c-4d68-bacf-33a48931f155"
  },
  {
    "id": "f59dcdc3-4682-40e6-a4f5-7396fb72017d",
    "name": "Itzamatitlán",
    "state_id": "4fed4c28-2d4c-4d68-bacf-33a48931f155"
  },
  {
    "id": "9fcd1322-a61d-49bd-876e-3cae185d4fda",
    "name": "Ixtlilco el Chico",
    "state_id": "4fed4c28-2d4c-4d68-bacf-33a48931f155"
  },
  {
    "id": "0a4f013a-ee90-4122-9d76-e6ea1b86eb0a",
    "name": "Jaltepec",
    "state_id": "4fed4c28-2d4c-4d68-bacf-33a48931f155"
  },
  {
    "id": "09cb5213-4645-4800-8ccc-f82f97b37e36",
    "name": "Jantetelco",
    "state_id": "4fed4c28-2d4c-4d68-bacf-33a48931f155"
  },
  {
    "id": "42a481d4-b1e5-43fd-8206-965cde9ecc94",
    "name": "Jicarero",
    "state_id": "4fed4c28-2d4c-4d68-bacf-33a48931f155"
  },
  {
    "id": "d2e0082f-f9b7-41c6-87b1-d07cbdf496c9",
    "name": "Jiutepec",
    "state_id": "4fed4c28-2d4c-4d68-bacf-33a48931f155"
  },
  {
    "id": "02d8e9d1-e0c2-43be-98fd-87701dcfa0d2",
    "name": "Jojutla",
    "state_id": "4fed4c28-2d4c-4d68-bacf-33a48931f155"
  },
  {
    "id": "a43a3e18-6610-4a4d-863c-b9d5d495d781",
    "name": "Jonacatepec",
    "state_id": "4fed4c28-2d4c-4d68-bacf-33a48931f155"
  },
  {
    "id": "fcb4a3ba-ac3e-4f91-8b21-e798a5ad4c54",
    "name": "Juan Morales",
    "state_id": "4fed4c28-2d4c-4d68-bacf-33a48931f155"
  },
  {
    "id": "c4df1c83-8e85-41b1-b1ca-4a20400535cf",
    "name": "Jumiltepec",
    "state_id": "4fed4c28-2d4c-4d68-bacf-33a48931f155"
  },
  {
    "id": "1f0a6d12-ec8b-4066-8a83-da29e0047b83",
    "name": "La Huanica",
    "state_id": "4fed4c28-2d4c-4d68-bacf-33a48931f155"
  },
  {
    "id": "faa73e95-8d51-45b9-917d-2d466af76b6b",
    "name": "La Joya",
    "state_id": "4fed4c28-2d4c-4d68-bacf-33a48931f155"
  },
  {
    "id": "c52183f4-1718-4ff8-a950-57db787e5cdf",
    "name": "La Unidad Huitzizilapan",
    "state_id": "4fed4c28-2d4c-4d68-bacf-33a48931f155"
  },
  {
    "id": "aef59379-e71c-445f-9533-34d1addeba1a",
    "name": "Lázaro Cárdenas (El Empalme)",
    "state_id": "4fed4c28-2d4c-4d68-bacf-33a48931f155"
  },
  {
    "id": "e4c8dd4a-ad8b-4456-9a7e-1d58eacc728b",
    "name": "Loma Bonita",
    "state_id": "4fed4c28-2d4c-4d68-bacf-33a48931f155"
  },
  {
    "id": "7a1aac2c-c042-47b6-b52f-7fcbb2a9ff05",
    "name": "Lomas de Ahuatepec",
    "state_id": "4fed4c28-2d4c-4d68-bacf-33a48931f155"
  },
  {
    "id": "601878db-14c4-469e-bb80-4346afbea16b",
    "name": "Los Arcos",
    "state_id": "4fed4c28-2d4c-4d68-bacf-33a48931f155"
  },
  {
    "id": "f7d75b97-c336-40f5-bc8f-8b885ae32c58",
    "name": "Marcelino Rodríguez (San Ignacio)",
    "state_id": "4fed4c28-2d4c-4d68-bacf-33a48931f155"
  },
  {
    "id": "af8c3901-e772-4895-9327-40e2fef04518",
    "name": "Mazatepec",
    "state_id": "4fed4c28-2d4c-4d68-bacf-33a48931f155"
  },
  {
    "id": "64cee1a6-0469-4f1a-a217-4a4ed0ee4a55",
    "name": "Metepec",
    "state_id": "4fed4c28-2d4c-4d68-bacf-33a48931f155"
  },
  {
    "id": "e89e67f6-d9ab-4330-822e-a1f94d1dec96",
    "name": "Miacatlán",
    "state_id": "4fed4c28-2d4c-4d68-bacf-33a48931f155"
  },
  {
    "id": "796dc780-7b74-4057-a308-ba9fd2917e1e",
    "name": "Michapa",
    "state_id": "4fed4c28-2d4c-4d68-bacf-33a48931f155"
  },
  {
    "id": "736c8aa8-407c-436d-afb7-d85ae86defc0",
    "name": "Miguel Bocanegra",
    "state_id": "4fed4c28-2d4c-4d68-bacf-33a48931f155"
  },
  {
    "id": "9c99d4e9-4022-4d1d-a8b0-63f4658c0bf2",
    "name": "Mixtlalcingo",
    "state_id": "4fed4c28-2d4c-4d68-bacf-33a48931f155"
  },
  {
    "id": "c476d1e0-e4be-4b8e-afe4-718a669e9442",
    "name": "Moyotepec",
    "state_id": "4fed4c28-2d4c-4d68-bacf-33a48931f155"
  },
  {
    "id": "19049c12-dbf1-4b99-be8a-be88b193c689",
    "name": "Narciso Mendoza",
    "state_id": "4fed4c28-2d4c-4d68-bacf-33a48931f155"
  },
  {
    "id": "9483c639-fca1-4592-ac0b-0a1183ccfefe",
    "name": "Nepopualco",
    "state_id": "4fed4c28-2d4c-4d68-bacf-33a48931f155"
  },
  {
    "id": "8506f6a9-6d0c-4d8d-aaa1-48005f8aba54",
    "name": "Ninguno [Centro de Readaptación Social de Atlacholoaya]",
    "state_id": "4fed4c28-2d4c-4d68-bacf-33a48931f155"
  },
  {
    "id": "807f86fd-7bcd-46ef-820d-81ff55236bbf",
    "name": "Oacalco",
    "state_id": "4fed4c28-2d4c-4d68-bacf-33a48931f155"
  },
  {
    "id": "08d90a36-08c5-45c5-9117-dda88458fe29",
    "name": "Oaxtepec",
    "state_id": "4fed4c28-2d4c-4d68-bacf-33a48931f155"
  },
  {
    "id": "1a26b516-bb3e-47b3-a5f0-570d64123e01",
    "name": "Ocoxaltepec",
    "state_id": "4fed4c28-2d4c-4d68-bacf-33a48931f155"
  },
  {
    "id": "f08cd59f-316c-454c-84b6-1ff7293f4794",
    "name": "Ocuituco",
    "state_id": "4fed4c28-2d4c-4d68-bacf-33a48931f155"
  },
  {
    "id": "c02b9ac3-fa33-4ad5-a70d-3a6b6b27cf8d",
    "name": "Olintepec",
    "state_id": "4fed4c28-2d4c-4d68-bacf-33a48931f155"
  },
  {
    "id": "0d005ac2-7e40-445f-93d8-badc0406043f",
    "name": "Pedro Amaro",
    "state_id": "4fed4c28-2d4c-4d68-bacf-33a48931f155"
  },
  {
    "id": "19cc6c57-61a8-4f53-904c-a63ce6b28408",
    "name": "Peña Flores (Palo Verde)",
    "state_id": "4fed4c28-2d4c-4d68-bacf-33a48931f155"
  },
  {
    "id": "a2546c45-6224-4c6f-88db-7adb3337069b",
    "name": "Pérez de Galeana",
    "state_id": "4fed4c28-2d4c-4d68-bacf-33a48931f155"
  },
  {
    "id": "86223845-6cb4-4ed9-a561-e99e9e7822d4",
    "name": "Progreso",
    "state_id": "4fed4c28-2d4c-4d68-bacf-33a48931f155"
  },
  {
    "id": "0a353a1c-a25f-4f50-9ce8-aa31862e9bc0",
    "name": "Pueblo Nuevo",
    "state_id": "4fed4c28-2d4c-4d68-bacf-33a48931f155"
  },
  {
    "id": "5c96e267-4de5-4ac5-8b8a-405ab891f312",
    "name": "Pueblo Nuevo de Morelos",
    "state_id": "4fed4c28-2d4c-4d68-bacf-33a48931f155"
  },
  {
    "id": "bbade360-7645-4068-a295-9553dbfb7f1e",
    "name": "Puente de Ixtla",
    "state_id": "4fed4c28-2d4c-4d68-bacf-33a48931f155"
  },
  {
    "id": "32e27bd4-e661-49a4-9f8d-5c5c88372a04",
    "name": "Puxtla",
    "state_id": "4fed4c28-2d4c-4d68-bacf-33a48931f155"
  },
  {
    "id": "7c9033c4-4f86-43cb-bb31-27079f0ae2d8",
    "name": "Quebrantadero",
    "state_id": "4fed4c28-2d4c-4d68-bacf-33a48931f155"
  },
  {
    "id": "b1b4d665-ea18-4b64-94a6-4d355cff6f93",
    "name": "Reyes Acozac",
    "state_id": "4fed4c28-2d4c-4d68-bacf-33a48931f155"
  },
  {
    "id": "f6e268cb-749f-4e05-8c01-ab0e2354aa4e",
    "name": "Salazar",
    "state_id": "4fed4c28-2d4c-4d68-bacf-33a48931f155"
  },
  {
    "id": "c3edb034-f99d-4b96-b9c3-abab7de359f8",
    "name": "San Andrés Cuexcontitlán",
    "state_id": "4fed4c28-2d4c-4d68-bacf-33a48931f155"
  },
  {
    "id": "e3e0983b-d097-4ee4-9cc1-87eb5f8e9420",
    "name": "San Andrés de la Cal",
    "state_id": "4fed4c28-2d4c-4d68-bacf-33a48931f155"
  },
  {
    "id": "eb9f770f-b42f-4b2c-b747-415f276eefb6",
    "name": "San Andrés Ocotlán",
    "state_id": "4fed4c28-2d4c-4d68-bacf-33a48931f155"
  },
  {
    "id": "b611d127-d76d-475f-bc60-834b752e4435",
    "name": "San Antonio Chiverías",
    "state_id": "4fed4c28-2d4c-4d68-bacf-33a48931f155"
  },
  {
    "id": "7ea39606-5140-41c6-8c99-0422eb7137e2",
    "name": "San Antonio del Puente",
    "state_id": "4fed4c28-2d4c-4d68-bacf-33a48931f155"
  },
  {
    "id": "933f1178-6ce7-40b9-93a9-7783f1ce1330",
    "name": "San Bartolomé Tlaltelulco",
    "state_id": "4fed4c28-2d4c-4d68-bacf-33a48931f155"
  },
  {
    "id": "3f6d1ecd-bc78-4383-8ff5-8d4c52e6391d",
    "name": "San Diego",
    "state_id": "4fed4c28-2d4c-4d68-bacf-33a48931f155"
  },
  {
    "id": "45fb6452-3f3c-430b-9a7b-4ef9cbb3d28d",
    "name": "San Diego Alcalá",
    "state_id": "4fed4c28-2d4c-4d68-bacf-33a48931f155"
  },
  {
    "id": "33b4f9aa-0203-40d7-a43c-42722f988aab",
    "name": "San Diego Linares",
    "state_id": "4fed4c28-2d4c-4d68-bacf-33a48931f155"
  },
  {
    "id": "8e4fbb62-9c92-45c9-aeb9-da740fb9cf80",
    "name": "San Felipe Teotitlán",
    "state_id": "4fed4c28-2d4c-4d68-bacf-33a48931f155"
  },
  {
    "id": "04106c48-a157-44a5-8c00-0b57e87df228",
    "name": "San Francisco Chimalpa",
    "state_id": "4fed4c28-2d4c-4d68-bacf-33a48931f155"
  },
  {
    "id": "98513e1b-b48d-4203-9efe-025966813c25",
    "name": "San Francisco Tetetla",
    "state_id": "4fed4c28-2d4c-4d68-bacf-33a48931f155"
  },
  {
    "id": "4170b050-eac4-4bc0-b5ca-dcf188eecfed",
    "name": "San Francisco Zacacalco",
    "state_id": "4fed4c28-2d4c-4d68-bacf-33a48931f155"
  },
  {
    "id": "7eb2406c-d804-4d7d-953a-8adc2c7790f9",
    "name": "San Gabriel las Palmas",
    "state_id": "4fed4c28-2d4c-4d68-bacf-33a48931f155"
  },
  {
    "id": "96f0c02d-b82a-4ead-8313-6ac62beeae6a",
    "name": "San Gaspar Tlahuelilpan",
    "state_id": "4fed4c28-2d4c-4d68-bacf-33a48931f155"
  },
  {
    "id": "9f6ea2b7-7779-44c1-bba7-630ca01d6890",
    "name": "San Jerónimo Acazulco",
    "state_id": "4fed4c28-2d4c-4d68-bacf-33a48931f155"
  },
  {
    "id": "cc8daf79-fbca-4b68-b2c2-0f49386aa800",
    "name": "San Jerónimo Chicahualco",
    "state_id": "4fed4c28-2d4c-4d68-bacf-33a48931f155"
  },
  {
    "id": "9897efe5-61cc-49c2-a35c-7234d4890a13",
    "name": "San José",
    "state_id": "4fed4c28-2d4c-4d68-bacf-33a48931f155"
  },
  {
    "id": "38d5f986-e5c4-4d4d-b60a-73b0ac2d729e",
    "name": "San José Buenavista el Grande",
    "state_id": "4fed4c28-2d4c-4d68-bacf-33a48931f155"
  },
  {
    "id": "ce772299-3f45-495b-9150-5ea73a192dd4",
    "name": "San José Comalco",
    "state_id": "4fed4c28-2d4c-4d68-bacf-33a48931f155"
  },
  {
    "id": "19bed17e-6370-423c-bfb3-8c5d6d503314",
    "name": "San José el Llanito",
    "state_id": "4fed4c28-2d4c-4d68-bacf-33a48931f155"
  },
  {
    "id": "e891e2f7-7f03-4a2e-af19-9ceaa5c88a86",
    "name": "San Jose Solís",
    "state_id": "4fed4c28-2d4c-4d68-bacf-33a48931f155"
  },
  {
    "id": "faff352f-7b09-47aa-a2e8-28d7a198dabc",
    "name": "San José Vista Hermosa",
    "state_id": "4fed4c28-2d4c-4d68-bacf-33a48931f155"
  },
  {
    "id": "06c71128-f504-446e-bd19-32d749088641",
    "name": "San Juan Ahuehueyo",
    "state_id": "4fed4c28-2d4c-4d68-bacf-33a48931f155"
  },
  {
    "id": "eddf3163-238a-46ad-9854-4fe338df4357",
    "name": "San Juan la Isla",
    "state_id": "4fed4c28-2d4c-4d68-bacf-33a48931f155"
  },
  {
    "id": "b4ccd5a5-663b-4a06-9f6f-06ce6d49739b",
    "name": "San Juan Pueblo Nuevo",
    "state_id": "4fed4c28-2d4c-4d68-bacf-33a48931f155"
  },
  {
    "id": "1188e438-8bc9-4bba-9fb9-21b587de7a77",
    "name": "San Juan Texcalpan",
    "state_id": "4fed4c28-2d4c-4d68-bacf-33a48931f155"
  },
  {
    "id": "ba6bf259-a6a3-41fa-a4e3-6c6513692155",
    "name": "San Juan Tilapa",
    "state_id": "4fed4c28-2d4c-4d68-bacf-33a48931f155"
  },
  {
    "id": "4e9a5227-419c-4e92-837e-df0397c750dd",
    "name": "San Juan Xochiaca",
    "state_id": "4fed4c28-2d4c-4d68-bacf-33a48931f155"
  },
  {
    "id": "26bdc925-e96e-461b-a050-6a175ef4ad6c",
    "name": "San Juan Yautepec",
    "state_id": "4fed4c28-2d4c-4d68-bacf-33a48931f155"
  },
  {
    "id": "93a2ea94-079b-4b62-b615-6fff76c4932d",
    "name": "San Juan Zitlaltepec",
    "state_id": "4fed4c28-2d4c-4d68-bacf-33a48931f155"
  },
  {
    "id": "6ce0e446-4554-4c63-ad10-5212593fee7f",
    "name": "San Lorenzo Cuauhtenco",
    "state_id": "4fed4c28-2d4c-4d68-bacf-33a48931f155"
  },
  {
    "id": "d0ec9649-bb9e-488a-a119-66ecdc92bedc",
    "name": "San Lorenzo Nenamicoyan",
    "state_id": "4fed4c28-2d4c-4d68-bacf-33a48931f155"
  },
  {
    "id": "13281d0a-b58f-48ef-9db7-e82aa5975fdf",
    "name": "San Lorenzo Oyamel",
    "state_id": "4fed4c28-2d4c-4d68-bacf-33a48931f155"
  },
  {
    "id": "d15a36bd-9017-4dff-aff4-2609842484cf",
    "name": "San Luis Ayucán",
    "state_id": "4fed4c28-2d4c-4d68-bacf-33a48931f155"
  },
  {
    "id": "ac26174d-08a5-49c3-a4ef-971ffbded89d",
    "name": "San Marcos de la Cruz",
    "state_id": "4fed4c28-2d4c-4d68-bacf-33a48931f155"
  },
  {
    "id": "b4c85934-e06a-45f6-a964-9f80280a9339",
    "name": "San Mateo Atarasquíllo",
    "state_id": "4fed4c28-2d4c-4d68-bacf-33a48931f155"
  },
  {
    "id": "8610ff8e-41df-4226-ab67-6b8dda2be600",
    "name": "San Mateo Otzacatipan",
    "state_id": "4fed4c28-2d4c-4d68-bacf-33a48931f155"
  },
  {
    "id": "a178e533-fbc5-4623-af09-17451301048f",
    "name": "San Miguel",
    "state_id": "4fed4c28-2d4c-4d68-bacf-33a48931f155"
  },
  {
    "id": "7c6935e0-896b-4149-b447-4e6679c5f351",
    "name": "San Miguel Almaya",
    "state_id": "4fed4c28-2d4c-4d68-bacf-33a48931f155"
  },
  {
    "id": "38d1594d-640d-4249-b0cf-904d01cd3bec",
    "name": "San Miguel Ameyalco",
    "state_id": "4fed4c28-2d4c-4d68-bacf-33a48931f155"
  },
  {
    "id": "d7c39829-297e-4f61-939c-cd94343ccb66",
    "name": "San Miguel Atepoxco",
    "state_id": "4fed4c28-2d4c-4d68-bacf-33a48931f155"
  },
  {
    "id": "5cbde317-2d14-44cf-a17d-a19d94976729",
    "name": "San Miguel Balderas",
    "state_id": "4fed4c28-2d4c-4d68-bacf-33a48931f155"
  },
  {
    "id": "4e98a72b-d60d-47ca-8353-5ec2eaea1de2",
    "name": "San Miguel de La Victoria",
    "state_id": "4fed4c28-2d4c-4d68-bacf-33a48931f155"
  },
  {
    "id": "69af406d-50cb-4e0f-8809-e1ff90319d43",
    "name": "San Miguel Totoltepec",
    "state_id": "4fed4c28-2d4c-4d68-bacf-33a48931f155"
  },
  {
    "id": "732c5a85-881a-49d3-84ea-f5e3708d45b6",
    "name": "San Nicolás Coatepec",
    "state_id": "4fed4c28-2d4c-4d68-bacf-33a48931f155"
  },
  {
    "id": "30145c05-620f-4720-9b72-b459c0ccf3d9",
    "name": "San Nicolás Peralta",
    "state_id": "4fed4c28-2d4c-4d68-bacf-33a48931f155"
  },
  {
    "id": "4a334c5a-5a9a-453e-a948-c6289546ee44",
    "name": "San Nicolás Solís",
    "state_id": "4fed4c28-2d4c-4d68-bacf-33a48931f155"
  },
  {
    "id": "d7178a0b-510a-4514-883a-815e6b6d9899",
    "name": "San Nicolás Tlazala",
    "state_id": "4fed4c28-2d4c-4d68-bacf-33a48931f155"
  },
  {
    "id": "1b133434-a007-49ea-a06d-2a3e50e0ed87",
    "name": "San Pablo Autopan",
    "state_id": "4fed4c28-2d4c-4d68-bacf-33a48931f155"
  },
  {
    "id": "de2b96f9-0d3a-4761-b7e8-b413825e47a4",
    "name": "San Pedro Apatlaco",
    "state_id": "4fed4c28-2d4c-4d68-bacf-33a48931f155"
  },
  {
    "id": "154c3c47-850a-4f0c-a7a0-4f7ad3a86459",
    "name": "San Pedro Atlapulco",
    "state_id": "4fed4c28-2d4c-4d68-bacf-33a48931f155"
  },
  {
    "id": "0896b828-6fc3-4ddb-814e-d44de966057c",
    "name": "San Pedro Chochula",
    "state_id": "4fed4c28-2d4c-4d68-bacf-33a48931f155"
  },
  {
    "id": "53f25d4a-26e7-42d5-b930-f7c369fa3b3b",
    "name": "San Pedro Huaquilpan",
    "state_id": "4fed4c28-2d4c-4d68-bacf-33a48931f155"
  },
  {
    "id": "972777a9-f390-429c-b9a3-68c3b17d73f4",
    "name": "San Pedro Techuchulco",
    "state_id": "4fed4c28-2d4c-4d68-bacf-33a48931f155"
  },
  {
    "id": "ca641e90-6cce-4d89-8e9a-d210b9314aaf",
    "name": "San Pedro Tlaltizapan",
    "state_id": "4fed4c28-2d4c-4d68-bacf-33a48931f155"
  },
  {
    "id": "4e5e7711-c2d7-4ed0-8685-06e4c7199ebc",
    "name": "San Pedro Totoltepec",
    "state_id": "4fed4c28-2d4c-4d68-bacf-33a48931f155"
  },
  {
    "id": "6673420b-9e65-4630-9116-4c2141eb7ab3",
    "name": "San Pedro Tultepec",
    "state_id": "4fed4c28-2d4c-4d68-bacf-33a48931f155"
  },
  {
    "id": "42f49ef4-5848-492b-954a-55fa17af8852",
    "name": "San Pedro Xalpa",
    "state_id": "4fed4c28-2d4c-4d68-bacf-33a48931f155"
  },
  {
    "id": "13d0859d-7c24-4cb1-afda-a2a453b262db",
    "name": "San Pedro Zictepec",
    "state_id": "4fed4c28-2d4c-4d68-bacf-33a48931f155"
  },
  {
    "id": "dc87eb0f-aaf6-442f-9bc7-49f6acb0f7e2",
    "name": "San Rafael Zaragoza",
    "state_id": "4fed4c28-2d4c-4d68-bacf-33a48931f155"
  },
  {
    "id": "6595e674-24f2-444e-b714-ce56334004cf",
    "name": "San Sebastián",
    "state_id": "4fed4c28-2d4c-4d68-bacf-33a48931f155"
  },
  {
    "id": "d616c155-76ea-41aa-989c-ad65e634465e",
    "name": "San Vicente de Juárez",
    "state_id": "4fed4c28-2d4c-4d68-bacf-33a48931f155"
  },
  {
    "id": "0d72bb36-8885-4af0-a953-ab9b117ba1f1",
    "name": "Santa Ana Jilotzingo",
    "state_id": "4fed4c28-2d4c-4d68-bacf-33a48931f155"
  },
  {
    "id": "23f8ba46-f35b-4e29-99bb-c3deaa45b2b0",
    "name": "Santa Catarina",
    "state_id": "4fed4c28-2d4c-4d68-bacf-33a48931f155"
  },
  {
    "id": "415b41b7-1e2c-4fa0-b8d2-df929b2a7330",
    "name": "Santa Cruz Ayotuxco",
    "state_id": "4fed4c28-2d4c-4d68-bacf-33a48931f155"
  },
  {
    "id": "5089bf2d-7aff-4d8c-a2e4-0159b2718619",
    "name": "Santa Cruz Pueblo Nuevo",
    "state_id": "4fed4c28-2d4c-4d68-bacf-33a48931f155"
  },
  {
    "id": "bc001dd8-7c36-4d64-a000-dbb70df3b17c",
    "name": "Santa María Ajoloapan",
    "state_id": "4fed4c28-2d4c-4d68-bacf-33a48931f155"
  },
  {
    "id": "3b618e0c-d378-454b-97f9-e3cf4dceb619",
    "name": "Santa María Atarasquillo",
    "state_id": "4fed4c28-2d4c-4d68-bacf-33a48931f155"
  },
  {
    "id": "7fe6b8d8-48e4-4928-8f0f-1d3e3877cb63",
    "name": "Santa María Magdalena Ocotitlán",
    "state_id": "4fed4c28-2d4c-4d68-bacf-33a48931f155"
  },
  {
    "id": "c12cb13e-3414-4358-b7e0-368d2c4bad76",
    "name": "Santa Martha",
    "state_id": "4fed4c28-2d4c-4d68-bacf-33a48931f155"
  },
  {
    "id": "a6052c69-cf84-435e-9dc6-0d57b1e681d5",
    "name": "Santa Rosa Treinta",
    "state_id": "4fed4c28-2d4c-4d68-bacf-33a48931f155"
  },
  {
    "id": "e59c4cea-27f0-45f3-92ff-aff8427f7ca1",
    "name": "Santiago Analco",
    "state_id": "4fed4c28-2d4c-4d68-bacf-33a48931f155"
  },
  {
    "id": "bef6edf3-cded-4a7b-a411-9413639c1ce8",
    "name": "Santiago Oxthoc",
    "state_id": "4fed4c28-2d4c-4d68-bacf-33a48931f155"
  },
  {
    "id": "314eb14b-9c60-4593-9880-bd7a70ba71f8",
    "name": "Santiago Tepatlaxco",
    "state_id": "4fed4c28-2d4c-4d68-bacf-33a48931f155"
  },
  {
    "id": "00ead910-2a34-49ab-80ad-13aa59d11fb9",
    "name": "Santiago Tílapa",
    "state_id": "4fed4c28-2d4c-4d68-bacf-33a48931f155"
  },
  {
    "id": "624e6142-533f-4dfe-bfb7-a653afe210fb",
    "name": "Santo Domingo Aztacameca",
    "state_id": "4fed4c28-2d4c-4d68-bacf-33a48931f155"
  },
  {
    "id": "72a78466-c564-4281-a407-696f40979cce",
    "name": "Santo Domingo Ocotitlán",
    "state_id": "4fed4c28-2d4c-4d68-bacf-33a48931f155"
  },
  {
    "id": "afab88dc-9396-403e-9a13-9946f038aecc",
    "name": "Tecajec",
    "state_id": "4fed4c28-2d4c-4d68-bacf-33a48931f155"
  },
  {
    "id": "a7ed703a-e90c-4fd1-8e07-e0a6516aa0dd",
    "name": "Tehuixtla",
    "state_id": "4fed4c28-2d4c-4d68-bacf-33a48931f155"
  },
  {
    "id": "3b924c53-356a-41d8-b755-84df71316e45",
    "name": "Telixtac",
    "state_id": "4fed4c28-2d4c-4d68-bacf-33a48931f155"
  },
  {
    "id": "37e74152-8f6f-4209-b86e-b2ece86a85f9",
    "name": "Temimilcingo",
    "state_id": "4fed4c28-2d4c-4d68-bacf-33a48931f155"
  },
  {
    "id": "000f3fc2-72c3-428a-800b-d14631661cee",
    "name": "Temixco",
    "state_id": "4fed4c28-2d4c-4d68-bacf-33a48931f155"
  },
  {
    "id": "95e1120b-0c61-4ecc-b2c9-a11ce73f93d6",
    "name": "Temoac",
    "state_id": "4fed4c28-2d4c-4d68-bacf-33a48931f155"
  },
  {
    "id": "3de35c7d-9a19-458d-a4f2-5a2c44845f19",
    "name": "Tenango",
    "state_id": "4fed4c28-2d4c-4d68-bacf-33a48931f155"
  },
  {
    "id": "426a1244-49d9-47e9-b1ff-dfdbed42363b",
    "name": "Tenextepango",
    "state_id": "4fed4c28-2d4c-4d68-bacf-33a48931f155"
  },
  {
    "id": "6514693f-4ab1-473e-a232-ce88b077b872",
    "name": "Tepalcingo",
    "state_id": "4fed4c28-2d4c-4d68-bacf-33a48931f155"
  },
  {
    "id": "d86d9c8a-c29c-430d-b37f-e1dd1b54e898",
    "name": "Tepetzingo",
    "state_id": "4fed4c28-2d4c-4d68-bacf-33a48931f155"
  },
  {
    "id": "2d17a652-faec-4d87-954c-c4768eb1abb9",
    "name": "Tepoztlán",
    "state_id": "4fed4c28-2d4c-4d68-bacf-33a48931f155"
  },
  {
    "id": "145e74af-4516-44a3-a900-b97948cdafb2",
    "name": "Tequesquitengo",
    "state_id": "4fed4c28-2d4c-4d68-bacf-33a48931f155"
  },
  {
    "id": "0143e6dc-9551-44b9-a86b-e32726f478f2",
    "name": "Tetecala",
    "state_id": "4fed4c28-2d4c-4d68-bacf-33a48931f155"
  },
  {
    "id": "8fce24d7-c229-4120-a334-6f1822b048e6",
    "name": "Tetecalita",
    "state_id": "4fed4c28-2d4c-4d68-bacf-33a48931f155"
  },
  {
    "id": "6dea714e-c130-41c3-8187-b81f826964d0",
    "name": "Tetecolala",
    "state_id": "4fed4c28-2d4c-4d68-bacf-33a48931f155"
  },
  {
    "id": "8f7ee936-4d75-479e-b50e-7e90275134f1",
    "name": "Tetela del Volcán",
    "state_id": "4fed4c28-2d4c-4d68-bacf-33a48931f155"
  },
  {
    "id": "03ab9376-8c3f-4238-a879-b50029acc17f",
    "name": "Tetelilla",
    "state_id": "4fed4c28-2d4c-4d68-bacf-33a48931f155"
  },
  {
    "id": "bf21f313-e9d0-4ea7-ae4e-48ea40e80e41",
    "name": "Texcala",
    "state_id": "4fed4c28-2d4c-4d68-bacf-33a48931f155"
  },
  {
    "id": "edab928c-f45e-4196-866e-741154f5c46d",
    "name": "Tezoyuca",
    "state_id": "4fed4c28-2d4c-4d68-bacf-33a48931f155"
  },
  {
    "id": "fad1fad8-1d56-4c78-a581-5a3b57c695f5",
    "name": "Tianguistongo",
    "state_id": "4fed4c28-2d4c-4d68-bacf-33a48931f155"
  },
  {
    "id": "7a24ed88-ba14-48b9-9f53-01f421c84e98",
    "name": "Ticumán",
    "state_id": "4fed4c28-2d4c-4d68-bacf-33a48931f155"
  },
  {
    "id": "0bb1edd2-242c-4e44-bb1b-d22e1d35d7f1",
    "name": "Tierra Larga (Campo Nuevo)",
    "state_id": "4fed4c28-2d4c-4d68-bacf-33a48931f155"
  },
  {
    "id": "360fc9ee-900c-4a23-addd-30d0547cb4c8",
    "name": "Tilzapotla",
    "state_id": "4fed4c28-2d4c-4d68-bacf-33a48931f155"
  },
  {
    "id": "f987a904-6327-40df-ac2b-23c1857ba3fb",
    "name": "Tlachaloya",
    "state_id": "4fed4c28-2d4c-4d68-bacf-33a48931f155"
  },
  {
    "id": "891337e5-5792-4b68-866a-d24ca753239f",
    "name": "Tlacotepec",
    "state_id": "4fed4c28-2d4c-4d68-bacf-33a48931f155"
  },
  {
    "id": "2bc2684f-4dbe-428d-9347-6358a80bb9d7",
    "name": "Tlacuitlapa",
    "state_id": "4fed4c28-2d4c-4d68-bacf-33a48931f155"
  },
  {
    "id": "5618053e-0722-4e2f-b65b-d44e61a1de47",
    "name": "Tlalnepantla",
    "state_id": "4fed4c28-2d4c-4d68-bacf-33a48931f155"
  },
  {
    "id": "898b2310-36ef-49ce-92ba-f949f43b9c7f",
    "name": "Tlaltenanguito",
    "state_id": "4fed4c28-2d4c-4d68-bacf-33a48931f155"
  },
  {
    "id": "2d50c61c-d4dc-4733-a7b5-a4646e13aadf",
    "name": "Tlaltetelco (San Miguel Tlaltetelco)",
    "state_id": "4fed4c28-2d4c-4d68-bacf-33a48931f155"
  },
  {
    "id": "c2617f9b-8de0-4fa9-b800-b24675f80387",
    "name": "Tlaltizapán",
    "state_id": "4fed4c28-2d4c-4d68-bacf-33a48931f155"
  },
  {
    "id": "d2596e5f-7cb8-4cdf-b534-c92492031ba6",
    "name": "Tlapanaloya",
    "state_id": "4fed4c28-2d4c-4d68-bacf-33a48931f155"
  },
  {
    "id": "1f2b45d6-9219-49f0-bd33-eebc36013875",
    "name": "Tlaquiltenango",
    "state_id": "4fed4c28-2d4c-4d68-bacf-33a48931f155"
  },
  {
    "id": "3309570a-f201-471d-a541-543249555de8",
    "name": "Tlatenchi",
    "state_id": "4fed4c28-2d4c-4d68-bacf-33a48931f155"
  },
  {
    "id": "860c9ed1-e3e2-4d7f-aa05-aa515585ecf5",
    "name": "Tlayacapan",
    "state_id": "4fed4c28-2d4c-4d68-bacf-33a48931f155"
  },
  {
    "id": "ff58e56c-26eb-4f5f-9665-ebd3e42a68ec",
    "name": "Totolapan",
    "state_id": "4fed4c28-2d4c-4d68-bacf-33a48931f155"
  },
  {
    "id": "2011d23c-e448-4e32-aa09-5314100cfbf7",
    "name": "Tres de Mayo",
    "state_id": "4fed4c28-2d4c-4d68-bacf-33a48931f155"
  },
  {
    "id": "1dae2a88-168e-4745-b6ba-ee163b8ecb72",
    "name": "Tres Marías",
    "state_id": "4fed4c28-2d4c-4d68-bacf-33a48931f155"
  },
  {
    "id": "85416065-1fc0-4f6f-9b6b-475ff4ede802",
    "name": "Unidad Habitacional 10 de Abril",
    "state_id": "4fed4c28-2d4c-4d68-bacf-33a48931f155"
  },
  {
    "id": "9f139ccc-a824-46d2-a69d-95d5de4e5b57",
    "name": "Unidad Habitacional José María Morelos y Pavón",
    "state_id": "4fed4c28-2d4c-4d68-bacf-33a48931f155"
  },
  {
    "id": "9103dfdf-7e39-43eb-9b76-dd4fd20d2ca8",
    "name": "Unidad Habitacional Mariano Matamoros",
    "state_id": "4fed4c28-2d4c-4d68-bacf-33a48931f155"
  },
  {
    "id": "0c9f9e9a-f154-488d-a132-e3f3e90f01e0",
    "name": "Unidad Habitacional Rinconada Acolapa",
    "state_id": "4fed4c28-2d4c-4d68-bacf-33a48931f155"
  },
  {
    "id": "efa337d4-6501-40b8-bdaf-942da8049a72",
    "name": "Valle de Vázquez",
    "state_id": "4fed4c28-2d4c-4d68-bacf-33a48931f155"
  },
  {
    "id": "31cb674c-22a5-48b7-b43e-cfbb1dde3de8",
    "name": "Villa Santiago",
    "state_id": "4fed4c28-2d4c-4d68-bacf-33a48931f155"
  },
  {
    "id": "271a1ed0-7e8f-4785-8b6f-635b0a1827b8",
    "name": "Xalostoc",
    "state_id": "4fed4c28-2d4c-4d68-bacf-33a48931f155"
  },
  {
    "id": "f193a995-6206-4cb1-b7eb-6df28d7b3334",
    "name": "Xochicalco (Cirenio Longares)",
    "state_id": "4fed4c28-2d4c-4d68-bacf-33a48931f155"
  },
  {
    "id": "7155ddd8-82e4-4c82-b868-62a17220d627",
    "name": "Xochitepec",
    "state_id": "4fed4c28-2d4c-4d68-bacf-33a48931f155"
  },
  {
    "id": "ac64070b-fca8-4671-a7f5-87bd848acf4b",
    "name": "Xochitlán",
    "state_id": "4fed4c28-2d4c-4d68-bacf-33a48931f155"
  },
  {
    "id": "b67d5df3-fdb3-41ef-a041-23a3456a87f8",
    "name": "Xoxocotla",
    "state_id": "4fed4c28-2d4c-4d68-bacf-33a48931f155"
  },
  {
    "id": "f309bcfc-a69f-4759-b887-6bc03f8401f7",
    "name": "Yautepec",
    "state_id": "4fed4c28-2d4c-4d68-bacf-33a48931f155"
  },
  {
    "id": "aecc1e5b-c049-4423-9024-2d4d75c5c935",
    "name": "Yecapixteca",
    "state_id": "4fed4c28-2d4c-4d68-bacf-33a48931f155"
  },
  {
    "id": "3d49734a-ba6c-4b3f-b860-836a15396726",
    "name": "Yecapixtla",
    "state_id": "4fed4c28-2d4c-4d68-bacf-33a48931f155"
  },
  {
    "id": "9fc7bcb1-241c-4a55-843b-4532fc917b97",
    "name": "Zacapalco",
    "state_id": "4fed4c28-2d4c-4d68-bacf-33a48931f155"
  },
  {
    "id": "91f9fbe5-8d87-4790-a044-44ca9f97333a",
    "name": "Zacatepec",
    "state_id": "4fed4c28-2d4c-4d68-bacf-33a48931f155"
  },
  {
    "id": "88a3f6d4-d41d-4223-a48d-80f781d53da0",
    "name": "Zacualpan de Amilpas",
    "state_id": "4fed4c28-2d4c-4d68-bacf-33a48931f155"
  },
  {
    "id": "f9c411f1-7ebd-4396-983b-298bd31d2375",
    "name": "Zaragoza de Guadalupe",
    "state_id": "4fed4c28-2d4c-4d68-bacf-33a48931f155"
  }
]