[
  {
    "id": "fe183647-208f-40ad-b2b7-d8b1f6299e55",
    "name": "Baoding",
    "state_id": "516105a4-48fd-4973-8fb1-710e33f2c3be"
  },
  {
    "id": "ff3ef078-2426-4b25-ac46-06a8df4c1fc6",
    "name": "Beidaihehaibin",
    "state_id": "516105a4-48fd-4973-8fb1-710e33f2c3be"
  },
  {
    "id": "7bb08e85-ae8e-4951-9863-a3992ea01732",
    "name": "Botou",
    "state_id": "516105a4-48fd-4973-8fb1-710e33f2c3be"
  },
  {
    "id": "e20ed936-2751-4295-b88f-059ed319fa2d",
    "name": "Cangzhou",
    "state_id": "516105a4-48fd-4973-8fb1-710e33f2c3be"
  },
  {
    "id": "469b105a-b6ab-49bf-bd42-254673ac2bb6",
    "name": "Cangzhou Shi",
    "state_id": "516105a4-48fd-4973-8fb1-710e33f2c3be"
  },
  {
    "id": "699b344a-f303-4789-8fa6-8b5af5cbb39e",
    "name": "Changli",
    "state_id": "516105a4-48fd-4973-8fb1-710e33f2c3be"
  },
  {
    "id": "3787798c-f155-43ef-91f7-53e503e1fd42",
    "name": "Chengde",
    "state_id": "516105a4-48fd-4973-8fb1-710e33f2c3be"
  },
  {
    "id": "35fee296-e56e-47d3-bde0-71853ad0aa64",
    "name": "Chengde Prefecture",
    "state_id": "516105a4-48fd-4973-8fb1-710e33f2c3be"
  },
  {
    "id": "fdb766e4-7928-496f-acca-b8a09a02f6fe",
    "name": "Dingzhou",
    "state_id": "516105a4-48fd-4973-8fb1-710e33f2c3be"
  },
  {
    "id": "83dbb74c-2aab-4e2d-86ed-a043d00edb83",
    "name": "Fengrun",
    "state_id": "516105a4-48fd-4973-8fb1-710e33f2c3be"
  },
  {
    "id": "e358ff69-d891-401f-abd9-1a2427b878a1",
    "name": "Guye",
    "state_id": "516105a4-48fd-4973-8fb1-710e33f2c3be"
  },
  {
    "id": "3dbb6075-860b-4f2a-8e4e-db32a6a52db6",
    "name": "Handan",
    "state_id": "516105a4-48fd-4973-8fb1-710e33f2c3be"
  },
  {
    "id": "5a3002c8-05e7-4705-9ce5-7d5ac9800117",
    "name": "Hecun",
    "state_id": "516105a4-48fd-4973-8fb1-710e33f2c3be"
  },
  {
    "id": "d0ade8d3-91ab-4d49-a315-4004b37af28a",
    "name": "Hengshui",
    "state_id": "516105a4-48fd-4973-8fb1-710e33f2c3be"
  },
  {
    "id": "92b21a43-240b-47a2-ae66-c69f4ea597f8",
    "name": "Langfang",
    "state_id": "516105a4-48fd-4973-8fb1-710e33f2c3be"
  },
  {
    "id": "25fdc9f6-2068-4742-bebb-3f74e2100d91",
    "name": "Langfang Shi",
    "state_id": "516105a4-48fd-4973-8fb1-710e33f2c3be"
  },
  {
    "id": "62f105d1-cc6a-48c3-8bbc-48c92454c5cb",
    "name": "Linshui",
    "state_id": "516105a4-48fd-4973-8fb1-710e33f2c3be"
  },
  {
    "id": "66f51cf6-8485-49db-bdb8-6566305a2b99",
    "name": "Linxi",
    "state_id": "516105a4-48fd-4973-8fb1-710e33f2c3be"
  },
  {
    "id": "f8bbcb1b-db2c-4a4f-9e85-b51ae2b5949c",
    "name": "Luancheng",
    "state_id": "516105a4-48fd-4973-8fb1-710e33f2c3be"
  },
  {
    "id": "04b4b407-d72a-4873-b613-e1d7b0b41ccc",
    "name": "Nangong",
    "state_id": "516105a4-48fd-4973-8fb1-710e33f2c3be"
  },
  {
    "id": "f4c69152-6f0c-4721-8e03-5cd7333fefc0",
    "name": "Pengcheng",
    "state_id": "516105a4-48fd-4973-8fb1-710e33f2c3be"
  },
  {
    "id": "92142b0e-c77d-4d21-be22-a9236522e988",
    "name": "Qinhuangdao",
    "state_id": "516105a4-48fd-4973-8fb1-710e33f2c3be"
  },
  {
    "id": "5d3dc072-7cb0-4c5b-8767-79823835c804",
    "name": "Renqiu",
    "state_id": "516105a4-48fd-4973-8fb1-710e33f2c3be"
  },
  {
    "id": "86b0e363-0a60-483a-8082-50964f1855d4",
    "name": "Shahecheng",
    "state_id": "516105a4-48fd-4973-8fb1-710e33f2c3be"
  },
  {
    "id": "21816fb6-fa97-434c-bd7c-162e9a707ef6",
    "name": "Shanhaiguan",
    "state_id": "516105a4-48fd-4973-8fb1-710e33f2c3be"
  },
  {
    "id": "43634ba6-2ab8-4345-ad56-15b9d2998e3b",
    "name": "Shijiazhuang",
    "state_id": "516105a4-48fd-4973-8fb1-710e33f2c3be"
  },
  {
    "id": "4b849ef8-a171-4bb8-a140-2087de88dee9",
    "name": "Shijiazhuang Shi",
    "state_id": "516105a4-48fd-4973-8fb1-710e33f2c3be"
  },
  {
    "id": "f8fabfdd-4399-479f-bdea-64bd19eab329",
    "name": "Songling",
    "state_id": "516105a4-48fd-4973-8fb1-710e33f2c3be"
  },
  {
    "id": "dce0c7ac-5ebb-4182-921a-f3ce17428770",
    "name": "Tangjiazhuang",
    "state_id": "516105a4-48fd-4973-8fb1-710e33f2c3be"
  },
  {
    "id": "6c3b4038-654f-40e6-9407-69c70e92f71a",
    "name": "Tangshan",
    "state_id": "516105a4-48fd-4973-8fb1-710e33f2c3be"
  },
  {
    "id": "af54c675-9841-4aaf-8bc7-e6a2946448c5",
    "name": "Tangshan Shi",
    "state_id": "516105a4-48fd-4973-8fb1-710e33f2c3be"
  },
  {
    "id": "f8913e2f-d4ab-4e23-862f-8078361e2b77",
    "name": "Tianchang",
    "state_id": "516105a4-48fd-4973-8fb1-710e33f2c3be"
  },
  {
    "id": "f77eb2cd-c721-49d7-ade5-7377115b4035",
    "name": "Xingtai",
    "state_id": "516105a4-48fd-4973-8fb1-710e33f2c3be"
  },
  {
    "id": "94d4bf94-5a38-494b-92a2-4808f3e04c52",
    "name": "Xinji",
    "state_id": "516105a4-48fd-4973-8fb1-710e33f2c3be"
  },
  {
    "id": "7390a706-40b1-4f0a-b6be-ebf7d16f5879",
    "name": "Zhangjiakou",
    "state_id": "516105a4-48fd-4973-8fb1-710e33f2c3be"
  },
  {
    "id": "76055c63-05c9-405f-9216-f6d7992da55d",
    "name": "Zhangjiakou Shi",
    "state_id": "516105a4-48fd-4973-8fb1-710e33f2c3be"
  },
  {
    "id": "2366b92c-bba0-4ff3-a088-1554293128dc",
    "name": "Zhangjiakou Shi Xuanhua Qu",
    "state_id": "516105a4-48fd-4973-8fb1-710e33f2c3be"
  },
  {
    "id": "4a176118-af92-4350-be80-f1c836a557a8",
    "name": "Zhaogezhuang",
    "state_id": "516105a4-48fd-4973-8fb1-710e33f2c3be"
  },
  {
    "id": "11f897c2-2968-4392-81f7-3f1567e229bc",
    "name": "Zunhua",
    "state_id": "516105a4-48fd-4973-8fb1-710e33f2c3be"
  }
]