[
  {
    "id": "17f6070a-ccfb-4dd0-b2ac-9e5d6761ce92",
    "name": "Alvarado",
    "state_id": "525d1edb-1c08-4ce6-aa4e-81d41f64ba25"
  },
  {
    "id": "77a96c64-2b01-432f-9600-86cd885d8157",
    "name": "Cartago",
    "state_id": "525d1edb-1c08-4ce6-aa4e-81d41f64ba25"
  },
  {
    "id": "130eafdb-b283-43c0-a59d-75ffadd1031a",
    "name": "Concepción",
    "state_id": "525d1edb-1c08-4ce6-aa4e-81d41f64ba25"
  },
  {
    "id": "730ab011-5d64-4b51-a1c4-cab964b354ae",
    "name": "Cot",
    "state_id": "525d1edb-1c08-4ce6-aa4e-81d41f64ba25"
  },
  {
    "id": "c8c3865a-72e2-4ad8-988d-73c61d3368c1",
    "name": "El Guarco",
    "state_id": "525d1edb-1c08-4ce6-aa4e-81d41f64ba25"
  },
  {
    "id": "c9740d1a-caef-45ab-9a3e-7c7a9b6b792f",
    "name": "Jiménez",
    "state_id": "525d1edb-1c08-4ce6-aa4e-81d41f64ba25"
  },
  {
    "id": "5887b77a-6975-494c-b724-34fb0dc606b3",
    "name": "La Suiza",
    "state_id": "525d1edb-1c08-4ce6-aa4e-81d41f64ba25"
  },
  {
    "id": "f9168ad8-dfef-4dac-94ee-cb37122547df",
    "name": "La Unión",
    "state_id": "525d1edb-1c08-4ce6-aa4e-81d41f64ba25"
  },
  {
    "id": "21e5b1c8-10e9-4e42-902d-28b9b25ad94d",
    "name": "Oreamuno",
    "state_id": "525d1edb-1c08-4ce6-aa4e-81d41f64ba25"
  },
  {
    "id": "19c0ce62-5053-43a0-8df0-184b6cb6add3",
    "name": "Orosí",
    "state_id": "525d1edb-1c08-4ce6-aa4e-81d41f64ba25"
  },
  {
    "id": "1dea1e1f-7f3a-47fa-a624-3690c828bb73",
    "name": "Pacayas",
    "state_id": "525d1edb-1c08-4ce6-aa4e-81d41f64ba25"
  },
  {
    "id": "dc40e749-a47c-46f3-8212-50fd7dd506ab",
    "name": "Paraíso",
    "state_id": "525d1edb-1c08-4ce6-aa4e-81d41f64ba25"
  },
  {
    "id": "cc96c900-9d65-479b-8f2c-cdd8e3fc56ca",
    "name": "Pejibaye",
    "state_id": "525d1edb-1c08-4ce6-aa4e-81d41f64ba25"
  },
  {
    "id": "b5b20fcb-51ac-4de1-b41a-4fa17e71539a",
    "name": "San Diego",
    "state_id": "525d1edb-1c08-4ce6-aa4e-81d41f64ba25"
  },
  {
    "id": "fe9ed89a-801e-453b-8c13-390b8af47547",
    "name": "Tobosi",
    "state_id": "525d1edb-1c08-4ce6-aa4e-81d41f64ba25"
  },
  {
    "id": "49bb79b7-0c30-4d1f-9d77-de547d6558a9",
    "name": "Tres Ríos",
    "state_id": "525d1edb-1c08-4ce6-aa4e-81d41f64ba25"
  },
  {
    "id": "946947fe-8f3a-4757-9b0e-82ae7f1349df",
    "name": "Tucurrique",
    "state_id": "525d1edb-1c08-4ce6-aa4e-81d41f64ba25"
  },
  {
    "id": "88fbe8ae-3db0-4241-be87-e68a3e0e6fbb",
    "name": "Turrialba",
    "state_id": "525d1edb-1c08-4ce6-aa4e-81d41f64ba25"
  }
]