[
  {
    "id": "15c5e482-cfa4-4e15-b338-2461f9dee9c1",
    "name": "Gaborone",
    "state_id": "52a9a733-aee1-4e5d-9391-8c0f56ca3f1c"
  },
  {
    "id": "efb291bf-75f2-4c0b-bf4e-e377655f4735",
    "name": "Janeng",
    "state_id": "52a9a733-aee1-4e5d-9391-8c0f56ca3f1c"
  },
  {
    "id": "9361ca2f-8ac3-4c1b-bc36-9d501f40e649",
    "name": "Kopong",
    "state_id": "52a9a733-aee1-4e5d-9391-8c0f56ca3f1c"
  },
  {
    "id": "bcaf1a25-35a3-4799-9b56-09718110a428",
    "name": "Otse",
    "state_id": "52a9a733-aee1-4e5d-9391-8c0f56ca3f1c"
  },
  {
    "id": "391070a7-1495-4c80-815d-3c89aa429009",
    "name": "Ramotswa",
    "state_id": "52a9a733-aee1-4e5d-9391-8c0f56ca3f1c"
  }
]