[
  {
    "id": "e71b277f-3842-4f5d-a081-938a1da00922",
    "name": "Agalatovo",
    "state_id": "54d8dda6-601a-4504-8726-19ee826f6a6c"
  },
  {
    "id": "5f45b7bd-8f07-48a9-90e7-858fa64e3a70",
    "name": "Akademicheskoe",
    "state_id": "54d8dda6-601a-4504-8726-19ee826f6a6c"
  },
  {
    "id": "6f6e839f-270d-4bb2-b5d1-04dc98b6e2bb",
    "name": "Annino",
    "state_id": "54d8dda6-601a-4504-8726-19ee826f6a6c"
  },
  {
    "id": "465b13de-c969-48aa-8969-dbac4489d4a4",
    "name": "Begunitsy",
    "state_id": "54d8dda6-601a-4504-8726-19ee826f6a6c"
  },
  {
    "id": "83da8021-a88e-4d39-afee-7591c9cb9d28",
    "name": "Boksitogorsk",
    "state_id": "54d8dda6-601a-4504-8726-19ee826f6a6c"
  },
  {
    "id": "1971e9af-0ef7-422b-a88c-5149b43b002d",
    "name": "Boksitogorskiy Rayon",
    "state_id": "54d8dda6-601a-4504-8726-19ee826f6a6c"
  },
  {
    "id": "698864da-0fc1-4729-ae5c-9102c37e393c",
    "name": "Bol’shaya Izhora",
    "state_id": "54d8dda6-601a-4504-8726-19ee826f6a6c"
  },
  {
    "id": "8fc5c7c4-7e3b-476d-89db-411ffd59cb83",
    "name": "Borisova Griva",
    "state_id": "54d8dda6-601a-4504-8726-19ee826f6a6c"
  },
  {
    "id": "b272abd6-be97-46d6-ba66-fcd8fa12e3a4",
    "name": "Budogoshch’",
    "state_id": "54d8dda6-601a-4504-8726-19ee826f6a6c"
  },
  {
    "id": "23d7707c-bcac-496f-8eb8-e031138e3cb6",
    "name": "Bugry",
    "state_id": "54d8dda6-601a-4504-8726-19ee826f6a6c"
  },
  {
    "id": "29d2b73b-388c-45d4-ab2a-78ca60ef8dd5",
    "name": "Chernaya Rechka",
    "state_id": "54d8dda6-601a-4504-8726-19ee826f6a6c"
  },
  {
    "id": "d2d87d4d-2ba7-40ef-b12c-a48a9d15dddc",
    "name": "Druzhnaya Gorka",
    "state_id": "54d8dda6-601a-4504-8726-19ee826f6a6c"
  },
  {
    "id": "20fc2955-a3a6-454d-9b09-f96d69f1a5c9",
    "name": "Fëdorovskoye",
    "state_id": "54d8dda6-601a-4504-8726-19ee826f6a6c"
  },
  {
    "id": "bbc4301d-3ef5-414b-9ef3-46cab48e9539",
    "name": "Finlyandskiy",
    "state_id": "54d8dda6-601a-4504-8726-19ee826f6a6c"
  },
  {
    "id": "1b615ca5-c7b4-4868-8a21-5943fcd527d5",
    "name": "Fornosovo",
    "state_id": "54d8dda6-601a-4504-8726-19ee826f6a6c"
  },
  {
    "id": "2ae75a4b-b9d1-45fd-8a1e-84fa6b2c54e8",
    "name": "Garbolovo",
    "state_id": "54d8dda6-601a-4504-8726-19ee826f6a6c"
  },
  {
    "id": "7613ada7-9d33-4c64-85a0-78ad0f6de54e",
    "name": "Gatchina",
    "state_id": "54d8dda6-601a-4504-8726-19ee826f6a6c"
  },
  {
    "id": "6bb3bb30-488c-4e43-97ff-ad5a43679ad3",
    "name": "Glebychevo",
    "state_id": "54d8dda6-601a-4504-8726-19ee826f6a6c"
  },
  {
    "id": "24401d76-fb44-4799-abfb-1babbbf4d68c",
    "name": "Gorbunki",
    "state_id": "54d8dda6-601a-4504-8726-19ee826f6a6c"
  },
  {
    "id": "c5e70758-1350-49e0-899e-0d62d1999b11",
    "name": "Gorskaya",
    "state_id": "54d8dda6-601a-4504-8726-19ee826f6a6c"
  },
  {
    "id": "1bbbaef5-9059-4c60-8acb-c1b5abade611",
    "name": "Gostilitsy",
    "state_id": "54d8dda6-601a-4504-8726-19ee826f6a6c"
  },
  {
    "id": "92f7b6ab-e49b-42e0-8f01-9abae7469c94",
    "name": "Il’ichëvo",
    "state_id": "54d8dda6-601a-4504-8726-19ee826f6a6c"
  },
  {
    "id": "dfdff492-c0d6-483e-b4c4-a8e101ba0463",
    "name": "Imeni Morozova",
    "state_id": "54d8dda6-601a-4504-8726-19ee826f6a6c"
  },
  {
    "id": "b671bf8a-9801-4f70-8f79-24d0665bb4d5",
    "name": "Imeni Sverdlova",
    "state_id": "54d8dda6-601a-4504-8726-19ee826f6a6c"
  },
  {
    "id": "d77e65f1-82ba-4e3c-a24d-debd59353dc4",
    "name": "Issad",
    "state_id": "54d8dda6-601a-4504-8726-19ee826f6a6c"
  },
  {
    "id": "9215f8eb-cde0-406d-8a88-9057f40d2b8b",
    "name": "Ivangorod",
    "state_id": "54d8dda6-601a-4504-8726-19ee826f6a6c"
  },
  {
    "id": "63e37ae8-6426-4d5e-9f98-f4a3746326fc",
    "name": "Kalininskiy",
    "state_id": "54d8dda6-601a-4504-8726-19ee826f6a6c"
  },
  {
    "id": "f662b791-b293-42e2-b712-bc1ebe43608d",
    "name": "Kamenka",
    "state_id": "54d8dda6-601a-4504-8726-19ee826f6a6c"
  },
  {
    "id": "9ced6d9e-88de-4f3d-a077-83cc4ef70125",
    "name": "Kamennogorsk",
    "state_id": "54d8dda6-601a-4504-8726-19ee826f6a6c"
  },
  {
    "id": "d56f1d28-614f-4347-87bc-86141f841ff3",
    "name": "Khvalovo",
    "state_id": "54d8dda6-601a-4504-8726-19ee826f6a6c"
  },
  {
    "id": "b5cbce1d-acfa-495a-b687-277878742263",
    "name": "Kikerino",
    "state_id": "54d8dda6-601a-4504-8726-19ee826f6a6c"
  },
  {
    "id": "ad93fed5-ea2e-4fb9-b43e-0e2cd61b48ca",
    "name": "Kingisepp",
    "state_id": "54d8dda6-601a-4504-8726-19ee826f6a6c"
  },
  {
    "id": "68de8292-15bf-4c4f-98dc-ae82f8e83377",
    "name": "Kingiseppskiy Rayon",
    "state_id": "54d8dda6-601a-4504-8726-19ee826f6a6c"
  },
  {
    "id": "fdabdb7b-d119-4a88-ab1b-8da4d5202533",
    "name": "Kipen’",
    "state_id": "54d8dda6-601a-4504-8726-19ee826f6a6c"
  },
  {
    "id": "2aad0ce2-982c-4041-86c1-be0a0bdf9db6",
    "name": "Kirishi",
    "state_id": "54d8dda6-601a-4504-8726-19ee826f6a6c"
  },
  {
    "id": "098c3ca2-7403-4b41-8ce1-6319d4d9a6d2",
    "name": "Kirovsk",
    "state_id": "54d8dda6-601a-4504-8726-19ee826f6a6c"
  },
  {
    "id": "4079607b-610c-4055-9a8a-e73f162939dd",
    "name": "Kirovskiy Rayon",
    "state_id": "54d8dda6-601a-4504-8726-19ee826f6a6c"
  },
  {
    "id": "654a0b02-22ec-40f4-a30c-fb81f6beaba2",
    "name": "Kobrinskoye",
    "state_id": "54d8dda6-601a-4504-8726-19ee826f6a6c"
  },
  {
    "id": "6bff63c8-73e1-468b-85a5-269be261a3c9",
    "name": "Kolchanovo",
    "state_id": "54d8dda6-601a-4504-8726-19ee826f6a6c"
  },
  {
    "id": "24a39869-0f4c-4151-8e84-3eb733b1280b",
    "name": "Koltushi",
    "state_id": "54d8dda6-601a-4504-8726-19ee826f6a6c"
  },
  {
    "id": "c9e6626f-4477-43a7-b372-4397ee43f31b",
    "name": "Kommunar",
    "state_id": "54d8dda6-601a-4504-8726-19ee826f6a6c"
  },
  {
    "id": "a673de31-7e96-453d-8c09-11dad74bf308",
    "name": "Kopor’ye",
    "state_id": "54d8dda6-601a-4504-8726-19ee826f6a6c"
  },
  {
    "id": "afe5257b-5ece-4c8b-bf34-b5bfd63cb934",
    "name": "Korobitsyno",
    "state_id": "54d8dda6-601a-4504-8726-19ee826f6a6c"
  },
  {
    "id": "bb8211fe-6dc0-4bb8-a21b-d102a0ceee24",
    "name": "Krasnyy Bor",
    "state_id": "54d8dda6-601a-4504-8726-19ee826f6a6c"
  },
  {
    "id": "f3ec8be8-edbb-4715-9aa7-2f8b485783a4",
    "name": "Krestovskiy ostrov",
    "state_id": "54d8dda6-601a-4504-8726-19ee826f6a6c"
  },
  {
    "id": "a228eb20-9d89-45dd-b800-08c895a70523",
    "name": "Kurortnyy",
    "state_id": "54d8dda6-601a-4504-8726-19ee826f6a6c"
  },
  {
    "id": "4eb1adca-aec1-4568-a383-e3c18758134f",
    "name": "Kuyvozi",
    "state_id": "54d8dda6-601a-4504-8726-19ee826f6a6c"
  },
  {
    "id": "9dd8ceea-8056-46b8-bfce-f179e370f36c",
    "name": "Kuznechnoye",
    "state_id": "54d8dda6-601a-4504-8726-19ee826f6a6c"
  },
  {
    "id": "a87132f9-cb5e-4ca4-b387-e4aa3b03b008",
    "name": "Lebyazh’ye",
    "state_id": "54d8dda6-601a-4504-8726-19ee826f6a6c"
  },
  {
    "id": "b040d7cd-f81d-45ac-bb87-5f4a6fe052e6",
    "name": "Leninskoye",
    "state_id": "54d8dda6-601a-4504-8726-19ee826f6a6c"
  },
  {
    "id": "1dea112a-7d18-4cc5-aed9-776ba942ddd9",
    "name": "Leskolovo",
    "state_id": "54d8dda6-601a-4504-8726-19ee826f6a6c"
  },
  {
    "id": "bafe4c96-7b15-4b4d-a8d5-bfa0e0438ad8",
    "name": "Lesogorskiy",
    "state_id": "54d8dda6-601a-4504-8726-19ee826f6a6c"
  },
  {
    "id": "efee2f08-f801-42f6-b9ab-53620922db83",
    "name": "Lodeynopol’skiy Rayon",
    "state_id": "54d8dda6-601a-4504-8726-19ee826f6a6c"
  },
  {
    "id": "94b6b4cf-8634-42fa-83c4-cf5957d3f358",
    "name": "Lodeynoye Pole",
    "state_id": "54d8dda6-601a-4504-8726-19ee826f6a6c"
  },
  {
    "id": "4b20e27d-4810-47ff-8c4d-ce9adc07c7d9",
    "name": "Lomonosovskiy Rayon",
    "state_id": "54d8dda6-601a-4504-8726-19ee826f6a6c"
  },
  {
    "id": "e014ec7f-dd9d-4ff4-8395-1fb079ba9a01",
    "name": "Luga",
    "state_id": "54d8dda6-601a-4504-8726-19ee826f6a6c"
  },
  {
    "id": "2c96bbba-3177-4d6a-83d8-9a8226e0f2a7",
    "name": "Luppolovo",
    "state_id": "54d8dda6-601a-4504-8726-19ee826f6a6c"
  },
  {
    "id": "a5124906-1c2f-4169-9a12-f18d6c1f71a0",
    "name": "Luzhskiy Rayon",
    "state_id": "54d8dda6-601a-4504-8726-19ee826f6a6c"
  },
  {
    "id": "b47d01ec-7e19-4e35-8018-bc4b6944526a",
    "name": "Lyuban’",
    "state_id": "54d8dda6-601a-4504-8726-19ee826f6a6c"
  },
  {
    "id": "265018b0-98ff-4731-b1d7-5785456c2c82",
    "name": "Maloye Verevo",
    "state_id": "54d8dda6-601a-4504-8726-19ee826f6a6c"
  },
  {
    "id": "beae8f29-137e-4c0d-94b7-c211e1e16f84",
    "name": "Mariyenburg",
    "state_id": "54d8dda6-601a-4504-8726-19ee826f6a6c"
  },
  {
    "id": "1ccc7c5a-ab4f-425a-82ea-f682c194c405",
    "name": "Mga",
    "state_id": "54d8dda6-601a-4504-8726-19ee826f6a6c"
  },
  {
    "id": "e525fa1c-dc01-4bf0-be97-fe83b7bb146a",
    "name": "Michurinskoye",
    "state_id": "54d8dda6-601a-4504-8726-19ee826f6a6c"
  },
  {
    "id": "abf91e2b-5be3-4cbf-825e-3067d4deb403",
    "name": "Mshinskaya",
    "state_id": "54d8dda6-601a-4504-8726-19ee826f6a6c"
  },
  {
    "id": "8510f271-bc43-487c-87f6-e8243197990f",
    "name": "Murino",
    "state_id": "54d8dda6-601a-4504-8726-19ee826f6a6c"
  },
  {
    "id": "13ac8ebb-2b45-47f7-b246-6d49459a7c07",
    "name": "Nikol’skoye",
    "state_id": "54d8dda6-601a-4504-8726-19ee826f6a6c"
  },
  {
    "id": "7cd4aa18-5046-42b7-a332-5533893ccabc",
    "name": "Novaya Ladoga",
    "state_id": "54d8dda6-601a-4504-8726-19ee826f6a6c"
  },
  {
    "id": "c0d3905d-7b10-4b44-b790-497143f00bdd",
    "name": "Novoye Devyatkino",
    "state_id": "54d8dda6-601a-4504-8726-19ee826f6a6c"
  },
  {
    "id": "04a5d4ff-9cd0-4690-bafc-5ccb2572c738",
    "name": "Nurma",
    "state_id": "54d8dda6-601a-4504-8726-19ee826f6a6c"
  },
  {
    "id": "316e44a2-6912-471e-a670-1e654859d6e5",
    "name": "Ol’gino",
    "state_id": "54d8dda6-601a-4504-8726-19ee826f6a6c"
  },
  {
    "id": "3672fa9e-e70e-4a7b-9b6f-7c981a396be6",
    "name": "Osel’ki",
    "state_id": "54d8dda6-601a-4504-8726-19ee826f6a6c"
  },
  {
    "id": "2b96522a-e893-49cd-b84d-61e6927e4176",
    "name": "Otradnoye",
    "state_id": "54d8dda6-601a-4504-8726-19ee826f6a6c"
  },
  {
    "id": "202b9df6-8cdf-4899-8d31-39d239e692e4",
    "name": "Parnas",
    "state_id": "54d8dda6-601a-4504-8726-19ee826f6a6c"
  },
  {
    "id": "ed7f48ad-4fa1-42e9-868f-30526b393a8b",
    "name": "Pasha",
    "state_id": "54d8dda6-601a-4504-8726-19ee826f6a6c"
  },
  {
    "id": "f1449644-2efa-47f3-8340-afb729599d10",
    "name": "Pavlovo",
    "state_id": "54d8dda6-601a-4504-8726-19ee826f6a6c"
  },
  {
    "id": "aee7237c-af72-4c08-b186-880d0946462f",
    "name": "Pervomayskoye",
    "state_id": "54d8dda6-601a-4504-8726-19ee826f6a6c"
  },
  {
    "id": "ebcd6ce6-d8bc-499b-9e64-701e96f39845",
    "name": "Pikalëvo",
    "state_id": "54d8dda6-601a-4504-8726-19ee826f6a6c"
  },
  {
    "id": "f1db2a85-bb80-49b0-a0e4-bc7928d48181",
    "name": "Podporozh’ye",
    "state_id": "54d8dda6-601a-4504-8726-19ee826f6a6c"
  },
  {
    "id": "e4e6f6cb-be20-4977-b970-c58b3dbce27a",
    "name": "Podporozhskiy Rayon",
    "state_id": "54d8dda6-601a-4504-8726-19ee826f6a6c"
  },
  {
    "id": "a41089bc-9446-4334-9ec4-8c3e0c5ed534",
    "name": "Priladozhskiy",
    "state_id": "54d8dda6-601a-4504-8726-19ee826f6a6c"
  },
  {
    "id": "62840e53-26fd-4824-a11e-f1fdf81900bf",
    "name": "Primorsk",
    "state_id": "54d8dda6-601a-4504-8726-19ee826f6a6c"
  },
  {
    "id": "933863fe-e6e4-4107-a101-64a74d0e95d7",
    "name": "Priozërsk",
    "state_id": "54d8dda6-601a-4504-8726-19ee826f6a6c"
  },
  {
    "id": "11954917-427a-4b80-9f3d-9a9ed5f06941",
    "name": "Priozersky",
    "state_id": "54d8dda6-601a-4504-8726-19ee826f6a6c"
  },
  {
    "id": "964ca1c0-6a77-4beb-a144-dd9166e876ab",
    "name": "Romanovka",
    "state_id": "54d8dda6-601a-4504-8726-19ee826f6a6c"
  },
  {
    "id": "474d9b6d-120b-4fc7-8c62-dd206d5a7fef",
    "name": "Roshchino",
    "state_id": "54d8dda6-601a-4504-8726-19ee826f6a6c"
  },
  {
    "id": "5a0046f3-aa8d-447e-a28e-bb8f9a8f59af",
    "name": "Rozhdestveno",
    "state_id": "54d8dda6-601a-4504-8726-19ee826f6a6c"
  },
  {
    "id": "545bf342-849b-425e-9ee9-d91f3edf92c7",
    "name": "Russko-Vysotskoye",
    "state_id": "54d8dda6-601a-4504-8726-19ee826f6a6c"
  },
  {
    "id": "67428539-e100-45f3-a4d0-560e2ca4be5f",
    "name": "Ryabovo",
    "state_id": "54d8dda6-601a-4504-8726-19ee826f6a6c"
  },
  {
    "id": "b1e859de-997d-4028-8569-8c87310acd78",
    "name": "Rybatskoye",
    "state_id": "54d8dda6-601a-4504-8726-19ee826f6a6c"
  },
  {
    "id": "c7f0ab47-2ba8-4691-8dd3-acf261180893",
    "name": "Sampsonievskiy",
    "state_id": "54d8dda6-601a-4504-8726-19ee826f6a6c"
  },
  {
    "id": "e3283cd6-b15b-4660-b05c-7c49b32cd4f9",
    "name": "Sapernoye",
    "state_id": "54d8dda6-601a-4504-8726-19ee826f6a6c"
  },
  {
    "id": "e3cfe3e5-90df-4c83-8694-80c0b6f0d0db",
    "name": "Semiozerje",
    "state_id": "54d8dda6-601a-4504-8726-19ee826f6a6c"
  },
  {
    "id": "41b6ec02-9ae8-4de8-9a63-58d85f383c7b",
    "name": "Sertolovo",
    "state_id": "54d8dda6-601a-4504-8726-19ee826f6a6c"
  },
  {
    "id": "95e84646-263a-4c1f-808d-d1c206043923",
    "name": "Shcheglovo",
    "state_id": "54d8dda6-601a-4504-8726-19ee826f6a6c"
  },
  {
    "id": "181d98e4-ec20-4810-91fa-ef67e8b6f8d7",
    "name": "Shlissel’burg",
    "state_id": "54d8dda6-601a-4504-8726-19ee826f6a6c"
  },
  {
    "id": "eccf76f8-cc74-455d-8885-a04e5249193a",
    "name": "Sinyavino",
    "state_id": "54d8dda6-601a-4504-8726-19ee826f6a6c"
  },
  {
    "id": "831728d3-956e-4f2d-a1f3-334cefdb7af4",
    "name": "Sista-Palkino",
    "state_id": "54d8dda6-601a-4504-8726-19ee826f6a6c"
  },
  {
    "id": "fd79ab71-20b8-4143-aee9-6bcec573b610",
    "name": "Siverskiy",
    "state_id": "54d8dda6-601a-4504-8726-19ee826f6a6c"
  },
  {
    "id": "f87b0ee7-f395-47aa-b373-4e3bea1c43de",
    "name": "Slantsevskiy Rayon",
    "state_id": "54d8dda6-601a-4504-8726-19ee826f6a6c"
  },
  {
    "id": "a0617cad-8344-48d7-9425-ef7b5618c6b2",
    "name": "Slantsy",
    "state_id": "54d8dda6-601a-4504-8726-19ee826f6a6c"
  },
  {
    "id": "2d1865b1-23e8-447b-bda0-5ac488828270",
    "name": "Sosnovo",
    "state_id": "54d8dda6-601a-4504-8726-19ee826f6a6c"
  },
  {
    "id": "0c9d4d70-7656-4eea-9397-f37218b1551a",
    "name": "Sosnovyy Bor",
    "state_id": "54d8dda6-601a-4504-8726-19ee826f6a6c"
  },
  {
    "id": "6c4ec1d1-b0a4-4f33-83a4-8fed08c1cdbd",
    "name": "Sovetskiy",
    "state_id": "54d8dda6-601a-4504-8726-19ee826f6a6c"
  },
  {
    "id": "49b0c595-f4e1-4fc5-88ec-408e0423c387",
    "name": "Staraya",
    "state_id": "54d8dda6-601a-4504-8726-19ee826f6a6c"
  },
  {
    "id": "195a3bf2-690d-4f30-ba73-64f98f971a42",
    "name": "Staraya Ladoga",
    "state_id": "54d8dda6-601a-4504-8726-19ee826f6a6c"
  },
  {
    "id": "6ec20ba5-cafb-48cb-9404-d6b0f5bc3623",
    "name": "Svetlanovskiy",
    "state_id": "54d8dda6-601a-4504-8726-19ee826f6a6c"
  },
  {
    "id": "88d1b945-3b08-4d6d-852b-843a52273fcf",
    "name": "Svetogorsk",
    "state_id": "54d8dda6-601a-4504-8726-19ee826f6a6c"
  },
  {
    "id": "13fb7692-8063-4255-8ea8-58c5f01bd66e",
    "name": "Syas’stroy",
    "state_id": "54d8dda6-601a-4504-8726-19ee826f6a6c"
  },
  {
    "id": "df2f57ab-8121-44dc-ac24-377e360274f8",
    "name": "Taytsy",
    "state_id": "54d8dda6-601a-4504-8726-19ee826f6a6c"
  },
  {
    "id": "0795a010-4c14-4d8d-886a-0dddfd814d90",
    "name": "Tikhvin",
    "state_id": "54d8dda6-601a-4504-8726-19ee826f6a6c"
  },
  {
    "id": "7798cdf5-6b02-47a9-84d8-72dd4fedaf9b",
    "name": "Tikhvinskiy Rayon",
    "state_id": "54d8dda6-601a-4504-8726-19ee826f6a6c"
  },
  {
    "id": "6b3e171a-abdc-4115-abb2-eac9dea8cbaa",
    "name": "Toksovo",
    "state_id": "54d8dda6-601a-4504-8726-19ee826f6a6c"
  },
  {
    "id": "86b520cb-8c95-427d-81a4-d9c61cf4ac19",
    "name": "Tolmachevo",
    "state_id": "54d8dda6-601a-4504-8726-19ee826f6a6c"
  },
  {
    "id": "3537bf0f-71bd-4785-8f1c-b93cbbbdba42",
    "name": "Tosnenskiy Rayon",
    "state_id": "54d8dda6-601a-4504-8726-19ee826f6a6c"
  },
  {
    "id": "67474440-3f98-44e8-936b-9fffacee8cbc",
    "name": "Tosno",
    "state_id": "54d8dda6-601a-4504-8726-19ee826f6a6c"
  },
  {
    "id": "f954b156-83c5-4362-84fd-65bee4645801",
    "name": "Udel’naya",
    "state_id": "54d8dda6-601a-4504-8726-19ee826f6a6c"
  },
  {
    "id": "890f0030-1c64-469a-9b63-05dcfff7380f",
    "name": "Ul’yanovka",
    "state_id": "54d8dda6-601a-4504-8726-19ee826f6a6c"
  },
  {
    "id": "9405a1c8-c1ef-4a83-b2d8-742bdafb0f39",
    "name": "Untolovo",
    "state_id": "54d8dda6-601a-4504-8726-19ee826f6a6c"
  },
  {
    "id": "0b1a0a43-6e43-4ae1-b9c8-95163276dd54",
    "name": "Ust’-Luga",
    "state_id": "54d8dda6-601a-4504-8726-19ee826f6a6c"
  },
  {
    "id": "97643b06-9934-480b-876b-81afe2410728",
    "name": "Vaskelovo",
    "state_id": "54d8dda6-601a-4504-8726-19ee826f6a6c"
  },
  {
    "id": "ee60bd8c-d3a3-4aad-88fb-54488876ab59",
    "name": "Vazhiny",
    "state_id": "54d8dda6-601a-4504-8726-19ee826f6a6c"
  },
  {
    "id": "c40d3144-54e3-4093-8263-88312a2842ca",
    "name": "Verkhniye Osel’ki",
    "state_id": "54d8dda6-601a-4504-8726-19ee826f6a6c"
  },
  {
    "id": "0fb2fa1b-fd9b-4c04-a800-d1c18bb2c713",
    "name": "Veshchevo",
    "state_id": "54d8dda6-601a-4504-8726-19ee826f6a6c"
  },
  {
    "id": "26d70035-7c03-4550-a4ce-7c3f1a944126",
    "name": "Vinnitsy",
    "state_id": "54d8dda6-601a-4504-8726-19ee826f6a6c"
  },
  {
    "id": "8dba967b-50ac-479c-bbfe-5027ba136e84",
    "name": "Vistino",
    "state_id": "54d8dda6-601a-4504-8726-19ee826f6a6c"
  },
  {
    "id": "0af9ecbe-b5ce-4aeb-bf41-8c741a5e07c2",
    "name": "Volkhov",
    "state_id": "54d8dda6-601a-4504-8726-19ee826f6a6c"
  },
  {
    "id": "34f1c404-e82f-43a7-a039-a36954e1814d",
    "name": "Volkhovskiy rayon",
    "state_id": "54d8dda6-601a-4504-8726-19ee826f6a6c"
  },
  {
    "id": "7709e453-f9e1-4071-8f5c-10338b2de84d",
    "name": "Volosovo",
    "state_id": "54d8dda6-601a-4504-8726-19ee826f6a6c"
  },
  {
    "id": "61e60ba0-64cc-4a4d-9f4b-405ccbd7d725",
    "name": "Volosovskiy Rayon",
    "state_id": "54d8dda6-601a-4504-8726-19ee826f6a6c"
  },
  {
    "id": "9acdef7d-b6d0-41bb-bbaf-286aad145d0f",
    "name": "Voyskovitsy",
    "state_id": "54d8dda6-601a-4504-8726-19ee826f6a6c"
  },
  {
    "id": "fcdea747-6b9e-4a4a-ae7d-fb61dae4ca32",
    "name": "Voznesen’ye",
    "state_id": "54d8dda6-601a-4504-8726-19ee826f6a6c"
  },
  {
    "id": "d61ebb78-3293-4ed6-849f-443fd0f076d5",
    "name": "Vsevolozhsk",
    "state_id": "54d8dda6-601a-4504-8726-19ee826f6a6c"
  },
  {
    "id": "7583137b-d753-4c2c-a3ce-9171ace09436",
    "name": "Vsevolozhskiy Rayon",
    "state_id": "54d8dda6-601a-4504-8726-19ee826f6a6c"
  },
  {
    "id": "b0808bec-f262-4cbf-bb7f-0f142c294596",
    "name": "Vyborg",
    "state_id": "54d8dda6-601a-4504-8726-19ee826f6a6c"
  },
  {
    "id": "ccd68923-7733-496c-b169-689391b538f7",
    "name": "Vyritsa",
    "state_id": "54d8dda6-601a-4504-8726-19ee826f6a6c"
  },
  {
    "id": "f9039b8d-1f6a-4921-8879-de25c746aa4d",
    "name": "Vysotsk",
    "state_id": "54d8dda6-601a-4504-8726-19ee826f6a6c"
  },
  {
    "id": "24874393-9cf6-4155-84ef-ec2b884d4072",
    "name": "Yakovlevo",
    "state_id": "54d8dda6-601a-4504-8726-19ee826f6a6c"
  },
  {
    "id": "0fb5ad03-e0df-4e5d-b4ac-556e95ff3f50",
    "name": "Yanino-1",
    "state_id": "54d8dda6-601a-4504-8726-19ee826f6a6c"
  },
  {
    "id": "013075e9-9486-4476-a179-4f2072fcd71b",
    "name": "Yaroslavichi",
    "state_id": "54d8dda6-601a-4504-8726-19ee826f6a6c"
  },
  {
    "id": "fe836366-89dc-48e6-bab4-6c533f12e0c3",
    "name": "Yefimovskiy",
    "state_id": "54d8dda6-601a-4504-8726-19ee826f6a6c"
  },
  {
    "id": "eef39651-241c-4323-96f7-43b903701d08",
    "name": "Yelizavetino",
    "state_id": "54d8dda6-601a-4504-8726-19ee826f6a6c"
  }
]