[
  {
    "id": "642522f9-480c-4147-ba4b-a7da403bca7a",
    "name": "Abeokuta",
    "state_id": "55e476f9-899f-44a5-b1d8-e2b150af3388"
  },
  {
    "id": "2436e974-f066-4b94-b6ce-1c450a80083c",
    "name": "Ado Odo",
    "state_id": "55e476f9-899f-44a5-b1d8-e2b150af3388"
  },
  {
    "id": "348261c2-d3f3-407a-974b-a608580c1ca7",
    "name": "Idi Iroko",
    "state_id": "55e476f9-899f-44a5-b1d8-e2b150af3388"
  },
  {
    "id": "9f65d314-b0d8-47a3-a326-ce4b6cd95147",
    "name": "Ifo",
    "state_id": "55e476f9-899f-44a5-b1d8-e2b150af3388"
  },
  {
    "id": "ce22cfc3-0174-44ce-851f-89a3db0798ac",
    "name": "Ijebu-Ife",
    "state_id": "55e476f9-899f-44a5-b1d8-e2b150af3388"
  },
  {
    "id": "37bb594a-fb3f-4c77-8bc9-0cf6113b5fa0",
    "name": "Ijebu-Igbo",
    "state_id": "55e476f9-899f-44a5-b1d8-e2b150af3388"
  },
  {
    "id": "d9fee8a3-2e15-47f1-9468-6c21bf9425fa",
    "name": "Ijebu-Ode",
    "state_id": "55e476f9-899f-44a5-b1d8-e2b150af3388"
  },
  {
    "id": "ebc2b304-b7a6-42aa-a894-a0a0a9e1a54a",
    "name": "Ilaro",
    "state_id": "55e476f9-899f-44a5-b1d8-e2b150af3388"
  },
  {
    "id": "9534fffd-dd66-4d5b-a593-8d2c478a27df",
    "name": "Imeko",
    "state_id": "55e476f9-899f-44a5-b1d8-e2b150af3388"
  },
  {
    "id": "c33674b8-1436-451b-b2c3-8659d8d22bb6",
    "name": "Iperu",
    "state_id": "55e476f9-899f-44a5-b1d8-e2b150af3388"
  },
  {
    "id": "83fae24d-92ec-441e-83b0-c701e7f7317f",
    "name": "Isara",
    "state_id": "55e476f9-899f-44a5-b1d8-e2b150af3388"
  },
  {
    "id": "5c7dde04-9e50-4321-89bc-a2fd0854e5d3",
    "name": "Owode",
    "state_id": "55e476f9-899f-44a5-b1d8-e2b150af3388"
  }
]