[
  {
    "id": "530c226d-fffe-4f22-99b5-6c10659fa67b",
    "name": "Askenish",
    "state_id": "560d4e1e-38ab-45e8-85e6-5cfac983b4c3"
  },
  {
    "id": "8bfd04a8-2331-4388-be83-82cd90c66131",
    "name": "Cacoon",
    "state_id": "560d4e1e-38ab-45e8-85e6-5cfac983b4c3"
  },
  {
    "id": "ba25e615-41dc-472e-94ce-5015f3e7d4b5",
    "name": "Cacoon Castle",
    "state_id": "560d4e1e-38ab-45e8-85e6-5cfac983b4c3"
  },
  {
    "id": "623f47ce-0bf4-413d-aebf-9a5e644f6b49",
    "name": "Cascade",
    "state_id": "560d4e1e-38ab-45e8-85e6-5cfac983b4c3"
  },
  {
    "id": "48679746-a86b-4b3a-bcf3-ae1f82b550c5",
    "name": "Cash Hill",
    "state_id": "560d4e1e-38ab-45e8-85e6-5cfac983b4c3"
  },
  {
    "id": "2c7267a1-3a8c-4b6a-a6b4-65f7c075886f",
    "name": "Cauldwell",
    "state_id": "560d4e1e-38ab-45e8-85e6-5cfac983b4c3"
  },
  {
    "id": "6055be7b-66f3-4c3e-a8cb-7a29921ddc14",
    "name": "Chambers Pen",
    "state_id": "560d4e1e-38ab-45e8-85e6-5cfac983b4c3"
  },
  {
    "id": "dc8a7395-d1d1-4ccb-a9ba-5885576e532f",
    "name": "Chester Castle",
    "state_id": "560d4e1e-38ab-45e8-85e6-5cfac983b4c3"
  },
  {
    "id": "df9da449-aa55-4087-8b05-b79956ac41d4",
    "name": "Copse",
    "state_id": "560d4e1e-38ab-45e8-85e6-5cfac983b4c3"
  },
  {
    "id": "94d4bfdc-4463-4185-a5de-a7e709597e37",
    "name": "Cousins Cove",
    "state_id": "560d4e1e-38ab-45e8-85e6-5cfac983b4c3"
  },
  {
    "id": "ed5aa8ca-1f8d-4fcf-8079-041b208bbe39",
    "name": "Dias",
    "state_id": "560d4e1e-38ab-45e8-85e6-5cfac983b4c3"
  },
  {
    "id": "98cca52e-5bfe-482d-87d5-06514716b040",
    "name": "Great Valley",
    "state_id": "560d4e1e-38ab-45e8-85e6-5cfac983b4c3"
  },
  {
    "id": "cd342b73-3d64-403f-9d79-3a806c96bc01",
    "name": "Green Island",
    "state_id": "560d4e1e-38ab-45e8-85e6-5cfac983b4c3"
  },
  {
    "id": "de8b4c0c-7e89-40c3-ab2e-af67a2226a18",
    "name": "Haddington",
    "state_id": "560d4e1e-38ab-45e8-85e6-5cfac983b4c3"
  },
  {
    "id": "21d0fae6-3dbc-404a-a35c-76e85eb30084",
    "name": "Hopewell",
    "state_id": "560d4e1e-38ab-45e8-85e6-5cfac983b4c3"
  },
  {
    "id": "04895579-e66f-449d-9135-1fc61616a002",
    "name": "Jericho",
    "state_id": "560d4e1e-38ab-45e8-85e6-5cfac983b4c3"
  },
  {
    "id": "b6392e50-e0a0-45fc-88e8-df11f7895675",
    "name": "Kendal",
    "state_id": "560d4e1e-38ab-45e8-85e6-5cfac983b4c3"
  },
  {
    "id": "9babad28-5678-4620-bc1a-6749f684a72e",
    "name": "Kingsvale",
    "state_id": "560d4e1e-38ab-45e8-85e6-5cfac983b4c3"
  },
  {
    "id": "19889f4d-df3a-48f5-bc5d-9dbfb40722a0",
    "name": "Lances Bay",
    "state_id": "560d4e1e-38ab-45e8-85e6-5cfac983b4c3"
  },
  {
    "id": "d9111d20-988d-487b-8d21-d64fa2ac0749",
    "name": "Logwood",
    "state_id": "560d4e1e-38ab-45e8-85e6-5cfac983b4c3"
  },
  {
    "id": "e4c3e7cb-3881-422a-bb28-46dd08f16bf8",
    "name": "Lucea",
    "state_id": "560d4e1e-38ab-45e8-85e6-5cfac983b4c3"
  },
  {
    "id": "5b2916bd-877d-49e0-8f01-14b27af534a6",
    "name": "Lucea East",
    "state_id": "560d4e1e-38ab-45e8-85e6-5cfac983b4c3"
  },
  {
    "id": "1563818c-0a7a-45f4-9431-4169dae17049",
    "name": "Lucea West",
    "state_id": "560d4e1e-38ab-45e8-85e6-5cfac983b4c3"
  },
  {
    "id": "dcbefdc2-96ce-4181-80a3-d6a2047e9984",
    "name": "March Town",
    "state_id": "560d4e1e-38ab-45e8-85e6-5cfac983b4c3"
  },
  {
    "id": "220fab0a-a12f-441d-9fae-d7ca4efebbb4",
    "name": "Maryland",
    "state_id": "560d4e1e-38ab-45e8-85e6-5cfac983b4c3"
  },
  {
    "id": "b64065ad-92d7-4244-be6b-ed6cf5bf51fa",
    "name": "Mount Peto",
    "state_id": "560d4e1e-38ab-45e8-85e6-5cfac983b4c3"
  },
  {
    "id": "395d6dda-0eb1-46e4-aa89-fd749e31f307",
    "name": "Orange Bay",
    "state_id": "560d4e1e-38ab-45e8-85e6-5cfac983b4c3"
  },
  {
    "id": "fe2d9447-8be6-471e-81a4-60a57d18f0ba",
    "name": "Pell River",
    "state_id": "560d4e1e-38ab-45e8-85e6-5cfac983b4c3"
  },
  {
    "id": "444f9658-b084-4806-9432-99173df085a0",
    "name": "Pondside",
    "state_id": "560d4e1e-38ab-45e8-85e6-5cfac983b4c3"
  },
  {
    "id": "51394bd8-0c01-4b73-be61-382f4489086b",
    "name": "Ramble",
    "state_id": "560d4e1e-38ab-45e8-85e6-5cfac983b4c3"
  },
  {
    "id": "04b45197-f82f-4aab-bc55-768bbedf1066",
    "name": "Rock Spring",
    "state_id": "560d4e1e-38ab-45e8-85e6-5cfac983b4c3"
  },
  {
    "id": "fde1124e-98fa-4634-88b8-00c4d9793049",
    "name": "Sandy Bay",
    "state_id": "560d4e1e-38ab-45e8-85e6-5cfac983b4c3"
  },
  {
    "id": "671c5b8e-4237-409c-b1a6-512f67880b87",
    "name": "Santoy",
    "state_id": "560d4e1e-38ab-45e8-85e6-5cfac983b4c3"
  },
  {
    "id": "b8ad9ba8-bfba-4f4a-871e-65ca3b96b141",
    "name": "Success",
    "state_id": "560d4e1e-38ab-45e8-85e6-5cfac983b4c3"
  },
  {
    "id": "fbd633ee-3f71-443b-a0a1-ad8b952dc0ea",
    "name": "Woodlands",
    "state_id": "560d4e1e-38ab-45e8-85e6-5cfac983b4c3"
  },
  {
    "id": "4c379191-2cdd-4a48-b481-7d63cff6445a",
    "name": "Woodsville",
    "state_id": "560d4e1e-38ab-45e8-85e6-5cfac983b4c3"
  }
]