[
  {
    "id": "9d9511c5-f9b4-4719-8f66-9e561a005b62",
    "name": "Kurayoshi-shi",
    "state_id": "561a6bb1-071b-46a4-aedb-39dad97a14b8"
  },
  {
    "id": "17ff0f5b-964b-486d-833b-7726d2a184ab",
    "name": "Sakaiminato",
    "state_id": "561a6bb1-071b-46a4-aedb-39dad97a14b8"
  },
  {
    "id": "d8d9eafd-c2ce-4f2e-8c68-9d945cebe3db",
    "name": "Sakaiminato Shi",
    "state_id": "561a6bb1-071b-46a4-aedb-39dad97a14b8"
  },
  {
    "id": "973994df-f466-47ce-b3db-c50647bd11b3",
    "name": "Tottori-shi",
    "state_id": "561a6bb1-071b-46a4-aedb-39dad97a14b8"
  },
  {
    "id": "1d219814-da6d-4fbe-be54-78ed7e7b8401",
    "name": "Yonago Shi",
    "state_id": "561a6bb1-071b-46a4-aedb-39dad97a14b8"
  }
]