[
  {
    "id": "74ec640f-3d25-4942-9caf-3c6ef0a3fdc0",
    "name": "Boradigah",
    "state_id": "564b552f-68ae-4177-96aa-59b17893084c"
  },
  {
    "id": "a29c631a-5429-4846-bd15-6ceea58dff69",
    "name": "Masally",
    "state_id": "564b552f-68ae-4177-96aa-59b17893084c"
  }
]