[
  {
    "id": "a0974a81-c90d-4dd1-bc6a-37858c258490",
    "name": "Beni Mester",
    "state_id": "57dec689-5b89-4e42-b278-0a456880fa4d"
  },
  {
    "id": "7952675e-b342-4837-99ba-69d19acae95c",
    "name": "Bensekrane",
    "state_id": "57dec689-5b89-4e42-b278-0a456880fa4d"
  },
  {
    "id": "9d423d5a-49da-41a7-892e-1bab4909249b",
    "name": "Chetouane",
    "state_id": "57dec689-5b89-4e42-b278-0a456880fa4d"
  },
  {
    "id": "25745fa2-8e01-4b98-9734-3c7b3725fe30",
    "name": "Hennaya",
    "state_id": "57dec689-5b89-4e42-b278-0a456880fa4d"
  },
  {
    "id": "99262954-88c4-438d-8ffc-f418b5839afe",
    "name": "Mansoûra",
    "state_id": "57dec689-5b89-4e42-b278-0a456880fa4d"
  },
  {
    "id": "056c292b-c2d2-474d-8bcf-f4c061fbec9a",
    "name": "Nedroma",
    "state_id": "57dec689-5b89-4e42-b278-0a456880fa4d"
  },
  {
    "id": "42593562-29ae-439e-95ee-ac9036bbb1d8",
    "name": "Ouled Mimoun",
    "state_id": "57dec689-5b89-4e42-b278-0a456880fa4d"
  },
  {
    "id": "f0804638-cb52-4df8-bf51-aa22511912a9",
    "name": "Remchi",
    "state_id": "57dec689-5b89-4e42-b278-0a456880fa4d"
  },
  {
    "id": "aa794e99-db3c-41e0-84e7-eed7551721b4",
    "name": "Sebdou",
    "state_id": "57dec689-5b89-4e42-b278-0a456880fa4d"
  },
  {
    "id": "63d6610c-22b4-43ac-a048-47c860e2178b",
    "name": "Sidi Abdelli",
    "state_id": "57dec689-5b89-4e42-b278-0a456880fa4d"
  },
  {
    "id": "d4d0835b-e2f1-4efc-816c-0f791b9d1311",
    "name": "Sidi Senoussi سيدي سنوسي",
    "state_id": "57dec689-5b89-4e42-b278-0a456880fa4d"
  },
  {
    "id": "d9b5bf59-d849-456a-9585-91d612c2162d",
    "name": "Tlemcen",
    "state_id": "57dec689-5b89-4e42-b278-0a456880fa4d"
  }
]