[
  {
    "id": "c5d40ef7-3a36-4085-8cba-62e22ab63c73",
    "name": "Bavigne",
    "state_id": "585adddc-e75b-441a-9dfd-4f2924e6cb0c"
  },
  {
    "id": "131fc171-4750-424a-ab4b-fe85c4d57791",
    "name": "Boulaide",
    "state_id": "585adddc-e75b-441a-9dfd-4f2924e6cb0c"
  },
  {
    "id": "ccb39a6f-0748-4830-b5e4-d112a4f66f63",
    "name": "Esch-sur-Sûre",
    "state_id": "585adddc-e75b-441a-9dfd-4f2924e6cb0c"
  },
  {
    "id": "584c167f-4108-442f-844b-7298363af987",
    "name": "Goesdorf",
    "state_id": "585adddc-e75b-441a-9dfd-4f2924e6cb0c"
  },
  {
    "id": "7063c0c0-19e6-46a7-9178-a302f9cb3b96",
    "name": "Kiischpelt",
    "state_id": "585adddc-e75b-441a-9dfd-4f2924e6cb0c"
  },
  {
    "id": "f0e8dade-3b94-430b-af47-4caa5b96fea3",
    "name": "Lac de la Haute-Sûre",
    "state_id": "585adddc-e75b-441a-9dfd-4f2924e6cb0c"
  },
  {
    "id": "80639fcb-484b-4fb5-8049-b5b2ba7bfaee",
    "name": "Wiltz",
    "state_id": "585adddc-e75b-441a-9dfd-4f2924e6cb0c"
  },
  {
    "id": "1c08b0a0-edb8-44e5-a1c6-a75936e3f1d6",
    "name": "Wilwerwiltz",
    "state_id": "585adddc-e75b-441a-9dfd-4f2924e6cb0c"
  },
  {
    "id": "00884a47-b38f-4e9e-a081-80f65fed1a52",
    "name": "Winseler",
    "state_id": "585adddc-e75b-441a-9dfd-4f2924e6cb0c"
  }
]