[
  {
    "id": "6c337ea2-0082-43f3-b817-7c7fc648de8b",
    "name": "Amphoe Bang Len",
    "state_id": "58797d92-3224-41a6-bc65-4f243e302845"
  },
  {
    "id": "24006a9f-d103-4244-83ba-0079bfa8e196",
    "name": "Amphoe Don Tum",
    "state_id": "58797d92-3224-41a6-bc65-4f243e302845"
  },
  {
    "id": "4475d1c6-7608-49b2-a17d-3493287b90b4",
    "name": "Amphoe Mueang Nakhon Pathom",
    "state_id": "58797d92-3224-41a6-bc65-4f243e302845"
  },
  {
    "id": "9e666f28-cc99-460c-a46f-f611201f3fb3",
    "name": "Amphoe Nakhon Chai Si",
    "state_id": "58797d92-3224-41a6-bc65-4f243e302845"
  },
  {
    "id": "25db8c18-9e3a-423e-8ab0-af4190b3c49f",
    "name": "Amphoe Phutthamonthon",
    "state_id": "58797d92-3224-41a6-bc65-4f243e302845"
  },
  {
    "id": "1afb6e66-104a-4725-9471-a9b8e64e5867",
    "name": "Amphoe Sam Phran",
    "state_id": "58797d92-3224-41a6-bc65-4f243e302845"
  },
  {
    "id": "b0242f27-eb6d-4de5-bd62-76a2ef3bfd1d",
    "name": "Bang Len",
    "state_id": "58797d92-3224-41a6-bc65-4f243e302845"
  },
  {
    "id": "d6533f2a-2b90-44f9-bf46-d34865a3f715",
    "name": "Kamphaeng Saen District",
    "state_id": "58797d92-3224-41a6-bc65-4f243e302845"
  },
  {
    "id": "4015a0b6-bef5-42e2-95a2-d8825a13497e",
    "name": "Nakhon Pathom",
    "state_id": "58797d92-3224-41a6-bc65-4f243e302845"
  },
  {
    "id": "c584de56-7ff1-4737-be31-1d4bb41f54f3",
    "name": "Sam Phran",
    "state_id": "58797d92-3224-41a6-bc65-4f243e302845"
  }
]