[
  {
    "id": "1f977d93-093c-405b-85fd-d3fcf511ee95",
    "name": "Beatrice",
    "state_id": "58d231ba-6e8c-46d3-8d1f-88ed9b770fb6"
  },
  {
    "id": "0a517a94-9dec-432a-9e4a-c54d7a465523",
    "name": "Chivhu",
    "state_id": "58d231ba-6e8c-46d3-8d1f-88ed9b770fb6"
  },
  {
    "id": "2d170e48-d93f-4697-8a15-d8c884689dc5",
    "name": "Goromonzi District",
    "state_id": "58d231ba-6e8c-46d3-8d1f-88ed9b770fb6"
  },
  {
    "id": "3c516e54-dfbe-4882-a7d8-843646c79737",
    "name": "Macheke",
    "state_id": "58d231ba-6e8c-46d3-8d1f-88ed9b770fb6"
  },
  {
    "id": "53895abf-2c98-44c9-8109-f41f0b82e924",
    "name": "Marondera",
    "state_id": "58d231ba-6e8c-46d3-8d1f-88ed9b770fb6"
  },
  {
    "id": "32e56534-98cc-4025-aca8-b1de466eb49c",
    "name": "Marondera District",
    "state_id": "58d231ba-6e8c-46d3-8d1f-88ed9b770fb6"
  },
  {
    "id": "01ca1339-1669-4119-a8a8-30c71a92dfa0",
    "name": "Mudzi District",
    "state_id": "58d231ba-6e8c-46d3-8d1f-88ed9b770fb6"
  },
  {
    "id": "e645e494-49b5-46d3-b709-0346933e7d7e",
    "name": "Murehwa",
    "state_id": "58d231ba-6e8c-46d3-8d1f-88ed9b770fb6"
  },
  {
    "id": "4ee3757c-d47c-4560-9564-f1cc87456bde",
    "name": "Murehwa District",
    "state_id": "58d231ba-6e8c-46d3-8d1f-88ed9b770fb6"
  },
  {
    "id": "9b04b8ac-9d67-4728-9df8-35456fb6e6ab",
    "name": "Mutoko",
    "state_id": "58d231ba-6e8c-46d3-8d1f-88ed9b770fb6"
  },
  {
    "id": "adce95ff-551c-400e-b0ee-11feb27c3972",
    "name": "Ruwa",
    "state_id": "58d231ba-6e8c-46d3-8d1f-88ed9b770fb6"
  }
]