[
  {
    "id": "30305237-023b-42ad-80cb-8023f3ce95b4",
    "name": "Ilinden",
    "state_id": "58e525de-e160-4fd8-8892-007649d6a669"
  },
  {
    "id": "eea306e0-41ce-44f2-8b71-5d096884da93",
    "name": "Kadino",
    "state_id": "58e525de-e160-4fd8-8892-007649d6a669"
  },
  {
    "id": "b5400114-2a3d-436b-a955-a900e4e2faa3",
    "name": "Marino",
    "state_id": "58e525de-e160-4fd8-8892-007649d6a669"
  },
  {
    "id": "ad136c8d-f281-4617-9467-f8fbcfdb2f01",
    "name": "Miladinovci",
    "state_id": "58e525de-e160-4fd8-8892-007649d6a669"
  },
  {
    "id": "7131738f-7aef-4988-b30d-2e39542e1790",
    "name": "Идризово",
    "state_id": "58e525de-e160-4fd8-8892-007649d6a669"
  },
  {
    "id": "34059806-e7d8-4853-a402-12d72796165e",
    "name": "Јурумлери",
    "state_id": "58e525de-e160-4fd8-8892-007649d6a669"
  }
]