[
  {
    "id": "c4ee63aa-9533-48fb-8891-ee1afda80293",
    "name": "Almirante",
    "state_id": "58faae93-e7a8-417e-8f34-33bd2ccfe804"
  },
  {
    "id": "a0e1899f-0723-4597-adcc-d14c9cbffa69",
    "name": "Barranco",
    "state_id": "58faae93-e7a8-417e-8f34-33bd2ccfe804"
  },
  {
    "id": "d8e9d27a-6d7d-4015-8238-8d43e7681593",
    "name": "Barranco Adentro",
    "state_id": "58faae93-e7a8-417e-8f34-33bd2ccfe804"
  },
  {
    "id": "17ebe580-e3ff-493c-9cb4-b1b38f1e617b",
    "name": "Bastimentos",
    "state_id": "58faae93-e7a8-417e-8f34-33bd2ccfe804"
  },
  {
    "id": "9cec2843-26e8-4e70-a382-6c66c9e0ec36",
    "name": "Bocas del Toro",
    "state_id": "58faae93-e7a8-417e-8f34-33bd2ccfe804"
  },
  {
    "id": "2b9f92a0-53ae-461c-bb56-4db0195d3779",
    "name": "Cauchero",
    "state_id": "58faae93-e7a8-417e-8f34-33bd2ccfe804"
  },
  {
    "id": "b109d8ea-a22a-4aa4-a6ef-1d75db96f2d0",
    "name": "Changuinola",
    "state_id": "58faae93-e7a8-417e-8f34-33bd2ccfe804"
  },
  {
    "id": "0f05b244-96f9-43fa-9e42-10e6e0360295",
    "name": "Chiriquí Grande",
    "state_id": "58faae93-e7a8-417e-8f34-33bd2ccfe804"
  },
  {
    "id": "05f9d1e4-386d-43e1-b8d6-416419fe3e04",
    "name": "Distrito Chiriquí Grande",
    "state_id": "58faae93-e7a8-417e-8f34-33bd2ccfe804"
  },
  {
    "id": "0b673183-1d51-42b0-8b6e-0035f456510a",
    "name": "Distrito de Bocas del Toro",
    "state_id": "58faae93-e7a8-417e-8f34-33bd2ccfe804"
  },
  {
    "id": "d787e4b1-0ec0-4244-a3c6-1d2c5b6dc4cd",
    "name": "Distrito de Changuinola",
    "state_id": "58faae93-e7a8-417e-8f34-33bd2ccfe804"
  },
  {
    "id": "f70562db-be0b-45b7-9048-3397afbd710e",
    "name": "El Empalme",
    "state_id": "58faae93-e7a8-417e-8f34-33bd2ccfe804"
  },
  {
    "id": "52049b2b-509a-4c3a-ac07-68720619bb38",
    "name": "El Silencio",
    "state_id": "58faae93-e7a8-417e-8f34-33bd2ccfe804"
  },
  {
    "id": "6c1d0d9c-1652-464a-bea4-9595022a4922",
    "name": "Guabito",
    "state_id": "58faae93-e7a8-417e-8f34-33bd2ccfe804"
  },
  {
    "id": "cddc52a6-114e-4dac-98df-e09ee7d41643",
    "name": "Isla Bastimentos",
    "state_id": "58faae93-e7a8-417e-8f34-33bd2ccfe804"
  },
  {
    "id": "a237decd-ca98-4790-a737-c29c413eed71",
    "name": "La Mesa",
    "state_id": "58faae93-e7a8-417e-8f34-33bd2ccfe804"
  },
  {
    "id": "87d7d9fc-37f0-4d86-a66e-982def436b89",
    "name": "Miramar",
    "state_id": "58faae93-e7a8-417e-8f34-33bd2ccfe804"
  },
  {
    "id": "1fa0047b-efd5-4874-a195-ff444d4e568c",
    "name": "Punta Laurel",
    "state_id": "58faae93-e7a8-417e-8f34-33bd2ccfe804"
  },
  {
    "id": "d0a8c05b-9dd5-4342-bd7e-ffc55c90a65b",
    "name": "Punta Peña",
    "state_id": "58faae93-e7a8-417e-8f34-33bd2ccfe804"
  },
  {
    "id": "5de793c1-3437-424d-9ff5-acc75c7a0435",
    "name": "Punta Róbalo",
    "state_id": "58faae93-e7a8-417e-8f34-33bd2ccfe804"
  },
  {
    "id": "dcf85466-334d-4876-a234-49237c75b498",
    "name": "Valle del Risco",
    "state_id": "58faae93-e7a8-417e-8f34-33bd2ccfe804"
  }
]