[
  {
    "id": "3625709e-4c9e-4eb4-a553-401ec91f6103",
    "name": "Alcácer do Sal",
    "state_id": "5907b0da-dc5d-43c2-bc7b-2bd298500a66"
  },
  {
    "id": "2c106681-12a9-4b46-ae40-fb9ec6901480",
    "name": "Alcochete",
    "state_id": "5907b0da-dc5d-43c2-bc7b-2bd298500a66"
  },
  {
    "id": "4bee6996-5aee-458d-afbc-4c67513c89cf",
    "name": "Aldeia de Paio Pires",
    "state_id": "5907b0da-dc5d-43c2-bc7b-2bd298500a66"
  },
  {
    "id": "0db641b5-c7e0-45f8-9e65-9c5103f073bf",
    "name": "Alhos Vedros",
    "state_id": "5907b0da-dc5d-43c2-bc7b-2bd298500a66"
  },
  {
    "id": "f1838550-b221-4caa-906a-c4d0976675e9",
    "name": "Almada",
    "state_id": "5907b0da-dc5d-43c2-bc7b-2bd298500a66"
  },
  {
    "id": "9cd2373d-8b33-4cd4-ba8d-18396bd79e17",
    "name": "Amora",
    "state_id": "5907b0da-dc5d-43c2-bc7b-2bd298500a66"
  },
  {
    "id": "f5ce0257-4e14-4dbf-b85a-bab0c56b502b",
    "name": "Arrentela",
    "state_id": "5907b0da-dc5d-43c2-bc7b-2bd298500a66"
  },
  {
    "id": "210888dd-78ae-457b-8e44-6982c6aaeb61",
    "name": "Azeitão",
    "state_id": "5907b0da-dc5d-43c2-bc7b-2bd298500a66"
  },
  {
    "id": "0892eecf-1c20-4f3e-b80c-88c2a29f9cb7",
    "name": "Barreiro",
    "state_id": "5907b0da-dc5d-43c2-bc7b-2bd298500a66"
  },
  {
    "id": "b0aa98df-29c8-40cd-af5f-56cee94340e3",
    "name": "Cacilhas",
    "state_id": "5907b0da-dc5d-43c2-bc7b-2bd298500a66"
  },
  {
    "id": "72f8cf61-2e3a-4a5e-83a3-3a95d99ad02f",
    "name": "Caparica",
    "state_id": "5907b0da-dc5d-43c2-bc7b-2bd298500a66"
  },
  {
    "id": "ea735352-b5c2-4b8e-88d7-8c28b03c4540",
    "name": "Cercal",
    "state_id": "5907b0da-dc5d-43c2-bc7b-2bd298500a66"
  },
  {
    "id": "5a2246ac-f5c3-48c1-a302-e94fd9e86999",
    "name": "Charneca de Caparica",
    "state_id": "5907b0da-dc5d-43c2-bc7b-2bd298500a66"
  },
  {
    "id": "eff2c88c-6e31-4ed0-ac42-6e7147ccb2d1",
    "name": "Comporta",
    "state_id": "5907b0da-dc5d-43c2-bc7b-2bd298500a66"
  },
  {
    "id": "2eaaadc1-e2c0-4e08-970e-f18ba43a6eea",
    "name": "Corroios",
    "state_id": "5907b0da-dc5d-43c2-bc7b-2bd298500a66"
  },
  {
    "id": "ac8be53b-e489-4006-9862-1ad88c352486",
    "name": "Costa de Caparica",
    "state_id": "5907b0da-dc5d-43c2-bc7b-2bd298500a66"
  },
  {
    "id": "4d6cd575-e948-49c7-a944-abd246cab8fd",
    "name": "Grândola",
    "state_id": "5907b0da-dc5d-43c2-bc7b-2bd298500a66"
  },
  {
    "id": "624b7697-bc8d-44cf-bc78-a7d974dd27dc",
    "name": "Laranjeira",
    "state_id": "5907b0da-dc5d-43c2-bc7b-2bd298500a66"
  },
  {
    "id": "ec8bb4f3-8244-4295-b3c8-94839eac8f75",
    "name": "Lavradio",
    "state_id": "5907b0da-dc5d-43c2-bc7b-2bd298500a66"
  },
  {
    "id": "7fe73343-9502-4811-b9bd-50ce0eee6dc3",
    "name": "Moita",
    "state_id": "5907b0da-dc5d-43c2-bc7b-2bd298500a66"
  },
  {
    "id": "54da50e0-8dff-4c01-82b1-c9ca653ba84d",
    "name": "Montijo",
    "state_id": "5907b0da-dc5d-43c2-bc7b-2bd298500a66"
  },
  {
    "id": "792908ff-5035-47c9-83f6-1ec9717b9d99",
    "name": "Palmela",
    "state_id": "5907b0da-dc5d-43c2-bc7b-2bd298500a66"
  },
  {
    "id": "e176ef27-f92a-46a6-8edd-5bf1d40ad8f8",
    "name": "Piedade",
    "state_id": "5907b0da-dc5d-43c2-bc7b-2bd298500a66"
  },
  {
    "id": "de498822-acef-42a6-8717-d1160893980d",
    "name": "Pinhal Novo",
    "state_id": "5907b0da-dc5d-43c2-bc7b-2bd298500a66"
  },
  {
    "id": "12d131d8-1b41-44d0-a146-3b7c4f4f32d0",
    "name": "Porto Covo",
    "state_id": "5907b0da-dc5d-43c2-bc7b-2bd298500a66"
  },
  {
    "id": "3d6b163c-2710-4dd7-b71e-4b227e331e86",
    "name": "Pragal",
    "state_id": "5907b0da-dc5d-43c2-bc7b-2bd298500a66"
  },
  {
    "id": "9725194a-2e9b-4991-b3cd-9e5f9897b86f",
    "name": "Quinta do Anjo",
    "state_id": "5907b0da-dc5d-43c2-bc7b-2bd298500a66"
  },
  {
    "id": "c5f28796-5ca7-4276-805f-c8b3f45f54a1",
    "name": "Quinta Do Conde",
    "state_id": "5907b0da-dc5d-43c2-bc7b-2bd298500a66"
  },
  {
    "id": "a40e491f-966b-484a-af46-3359ba37dfaf",
    "name": "Rosairinho",
    "state_id": "5907b0da-dc5d-43c2-bc7b-2bd298500a66"
  },
  {
    "id": "05de3690-e2ab-448c-af09-27e01becc47b",
    "name": "Samouco",
    "state_id": "5907b0da-dc5d-43c2-bc7b-2bd298500a66"
  },
  {
    "id": "90e86d32-60f6-4b09-bf6c-0ab4554ec587",
    "name": "Santiago do Cacém",
    "state_id": "5907b0da-dc5d-43c2-bc7b-2bd298500a66"
  },
  {
    "id": "12a20db1-63e7-4412-aa8f-815bef96efd1",
    "name": "Santo André",
    "state_id": "5907b0da-dc5d-43c2-bc7b-2bd298500a66"
  },
  {
    "id": "180a82e5-6950-44ed-b940-ad4c379223f6",
    "name": "Santo António da Charneca",
    "state_id": "5907b0da-dc5d-43c2-bc7b-2bd298500a66"
  },
  {
    "id": "65f413f7-d89e-4568-babe-15a5d1d0c9dc",
    "name": "Sarilhos Pequenos",
    "state_id": "5907b0da-dc5d-43c2-bc7b-2bd298500a66"
  },
  {
    "id": "4ea3d93e-219b-4d21-92fd-b4f92b6ae5a4",
    "name": "Seixal",
    "state_id": "5907b0da-dc5d-43c2-bc7b-2bd298500a66"
  },
  {
    "id": "4bf8f989-7343-489d-8e6a-f265037bbe85",
    "name": "Sesimbra",
    "state_id": "5907b0da-dc5d-43c2-bc7b-2bd298500a66"
  },
  {
    "id": "2877284b-61bc-4e57-87d2-3d944383d8d8",
    "name": "Setúbal",
    "state_id": "5907b0da-dc5d-43c2-bc7b-2bd298500a66"
  },
  {
    "id": "99228665-3ae4-4a69-9055-d886137a45a7",
    "name": "Sines",
    "state_id": "5907b0da-dc5d-43c2-bc7b-2bd298500a66"
  },
  {
    "id": "e16194fa-b87b-45f5-95a2-160a5d83f18e",
    "name": "Sobreda",
    "state_id": "5907b0da-dc5d-43c2-bc7b-2bd298500a66"
  },
  {
    "id": "6d248efa-ba12-42c8-ada0-0889f3326d10",
    "name": "Trafaria",
    "state_id": "5907b0da-dc5d-43c2-bc7b-2bd298500a66"
  }
]