[
  {
    "id": "a46e0601-78dc-459a-8393-ca9275069fef",
    "name": "Banie",
    "state_id": "59c8ebda-aa84-43d4-807a-a989a4a52176"
  },
  {
    "id": "a8af66fa-5b82-4289-acab-dea13c44f431",
    "name": "Barlinek",
    "state_id": "59c8ebda-aa84-43d4-807a-a989a4a52176"
  },
  {
    "id": "2c92e95e-dfa3-47d0-991f-27aa847c5ac2",
    "name": "Barwice",
    "state_id": "59c8ebda-aa84-43d4-807a-a989a4a52176"
  },
  {
    "id": "8900618d-636f-4f8a-ad7d-a77e94f8df81",
    "name": "Białogard",
    "state_id": "59c8ebda-aa84-43d4-807a-a989a4a52176"
  },
  {
    "id": "93db3e59-7158-44f9-8ad8-bfe5c9b3b71c",
    "name": "Biały Bór",
    "state_id": "59c8ebda-aa84-43d4-807a-a989a4a52176"
  },
  {
    "id": "fdf19d82-b3bb-4694-be80-21178329a9dc",
    "name": "Bielice",
    "state_id": "59c8ebda-aa84-43d4-807a-a989a4a52176"
  },
  {
    "id": "2aa79d63-aca2-438d-9e91-6dcb1f41e365",
    "name": "Bierzwnik",
    "state_id": "59c8ebda-aa84-43d4-807a-a989a4a52176"
  },
  {
    "id": "b91a1956-a4ef-45f3-82f4-e0c120f5c230",
    "name": "Bobolice",
    "state_id": "59c8ebda-aa84-43d4-807a-a989a4a52176"
  },
  {
    "id": "26c28e3e-ad39-44f7-b123-3468695fd758",
    "name": "Boleszkowice",
    "state_id": "59c8ebda-aa84-43d4-807a-a989a4a52176"
  },
  {
    "id": "b7c6d299-b66c-4904-8e11-21fff78cc6d0",
    "name": "Borne Sulinowo",
    "state_id": "59c8ebda-aa84-43d4-807a-a989a4a52176"
  },
  {
    "id": "75dc16e9-cca1-48f4-bc48-a923ba1ed6f5",
    "name": "Brojce",
    "state_id": "59c8ebda-aa84-43d4-807a-a989a4a52176"
  },
  {
    "id": "c05d57e1-9ab0-4f0b-85b1-543300430bb4",
    "name": "Cedynia",
    "state_id": "59c8ebda-aa84-43d4-807a-a989a4a52176"
  },
  {
    "id": "b077531f-0389-43a2-917f-91d27dc3f2e9",
    "name": "Cerkwica",
    "state_id": "59c8ebda-aa84-43d4-807a-a989a4a52176"
  },
  {
    "id": "c9521da9-7f99-432e-9248-9f8567fc83bf",
    "name": "Chociwel",
    "state_id": "59c8ebda-aa84-43d4-807a-a989a4a52176"
  },
  {
    "id": "d35ec45d-d53a-43f2-a266-10278ac76ffd",
    "name": "Chojna",
    "state_id": "59c8ebda-aa84-43d4-807a-a989a4a52176"
  },
  {
    "id": "7db28c5c-818f-41ad-86b9-393b32a73653",
    "name": "Choszczno",
    "state_id": "59c8ebda-aa84-43d4-807a-a989a4a52176"
  },
  {
    "id": "e90b3422-76d3-436b-acd5-cee79d5582a7",
    "name": "Czaplinek",
    "state_id": "59c8ebda-aa84-43d4-807a-a989a4a52176"
  },
  {
    "id": "078895c6-bf5d-49b2-b3cd-8e7dc3231363",
    "name": "Człopa",
    "state_id": "59c8ebda-aa84-43d4-807a-a989a4a52176"
  },
  {
    "id": "4dd513d2-be7d-49ff-b128-484c29194080",
    "name": "Darłowo",
    "state_id": "59c8ebda-aa84-43d4-807a-a989a4a52176"
  },
  {
    "id": "033e0a29-ad68-4192-ba4e-c76e18929a7f",
    "name": "Dębno",
    "state_id": "59c8ebda-aa84-43d4-807a-a989a4a52176"
  },
  {
    "id": "ffe4e0b8-aabb-4220-ada3-7ba3db3a2d3a",
    "name": "Dobra",
    "state_id": "59c8ebda-aa84-43d4-807a-a989a4a52176"
  },
  {
    "id": "dc9239a4-523a-433a-a833-1a5cff65cb28",
    "name": "Dobrzany",
    "state_id": "59c8ebda-aa84-43d4-807a-a989a4a52176"
  },
  {
    "id": "25051f74-6d2c-4b99-934a-503fb7eb568d",
    "name": "Dolice",
    "state_id": "59c8ebda-aa84-43d4-807a-a989a4a52176"
  },
  {
    "id": "dfd2f3cf-d989-477a-8b67-8c66a61af03d",
    "name": "Drawno",
    "state_id": "59c8ebda-aa84-43d4-807a-a989a4a52176"
  },
  {
    "id": "13e5d96b-b814-4c6b-a4ac-b85d2e4d3508",
    "name": "Drawsko Pomorskie",
    "state_id": "59c8ebda-aa84-43d4-807a-a989a4a52176"
  },
  {
    "id": "f5d434e4-2205-4789-a5cb-105b81d6bf04",
    "name": "Dygowo",
    "state_id": "59c8ebda-aa84-43d4-807a-a989a4a52176"
  },
  {
    "id": "0cbebaec-42d4-4cbb-8323-f5dea7da01e6",
    "name": "Dziwnów",
    "state_id": "59c8ebda-aa84-43d4-807a-a989a4a52176"
  },
  {
    "id": "361c3f12-38b3-429f-af06-b7dd3ffb0135",
    "name": "Golczewo",
    "state_id": "59c8ebda-aa84-43d4-807a-a989a4a52176"
  },
  {
    "id": "6475dcd2-ae35-4afe-a757-5ed72ad0ed68",
    "name": "Goleniów",
    "state_id": "59c8ebda-aa84-43d4-807a-a989a4a52176"
  },
  {
    "id": "f66e7497-6669-4914-ba32-29bf438d76a7",
    "name": "Gościno",
    "state_id": "59c8ebda-aa84-43d4-807a-a989a4a52176"
  },
  {
    "id": "c41671ef-1106-48da-a345-e2931d94739b",
    "name": "Gryfice",
    "state_id": "59c8ebda-aa84-43d4-807a-a989a4a52176"
  },
  {
    "id": "e9234035-51cf-48b5-81d8-d33f1750b745",
    "name": "Gryfino",
    "state_id": "59c8ebda-aa84-43d4-807a-a989a4a52176"
  },
  {
    "id": "cc7d42aa-bfe5-4941-8f77-053f9e2a83f0",
    "name": "Grzmiąca",
    "state_id": "59c8ebda-aa84-43d4-807a-a989a4a52176"
  },
  {
    "id": "3681dcc6-f2c8-43cf-a463-598422b1df06",
    "name": "Grzybowo",
    "state_id": "59c8ebda-aa84-43d4-807a-a989a4a52176"
  },
  {
    "id": "87fef0e8-bee2-414e-80f4-ad1ecd4a1e03",
    "name": "Ińsko",
    "state_id": "59c8ebda-aa84-43d4-807a-a989a4a52176"
  },
  {
    "id": "6fcd8af1-62ea-43d1-a546-34065d3ba8d0",
    "name": "Kalisz Pomorski",
    "state_id": "59c8ebda-aa84-43d4-807a-a989a4a52176"
  },
  {
    "id": "4b43a4dc-812b-4143-854f-a7ebe6264a5e",
    "name": "Kamień Pomorski",
    "state_id": "59c8ebda-aa84-43d4-807a-a989a4a52176"
  },
  {
    "id": "33eb409d-beb0-4794-9dfb-5cd6d16a6949",
    "name": "Karlino",
    "state_id": "59c8ebda-aa84-43d4-807a-a989a4a52176"
  },
  {
    "id": "9339b4e3-1064-4eae-ae81-82a63957d350",
    "name": "Karnice",
    "state_id": "59c8ebda-aa84-43d4-807a-a989a4a52176"
  },
  {
    "id": "90ee7a3e-5298-43cf-849d-eaf09f2df17e",
    "name": "Kobylanka",
    "state_id": "59c8ebda-aa84-43d4-807a-a989a4a52176"
  },
  {
    "id": "18a9303e-c2a2-496a-ad01-0711604dfca8",
    "name": "Kołbaskowo",
    "state_id": "59c8ebda-aa84-43d4-807a-a989a4a52176"
  },
  {
    "id": "1b097f02-97c6-4a8e-992f-710f051b3bb3",
    "name": "Kołobrzeg",
    "state_id": "59c8ebda-aa84-43d4-807a-a989a4a52176"
  },
  {
    "id": "7cda02d5-702e-4124-9c62-6b1afdde8843",
    "name": "Koszalin",
    "state_id": "59c8ebda-aa84-43d4-807a-a989a4a52176"
  },
  {
    "id": "b155b1ab-bc94-4b0c-8b1a-fd71ef942c4f",
    "name": "Krzęcin",
    "state_id": "59c8ebda-aa84-43d4-807a-a989a4a52176"
  },
  {
    "id": "e70c1b7e-43ec-4a44-abf7-389ad0f0af29",
    "name": "Lipiany",
    "state_id": "59c8ebda-aa84-43d4-807a-a989a4a52176"
  },
  {
    "id": "310af9d5-d040-4fcc-9b2b-117bdd213485",
    "name": "Łobez",
    "state_id": "59c8ebda-aa84-43d4-807a-a989a4a52176"
  },
  {
    "id": "012d1267-f3d5-42da-9051-e46b6bbff22e",
    "name": "Łubowo",
    "state_id": "59c8ebda-aa84-43d4-807a-a989a4a52176"
  },
  {
    "id": "3fb47d0b-b27a-4b09-9784-1f6a7314815c",
    "name": "Marianowo",
    "state_id": "59c8ebda-aa84-43d4-807a-a989a4a52176"
  },
  {
    "id": "02c31889-813a-4b13-83a6-e0f35c133b82",
    "name": "Maszewo",
    "state_id": "59c8ebda-aa84-43d4-807a-a989a4a52176"
  },
  {
    "id": "c0f3d7c0-6881-49f7-b939-ecc5d673ab28",
    "name": "Międzyzdroje",
    "state_id": "59c8ebda-aa84-43d4-807a-a989a4a52176"
  },
  {
    "id": "47ba205d-97a2-48de-ba5d-04c2a54d6212",
    "name": "Mielno",
    "state_id": "59c8ebda-aa84-43d4-807a-a989a4a52176"
  },
  {
    "id": "788a5ac2-a46c-4b5a-b038-d5a3a9cbba2e",
    "name": "Mieszkowice",
    "state_id": "59c8ebda-aa84-43d4-807a-a989a4a52176"
  },
  {
    "id": "7bc25a88-7949-497f-a29c-30118cdcfae2",
    "name": "Mirosławiec",
    "state_id": "59c8ebda-aa84-43d4-807a-a989a4a52176"
  },
  {
    "id": "3730e392-23a8-4807-bde6-1237aa412bc4",
    "name": "Moryń",
    "state_id": "59c8ebda-aa84-43d4-807a-a989a4a52176"
  },
  {
    "id": "dd9f4433-ff1e-438f-be7f-c3819a92dba1",
    "name": "Mosty",
    "state_id": "59c8ebda-aa84-43d4-807a-a989a4a52176"
  },
  {
    "id": "3c46c8da-bc61-46ea-8e71-c2c720554b76",
    "name": "Mrzeżyno",
    "state_id": "59c8ebda-aa84-43d4-807a-a989a4a52176"
  },
  {
    "id": "5d6e861c-1a8a-4006-b6e6-897d74235b28",
    "name": "Myślibórz",
    "state_id": "59c8ebda-aa84-43d4-807a-a989a4a52176"
  },
  {
    "id": "4a6a96f2-665d-48c0-a2a1-743e8a5e5dec",
    "name": "Nowe Warpno",
    "state_id": "59c8ebda-aa84-43d4-807a-a989a4a52176"
  },
  {
    "id": "ccda907c-3b92-4820-8029-cbb6126378d7",
    "name": "Nowogard",
    "state_id": "59c8ebda-aa84-43d4-807a-a989a4a52176"
  },
  {
    "id": "8bf35199-e7a1-4362-8342-e2e1935b8e93",
    "name": "Nowogródek Pomorski",
    "state_id": "59c8ebda-aa84-43d4-807a-a989a4a52176"
  },
  {
    "id": "c16a16b3-b8a8-4c06-850e-1d64e57b2ab7",
    "name": "Osina",
    "state_id": "59c8ebda-aa84-43d4-807a-a989a4a52176"
  },
  {
    "id": "4fa99ac4-7f26-4127-acb5-457036eb3e60",
    "name": "Pełczyce",
    "state_id": "59c8ebda-aa84-43d4-807a-a989a4a52176"
  },
  {
    "id": "754696ba-b2cd-48a0-8e77-b02e7dfd8773",
    "name": "Płoty",
    "state_id": "59c8ebda-aa84-43d4-807a-a989a4a52176"
  },
  {
    "id": "9355edb5-894b-419c-9958-e644f241f15e",
    "name": "Pobierowo",
    "state_id": "59c8ebda-aa84-43d4-807a-a989a4a52176"
  },
  {
    "id": "ad9e6209-a138-4432-8f74-e69443e3ba83",
    "name": "Polanów",
    "state_id": "59c8ebda-aa84-43d4-807a-a989a4a52176"
  },
  {
    "id": "ac4325cc-3f43-4af3-8a54-0d839507b340",
    "name": "Police",
    "state_id": "59c8ebda-aa84-43d4-807a-a989a4a52176"
  },
  {
    "id": "1bb21ac1-d6b8-4c11-860f-4405cf268108",
    "name": "Połczyn-Zdrój",
    "state_id": "59c8ebda-aa84-43d4-807a-a989a4a52176"
  },
  {
    "id": "f05a8750-74e9-4ccd-b72a-45b637c74ddd",
    "name": "Powiat białogardzki",
    "state_id": "59c8ebda-aa84-43d4-807a-a989a4a52176"
  },
  {
    "id": "603e73b6-b054-4ced-b41c-e2b4e182f586",
    "name": "Powiat choszczeński",
    "state_id": "59c8ebda-aa84-43d4-807a-a989a4a52176"
  },
  {
    "id": "81b2d4df-ee42-4d21-bdf3-33a024c84269",
    "name": "Powiat drawski",
    "state_id": "59c8ebda-aa84-43d4-807a-a989a4a52176"
  },
  {
    "id": "77664195-a241-4fdd-a157-ec823347faa0",
    "name": "Powiat goleniowski",
    "state_id": "59c8ebda-aa84-43d4-807a-a989a4a52176"
  },
  {
    "id": "fe9dd6f0-580e-42ee-b6a1-775dec790322",
    "name": "Powiat gryficki",
    "state_id": "59c8ebda-aa84-43d4-807a-a989a4a52176"
  },
  {
    "id": "6093ea74-8031-4acf-803d-73097b8a1adc",
    "name": "Powiat gryfiński",
    "state_id": "59c8ebda-aa84-43d4-807a-a989a4a52176"
  },
  {
    "id": "6aef4c18-abf2-4f52-88e9-b59ca96e6826",
    "name": "Powiat kamieński",
    "state_id": "59c8ebda-aa84-43d4-807a-a989a4a52176"
  },
  {
    "id": "c663a45b-6092-439d-acdc-f5ab526e4666",
    "name": "Powiat kołobrzeski",
    "state_id": "59c8ebda-aa84-43d4-807a-a989a4a52176"
  },
  {
    "id": "16167d82-e22d-4a4f-ae2c-90dda1027f55",
    "name": "Powiat koszaliński",
    "state_id": "59c8ebda-aa84-43d4-807a-a989a4a52176"
  },
  {
    "id": "2c99aa5c-49ba-4325-876f-6ffb866fbc99",
    "name": "Powiat łobeski",
    "state_id": "59c8ebda-aa84-43d4-807a-a989a4a52176"
  },
  {
    "id": "0f13c510-d710-453e-94d0-f206692f7704",
    "name": "Powiat myśliborski",
    "state_id": "59c8ebda-aa84-43d4-807a-a989a4a52176"
  },
  {
    "id": "63768fcc-6fc0-4481-b9be-a78398fe5099",
    "name": "Powiat policki",
    "state_id": "59c8ebda-aa84-43d4-807a-a989a4a52176"
  },
  {
    "id": "15be4296-0b7a-48c5-ab01-45a49c1212f2",
    "name": "Powiat pyrzycki",
    "state_id": "59c8ebda-aa84-43d4-807a-a989a4a52176"
  },
  {
    "id": "82eb9073-9715-4904-acbd-74c16cf64d9c",
    "name": "Powiat sławieński",
    "state_id": "59c8ebda-aa84-43d4-807a-a989a4a52176"
  },
  {
    "id": "454667da-402f-48c8-9fd7-4f445c3a5ce8",
    "name": "Powiat stargardzki",
    "state_id": "59c8ebda-aa84-43d4-807a-a989a4a52176"
  },
  {
    "id": "04c15400-9104-48ba-bf80-ef8ccfb248e5",
    "name": "Powiat świdwiński",
    "state_id": "59c8ebda-aa84-43d4-807a-a989a4a52176"
  },
  {
    "id": "039dd61a-1e6c-4e5e-9cb8-13a51a48728f",
    "name": "Powiat szczecinecki",
    "state_id": "59c8ebda-aa84-43d4-807a-a989a4a52176"
  },
  {
    "id": "017d65f2-f957-41dc-99b8-ae5a12823025",
    "name": "Powiat wałecki",
    "state_id": "59c8ebda-aa84-43d4-807a-a989a4a52176"
  },
  {
    "id": "b42e89dd-7611-4f07-996d-687cbe58446b",
    "name": "Przecław",
    "state_id": "59c8ebda-aa84-43d4-807a-a989a4a52176"
  },
  {
    "id": "c2564802-1966-437a-ac9a-ac3df134e593",
    "name": "Przelewice",
    "state_id": "59c8ebda-aa84-43d4-807a-a989a4a52176"
  },
  {
    "id": "eca26529-2d32-4944-8820-eea0a00ffab2",
    "name": "Przybiernów",
    "state_id": "59c8ebda-aa84-43d4-807a-a989a4a52176"
  },
  {
    "id": "067760de-4bac-411e-9618-5bdef1449cd6",
    "name": "Pyrzyce",
    "state_id": "59c8ebda-aa84-43d4-807a-a989a4a52176"
  },
  {
    "id": "200f90a0-53fa-4e09-a9ad-5e920f08aa47",
    "name": "Rąbino",
    "state_id": "59c8ebda-aa84-43d4-807a-a989a4a52176"
  },
  {
    "id": "aa0ef322-bc6b-4773-8fa1-3f49d21722f7",
    "name": "Radowo Małe",
    "state_id": "59c8ebda-aa84-43d4-807a-a989a4a52176"
  },
  {
    "id": "d0933568-a39a-4530-8cfe-d1a5a0f1d7f9",
    "name": "Recz",
    "state_id": "59c8ebda-aa84-43d4-807a-a989a4a52176"
  },
  {
    "id": "b99e7add-b5f3-49db-818d-7a196cdc647a",
    "name": "Resko",
    "state_id": "59c8ebda-aa84-43d4-807a-a989a4a52176"
  },
  {
    "id": "b06494d5-e084-48a7-a72d-74aa054c556d",
    "name": "Rewal",
    "state_id": "59c8ebda-aa84-43d4-807a-a989a4a52176"
  },
  {
    "id": "a988d644-b5b0-4cc8-a8a0-6ee0fa3372b2",
    "name": "Rymań",
    "state_id": "59c8ebda-aa84-43d4-807a-a989a4a52176"
  },
  {
    "id": "1dd96b16-4e0c-4b43-b922-2612e3b38090",
    "name": "Sianów",
    "state_id": "59c8ebda-aa84-43d4-807a-a989a4a52176"
  },
  {
    "id": "18628bf5-5f17-4e73-bee7-524e8d296e2f",
    "name": "Sławno",
    "state_id": "59c8ebda-aa84-43d4-807a-a989a4a52176"
  },
  {
    "id": "08950bd7-2ea5-4ae0-b8a7-11ea7e50ddd1",
    "name": "Sławoborze",
    "state_id": "59c8ebda-aa84-43d4-807a-a989a4a52176"
  },
  {
    "id": "0f9955a2-1a3c-4043-a9df-692a3941d3e2",
    "name": "Stara Dąbrowa",
    "state_id": "59c8ebda-aa84-43d4-807a-a989a4a52176"
  },
  {
    "id": "f9efa952-c98f-46fb-87e5-434e8e7d357e",
    "name": "Stare Czarnowo",
    "state_id": "59c8ebda-aa84-43d4-807a-a989a4a52176"
  },
  {
    "id": "99c64de2-3e15-40e1-b239-b3e98893a6be",
    "name": "Stargard",
    "state_id": "59c8ebda-aa84-43d4-807a-a989a4a52176"
  },
  {
    "id": "2b9b634e-9c44-40f7-a082-b63a35760bac",
    "name": "Stepnica",
    "state_id": "59c8ebda-aa84-43d4-807a-a989a4a52176"
  },
  {
    "id": "6a44a291-6be6-45bc-9a76-3c28c8b2ee43",
    "name": "Suchań",
    "state_id": "59c8ebda-aa84-43d4-807a-a989a4a52176"
  },
  {
    "id": "8dedf1b6-e57b-4d99-9256-8a613b47c625",
    "name": "Świdwin",
    "state_id": "59c8ebda-aa84-43d4-807a-a989a4a52176"
  },
  {
    "id": "d9425f0d-afcf-4847-918a-f155f6777400",
    "name": "Świerzno",
    "state_id": "59c8ebda-aa84-43d4-807a-a989a4a52176"
  },
  {
    "id": "71d9c3d5-8063-4948-a53e-ceef3fd832a7",
    "name": "Świnoujście",
    "state_id": "59c8ebda-aa84-43d4-807a-a989a4a52176"
  },
  {
    "id": "35162cc6-4810-4934-badf-fcf20468cd64",
    "name": "Szczecin",
    "state_id": "59c8ebda-aa84-43d4-807a-a989a4a52176"
  },
  {
    "id": "f52b6e28-fadc-493e-95c9-aea376048a21",
    "name": "Szczecinek",
    "state_id": "59c8ebda-aa84-43d4-807a-a989a4a52176"
  },
  {
    "id": "b476991d-29ad-43bb-a413-4cb3c068f254",
    "name": "Trzcińsko Zdrój",
    "state_id": "59c8ebda-aa84-43d4-807a-a989a4a52176"
  },
  {
    "id": "5efa3b40-82d8-49a6-ae86-a65234559557",
    "name": "Trzebiatów",
    "state_id": "59c8ebda-aa84-43d4-807a-a989a4a52176"
  },
  {
    "id": "ca6e7387-179a-4d85-91ab-153146573546",
    "name": "Tuczno",
    "state_id": "59c8ebda-aa84-43d4-807a-a989a4a52176"
  },
  {
    "id": "c929b680-0d6c-429c-8fde-2cd0e22a4c45",
    "name": "Tychowo",
    "state_id": "59c8ebda-aa84-43d4-807a-a989a4a52176"
  },
  {
    "id": "2997ecfe-8239-4041-9ab6-86adacb92819",
    "name": "Ustronie Morskie",
    "state_id": "59c8ebda-aa84-43d4-807a-a989a4a52176"
  },
  {
    "id": "13cd52e5-578b-44b8-af28-b1215786f702",
    "name": "Wałcz",
    "state_id": "59c8ebda-aa84-43d4-807a-a989a4a52176"
  },
  {
    "id": "3f415b1d-e48a-496e-98ec-f3620cf8cd04",
    "name": "Warnice",
    "state_id": "59c8ebda-aa84-43d4-807a-a989a4a52176"
  },
  {
    "id": "96680574-2a9b-4c15-b332-77e1dc960815",
    "name": "Węgorzyno",
    "state_id": "59c8ebda-aa84-43d4-807a-a989a4a52176"
  },
  {
    "id": "3eb2b7f1-62a7-44c3-a033-e4b97fe31436",
    "name": "Widuchowa",
    "state_id": "59c8ebda-aa84-43d4-807a-a989a4a52176"
  },
  {
    "id": "62bce58e-cb78-4e9b-a7b3-8d2ebef6aba9",
    "name": "Wierzchowo",
    "state_id": "59c8ebda-aa84-43d4-807a-a989a4a52176"
  },
  {
    "id": "43711f0a-3e1c-445c-900a-962064b95528",
    "name": "Wolin",
    "state_id": "59c8ebda-aa84-43d4-807a-a989a4a52176"
  },
  {
    "id": "695be176-2b3d-480c-a130-b7c4c12be28f",
    "name": "Złocieniec",
    "state_id": "59c8ebda-aa84-43d4-807a-a989a4a52176"
  }
]