[
  {
    "id": "afed3141-e5d2-4e1b-9591-7b923e76a25b",
    "name": "Abony",
    "state_id": "59e837b2-e9a4-4fb1-9035-0b8a88e06fe6"
  },
  {
    "id": "9ecadab2-2ea0-48d0-8afc-aff7e1ead66a",
    "name": "Acsa",
    "state_id": "59e837b2-e9a4-4fb1-9035-0b8a88e06fe6"
  },
  {
    "id": "580b1d97-4084-487c-8e2c-69b1bd4d4ff1",
    "name": "Albertirsa",
    "state_id": "59e837b2-e9a4-4fb1-9035-0b8a88e06fe6"
  },
  {
    "id": "9587c792-59dd-461a-a18b-765625f41603",
    "name": "Alsónémedi",
    "state_id": "59e837b2-e9a4-4fb1-9035-0b8a88e06fe6"
  },
  {
    "id": "c27dd242-1ad1-44d5-8943-c93d3ea58755",
    "name": "Aszód",
    "state_id": "59e837b2-e9a4-4fb1-9035-0b8a88e06fe6"
  },
  {
    "id": "5f10f2b5-0d77-4451-8511-36d93a1d87a2",
    "name": "Aszódi Járás",
    "state_id": "59e837b2-e9a4-4fb1-9035-0b8a88e06fe6"
  },
  {
    "id": "264f0c31-55f0-491e-a315-d97d56a19a47",
    "name": "Bag",
    "state_id": "59e837b2-e9a4-4fb1-9035-0b8a88e06fe6"
  },
  {
    "id": "7c7bb2d8-4052-4498-b671-5715cbc79ee5",
    "name": "Biatorbágy",
    "state_id": "59e837b2-e9a4-4fb1-9035-0b8a88e06fe6"
  },
  {
    "id": "58e964f3-e684-4c9b-92d1-23ac4e5d4c3f",
    "name": "Budakalász",
    "state_id": "59e837b2-e9a4-4fb1-9035-0b8a88e06fe6"
  },
  {
    "id": "265a6a77-14f0-4e3d-86e1-ec681d3a7369",
    "name": "Budakeszi",
    "state_id": "59e837b2-e9a4-4fb1-9035-0b8a88e06fe6"
  },
  {
    "id": "be0c106c-fd28-4dbb-b499-b6f804090556",
    "name": "Budakeszi Járás",
    "state_id": "59e837b2-e9a4-4fb1-9035-0b8a88e06fe6"
  },
  {
    "id": "72be7502-fabc-4c2a-8d9f-a1d960f44c4d",
    "name": "Budaörs",
    "state_id": "59e837b2-e9a4-4fb1-9035-0b8a88e06fe6"
  },
  {
    "id": "6fa04040-3697-470e-a4a8-5597bffe0f78",
    "name": "Bugyi",
    "state_id": "59e837b2-e9a4-4fb1-9035-0b8a88e06fe6"
  },
  {
    "id": "3ebbefc8-e913-4db8-a05d-b70e2db17e7e",
    "name": "Cegléd",
    "state_id": "59e837b2-e9a4-4fb1-9035-0b8a88e06fe6"
  },
  {
    "id": "1b82e054-1e1e-44b8-8d20-5b4ee6cb9f36",
    "name": "Ceglédbercel",
    "state_id": "59e837b2-e9a4-4fb1-9035-0b8a88e06fe6"
  },
  {
    "id": "56239574-14e9-496f-80fc-cd7d082ba425",
    "name": "Ceglédi Járás",
    "state_id": "59e837b2-e9a4-4fb1-9035-0b8a88e06fe6"
  },
  {
    "id": "1d929d1c-4bd3-41e4-b8eb-241744eb4e95",
    "name": "Csemő",
    "state_id": "59e837b2-e9a4-4fb1-9035-0b8a88e06fe6"
  },
  {
    "id": "f8e3a204-445d-4f2a-89cd-9b832e5f4f90",
    "name": "Csobánka",
    "state_id": "59e837b2-e9a4-4fb1-9035-0b8a88e06fe6"
  },
  {
    "id": "b1ea2ea0-3d55-419e-bd1d-839ec57cc4a3",
    "name": "Csömör",
    "state_id": "59e837b2-e9a4-4fb1-9035-0b8a88e06fe6"
  },
  {
    "id": "7c831e8f-d620-45d9-b0cc-92c516c7e0a4",
    "name": "Dabas",
    "state_id": "59e837b2-e9a4-4fb1-9035-0b8a88e06fe6"
  },
  {
    "id": "ff2fc29e-d1eb-454a-9708-51af1422b620",
    "name": "Dabasi Járás",
    "state_id": "59e837b2-e9a4-4fb1-9035-0b8a88e06fe6"
  },
  {
    "id": "a9873deb-6004-490d-8ecb-50620293bb2e",
    "name": "Dánszentmiklós",
    "state_id": "59e837b2-e9a4-4fb1-9035-0b8a88e06fe6"
  },
  {
    "id": "ae31ed27-4edd-44b0-b714-b50dfe5ac7f2",
    "name": "Dány",
    "state_id": "59e837b2-e9a4-4fb1-9035-0b8a88e06fe6"
  },
  {
    "id": "fe2e16a7-3841-42c1-996d-99411d360fa2",
    "name": "Délegyháza",
    "state_id": "59e837b2-e9a4-4fb1-9035-0b8a88e06fe6"
  },
  {
    "id": "e2d2c178-986d-40f5-9875-2b7526da3dd6",
    "name": "Diósd",
    "state_id": "59e837b2-e9a4-4fb1-9035-0b8a88e06fe6"
  },
  {
    "id": "6450b57e-f8dc-4dc1-8b49-fa617469497e",
    "name": "Domony",
    "state_id": "59e837b2-e9a4-4fb1-9035-0b8a88e06fe6"
  },
  {
    "id": "8ef88cf7-ef63-4542-b92d-cf4b03818eb0",
    "name": "Dömsöd",
    "state_id": "59e837b2-e9a4-4fb1-9035-0b8a88e06fe6"
  },
  {
    "id": "35d8f01a-c220-418d-8ef5-61cf97a6d571",
    "name": "Dunabogdány",
    "state_id": "59e837b2-e9a4-4fb1-9035-0b8a88e06fe6"
  },
  {
    "id": "ebc2fa25-ec50-4681-98c3-ad24da68241a",
    "name": "Dunaharaszti",
    "state_id": "59e837b2-e9a4-4fb1-9035-0b8a88e06fe6"
  },
  {
    "id": "2249dca0-8ea8-402a-9b57-d83c635e8ba6",
    "name": "Dunakeszi",
    "state_id": "59e837b2-e9a4-4fb1-9035-0b8a88e06fe6"
  },
  {
    "id": "821db53c-ff21-4751-a709-c44a30553e32",
    "name": "Dunakeszi Járás",
    "state_id": "59e837b2-e9a4-4fb1-9035-0b8a88e06fe6"
  },
  {
    "id": "2aedb24a-2d64-4aa7-933c-7406f9d045fc",
    "name": "Dunavarsány",
    "state_id": "59e837b2-e9a4-4fb1-9035-0b8a88e06fe6"
  },
  {
    "id": "05007a5c-e150-4f47-8971-6329e8d14e69",
    "name": "Ecser",
    "state_id": "59e837b2-e9a4-4fb1-9035-0b8a88e06fe6"
  },
  {
    "id": "b49cd08b-2390-4ce7-92bc-2b3739cb0047",
    "name": "Érd",
    "state_id": "59e837b2-e9a4-4fb1-9035-0b8a88e06fe6"
  },
  {
    "id": "b537d7f5-3563-4939-88fa-9599de704790",
    "name": "Érdi Járás",
    "state_id": "59e837b2-e9a4-4fb1-9035-0b8a88e06fe6"
  },
  {
    "id": "f8c3097f-f14b-45ae-afcd-f34a1e597fc8",
    "name": "Erdőkertes",
    "state_id": "59e837b2-e9a4-4fb1-9035-0b8a88e06fe6"
  },
  {
    "id": "bc8c8b9c-3ccd-41f0-9274-375c37c13d89",
    "name": "Farmos",
    "state_id": "59e837b2-e9a4-4fb1-9035-0b8a88e06fe6"
  },
  {
    "id": "1b8b01b4-4921-449d-80e4-ce827382242c",
    "name": "Felsőpakony",
    "state_id": "59e837b2-e9a4-4fb1-9035-0b8a88e06fe6"
  },
  {
    "id": "7a846115-f119-4a99-9341-483554f808d3",
    "name": "Forrópuszta",
    "state_id": "59e837b2-e9a4-4fb1-9035-0b8a88e06fe6"
  },
  {
    "id": "995f2f3e-af49-4076-8e40-1a8d3212974a",
    "name": "Fót",
    "state_id": "59e837b2-e9a4-4fb1-9035-0b8a88e06fe6"
  },
  {
    "id": "5a3332d8-e9f8-4fa6-a891-a668a09969ae",
    "name": "Galgahévíz",
    "state_id": "59e837b2-e9a4-4fb1-9035-0b8a88e06fe6"
  },
  {
    "id": "38a90dd5-6752-4b53-8d7a-b5cf4db94b91",
    "name": "Galgamácsa",
    "state_id": "59e837b2-e9a4-4fb1-9035-0b8a88e06fe6"
  },
  {
    "id": "c69ca0a3-6870-4927-b562-f2ccbcd7174c",
    "name": "Göd",
    "state_id": "59e837b2-e9a4-4fb1-9035-0b8a88e06fe6"
  },
  {
    "id": "6dc618f4-dad0-4b93-915c-0f94aeb688f3",
    "name": "Gödöllő",
    "state_id": "59e837b2-e9a4-4fb1-9035-0b8a88e06fe6"
  },
  {
    "id": "03b006af-b2e0-43da-b881-dae0e6884528",
    "name": "Gödöllői Járás",
    "state_id": "59e837b2-e9a4-4fb1-9035-0b8a88e06fe6"
  },
  {
    "id": "4cd88e20-037d-4fd8-8418-db61b88a5513",
    "name": "Gomba",
    "state_id": "59e837b2-e9a4-4fb1-9035-0b8a88e06fe6"
  },
  {
    "id": "c4165883-ead3-483e-a0fa-34d4045a9a60",
    "name": "Gyál",
    "state_id": "59e837b2-e9a4-4fb1-9035-0b8a88e06fe6"
  },
  {
    "id": "e5fc54c2-6c22-4017-aa72-2200fef80545",
    "name": "Gyáli Járás",
    "state_id": "59e837b2-e9a4-4fb1-9035-0b8a88e06fe6"
  },
  {
    "id": "1b23b042-b81f-41ae-877d-1d884fe2e973",
    "name": "Gyömrő",
    "state_id": "59e837b2-e9a4-4fb1-9035-0b8a88e06fe6"
  },
  {
    "id": "b2955497-b4d8-45b4-9f14-49a4cddd9877",
    "name": "Halásztelek",
    "state_id": "59e837b2-e9a4-4fb1-9035-0b8a88e06fe6"
  },
  {
    "id": "d2e4c3b2-5eb5-4d43-b4c1-49d0a1a46216",
    "name": "Hernád",
    "state_id": "59e837b2-e9a4-4fb1-9035-0b8a88e06fe6"
  },
  {
    "id": "c7af9c8d-f6e9-43df-ae56-40372bc42ac5",
    "name": "Hévízgyörk",
    "state_id": "59e837b2-e9a4-4fb1-9035-0b8a88e06fe6"
  },
  {
    "id": "324785cf-ea1d-4264-92fb-79d9717cc55e",
    "name": "Iklad",
    "state_id": "59e837b2-e9a4-4fb1-9035-0b8a88e06fe6"
  },
  {
    "id": "d4871cc5-7066-4286-9e38-62db74531d47",
    "name": "Inárcs",
    "state_id": "59e837b2-e9a4-4fb1-9035-0b8a88e06fe6"
  },
  {
    "id": "bf344199-1b61-4cf3-ac94-aaccf81ffa21",
    "name": "Isaszeg",
    "state_id": "59e837b2-e9a4-4fb1-9035-0b8a88e06fe6"
  },
  {
    "id": "d00d4845-23b3-4196-94df-9d5eebc998f0",
    "name": "Jászkarajenő",
    "state_id": "59e837b2-e9a4-4fb1-9035-0b8a88e06fe6"
  },
  {
    "id": "dab4e9ba-9337-4e34-b490-2a4f6f98c2cf",
    "name": "Kakucs",
    "state_id": "59e837b2-e9a4-4fb1-9035-0b8a88e06fe6"
  },
  {
    "id": "22903776-ff08-48c2-b8b5-6aad1cf01e65",
    "name": "Kartal",
    "state_id": "59e837b2-e9a4-4fb1-9035-0b8a88e06fe6"
  },
  {
    "id": "f72069ea-a9b9-49aa-a1f3-3ba6aebabc35",
    "name": "Kerepes",
    "state_id": "59e837b2-e9a4-4fb1-9035-0b8a88e06fe6"
  },
  {
    "id": "a96c1251-a75c-4369-9b9f-5b09f118b3d2",
    "name": "Kiskunlacháza",
    "state_id": "59e837b2-e9a4-4fb1-9035-0b8a88e06fe6"
  },
  {
    "id": "80e1b797-195c-424e-8059-97922cda486e",
    "name": "Kismaros",
    "state_id": "59e837b2-e9a4-4fb1-9035-0b8a88e06fe6"
  },
  {
    "id": "30a5e03f-ffce-4166-8051-9b7fd06e5220",
    "name": "Kistarcsa",
    "state_id": "59e837b2-e9a4-4fb1-9035-0b8a88e06fe6"
  },
  {
    "id": "b57d0055-c26a-486a-8d4f-fa74d0fa5089",
    "name": "Kocsér",
    "state_id": "59e837b2-e9a4-4fb1-9035-0b8a88e06fe6"
  },
  {
    "id": "1b9b54f5-6661-4fea-8990-9f719e42ee76",
    "name": "Kóka",
    "state_id": "59e837b2-e9a4-4fb1-9035-0b8a88e06fe6"
  },
  {
    "id": "a6daa826-475d-4fcb-85cd-8567950faf97",
    "name": "Kosd",
    "state_id": "59e837b2-e9a4-4fb1-9035-0b8a88e06fe6"
  },
  {
    "id": "d2373683-ac67-4e89-bf65-f69a9381b3b5",
    "name": "Leányfalu",
    "state_id": "59e837b2-e9a4-4fb1-9035-0b8a88e06fe6"
  },
  {
    "id": "af2962b5-8495-4fc1-9336-2e8018eea16f",
    "name": "Maglód",
    "state_id": "59e837b2-e9a4-4fb1-9035-0b8a88e06fe6"
  },
  {
    "id": "f9655d34-c528-47cc-8dff-27dfe71bd641",
    "name": "Mende",
    "state_id": "59e837b2-e9a4-4fb1-9035-0b8a88e06fe6"
  },
  {
    "id": "1cf98702-e041-403f-bc23-cc1897df0b9f",
    "name": "Mogyoród",
    "state_id": "59e837b2-e9a4-4fb1-9035-0b8a88e06fe6"
  },
  {
    "id": "870f556d-eaf3-4e41-a9f6-e967a97b51bf",
    "name": "Monor",
    "state_id": "59e837b2-e9a4-4fb1-9035-0b8a88e06fe6"
  },
  {
    "id": "2a4d09ed-ff7d-49c1-bb41-a283b30e6f95",
    "name": "Monori Járás",
    "state_id": "59e837b2-e9a4-4fb1-9035-0b8a88e06fe6"
  },
  {
    "id": "8653d6d4-fd24-43a5-8a56-02fa9c143c76",
    "name": "Nagykáta",
    "state_id": "59e837b2-e9a4-4fb1-9035-0b8a88e06fe6"
  },
  {
    "id": "979148d5-d3c9-4079-adcd-eb7e30d7f994",
    "name": "Nagykátai Járás",
    "state_id": "59e837b2-e9a4-4fb1-9035-0b8a88e06fe6"
  },
  {
    "id": "09142d22-b3cd-49e1-9cf9-b615ff8e000f",
    "name": "Nagykőrös",
    "state_id": "59e837b2-e9a4-4fb1-9035-0b8a88e06fe6"
  },
  {
    "id": "2df9c084-a0b6-40ce-8b47-7a02d2942a22",
    "name": "Nagykőrösi Járás",
    "state_id": "59e837b2-e9a4-4fb1-9035-0b8a88e06fe6"
  },
  {
    "id": "aa3614f2-9996-42a4-9dc1-50279de37bd8",
    "name": "Nagykovácsi",
    "state_id": "59e837b2-e9a4-4fb1-9035-0b8a88e06fe6"
  },
  {
    "id": "52796aad-5ff2-40d8-8d77-6594835075d4",
    "name": "Nagymaros",
    "state_id": "59e837b2-e9a4-4fb1-9035-0b8a88e06fe6"
  },
  {
    "id": "27d94cef-eddc-4e38-a8b5-a3755651e2dd",
    "name": "Nagytarcsa",
    "state_id": "59e837b2-e9a4-4fb1-9035-0b8a88e06fe6"
  },
  {
    "id": "dad8f9c8-6ba4-4b38-92da-a0fb89f6ad14",
    "name": "Nyáregyháza",
    "state_id": "59e837b2-e9a4-4fb1-9035-0b8a88e06fe6"
  },
  {
    "id": "db3897e0-5bcb-4a7a-96ae-9b6b3e61a721",
    "name": "Ócsa",
    "state_id": "59e837b2-e9a4-4fb1-9035-0b8a88e06fe6"
  },
  {
    "id": "8343d345-71fa-4137-b5a4-56f79abd8a4b",
    "name": "Őrbottyán",
    "state_id": "59e837b2-e9a4-4fb1-9035-0b8a88e06fe6"
  },
  {
    "id": "c72a7c4f-755e-46a8-8eab-0b4f06c30574",
    "name": "Örkény",
    "state_id": "59e837b2-e9a4-4fb1-9035-0b8a88e06fe6"
  },
  {
    "id": "99ac1e9e-b842-433d-9e8c-72c65d2e835b",
    "name": "Pánd",
    "state_id": "59e837b2-e9a4-4fb1-9035-0b8a88e06fe6"
  },
  {
    "id": "98be9f69-c5a0-4357-ba35-b04df77f4eae",
    "name": "Páty",
    "state_id": "59e837b2-e9a4-4fb1-9035-0b8a88e06fe6"
  },
  {
    "id": "9eae6995-f2cd-47b4-9fdd-c90a2bc61b6a",
    "name": "Pécel",
    "state_id": "59e837b2-e9a4-4fb1-9035-0b8a88e06fe6"
  },
  {
    "id": "d48948f9-0141-41a2-8e45-495daca406d8",
    "name": "Perbál",
    "state_id": "59e837b2-e9a4-4fb1-9035-0b8a88e06fe6"
  },
  {
    "id": "0730df45-48e2-4357-94f7-cec59b53005c",
    "name": "Péteri",
    "state_id": "59e837b2-e9a4-4fb1-9035-0b8a88e06fe6"
  },
  {
    "id": "c0159b35-1fb2-4b69-ae3b-76fc85b248a1",
    "name": "Pilis",
    "state_id": "59e837b2-e9a4-4fb1-9035-0b8a88e06fe6"
  },
  {
    "id": "1d586817-bf0c-43de-82f0-a0e665329ee4",
    "name": "Pilisborosjenő",
    "state_id": "59e837b2-e9a4-4fb1-9035-0b8a88e06fe6"
  },
  {
    "id": "b618a5cf-a8b5-4a6f-b432-b3660c3a83b5",
    "name": "Piliscsaba",
    "state_id": "59e837b2-e9a4-4fb1-9035-0b8a88e06fe6"
  },
  {
    "id": "eff28d78-c12b-4724-9b52-4bda1d39699b",
    "name": "Pilisszántó",
    "state_id": "59e837b2-e9a4-4fb1-9035-0b8a88e06fe6"
  },
  {
    "id": "4ac32f89-6b8d-40c3-b387-34b5d3b49984",
    "name": "Pilisszentiván",
    "state_id": "59e837b2-e9a4-4fb1-9035-0b8a88e06fe6"
  },
  {
    "id": "a6f2bd52-e118-4c57-99c9-2f4517165494",
    "name": "Pilisszentkereszt",
    "state_id": "59e837b2-e9a4-4fb1-9035-0b8a88e06fe6"
  },
  {
    "id": "67df30a7-dce8-4634-a706-52ea82a40c09",
    "name": "Pilisvörösvár",
    "state_id": "59e837b2-e9a4-4fb1-9035-0b8a88e06fe6"
  },
  {
    "id": "7966030b-2b6b-44b8-b4a2-a845aba15887",
    "name": "Pilisvörösvári Járás",
    "state_id": "59e837b2-e9a4-4fb1-9035-0b8a88e06fe6"
  },
  {
    "id": "4a44b731-ae77-434a-be92-04f0aa6e66ca",
    "name": "Pomáz",
    "state_id": "59e837b2-e9a4-4fb1-9035-0b8a88e06fe6"
  },
  {
    "id": "53c7d92a-4b49-4ced-8e94-396aaeb9d687",
    "name": "Ráckeve",
    "state_id": "59e837b2-e9a4-4fb1-9035-0b8a88e06fe6"
  },
  {
    "id": "8bf55462-c687-46be-96e2-fe209e0b87eb",
    "name": "Ráckevei Járás",
    "state_id": "59e837b2-e9a4-4fb1-9035-0b8a88e06fe6"
  },
  {
    "id": "505407ce-f091-44fd-ab73-420cc4d1129b",
    "name": "Solymár",
    "state_id": "59e837b2-e9a4-4fb1-9035-0b8a88e06fe6"
  },
  {
    "id": "08030440-7b58-4336-8013-8089dddfec42",
    "name": "Sóskút",
    "state_id": "59e837b2-e9a4-4fb1-9035-0b8a88e06fe6"
  },
  {
    "id": "ed3fcdca-6aa6-48f2-8397-b5ce3a811996",
    "name": "Sülysáp",
    "state_id": "59e837b2-e9a4-4fb1-9035-0b8a88e06fe6"
  },
  {
    "id": "663d7850-ae90-4b09-a06a-bba6f3c37d6d",
    "name": "Szada",
    "state_id": "59e837b2-e9a4-4fb1-9035-0b8a88e06fe6"
  },
  {
    "id": "cd0ac9f8-21bc-4697-92fe-b2647c50127b",
    "name": "Százhalombatta",
    "state_id": "59e837b2-e9a4-4fb1-9035-0b8a88e06fe6"
  },
  {
    "id": "d4d4592f-e20d-4561-8c7d-c6c5c3bbf314",
    "name": "Szentendre",
    "state_id": "59e837b2-e9a4-4fb1-9035-0b8a88e06fe6"
  },
  {
    "id": "73f84f61-bb41-4694-88fb-9690dcce5aa3",
    "name": "Szentendrei Járás",
    "state_id": "59e837b2-e9a4-4fb1-9035-0b8a88e06fe6"
  },
  {
    "id": "2bf86ebb-a004-4b0b-8c8a-a756f33901b0",
    "name": "Szentlőrinckáta",
    "state_id": "59e837b2-e9a4-4fb1-9035-0b8a88e06fe6"
  },
  {
    "id": "5828929f-9ea3-4dc6-8a7b-7cd36e2e61b6",
    "name": "Szentmártonkáta",
    "state_id": "59e837b2-e9a4-4fb1-9035-0b8a88e06fe6"
  },
  {
    "id": "d854889b-e428-4fe1-b9cd-3c7cb2431030",
    "name": "Szigetcsép",
    "state_id": "59e837b2-e9a4-4fb1-9035-0b8a88e06fe6"
  },
  {
    "id": "57f90db6-08f5-44e3-b916-d80a2cbbef0e",
    "name": "Szigethalom",
    "state_id": "59e837b2-e9a4-4fb1-9035-0b8a88e06fe6"
  },
  {
    "id": "056dd222-b749-48df-91cd-34060933f44e",
    "name": "Szigetszentmiklós",
    "state_id": "59e837b2-e9a4-4fb1-9035-0b8a88e06fe6"
  },
  {
    "id": "126f54ca-4d8a-460e-a125-3e65fef24676",
    "name": "Szigetszentmiklósi Járás",
    "state_id": "59e837b2-e9a4-4fb1-9035-0b8a88e06fe6"
  },
  {
    "id": "d8e97a9c-69e2-4e80-a628-b392d8a8b09e",
    "name": "Szigetújfalu",
    "state_id": "59e837b2-e9a4-4fb1-9035-0b8a88e06fe6"
  },
  {
    "id": "46eb1864-7e96-4c94-81cd-929918e00781",
    "name": "Szob",
    "state_id": "59e837b2-e9a4-4fb1-9035-0b8a88e06fe6"
  },
  {
    "id": "6f59028a-32c0-4591-af06-164cf7c1e5e0",
    "name": "Szobi Járás",
    "state_id": "59e837b2-e9a4-4fb1-9035-0b8a88e06fe6"
  },
  {
    "id": "1340e772-2495-45b2-b679-15614ffd796c",
    "name": "Sződ",
    "state_id": "59e837b2-e9a4-4fb1-9035-0b8a88e06fe6"
  },
  {
    "id": "642d7987-3119-4389-aa74-c12ae6271d24",
    "name": "Sződliget",
    "state_id": "59e837b2-e9a4-4fb1-9035-0b8a88e06fe6"
  },
  {
    "id": "0b3f9ed5-81a6-4500-ae06-6ae892f7e34c",
    "name": "Táborfalva",
    "state_id": "59e837b2-e9a4-4fb1-9035-0b8a88e06fe6"
  },
  {
    "id": "71c043d9-b03a-4860-a202-8e3a916eca38",
    "name": "Tahitótfalu",
    "state_id": "59e837b2-e9a4-4fb1-9035-0b8a88e06fe6"
  },
  {
    "id": "9653bdf5-d647-4371-943a-766bc68c391e",
    "name": "Taksony",
    "state_id": "59e837b2-e9a4-4fb1-9035-0b8a88e06fe6"
  },
  {
    "id": "01ddfb37-2d1b-4647-af8a-b170fcddb492",
    "name": "Tápióbicske",
    "state_id": "59e837b2-e9a4-4fb1-9035-0b8a88e06fe6"
  },
  {
    "id": "45b58079-42ce-4d37-b8e6-6d11d44079ab",
    "name": "Tápiógyörgye",
    "state_id": "59e837b2-e9a4-4fb1-9035-0b8a88e06fe6"
  },
  {
    "id": "42c8f886-0d6c-49e0-9047-2f42e629935c",
    "name": "Tápióság",
    "state_id": "59e837b2-e9a4-4fb1-9035-0b8a88e06fe6"
  },
  {
    "id": "c2f79eb9-b36c-4ee7-bfa8-4cb1a02b8e67",
    "name": "Tápiószecső",
    "state_id": "59e837b2-e9a4-4fb1-9035-0b8a88e06fe6"
  },
  {
    "id": "198271ce-065c-4c3f-85f4-1750dd2dd282",
    "name": "Tápiószele",
    "state_id": "59e837b2-e9a4-4fb1-9035-0b8a88e06fe6"
  },
  {
    "id": "4f8ec4d7-1538-4c57-9f43-c44d4798813f",
    "name": "Tápiószentmárton",
    "state_id": "59e837b2-e9a4-4fb1-9035-0b8a88e06fe6"
  },
  {
    "id": "28678a39-0381-4454-862b-c9395c3b1746",
    "name": "Tápiószőlős",
    "state_id": "59e837b2-e9a4-4fb1-9035-0b8a88e06fe6"
  },
  {
    "id": "0384b35b-e68b-4ffe-9647-3eed24f475ec",
    "name": "Tárnok",
    "state_id": "59e837b2-e9a4-4fb1-9035-0b8a88e06fe6"
  },
  {
    "id": "f0b972d9-842b-4199-a586-097d0083135a",
    "name": "Telki",
    "state_id": "59e837b2-e9a4-4fb1-9035-0b8a88e06fe6"
  },
  {
    "id": "93834ec3-2e1f-4496-95c4-3acbcd63bdfd",
    "name": "Tóalmás",
    "state_id": "59e837b2-e9a4-4fb1-9035-0b8a88e06fe6"
  },
  {
    "id": "75948e5d-ec5f-4ba4-84fe-24fce9ba66c9",
    "name": "Tököl",
    "state_id": "59e837b2-e9a4-4fb1-9035-0b8a88e06fe6"
  },
  {
    "id": "2fa7bb9d-8377-4774-9d0d-32d4b6213b97",
    "name": "Törökbálint",
    "state_id": "59e837b2-e9a4-4fb1-9035-0b8a88e06fe6"
  },
  {
    "id": "f2f53b5b-a932-409c-bed2-5b884b04f2ce",
    "name": "Törtel",
    "state_id": "59e837b2-e9a4-4fb1-9035-0b8a88e06fe6"
  },
  {
    "id": "75756f1c-4c25-432e-8d8b-427021860d35",
    "name": "Tura",
    "state_id": "59e837b2-e9a4-4fb1-9035-0b8a88e06fe6"
  },
  {
    "id": "8d5e2f9a-d485-488b-ab35-f35a3cdf07b7",
    "name": "Újhartyán",
    "state_id": "59e837b2-e9a4-4fb1-9035-0b8a88e06fe6"
  },
  {
    "id": "0977b5fc-c82a-4cb1-92bb-0c319f52f588",
    "name": "Újszilvás",
    "state_id": "59e837b2-e9a4-4fb1-9035-0b8a88e06fe6"
  },
  {
    "id": "a8e2f7b3-36c3-4b97-958e-f0378b55ac11",
    "name": "Üllő",
    "state_id": "59e837b2-e9a4-4fb1-9035-0b8a88e06fe6"
  },
  {
    "id": "a14d77d2-c9b3-42cf-ba12-97c765e419a6",
    "name": "Úri",
    "state_id": "59e837b2-e9a4-4fb1-9035-0b8a88e06fe6"
  },
  {
    "id": "0ca04d3e-4313-479b-b7ca-4e8afc2ddad9",
    "name": "Üröm",
    "state_id": "59e837b2-e9a4-4fb1-9035-0b8a88e06fe6"
  },
  {
    "id": "e9d69009-07b3-435f-b189-e2d90fe953fe",
    "name": "Vác",
    "state_id": "59e837b2-e9a4-4fb1-9035-0b8a88e06fe6"
  },
  {
    "id": "75a5fee9-c93b-4517-85c4-b37101ddab2c",
    "name": "Váci Járás",
    "state_id": "59e837b2-e9a4-4fb1-9035-0b8a88e06fe6"
  },
  {
    "id": "5c33a148-0663-4cce-b7bf-4a6d59ae2d1e",
    "name": "Vácszentlászló",
    "state_id": "59e837b2-e9a4-4fb1-9035-0b8a88e06fe6"
  },
  {
    "id": "5ff0ae9e-6b90-4310-bf0a-ae41c06ca447",
    "name": "Valkó",
    "state_id": "59e837b2-e9a4-4fb1-9035-0b8a88e06fe6"
  },
  {
    "id": "344eec51-bff9-441e-b900-24e9117ac319",
    "name": "Vecsés",
    "state_id": "59e837b2-e9a4-4fb1-9035-0b8a88e06fe6"
  },
  {
    "id": "cc95b164-c9c9-477a-95ee-abbe3dd2e17b",
    "name": "Vecsési Járás",
    "state_id": "59e837b2-e9a4-4fb1-9035-0b8a88e06fe6"
  },
  {
    "id": "d3091097-3fa1-43ed-9034-3e527d91634f",
    "name": "Veresegyház",
    "state_id": "59e837b2-e9a4-4fb1-9035-0b8a88e06fe6"
  },
  {
    "id": "75037fd7-d332-4d34-94d2-c1f24d933613",
    "name": "Verőce",
    "state_id": "59e837b2-e9a4-4fb1-9035-0b8a88e06fe6"
  },
  {
    "id": "0b711ca4-f4cf-4842-97fc-a9e71115e7bd",
    "name": "Visegrád",
    "state_id": "59e837b2-e9a4-4fb1-9035-0b8a88e06fe6"
  },
  {
    "id": "f0bed41d-3170-4001-8107-aeabda5a4638",
    "name": "Zsámbék",
    "state_id": "59e837b2-e9a4-4fb1-9035-0b8a88e06fe6"
  },
  {
    "id": "abc12a23-e551-4b3c-8b39-a32fdff9e25d",
    "name": "Zsámbok",
    "state_id": "59e837b2-e9a4-4fb1-9035-0b8a88e06fe6"
  }
]