[
  {
    "id": "9402a5b3-0457-4ada-8674-3b5e6f5e298b",
    "name": "Beni",
    "state_id": "5a30c21c-fe03-4f23-af13-0d36f950e215"
  },
  {
    "id": "3b123a18-714a-4e33-ac83-aae5d3033160",
    "name": "Butembo",
    "state_id": "5a30c21c-fe03-4f23-af13-0d36f950e215"
  },
  {
    "id": "5d90b613-1f97-4a17-922f-08bf2a2fb56f",
    "name": "Goma",
    "state_id": "5a30c21c-fe03-4f23-af13-0d36f950e215"
  },
  {
    "id": "414c3549-1045-4b79-8bfc-38f282b59960",
    "name": "Sake",
    "state_id": "5a30c21c-fe03-4f23-af13-0d36f950e215"
  }
]