[
  {
    "id": "0a9dd677-c489-4f21-a813-a5016d582667",
    "name": "Santa Clara de Olimar",
    "state_id": "5ae1063f-b3b4-4442-af86-6eacab6bdcd9"
  },
  {
    "id": "ea868e03-2f17-4afa-af21-285b6fb886ba",
    "name": "Treinta y Tres",
    "state_id": "5ae1063f-b3b4-4442-af86-6eacab6bdcd9"
  },
  {
    "id": "475ed7ef-60d3-46cf-8a33-205ba0dcc4ad",
    "name": "Vergara",
    "state_id": "5ae1063f-b3b4-4442-af86-6eacab6bdcd9"
  },
  {
    "id": "be336eea-e4f7-422a-bc27-aa4752c60344",
    "name": "Villa Sara",
    "state_id": "5ae1063f-b3b4-4442-af86-6eacab6bdcd9"
  }
]