[
  {
    "id": "9cd0f0a9-56d6-4baf-8bd6-4706687a8f22",
    "name": "Arica",
    "state_id": "5c8a1122-1cf7-4c2b-9c5a-fd7a7102707c"
  },
  {
    "id": "9c4d4dbb-7b20-4b6a-a102-c5b934290798",
    "name": "Camarones",
    "state_id": "5c8a1122-1cf7-4c2b-9c5a-fd7a7102707c"
  },
  {
    "id": "d6d74052-4b95-47af-99b5-d40129dca4c2",
    "name": "General Lagos",
    "state_id": "5c8a1122-1cf7-4c2b-9c5a-fd7a7102707c"
  },
  {
    "id": "08de4774-6200-4445-b94d-a37b213bbcb1",
    "name": "Putre",
    "state_id": "5c8a1122-1cf7-4c2b-9c5a-fd7a7102707c"
  }
]