[
  {
    "id": "6adc6f68-90ff-41c9-a2ee-63d38d54c535",
    "name": "Bella Vista",
    "state_id": "5c9ac036-e9f4-4e04-9cd0-0cb06d48eb23"
  },
  {
    "id": "5a490ef3-b0ab-4e13-aede-fd620212d2ed",
    "name": "Capitán Bado",
    "state_id": "5c9ac036-e9f4-4e04-9cd0-0cb06d48eb23"
  },
  {
    "id": "0959e4ea-8080-4cd1-b522-a214424c3056",
    "name": "Pedro Juan Caballero",
    "state_id": "5c9ac036-e9f4-4e04-9cd0-0cb06d48eb23"
  }
]