[
  {
    "id": "d142e15e-80a1-4675-ac0d-a383fca4c753",
    "name": "Borgarfjarðarhreppur",
    "state_id": "5e11f49e-c23e-4ae9-af33-efc2967a3a4c"
  },
  {
    "id": "fb931b21-3e8b-4018-8055-25512ae8b00f",
    "name": "Breiðdalshreppur",
    "state_id": "5e11f49e-c23e-4ae9-af33-efc2967a3a4c"
  },
  {
    "id": "250ee9e7-a0ce-4c51-941c-c8bf2086dbb8",
    "name": "Egilsstaðir",
    "state_id": "5e11f49e-c23e-4ae9-af33-efc2967a3a4c"
  },
  {
    "id": "3f357a91-079c-4ca8-a817-527d43ca3881",
    "name": "Eskifjörður",
    "state_id": "5e11f49e-c23e-4ae9-af33-efc2967a3a4c"
  },
  {
    "id": "5d05bf62-b719-47b7-bd85-7f716051f914",
    "name": "Fjarðabyggð",
    "state_id": "5e11f49e-c23e-4ae9-af33-efc2967a3a4c"
  },
  {
    "id": "077e415f-97b4-460c-a5dc-74de5b63bfb0",
    "name": "Fljótsdalshérað",
    "state_id": "5e11f49e-c23e-4ae9-af33-efc2967a3a4c"
  },
  {
    "id": "2d0e2675-9de8-4cc2-982c-f2aa1c3b5c5a",
    "name": "Fljótsdalshreppur",
    "state_id": "5e11f49e-c23e-4ae9-af33-efc2967a3a4c"
  },
  {
    "id": "25774b14-2874-479f-96a0-c5d3b91c1baa",
    "name": "Höfn",
    "state_id": "5e11f49e-c23e-4ae9-af33-efc2967a3a4c"
  },
  {
    "id": "51658146-ed66-4220-9676-cdfc0da88086",
    "name": "Neskaupstaður",
    "state_id": "5e11f49e-c23e-4ae9-af33-efc2967a3a4c"
  },
  {
    "id": "36a39704-8a89-4d71-a4dd-ae9c8533676d",
    "name": "Reyðarfjörður",
    "state_id": "5e11f49e-c23e-4ae9-af33-efc2967a3a4c"
  }
]