[
  {
    "id": "9d0a1170-c5b6-47b6-834c-f5b99f27cac0",
    "name": "Achisu",
    "state_id": "5e956629-a4d0-4c3f-b521-02411e55e43b"
  },
  {
    "id": "1c75c6d4-5a0f-4f66-ae54-fac34aa0038e",
    "name": "Adil’-Yangiyurt",
    "state_id": "5e956629-a4d0-4c3f-b521-02411e55e43b"
  },
  {
    "id": "e3e5dfe6-8617-4d64-8d96-0ca18a7a3001",
    "name": "Agul’skiy Rayon",
    "state_id": "5e956629-a4d0-4c3f-b521-02411e55e43b"
  },
  {
    "id": "2c0ceade-a9ba-42af-8ac1-31fd7e0e2015",
    "name": "Agvali",
    "state_id": "5e956629-a4d0-4c3f-b521-02411e55e43b"
  },
  {
    "id": "5d8179c8-070a-4a32-8de4-056ed17548cb",
    "name": "Akhty",
    "state_id": "5e956629-a4d0-4c3f-b521-02411e55e43b"
  },
  {
    "id": "5630af06-26c5-4c35-8ea0-b2f5d909bc18",
    "name": "Akhtynskiy Rayon",
    "state_id": "5e956629-a4d0-4c3f-b521-02411e55e43b"
  },
  {
    "id": "3c64f930-09e5-42bf-96c3-3c7d8f736dc4",
    "name": "Akhvakhskiy Rayon",
    "state_id": "5e956629-a4d0-4c3f-b521-02411e55e43b"
  },
  {
    "id": "02600b2e-3c77-4d17-8187-3a71fa5fc7be",
    "name": "Aknada",
    "state_id": "5e956629-a4d0-4c3f-b521-02411e55e43b"
  },
  {
    "id": "dcdccd06-bb42-4aa6-b0ea-7eb1b0d840fe",
    "name": "Aksay",
    "state_id": "5e956629-a4d0-4c3f-b521-02411e55e43b"
  },
  {
    "id": "ae1447a4-cf10-4c38-9bf9-054ecd65142e",
    "name": "Akusha",
    "state_id": "5e956629-a4d0-4c3f-b521-02411e55e43b"
  },
  {
    "id": "d5496712-d6d7-4133-9368-b992d9cc8055",
    "name": "Akushinskiy Rayon",
    "state_id": "5e956629-a4d0-4c3f-b521-02411e55e43b"
  },
  {
    "id": "4156a6c2-aa35-464c-9d34-2dda362e67dc",
    "name": "Andi",
    "state_id": "5e956629-a4d0-4c3f-b521-02411e55e43b"
  },
  {
    "id": "7241ae8d-4569-4930-8120-e25da971df59",
    "name": "Ansalta",
    "state_id": "5e956629-a4d0-4c3f-b521-02411e55e43b"
  },
  {
    "id": "3ccfc83d-37dd-4428-838a-70cc426f88f7",
    "name": "Ashil’ta",
    "state_id": "5e956629-a4d0-4c3f-b521-02411e55e43b"
  },
  {
    "id": "2e7c70c8-5452-497d-b69b-f0fcce91199a",
    "name": "Babayurt",
    "state_id": "5e956629-a4d0-4c3f-b521-02411e55e43b"
  },
  {
    "id": "b5498bf7-6359-4336-ab47-f4a9fe21d406",
    "name": "Babayurtovskiy Rayon",
    "state_id": "5e956629-a4d0-4c3f-b521-02411e55e43b"
  },
  {
    "id": "d575bb59-61a5-4746-ac41-374a4352f394",
    "name": "Bammatyurt",
    "state_id": "5e956629-a4d0-4c3f-b521-02411e55e43b"
  },
  {
    "id": "110d2404-8ab1-4301-9ef2-ecb201b9ecce",
    "name": "Bavtugay",
    "state_id": "5e956629-a4d0-4c3f-b521-02411e55e43b"
  },
  {
    "id": "3f77600b-1985-4e17-a505-0208752c8997",
    "name": "Belidzhi",
    "state_id": "5e956629-a4d0-4c3f-b521-02411e55e43b"
  },
  {
    "id": "7b2579d6-d781-48b9-9674-96a85a6207d6",
    "name": "Bezhta",
    "state_id": "5e956629-a4d0-4c3f-b521-02411e55e43b"
  },
  {
    "id": "ad620c17-640c-418b-8ddd-c408ac813e88",
    "name": "Botashyurt",
    "state_id": "5e956629-a4d0-4c3f-b521-02411e55e43b"
  },
  {
    "id": "694095a2-fc43-4a5c-87d9-eb45f2517792",
    "name": "Botayurt",
    "state_id": "5e956629-a4d0-4c3f-b521-02411e55e43b"
  },
  {
    "id": "dd8be578-220b-40a9-9c90-1d04e3ab5d25",
    "name": "Botlikhskiy Rayon",
    "state_id": "5e956629-a4d0-4c3f-b521-02411e55e43b"
  },
  {
    "id": "de62a00d-8c36-45db-8149-2a8be058a972",
    "name": "Burtunay",
    "state_id": "5e956629-a4d0-4c3f-b521-02411e55e43b"
  },
  {
    "id": "13499d8f-aeba-4916-8068-65efe90747dc",
    "name": "Buynaksk",
    "state_id": "5e956629-a4d0-4c3f-b521-02411e55e43b"
  },
  {
    "id": "1def505e-79d8-45d1-acbc-6bec3b49b2b4",
    "name": "Buynakskiy Rayon",
    "state_id": "5e956629-a4d0-4c3f-b521-02411e55e43b"
  },
  {
    "id": "13289f2b-9e5c-40eb-bd7b-72c9cd037433",
    "name": "Charodinskiy Rayon",
    "state_id": "5e956629-a4d0-4c3f-b521-02411e55e43b"
  },
  {
    "id": "c256bc51-d1cb-4458-a240-ecbd2ac5405c",
    "name": "Chinar",
    "state_id": "5e956629-a4d0-4c3f-b521-02411e55e43b"
  },
  {
    "id": "c308830c-5883-425a-a19a-e2795443c6db",
    "name": "Chirkey",
    "state_id": "5e956629-a4d0-4c3f-b521-02411e55e43b"
  },
  {
    "id": "40d710d0-efc5-49d9-88f9-a4e0062bcfbf",
    "name": "Chontaul",
    "state_id": "5e956629-a4d0-4c3f-b521-02411e55e43b"
  },
  {
    "id": "02063811-7415-4a5e-a261-0b207678ec04",
    "name": "Dagestanskiye Ogni",
    "state_id": "5e956629-a4d0-4c3f-b521-02411e55e43b"
  },
  {
    "id": "e4e83fbd-9466-4268-aa38-fd746104a548",
    "name": "Dakhadayevskiy Rayon",
    "state_id": "5e956629-a4d0-4c3f-b521-02411e55e43b"
  },
  {
    "id": "6afb88d1-3071-45d5-8f67-264b87c70406",
    "name": "Derbent",
    "state_id": "5e956629-a4d0-4c3f-b521-02411e55e43b"
  },
  {
    "id": "0b9683a4-fdfe-4e0c-855e-757a3ea1029c",
    "name": "Derbentskiy Rayon",
    "state_id": "5e956629-a4d0-4c3f-b521-02411e55e43b"
  },
  {
    "id": "6083db6a-5a6d-4720-a25d-7a13f94d54e1",
    "name": "Dokuzparinskiy Rayon",
    "state_id": "5e956629-a4d0-4c3f-b521-02411e55e43b"
  },
  {
    "id": "3b894900-549b-4c1b-b674-3eec5d824a4c",
    "name": "Dorgeli",
    "state_id": "5e956629-a4d0-4c3f-b521-02411e55e43b"
  },
  {
    "id": "7cdcb46c-1409-428a-8352-a5ba771d0b1e",
    "name": "Druzhba",
    "state_id": "5e956629-a4d0-4c3f-b521-02411e55e43b"
  },
  {
    "id": "12cc4e6a-fa58-4eae-9fbb-071582099364",
    "name": "Dubki",
    "state_id": "5e956629-a4d0-4c3f-b521-02411e55e43b"
  },
  {
    "id": "8e654a27-354b-4d3c-8211-44b521c62d81",
    "name": "Dylym",
    "state_id": "5e956629-a4d0-4c3f-b521-02411e55e43b"
  },
  {
    "id": "548f47f4-94a9-47c9-85d1-a4ba335bfcac",
    "name": "Endirey",
    "state_id": "5e956629-a4d0-4c3f-b521-02411e55e43b"
  },
  {
    "id": "0f72af8a-7489-4e2a-93ca-bfc71bc8063d",
    "name": "Erpeli",
    "state_id": "5e956629-a4d0-4c3f-b521-02411e55e43b"
  },
  {
    "id": "7a3a14e7-40ca-4e1a-b898-bd2adb5f0e8c",
    "name": "Gagatli",
    "state_id": "5e956629-a4d0-4c3f-b521-02411e55e43b"
  },
  {
    "id": "841022f1-09b1-49af-b7b7-2353ffdb79ba",
    "name": "Gaptsakh",
    "state_id": "5e956629-a4d0-4c3f-b521-02411e55e43b"
  },
  {
    "id": "b7be9d90-ce9a-44f6-94bd-fded254eefb6",
    "name": "Gedzhukh",
    "state_id": "5e956629-a4d0-4c3f-b521-02411e55e43b"
  },
  {
    "id": "45c2c4e3-9fef-46de-a673-2147d1b580ed",
    "name": "Gereykhanovskoye",
    "state_id": "5e956629-a4d0-4c3f-b521-02411e55e43b"
  },
  {
    "id": "1b3f0566-26f8-4051-82a4-a53f2e4b70a8",
    "name": "Gerga",
    "state_id": "5e956629-a4d0-4c3f-b521-02411e55e43b"
  },
  {
    "id": "a04d5100-66a8-4114-8ff8-8657e4631d88",
    "name": "Gergebil’",
    "state_id": "5e956629-a4d0-4c3f-b521-02411e55e43b"
  },
  {
    "id": "7a4e9d5d-0a48-4418-9214-f3877c2edbdc",
    "name": "Gergebil’skiy Rayon",
    "state_id": "5e956629-a4d0-4c3f-b521-02411e55e43b"
  },
  {
    "id": "37fa4a8f-724a-40f3-aa77-132418fc1534",
    "name": "Gimry",
    "state_id": "5e956629-a4d0-4c3f-b521-02411e55e43b"
  },
  {
    "id": "2960f6e5-89e8-414c-b73d-b8212c67bbce",
    "name": "Gubden",
    "state_id": "5e956629-a4d0-4c3f-b521-02411e55e43b"
  },
  {
    "id": "007f67c2-26ab-435e-b984-4b0eaca1c812",
    "name": "Gumbetovskiy Rayon",
    "state_id": "5e956629-a4d0-4c3f-b521-02411e55e43b"
  },
  {
    "id": "2050db82-50df-4739-b5f0-6f48e474c0c3",
    "name": "Gunib",
    "state_id": "5e956629-a4d0-4c3f-b521-02411e55e43b"
  },
  {
    "id": "e1998480-1fc1-49f9-8955-4ec429da50f5",
    "name": "Gunibskiy Rayon",
    "state_id": "5e956629-a4d0-4c3f-b521-02411e55e43b"
  },
  {
    "id": "aa48a80b-f7ef-47ca-8332-cfa3c2b7ee2a",
    "name": "Gurbuki",
    "state_id": "5e956629-a4d0-4c3f-b521-02411e55e43b"
  },
  {
    "id": "ef9ba9d5-6c8b-4d77-8141-cf9a4efacccb",
    "name": "Irganay",
    "state_id": "5e956629-a4d0-4c3f-b521-02411e55e43b"
  },
  {
    "id": "19e29ee1-3afc-463d-9747-ebbc86fda00c",
    "name": "Izberbash",
    "state_id": "5e956629-a4d0-4c3f-b521-02411e55e43b"
  },
  {
    "id": "782e574d-3694-4c6f-a67d-eb1e7d67e75e",
    "name": "Kafyr-Kumukh",
    "state_id": "5e956629-a4d0-4c3f-b521-02411e55e43b"
  },
  {
    "id": "6d6a0139-8d95-4316-aa73-2f5a501c2da7",
    "name": "Kalininaul",
    "state_id": "5e956629-a4d0-4c3f-b521-02411e55e43b"
  },
  {
    "id": "427d8e54-f4e1-470b-9478-41023ce028a7",
    "name": "Karabudakhkent",
    "state_id": "5e956629-a4d0-4c3f-b521-02411e55e43b"
  },
  {
    "id": "eeef319b-070e-4e9b-8cea-6ac43cf96fc3",
    "name": "Karabudakhkentskiy Rayon",
    "state_id": "5e956629-a4d0-4c3f-b521-02411e55e43b"
  },
  {
    "id": "d2e3f121-3fa5-4065-b980-558b27e62568",
    "name": "Karamakhi",
    "state_id": "5e956629-a4d0-4c3f-b521-02411e55e43b"
  },
  {
    "id": "242872d9-f383-428e-8fb9-1136fe34e39c",
    "name": "Karata",
    "state_id": "5e956629-a4d0-4c3f-b521-02411e55e43b"
  },
  {
    "id": "9da0fd37-259b-4e91-bc41-cd9871d5ac08",
    "name": "Kaspiysk",
    "state_id": "5e956629-a4d0-4c3f-b521-02411e55e43b"
  },
  {
    "id": "a8df9d4a-5622-4e17-a742-82899c547dfe",
    "name": "Kasumkent",
    "state_id": "5e956629-a4d0-4c3f-b521-02411e55e43b"
  },
  {
    "id": "248c587b-a3e3-4e95-8f8d-ebd92dbf34e5",
    "name": "Kayakent",
    "state_id": "5e956629-a4d0-4c3f-b521-02411e55e43b"
  },
  {
    "id": "2f54fa10-997c-4dbd-946d-446d0a3d6849",
    "name": "Kayakentskiy Rayon",
    "state_id": "5e956629-a4d0-4c3f-b521-02411e55e43b"
  },
  {
    "id": "06dc7dff-5ba3-4755-a020-fe1fac3a92cc",
    "name": "Kaytagskiy Rayon",
    "state_id": "5e956629-a4d0-4c3f-b521-02411e55e43b"
  },
  {
    "id": "8b214c93-c502-4e69-887b-48ebfc49d9c5",
    "name": "Kazbekovskiy Rayon",
    "state_id": "5e956629-a4d0-4c3f-b521-02411e55e43b"
  },
  {
    "id": "4c254060-3255-4e78-849c-dfa3f79295f1",
    "name": "Khadzhalmakhi",
    "state_id": "5e956629-a4d0-4c3f-b521-02411e55e43b"
  },
  {
    "id": "a3f659cc-61b0-463e-b697-2f9c7ed77c27",
    "name": "Khamamatyurt",
    "state_id": "5e956629-a4d0-4c3f-b521-02411e55e43b"
  },
  {
    "id": "89a613dd-d55c-48bb-ab4f-112138e6c74b",
    "name": "Khasavyurt",
    "state_id": "5e956629-a4d0-4c3f-b521-02411e55e43b"
  },
  {
    "id": "44dfd13e-5b5e-45ce-90c7-87a36544bcf2",
    "name": "Khasavyurtovskiy Rayon",
    "state_id": "5e956629-a4d0-4c3f-b521-02411e55e43b"
  },
  {
    "id": "24a4488f-d0bd-40a2-8dd7-00a97f96f36a",
    "name": "Khazar",
    "state_id": "5e956629-a4d0-4c3f-b521-02411e55e43b"
  },
  {
    "id": "95bf5f1b-2d4b-4e55-bf2c-4b45ebc6f465",
    "name": "Khebda",
    "state_id": "5e956629-a4d0-4c3f-b521-02411e55e43b"
  },
  {
    "id": "3c151a94-6202-470e-8321-a425b57d2aad",
    "name": "Khiv",
    "state_id": "5e956629-a4d0-4c3f-b521-02411e55e43b"
  },
  {
    "id": "9909d55e-28cf-407c-b6cb-4539e00b4a08",
    "name": "Khivskiy Rayon",
    "state_id": "5e956629-a4d0-4c3f-b521-02411e55e43b"
  },
  {
    "id": "a7ad8f8b-fb63-4ebb-9dd3-f4719f0906f9",
    "name": "Khuchni",
    "state_id": "5e956629-a4d0-4c3f-b521-02411e55e43b"
  },
  {
    "id": "50a65fb8-95b5-4bda-a257-dc44d91a0794",
    "name": "Khunzakh",
    "state_id": "5e956629-a4d0-4c3f-b521-02411e55e43b"
  },
  {
    "id": "919d4352-5918-406c-88a5-787aecb0df6d",
    "name": "Khunzakhskiy Rayon",
    "state_id": "5e956629-a4d0-4c3f-b521-02411e55e43b"
  },
  {
    "id": "5d8eafe6-f957-46b5-9ffc-5210a7b3af02",
    "name": "Kishcha",
    "state_id": "5e956629-a4d0-4c3f-b521-02411e55e43b"
  },
  {
    "id": "a94e78aa-c839-4763-a0b0-f8ce9b10bc65",
    "name": "Kizilyurt",
    "state_id": "5e956629-a4d0-4c3f-b521-02411e55e43b"
  },
  {
    "id": "bb1e7ac5-6e9f-4d69-aa59-af8a55aa3271",
    "name": "Kizilyurtovskiy Rayon",
    "state_id": "5e956629-a4d0-4c3f-b521-02411e55e43b"
  },
  {
    "id": "83eea6e4-59b3-4e62-aa54-0f02a6e1c127",
    "name": "Kizlyar",
    "state_id": "5e956629-a4d0-4c3f-b521-02411e55e43b"
  },
  {
    "id": "7226635c-ecff-42f5-a84a-ef7e3a5eeb95",
    "name": "Kizlyarskiy Rayon",
    "state_id": "5e956629-a4d0-4c3f-b521-02411e55e43b"
  },
  {
    "id": "af6709b6-3a62-4483-b40f-6f40c9325df4",
    "name": "Kochubey",
    "state_id": "5e956629-a4d0-4c3f-b521-02411e55e43b"
  },
  {
    "id": "c3f793a1-45af-48f7-aa36-203368ef6593",
    "name": "Kokrek",
    "state_id": "5e956629-a4d0-4c3f-b521-02411e55e43b"
  },
  {
    "id": "09d46423-2097-4fd4-8a59-86ba49477ce5",
    "name": "Komsomol’skiy",
    "state_id": "5e956629-a4d0-4c3f-b521-02411e55e43b"
  },
  {
    "id": "673a064e-d9e2-4d1d-b6b3-4c4a617a7ce8",
    "name": "Korkmaskala",
    "state_id": "5e956629-a4d0-4c3f-b521-02411e55e43b"
  },
  {
    "id": "b7987182-7fe8-403d-842e-0929c6b65445",
    "name": "Kostek",
    "state_id": "5e956629-a4d0-4c3f-b521-02411e55e43b"
  },
  {
    "id": "ca30df8c-b1f6-4c87-a803-b9c9cc9c18a2",
    "name": "Kubachi",
    "state_id": "5e956629-a4d0-4c3f-b521-02411e55e43b"
  },
  {
    "id": "4eb43dbc-a31b-4195-8bef-8509add66a1a",
    "name": "Kuli",
    "state_id": "5e956629-a4d0-4c3f-b521-02411e55e43b"
  },
  {
    "id": "50a90f69-4b2f-4580-acba-9e5ec305ebe8",
    "name": "Kulinskiy Rayon",
    "state_id": "5e956629-a4d0-4c3f-b521-02411e55e43b"
  },
  {
    "id": "f26e64da-8353-4dbc-a1e8-474a48986418",
    "name": "Kumukh",
    "state_id": "5e956629-a4d0-4c3f-b521-02411e55e43b"
  },
  {
    "id": "bd543b27-7317-4e07-8e74-c173447929cd",
    "name": "Kurakh",
    "state_id": "5e956629-a4d0-4c3f-b521-02411e55e43b"
  },
  {
    "id": "b81f18b6-1442-45a4-ad0d-764c1962246e",
    "name": "Kurakhskiy Rayon",
    "state_id": "5e956629-a4d0-4c3f-b521-02411e55e43b"
  },
  {
    "id": "8497ce13-7ade-47de-b484-83dba563f832",
    "name": "Kurkent",
    "state_id": "5e956629-a4d0-4c3f-b521-02411e55e43b"
  },
  {
    "id": "fa60a1f7-fdb9-46d2-9b22-409e5f8bcbd2",
    "name": "Kurush",
    "state_id": "5e956629-a4d0-4c3f-b521-02411e55e43b"
  },
  {
    "id": "1217049a-6b66-4734-bf5c-1d84afbda476",
    "name": "Kyakhulay",
    "state_id": "5e956629-a4d0-4c3f-b521-02411e55e43b"
  },
  {
    "id": "b11775cc-c953-41ad-8cc9-21fb469d54eb",
    "name": "Lakskiy Rayon",
    "state_id": "5e956629-a4d0-4c3f-b521-02411e55e43b"
  },
  {
    "id": "406a2f42-86b4-4810-9c69-5c6a6eed0227",
    "name": "Leninaul",
    "state_id": "5e956629-a4d0-4c3f-b521-02411e55e43b"
  },
  {
    "id": "e0757133-17c3-46b4-9ca4-be3ab5f075f7",
    "name": "Leninkent",
    "state_id": "5e956629-a4d0-4c3f-b521-02411e55e43b"
  },
  {
    "id": "c82ee737-6f01-4915-84e2-c8866d199687",
    "name": "Levashi",
    "state_id": "5e956629-a4d0-4c3f-b521-02411e55e43b"
  },
  {
    "id": "5346644e-235d-43bb-9059-5f603a938c4f",
    "name": "Levashinskiy Rayon",
    "state_id": "5e956629-a4d0-4c3f-b521-02411e55e43b"
  },
  {
    "id": "390aff99-c999-4a09-ba7b-9b5b672ec6ed",
    "name": "Lutkun",
    "state_id": "5e956629-a4d0-4c3f-b521-02411e55e43b"
  },
  {
    "id": "484c2f75-8673-4e26-9803-caf7971acfc1",
    "name": "Madzhalis",
    "state_id": "5e956629-a4d0-4c3f-b521-02411e55e43b"
  },
  {
    "id": "654b3016-26b4-4e36-8ee9-c78f233ffec7",
    "name": "Magaramkent",
    "state_id": "5e956629-a4d0-4c3f-b521-02411e55e43b"
  },
  {
    "id": "83f9bf17-b7fb-4640-b5ba-0629d2b356ac",
    "name": "Magaramkentskiy Rayon",
    "state_id": "5e956629-a4d0-4c3f-b521-02411e55e43b"
  },
  {
    "id": "df10a9b8-f2f2-4441-a31f-88b17a2fda5b",
    "name": "Makhachkala",
    "state_id": "5e956629-a4d0-4c3f-b521-02411e55e43b"
  },
  {
    "id": "f6f34ed5-e4ce-4ece-ba40-00c06edd98c7",
    "name": "Mamedkala",
    "state_id": "5e956629-a4d0-4c3f-b521-02411e55e43b"
  },
  {
    "id": "bf65d5b9-846a-41f4-83a0-d57b5d541939",
    "name": "Manas",
    "state_id": "5e956629-a4d0-4c3f-b521-02411e55e43b"
  },
  {
    "id": "a77ff98b-db50-4649-b253-4ae84539dda1",
    "name": "Manaskent",
    "state_id": "5e956629-a4d0-4c3f-b521-02411e55e43b"
  },
  {
    "id": "02448200-e8bc-4033-8d4f-f27772f7c80b",
    "name": "Miatli",
    "state_id": "5e956629-a4d0-4c3f-b521-02411e55e43b"
  },
  {
    "id": "447ec022-dc31-4706-ae58-23d10b0c1e56",
    "name": "Miskindzha",
    "state_id": "5e956629-a4d0-4c3f-b521-02411e55e43b"
  },
  {
    "id": "6f1a35d2-1d2d-4835-b184-267686d9fa3f",
    "name": "Mugi",
    "state_id": "5e956629-a4d0-4c3f-b521-02411e55e43b"
  },
  {
    "id": "5a37c3d2-7116-4ff5-aa9c-c36f1fe9fd02",
    "name": "Mutsalaul",
    "state_id": "5e956629-a4d0-4c3f-b521-02411e55e43b"
  },
  {
    "id": "08e507ca-54ca-4999-9d5d-952f5c612897",
    "name": "Myurego",
    "state_id": "5e956629-a4d0-4c3f-b521-02411e55e43b"
  },
  {
    "id": "1c191638-c8b1-48b8-b8b7-d7151a16dc2c",
    "name": "Nizhneye Kazanishche",
    "state_id": "5e956629-a4d0-4c3f-b521-02411e55e43b"
  },
  {
    "id": "59039147-a7f3-49bb-b67d-53908938072a",
    "name": "Nizhniy Dzhengutay",
    "state_id": "5e956629-a4d0-4c3f-b521-02411e55e43b"
  },
  {
    "id": "0788b04e-8eb7-4f60-a5b3-72920100d86c",
    "name": "Nogayskiy Rayon",
    "state_id": "5e956629-a4d0-4c3f-b521-02411e55e43b"
  },
  {
    "id": "9bdb746d-41f4-4527-ab4b-10f82f8b8da8",
    "name": "Novaya Maka",
    "state_id": "5e956629-a4d0-4c3f-b521-02411e55e43b"
  },
  {
    "id": "f359ccc1-5fa2-4755-bb51-151561e94baa",
    "name": "Novogagatli",
    "state_id": "5e956629-a4d0-4c3f-b521-02411e55e43b"
  },
  {
    "id": "794bf024-0e40-4c03-8458-c1a5f46eeb5d",
    "name": "Novokayakent",
    "state_id": "5e956629-a4d0-4c3f-b521-02411e55e43b"
  },
  {
    "id": "f651be4c-fa3c-42ac-9bc7-f7cea82c1f7c",
    "name": "Novolakskiy Rayon",
    "state_id": "5e956629-a4d0-4c3f-b521-02411e55e43b"
  },
  {
    "id": "ea17df92-2d4d-4c39-88c9-be5841d871c8",
    "name": "Novolakskoye",
    "state_id": "5e956629-a4d0-4c3f-b521-02411e55e43b"
  },
  {
    "id": "6e3e9dc3-f033-48c9-923f-f10ba6002d21",
    "name": "Novyy Chirkey",
    "state_id": "5e956629-a4d0-4c3f-b521-02411e55e43b"
  },
  {
    "id": "624069bb-da3c-4206-90bd-05a36245bb19",
    "name": "Novyy Khushet",
    "state_id": "5e956629-a4d0-4c3f-b521-02411e55e43b"
  },
  {
    "id": "7fd4393f-3317-40e7-9c1e-83fd9b1c88d4",
    "name": "Novyy Kostek",
    "state_id": "5e956629-a4d0-4c3f-b521-02411e55e43b"
  },
  {
    "id": "a9cc17b3-6d29-4b58-992a-9ea2c8e9132a",
    "name": "Novyy Sulak",
    "state_id": "5e956629-a4d0-4c3f-b521-02411e55e43b"
  },
  {
    "id": "eaf6696c-0eba-41de-aede-ac22604550af",
    "name": "Nuradilovo",
    "state_id": "5e956629-a4d0-4c3f-b521-02411e55e43b"
  },
  {
    "id": "ee63827c-3ac1-4f03-8c16-8ee378289973",
    "name": "Paraul",
    "state_id": "5e956629-a4d0-4c3f-b521-02411e55e43b"
  },
  {
    "id": "6c392850-920d-4d1d-98c7-02641160fb2d",
    "name": "Pervomayskoye",
    "state_id": "5e956629-a4d0-4c3f-b521-02411e55e43b"
  },
  {
    "id": "061c21dd-5049-4b44-86c3-9f107cd1e6fe",
    "name": "Pokrovskoye",
    "state_id": "5e956629-a4d0-4c3f-b521-02411e55e43b"
  },
  {
    "id": "aed6e5fc-8c26-49e8-8e33-5d3b59783fd2",
    "name": "Rutul",
    "state_id": "5e956629-a4d0-4c3f-b521-02411e55e43b"
  },
  {
    "id": "f56e6b27-f26e-4b42-b076-df5f06298918",
    "name": "Rutul’skiy Rayon",
    "state_id": "5e956629-a4d0-4c3f-b521-02411e55e43b"
  },
  {
    "id": "afe26afc-0caa-4caf-8e9f-1c0156a6c904",
    "name": "Sabnova",
    "state_id": "5e956629-a4d0-4c3f-b521-02411e55e43b"
  },
  {
    "id": "7b5a5bea-0d24-4b81-9aa0-6049e4402575",
    "name": "Samur",
    "state_id": "5e956629-a4d0-4c3f-b521-02411e55e43b"
  },
  {
    "id": "ff0506a3-bc26-40c1-9423-e6cd4a672f8d",
    "name": "Sergokala",
    "state_id": "5e956629-a4d0-4c3f-b521-02411e55e43b"
  },
  {
    "id": "aeb468c3-fb93-4d53-84d7-ad8b41f3a180",
    "name": "Sergokalinskiy Rayon",
    "state_id": "5e956629-a4d0-4c3f-b521-02411e55e43b"
  },
  {
    "id": "1af49d3b-7459-4d54-8963-2c2d2ccff7e9",
    "name": "Shamil’kala",
    "state_id": "5e956629-a4d0-4c3f-b521-02411e55e43b"
  },
  {
    "id": "0f199f7e-68f0-4e4d-9eb8-f15f973b8155",
    "name": "Shamil’skiy Rayon",
    "state_id": "5e956629-a4d0-4c3f-b521-02411e55e43b"
  },
  {
    "id": "39d4f0f5-8e90-41e7-ab4a-6f6826e3c198",
    "name": "Shamkhal",
    "state_id": "5e956629-a4d0-4c3f-b521-02411e55e43b"
  },
  {
    "id": "a5f2769b-9f91-4e79-8ded-31b5ba82c713",
    "name": "Shamkhal-Termen",
    "state_id": "5e956629-a4d0-4c3f-b521-02411e55e43b"
  },
  {
    "id": "83760edc-c12d-45b0-8e3c-318d166acd9b",
    "name": "Siukh",
    "state_id": "5e956629-a4d0-4c3f-b521-02411e55e43b"
  },
  {
    "id": "d922c722-13e6-43d8-b8f2-aecfa0bdda73",
    "name": "Solnechnoye",
    "state_id": "5e956629-a4d0-4c3f-b521-02411e55e43b"
  },
  {
    "id": "8e2cbefe-ecd5-4147-a3a8-8864ff0f301e",
    "name": "Sulak",
    "state_id": "5e956629-a4d0-4c3f-b521-02411e55e43b"
  },
  {
    "id": "f50a3dba-1218-4190-91ce-b3d2cb6399ae",
    "name": "Suleyman-Stal’skiy Rayon",
    "state_id": "5e956629-a4d0-4c3f-b521-02411e55e43b"
  },
  {
    "id": "2cd210e2-8635-4eae-a8f4-a14f126c77d4",
    "name": "Syrtych",
    "state_id": "5e956629-a4d0-4c3f-b521-02411e55e43b"
  },
  {
    "id": "3ccced75-3136-4069-b107-c34d6117c8f5",
    "name": "Tabasaranskiy Rayon",
    "state_id": "5e956629-a4d0-4c3f-b521-02411e55e43b"
  },
  {
    "id": "502eeabe-9ba7-4045-9061-4a63a5907846",
    "name": "Tarki",
    "state_id": "5e956629-a4d0-4c3f-b521-02411e55e43b"
  },
  {
    "id": "70eb76b4-7ac5-44dc-9e08-030d11b0d4c5",
    "name": "Tarumovka",
    "state_id": "5e956629-a4d0-4c3f-b521-02411e55e43b"
  },
  {
    "id": "77c07b22-3957-4961-8d6c-806b916b2539",
    "name": "Tarumovskiy Rayon",
    "state_id": "5e956629-a4d0-4c3f-b521-02411e55e43b"
  },
  {
    "id": "c036976b-b675-4594-9929-34eafbccc921",
    "name": "Temiraul",
    "state_id": "5e956629-a4d0-4c3f-b521-02411e55e43b"
  },
  {
    "id": "e09bc276-31cc-4d77-b956-b00786fd3dee",
    "name": "Terekli-Mekteb",
    "state_id": "5e956629-a4d0-4c3f-b521-02411e55e43b"
  },
  {
    "id": "aeb7a4bf-4f6a-46e2-9bb3-cfcb55c7ec4b",
    "name": "Tlyarata",
    "state_id": "5e956629-a4d0-4c3f-b521-02411e55e43b"
  },
  {
    "id": "4c907d39-e7f9-438f-8571-2bbda8b20261",
    "name": "Tlyaratinskiy Rayon",
    "state_id": "5e956629-a4d0-4c3f-b521-02411e55e43b"
  },
  {
    "id": "8570a0de-9f42-4ef4-9e8f-a24dd6ad8912",
    "name": "Tpig",
    "state_id": "5e956629-a4d0-4c3f-b521-02411e55e43b"
  },
  {
    "id": "0cb6cdeb-ec6c-4835-b367-55870f07561e",
    "name": "Tsumadinskiy Rayon",
    "state_id": "5e956629-a4d0-4c3f-b521-02411e55e43b"
  },
  {
    "id": "20e2dfec-96bd-4a7a-be72-7c805275e9f4",
    "name": "Tsuntinskiy Rayon",
    "state_id": "5e956629-a4d0-4c3f-b521-02411e55e43b"
  },
  {
    "id": "2162be94-2b1d-48cb-8578-43f4a78cb814",
    "name": "Tsurib",
    "state_id": "5e956629-a4d0-4c3f-b521-02411e55e43b"
  },
  {
    "id": "8cb0b01a-e9b4-4625-bdab-e735d293b45a",
    "name": "Tyube",
    "state_id": "5e956629-a4d0-4c3f-b521-02411e55e43b"
  },
  {
    "id": "559c9994-f13f-4d71-adb4-f96034e3ab36",
    "name": "Uchkent",
    "state_id": "5e956629-a4d0-4c3f-b521-02411e55e43b"
  },
  {
    "id": "334275cb-6373-4c72-9ea5-1b90c269cc8c",
    "name": "Ulluaya",
    "state_id": "5e956629-a4d0-4c3f-b521-02411e55e43b"
  },
  {
    "id": "0df174de-fd10-4727-81b1-3eb78c6f186d",
    "name": "Ullubiyaul",
    "state_id": "5e956629-a4d0-4c3f-b521-02411e55e43b"
  },
  {
    "id": "7fe0f339-8c6e-4365-b957-c131d6fa5127",
    "name": "Untsukul’",
    "state_id": "5e956629-a4d0-4c3f-b521-02411e55e43b"
  },
  {
    "id": "dd0d307f-0ed1-4c2d-a8db-318ecfb882e2",
    "name": "Untsukul’skiy Rayon",
    "state_id": "5e956629-a4d0-4c3f-b521-02411e55e43b"
  },
  {
    "id": "c0dc858c-07de-452c-8f2b-8a3a33a38903",
    "name": "Urkarakh",
    "state_id": "5e956629-a4d0-4c3f-b521-02411e55e43b"
  },
  {
    "id": "1cac025c-a892-4cc8-8c92-9e30d2ce75bb",
    "name": "Urma",
    "state_id": "5e956629-a4d0-4c3f-b521-02411e55e43b"
  },
  {
    "id": "ddfdbf56-fdd7-4dc2-a212-c08de6e78a86",
    "name": "Usisha",
    "state_id": "5e956629-a4d0-4c3f-b521-02411e55e43b"
  },
  {
    "id": "823c7b5b-1e77-43a3-a97f-15760a524c50",
    "name": "Usukhchay",
    "state_id": "5e956629-a4d0-4c3f-b521-02411e55e43b"
  },
  {
    "id": "c3e11f20-36f0-4a83-b1a4-5f2a1cd050de",
    "name": "Utamysh",
    "state_id": "5e956629-a4d0-4c3f-b521-02411e55e43b"
  },
  {
    "id": "18203790-d4b7-4414-86b8-bdee42b64bc1",
    "name": "Utsmiyurt",
    "state_id": "5e956629-a4d0-4c3f-b521-02411e55e43b"
  },
  {
    "id": "e7a43496-141f-4661-86ad-1f8636ed996f",
    "name": "Velikent",
    "state_id": "5e956629-a4d0-4c3f-b521-02411e55e43b"
  },
  {
    "id": "514132a9-26a2-4dd9-9788-9a44a20dbde0",
    "name": "Verkhneye Kazanishche",
    "state_id": "5e956629-a4d0-4c3f-b521-02411e55e43b"
  },
  {
    "id": "6975ec27-639a-4906-9e1d-4002d5cf6f30",
    "name": "Yuzhno-Sukhokumsk",
    "state_id": "5e956629-a4d0-4c3f-b521-02411e55e43b"
  },
  {
    "id": "4b86c74a-b4f4-44df-a132-dee3e56d3c75",
    "name": "Zubutli-Miatli",
    "state_id": "5e956629-a4d0-4c3f-b521-02411e55e43b"
  }
]