[
  {
    "id": "7b423318-a70b-494a-9978-0280628e1d9d",
    "name": "Challapata",
    "state_id": "5ef978ce-2e4f-41e8-9b2f-304f5ba62445"
  },
  {
    "id": "af190ed7-78ed-4c16-89ff-0f8c23160813",
    "name": "Huanuni",
    "state_id": "5ef978ce-2e4f-41e8-9b2f-304f5ba62445"
  },
  {
    "id": "0a155f92-2a2f-48ae-86dc-2a1ed95298d6",
    "name": "Litoral de Atacama",
    "state_id": "5ef978ce-2e4f-41e8-9b2f-304f5ba62445"
  },
  {
    "id": "9e86dfe4-f9d3-4e01-b579-c9dbd64a168e",
    "name": "Machacamarca",
    "state_id": "5ef978ce-2e4f-41e8-9b2f-304f5ba62445"
  },
  {
    "id": "4b2547e0-7358-4299-a9bd-cf5109766927",
    "name": "Nor Carangas Province",
    "state_id": "5ef978ce-2e4f-41e8-9b2f-304f5ba62445"
  },
  {
    "id": "dafcd101-dc6a-4861-8891-afdb2532396e",
    "name": "Oruro",
    "state_id": "5ef978ce-2e4f-41e8-9b2f-304f5ba62445"
  },
  {
    "id": "0b1b7bb0-e4f7-4b5f-9fe4-bb08bc52917c",
    "name": "Poopó",
    "state_id": "5ef978ce-2e4f-41e8-9b2f-304f5ba62445"
  },
  {
    "id": "ce236a15-b215-4ca3-93f4-b61e7999eda1",
    "name": "Provincia Avaroa",
    "state_id": "5ef978ce-2e4f-41e8-9b2f-304f5ba62445"
  },
  {
    "id": "0216c117-5842-4f39-b29d-b1bcb6a08aab",
    "name": "Provincia Carangas",
    "state_id": "5ef978ce-2e4f-41e8-9b2f-304f5ba62445"
  },
  {
    "id": "4eef7b5f-12c5-440d-a20c-2409805dc9a8",
    "name": "Provincia Cercado",
    "state_id": "5ef978ce-2e4f-41e8-9b2f-304f5ba62445"
  },
  {
    "id": "1f12dc3d-d95e-4b26-a9c7-eb20687d372e",
    "name": "Provincia Ladislao Cabrera",
    "state_id": "5ef978ce-2e4f-41e8-9b2f-304f5ba62445"
  },
  {
    "id": "eccb0649-bd2c-4dbc-b8a8-10ba1e258ac0",
    "name": "Provincia Pantaleón Dalence",
    "state_id": "5ef978ce-2e4f-41e8-9b2f-304f5ba62445"
  },
  {
    "id": "ae9346fc-57fd-4f6b-9307-f294f880261b",
    "name": "Provincia Poopó",
    "state_id": "5ef978ce-2e4f-41e8-9b2f-304f5ba62445"
  },
  {
    "id": "df5ea7ff-1933-4d34-a1ad-9faf3c919e78",
    "name": "Provincia Sabaya",
    "state_id": "5ef978ce-2e4f-41e8-9b2f-304f5ba62445"
  },
  {
    "id": "afbaa106-cea8-4d60-bb3a-3383d775d975",
    "name": "Provincia Sajama",
    "state_id": "5ef978ce-2e4f-41e8-9b2f-304f5ba62445"
  },
  {
    "id": "db8f10a4-05a2-47d2-865d-d1929b71996d",
    "name": "Provincia San Pedro de Totora",
    "state_id": "5ef978ce-2e4f-41e8-9b2f-304f5ba62445"
  },
  {
    "id": "e9be25bb-39d4-4050-bc9e-eba5ab14b681",
    "name": "Provincia Saucari",
    "state_id": "5ef978ce-2e4f-41e8-9b2f-304f5ba62445"
  },
  {
    "id": "43ea8637-82ea-4015-b75d-6f3bfe083af6",
    "name": "Provincia Tomás Barron",
    "state_id": "5ef978ce-2e4f-41e8-9b2f-304f5ba62445"
  },
  {
    "id": "6f951334-536a-4e43-8949-753ce37e2bcc",
    "name": "Puerto de Mejillones",
    "state_id": "5ef978ce-2e4f-41e8-9b2f-304f5ba62445"
  },
  {
    "id": "5dd9ecdc-5d8d-464c-851f-ecc0b41cbc02",
    "name": "Sebastian Pagador Province",
    "state_id": "5ef978ce-2e4f-41e8-9b2f-304f5ba62445"
  },
  {
    "id": "8e2a938c-f8fe-42a6-aeb1-5b39bc8d59c3",
    "name": "Sud Carangas Province",
    "state_id": "5ef978ce-2e4f-41e8-9b2f-304f5ba62445"
  },
  {
    "id": "6a69965f-9a7a-420b-a70d-254a25bff961",
    "name": "Totoral",
    "state_id": "5ef978ce-2e4f-41e8-9b2f-304f5ba62445"
  }
]