[
  {
    "id": "750a257b-6ec6-49bb-a3ef-4d239d94fbd0",
    "name": "Abaca",
    "state_id": "60cfe62e-d7c0-480c-86f1-5aa0c9e9f0b8"
  },
  {
    "id": "dda2569a-c8cf-41bf-b17c-8bb80cbbc567",
    "name": "Abis",
    "state_id": "60cfe62e-d7c0-480c-86f1-5aa0c9e9f0b8"
  },
  {
    "id": "b33459d5-c31a-410c-ab22-efdab82c17d1",
    "name": "Abucayan",
    "state_id": "60cfe62e-d7c0-480c-86f1-5aa0c9e9f0b8"
  },
  {
    "id": "0798f832-2088-4856-a626-d036cd849a46",
    "name": "Adlaon",
    "state_id": "60cfe62e-d7c0-480c-86f1-5aa0c9e9f0b8"
  },
  {
    "id": "77862e53-c6b2-49e0-bdb9-b9e5fdd16d28",
    "name": "Agsungot",
    "state_id": "60cfe62e-d7c0-480c-86f1-5aa0c9e9f0b8"
  },
  {
    "id": "a42eb7e3-0b4f-4e79-8b37-e18968e38f1d",
    "name": "Aguining",
    "state_id": "60cfe62e-d7c0-480c-86f1-5aa0c9e9f0b8"
  },
  {
    "id": "e4a01997-d288-4aac-943c-df164273acde",
    "name": "Alangilan",
    "state_id": "60cfe62e-d7c0-480c-86f1-5aa0c9e9f0b8"
  },
  {
    "id": "0df1806b-7a98-4423-ae42-6b01a0be3bd5",
    "name": "Alangilanan",
    "state_id": "60cfe62e-d7c0-480c-86f1-5aa0c9e9f0b8"
  },
  {
    "id": "6eca4c12-dfc0-417b-86b3-f666d7d813ac",
    "name": "Alburquerque",
    "state_id": "60cfe62e-d7c0-480c-86f1-5aa0c9e9f0b8"
  },
  {
    "id": "d6d4204f-d4e5-4c33-b009-f442f1723397",
    "name": "Alcantara",
    "state_id": "60cfe62e-d7c0-480c-86f1-5aa0c9e9f0b8"
  },
  {
    "id": "d00953ed-ab43-47b5-a8c1-1499328c07f8",
    "name": "Alcoy",
    "state_id": "60cfe62e-d7c0-480c-86f1-5aa0c9e9f0b8"
  },
  {
    "id": "b3be95de-b710-4b2f-98fe-1eda8c9a27c1",
    "name": "Alegria",
    "state_id": "60cfe62e-d7c0-480c-86f1-5aa0c9e9f0b8"
  },
  {
    "id": "81f862a9-399f-4435-8a4b-8b342977e2b7",
    "name": "Alicia",
    "state_id": "60cfe62e-d7c0-480c-86f1-5aa0c9e9f0b8"
  },
  {
    "id": "55b67897-77e8-4ec3-bb60-268350952f9a",
    "name": "Aloguinsan",
    "state_id": "60cfe62e-d7c0-480c-86f1-5aa0c9e9f0b8"
  },
  {
    "id": "bdfcb0c0-72c5-42bb-b5c7-bd43471d069e",
    "name": "Alpaco",
    "state_id": "60cfe62e-d7c0-480c-86f1-5aa0c9e9f0b8"
  },
  {
    "id": "7b8cfc24-f5c1-47d5-a049-ba12dd3c7c12",
    "name": "Amdos",
    "state_id": "60cfe62e-d7c0-480c-86f1-5aa0c9e9f0b8"
  },
  {
    "id": "ec0abc7b-94f4-4f40-9da3-066a0f779b67",
    "name": "Amio",
    "state_id": "60cfe62e-d7c0-480c-86f1-5aa0c9e9f0b8"
  },
  {
    "id": "60d6e4cd-d0e1-42d9-a556-0b72f0443230",
    "name": "Anda",
    "state_id": "60cfe62e-d7c0-480c-86f1-5aa0c9e9f0b8"
  },
  {
    "id": "479cf770-1765-4498-8e10-60fe53799b99",
    "name": "Anonang",
    "state_id": "60cfe62e-d7c0-480c-86f1-5aa0c9e9f0b8"
  },
  {
    "id": "5618a474-156b-44d3-a3b8-35b2e2d3a2d1",
    "name": "Anopog",
    "state_id": "60cfe62e-d7c0-480c-86f1-5aa0c9e9f0b8"
  },
  {
    "id": "ea067eff-08ae-40e1-86ea-bd77faea78a9",
    "name": "Antequera",
    "state_id": "60cfe62e-d7c0-480c-86f1-5aa0c9e9f0b8"
  },
  {
    "id": "1a658377-9149-4292-b880-63bdeece5973",
    "name": "Antipolo",
    "state_id": "60cfe62e-d7c0-480c-86f1-5aa0c9e9f0b8"
  },
  {
    "id": "2e308add-cc6e-4005-8f1b-8ea7e41c0e68",
    "name": "Apas",
    "state_id": "60cfe62e-d7c0-480c-86f1-5aa0c9e9f0b8"
  },
  {
    "id": "10bc051f-e194-4519-ba16-2e7ca77cb4b3",
    "name": "Apoya",
    "state_id": "60cfe62e-d7c0-480c-86f1-5aa0c9e9f0b8"
  },
  {
    "id": "94fff985-1681-42c7-963e-236e48aec0ea",
    "name": "Argao",
    "state_id": "60cfe62e-d7c0-480c-86f1-5aa0c9e9f0b8"
  },
  {
    "id": "6287cae5-ffa3-4537-a95b-34b3c6c48261",
    "name": "Asturias",
    "state_id": "60cfe62e-d7c0-480c-86f1-5aa0c9e9f0b8"
  },
  {
    "id": "c14f93a9-36e0-45a4-bcaa-18286f017e06",
    "name": "Atop-atop",
    "state_id": "60cfe62e-d7c0-480c-86f1-5aa0c9e9f0b8"
  },
  {
    "id": "961a7aae-5502-4a59-b95b-b7eb6935fde2",
    "name": "Ayungon",
    "state_id": "60cfe62e-d7c0-480c-86f1-5aa0c9e9f0b8"
  },
  {
    "id": "5b6de32d-956f-4022-90d0-bd680dc4f685",
    "name": "Azagra",
    "state_id": "60cfe62e-d7c0-480c-86f1-5aa0c9e9f0b8"
  },
  {
    "id": "a45dc1b0-06df-4245-9a9d-19f9e5af06bb",
    "name": "Bachauan",
    "state_id": "60cfe62e-d7c0-480c-86f1-5aa0c9e9f0b8"
  },
  {
    "id": "f2f50b48-4f5b-472f-85b8-4452ba63c50c",
    "name": "Baclayon",
    "state_id": "60cfe62e-d7c0-480c-86f1-5aa0c9e9f0b8"
  },
  {
    "id": "f26a4a59-093a-4951-ae51-db7de0de0b60",
    "name": "Bacong",
    "state_id": "60cfe62e-d7c0-480c-86f1-5aa0c9e9f0b8"
  },
  {
    "id": "57a73790-a157-4dce-a40e-484c82887ee9",
    "name": "Badian",
    "state_id": "60cfe62e-d7c0-480c-86f1-5aa0c9e9f0b8"
  },
  {
    "id": "73a69050-82f3-4cba-b10e-814434e74cbc",
    "name": "Bagacay",
    "state_id": "60cfe62e-d7c0-480c-86f1-5aa0c9e9f0b8"
  },
  {
    "id": "8926c66e-02c0-4138-b719-510da349158b",
    "name": "Bagay",
    "state_id": "60cfe62e-d7c0-480c-86f1-5aa0c9e9f0b8"
  },
  {
    "id": "db6ad830-bfff-431a-82b4-0c5a513cacb3",
    "name": "Bagtic",
    "state_id": "60cfe62e-d7c0-480c-86f1-5aa0c9e9f0b8"
  },
  {
    "id": "b1bd0227-5382-486b-9e32-5892e8ca24a0",
    "name": "Bairan",
    "state_id": "60cfe62e-d7c0-480c-86f1-5aa0c9e9f0b8"
  },
  {
    "id": "34f592c3-518a-418b-b844-01f572d82bac",
    "name": "Bais",
    "state_id": "60cfe62e-d7c0-480c-86f1-5aa0c9e9f0b8"
  },
  {
    "id": "de855f98-e2e8-484c-bd3e-58f58a693a72",
    "name": "Bal-os",
    "state_id": "60cfe62e-d7c0-480c-86f1-5aa0c9e9f0b8"
  },
  {
    "id": "13e0ec1e-0e50-43e7-b55b-14f17257da9f",
    "name": "Balamban",
    "state_id": "60cfe62e-d7c0-480c-86f1-5aa0c9e9f0b8"
  },
  {
    "id": "44641cf8-71d0-4db2-90a8-97ca25cca03f",
    "name": "Balayong",
    "state_id": "60cfe62e-d7c0-480c-86f1-5aa0c9e9f0b8"
  },
  {
    "id": "cd75323f-53b0-441b-a430-a2ac96a1d7e0",
    "name": "Balilihan",
    "state_id": "60cfe62e-d7c0-480c-86f1-5aa0c9e9f0b8"
  },
  {
    "id": "dd87caab-2c57-4962-84c2-3779a19f16bb",
    "name": "Balogo",
    "state_id": "60cfe62e-d7c0-480c-86f1-5aa0c9e9f0b8"
  },
  {
    "id": "02bbea3d-00d5-4d45-aadf-0236411ac4c8",
    "name": "Balud",
    "state_id": "60cfe62e-d7c0-480c-86f1-5aa0c9e9f0b8"
  },
  {
    "id": "88d0c915-2c8d-48de-b175-c1fd1cac26c4",
    "name": "Banhigan",
    "state_id": "60cfe62e-d7c0-480c-86f1-5aa0c9e9f0b8"
  },
  {
    "id": "72371d5c-870b-4226-983c-e951c4a8f2cd",
    "name": "Banilad",
    "state_id": "60cfe62e-d7c0-480c-86f1-5aa0c9e9f0b8"
  },
  {
    "id": "adf8825b-d061-47d6-adbf-95f474069382",
    "name": "Bantayan",
    "state_id": "60cfe62e-d7c0-480c-86f1-5aa0c9e9f0b8"
  },
  {
    "id": "3dccca5d-f50c-4a5b-8eb9-57bb075184ad",
    "name": "Barili",
    "state_id": "60cfe62e-d7c0-480c-86f1-5aa0c9e9f0b8"
  },
  {
    "id": "bca45ea8-8598-401b-8019-bc0c1de55435",
    "name": "Basak",
    "state_id": "60cfe62e-d7c0-480c-86f1-5aa0c9e9f0b8"
  },
  {
    "id": "a5a5d640-57fa-4e09-b8a0-8e65368c9a73",
    "name": "Basay",
    "state_id": "60cfe62e-d7c0-480c-86f1-5aa0c9e9f0b8"
  },
  {
    "id": "50efdb32-78cc-4046-be80-cc9fdaf8a83b",
    "name": "Basdiot",
    "state_id": "60cfe62e-d7c0-480c-86f1-5aa0c9e9f0b8"
  },
  {
    "id": "b30362c1-c4e9-42aa-b023-bff1db68f8a1",
    "name": "Bateria",
    "state_id": "60cfe62e-d7c0-480c-86f1-5aa0c9e9f0b8"
  },
  {
    "id": "d958ec87-9023-4950-ab1f-a990266550d8",
    "name": "Batuan",
    "state_id": "60cfe62e-d7c0-480c-86f1-5aa0c9e9f0b8"
  },
  {
    "id": "762763dd-4648-47e6-8ac6-2b381697b5d3",
    "name": "Baud",
    "state_id": "60cfe62e-d7c0-480c-86f1-5aa0c9e9f0b8"
  },
  {
    "id": "fc308be7-6a1a-4a69-9093-5965ec6cb0ad",
    "name": "Baugo",
    "state_id": "60cfe62e-d7c0-480c-86f1-5aa0c9e9f0b8"
  },
  {
    "id": "679cb268-8cfb-451d-878c-dca1f7d062e3",
    "name": "Bayawan",
    "state_id": "60cfe62e-d7c0-480c-86f1-5aa0c9e9f0b8"
  },
  {
    "id": "985b1ab0-efa4-4b82-81eb-9319109e10bb",
    "name": "Becerril",
    "state_id": "60cfe62e-d7c0-480c-86f1-5aa0c9e9f0b8"
  },
  {
    "id": "c2098a6a-2731-4e5e-9298-6c31e0a6c2af",
    "name": "Biabas",
    "state_id": "60cfe62e-d7c0-480c-86f1-5aa0c9e9f0b8"
  },
  {
    "id": "380bae5b-7fef-4f9d-acaa-902f9cb1a21a",
    "name": "Biasong",
    "state_id": "60cfe62e-d7c0-480c-86f1-5aa0c9e9f0b8"
  },
  {
    "id": "73a686f3-83bf-4217-a52e-126447f3dc59",
    "name": "Bien Unido",
    "state_id": "60cfe62e-d7c0-480c-86f1-5aa0c9e9f0b8"
  },
  {
    "id": "efbd0419-9ba9-4d13-b82c-784e2b9a9f15",
    "name": "Biking",
    "state_id": "60cfe62e-d7c0-480c-86f1-5aa0c9e9f0b8"
  },
  {
    "id": "3c1f67eb-d21b-4e62-9593-301d1f075ec7",
    "name": "Bilar",
    "state_id": "60cfe62e-d7c0-480c-86f1-5aa0c9e9f0b8"
  },
  {
    "id": "5f5c002c-ebc7-4833-8bea-1a567ad14810",
    "name": "Binlod",
    "state_id": "60cfe62e-d7c0-480c-86f1-5aa0c9e9f0b8"
  },
  {
    "id": "21f12f9a-9089-4797-b15a-39b900accff1",
    "name": "Biton",
    "state_id": "60cfe62e-d7c0-480c-86f1-5aa0c9e9f0b8"
  },
  {
    "id": "a89ff5ad-6879-4ffd-adfb-f204d4a97ab1",
    "name": "Bitoon",
    "state_id": "60cfe62e-d7c0-480c-86f1-5aa0c9e9f0b8"
  },
  {
    "id": "abd3634b-a56a-4fb2-9c0e-fea7179ef668",
    "name": "Bogo",
    "state_id": "60cfe62e-d7c0-480c-86f1-5aa0c9e9f0b8"
  },
  {
    "id": "01a80791-4aa5-4815-85a5-ee464c0a3600",
    "name": "Bohol",
    "state_id": "60cfe62e-d7c0-480c-86f1-5aa0c9e9f0b8"
  },
  {
    "id": "dda182e8-7ee0-4a46-93ea-de2c59d85df5",
    "name": "Bolisong",
    "state_id": "60cfe62e-d7c0-480c-86f1-5aa0c9e9f0b8"
  },
  {
    "id": "bf59c8c7-027f-4457-a4c2-718269fc75d8",
    "name": "Boljoon",
    "state_id": "60cfe62e-d7c0-480c-86f1-5aa0c9e9f0b8"
  },
  {
    "id": "77548cae-3029-434b-b3ec-9b89b2fd7422",
    "name": "Bonawon",
    "state_id": "60cfe62e-d7c0-480c-86f1-5aa0c9e9f0b8"
  },
  {
    "id": "eabaa734-1192-4568-a698-11753186ca3d",
    "name": "Bonbon",
    "state_id": "60cfe62e-d7c0-480c-86f1-5aa0c9e9f0b8"
  },
  {
    "id": "06882494-906e-4621-bf58-590f1c62fc9a",
    "name": "Bood",
    "state_id": "60cfe62e-d7c0-480c-86f1-5aa0c9e9f0b8"
  },
  {
    "id": "fa3d09bf-efef-4009-8dd2-ca7f8a428339",
    "name": "Borbon",
    "state_id": "60cfe62e-d7c0-480c-86f1-5aa0c9e9f0b8"
  },
  {
    "id": "2dc243b8-faee-453a-b9a2-892762a76a3e",
    "name": "Botigues",
    "state_id": "60cfe62e-d7c0-480c-86f1-5aa0c9e9f0b8"
  },
  {
    "id": "f01c4ec8-1433-474f-86c4-d2a3de61429c",
    "name": "Buagsong",
    "state_id": "60cfe62e-d7c0-480c-86f1-5aa0c9e9f0b8"
  },
  {
    "id": "a5ad81ac-7c61-4983-a44b-c0589f181e2e",
    "name": "Buanoy",
    "state_id": "60cfe62e-d7c0-480c-86f1-5aa0c9e9f0b8"
  },
  {
    "id": "e1c759e3-6e4e-49e4-bc1c-ec209a0328f7",
    "name": "Buenavista",
    "state_id": "60cfe62e-d7c0-480c-86f1-5aa0c9e9f0b8"
  },
  {
    "id": "fc12a65d-7ca2-4883-b712-735943dacd0d",
    "name": "Bugas",
    "state_id": "60cfe62e-d7c0-480c-86f1-5aa0c9e9f0b8"
  },
  {
    "id": "d2bba00b-4e0c-46bc-8553-3cc335aceb9f",
    "name": "Bugsoc",
    "state_id": "60cfe62e-d7c0-480c-86f1-5aa0c9e9f0b8"
  },
  {
    "id": "80757adc-610e-4c5a-aa3c-aedbe76c9455",
    "name": "Bulasa",
    "state_id": "60cfe62e-d7c0-480c-86f1-5aa0c9e9f0b8"
  },
  {
    "id": "62926cee-36cd-4705-9782-09d3df353d16",
    "name": "Bulod",
    "state_id": "60cfe62e-d7c0-480c-86f1-5aa0c9e9f0b8"
  },
  {
    "id": "5621c3ec-94e8-458b-bd82-9eec6c171a41",
    "name": "Cabalawan",
    "state_id": "60cfe62e-d7c0-480c-86f1-5aa0c9e9f0b8"
  },
  {
    "id": "2e6906e5-4791-43f3-9071-e29e66de724a",
    "name": "Cabangahan",
    "state_id": "60cfe62e-d7c0-480c-86f1-5aa0c9e9f0b8"
  },
  {
    "id": "9b3f5e0c-71b7-45e8-b4f6-69798888743b",
    "name": "Cabul-an",
    "state_id": "60cfe62e-d7c0-480c-86f1-5aa0c9e9f0b8"
  },
  {
    "id": "211c8985-3a1f-448e-9c86-5e30851172c2",
    "name": "Calamba",
    "state_id": "60cfe62e-d7c0-480c-86f1-5aa0c9e9f0b8"
  },
  {
    "id": "c8e53fdf-82a8-41c5-b4bb-30d10bdf93ad",
    "name": "Calape",
    "state_id": "60cfe62e-d7c0-480c-86f1-5aa0c9e9f0b8"
  },
  {
    "id": "4e8b8692-ce45-4f69-9844-e9e3b7adccf5",
    "name": "Calero",
    "state_id": "60cfe62e-d7c0-480c-86f1-5aa0c9e9f0b8"
  },
  {
    "id": "5301866a-09e5-409a-898d-7f6f89d9887c",
    "name": "Calidñgan",
    "state_id": "60cfe62e-d7c0-480c-86f1-5aa0c9e9f0b8"
  },
  {
    "id": "8e5c9145-7538-4f32-abc2-4d2730723a35",
    "name": "Calituban",
    "state_id": "60cfe62e-d7c0-480c-86f1-5aa0c9e9f0b8"
  },
  {
    "id": "7343a441-dadb-45ca-a36e-5bb3f33c57ac",
    "name": "Calumboyan",
    "state_id": "60cfe62e-d7c0-480c-86f1-5aa0c9e9f0b8"
  },
  {
    "id": "2a96a3f5-f691-41db-b5da-57a2c08a30c8",
    "name": "Camambugan",
    "state_id": "60cfe62e-d7c0-480c-86f1-5aa0c9e9f0b8"
  },
  {
    "id": "a21b3f6d-9308-480c-bb92-840298514095",
    "name": "Cambanay",
    "state_id": "60cfe62e-d7c0-480c-86f1-5aa0c9e9f0b8"
  },
  {
    "id": "5f61151d-d0cc-4c0d-82c6-872f3c78c3a3",
    "name": "Campoyo",
    "state_id": "60cfe62e-d7c0-480c-86f1-5aa0c9e9f0b8"
  },
  {
    "id": "f6f34f05-0e0d-46c3-b3af-2436a8868196",
    "name": "Campusong",
    "state_id": "60cfe62e-d7c0-480c-86f1-5aa0c9e9f0b8"
  },
  {
    "id": "bd55efc0-1e3e-4291-9223-5d4d048c7e6c",
    "name": "Can-asujan",
    "state_id": "60cfe62e-d7c0-480c-86f1-5aa0c9e9f0b8"
  },
  {
    "id": "afdc199e-d504-48ef-8141-48957f0b4809",
    "name": "Canauay",
    "state_id": "60cfe62e-d7c0-480c-86f1-5aa0c9e9f0b8"
  },
  {
    "id": "cc7fa87b-00ff-4dc7-b3dc-246687379f63",
    "name": "Candabong",
    "state_id": "60cfe62e-d7c0-480c-86f1-5aa0c9e9f0b8"
  },
  {
    "id": "ee1d924e-fc7e-449e-9743-94c99280f21e",
    "name": "Candijay",
    "state_id": "60cfe62e-d7c0-480c-86f1-5aa0c9e9f0b8"
  },
  {
    "id": "30317fe7-35ac-462b-9627-d992708da5cd",
    "name": "Canhaway",
    "state_id": "60cfe62e-d7c0-480c-86f1-5aa0c9e9f0b8"
  },
  {
    "id": "ea599e94-5b1d-45bc-8bb3-b3ec5db5ba6e",
    "name": "Canjulao",
    "state_id": "60cfe62e-d7c0-480c-86f1-5aa0c9e9f0b8"
  },
  {
    "id": "28afc5c2-27ba-4dc3-ace5-1e47b388500a",
    "name": "Canlaon",
    "state_id": "60cfe62e-d7c0-480c-86f1-5aa0c9e9f0b8"
  },
  {
    "id": "bd39c26c-4c7a-4cd8-87f6-bf22268c96dd",
    "name": "Canmaya Diot",
    "state_id": "60cfe62e-d7c0-480c-86f1-5aa0c9e9f0b8"
  },
  {
    "id": "bc058f73-1998-4b5d-8479-4512fbda0971",
    "name": "Cansuje",
    "state_id": "60cfe62e-d7c0-480c-86f1-5aa0c9e9f0b8"
  },
  {
    "id": "f8093afe-f49c-4da9-b9f1-93208c709f8f",
    "name": "Cantao-an",
    "state_id": "60cfe62e-d7c0-480c-86f1-5aa0c9e9f0b8"
  },
  {
    "id": "b1958ba7-bd64-4cb6-8f28-472f0be2044e",
    "name": "Carcar",
    "state_id": "60cfe62e-d7c0-480c-86f1-5aa0c9e9f0b8"
  },
  {
    "id": "1628a196-531f-4f9b-bffa-efd7f5626b28",
    "name": "Carmelo",
    "state_id": "60cfe62e-d7c0-480c-86f1-5aa0c9e9f0b8"
  },
  {
    "id": "cd713472-7124-4e97-9c3d-3c248b85d6ec",
    "name": "Carmen",
    "state_id": "60cfe62e-d7c0-480c-86f1-5aa0c9e9f0b8"
  },
  {
    "id": "eb22dfe4-983a-4c06-b8d4-ad7d2f41136d",
    "name": "Casala-an",
    "state_id": "60cfe62e-d7c0-480c-86f1-5aa0c9e9f0b8"
  },
  {
    "id": "bd1e35f3-49c5-42d5-a771-2d8ddb7df9f7",
    "name": "Casay",
    "state_id": "60cfe62e-d7c0-480c-86f1-5aa0c9e9f0b8"
  },
  {
    "id": "312fcfe3-8ccf-4d78-ada1-37fa3b1c07cf",
    "name": "Catarman",
    "state_id": "60cfe62e-d7c0-480c-86f1-5aa0c9e9f0b8"
  },
  {
    "id": "258c7e75-d16a-4332-a36d-3916771cf353",
    "name": "Caticugan",
    "state_id": "60cfe62e-d7c0-480c-86f1-5aa0c9e9f0b8"
  },
  {
    "id": "6d3fd1b5-1587-471e-81f9-8c1c8e654b6a",
    "name": "Catigbian",
    "state_id": "60cfe62e-d7c0-480c-86f1-5aa0c9e9f0b8"
  },
  {
    "id": "f5c7f22f-dbef-4e56-899c-3e19c39542a3",
    "name": "Catmon",
    "state_id": "60cfe62e-d7c0-480c-86f1-5aa0c9e9f0b8"
  },
  {
    "id": "a5aa7f3c-a4e7-452e-be17-4149f47a766d",
    "name": "Catmondaan",
    "state_id": "60cfe62e-d7c0-480c-86f1-5aa0c9e9f0b8"
  },
  {
    "id": "6491ed84-81a8-4ff9-8ef8-bc6b8e9c9fe5",
    "name": "Catungawan Sur",
    "state_id": "60cfe62e-d7c0-480c-86f1-5aa0c9e9f0b8"
  },
  {
    "id": "2da75ed3-6256-409f-86d9-29e90b615205",
    "name": "Cawayan",
    "state_id": "60cfe62e-d7c0-480c-86f1-5aa0c9e9f0b8"
  },
  {
    "id": "8252cb83-d19a-4eb0-9f1e-949bbf6d6695",
    "name": "Cayang",
    "state_id": "60cfe62e-d7c0-480c-86f1-5aa0c9e9f0b8"
  },
  {
    "id": "ce826587-ac40-4317-ac0a-83707fe3c880",
    "name": "Cebu City",
    "state_id": "60cfe62e-d7c0-480c-86f1-5aa0c9e9f0b8"
  },
  {
    "id": "25a10b6a-17d1-4796-97ba-a302c66c91a4",
    "name": "Clarin",
    "state_id": "60cfe62e-d7c0-480c-86f1-5aa0c9e9f0b8"
  },
  {
    "id": "e91f58a2-8eb2-4302-bdcc-866284213be5",
    "name": "Cogan",
    "state_id": "60cfe62e-d7c0-480c-86f1-5aa0c9e9f0b8"
  },
  {
    "id": "07b7fcdc-522f-490d-b137-28141c618e2c",
    "name": "Cogon",
    "state_id": "60cfe62e-d7c0-480c-86f1-5aa0c9e9f0b8"
  },
  {
    "id": "2f6ade83-8007-4ed1-95b8-46ef1a46a431",
    "name": "Cogon Cruz",
    "state_id": "60cfe62e-d7c0-480c-86f1-5aa0c9e9f0b8"
  },
  {
    "id": "d5404999-984e-4d07-8093-0124a116649c",
    "name": "Cogtong",
    "state_id": "60cfe62e-d7c0-480c-86f1-5aa0c9e9f0b8"
  },
  {
    "id": "10ecffff-fc75-4b30-a075-f28e3159945a",
    "name": "Colonia",
    "state_id": "60cfe62e-d7c0-480c-86f1-5aa0c9e9f0b8"
  },
  {
    "id": "41e106e1-1ad8-4461-939b-40b047e1ea80",
    "name": "Compostela",
    "state_id": "60cfe62e-d7c0-480c-86f1-5aa0c9e9f0b8"
  },
  {
    "id": "355e9abf-2489-411f-a1cf-beeb089e7e40",
    "name": "Consolacion",
    "state_id": "60cfe62e-d7c0-480c-86f1-5aa0c9e9f0b8"
  },
  {
    "id": "7eba033c-4a04-4b55-bb4a-b6e643d4c3d6",
    "name": "Consuelo",
    "state_id": "60cfe62e-d7c0-480c-86f1-5aa0c9e9f0b8"
  },
  {
    "id": "68bcb063-ba9c-4df7-934a-dac97501ce89",
    "name": "Cordova",
    "state_id": "60cfe62e-d7c0-480c-86f1-5aa0c9e9f0b8"
  },
  {
    "id": "391e6dde-649d-4558-96c0-65ba3a7aa131",
    "name": "Corella",
    "state_id": "60cfe62e-d7c0-480c-86f1-5aa0c9e9f0b8"
  },
  {
    "id": "c1b8eb00-e0c3-4b9c-bd7e-0433b0353180",
    "name": "Cortes",
    "state_id": "60cfe62e-d7c0-480c-86f1-5aa0c9e9f0b8"
  },
  {
    "id": "f46d0b63-3406-41c7-9eb5-dd309e562786",
    "name": "Daanbantayan",
    "state_id": "60cfe62e-d7c0-480c-86f1-5aa0c9e9f0b8"
  },
  {
    "id": "d719cb26-0985-4e89-8f57-5a89ba95cc2e",
    "name": "Dagohoy",
    "state_id": "60cfe62e-d7c0-480c-86f1-5aa0c9e9f0b8"
  },
  {
    "id": "f2f6b269-4480-4fe8-ad63-c568479e93e1",
    "name": "Dalaguete",
    "state_id": "60cfe62e-d7c0-480c-86f1-5aa0c9e9f0b8"
  },
  {
    "id": "d7b3c8db-6160-46d1-a3e6-7436e8a7ff84",
    "name": "Damolog",
    "state_id": "60cfe62e-d7c0-480c-86f1-5aa0c9e9f0b8"
  },
  {
    "id": "03055e75-0f2a-4ccc-b919-2f1342f48eab",
    "name": "Danao",
    "state_id": "60cfe62e-d7c0-480c-86f1-5aa0c9e9f0b8"
  },
  {
    "id": "b973dafb-66f5-4e00-adbc-8b8d72a51cd4",
    "name": "Dapitan",
    "state_id": "60cfe62e-d7c0-480c-86f1-5aa0c9e9f0b8"
  },
  {
    "id": "bf3d0c03-753d-401e-ac62-b491b857ccc7",
    "name": "Datagon",
    "state_id": "60cfe62e-d7c0-480c-86f1-5aa0c9e9f0b8"
  },
  {
    "id": "e1f09afc-8605-48e9-85fe-c3f7be6b710c",
    "name": "Dauin",
    "state_id": "60cfe62e-d7c0-480c-86f1-5aa0c9e9f0b8"
  },
  {
    "id": "deed415e-c1e0-4653-9890-a7ba1d66cabb",
    "name": "Dauis",
    "state_id": "60cfe62e-d7c0-480c-86f1-5aa0c9e9f0b8"
  },
  {
    "id": "aa0c3c47-efc6-408b-a390-e6411eb783c2",
    "name": "De la Paz",
    "state_id": "60cfe62e-d7c0-480c-86f1-5aa0c9e9f0b8"
  },
  {
    "id": "ae68555c-ac87-4d2c-9563-54fe3ccd8192",
    "name": "Dimiao",
    "state_id": "60cfe62e-d7c0-480c-86f1-5aa0c9e9f0b8"
  },
  {
    "id": "abed3e25-2c6d-40a0-a5c7-24e189eb779d",
    "name": "Doljo",
    "state_id": "60cfe62e-d7c0-480c-86f1-5aa0c9e9f0b8"
  },
  {
    "id": "68fdbca4-c958-40bd-bb1a-6fd83d822c4b",
    "name": "Doong",
    "state_id": "60cfe62e-d7c0-480c-86f1-5aa0c9e9f0b8"
  },
  {
    "id": "cd8ce63b-0917-49e0-b090-bd639f842168",
    "name": "Duero",
    "state_id": "60cfe62e-d7c0-480c-86f1-5aa0c9e9f0b8"
  },
  {
    "id": "afcbef30-3d81-4f48-b46e-a98a1a5d143b",
    "name": "Dumaguete",
    "state_id": "60cfe62e-d7c0-480c-86f1-5aa0c9e9f0b8"
  },
  {
    "id": "6dc49c7d-2605-404d-9447-58b7ed5edf59",
    "name": "Dumanjog",
    "state_id": "60cfe62e-d7c0-480c-86f1-5aa0c9e9f0b8"
  },
  {
    "id": "3d24bd55-1e11-427d-8ef3-027b4db596b3",
    "name": "El Pardo",
    "state_id": "60cfe62e-d7c0-480c-86f1-5aa0c9e9f0b8"
  },
  {
    "id": "4556e54b-55a5-449c-b6c3-45dd671b592c",
    "name": "Enrique Villanueva",
    "state_id": "60cfe62e-d7c0-480c-86f1-5aa0c9e9f0b8"
  },
  {
    "id": "04eba59c-69c1-49c9-8422-482a3e53fac0",
    "name": "Esperanza",
    "state_id": "60cfe62e-d7c0-480c-86f1-5aa0c9e9f0b8"
  },
  {
    "id": "6db3b1b1-2844-432f-8dea-61097278f675",
    "name": "Estaca",
    "state_id": "60cfe62e-d7c0-480c-86f1-5aa0c9e9f0b8"
  },
  {
    "id": "51c63f8e-8b60-48bd-897a-32d2736ecbca",
    "name": "Gabi",
    "state_id": "60cfe62e-d7c0-480c-86f1-5aa0c9e9f0b8"
  },
  {
    "id": "b8279667-1f45-4e7c-be68-03de7d371624",
    "name": "Garcia Hernandez",
    "state_id": "60cfe62e-d7c0-480c-86f1-5aa0c9e9f0b8"
  },
  {
    "id": "a3870609-df3e-474a-953a-c96bdd28eb35",
    "name": "Giawang",
    "state_id": "60cfe62e-d7c0-480c-86f1-5aa0c9e9f0b8"
  },
  {
    "id": "ad379575-8b09-41ef-ac72-082c101e1e57",
    "name": "Ginatilan",
    "state_id": "60cfe62e-d7c0-480c-86f1-5aa0c9e9f0b8"
  },
  {
    "id": "5a3509a6-2c3a-4ec5-8980-4bb9f01fa0e1",
    "name": "Guadalupe",
    "state_id": "60cfe62e-d7c0-480c-86f1-5aa0c9e9f0b8"
  },
  {
    "id": "0e25d52b-9b8b-46b9-b21e-9fa2a6b98a4d",
    "name": "Guba",
    "state_id": "60cfe62e-d7c0-480c-86f1-5aa0c9e9f0b8"
  },
  {
    "id": "5de4c5bc-d4e2-4639-aa76-a816dfef5f57",
    "name": "Guibodangan",
    "state_id": "60cfe62e-d7c0-480c-86f1-5aa0c9e9f0b8"
  },
  {
    "id": "434c51b4-1381-4434-b066-1bf25f43f9e3",
    "name": "Guihulñgan",
    "state_id": "60cfe62e-d7c0-480c-86f1-5aa0c9e9f0b8"
  },
  {
    "id": "7fb39b7a-28da-494e-8e08-efaeb21bd03d",
    "name": "Guindarohan",
    "state_id": "60cfe62e-d7c0-480c-86f1-5aa0c9e9f0b8"
  },
  {
    "id": "8ce462ad-3af6-484e-8eb4-531c17e06fb6",
    "name": "Guindulman",
    "state_id": "60cfe62e-d7c0-480c-86f1-5aa0c9e9f0b8"
  },
  {
    "id": "8bbf5173-b082-4efd-9902-214a94e7db8e",
    "name": "Guiwanon",
    "state_id": "60cfe62e-d7c0-480c-86f1-5aa0c9e9f0b8"
  },
  {
    "id": "f2956c3a-4537-4d0e-a3e3-c6b749c85194",
    "name": "Hagdan",
    "state_id": "60cfe62e-d7c0-480c-86f1-5aa0c9e9f0b8"
  },
  {
    "id": "6d6c3fa8-ec2c-434d-a55f-ed4258f17256",
    "name": "Hagnaya",
    "state_id": "60cfe62e-d7c0-480c-86f1-5aa0c9e9f0b8"
  },
  {
    "id": "c8c1f60e-3406-4797-9d4c-ce70270346bf",
    "name": "Hibaiyo",
    "state_id": "60cfe62e-d7c0-480c-86f1-5aa0c9e9f0b8"
  },
  {
    "id": "80979cbe-cdad-4408-ae11-b1efc5490333",
    "name": "Hilantagaan",
    "state_id": "60cfe62e-d7c0-480c-86f1-5aa0c9e9f0b8"
  },
  {
    "id": "c30e31dd-ea96-4fad-88de-679ad93807d9",
    "name": "Hilotongan",
    "state_id": "60cfe62e-d7c0-480c-86f1-5aa0c9e9f0b8"
  },
  {
    "id": "ef02343b-6d86-4759-993f-f803b1aced31",
    "name": "Himensulan",
    "state_id": "60cfe62e-d7c0-480c-86f1-5aa0c9e9f0b8"
  },
  {
    "id": "397f6b9d-ba07-4d5e-8f32-021d36beb0c6",
    "name": "Hinlayagan Ilaud",
    "state_id": "60cfe62e-d7c0-480c-86f1-5aa0c9e9f0b8"
  },
  {
    "id": "7d624620-2b46-47cc-9007-bb40c6f50e83",
    "name": "Ilihan",
    "state_id": "60cfe62e-d7c0-480c-86f1-5aa0c9e9f0b8"
  },
  {
    "id": "2dc12577-17c0-48ad-bc20-295334e7b82a",
    "name": "Inabanga",
    "state_id": "60cfe62e-d7c0-480c-86f1-5aa0c9e9f0b8"
  },
  {
    "id": "885d49c5-ae0d-448c-a0ef-9953c9ac94f1",
    "name": "Inayagan",
    "state_id": "60cfe62e-d7c0-480c-86f1-5aa0c9e9f0b8"
  },
  {
    "id": "812088c9-4a95-47eb-b0e6-c4016d30c1a8",
    "name": "Jaclupan",
    "state_id": "60cfe62e-d7c0-480c-86f1-5aa0c9e9f0b8"
  },
  {
    "id": "bbdc4be2-ff2a-450a-868a-6e778890782c",
    "name": "Jagna",
    "state_id": "60cfe62e-d7c0-480c-86f1-5aa0c9e9f0b8"
  },
  {
    "id": "08d63540-1da4-4d93-a030-8d869ec37e98",
    "name": "Jampang",
    "state_id": "60cfe62e-d7c0-480c-86f1-5aa0c9e9f0b8"
  },
  {
    "id": "d55fcd7e-b5f9-420e-a53c-616b8a9ce6e0",
    "name": "Jandayan Norte",
    "state_id": "60cfe62e-d7c0-480c-86f1-5aa0c9e9f0b8"
  },
  {
    "id": "ac722102-d9f5-4a6b-84c7-bacc5b8fadbc",
    "name": "Jantianon",
    "state_id": "60cfe62e-d7c0-480c-86f1-5aa0c9e9f0b8"
  },
  {
    "id": "a18bff5a-5b98-4754-b03c-14b357ea575b",
    "name": "Japitan",
    "state_id": "60cfe62e-d7c0-480c-86f1-5aa0c9e9f0b8"
  },
  {
    "id": "4febcf5a-1caa-414f-b1ff-d7c073128e91",
    "name": "Jetafe",
    "state_id": "60cfe62e-d7c0-480c-86f1-5aa0c9e9f0b8"
  },
  {
    "id": "0888598a-9825-4221-ad69-6c42e3d0b67a",
    "name": "Jimalalud",
    "state_id": "60cfe62e-d7c0-480c-86f1-5aa0c9e9f0b8"
  },
  {
    "id": "517a2eb1-4b88-4452-8c8f-797b1e9a7263",
    "name": "Jugno",
    "state_id": "60cfe62e-d7c0-480c-86f1-5aa0c9e9f0b8"
  },
  {
    "id": "cd57c4ab-d8cb-4a66-b97a-ad8018d456ce",
    "name": "Kabac",
    "state_id": "60cfe62e-d7c0-480c-86f1-5aa0c9e9f0b8"
  },
  {
    "id": "85dd9859-c694-478a-ae9c-e1b4c85c6fd4",
    "name": "Kabungahan",
    "state_id": "60cfe62e-d7c0-480c-86f1-5aa0c9e9f0b8"
  },
  {
    "id": "3646f2b7-3208-4cf4-bae8-508affc108d1",
    "name": "Kandabong",
    "state_id": "60cfe62e-d7c0-480c-86f1-5aa0c9e9f0b8"
  },
  {
    "id": "210681d9-6887-4372-9efa-94c29d1f2379",
    "name": "Kaongkod",
    "state_id": "60cfe62e-d7c0-480c-86f1-5aa0c9e9f0b8"
  },
  {
    "id": "94a2d67b-14e0-4034-8bea-c52fbe25ebc6",
    "name": "Kauit",
    "state_id": "60cfe62e-d7c0-480c-86f1-5aa0c9e9f0b8"
  },
  {
    "id": "e346e398-c10e-4e64-b02d-4d913280a8c6",
    "name": "Kotkot",
    "state_id": "60cfe62e-d7c0-480c-86f1-5aa0c9e9f0b8"
  },
  {
    "id": "8c0eed40-4c30-40b9-a0cb-024f58a65372",
    "name": "Kuanos",
    "state_id": "60cfe62e-d7c0-480c-86f1-5aa0c9e9f0b8"
  },
  {
    "id": "259e9242-1d0e-4f31-a93f-da13ed3948c9",
    "name": "La Hacienda",
    "state_id": "60cfe62e-d7c0-480c-86f1-5aa0c9e9f0b8"
  },
  {
    "id": "1e19bf72-89c7-4348-b9f1-31862d365704",
    "name": "La Libertad",
    "state_id": "60cfe62e-d7c0-480c-86f1-5aa0c9e9f0b8"
  },
  {
    "id": "1cbeb283-a43b-4166-9483-ac0ae7e2f421",
    "name": "Lanao",
    "state_id": "60cfe62e-d7c0-480c-86f1-5aa0c9e9f0b8"
  },
  {
    "id": "9040b23e-c4b1-4f47-bdce-c830b3bee36c",
    "name": "Lanas",
    "state_id": "60cfe62e-d7c0-480c-86f1-5aa0c9e9f0b8"
  },
  {
    "id": "2e3f3aef-e573-4605-88d4-be35288b496a",
    "name": "Langob",
    "state_id": "60cfe62e-d7c0-480c-86f1-5aa0c9e9f0b8"
  },
  {
    "id": "820530b5-d825-412c-ac41-df2567c43396",
    "name": "Langtad",
    "state_id": "60cfe62e-d7c0-480c-86f1-5aa0c9e9f0b8"
  },
  {
    "id": "e6ae1f57-ee53-4f32-a732-e81bae8a804b",
    "name": "Lapaz",
    "state_id": "60cfe62e-d7c0-480c-86f1-5aa0c9e9f0b8"
  },
  {
    "id": "2e1e55cd-e00d-4d59-acbb-4742e8225769",
    "name": "Lapu-Lapu City",
    "state_id": "60cfe62e-d7c0-480c-86f1-5aa0c9e9f0b8"
  },
  {
    "id": "75c64d00-b652-453b-abea-cdba942add9f",
    "name": "Lazi",
    "state_id": "60cfe62e-d7c0-480c-86f1-5aa0c9e9f0b8"
  },
  {
    "id": "38c46edf-13c3-442b-9189-4336d996d7ab",
    "name": "Lepanto",
    "state_id": "60cfe62e-d7c0-480c-86f1-5aa0c9e9f0b8"
  },
  {
    "id": "d1c84760-0e07-4410-adb6-4800ee7bdc1b",
    "name": "Libertad",
    "state_id": "60cfe62e-d7c0-480c-86f1-5aa0c9e9f0b8"
  },
  {
    "id": "fe65e13c-bb1c-448b-afeb-a51efcd1b143",
    "name": "Lila",
    "state_id": "60cfe62e-d7c0-480c-86f1-5aa0c9e9f0b8"
  },
  {
    "id": "063f2db1-d6d5-42d8-b4ea-bde12fd1a6e7",
    "name": "Liloan",
    "state_id": "60cfe62e-d7c0-480c-86f1-5aa0c9e9f0b8"
  },
  {
    "id": "2e79bc84-b56b-4157-a7d9-13cf5bab429f",
    "name": "Lipayran",
    "state_id": "60cfe62e-d7c0-480c-86f1-5aa0c9e9f0b8"
  },
  {
    "id": "dd502f9a-9dfe-4caa-9453-ded2a6629dc1",
    "name": "Loay",
    "state_id": "60cfe62e-d7c0-480c-86f1-5aa0c9e9f0b8"
  },
  {
    "id": "110f686c-d1be-4b36-b365-56de09e5775e",
    "name": "Loboc",
    "state_id": "60cfe62e-d7c0-480c-86f1-5aa0c9e9f0b8"
  },
  {
    "id": "7864a9e1-b6c7-4b68-86a9-75795daf3410",
    "name": "Logon",
    "state_id": "60cfe62e-d7c0-480c-86f1-5aa0c9e9f0b8"
  },
  {
    "id": "e92fc19a-4f64-450b-9cb0-bc1ee0b95869",
    "name": "Lombog",
    "state_id": "60cfe62e-d7c0-480c-86f1-5aa0c9e9f0b8"
  },
  {
    "id": "ceddad4a-d6a3-465e-a9d4-66b130234b4c",
    "name": "Loon",
    "state_id": "60cfe62e-d7c0-480c-86f1-5aa0c9e9f0b8"
  },
  {
    "id": "88d88a25-4813-4864-9e81-3fc33908ffe6",
    "name": "Lugo",
    "state_id": "60cfe62e-d7c0-480c-86f1-5aa0c9e9f0b8"
  },
  {
    "id": "120412b7-f5ab-4e85-83bc-32e41b4ed947",
    "name": "Lunas",
    "state_id": "60cfe62e-d7c0-480c-86f1-5aa0c9e9f0b8"
  },
  {
    "id": "710b42ae-748d-4392-8d21-4cb02b505965",
    "name": "Lut-od",
    "state_id": "60cfe62e-d7c0-480c-86f1-5aa0c9e9f0b8"
  },
  {
    "id": "31441d87-7c30-4b1f-bb06-1aedb8406ae1",
    "name": "Maayong Tubig",
    "state_id": "60cfe62e-d7c0-480c-86f1-5aa0c9e9f0b8"
  },
  {
    "id": "700290fa-8ddc-4cf8-b43a-1e3c3dad614c",
    "name": "Mabinay",
    "state_id": "60cfe62e-d7c0-480c-86f1-5aa0c9e9f0b8"
  },
  {
    "id": "39093e96-d152-45d6-ac5f-0b6f877f2010",
    "name": "Mabini",
    "state_id": "60cfe62e-d7c0-480c-86f1-5aa0c9e9f0b8"
  },
  {
    "id": "615a0350-ad92-4adf-bf42-f2cf71c71165",
    "name": "Macaas",
    "state_id": "60cfe62e-d7c0-480c-86f1-5aa0c9e9f0b8"
  },
  {
    "id": "15881ee4-1858-40d4-bc47-90f6fb41036b",
    "name": "Madridejos",
    "state_id": "60cfe62e-d7c0-480c-86f1-5aa0c9e9f0b8"
  },
  {
    "id": "13a92ec5-0c60-444c-99ee-38442103bea5",
    "name": "Magay",
    "state_id": "60cfe62e-d7c0-480c-86f1-5aa0c9e9f0b8"
  },
  {
    "id": "18041718-0528-4e04-8ab9-03b048587894",
    "name": "Mahayag",
    "state_id": "60cfe62e-d7c0-480c-86f1-5aa0c9e9f0b8"
  },
  {
    "id": "149b3362-2a80-4c54-ae56-699e9676b087",
    "name": "Mainit",
    "state_id": "60cfe62e-d7c0-480c-86f1-5aa0c9e9f0b8"
  },
  {
    "id": "bb7af204-bda2-4000-9fa2-35e446b2d09c",
    "name": "Malabugas",
    "state_id": "60cfe62e-d7c0-480c-86f1-5aa0c9e9f0b8"
  },
  {
    "id": "a1f565d8-4eea-47ad-9a6c-0fdbd6326437",
    "name": "Malabuyoc",
    "state_id": "60cfe62e-d7c0-480c-86f1-5aa0c9e9f0b8"
  },
  {
    "id": "47e01ece-33eb-435e-ab18-d87abadb1953",
    "name": "Malaiba",
    "state_id": "60cfe62e-d7c0-480c-86f1-5aa0c9e9f0b8"
  },
  {
    "id": "d30f7289-0516-4e36-a6ae-1f1769ead4a3",
    "name": "Malbug",
    "state_id": "60cfe62e-d7c0-480c-86f1-5aa0c9e9f0b8"
  },
  {
    "id": "b620d40b-7b05-4bb4-8ffe-ec5b233cbbd2",
    "name": "Malhiao",
    "state_id": "60cfe62e-d7c0-480c-86f1-5aa0c9e9f0b8"
  },
  {
    "id": "acd9c575-efab-4ed4-a640-74454f574cb4",
    "name": "Malingin",
    "state_id": "60cfe62e-d7c0-480c-86f1-5aa0c9e9f0b8"
  },
  {
    "id": "33b9d730-f586-4d56-9d5e-1a35b32037d5",
    "name": "Maloh",
    "state_id": "60cfe62e-d7c0-480c-86f1-5aa0c9e9f0b8"
  },
  {
    "id": "26bb1f3b-2008-4a63-b38a-29663a912926",
    "name": "Malusay",
    "state_id": "60cfe62e-d7c0-480c-86f1-5aa0c9e9f0b8"
  },
  {
    "id": "44bff3d0-21d5-400c-9f3d-d2ca224c27ff",
    "name": "Malway",
    "state_id": "60cfe62e-d7c0-480c-86f1-5aa0c9e9f0b8"
  },
  {
    "id": "f1aae0ff-3bdc-4557-9d1a-5ddaf3801616",
    "name": "Manalongon",
    "state_id": "60cfe62e-d7c0-480c-86f1-5aa0c9e9f0b8"
  },
  {
    "id": "d652e044-90bd-4088-9f9e-d6c9fe9a85d2",
    "name": "Mancilang",
    "state_id": "60cfe62e-d7c0-480c-86f1-5aa0c9e9f0b8"
  },
  {
    "id": "17ffeca9-cffc-459a-bccb-e67e471976e7",
    "name": "Mandaue City",
    "state_id": "60cfe62e-d7c0-480c-86f1-5aa0c9e9f0b8"
  },
  {
    "id": "21e4b7ba-9cb9-4854-a4af-920a1df37524",
    "name": "Maninihon",
    "state_id": "60cfe62e-d7c0-480c-86f1-5aa0c9e9f0b8"
  },
  {
    "id": "842916ea-da78-402f-b0e3-f7dc7d017bc2",
    "name": "Maño",
    "state_id": "60cfe62e-d7c0-480c-86f1-5aa0c9e9f0b8"
  },
  {
    "id": "14fd7a77-0c56-4918-93b4-e42fcd327caa",
    "name": "Mantalongon",
    "state_id": "60cfe62e-d7c0-480c-86f1-5aa0c9e9f0b8"
  },
  {
    "id": "7ee8c4c1-8e70-497c-a54a-7f84372bb636",
    "name": "Mantiquil",
    "state_id": "60cfe62e-d7c0-480c-86f1-5aa0c9e9f0b8"
  },
  {
    "id": "b5b5ee70-58d7-4a66-837c-53c901ebf35b",
    "name": "Maravilla",
    "state_id": "60cfe62e-d7c0-480c-86f1-5aa0c9e9f0b8"
  },
  {
    "id": "b9dfa272-7eb8-4cd0-9c63-2a36e504fbb1",
    "name": "Maribojoc",
    "state_id": "60cfe62e-d7c0-480c-86f1-5aa0c9e9f0b8"
  },
  {
    "id": "dcde2b2d-cc39-4c5c-8411-995d6d2eba66",
    "name": "Maricaban",
    "state_id": "60cfe62e-d7c0-480c-86f1-5aa0c9e9f0b8"
  },
  {
    "id": "f83ff553-9ad7-4360-90c5-16659ae3c3a4",
    "name": "Masaba",
    "state_id": "60cfe62e-d7c0-480c-86f1-5aa0c9e9f0b8"
  },
  {
    "id": "3f89258a-0d60-43c5-9ea8-14ae7751e37a",
    "name": "Maya",
    "state_id": "60cfe62e-d7c0-480c-86f1-5aa0c9e9f0b8"
  },
  {
    "id": "6cc912d5-c593-41de-a521-56e07b6f7bf3",
    "name": "Mayabon",
    "state_id": "60cfe62e-d7c0-480c-86f1-5aa0c9e9f0b8"
  },
  {
    "id": "2ace3f0b-5211-4f27-8f47-a3b9e854b820",
    "name": "Mayana",
    "state_id": "60cfe62e-d7c0-480c-86f1-5aa0c9e9f0b8"
  },
  {
    "id": "838b1ff1-53f1-433f-ad24-c2c694d1bb6f",
    "name": "Mayapusi",
    "state_id": "60cfe62e-d7c0-480c-86f1-5aa0c9e9f0b8"
  },
  {
    "id": "554c4360-bec7-4d59-9895-44e160612c91",
    "name": "McKinley",
    "state_id": "60cfe62e-d7c0-480c-86f1-5aa0c9e9f0b8"
  },
  {
    "id": "c7647758-4056-4c4f-af31-8eecd9473a1b",
    "name": "Medellin",
    "state_id": "60cfe62e-d7c0-480c-86f1-5aa0c9e9f0b8"
  },
  {
    "id": "900373ce-4e48-4693-abb0-d7d6f2a6f9da",
    "name": "Mercedes",
    "state_id": "60cfe62e-d7c0-480c-86f1-5aa0c9e9f0b8"
  },
  {
    "id": "13db760e-b361-4370-bfbe-66ea97f0a299",
    "name": "Minglanilla",
    "state_id": "60cfe62e-d7c0-480c-86f1-5aa0c9e9f0b8"
  },
  {
    "id": "f1088ba2-9c85-4020-ac21-9519fbf3d656",
    "name": "Minolos",
    "state_id": "60cfe62e-d7c0-480c-86f1-5aa0c9e9f0b8"
  },
  {
    "id": "2bfbab65-de67-4769-9250-57d7bc980b65",
    "name": "Moalboal",
    "state_id": "60cfe62e-d7c0-480c-86f1-5aa0c9e9f0b8"
  },
  {
    "id": "5dec522c-ee15-4b32-9975-a5d5ef4e18cf",
    "name": "Montaneza",
    "state_id": "60cfe62e-d7c0-480c-86f1-5aa0c9e9f0b8"
  },
  {
    "id": "0b8e1e96-989b-4095-93ea-f6f312234a4c",
    "name": "Naga",
    "state_id": "60cfe62e-d7c0-480c-86f1-5aa0c9e9f0b8"
  },
  {
    "id": "d015c491-09f2-495d-a1f3-e5e516ffbca2",
    "name": "Nagbalaye",
    "state_id": "60cfe62e-d7c0-480c-86f1-5aa0c9e9f0b8"
  },
  {
    "id": "44d7ed4e-842b-4ea7-8ef8-7f6e6e2cbe6b",
    "name": "Nahawan",
    "state_id": "60cfe62e-d7c0-480c-86f1-5aa0c9e9f0b8"
  },
  {
    "id": "6e671669-dbd5-44da-8f35-a263371874ca",
    "name": "Nailong",
    "state_id": "60cfe62e-d7c0-480c-86f1-5aa0c9e9f0b8"
  },
  {
    "id": "0168a6f4-b81b-46ad-9cf9-0282d43c8584",
    "name": "Nalundan",
    "state_id": "60cfe62e-d7c0-480c-86f1-5aa0c9e9f0b8"
  },
  {
    "id": "2211dcba-5904-40c2-b4e5-4180f78c2fb4",
    "name": "Nangka",
    "state_id": "60cfe62e-d7c0-480c-86f1-5aa0c9e9f0b8"
  },
  {
    "id": "6c6115b8-9ea1-46c2-ae45-7c9c3bcdac53",
    "name": "Novallas",
    "state_id": "60cfe62e-d7c0-480c-86f1-5aa0c9e9f0b8"
  },
  {
    "id": "c89c926a-10e4-40a4-8d1d-e06b94c9fb30",
    "name": "Nueva Fuerza",
    "state_id": "60cfe62e-d7c0-480c-86f1-5aa0c9e9f0b8"
  },
  {
    "id": "2ac6ba66-4e51-49d1-b2b0-9bafa65fd62d",
    "name": "Nueva Vida Sur",
    "state_id": "60cfe62e-d7c0-480c-86f1-5aa0c9e9f0b8"
  },
  {
    "id": "e32fa5fd-cdbc-4099-bbc4-1092f5175396",
    "name": "Nugas",
    "state_id": "60cfe62e-d7c0-480c-86f1-5aa0c9e9f0b8"
  },
  {
    "id": "f8e5475e-0024-4d0b-afb7-a55435964526",
    "name": "Obong",
    "state_id": "60cfe62e-d7c0-480c-86f1-5aa0c9e9f0b8"
  },
  {
    "id": "a7e1651a-e119-4846-b172-c6e45f026cdb",
    "name": "Ocaña",
    "state_id": "60cfe62e-d7c0-480c-86f1-5aa0c9e9f0b8"
  },
  {
    "id": "1eaa98aa-d9de-4f7a-982a-9fa5d3b691fb",
    "name": "Ocoy",
    "state_id": "60cfe62e-d7c0-480c-86f1-5aa0c9e9f0b8"
  },
  {
    "id": "0dce44ef-4a53-48a9-a114-fd0ca8dac538",
    "name": "Okiot",
    "state_id": "60cfe62e-d7c0-480c-86f1-5aa0c9e9f0b8"
  },
  {
    "id": "f6949b3d-cbe0-4b92-95aa-ecc91da5a484",
    "name": "Oslob",
    "state_id": "60cfe62e-d7c0-480c-86f1-5aa0c9e9f0b8"
  },
  {
    "id": "1c1e739d-878f-406c-bc97-bcbd8ac34cba",
    "name": "Owak",
    "state_id": "60cfe62e-d7c0-480c-86f1-5aa0c9e9f0b8"
  },
  {
    "id": "43ac1cdd-5aef-4909-b75e-00fd33236622",
    "name": "Padre Zamora",
    "state_id": "60cfe62e-d7c0-480c-86f1-5aa0c9e9f0b8"
  },
  {
    "id": "ac1e0fc7-e580-4e94-852b-ee99e05bffde",
    "name": "Pajo",
    "state_id": "60cfe62e-d7c0-480c-86f1-5aa0c9e9f0b8"
  },
  {
    "id": "2ef72ce2-0463-460c-a2ec-3459d8285984",
    "name": "Pamplona",
    "state_id": "60cfe62e-d7c0-480c-86f1-5aa0c9e9f0b8"
  },
  {
    "id": "8f187bff-4751-4abb-bedc-ad3670054d41",
    "name": "Panalipan",
    "state_id": "60cfe62e-d7c0-480c-86f1-5aa0c9e9f0b8"
  },
  {
    "id": "4deb1c49-2822-4ede-98fc-50dcfd7fd8c4",
    "name": "Panaytayon",
    "state_id": "60cfe62e-d7c0-480c-86f1-5aa0c9e9f0b8"
  },
  {
    "id": "c56910a3-012b-4f47-8709-9617c55f1357",
    "name": "Pangdan",
    "state_id": "60cfe62e-d7c0-480c-86f1-5aa0c9e9f0b8"
  },
  {
    "id": "70616938-765e-4bca-867d-a157a5c77769",
    "name": "Panglao",
    "state_id": "60cfe62e-d7c0-480c-86f1-5aa0c9e9f0b8"
  },
  {
    "id": "999e134f-1b1e-48e6-8d0e-314ab13a4759",
    "name": "Panognawan",
    "state_id": "60cfe62e-d7c0-480c-86f1-5aa0c9e9f0b8"
  },
  {
    "id": "858a8c71-664b-490a-b2ef-509f28485e96",
    "name": "Patao",
    "state_id": "60cfe62e-d7c0-480c-86f1-5aa0c9e9f0b8"
  },
  {
    "id": "8c34ebf9-0b6e-4617-997a-0e15b1699e32",
    "name": "Payabon",
    "state_id": "60cfe62e-d7c0-480c-86f1-5aa0c9e9f0b8"
  },
  {
    "id": "f717b2d8-23b5-4804-b3b5-244b42e472d9",
    "name": "Paypay",
    "state_id": "60cfe62e-d7c0-480c-86f1-5aa0c9e9f0b8"
  },
  {
    "id": "cf610b52-40e9-49c5-9d35-8f03570c270e",
    "name": "Perrelos",
    "state_id": "60cfe62e-d7c0-480c-86f1-5aa0c9e9f0b8"
  },
  {
    "id": "33511cc8-617a-4dfa-b4a3-bbad6d6d735d",
    "name": "Pilar",
    "state_id": "60cfe62e-d7c0-480c-86f1-5aa0c9e9f0b8"
  },
  {
    "id": "4a1d3fbc-0d80-41d8-aea4-0d4b560fe008",
    "name": "Pinamungahan",
    "state_id": "60cfe62e-d7c0-480c-86f1-5aa0c9e9f0b8"
  },
  {
    "id": "a9ba6288-0c6a-499e-9cff-a3e337cb3c63",
    "name": "Pinayagan Norte",
    "state_id": "60cfe62e-d7c0-480c-86f1-5aa0c9e9f0b8"
  },
  {
    "id": "39df5b8c-6012-49fa-b5d8-efa40c80d479",
    "name": "Pinokawan",
    "state_id": "60cfe62e-d7c0-480c-86f1-5aa0c9e9f0b8"
  },
  {
    "id": "4a2bd442-3a96-415c-8eab-f39ad1d3bd71",
    "name": "Pitogo",
    "state_id": "60cfe62e-d7c0-480c-86f1-5aa0c9e9f0b8"
  },
  {
    "id": "9bdbb258-4f38-4357-aa52-d5708980ef73",
    "name": "Polo",
    "state_id": "60cfe62e-d7c0-480c-86f1-5aa0c9e9f0b8"
  },
  {
    "id": "798c60da-7a26-4119-88fe-049d92c427ea",
    "name": "Poro",
    "state_id": "60cfe62e-d7c0-480c-86f1-5aa0c9e9f0b8"
  },
  {
    "id": "beb97b62-f7d6-4b46-a5a4-a4bda774172e",
    "name": "Province of Cebu",
    "state_id": "60cfe62e-d7c0-480c-86f1-5aa0c9e9f0b8"
  },
  {
    "id": "2d2b93e2-1daa-4e5d-9612-f47224b5da04",
    "name": "Province of Negros Oriental",
    "state_id": "60cfe62e-d7c0-480c-86f1-5aa0c9e9f0b8"
  },
  {
    "id": "1cd82caf-45c9-416b-99d6-5b5039fd84e9",
    "name": "Province of Siquijor",
    "state_id": "60cfe62e-d7c0-480c-86f1-5aa0c9e9f0b8"
  },
  {
    "id": "8762bb4b-ba0e-42c9-acc6-6a876eba5b54",
    "name": "Putat",
    "state_id": "60cfe62e-d7c0-480c-86f1-5aa0c9e9f0b8"
  },
  {
    "id": "6c8af499-1edc-447f-9725-9206a2433409",
    "name": "Ronda",
    "state_id": "60cfe62e-d7c0-480c-86f1-5aa0c9e9f0b8"
  },
  {
    "id": "8a2d0731-67b3-4b6c-ac44-c822cdea1391",
    "name": "Saavedra",
    "state_id": "60cfe62e-d7c0-480c-86f1-5aa0c9e9f0b8"
  },
  {
    "id": "ebbb47ff-4036-4411-9270-3b966e9187ce",
    "name": "Sagbayan",
    "state_id": "60cfe62e-d7c0-480c-86f1-5aa0c9e9f0b8"
  },
  {
    "id": "22ba6938-f080-4bcd-8b83-001fd1432724",
    "name": "Samboan",
    "state_id": "60cfe62e-d7c0-480c-86f1-5aa0c9e9f0b8"
  },
  {
    "id": "51fc5df0-8ba8-49d7-987d-05fb1ca34dff",
    "name": "San Agustin",
    "state_id": "60cfe62e-d7c0-480c-86f1-5aa0c9e9f0b8"
  },
  {
    "id": "9630d311-62ea-4d8b-a779-dbc351535c43",
    "name": "San Fernando",
    "state_id": "60cfe62e-d7c0-480c-86f1-5aa0c9e9f0b8"
  },
  {
    "id": "faf6e8d8-de60-4e52-ae61-ef6f123801aa",
    "name": "San Francisco",
    "state_id": "60cfe62e-d7c0-480c-86f1-5aa0c9e9f0b8"
  },
  {
    "id": "f899e465-61dc-43bb-8493-cbd0c8a98022",
    "name": "San Isidro",
    "state_id": "60cfe62e-d7c0-480c-86f1-5aa0c9e9f0b8"
  },
  {
    "id": "ed7e4161-e9d2-4413-9e5c-90324842b038",
    "name": "San Jose",
    "state_id": "60cfe62e-d7c0-480c-86f1-5aa0c9e9f0b8"
  },
  {
    "id": "5b203493-b9de-49a3-8ddb-6dc0fe033bd9",
    "name": "San Miguel",
    "state_id": "60cfe62e-d7c0-480c-86f1-5aa0c9e9f0b8"
  },
  {
    "id": "b4a502c0-c7f6-4fbb-b14b-276d79ccdfcb",
    "name": "San Pascual",
    "state_id": "60cfe62e-d7c0-480c-86f1-5aa0c9e9f0b8"
  },
  {
    "id": "9e17da02-7d92-4dea-8b41-87e341d5ce38",
    "name": "San Remigio",
    "state_id": "60cfe62e-d7c0-480c-86f1-5aa0c9e9f0b8"
  },
  {
    "id": "0de96997-ce10-4686-83c6-dd251c29bd5c",
    "name": "San Roque",
    "state_id": "60cfe62e-d7c0-480c-86f1-5aa0c9e9f0b8"
  },
  {
    "id": "1dec5825-bb45-444b-9b20-dd430d996810",
    "name": "Sandayong Sur",
    "state_id": "60cfe62e-d7c0-480c-86f1-5aa0c9e9f0b8"
  },
  {
    "id": "70063171-86b3-4481-81c0-bee4d7d04d3b",
    "name": "Sandolot",
    "state_id": "60cfe62e-d7c0-480c-86f1-5aa0c9e9f0b8"
  },
  {
    "id": "be42ad8b-117d-4835-ae76-5d763aeb7b46",
    "name": "Sangat",
    "state_id": "60cfe62e-d7c0-480c-86f1-5aa0c9e9f0b8"
  },
  {
    "id": "f29eb3ad-f5f3-4d79-a2b7-483926b400f8",
    "name": "Santa Catalina",
    "state_id": "60cfe62e-d7c0-480c-86f1-5aa0c9e9f0b8"
  },
  {
    "id": "4c3c3085-0aad-4cc9-b908-fcd5efba0906",
    "name": "Santa Cruz",
    "state_id": "60cfe62e-d7c0-480c-86f1-5aa0c9e9f0b8"
  },
  {
    "id": "46712261-8c46-42b1-9785-20d58492ecfb",
    "name": "Santa Fe",
    "state_id": "60cfe62e-d7c0-480c-86f1-5aa0c9e9f0b8"
  },
  {
    "id": "f0bd767c-348b-4f9e-beab-289fdeaa47aa",
    "name": "Santa Filomena",
    "state_id": "60cfe62e-d7c0-480c-86f1-5aa0c9e9f0b8"
  },
  {
    "id": "bb6149cb-cda7-4e70-bff2-3904d4b106b5",
    "name": "Santa Nino",
    "state_id": "60cfe62e-d7c0-480c-86f1-5aa0c9e9f0b8"
  },
  {
    "id": "1046fe2c-b3c8-49b7-b8c9-96fa6614732b",
    "name": "Santander Poblacion",
    "state_id": "60cfe62e-d7c0-480c-86f1-5aa0c9e9f0b8"
  },
  {
    "id": "7b4fccce-dca6-4b05-a2c6-c050cd59be76",
    "name": "Santiago",
    "state_id": "60cfe62e-d7c0-480c-86f1-5aa0c9e9f0b8"
  },
  {
    "id": "bbbb06d1-55e1-4232-a2b8-bc2c32eaaa53",
    "name": "Sevilla",
    "state_id": "60cfe62e-d7c0-480c-86f1-5aa0c9e9f0b8"
  },
  {
    "id": "b7b23ac4-5dea-49a2-94c6-5dbb8f9ae8b1",
    "name": "Siaton",
    "state_id": "60cfe62e-d7c0-480c-86f1-5aa0c9e9f0b8"
  },
  {
    "id": "f84eef33-c1fc-450c-b5ed-0112f8890047",
    "name": "Sibonga",
    "state_id": "60cfe62e-d7c0-480c-86f1-5aa0c9e9f0b8"
  },
  {
    "id": "0c8763ce-ed79-4f00-8f71-ef9c7eb01c7c",
    "name": "Sibulan",
    "state_id": "60cfe62e-d7c0-480c-86f1-5aa0c9e9f0b8"
  },
  {
    "id": "751a2ef3-7764-4c83-af8d-4a835859cba2",
    "name": "Sierra Bullones",
    "state_id": "60cfe62e-d7c0-480c-86f1-5aa0c9e9f0b8"
  },
  {
    "id": "6e500b6b-740e-40be-b4d0-a8af69bbfc54",
    "name": "Sikatuna",
    "state_id": "60cfe62e-d7c0-480c-86f1-5aa0c9e9f0b8"
  },
  {
    "id": "64aac9f4-7329-4488-ae42-7a6b7d016124",
    "name": "Silab",
    "state_id": "60cfe62e-d7c0-480c-86f1-5aa0c9e9f0b8"
  },
  {
    "id": "ff39056a-23b1-46ac-b687-7535747eeb53",
    "name": "Sillon",
    "state_id": "60cfe62e-d7c0-480c-86f1-5aa0c9e9f0b8"
  },
  {
    "id": "2d474496-70d1-4374-8120-51ae9ac1e6ce",
    "name": "Simala",
    "state_id": "60cfe62e-d7c0-480c-86f1-5aa0c9e9f0b8"
  },
  {
    "id": "f5ed2c10-edb7-44c8-8fcd-97edfb2bc7db",
    "name": "Siquijor",
    "state_id": "60cfe62e-d7c0-480c-86f1-5aa0c9e9f0b8"
  },
  {
    "id": "2b98d9c0-602c-4c6e-b515-13c20e08a461",
    "name": "Sogod",
    "state_id": "60cfe62e-d7c0-480c-86f1-5aa0c9e9f0b8"
  },
  {
    "id": "1ec4caa1-0d7d-475c-9940-ff53f487016c",
    "name": "Songculan",
    "state_id": "60cfe62e-d7c0-480c-86f1-5aa0c9e9f0b8"
  },
  {
    "id": "61d056e2-72fe-4062-8fe2-a3608494a9bc",
    "name": "Sulangan",
    "state_id": "60cfe62e-d7c0-480c-86f1-5aa0c9e9f0b8"
  },
  {
    "id": "770cc4f2-b28a-4c3e-a774-843add3e612c",
    "name": "Tabalong",
    "state_id": "60cfe62e-d7c0-480c-86f1-5aa0c9e9f0b8"
  },
  {
    "id": "5b8b3420-3871-4e57-a546-2f0068c58871",
    "name": "Tabogon",
    "state_id": "60cfe62e-d7c0-480c-86f1-5aa0c9e9f0b8"
  },
  {
    "id": "7f9f3412-c09f-4c5f-aea5-db35b2fc67d9",
    "name": "Tabon",
    "state_id": "60cfe62e-d7c0-480c-86f1-5aa0c9e9f0b8"
  },
  {
    "id": "b4f2a882-1288-4339-ac7f-8a62df33f339",
    "name": "Tabonok",
    "state_id": "60cfe62e-d7c0-480c-86f1-5aa0c9e9f0b8"
  },
  {
    "id": "f89be814-4960-44cc-b295-d80aa7688391",
    "name": "Tabuan",
    "state_id": "60cfe62e-d7c0-480c-86f1-5aa0c9e9f0b8"
  },
  {
    "id": "3358f656-3891-469d-9d0c-906f69e5f295",
    "name": "Tabuelan",
    "state_id": "60cfe62e-d7c0-480c-86f1-5aa0c9e9f0b8"
  },
  {
    "id": "6b53768f-c416-453d-bff1-e997ea07efb5",
    "name": "Tabunok",
    "state_id": "60cfe62e-d7c0-480c-86f1-5aa0c9e9f0b8"
  },
  {
    "id": "fb0c3000-0777-4904-a011-66a74b714bf7",
    "name": "Tagbilaran City",
    "state_id": "60cfe62e-d7c0-480c-86f1-5aa0c9e9f0b8"
  },
  {
    "id": "d5af3190-dc4d-4f73-9a02-e7a1f63ad164",
    "name": "Tagum Norte",
    "state_id": "60cfe62e-d7c0-480c-86f1-5aa0c9e9f0b8"
  },
  {
    "id": "2a445905-22f7-4a5c-a747-951ee2bbc0d4",
    "name": "Tajao",
    "state_id": "60cfe62e-d7c0-480c-86f1-5aa0c9e9f0b8"
  },
  {
    "id": "e9a173c1-09ee-4b96-bcc6-bd6339705fd9",
    "name": "Talangnan",
    "state_id": "60cfe62e-d7c0-480c-86f1-5aa0c9e9f0b8"
  },
  {
    "id": "3b67e323-99ae-4b6e-83bf-41e39cf7fa00",
    "name": "Talibon",
    "state_id": "60cfe62e-d7c0-480c-86f1-5aa0c9e9f0b8"
  },
  {
    "id": "93290047-5d87-4bf7-9dc6-fe627ce26e73",
    "name": "Talisay",
    "state_id": "60cfe62e-d7c0-480c-86f1-5aa0c9e9f0b8"
  },
  {
    "id": "d03842f0-0995-4150-b5e7-f6fad725970f",
    "name": "Tambalan",
    "state_id": "60cfe62e-d7c0-480c-86f1-5aa0c9e9f0b8"
  },
  {
    "id": "6ceebd1d-7193-4311-bf49-8a2aab87e3f1",
    "name": "Tambo",
    "state_id": "60cfe62e-d7c0-480c-86f1-5aa0c9e9f0b8"
  },
  {
    "id": "789b0903-0747-44b8-acf0-24925010aa64",
    "name": "Tambongon",
    "state_id": "60cfe62e-d7c0-480c-86f1-5aa0c9e9f0b8"
  },
  {
    "id": "d359bec4-80ad-446c-9607-0ee66b019b0e",
    "name": "Tamiso",
    "state_id": "60cfe62e-d7c0-480c-86f1-5aa0c9e9f0b8"
  },
  {
    "id": "acfa1fde-55b8-4fdf-aa7e-c27ad458700a",
    "name": "Tampocon",
    "state_id": "60cfe62e-d7c0-480c-86f1-5aa0c9e9f0b8"
  },
  {
    "id": "40e64cfc-82eb-41af-8986-2cb2f0ba6d7a",
    "name": "Tandayag",
    "state_id": "60cfe62e-d7c0-480c-86f1-5aa0c9e9f0b8"
  },
  {
    "id": "49d36714-1d7a-4343-9b70-b3c59897a312",
    "name": "Tangke",
    "state_id": "60cfe62e-d7c0-480c-86f1-5aa0c9e9f0b8"
  },
  {
    "id": "c1e18ccb-05dc-42e4-b22f-3586ff294d19",
    "name": "Tangnan",
    "state_id": "60cfe62e-d7c0-480c-86f1-5aa0c9e9f0b8"
  },
  {
    "id": "7db10fee-86c0-4618-8533-53bc90f3b6a8",
    "name": "Tanjay",
    "state_id": "60cfe62e-d7c0-480c-86f1-5aa0c9e9f0b8"
  },
  {
    "id": "661faf54-71aa-4cae-858a-f20987ed1ec6",
    "name": "Tapilon",
    "state_id": "60cfe62e-d7c0-480c-86f1-5aa0c9e9f0b8"
  },
  {
    "id": "aee2b06f-f5ad-45da-9ae6-85eaf9c6ca5b",
    "name": "Tapon",
    "state_id": "60cfe62e-d7c0-480c-86f1-5aa0c9e9f0b8"
  },
  {
    "id": "57a493d4-2b32-4001-a7f7-d09744e65470",
    "name": "Tawala",
    "state_id": "60cfe62e-d7c0-480c-86f1-5aa0c9e9f0b8"
  },
  {
    "id": "7746560b-b86d-4433-b32b-4523e51f28db",
    "name": "Tayasan",
    "state_id": "60cfe62e-d7c0-480c-86f1-5aa0c9e9f0b8"
  },
  {
    "id": "d7f616d1-d28f-4253-896b-d8879c85e0d3",
    "name": "Taytayan",
    "state_id": "60cfe62e-d7c0-480c-86f1-5aa0c9e9f0b8"
  },
  {
    "id": "a9ddfab4-465c-4dbf-bf93-50de717b32d2",
    "name": "Tayud",
    "state_id": "60cfe62e-d7c0-480c-86f1-5aa0c9e9f0b8"
  },
  {
    "id": "4413c9c6-002d-42c0-964e-fa92af7d5281",
    "name": "Tibigan",
    "state_id": "60cfe62e-d7c0-480c-86f1-5aa0c9e9f0b8"
  },
  {
    "id": "889b4330-be20-4562-afbb-50935e98e98c",
    "name": "Tiguib",
    "state_id": "60cfe62e-d7c0-480c-86f1-5aa0c9e9f0b8"
  },
  {
    "id": "a1e30870-c446-4533-bcb9-2f68ed06dc30",
    "name": "Tinaan",
    "state_id": "60cfe62e-d7c0-480c-86f1-5aa0c9e9f0b8"
  },
  {
    "id": "2cb99aad-b7fd-4a95-8f20-405f1ec715aa",
    "name": "Tinaogan",
    "state_id": "60cfe62e-d7c0-480c-86f1-5aa0c9e9f0b8"
  },
  {
    "id": "55f1d81c-6d16-4b50-afcd-d53a5425a99d",
    "name": "Tindog",
    "state_id": "60cfe62e-d7c0-480c-86f1-5aa0c9e9f0b8"
  },
  {
    "id": "da61671a-8c89-45a3-b29f-c1071d136b1c",
    "name": "Tinubuan",
    "state_id": "60cfe62e-d7c0-480c-86f1-5aa0c9e9f0b8"
  },
  {
    "id": "d8f0e8ce-6c95-41f8-9392-82ffba61a1b6",
    "name": "Tipolo",
    "state_id": "60cfe62e-d7c0-480c-86f1-5aa0c9e9f0b8"
  },
  {
    "id": "9eddb54a-b0b0-4471-b16e-21423d357fee",
    "name": "Toledo",
    "state_id": "60cfe62e-d7c0-480c-86f1-5aa0c9e9f0b8"
  },
  {
    "id": "0c3b835f-df24-4a0d-8975-63f33ae79657",
    "name": "Tominhao",
    "state_id": "60cfe62e-d7c0-480c-86f1-5aa0c9e9f0b8"
  },
  {
    "id": "58ea88fb-9865-4757-8c33-7668ecd76f72",
    "name": "Totolan",
    "state_id": "60cfe62e-d7c0-480c-86f1-5aa0c9e9f0b8"
  },
  {
    "id": "f2751989-8cc0-46da-98a8-4bdaba1ff92c",
    "name": "Trinidad",
    "state_id": "60cfe62e-d7c0-480c-86f1-5aa0c9e9f0b8"
  },
  {
    "id": "473e980a-334f-46dc-961f-eaa4ada7eb0d",
    "name": "Tubigagmanoc",
    "state_id": "60cfe62e-d7c0-480c-86f1-5aa0c9e9f0b8"
  },
  {
    "id": "05b8ad9f-28f1-4cc5-90fa-c2a270866b8f",
    "name": "Tubod",
    "state_id": "60cfe62e-d7c0-480c-86f1-5aa0c9e9f0b8"
  },
  {
    "id": "0e8e663c-a03b-45f0-acb1-0a799ee9d70f",
    "name": "Tubod-dugoan",
    "state_id": "60cfe62e-d7c0-480c-86f1-5aa0c9e9f0b8"
  },
  {
    "id": "96d1892a-273f-4f46-995e-9f4d21d8e8c2",
    "name": "Tuburan",
    "state_id": "60cfe62e-d7c0-480c-86f1-5aa0c9e9f0b8"
  },
  {
    "id": "49c16459-f3ec-4ce8-a461-db3c2cef1ef1",
    "name": "Tudela",
    "state_id": "60cfe62e-d7c0-480c-86f1-5aa0c9e9f0b8"
  },
  {
    "id": "2b944339-9597-4ddd-b75e-2da4a648c63a",
    "name": "Tutay",
    "state_id": "60cfe62e-d7c0-480c-86f1-5aa0c9e9f0b8"
  },
  {
    "id": "0670b517-e261-470f-b133-2e06d26d3093",
    "name": "Ubay",
    "state_id": "60cfe62e-d7c0-480c-86f1-5aa0c9e9f0b8"
  },
  {
    "id": "2d0bb6f6-9b42-4d42-99d2-6054869705c8",
    "name": "Uling",
    "state_id": "60cfe62e-d7c0-480c-86f1-5aa0c9e9f0b8"
  },
  {
    "id": "a520542c-1fd8-473a-bd15-d22a42ffb60c",
    "name": "Union",
    "state_id": "60cfe62e-d7c0-480c-86f1-5aa0c9e9f0b8"
  },
  {
    "id": "78b93d9c-b34e-4764-9db3-2fb98f2b5645",
    "name": "Valencia",
    "state_id": "60cfe62e-d7c0-480c-86f1-5aa0c9e9f0b8"
  },
  {
    "id": "1037a882-5e10-49e9-a185-73868236f13c",
    "name": "Valle Hermoso",
    "state_id": "60cfe62e-d7c0-480c-86f1-5aa0c9e9f0b8"
  },
  {
    "id": "b76db976-360f-44c7-9348-d51f2a5daa8a",
    "name": "Vallehermoso",
    "state_id": "60cfe62e-d7c0-480c-86f1-5aa0c9e9f0b8"
  },
  {
    "id": "9cb1772b-bedf-4046-a4ff-312c6325fb95",
    "name": "Zamboanguita",
    "state_id": "60cfe62e-d7c0-480c-86f1-5aa0c9e9f0b8"
  }
]