[
  {
    "id": "8daf580e-dbaa-4b7d-9510-18fd76dc2677",
    "name": "Aileu",
    "state_id": "6141e298-d50f-437b-be43-72f5a00d9fa6"
  },
  {
    "id": "a687a16a-a5a6-4976-af35-9c14904b9131",
    "name": "Lequidoe",
    "state_id": "6141e298-d50f-437b-be43-72f5a00d9fa6"
  },
  {
    "id": "e6f43385-191e-454b-b83c-0beeab6069dc",
    "name": "Remexio",
    "state_id": "6141e298-d50f-437b-be43-72f5a00d9fa6"
  }
]