[
  {
    "id": "0f6e00c7-9196-4db5-8a2f-6fde52749b6c",
    "name": "Champasak",
    "state_id": "614b5639-e7a4-4826-8b52-a7dccc52f992"
  },
  {
    "id": "00efe874-1254-45c4-9d5e-13244de724c5",
    "name": "Muang Bachiangchaleunsook",
    "state_id": "614b5639-e7a4-4826-8b52-a7dccc52f992"
  },
  {
    "id": "4ece3694-4744-45f4-b5df-43bd9dcb4fdd",
    "name": "Muang Champasak",
    "state_id": "614b5639-e7a4-4826-8b52-a7dccc52f992"
  },
  {
    "id": "f2844f9e-3263-4a75-a90c-a5730f4ff8d0",
    "name": "Muang Không",
    "state_id": "614b5639-e7a4-4826-8b52-a7dccc52f992"
  },
  {
    "id": "f74355df-8093-401c-b67f-616601d18574",
    "name": "Muang Mounlapamôk",
    "state_id": "614b5639-e7a4-4826-8b52-a7dccc52f992"
  },
  {
    "id": "86c78862-5024-4153-ab5b-446b093539dc",
    "name": "Muang Pakxé",
    "state_id": "614b5639-e7a4-4826-8b52-a7dccc52f992"
  },
  {
    "id": "c022b8ca-9f6f-4a60-9f39-9c26f4c9d0b1",
    "name": "Muang Pakxong",
    "state_id": "614b5639-e7a4-4826-8b52-a7dccc52f992"
  },
  {
    "id": "8af595d5-f30a-4bcc-b2d6-31be2f8e5f4d",
    "name": "Muang Pathoumphon",
    "state_id": "614b5639-e7a4-4826-8b52-a7dccc52f992"
  },
  {
    "id": "14c01cf8-7c78-4a43-acfe-fc0ed8c54b99",
    "name": "Muang Phônthong",
    "state_id": "614b5639-e7a4-4826-8b52-a7dccc52f992"
  },
  {
    "id": "937040a4-4042-4aac-813c-24e90b363171",
    "name": "Muang Soukhouma",
    "state_id": "614b5639-e7a4-4826-8b52-a7dccc52f992"
  },
  {
    "id": "c2d853a8-90b2-4e33-8f54-90edc492cd4f",
    "name": "Muang Xanasômboun",
    "state_id": "614b5639-e7a4-4826-8b52-a7dccc52f992"
  },
  {
    "id": "f035aa05-0d86-4a96-81bc-9c8e72798621",
    "name": "Pakse",
    "state_id": "614b5639-e7a4-4826-8b52-a7dccc52f992"
  },
  {
    "id": "5e5bc7d3-3a6f-442c-b809-0b507ff2c27e",
    "name": "Pakxong",
    "state_id": "614b5639-e7a4-4826-8b52-a7dccc52f992"
  }
]