[
  {
    "id": "6a0e55bc-9fd9-4616-8f26-f17f6cbe9ea0",
    "name": "Ciudad Bolívar",
    "state_id": "61f48287-2be8-4912-806b-8b5ad9162bec"
  },
  {
    "id": "af9595d5-0a96-414e-ab60-959f186bf381",
    "name": "Ciudad Guayana",
    "state_id": "61f48287-2be8-4912-806b-8b5ad9162bec"
  },
  {
    "id": "cab9bdb4-5eeb-4c3e-ac46-8dc657df404e",
    "name": "Municipio Padre Pedro Chien",
    "state_id": "61f48287-2be8-4912-806b-8b5ad9162bec"
  },
  {
    "id": "cb93030f-c2ad-4a2a-bfe7-0f9a5af230fa",
    "name": "Santa Elena de Uairén",
    "state_id": "61f48287-2be8-4912-806b-8b5ad9162bec"
  },
  {
    "id": "a6560596-b614-4d35-8c4a-6aac1c3a5300",
    "name": "Upata",
    "state_id": "61f48287-2be8-4912-806b-8b5ad9162bec"
  }
]