[
  {
    "id": "b5fc6342-b714-482e-8ab5-166a63f3212f",
    "name": "Freeport",
    "state_id": "627bd759-462e-4116-8834-fbccc1080a46"
  },
  {
    "id": "38bd50b8-7c79-4e6b-baa1-09d02255b9d0",
    "name": "Lucaya",
    "state_id": "627bd759-462e-4116-8834-fbccc1080a46"
  }
]