[
  {
    "id": "86a84a1b-aca6-48d1-a289-fb6725eced37",
    "name": "Abbeville",
    "state_id": "639a2d81-ea3f-4f13-a8c6-f3fb28b30a95"
  },
  {
    "id": "66912426-f953-47e0-afc8-05c583939b5f",
    "name": "Abita Springs",
    "state_id": "639a2d81-ea3f-4f13-a8c6-f3fb28b30a95"
  },
  {
    "id": "de077821-0eca-4a21-a60e-759d30016008",
    "name": "Acadia Parish",
    "state_id": "639a2d81-ea3f-4f13-a8c6-f3fb28b30a95"
  },
  {
    "id": "9c4de240-7152-4cce-8541-0787815bafa3",
    "name": "Addis",
    "state_id": "639a2d81-ea3f-4f13-a8c6-f3fb28b30a95"
  },
  {
    "id": "7996806c-74c3-4175-a7f3-820a49630c0d",
    "name": "Albany",
    "state_id": "639a2d81-ea3f-4f13-a8c6-f3fb28b30a95"
  },
  {
    "id": "c42b8471-054e-42fe-b092-e67ac161ca24",
    "name": "Alexandria",
    "state_id": "639a2d81-ea3f-4f13-a8c6-f3fb28b30a95"
  },
  {
    "id": "2555d385-58fe-4f38-9683-9dbc1c3fd274",
    "name": "Allen Parish",
    "state_id": "639a2d81-ea3f-4f13-a8c6-f3fb28b30a95"
  },
  {
    "id": "dc345b1a-5ed7-4fc0-ba8f-75f2cd510b6e",
    "name": "Ama",
    "state_id": "639a2d81-ea3f-4f13-a8c6-f3fb28b30a95"
  },
  {
    "id": "aa5472ce-525e-46bf-be16-ea9da0c7ca8f",
    "name": "Amelia",
    "state_id": "639a2d81-ea3f-4f13-a8c6-f3fb28b30a95"
  },
  {
    "id": "c0d15976-d51a-4ac2-ba0c-2ee4514e32c0",
    "name": "Amite",
    "state_id": "639a2d81-ea3f-4f13-a8c6-f3fb28b30a95"
  },
  {
    "id": "eb721406-3392-4807-905e-d710c0291101",
    "name": "Arabi",
    "state_id": "639a2d81-ea3f-4f13-a8c6-f3fb28b30a95"
  },
  {
    "id": "06e95c28-2902-466c-b534-5b8df182b785",
    "name": "Arcadia",
    "state_id": "639a2d81-ea3f-4f13-a8c6-f3fb28b30a95"
  },
  {
    "id": "0a6ba127-2512-445c-9664-923b9d1d25ff",
    "name": "Arnaudville",
    "state_id": "639a2d81-ea3f-4f13-a8c6-f3fb28b30a95"
  },
  {
    "id": "976e0d71-e7a4-4bd7-977c-1100d98caeb9",
    "name": "Ascension Parish",
    "state_id": "639a2d81-ea3f-4f13-a8c6-f3fb28b30a95"
  },
  {
    "id": "53bec3b0-8e1c-4055-925a-556722aa9a23",
    "name": "Assumption Parish",
    "state_id": "639a2d81-ea3f-4f13-a8c6-f3fb28b30a95"
  },
  {
    "id": "bb614712-a0e4-4c3d-8efa-3bce7c34aec5",
    "name": "Avondale",
    "state_id": "639a2d81-ea3f-4f13-a8c6-f3fb28b30a95"
  },
  {
    "id": "ec1ee000-4c6c-4688-bc5a-f8defd2b4d9e",
    "name": "Avoyelles Parish",
    "state_id": "639a2d81-ea3f-4f13-a8c6-f3fb28b30a95"
  },
  {
    "id": "67500f9b-8786-4964-a54e-d9b46c3eac19",
    "name": "Baker",
    "state_id": "639a2d81-ea3f-4f13-a8c6-f3fb28b30a95"
  },
  {
    "id": "43aa9dac-d3b0-42b0-9b54-c77e83e1fd73",
    "name": "Baldwin",
    "state_id": "639a2d81-ea3f-4f13-a8c6-f3fb28b30a95"
  },
  {
    "id": "9143d35b-70ff-4464-ab42-a48a830b8a73",
    "name": "Ball",
    "state_id": "639a2d81-ea3f-4f13-a8c6-f3fb28b30a95"
  },
  {
    "id": "3cbd75b7-342c-4c89-b10a-1b5ab07484fb",
    "name": "Banks Springs",
    "state_id": "639a2d81-ea3f-4f13-a8c6-f3fb28b30a95"
  },
  {
    "id": "af03a092-4815-41d3-af74-dd59d6cc058e",
    "name": "Barataria",
    "state_id": "639a2d81-ea3f-4f13-a8c6-f3fb28b30a95"
  },
  {
    "id": "7c838db8-121d-448f-b217-f1f756d8545e",
    "name": "Basile",
    "state_id": "639a2d81-ea3f-4f13-a8c6-f3fb28b30a95"
  },
  {
    "id": "ebc8099c-92b2-490f-8614-5539bd301361",
    "name": "Bastrop",
    "state_id": "639a2d81-ea3f-4f13-a8c6-f3fb28b30a95"
  },
  {
    "id": "c7380a7c-654d-4bbb-832f-3e6823b65f44",
    "name": "Baton Rouge",
    "state_id": "639a2d81-ea3f-4f13-a8c6-f3fb28b30a95"
  },
  {
    "id": "4d7065fb-2725-4436-a099-df8c92bb051c",
    "name": "Bawcomville",
    "state_id": "639a2d81-ea3f-4f13-a8c6-f3fb28b30a95"
  },
  {
    "id": "d9ec741c-028d-4a37-b7f1-5297a542e46d",
    "name": "Bayou Cane",
    "state_id": "639a2d81-ea3f-4f13-a8c6-f3fb28b30a95"
  },
  {
    "id": "ec2d8c73-ef13-482e-a77b-2ebc8a06b995",
    "name": "Bayou Gauche",
    "state_id": "639a2d81-ea3f-4f13-a8c6-f3fb28b30a95"
  },
  {
    "id": "c5dd001c-df73-4f20-b554-e0db08f1e0f9",
    "name": "Bayou Vista",
    "state_id": "639a2d81-ea3f-4f13-a8c6-f3fb28b30a95"
  },
  {
    "id": "1557497f-ee56-4c05-9b4e-a7352236cb7b",
    "name": "Beauregard Parish",
    "state_id": "639a2d81-ea3f-4f13-a8c6-f3fb28b30a95"
  },
  {
    "id": "412b88dd-88b3-4260-94df-d465438de615",
    "name": "Belle Chasse",
    "state_id": "639a2d81-ea3f-4f13-a8c6-f3fb28b30a95"
  },
  {
    "id": "492e1a72-0ed4-434f-96d5-5eb999ad5604",
    "name": "Belle Rose",
    "state_id": "639a2d81-ea3f-4f13-a8c6-f3fb28b30a95"
  },
  {
    "id": "f91a5261-3339-4cb7-9b83-bf644c703110",
    "name": "Benton",
    "state_id": "639a2d81-ea3f-4f13-a8c6-f3fb28b30a95"
  },
  {
    "id": "2f99ce53-30fa-4733-beeb-d76ad4a38aa8",
    "name": "Bernice",
    "state_id": "639a2d81-ea3f-4f13-a8c6-f3fb28b30a95"
  },
  {
    "id": "ada14349-60ef-439f-9935-5786a7af9536",
    "name": "Berwick",
    "state_id": "639a2d81-ea3f-4f13-a8c6-f3fb28b30a95"
  },
  {
    "id": "f2777dc4-6979-4b03-8707-37b7afd39ee9",
    "name": "Bienville Parish",
    "state_id": "639a2d81-ea3f-4f13-a8c6-f3fb28b30a95"
  },
  {
    "id": "b30e98e5-8539-441d-bdb6-ec401db4bde0",
    "name": "Blanchard",
    "state_id": "639a2d81-ea3f-4f13-a8c6-f3fb28b30a95"
  },
  {
    "id": "28d80fd2-d805-4fd5-9c6d-c87a5d580686",
    "name": "Bogalusa",
    "state_id": "639a2d81-ea3f-4f13-a8c6-f3fb28b30a95"
  },
  {
    "id": "2490873b-c6a7-4ce7-a5b5-c10284e4aa7d",
    "name": "Bossier City",
    "state_id": "639a2d81-ea3f-4f13-a8c6-f3fb28b30a95"
  },
  {
    "id": "9fdbbb60-2d28-4941-9ba0-2123578d13eb",
    "name": "Bossier Parish",
    "state_id": "639a2d81-ea3f-4f13-a8c6-f3fb28b30a95"
  },
  {
    "id": "c86114f5-3783-48c0-8c69-6ea2b8e1e6da",
    "name": "Bourg",
    "state_id": "639a2d81-ea3f-4f13-a8c6-f3fb28b30a95"
  },
  {
    "id": "2c8093d1-77f0-4d66-9fd7-e21c267f24d4",
    "name": "Boutte",
    "state_id": "639a2d81-ea3f-4f13-a8c6-f3fb28b30a95"
  },
  {
    "id": "c1d567c8-a7f6-46fc-baa3-b5d2b41f3658",
    "name": "Breaux Bridge",
    "state_id": "639a2d81-ea3f-4f13-a8c6-f3fb28b30a95"
  },
  {
    "id": "e6b8ec06-d5fa-483e-92ee-3cb85f1857ba",
    "name": "Bridge City",
    "state_id": "639a2d81-ea3f-4f13-a8c6-f3fb28b30a95"
  },
  {
    "id": "c80210d1-efd9-4972-bc0d-f3ba16854954",
    "name": "Broussard",
    "state_id": "639a2d81-ea3f-4f13-a8c6-f3fb28b30a95"
  },
  {
    "id": "1b7a11d4-4b0a-4273-afdd-953a6c5b9b00",
    "name": "Brownsfield",
    "state_id": "639a2d81-ea3f-4f13-a8c6-f3fb28b30a95"
  },
  {
    "id": "b6484c17-fb87-4061-ab2a-8d01e1982696",
    "name": "Brownsville",
    "state_id": "639a2d81-ea3f-4f13-a8c6-f3fb28b30a95"
  },
  {
    "id": "96dbb79f-4d04-4342-ba4f-7598d006ff6e",
    "name": "Brusly",
    "state_id": "639a2d81-ea3f-4f13-a8c6-f3fb28b30a95"
  },
  {
    "id": "a43ba294-3c1e-4a42-afb0-b8c31bc8c593",
    "name": "Bunkie",
    "state_id": "639a2d81-ea3f-4f13-a8c6-f3fb28b30a95"
  },
  {
    "id": "4b364d5d-1006-4d35-96b6-d1ee72993181",
    "name": "Caddo Parish",
    "state_id": "639a2d81-ea3f-4f13-a8c6-f3fb28b30a95"
  },
  {
    "id": "bde14f61-200b-4302-b759-4105d7fdfad7",
    "name": "Cade",
    "state_id": "639a2d81-ea3f-4f13-a8c6-f3fb28b30a95"
  },
  {
    "id": "3874c8c2-0acb-4d60-b11f-ae0e1420675f",
    "name": "Calcasieu Parish",
    "state_id": "639a2d81-ea3f-4f13-a8c6-f3fb28b30a95"
  },
  {
    "id": "92edd498-2aa8-4a9e-981c-0ace2fb30ff9",
    "name": "Caldwell Parish",
    "state_id": "639a2d81-ea3f-4f13-a8c6-f3fb28b30a95"
  },
  {
    "id": "f234e5cd-758d-44b4-a56a-5f4fa0777a1c",
    "name": "Cameron",
    "state_id": "639a2d81-ea3f-4f13-a8c6-f3fb28b30a95"
  },
  {
    "id": "3abb95c1-53a4-4f22-acf9-293b23b9e9f1",
    "name": "Cameron Parish",
    "state_id": "639a2d81-ea3f-4f13-a8c6-f3fb28b30a95"
  },
  {
    "id": "d96623e5-831b-4051-a32f-3420f3197ebb",
    "name": "Campti",
    "state_id": "639a2d81-ea3f-4f13-a8c6-f3fb28b30a95"
  },
  {
    "id": "fc6ea4b2-15ed-430b-adc9-e607ba70b3de",
    "name": "Carencro",
    "state_id": "639a2d81-ea3f-4f13-a8c6-f3fb28b30a95"
  },
  {
    "id": "0e0a4b4e-39e9-4d36-8e95-cab9ce099f1d",
    "name": "Carlyss",
    "state_id": "639a2d81-ea3f-4f13-a8c6-f3fb28b30a95"
  },
  {
    "id": "e862308c-6571-4460-adcb-bc0dd6645826",
    "name": "Carville",
    "state_id": "639a2d81-ea3f-4f13-a8c6-f3fb28b30a95"
  },
  {
    "id": "ba4904db-d954-4755-96fc-bd5cc7022f64",
    "name": "Catahoula",
    "state_id": "639a2d81-ea3f-4f13-a8c6-f3fb28b30a95"
  },
  {
    "id": "5f4b002e-25bc-4b0e-8469-aa8876e6e909",
    "name": "Catahoula Parish",
    "state_id": "639a2d81-ea3f-4f13-a8c6-f3fb28b30a95"
  },
  {
    "id": "ad64416e-5c25-49df-b814-96bf8c22a117",
    "name": "Cecilia",
    "state_id": "639a2d81-ea3f-4f13-a8c6-f3fb28b30a95"
  },
  {
    "id": "c2fe8ff1-aafd-48d7-96ee-76097c0cda30",
    "name": "Central",
    "state_id": "639a2d81-ea3f-4f13-a8c6-f3fb28b30a95"
  },
  {
    "id": "b12f640a-cfc1-4782-bd58-44ffcf1061bf",
    "name": "Chackbay",
    "state_id": "639a2d81-ea3f-4f13-a8c6-f3fb28b30a95"
  },
  {
    "id": "488a4893-8892-4183-8870-78b37478882e",
    "name": "Chalmette",
    "state_id": "639a2d81-ea3f-4f13-a8c6-f3fb28b30a95"
  },
  {
    "id": "75045176-e082-4462-b4db-459390bd7592",
    "name": "Charenton",
    "state_id": "639a2d81-ea3f-4f13-a8c6-f3fb28b30a95"
  },
  {
    "id": "4caa0443-37d0-41a1-8b28-d7d551adb333",
    "name": "Chauvin",
    "state_id": "639a2d81-ea3f-4f13-a8c6-f3fb28b30a95"
  },
  {
    "id": "4f631905-69d5-4c57-b71f-e7e17cf7764a",
    "name": "Church Point",
    "state_id": "639a2d81-ea3f-4f13-a8c6-f3fb28b30a95"
  },
  {
    "id": "e6e409d4-e77a-43e7-abfc-84a8058d1f39",
    "name": "Claiborne",
    "state_id": "639a2d81-ea3f-4f13-a8c6-f3fb28b30a95"
  },
  {
    "id": "2371ebd9-c47c-4b7d-a683-e044d820d65a",
    "name": "Claiborne Parish",
    "state_id": "639a2d81-ea3f-4f13-a8c6-f3fb28b30a95"
  },
  {
    "id": "1b5c86a5-7e4a-4f83-b1aa-47a16e283d4c",
    "name": "Clarks",
    "state_id": "639a2d81-ea3f-4f13-a8c6-f3fb28b30a95"
  },
  {
    "id": "cedbd60c-cb37-43d9-a63d-d96febe7110a",
    "name": "Clinton",
    "state_id": "639a2d81-ea3f-4f13-a8c6-f3fb28b30a95"
  },
  {
    "id": "66ea039d-9060-4f3d-9caf-5d9352850df6",
    "name": "Colfax",
    "state_id": "639a2d81-ea3f-4f13-a8c6-f3fb28b30a95"
  },
  {
    "id": "06c51ea8-6772-4df2-ae22-4f36c76ee230",
    "name": "Columbia",
    "state_id": "639a2d81-ea3f-4f13-a8c6-f3fb28b30a95"
  },
  {
    "id": "018b0a3f-5309-439c-9a81-afe28f630a7d",
    "name": "Concordia Parish",
    "state_id": "639a2d81-ea3f-4f13-a8c6-f3fb28b30a95"
  },
  {
    "id": "8667bc0b-97be-4e60-80d0-4f48d669901a",
    "name": "Convent",
    "state_id": "639a2d81-ea3f-4f13-a8c6-f3fb28b30a95"
  },
  {
    "id": "c05f1dce-a0df-4263-ab51-4771106c4d93",
    "name": "Cottonport",
    "state_id": "639a2d81-ea3f-4f13-a8c6-f3fb28b30a95"
  },
  {
    "id": "46bf6b37-39cd-49c2-a85c-f2beae23b3d5",
    "name": "Coushatta",
    "state_id": "639a2d81-ea3f-4f13-a8c6-f3fb28b30a95"
  },
  {
    "id": "26f04c01-69b3-446a-9586-14e5a7e78c0d",
    "name": "Covington",
    "state_id": "639a2d81-ea3f-4f13-a8c6-f3fb28b30a95"
  },
  {
    "id": "a8e9d956-c3f3-476b-ade8-d7995cf1ea3b",
    "name": "Crowley",
    "state_id": "639a2d81-ea3f-4f13-a8c6-f3fb28b30a95"
  },
  {
    "id": "95a41858-ebd5-450c-9d1e-8fa73b553d38",
    "name": "Cullen",
    "state_id": "639a2d81-ea3f-4f13-a8c6-f3fb28b30a95"
  },
  {
    "id": "c670274a-d5aa-49c8-8bbb-31753b2fbe4f",
    "name": "Cut Off",
    "state_id": "639a2d81-ea3f-4f13-a8c6-f3fb28b30a95"
  },
  {
    "id": "1402e1e8-1e72-4daa-b0d9-1776a759d353",
    "name": "De Soto Parish",
    "state_id": "639a2d81-ea3f-4f13-a8c6-f3fb28b30a95"
  },
  {
    "id": "c6b6dfaa-4f99-4f7a-abf7-80cb776e97d3",
    "name": "Delcambre",
    "state_id": "639a2d81-ea3f-4f13-a8c6-f3fb28b30a95"
  },
  {
    "id": "14c0e57a-0fb2-4649-b6ee-996a1b150222",
    "name": "Delhi",
    "state_id": "639a2d81-ea3f-4f13-a8c6-f3fb28b30a95"
  },
  {
    "id": "9f93c834-b71c-4652-b889-71ab375c9ed2",
    "name": "Denham Springs",
    "state_id": "639a2d81-ea3f-4f13-a8c6-f3fb28b30a95"
  },
  {
    "id": "931d64c7-377a-47d6-a26f-0eef7afa3bdf",
    "name": "DeQuincy",
    "state_id": "639a2d81-ea3f-4f13-a8c6-f3fb28b30a95"
  },
  {
    "id": "224d4a6d-b021-495d-a140-6269762a8a39",
    "name": "DeRidder",
    "state_id": "639a2d81-ea3f-4f13-a8c6-f3fb28b30a95"
  },
  {
    "id": "7db2d258-b4b7-4e12-b625-45127f6c4731",
    "name": "Des Allemands",
    "state_id": "639a2d81-ea3f-4f13-a8c6-f3fb28b30a95"
  },
  {
    "id": "5dc7f228-b2f9-4ab7-8876-f1cd7b79668d",
    "name": "Destrehan",
    "state_id": "639a2d81-ea3f-4f13-a8c6-f3fb28b30a95"
  },
  {
    "id": "366663a5-22eb-41dd-ab76-05aaf4fa7132",
    "name": "Deville",
    "state_id": "639a2d81-ea3f-4f13-a8c6-f3fb28b30a95"
  },
  {
    "id": "bdcecebb-d0c8-4c01-80d4-0724ac875f45",
    "name": "Donaldsonville",
    "state_id": "639a2d81-ea3f-4f13-a8c6-f3fb28b30a95"
  },
  {
    "id": "2b9da9f0-a022-4220-a604-54838fbb2c5e",
    "name": "Dulac",
    "state_id": "639a2d81-ea3f-4f13-a8c6-f3fb28b30a95"
  },
  {
    "id": "99a3ff62-46d8-44e6-8646-48d37f59ae2e",
    "name": "Duson",
    "state_id": "639a2d81-ea3f-4f13-a8c6-f3fb28b30a95"
  },
  {
    "id": "29d7b239-e7a2-40ba-bf68-71a19415fe1e",
    "name": "East Baton Rouge Parish",
    "state_id": "639a2d81-ea3f-4f13-a8c6-f3fb28b30a95"
  },
  {
    "id": "a74f2b00-3363-41c9-9952-436bea2ff6a7",
    "name": "East Carroll Parish",
    "state_id": "639a2d81-ea3f-4f13-a8c6-f3fb28b30a95"
  },
  {
    "id": "b3756716-6a23-4a8b-9f36-1a167e6e2336",
    "name": "East Feliciana Parish",
    "state_id": "639a2d81-ea3f-4f13-a8c6-f3fb28b30a95"
  },
  {
    "id": "64cd03dd-fdf7-4ce9-b983-3460e7cc4324",
    "name": "Eastwood",
    "state_id": "639a2d81-ea3f-4f13-a8c6-f3fb28b30a95"
  },
  {
    "id": "e8b56cc9-f1a0-4029-bf3e-e79303cd8184",
    "name": "Eden Isle",
    "state_id": "639a2d81-ea3f-4f13-a8c6-f3fb28b30a95"
  },
  {
    "id": "4cd2b346-4279-44f2-8276-4267faa5d0d4",
    "name": "Edgard",
    "state_id": "639a2d81-ea3f-4f13-a8c6-f3fb28b30a95"
  },
  {
    "id": "8c227df1-26af-4bd9-9680-5df629dbd2dc",
    "name": "Elmwood",
    "state_id": "639a2d81-ea3f-4f13-a8c6-f3fb28b30a95"
  },
  {
    "id": "a217ece8-75ae-404a-ba2b-2e946955e154",
    "name": "Elton",
    "state_id": "639a2d81-ea3f-4f13-a8c6-f3fb28b30a95"
  },
  {
    "id": "fcc8cb04-c264-4548-9e9d-ae59f3ae0e3b",
    "name": "Erath",
    "state_id": "639a2d81-ea3f-4f13-a8c6-f3fb28b30a95"
  },
  {
    "id": "24242e8e-fb56-4b10-a6ee-83b0e27631cb",
    "name": "Erwinville",
    "state_id": "639a2d81-ea3f-4f13-a8c6-f3fb28b30a95"
  },
  {
    "id": "0677e429-20b1-4f63-bff6-229869c5faef",
    "name": "Estelle",
    "state_id": "639a2d81-ea3f-4f13-a8c6-f3fb28b30a95"
  },
  {
    "id": "84161f06-b664-4318-92b6-456c8aca91d1",
    "name": "Eunice",
    "state_id": "639a2d81-ea3f-4f13-a8c6-f3fb28b30a95"
  },
  {
    "id": "3074cf8d-32a0-48ea-910b-a7fe96e02b49",
    "name": "Evangeline Parish",
    "state_id": "639a2d81-ea3f-4f13-a8c6-f3fb28b30a95"
  },
  {
    "id": "3c5533a4-0eed-4ddc-9452-52f58bfc0c4b",
    "name": "Farmerville",
    "state_id": "639a2d81-ea3f-4f13-a8c6-f3fb28b30a95"
  },
  {
    "id": "b13a5430-4305-4700-a700-5a1115ab65cb",
    "name": "Ferriday",
    "state_id": "639a2d81-ea3f-4f13-a8c6-f3fb28b30a95"
  },
  {
    "id": "20cd9e63-141f-4862-abc7-0c1419bed674",
    "name": "Fort Polk North",
    "state_id": "639a2d81-ea3f-4f13-a8c6-f3fb28b30a95"
  },
  {
    "id": "9a0187ed-3153-4c43-8859-afc0a274864d",
    "name": "Fort Polk South",
    "state_id": "639a2d81-ea3f-4f13-a8c6-f3fb28b30a95"
  },
  {
    "id": "1a597e2c-3389-4699-9ace-ca3a1cdf1e5a",
    "name": "Franklin",
    "state_id": "639a2d81-ea3f-4f13-a8c6-f3fb28b30a95"
  },
  {
    "id": "a08630fe-bf65-401b-9d6b-a9be4c164f3f",
    "name": "Franklin Parish",
    "state_id": "639a2d81-ea3f-4f13-a8c6-f3fb28b30a95"
  },
  {
    "id": "0a9ce450-e0fb-4823-8d6d-8abf72e49503",
    "name": "Franklinton",
    "state_id": "639a2d81-ea3f-4f13-a8c6-f3fb28b30a95"
  },
  {
    "id": "999b35d2-d72c-4dd4-b4ab-ed6fcf1a0c3e",
    "name": "French Settlement",
    "state_id": "639a2d81-ea3f-4f13-a8c6-f3fb28b30a95"
  },
  {
    "id": "b2361c21-3dff-4844-8635-f7ee5013eb2f",
    "name": "Galliano",
    "state_id": "639a2d81-ea3f-4f13-a8c6-f3fb28b30a95"
  },
  {
    "id": "4b62afc4-16fd-48f4-afcd-0699aa97f131",
    "name": "Gardere",
    "state_id": "639a2d81-ea3f-4f13-a8c6-f3fb28b30a95"
  },
  {
    "id": "908ece69-7316-45f5-9cbd-7f2d2e864a81",
    "name": "Garyville",
    "state_id": "639a2d81-ea3f-4f13-a8c6-f3fb28b30a95"
  },
  {
    "id": "584ed654-9459-4974-8707-7e09af705a73",
    "name": "Glenmora",
    "state_id": "639a2d81-ea3f-4f13-a8c6-f3fb28b30a95"
  },
  {
    "id": "821b49f3-7cf9-4529-9d87-8807c52e04a5",
    "name": "Golden Meadow",
    "state_id": "639a2d81-ea3f-4f13-a8c6-f3fb28b30a95"
  },
  {
    "id": "f26ca89f-883a-4a08-b935-10105a9db122",
    "name": "Gonzales",
    "state_id": "639a2d81-ea3f-4f13-a8c6-f3fb28b30a95"
  },
  {
    "id": "dac40da8-5fc8-47d4-9489-ae6020bcc68f",
    "name": "Grambling",
    "state_id": "639a2d81-ea3f-4f13-a8c6-f3fb28b30a95"
  },
  {
    "id": "106a33c7-ffb3-4137-a8e2-fd4cd0861e40",
    "name": "Gramercy",
    "state_id": "639a2d81-ea3f-4f13-a8c6-f3fb28b30a95"
  },
  {
    "id": "303b1d4b-2480-4a61-af23-107428441e0a",
    "name": "Grand Isle",
    "state_id": "639a2d81-ea3f-4f13-a8c6-f3fb28b30a95"
  },
  {
    "id": "412a9e51-04d2-470c-9039-a18b6d19228b",
    "name": "Grand Point",
    "state_id": "639a2d81-ea3f-4f13-a8c6-f3fb28b30a95"
  },
  {
    "id": "2eb14b2f-3fbb-4afc-9eaa-70e68080b88c",
    "name": "Grant Parish",
    "state_id": "639a2d81-ea3f-4f13-a8c6-f3fb28b30a95"
  },
  {
    "id": "6e119987-4308-4d2b-8abe-049776039244",
    "name": "Gray",
    "state_id": "639a2d81-ea3f-4f13-a8c6-f3fb28b30a95"
  },
  {
    "id": "8298941c-d93b-4d35-9ecb-3b8ca9cde97a",
    "name": "Greensburg",
    "state_id": "639a2d81-ea3f-4f13-a8c6-f3fb28b30a95"
  },
  {
    "id": "8f9eb29d-a8f4-4988-a671-57428d59fb3b",
    "name": "Greenwood",
    "state_id": "639a2d81-ea3f-4f13-a8c6-f3fb28b30a95"
  },
  {
    "id": "24de6743-7fc1-403e-b547-30f8f7217c12",
    "name": "Gretna",
    "state_id": "639a2d81-ea3f-4f13-a8c6-f3fb28b30a95"
  },
  {
    "id": "ad28f3a5-4fa7-41ce-81dc-614f8bc163eb",
    "name": "Gueydan",
    "state_id": "639a2d81-ea3f-4f13-a8c6-f3fb28b30a95"
  },
  {
    "id": "a5da35e1-4701-48e0-bccf-19da250f8e04",
    "name": "Hackberry",
    "state_id": "639a2d81-ea3f-4f13-a8c6-f3fb28b30a95"
  },
  {
    "id": "522920f8-08c3-439e-ab99-b4fdfd92c0b8",
    "name": "Hahnville",
    "state_id": "639a2d81-ea3f-4f13-a8c6-f3fb28b30a95"
  },
  {
    "id": "f2bf5b55-4ca4-46af-9a7c-364ecb9e6c74",
    "name": "Hammond",
    "state_id": "639a2d81-ea3f-4f13-a8c6-f3fb28b30a95"
  },
  {
    "id": "44ac33fd-2492-4003-9424-81b05307ce2e",
    "name": "Harahan",
    "state_id": "639a2d81-ea3f-4f13-a8c6-f3fb28b30a95"
  },
  {
    "id": "55785138-5f8c-485f-b2bc-3928d4f0d818",
    "name": "Harrisonburg",
    "state_id": "639a2d81-ea3f-4f13-a8c6-f3fb28b30a95"
  },
  {
    "id": "2ebb29f4-cb23-40cb-a707-0edcfec02de6",
    "name": "Harvey",
    "state_id": "639a2d81-ea3f-4f13-a8c6-f3fb28b30a95"
  },
  {
    "id": "c0752f14-acc1-4444-aaa7-0653880c412c",
    "name": "Haughton",
    "state_id": "639a2d81-ea3f-4f13-a8c6-f3fb28b30a95"
  },
  {
    "id": "9da339f9-3e1d-4d3c-8bf1-41dfb6b472c0",
    "name": "Haynesville",
    "state_id": "639a2d81-ea3f-4f13-a8c6-f3fb28b30a95"
  },
  {
    "id": "85be60d9-357f-4636-8277-59c33c872515",
    "name": "Henderson",
    "state_id": "639a2d81-ea3f-4f13-a8c6-f3fb28b30a95"
  },
  {
    "id": "3e9da00b-9a45-43c5-894c-a31034a787ca",
    "name": "Homer",
    "state_id": "639a2d81-ea3f-4f13-a8c6-f3fb28b30a95"
  },
  {
    "id": "20866b2e-f87b-4fc5-966a-b4436d69000a",
    "name": "Houma",
    "state_id": "639a2d81-ea3f-4f13-a8c6-f3fb28b30a95"
  },
  {
    "id": "c8c5b73a-2086-4139-895a-b1ddf2335bc5",
    "name": "Iberia Parish",
    "state_id": "639a2d81-ea3f-4f13-a8c6-f3fb28b30a95"
  },
  {
    "id": "8239e3aa-1ab9-412c-a3d9-5faf5263448e",
    "name": "Iberville Parish",
    "state_id": "639a2d81-ea3f-4f13-a8c6-f3fb28b30a95"
  },
  {
    "id": "ebd4b185-7b7e-4632-a6ad-c16549db841a",
    "name": "Independence",
    "state_id": "639a2d81-ea3f-4f13-a8c6-f3fb28b30a95"
  },
  {
    "id": "bf4b6e43-a7f9-481c-8cc2-1c6f288da5ce",
    "name": "Inniswold",
    "state_id": "639a2d81-ea3f-4f13-a8c6-f3fb28b30a95"
  },
  {
    "id": "737f4665-bf44-4c1c-b16a-7cd1336dceee",
    "name": "Iota",
    "state_id": "639a2d81-ea3f-4f13-a8c6-f3fb28b30a95"
  },
  {
    "id": "f65eb019-87bf-405c-9983-6be2a149d938",
    "name": "Iowa",
    "state_id": "639a2d81-ea3f-4f13-a8c6-f3fb28b30a95"
  },
  {
    "id": "8336c8a9-afd2-4292-a1f1-a1cda9a38892",
    "name": "Jackson",
    "state_id": "639a2d81-ea3f-4f13-a8c6-f3fb28b30a95"
  },
  {
    "id": "1a6612f6-c40e-47a7-9e13-7d318ed84bed",
    "name": "Jackson Parish",
    "state_id": "639a2d81-ea3f-4f13-a8c6-f3fb28b30a95"
  },
  {
    "id": "d7310f97-3db5-4be6-b88f-4c722d5733ed",
    "name": "Jean Lafitte",
    "state_id": "639a2d81-ea3f-4f13-a8c6-f3fb28b30a95"
  },
  {
    "id": "2b76d796-895f-49db-9061-e2827aa8682b",
    "name": "Jeanerette",
    "state_id": "639a2d81-ea3f-4f13-a8c6-f3fb28b30a95"
  },
  {
    "id": "ecad7cf1-1443-44ab-a68c-4ed31762eed4",
    "name": "Jefferson",
    "state_id": "639a2d81-ea3f-4f13-a8c6-f3fb28b30a95"
  },
  {
    "id": "3c173278-9017-4cd8-a10e-2fe3a105836b",
    "name": "Jefferson Davis Parish",
    "state_id": "639a2d81-ea3f-4f13-a8c6-f3fb28b30a95"
  },
  {
    "id": "fd8120a7-6251-44a7-a562-448f0bbc30bb",
    "name": "Jefferson Parish",
    "state_id": "639a2d81-ea3f-4f13-a8c6-f3fb28b30a95"
  },
  {
    "id": "4fa07a0e-a18f-4d20-8ea4-aad9119d620d",
    "name": "Jena",
    "state_id": "639a2d81-ea3f-4f13-a8c6-f3fb28b30a95"
  },
  {
    "id": "bfb7b928-728d-4133-b10b-2ef696f3f643",
    "name": "Jennings",
    "state_id": "639a2d81-ea3f-4f13-a8c6-f3fb28b30a95"
  },
  {
    "id": "def8a859-1064-45cc-ae02-a8ba0908e5c1",
    "name": "Jonesboro",
    "state_id": "639a2d81-ea3f-4f13-a8c6-f3fb28b30a95"
  },
  {
    "id": "fd047d2f-9186-4b52-b2f1-dd17dedb9bb4",
    "name": "Jonesville",
    "state_id": "639a2d81-ea3f-4f13-a8c6-f3fb28b30a95"
  },
  {
    "id": "4a37505b-117f-4001-b251-65118bc9d504",
    "name": "Kaplan",
    "state_id": "639a2d81-ea3f-4f13-a8c6-f3fb28b30a95"
  },
  {
    "id": "44c640f9-c422-4883-9a12-aa4961672904",
    "name": "Kenner",
    "state_id": "639a2d81-ea3f-4f13-a8c6-f3fb28b30a95"
  },
  {
    "id": "905f337c-5b7a-4bf1-ae2d-6d10a92f1eb5",
    "name": "Kentwood",
    "state_id": "639a2d81-ea3f-4f13-a8c6-f3fb28b30a95"
  },
  {
    "id": "61666385-6a72-4000-810f-e70b5f0cda1a",
    "name": "Killian",
    "state_id": "639a2d81-ea3f-4f13-a8c6-f3fb28b30a95"
  },
  {
    "id": "4ec66697-4172-46dc-99b8-3e092a3a31e2",
    "name": "Kinder",
    "state_id": "639a2d81-ea3f-4f13-a8c6-f3fb28b30a95"
  },
  {
    "id": "715a2087-dffa-462e-9af3-963710d1872a",
    "name": "Krotz Springs",
    "state_id": "639a2d81-ea3f-4f13-a8c6-f3fb28b30a95"
  },
  {
    "id": "b1780043-d745-46dd-9dd4-fe744eab9b4b",
    "name": "La Salle Parish",
    "state_id": "639a2d81-ea3f-4f13-a8c6-f3fb28b30a95"
  },
  {
    "id": "ec46538a-3563-417b-9068-7e052151a503",
    "name": "Labadieville",
    "state_id": "639a2d81-ea3f-4f13-a8c6-f3fb28b30a95"
  },
  {
    "id": "11ad8047-a860-4d12-9260-77bcc4a9af9f",
    "name": "Lacombe",
    "state_id": "639a2d81-ea3f-4f13-a8c6-f3fb28b30a95"
  },
  {
    "id": "1d0c1b41-9ab5-44ce-ab56-7fc4bb60eb61",
    "name": "Lafayette",
    "state_id": "639a2d81-ea3f-4f13-a8c6-f3fb28b30a95"
  },
  {
    "id": "2a260ab0-a6c9-495a-82d1-a73dec3ec1c1",
    "name": "Lafayette Parish",
    "state_id": "639a2d81-ea3f-4f13-a8c6-f3fb28b30a95"
  },
  {
    "id": "343e552c-b0a4-4c0e-9dca-4c089710999b",
    "name": "Lafourche Parish",
    "state_id": "639a2d81-ea3f-4f13-a8c6-f3fb28b30a95"
  },
  {
    "id": "ebaabda5-c104-40ad-84a8-5ef0817c5e07",
    "name": "Lake Arthur",
    "state_id": "639a2d81-ea3f-4f13-a8c6-f3fb28b30a95"
  },
  {
    "id": "55cfd27c-d3dc-4cc1-a128-eb150cc2cdd7",
    "name": "Lake Charles",
    "state_id": "639a2d81-ea3f-4f13-a8c6-f3fb28b30a95"
  },
  {
    "id": "0ea2be77-62c5-4f3e-827d-64206683b028",
    "name": "Lake Providence",
    "state_id": "639a2d81-ea3f-4f13-a8c6-f3fb28b30a95"
  },
  {
    "id": "9dcdc8c8-009c-4e86-ba9b-06d88109ae71",
    "name": "Lakeshore",
    "state_id": "639a2d81-ea3f-4f13-a8c6-f3fb28b30a95"
  },
  {
    "id": "1449dbe0-e6e8-466c-9e47-cfd71bb5311e",
    "name": "Laplace",
    "state_id": "639a2d81-ea3f-4f13-a8c6-f3fb28b30a95"
  },
  {
    "id": "66fd389b-bf60-483f-8007-7200ede5ba87",
    "name": "Larose",
    "state_id": "639a2d81-ea3f-4f13-a8c6-f3fb28b30a95"
  },
  {
    "id": "8b3cbc82-509e-45f0-a90d-e44114d73a32",
    "name": "Lawtell",
    "state_id": "639a2d81-ea3f-4f13-a8c6-f3fb28b30a95"
  },
  {
    "id": "127dda3c-0794-4a04-96eb-ae1e69168084",
    "name": "Lecompte",
    "state_id": "639a2d81-ea3f-4f13-a8c6-f3fb28b30a95"
  },
  {
    "id": "603e9294-2b4b-4e60-93b4-58fb642fd076",
    "name": "Leesville",
    "state_id": "639a2d81-ea3f-4f13-a8c6-f3fb28b30a95"
  },
  {
    "id": "4fed3554-a473-418b-9a0c-50fef099ef08",
    "name": "Leonville",
    "state_id": "639a2d81-ea3f-4f13-a8c6-f3fb28b30a95"
  },
  {
    "id": "95abc8fe-de32-4b51-b95c-f1b327c6b2a2",
    "name": "Lincoln Parish",
    "state_id": "639a2d81-ea3f-4f13-a8c6-f3fb28b30a95"
  },
  {
    "id": "8ae1808b-1e5f-4801-b69f-ec94213febf1",
    "name": "Livingston",
    "state_id": "639a2d81-ea3f-4f13-a8c6-f3fb28b30a95"
  },
  {
    "id": "c1556b6b-fd0c-4a82-90ea-92f91e207a78",
    "name": "Livingston Parish",
    "state_id": "639a2d81-ea3f-4f13-a8c6-f3fb28b30a95"
  },
  {
    "id": "93b491ec-bda9-43f2-8c60-808559890d10",
    "name": "Livonia",
    "state_id": "639a2d81-ea3f-4f13-a8c6-f3fb28b30a95"
  },
  {
    "id": "a97f3d04-6a6e-4890-ab16-080fc41649b5",
    "name": "Lockport",
    "state_id": "639a2d81-ea3f-4f13-a8c6-f3fb28b30a95"
  },
  {
    "id": "f6f205ff-59ce-4b40-a333-70d9b24d7b99",
    "name": "Lockport Heights",
    "state_id": "639a2d81-ea3f-4f13-a8c6-f3fb28b30a95"
  },
  {
    "id": "db428068-0bba-4c47-b1d9-55d0c4756727",
    "name": "Logansport",
    "state_id": "639a2d81-ea3f-4f13-a8c6-f3fb28b30a95"
  },
  {
    "id": "20ea30ef-c675-4e7d-bffe-fbcaf2b7b2ab",
    "name": "Luling",
    "state_id": "639a2d81-ea3f-4f13-a8c6-f3fb28b30a95"
  },
  {
    "id": "79c682d6-506c-4291-b496-1ed11392066b",
    "name": "Lutcher",
    "state_id": "639a2d81-ea3f-4f13-a8c6-f3fb28b30a95"
  },
  {
    "id": "594a5e6c-310f-4a18-83e7-cd20c51d0f31",
    "name": "Madison Parish",
    "state_id": "639a2d81-ea3f-4f13-a8c6-f3fb28b30a95"
  },
  {
    "id": "d6f9796e-9a8d-469e-b25a-5d2d755aca79",
    "name": "Mamou",
    "state_id": "639a2d81-ea3f-4f13-a8c6-f3fb28b30a95"
  },
  {
    "id": "28855fc7-5992-44af-b691-67276d164fe5",
    "name": "Mandeville",
    "state_id": "639a2d81-ea3f-4f13-a8c6-f3fb28b30a95"
  },
  {
    "id": "fa785893-9d3e-4bd9-95c8-47026b662f98",
    "name": "Mansfield",
    "state_id": "639a2d81-ea3f-4f13-a8c6-f3fb28b30a95"
  },
  {
    "id": "be4a5a3e-7a95-4752-a4d2-949ced934bcb",
    "name": "Mansura",
    "state_id": "639a2d81-ea3f-4f13-a8c6-f3fb28b30a95"
  },
  {
    "id": "70522b0f-a57f-4a6a-9be6-0440603a4ba0",
    "name": "Many",
    "state_id": "639a2d81-ea3f-4f13-a8c6-f3fb28b30a95"
  },
  {
    "id": "f46f1f56-4cc7-459b-8dc4-2d4c62c2366c",
    "name": "Maringouin",
    "state_id": "639a2d81-ea3f-4f13-a8c6-f3fb28b30a95"
  },
  {
    "id": "a513e5bb-e0f7-437c-ab7d-29e034866fa0",
    "name": "Marksville",
    "state_id": "639a2d81-ea3f-4f13-a8c6-f3fb28b30a95"
  },
  {
    "id": "f3495762-cb41-40ca-9c2a-1842e801a0f5",
    "name": "Marrero",
    "state_id": "639a2d81-ea3f-4f13-a8c6-f3fb28b30a95"
  },
  {
    "id": "231968d7-1e51-48aa-9ba8-625f72273872",
    "name": "Mathews",
    "state_id": "639a2d81-ea3f-4f13-a8c6-f3fb28b30a95"
  },
  {
    "id": "a0d0a247-4f4d-4057-bd80-a57ffe81fad5",
    "name": "Maurice",
    "state_id": "639a2d81-ea3f-4f13-a8c6-f3fb28b30a95"
  },
  {
    "id": "e8c81cae-957c-42d9-a18e-57ba19b4ced3",
    "name": "Melville",
    "state_id": "639a2d81-ea3f-4f13-a8c6-f3fb28b30a95"
  },
  {
    "id": "e7416cfe-2e52-4725-8427-d69b0777967b",
    "name": "Meraux",
    "state_id": "639a2d81-ea3f-4f13-a8c6-f3fb28b30a95"
  },
  {
    "id": "75ed29b7-d930-48a1-8857-83336f500f25",
    "name": "Merrydale",
    "state_id": "639a2d81-ea3f-4f13-a8c6-f3fb28b30a95"
  },
  {
    "id": "a8082cd3-ac34-4f08-89a1-43a4edb926fa",
    "name": "Merryville",
    "state_id": "639a2d81-ea3f-4f13-a8c6-f3fb28b30a95"
  },
  {
    "id": "40e82228-c3b8-450a-b465-2549ca23c1d0",
    "name": "Metairie",
    "state_id": "639a2d81-ea3f-4f13-a8c6-f3fb28b30a95"
  },
  {
    "id": "b3733f87-e695-45c2-a83b-3ee7d0a453d9",
    "name": "Metairie Terrace",
    "state_id": "639a2d81-ea3f-4f13-a8c6-f3fb28b30a95"
  },
  {
    "id": "b446dbeb-1925-4a5b-88da-e0eb6ea80992",
    "name": "Midway",
    "state_id": "639a2d81-ea3f-4f13-a8c6-f3fb28b30a95"
  },
  {
    "id": "aaab6f70-e684-4027-b303-1f8cc12eb96c",
    "name": "Milton",
    "state_id": "639a2d81-ea3f-4f13-a8c6-f3fb28b30a95"
  },
  {
    "id": "2657c705-9c66-4aef-bdce-7f598d38eee7",
    "name": "Minden",
    "state_id": "639a2d81-ea3f-4f13-a8c6-f3fb28b30a95"
  },
  {
    "id": "e7d467d8-2715-41a5-85c3-ae9730ddfddd",
    "name": "Minorca",
    "state_id": "639a2d81-ea3f-4f13-a8c6-f3fb28b30a95"
  },
  {
    "id": "93363c2f-7141-4d29-8de6-b6a2fbe43dd6",
    "name": "Monroe",
    "state_id": "639a2d81-ea3f-4f13-a8c6-f3fb28b30a95"
  },
  {
    "id": "3d62c1c7-2261-494e-831e-5917ee9acc1e",
    "name": "Montegut",
    "state_id": "639a2d81-ea3f-4f13-a8c6-f3fb28b30a95"
  },
  {
    "id": "10cc1b75-0f8f-41b2-89b0-022d99a48b9f",
    "name": "Monticello",
    "state_id": "639a2d81-ea3f-4f13-a8c6-f3fb28b30a95"
  },
  {
    "id": "06896948-c219-4396-9231-b03029165437",
    "name": "Montz",
    "state_id": "639a2d81-ea3f-4f13-a8c6-f3fb28b30a95"
  },
  {
    "id": "4d2a47bd-0452-4b0d-99b8-cc7b6771e17f",
    "name": "Morehouse Parish",
    "state_id": "639a2d81-ea3f-4f13-a8c6-f3fb28b30a95"
  },
  {
    "id": "cef104d4-5bf3-4c56-bd24-64b43503cfd3",
    "name": "Morgan City",
    "state_id": "639a2d81-ea3f-4f13-a8c6-f3fb28b30a95"
  },
  {
    "id": "5c61fffc-7069-450a-bbf4-d2ecd83dd398",
    "name": "Moss Bluff",
    "state_id": "639a2d81-ea3f-4f13-a8c6-f3fb28b30a95"
  },
  {
    "id": "ceea823f-067a-4b1f-b39c-74e1229ec510",
    "name": "Napoleonville",
    "state_id": "639a2d81-ea3f-4f13-a8c6-f3fb28b30a95"
  },
  {
    "id": "6cfc9027-ce26-4c2b-b7ce-ad933f4bd2eb",
    "name": "Natalbany",
    "state_id": "639a2d81-ea3f-4f13-a8c6-f3fb28b30a95"
  },
  {
    "id": "e8b84370-7139-4f0f-ac40-052ef0d31acc",
    "name": "Natchitoches",
    "state_id": "639a2d81-ea3f-4f13-a8c6-f3fb28b30a95"
  },
  {
    "id": "64213453-4c58-4907-9441-7296e14670af",
    "name": "Natchitoches Parish",
    "state_id": "639a2d81-ea3f-4f13-a8c6-f3fb28b30a95"
  },
  {
    "id": "dc1f5a28-3e8f-4ac1-911f-9473d7871335",
    "name": "New Iberia",
    "state_id": "639a2d81-ea3f-4f13-a8c6-f3fb28b30a95"
  },
  {
    "id": "4e155f86-4990-48ad-886d-9410c9a34ffe",
    "name": "New Llano",
    "state_id": "639a2d81-ea3f-4f13-a8c6-f3fb28b30a95"
  },
  {
    "id": "d9d4b140-05d3-4930-a949-3dc9f9d9f9de",
    "name": "New Orleans",
    "state_id": "639a2d81-ea3f-4f13-a8c6-f3fb28b30a95"
  },
  {
    "id": "67289d0f-5278-484a-96e7-ca20671d0d39",
    "name": "New Roads",
    "state_id": "639a2d81-ea3f-4f13-a8c6-f3fb28b30a95"
  },
  {
    "id": "a96f3206-ecd4-4427-ad5a-45e257c1f8ac",
    "name": "New Sarpy",
    "state_id": "639a2d81-ea3f-4f13-a8c6-f3fb28b30a95"
  },
  {
    "id": "e17702b2-16d8-4574-85ea-a8a9498e2de9",
    "name": "Newellton",
    "state_id": "639a2d81-ea3f-4f13-a8c6-f3fb28b30a95"
  },
  {
    "id": "b59a807e-27db-4046-a813-01586fb87d17",
    "name": "Norco",
    "state_id": "639a2d81-ea3f-4f13-a8c6-f3fb28b30a95"
  },
  {
    "id": "9c8f33bb-8b6d-4c15-81a4-02d32a64e966",
    "name": "North Vacherie",
    "state_id": "639a2d81-ea3f-4f13-a8c6-f3fb28b30a95"
  },
  {
    "id": "dd9935f6-0c69-46d2-9c23-23118b6c198d",
    "name": "Oak Grove",
    "state_id": "639a2d81-ea3f-4f13-a8c6-f3fb28b30a95"
  },
  {
    "id": "f9cff358-aa6b-4eb4-a64f-0f5aaf5a4baf",
    "name": "Oak Hills Place",
    "state_id": "639a2d81-ea3f-4f13-a8c6-f3fb28b30a95"
  },
  {
    "id": "65fa0f3d-eef9-4796-ac0b-1a91ee8c78e1",
    "name": "Oakdale",
    "state_id": "639a2d81-ea3f-4f13-a8c6-f3fb28b30a95"
  },
  {
    "id": "a840b1b7-d895-4c2a-868c-695447e067fd",
    "name": "Oberlin",
    "state_id": "639a2d81-ea3f-4f13-a8c6-f3fb28b30a95"
  },
  {
    "id": "2142acb8-655d-416c-bea5-637fa02eace0",
    "name": "Old Jefferson",
    "state_id": "639a2d81-ea3f-4f13-a8c6-f3fb28b30a95"
  },
  {
    "id": "0ae5c1a8-6784-4ef4-b3cd-6de663e3bee7",
    "name": "Olla",
    "state_id": "639a2d81-ea3f-4f13-a8c6-f3fb28b30a95"
  },
  {
    "id": "94aa50b6-9105-4fd1-b18c-2f99d006b199",
    "name": "Opelousas",
    "state_id": "639a2d81-ea3f-4f13-a8c6-f3fb28b30a95"
  },
  {
    "id": "4aa84863-76cc-4564-83e1-1f109e9edfeb",
    "name": "Orleans Parish",
    "state_id": "639a2d81-ea3f-4f13-a8c6-f3fb28b30a95"
  },
  {
    "id": "a71a0b98-9e91-473c-8419-43b1b857186f",
    "name": "Ossun",
    "state_id": "639a2d81-ea3f-4f13-a8c6-f3fb28b30a95"
  },
  {
    "id": "f10c203b-6376-4884-8564-fe500d10fd6a",
    "name": "Ouachita Parish",
    "state_id": "639a2d81-ea3f-4f13-a8c6-f3fb28b30a95"
  },
  {
    "id": "3eb96e2d-5258-4fa0-9325-10389918a7eb",
    "name": "Paradis",
    "state_id": "639a2d81-ea3f-4f13-a8c6-f3fb28b30a95"
  },
  {
    "id": "0c579c2e-b155-475e-80eb-a09ed65c3e61",
    "name": "Patterson",
    "state_id": "639a2d81-ea3f-4f13-a8c6-f3fb28b30a95"
  },
  {
    "id": "662658da-eb44-44b8-a9c2-c27f748a0982",
    "name": "Paulina",
    "state_id": "639a2d81-ea3f-4f13-a8c6-f3fb28b30a95"
  },
  {
    "id": "414cf358-18ff-49f6-81fe-7e323bc33e6a",
    "name": "Pearl River",
    "state_id": "639a2d81-ea3f-4f13-a8c6-f3fb28b30a95"
  },
  {
    "id": "3968aa5b-15f5-4eca-9b33-ed3216689775",
    "name": "Pierre Part",
    "state_id": "639a2d81-ea3f-4f13-a8c6-f3fb28b30a95"
  },
  {
    "id": "8b665ed6-2efb-409a-8654-6778a721e859",
    "name": "Pine Prairie",
    "state_id": "639a2d81-ea3f-4f13-a8c6-f3fb28b30a95"
  },
  {
    "id": "5aa3e752-1046-4d4e-baed-0dbbe5bf7381",
    "name": "Pineville",
    "state_id": "639a2d81-ea3f-4f13-a8c6-f3fb28b30a95"
  },
  {
    "id": "e9fa38d4-6aa1-4376-9f79-353281331a68",
    "name": "Plaquemine",
    "state_id": "639a2d81-ea3f-4f13-a8c6-f3fb28b30a95"
  },
  {
    "id": "d3911c4c-8789-4657-a70d-7762c856b3bc",
    "name": "Plaquemines Parish",
    "state_id": "639a2d81-ea3f-4f13-a8c6-f3fb28b30a95"
  },
  {
    "id": "5c739374-b0b2-4463-aa1b-f271051bf9c3",
    "name": "Pointe Coupee Parish",
    "state_id": "639a2d81-ea3f-4f13-a8c6-f3fb28b30a95"
  },
  {
    "id": "96f639c8-8059-45fa-a6d3-4c98647f6fc0",
    "name": "Ponchatoula",
    "state_id": "639a2d81-ea3f-4f13-a8c6-f3fb28b30a95"
  },
  {
    "id": "a02b6de8-f3ca-451d-b8ff-7945913a1f42",
    "name": "Port Allen",
    "state_id": "639a2d81-ea3f-4f13-a8c6-f3fb28b30a95"
  },
  {
    "id": "d769d927-8743-4eea-8f63-1b3ea750e28c",
    "name": "Port Barre",
    "state_id": "639a2d81-ea3f-4f13-a8c6-f3fb28b30a95"
  },
  {
    "id": "eac0c756-9d44-4a83-a06d-842766e52d58",
    "name": "Port Sulphur",
    "state_id": "639a2d81-ea3f-4f13-a8c6-f3fb28b30a95"
  },
  {
    "id": "5124930b-d45f-4114-ac6e-2484fb324c85",
    "name": "Poydras",
    "state_id": "639a2d81-ea3f-4f13-a8c6-f3fb28b30a95"
  },
  {
    "id": "005bef56-c5d9-40bc-a549-4beca1f29d87",
    "name": "Prairieville",
    "state_id": "639a2d81-ea3f-4f13-a8c6-f3fb28b30a95"
  },
  {
    "id": "6395bf7b-4e5a-444d-8c9f-eed452fe7300",
    "name": "Presquille",
    "state_id": "639a2d81-ea3f-4f13-a8c6-f3fb28b30a95"
  },
  {
    "id": "e4868b21-e4f8-4680-bdcc-3682763aafa0",
    "name": "Prien",
    "state_id": "639a2d81-ea3f-4f13-a8c6-f3fb28b30a95"
  },
  {
    "id": "fc93f66a-0284-428e-8d05-7ed1b99fb8c3",
    "name": "Raceland",
    "state_id": "639a2d81-ea3f-4f13-a8c6-f3fb28b30a95"
  },
  {
    "id": "9615e5d8-05cc-443b-8f06-8d814e927dbf",
    "name": "Rapides Parish",
    "state_id": "639a2d81-ea3f-4f13-a8c6-f3fb28b30a95"
  },
  {
    "id": "09d0e35e-8b89-4c2e-aad3-744867c81e7f",
    "name": "Rayne",
    "state_id": "639a2d81-ea3f-4f13-a8c6-f3fb28b30a95"
  },
  {
    "id": "0a4c1f77-861c-4d17-82b8-4455a4d4198b",
    "name": "Rayville",
    "state_id": "639a2d81-ea3f-4f13-a8c6-f3fb28b30a95"
  },
  {
    "id": "3a5b75f7-2a30-49a6-97c6-d1402c9132d1",
    "name": "Red Chute",
    "state_id": "639a2d81-ea3f-4f13-a8c6-f3fb28b30a95"
  },
  {
    "id": "a653e62a-bc47-46f9-909f-848824e066e9",
    "name": "Red River Parish",
    "state_id": "639a2d81-ea3f-4f13-a8c6-f3fb28b30a95"
  },
  {
    "id": "e80fd33c-b202-4013-a640-16f2d906a6f2",
    "name": "Reserve",
    "state_id": "639a2d81-ea3f-4f13-a8c6-f3fb28b30a95"
  },
  {
    "id": "328213ba-30c3-4237-b6bf-8b3b9694ecc6",
    "name": "Richland Parish",
    "state_id": "639a2d81-ea3f-4f13-a8c6-f3fb28b30a95"
  },
  {
    "id": "47a15b48-ba46-4cb2-a6c9-ec66a5af2dee",
    "name": "Richwood",
    "state_id": "639a2d81-ea3f-4f13-a8c6-f3fb28b30a95"
  },
  {
    "id": "5303d29d-4a7d-4414-a29a-fafb3f5ab99f",
    "name": "Ringgold",
    "state_id": "639a2d81-ea3f-4f13-a8c6-f3fb28b30a95"
  },
  {
    "id": "e8b9fcc7-425d-4f8b-b714-1c8ec0428864",
    "name": "River Ridge",
    "state_id": "639a2d81-ea3f-4f13-a8c6-f3fb28b30a95"
  },
  {
    "id": "baa47d90-70c4-4c65-9ab8-fde31772db06",
    "name": "Roseland",
    "state_id": "639a2d81-ea3f-4f13-a8c6-f3fb28b30a95"
  },
  {
    "id": "43a6b794-404e-4665-87d1-e63dbf6f3ae1",
    "name": "Rosepine",
    "state_id": "639a2d81-ea3f-4f13-a8c6-f3fb28b30a95"
  },
  {
    "id": "a88e1143-07c9-4cc6-bfc5-f2d311a1a0b8",
    "name": "Ruston",
    "state_id": "639a2d81-ea3f-4f13-a8c6-f3fb28b30a95"
  },
  {
    "id": "7389bfc9-eb47-45fa-9494-0b0b6eb3cdeb",
    "name": "Sabine Parish",
    "state_id": "639a2d81-ea3f-4f13-a8c6-f3fb28b30a95"
  },
  {
    "id": "9902c3ba-f0ad-4fa3-ae99-9d0f9ac35f79",
    "name": "Saint Bernard Parish",
    "state_id": "639a2d81-ea3f-4f13-a8c6-f3fb28b30a95"
  },
  {
    "id": "14a7f5cf-69b0-4aa0-9dfe-a4f8980c7295",
    "name": "Saint Charles Parish",
    "state_id": "639a2d81-ea3f-4f13-a8c6-f3fb28b30a95"
  },
  {
    "id": "66ed2b24-e81a-4a07-a601-a4ddb15a0d98",
    "name": "Saint Francisville",
    "state_id": "639a2d81-ea3f-4f13-a8c6-f3fb28b30a95"
  },
  {
    "id": "c6f0775b-bc00-4d9b-b9b9-ec50972e8231",
    "name": "Saint Gabriel",
    "state_id": "639a2d81-ea3f-4f13-a8c6-f3fb28b30a95"
  },
  {
    "id": "e3e89b15-cfd8-450e-8d91-c70c28e1875d",
    "name": "Saint Helena Parish",
    "state_id": "639a2d81-ea3f-4f13-a8c6-f3fb28b30a95"
  },
  {
    "id": "ce938287-a9ca-4242-9732-addb5447383a",
    "name": "Saint James Parish",
    "state_id": "639a2d81-ea3f-4f13-a8c6-f3fb28b30a95"
  },
  {
    "id": "ee4276ea-70d1-4807-bc81-ad19e7faef65",
    "name": "Saint John the Baptist Parish",
    "state_id": "639a2d81-ea3f-4f13-a8c6-f3fb28b30a95"
  },
  {
    "id": "0317b746-e3a1-4f99-817a-e975d988effa",
    "name": "Saint Joseph",
    "state_id": "639a2d81-ea3f-4f13-a8c6-f3fb28b30a95"
  },
  {
    "id": "3303e225-e518-4131-bf0a-23513a6daaed",
    "name": "Saint Landry Parish",
    "state_id": "639a2d81-ea3f-4f13-a8c6-f3fb28b30a95"
  },
  {
    "id": "9accd155-d0c9-442e-952b-454ea9a29a39",
    "name": "Saint Martin Parish",
    "state_id": "639a2d81-ea3f-4f13-a8c6-f3fb28b30a95"
  },
  {
    "id": "2478602c-dbd9-4bcc-bc87-442667fe785f",
    "name": "Saint Martinville",
    "state_id": "639a2d81-ea3f-4f13-a8c6-f3fb28b30a95"
  },
  {
    "id": "1e281899-ea58-4a88-8fd0-053aabe5a1e2",
    "name": "Saint Mary Parish",
    "state_id": "639a2d81-ea3f-4f13-a8c6-f3fb28b30a95"
  },
  {
    "id": "4db1c812-43cc-4d60-ad0e-001e1523ad29",
    "name": "Saint Rose",
    "state_id": "639a2d81-ea3f-4f13-a8c6-f3fb28b30a95"
  },
  {
    "id": "beff956b-28a1-4277-8ca9-bda252502aa1",
    "name": "Saint Tammany Parish",
    "state_id": "639a2d81-ea3f-4f13-a8c6-f3fb28b30a95"
  },
  {
    "id": "834595f4-3768-45c4-8c4a-1afb14a49188",
    "name": "Schriever",
    "state_id": "639a2d81-ea3f-4f13-a8c6-f3fb28b30a95"
  },
  {
    "id": "bc23f5cd-3296-4c4c-905e-adbe983f54cd",
    "name": "Scott",
    "state_id": "639a2d81-ea3f-4f13-a8c6-f3fb28b30a95"
  },
  {
    "id": "33ba7ad6-2b51-40b4-9eed-bc063a9826ef",
    "name": "Shenandoah",
    "state_id": "639a2d81-ea3f-4f13-a8c6-f3fb28b30a95"
  },
  {
    "id": "4967dfa9-1e74-4d14-8987-913dd13cc8cd",
    "name": "Shreveport",
    "state_id": "639a2d81-ea3f-4f13-a8c6-f3fb28b30a95"
  },
  {
    "id": "129e45af-88f0-4523-ba04-d814f85f8b23",
    "name": "Sibley",
    "state_id": "639a2d81-ea3f-4f13-a8c6-f3fb28b30a95"
  },
  {
    "id": "ff93e9ab-8fd6-4c36-baf9-a22841348330",
    "name": "Simmesport",
    "state_id": "639a2d81-ea3f-4f13-a8c6-f3fb28b30a95"
  },
  {
    "id": "d93ce8d3-b21f-48f2-b2ff-0f3db5249bfd",
    "name": "Slidell",
    "state_id": "639a2d81-ea3f-4f13-a8c6-f3fb28b30a95"
  },
  {
    "id": "0b6828f6-dd3a-4317-8020-c873a3b70ca5",
    "name": "Sorrento",
    "state_id": "639a2d81-ea3f-4f13-a8c6-f3fb28b30a95"
  },
  {
    "id": "3ba8f62f-9ed9-48fb-add3-8b22d6dd15a5",
    "name": "South Vacherie",
    "state_id": "639a2d81-ea3f-4f13-a8c6-f3fb28b30a95"
  },
  {
    "id": "d994ba4c-e3bb-4d92-8c0c-ad8a481a6460",
    "name": "Springhill",
    "state_id": "639a2d81-ea3f-4f13-a8c6-f3fb28b30a95"
  },
  {
    "id": "5e00ff15-d9d4-45f8-bb3f-cdc60f372a95",
    "name": "Sterlington",
    "state_id": "639a2d81-ea3f-4f13-a8c6-f3fb28b30a95"
  },
  {
    "id": "5950be3f-1c67-4400-8c31-ed8543fe167b",
    "name": "Stonewall",
    "state_id": "639a2d81-ea3f-4f13-a8c6-f3fb28b30a95"
  },
  {
    "id": "45dcebf4-433e-4554-ac69-d628460fcaf4",
    "name": "Sulphur",
    "state_id": "639a2d81-ea3f-4f13-a8c6-f3fb28b30a95"
  },
  {
    "id": "9c6b59ea-09e9-47c3-b233-96141433b67c",
    "name": "Sunset",
    "state_id": "639a2d81-ea3f-4f13-a8c6-f3fb28b30a95"
  },
  {
    "id": "2f00106d-ceaf-464f-a389-2911bc3bcd8b",
    "name": "Supreme",
    "state_id": "639a2d81-ea3f-4f13-a8c6-f3fb28b30a95"
  },
  {
    "id": "2cd3f1d6-4296-4e7d-9457-4f917211f072",
    "name": "Swartz",
    "state_id": "639a2d81-ea3f-4f13-a8c6-f3fb28b30a95"
  },
  {
    "id": "4f3030c4-0008-4148-a916-7f3a2e58be63",
    "name": "Tallulah",
    "state_id": "639a2d81-ea3f-4f13-a8c6-f3fb28b30a95"
  },
  {
    "id": "2b7fd1a1-f311-4e18-8f6a-c61023c9c868",
    "name": "Tangipahoa Parish",
    "state_id": "639a2d81-ea3f-4f13-a8c6-f3fb28b30a95"
  },
  {
    "id": "5ce0f934-80aa-402e-bb13-0883a09dfc9e",
    "name": "Tensas Parish",
    "state_id": "639a2d81-ea3f-4f13-a8c6-f3fb28b30a95"
  },
  {
    "id": "270ad07f-1b2b-41e8-9af7-711742eabf0e",
    "name": "Terrebonne Parish",
    "state_id": "639a2d81-ea3f-4f13-a8c6-f3fb28b30a95"
  },
  {
    "id": "1bdc050a-8bc6-42bc-9352-74e5c18bb7ab",
    "name": "Terrytown",
    "state_id": "639a2d81-ea3f-4f13-a8c6-f3fb28b30a95"
  },
  {
    "id": "6d9e607a-3f7c-429c-93a3-f430ee95d84e",
    "name": "Thibodaux",
    "state_id": "639a2d81-ea3f-4f13-a8c6-f3fb28b30a95"
  },
  {
    "id": "420e6819-d52d-4c60-b7b7-42ce76978c12",
    "name": "Timberlane",
    "state_id": "639a2d81-ea3f-4f13-a8c6-f3fb28b30a95"
  },
  {
    "id": "3caadd94-5f9a-4730-ab21-acec56cf9e20",
    "name": "Union Parish",
    "state_id": "639a2d81-ea3f-4f13-a8c6-f3fb28b30a95"
  },
  {
    "id": "255b4f69-7080-463a-bc93-3ca4854f3f4d",
    "name": "Urania",
    "state_id": "639a2d81-ea3f-4f13-a8c6-f3fb28b30a95"
  },
  {
    "id": "37db059e-8e4e-436a-b953-16d2eeee0e7a",
    "name": "Vermilion Parish",
    "state_id": "639a2d81-ea3f-4f13-a8c6-f3fb28b30a95"
  },
  {
    "id": "acf2361d-b9c2-48ba-8118-83eff99dd1c7",
    "name": "Vernon Parish",
    "state_id": "639a2d81-ea3f-4f13-a8c6-f3fb28b30a95"
  },
  {
    "id": "a937cd99-9180-4a30-85cf-fb93a28b7737",
    "name": "Vidalia",
    "state_id": "639a2d81-ea3f-4f13-a8c6-f3fb28b30a95"
  },
  {
    "id": "e9ecd041-3b68-4124-8941-11b83758ba61",
    "name": "Vienna Bend",
    "state_id": "639a2d81-ea3f-4f13-a8c6-f3fb28b30a95"
  },
  {
    "id": "383247cc-2509-4fdc-beb8-7479280434fc",
    "name": "Village Saint George",
    "state_id": "639a2d81-ea3f-4f13-a8c6-f3fb28b30a95"
  },
  {
    "id": "f4491293-b7ec-4891-b49c-44df25ac77c7",
    "name": "Ville Platte",
    "state_id": "639a2d81-ea3f-4f13-a8c6-f3fb28b30a95"
  },
  {
    "id": "4b36678d-f18e-4165-bd5b-b082983403ec",
    "name": "Vinton",
    "state_id": "639a2d81-ea3f-4f13-a8c6-f3fb28b30a95"
  },
  {
    "id": "3637d2c6-07c7-45eb-a2e0-92e5daf5c58c",
    "name": "Violet",
    "state_id": "639a2d81-ea3f-4f13-a8c6-f3fb28b30a95"
  },
  {
    "id": "6257acf2-544d-49d2-b1d6-ab2c54c726f3",
    "name": "Vivian",
    "state_id": "639a2d81-ea3f-4f13-a8c6-f3fb28b30a95"
  },
  {
    "id": "0f50881e-d312-490e-a3ee-48b2a0010bd3",
    "name": "Waggaman",
    "state_id": "639a2d81-ea3f-4f13-a8c6-f3fb28b30a95"
  },
  {
    "id": "3c894469-1c6c-43f4-89a4-397e8bac9820",
    "name": "Walker",
    "state_id": "639a2d81-ea3f-4f13-a8c6-f3fb28b30a95"
  },
  {
    "id": "0fdb48ea-1641-41b8-bf67-4b1fe7eb6961",
    "name": "Washington Parish",
    "state_id": "639a2d81-ea3f-4f13-a8c6-f3fb28b30a95"
  },
  {
    "id": "0264e78f-a9bb-4f15-8af4-6a655fca9fa5",
    "name": "Watson",
    "state_id": "639a2d81-ea3f-4f13-a8c6-f3fb28b30a95"
  },
  {
    "id": "a74568a4-a9c5-47d6-9e33-46c80cc31101",
    "name": "Webster Parish",
    "state_id": "639a2d81-ea3f-4f13-a8c6-f3fb28b30a95"
  },
  {
    "id": "0201a890-ad53-417c-8b35-9577f1dd71c4",
    "name": "Welsh",
    "state_id": "639a2d81-ea3f-4f13-a8c6-f3fb28b30a95"
  },
  {
    "id": "4d415f9c-2d9e-4377-9fbd-b04b09553a37",
    "name": "West Baton Rouge Parish",
    "state_id": "639a2d81-ea3f-4f13-a8c6-f3fb28b30a95"
  },
  {
    "id": "db7bf0ee-e950-46ed-b122-29335f7efcd4",
    "name": "West Carroll Parish",
    "state_id": "639a2d81-ea3f-4f13-a8c6-f3fb28b30a95"
  },
  {
    "id": "1501fca8-6e1d-4222-b885-e63e6e481d7d",
    "name": "West Feliciana Parish",
    "state_id": "639a2d81-ea3f-4f13-a8c6-f3fb28b30a95"
  },
  {
    "id": "c3e623da-6bdb-41c2-bf3a-d4e72fac2d23",
    "name": "West Ferriday",
    "state_id": "639a2d81-ea3f-4f13-a8c6-f3fb28b30a95"
  },
  {
    "id": "b40ee443-67f0-4fcb-b8ee-ed7c32c16e00",
    "name": "West Monroe",
    "state_id": "639a2d81-ea3f-4f13-a8c6-f3fb28b30a95"
  },
  {
    "id": "cc47e153-b54c-45a5-ad40-0f1fae156621",
    "name": "Westlake",
    "state_id": "639a2d81-ea3f-4f13-a8c6-f3fb28b30a95"
  },
  {
    "id": "06fbdb0d-2974-4d3b-8a57-0caae0faecef",
    "name": "Westminster",
    "state_id": "639a2d81-ea3f-4f13-a8c6-f3fb28b30a95"
  },
  {
    "id": "65ba48a5-d36a-4121-a26a-e5d00fb8afcb",
    "name": "Westwego",
    "state_id": "639a2d81-ea3f-4f13-a8c6-f3fb28b30a95"
  },
  {
    "id": "141948e5-d5ff-4249-8cc0-c5cfef567675",
    "name": "White Castle",
    "state_id": "639a2d81-ea3f-4f13-a8c6-f3fb28b30a95"
  },
  {
    "id": "e8a72d82-127c-48af-acab-a060ea50656e",
    "name": "Winn Parish",
    "state_id": "639a2d81-ea3f-4f13-a8c6-f3fb28b30a95"
  },
  {
    "id": "3c12d921-531f-4d79-9c9c-cccc75e1116f",
    "name": "Winnfield",
    "state_id": "639a2d81-ea3f-4f13-a8c6-f3fb28b30a95"
  },
  {
    "id": "8c4da88b-0771-4785-b014-d1bfecdbd0bd",
    "name": "Winnsboro",
    "state_id": "639a2d81-ea3f-4f13-a8c6-f3fb28b30a95"
  },
  {
    "id": "9827559a-ed6f-4837-8e1f-c17bded99607",
    "name": "Woodmere",
    "state_id": "639a2d81-ea3f-4f13-a8c6-f3fb28b30a95"
  },
  {
    "id": "3f1eeda3-a6d4-40ae-83e5-ef75d5c2bb92",
    "name": "Woodworth",
    "state_id": "639a2d81-ea3f-4f13-a8c6-f3fb28b30a95"
  },
  {
    "id": "beba5e09-3011-421c-b347-e6e91cdf58ed",
    "name": "Youngsville",
    "state_id": "639a2d81-ea3f-4f13-a8c6-f3fb28b30a95"
  },
  {
    "id": "66cf9d6e-181a-4ff1-8c4e-f311c2a4b092",
    "name": "Zachary",
    "state_id": "639a2d81-ea3f-4f13-a8c6-f3fb28b30a95"
  },
  {
    "id": "7ff4a7f2-0d05-4201-9ba7-df7e135738e1",
    "name": "Zwolle",
    "state_id": "639a2d81-ea3f-4f13-a8c6-f3fb28b30a95"
  }
]