[
  {
    "id": "d2b99c96-15f3-464c-b907-72001f7e863b",
    "name": "Colonia Mauricio José Troche",
    "state_id": "643bc682-ec3f-44d5-a9fd-9c2090100f6c"
  },
  {
    "id": "ce13b081-017b-4996-9db2-0696bfbf3b22",
    "name": "Coronel Martínez",
    "state_id": "643bc682-ec3f-44d5-a9fd-9c2090100f6c"
  },
  {
    "id": "a4841578-bd56-4a69-b215-ebf44e0626b5",
    "name": "Independencia",
    "state_id": "643bc682-ec3f-44d5-a9fd-9c2090100f6c"
  },
  {
    "id": "7fbf33bb-6937-489d-8121-8a96a1e0005a",
    "name": "Itapé",
    "state_id": "643bc682-ec3f-44d5-a9fd-9c2090100f6c"
  },
  {
    "id": "791c9854-72b1-4f6d-adf1-25a1481b9092",
    "name": "Iturbe",
    "state_id": "643bc682-ec3f-44d5-a9fd-9c2090100f6c"
  },
  {
    "id": "9edfd004-bb89-42c4-a664-baa393b9ec62",
    "name": "Mbocayaty",
    "state_id": "643bc682-ec3f-44d5-a9fd-9c2090100f6c"
  },
  {
    "id": "4a0f8576-b198-4832-b232-96d6d8d22eaf",
    "name": "Natalicio Talavera",
    "state_id": "643bc682-ec3f-44d5-a9fd-9c2090100f6c"
  },
  {
    "id": "2f8fbfb5-4cba-4e12-a9fd-74294a374e55",
    "name": "Villarrica",
    "state_id": "643bc682-ec3f-44d5-a9fd-9c2090100f6c"
  }
]