[
  {
    "id": "a43fd5ff-48dc-4488-a960-e68e23d47640",
    "name": "Braník",
    "state_id": "6484978b-b060-4ba5-b29f-936dd8732563"
  },
  {
    "id": "6ebfc410-ed3e-4464-b3d2-7c8f3176218f",
    "name": "Černý Most",
    "state_id": "6484978b-b060-4ba5-b29f-936dd8732563"
  },
  {
    "id": "26508900-1a77-48ee-bbcb-96c85f96affa",
    "name": "Dolní Počernice",
    "state_id": "6484978b-b060-4ba5-b29f-936dd8732563"
  },
  {
    "id": "c69d5003-9840-4a0d-8e08-4645f654eb0d",
    "name": "Hodkovičky",
    "state_id": "6484978b-b060-4ba5-b29f-936dd8732563"
  },
  {
    "id": "94b4ce58-6529-4b31-a979-7eb981d58275",
    "name": "Horní Počernice",
    "state_id": "6484978b-b060-4ba5-b29f-936dd8732563"
  },
  {
    "id": "6b0a0441-0987-4bcc-a723-da8649b28add",
    "name": "Hostavice",
    "state_id": "6484978b-b060-4ba5-b29f-936dd8732563"
  },
  {
    "id": "2d7c8bda-0c37-43e5-920d-dd1f9e508252",
    "name": "Karlín",
    "state_id": "6484978b-b060-4ba5-b29f-936dd8732563"
  },
  {
    "id": "c9fdee4b-01ac-4d50-9229-47772b1c44f6",
    "name": "Kbely",
    "state_id": "6484978b-b060-4ba5-b29f-936dd8732563"
  },
  {
    "id": "601d1948-262b-4893-873e-ce0316d02a49",
    "name": "Letňany",
    "state_id": "6484978b-b060-4ba5-b29f-936dd8732563"
  },
  {
    "id": "afa19c83-ad95-4986-83ea-58f731810886",
    "name": "Libeň",
    "state_id": "6484978b-b060-4ba5-b29f-936dd8732563"
  },
  {
    "id": "3e195ef8-b391-4d25-8b71-c576bc22c926",
    "name": "Malá Strana",
    "state_id": "6484978b-b060-4ba5-b29f-936dd8732563"
  },
  {
    "id": "e4254d14-7105-406b-acda-26965f489ff4",
    "name": "Modřany",
    "state_id": "6484978b-b060-4ba5-b29f-936dd8732563"
  },
  {
    "id": "74ad8e18-2700-4374-8e86-fde5ca91718d",
    "name": "Prague",
    "state_id": "6484978b-b060-4ba5-b29f-936dd8732563"
  },
  {
    "id": "2fc4f0ea-df30-4354-951e-21a7314998ca",
    "name": "Praha 1",
    "state_id": "6484978b-b060-4ba5-b29f-936dd8732563"
  },
  {
    "id": "0f2562b9-504c-4ab4-b722-196a1fd60c82",
    "name": "Praha 16",
    "state_id": "6484978b-b060-4ba5-b29f-936dd8732563"
  },
  {
    "id": "0a6e4b3d-af66-4b5e-8ff0-2b0dc7f13ccb",
    "name": "Praha 20",
    "state_id": "6484978b-b060-4ba5-b29f-936dd8732563"
  },
  {
    "id": "1330309c-6c43-418f-9dc6-eaf8c46c87a5",
    "name": "Praha 21",
    "state_id": "6484978b-b060-4ba5-b29f-936dd8732563"
  },
  {
    "id": "11eeba2f-8cad-470a-afcd-092559677b72",
    "name": "Prosek",
    "state_id": "6484978b-b060-4ba5-b29f-936dd8732563"
  },
  {
    "id": "9c5f308a-af88-4cd1-a623-9e34a20aa6e8",
    "name": "Satalice",
    "state_id": "6484978b-b060-4ba5-b29f-936dd8732563"
  },
  {
    "id": "41893957-7c67-47da-87fb-a53c88428a64",
    "name": "Staré Město",
    "state_id": "6484978b-b060-4ba5-b29f-936dd8732563"
  },
  {
    "id": "1bd7460b-5c5f-4b99-8f77-ea49e5f512b5",
    "name": "Střížkov",
    "state_id": "6484978b-b060-4ba5-b29f-936dd8732563"
  },
  {
    "id": "4d4fe131-d48c-4a15-bd0a-ff94cbeb70a7",
    "name": "Vysehrad",
    "state_id": "6484978b-b060-4ba5-b29f-936dd8732563"
  },
  {
    "id": "f86010ba-8526-4f7c-b485-e23581481d55",
    "name": "Vysočany",
    "state_id": "6484978b-b060-4ba5-b29f-936dd8732563"
  }
]