[
  {
    "id": "65f7444f-9e83-4ead-85fd-b7f7f0f76be8",
    "name": "Aban",
    "state_id": "6490ef33-df02-4053-9af2-968cabd94ab6"
  },
  {
    "id": "b58eaf46-ec2f-489c-969e-73ac412c23e4",
    "name": "Abanskiy Rayon",
    "state_id": "6490ef33-df02-4053-9af2-968cabd94ab6"
  },
  {
    "id": "e347b183-e1ee-4f88-b833-476a5791013f",
    "name": "Achinsk",
    "state_id": "6490ef33-df02-4053-9af2-968cabd94ab6"
  },
  {
    "id": "1facb8bb-c870-4de1-8850-cfafda7e1b1d",
    "name": "Achinskiy Rayon",
    "state_id": "6490ef33-df02-4053-9af2-968cabd94ab6"
  },
  {
    "id": "4a1ae457-c962-47c9-bb85-d189ab28142e",
    "name": "Aginskoye",
    "state_id": "6490ef33-df02-4053-9af2-968cabd94ab6"
  },
  {
    "id": "b1331bc1-fa24-49ae-a6c7-e4111bb46e06",
    "name": "Balakhta",
    "state_id": "6490ef33-df02-4053-9af2-968cabd94ab6"
  },
  {
    "id": "d2a8e854-1653-449d-9816-d1fe282dd0b2",
    "name": "Balakhtinskiy Rayon",
    "state_id": "6490ef33-df02-4053-9af2-968cabd94ab6"
  },
  {
    "id": "e75fd57b-9b56-4744-935e-2a4d83e6222b",
    "name": "Baykit",
    "state_id": "6490ef33-df02-4053-9af2-968cabd94ab6"
  },
  {
    "id": "8e95f9c5-13d2-4786-b5e9-62cdf834d3e1",
    "name": "Berëzovka",
    "state_id": "6490ef33-df02-4053-9af2-968cabd94ab6"
  },
  {
    "id": "068863e7-be44-4a70-8101-19e14f42caa3",
    "name": "Berezovskiy rayon",
    "state_id": "6490ef33-df02-4053-9af2-968cabd94ab6"
  },
  {
    "id": "10a51319-c350-432d-9062-f79acae714c5",
    "name": "Birilyusskiy Rayon",
    "state_id": "6490ef33-df02-4053-9af2-968cabd94ab6"
  },
  {
    "id": "a9369616-dd36-4e90-baf3-2df17278f56c",
    "name": "Bogotol",
    "state_id": "6490ef33-df02-4053-9af2-968cabd94ab6"
  },
  {
    "id": "70965570-59f5-4575-a688-5803ae745193",
    "name": "Bogotol’skiy Rayon",
    "state_id": "6490ef33-df02-4053-9af2-968cabd94ab6"
  },
  {
    "id": "b06302d4-d61d-43fc-8e3b-87083f8c8f90",
    "name": "Boguchanskiy Rayon",
    "state_id": "6490ef33-df02-4053-9af2-968cabd94ab6"
  },
  {
    "id": "03ea55fc-fa1c-4857-a74f-053aae3331e4",
    "name": "Boguchany",
    "state_id": "6490ef33-df02-4053-9af2-968cabd94ab6"
  },
  {
    "id": "91701144-b451-4f88-8d5e-04c4f57de93b",
    "name": "Bol’shemurtinskiy Rayon",
    "state_id": "6490ef33-df02-4053-9af2-968cabd94ab6"
  },
  {
    "id": "f3ff11fc-4d7a-4d40-a937-81b247d2d346",
    "name": "Bol’sheuluyskiy Rayon",
    "state_id": "6490ef33-df02-4053-9af2-968cabd94ab6"
  },
  {
    "id": "9ea48af3-ab41-4df9-9f41-5add2eebde81",
    "name": "Bor",
    "state_id": "6490ef33-df02-4053-9af2-968cabd94ab6"
  },
  {
    "id": "486a4b27-7f12-4abc-9f61-7f4420ce4f65",
    "name": "Borodino",
    "state_id": "6490ef33-df02-4053-9af2-968cabd94ab6"
  },
  {
    "id": "dd8e7a41-545f-4657-90a3-6854d113bbd5",
    "name": "Chunoyar",
    "state_id": "6490ef33-df02-4053-9af2-968cabd94ab6"
  },
  {
    "id": "881d6fc0-2451-48d2-bc61-01844247dcac",
    "name": "Dikson",
    "state_id": "6490ef33-df02-4053-9af2-968cabd94ab6"
  },
  {
    "id": "29d10a05-6b21-45ba-86a5-b75387f015a6",
    "name": "Divnogorsk",
    "state_id": "6490ef33-df02-4053-9af2-968cabd94ab6"
  },
  {
    "id": "fe544d17-1b67-4cdc-8025-d61ce2542ee9",
    "name": "Dubinino",
    "state_id": "6490ef33-df02-4053-9af2-968cabd94ab6"
  },
  {
    "id": "142ddad8-d382-474e-b521-2bd646236750",
    "name": "Dudinka",
    "state_id": "6490ef33-df02-4053-9af2-968cabd94ab6"
  },
  {
    "id": "f8488646-6fc0-46b7-82b6-9112ae54d71f",
    "name": "Dzerzhinskoye",
    "state_id": "6490ef33-df02-4053-9af2-968cabd94ab6"
  },
  {
    "id": "98781067-2149-4565-9b2c-b30b4bd944ec",
    "name": "Evenkiyskiy District",
    "state_id": "6490ef33-df02-4053-9af2-968cabd94ab6"
  },
  {
    "id": "da3a4ea6-58a0-4d86-a733-d190f275a2ca",
    "name": "Filimonovo",
    "state_id": "6490ef33-df02-4053-9af2-968cabd94ab6"
  },
  {
    "id": "db20efb5-dc8f-4118-88e0-cdbcaace2da2",
    "name": "Idrinskiy Rayon",
    "state_id": "6490ef33-df02-4053-9af2-968cabd94ab6"
  },
  {
    "id": "566641ad-616b-44d4-b903-2d69575a7f7a",
    "name": "Idrinskoye",
    "state_id": "6490ef33-df02-4053-9af2-968cabd94ab6"
  },
  {
    "id": "deb9e224-a424-42da-a068-fd1030c57134",
    "name": "Igarka",
    "state_id": "6490ef33-df02-4053-9af2-968cabd94ab6"
  },
  {
    "id": "f5ee2c25-a98d-4315-9cab-cb30ded35a95",
    "name": "Il’ichevo",
    "state_id": "6490ef33-df02-4053-9af2-968cabd94ab6"
  },
  {
    "id": "d9bf56e8-1685-4d25-945c-a4487391aa54",
    "name": "Ilanskiy",
    "state_id": "6490ef33-df02-4053-9af2-968cabd94ab6"
  },
  {
    "id": "3096541a-5b50-48c9-a179-d117591422df",
    "name": "Ilanskiy Rayon",
    "state_id": "6490ef33-df02-4053-9af2-968cabd94ab6"
  },
  {
    "id": "1cf319f3-d2b8-4a37-8aad-ad6ef8b91060",
    "name": "Irbeyskiy Rayon",
    "state_id": "6490ef33-df02-4053-9af2-968cabd94ab6"
  },
  {
    "id": "4aa72138-4178-4902-9548-99f8e3e28632",
    "name": "Irbeyskoye",
    "state_id": "6490ef33-df02-4053-9af2-968cabd94ab6"
  },
  {
    "id": "d3b29773-12c3-4c14-a930-d6ffd25e20c2",
    "name": "Irsha",
    "state_id": "6490ef33-df02-4053-9af2-968cabd94ab6"
  },
  {
    "id": "0f55d757-320d-49f4-89ca-10543725b8e6",
    "name": "Kansk",
    "state_id": "6490ef33-df02-4053-9af2-968cabd94ab6"
  },
  {
    "id": "4dd8cebf-e4c2-435c-a982-442bb96ab62e",
    "name": "Kanskiy Rayon",
    "state_id": "6490ef33-df02-4053-9af2-968cabd94ab6"
  },
  {
    "id": "d8ff13ff-1de2-4686-b983-b2d24353b414",
    "name": "Karatuzskoye",
    "state_id": "6490ef33-df02-4053-9af2-968cabd94ab6"
  },
  {
    "id": "ad452242-c136-4dee-9941-d08d83e3d01f",
    "name": "Kayyerkan",
    "state_id": "6490ef33-df02-4053-9af2-968cabd94ab6"
  },
  {
    "id": "5722d0f5-d637-4d15-b2c2-7dabb065e2fa",
    "name": "Kazachinskiy Rayon",
    "state_id": "6490ef33-df02-4053-9af2-968cabd94ab6"
  },
  {
    "id": "a72897d8-f56f-4fcc-95db-4ee958ecb2da",
    "name": "Kazachinskoye",
    "state_id": "6490ef33-df02-4053-9af2-968cabd94ab6"
  },
  {
    "id": "9c69bced-9c72-4986-9ac9-a3f281d8ea72",
    "name": "Kedrovyy",
    "state_id": "6490ef33-df02-4053-9af2-968cabd94ab6"
  },
  {
    "id": "7d3a9683-b312-4ad0-b234-1966010f0b20",
    "name": "Khatanga",
    "state_id": "6490ef33-df02-4053-9af2-968cabd94ab6"
  },
  {
    "id": "bf0d17f0-98b9-4fef-a18c-ef7007f603fc",
    "name": "Kodinsk",
    "state_id": "6490ef33-df02-4053-9af2-968cabd94ab6"
  },
  {
    "id": "211a06d7-83dc-4dd3-a2fe-4982534418ca",
    "name": "Koshurnikovo",
    "state_id": "6490ef33-df02-4053-9af2-968cabd94ab6"
  },
  {
    "id": "c2f3d2b9-d9d8-4d52-9aea-62ed8919c8cd",
    "name": "Krasnokamensk",
    "state_id": "6490ef33-df02-4053-9af2-968cabd94ab6"
  },
  {
    "id": "bdce7635-d55c-4333-95d8-c51b9577d99c",
    "name": "Krasnoturansk",
    "state_id": "6490ef33-df02-4053-9af2-968cabd94ab6"
  },
  {
    "id": "b93249ad-cecb-4a60-9408-18d2acac821d",
    "name": "Krasnoyarsk",
    "state_id": "6490ef33-df02-4053-9af2-968cabd94ab6"
  },
  {
    "id": "f45b9e00-b0bb-4390-b83b-16eb5d70e1d7",
    "name": "Kuragino",
    "state_id": "6490ef33-df02-4053-9af2-968cabd94ab6"
  },
  {
    "id": "1ebf8285-8be3-4618-af9e-5fff7734f8c5",
    "name": "Lesosibirsk",
    "state_id": "6490ef33-df02-4053-9af2-968cabd94ab6"
  },
  {
    "id": "e604e4c1-c36f-48df-8510-b2086bd6ff9b",
    "name": "Manskiy Rayon",
    "state_id": "6490ef33-df02-4053-9af2-968cabd94ab6"
  },
  {
    "id": "b9dd8bb0-75ef-4ddb-bdc2-3c378d78ea83",
    "name": "Manzya",
    "state_id": "6490ef33-df02-4053-9af2-968cabd94ab6"
  },
  {
    "id": "8ce0a268-9d00-456f-8356-a8810e078d23",
    "name": "Minusinsk",
    "state_id": "6490ef33-df02-4053-9af2-968cabd94ab6"
  },
  {
    "id": "b797889e-2863-43f4-a9cb-e2dbdaed1506",
    "name": "Minusinskiy Rayon",
    "state_id": "6490ef33-df02-4053-9af2-968cabd94ab6"
  },
  {
    "id": "28a3e719-9ef6-4de4-94e4-019418fa51c0",
    "name": "Motygino",
    "state_id": "6490ef33-df02-4053-9af2-968cabd94ab6"
  },
  {
    "id": "a6ca7709-142c-473f-ba05-a49c6c21244f",
    "name": "Nazarovo",
    "state_id": "6490ef33-df02-4053-9af2-968cabd94ab6"
  },
  {
    "id": "cf8ae3d3-f4c5-4c18-8908-607e3344384c",
    "name": "Nazarovskiy Rayon",
    "state_id": "6490ef33-df02-4053-9af2-968cabd94ab6"
  },
  {
    "id": "4249e8a2-89aa-4867-9a4a-80dbb600f665",
    "name": "Nizhneingashskiy Rayon",
    "state_id": "6490ef33-df02-4053-9af2-968cabd94ab6"
  },
  {
    "id": "c269322b-39ea-4dea-8be3-6e921fe24975",
    "name": "Nizhniy Ingash",
    "state_id": "6490ef33-df02-4053-9af2-968cabd94ab6"
  },
  {
    "id": "d621b52c-0e39-4107-8644-663a706d735d",
    "name": "Nizhnyaya Poyma",
    "state_id": "6490ef33-df02-4053-9af2-968cabd94ab6"
  },
  {
    "id": "4dea8f64-222c-4d30-8c16-0fc1161aed83",
    "name": "Norilsk",
    "state_id": "6490ef33-df02-4053-9af2-968cabd94ab6"
  },
  {
    "id": "3ce4e989-4ad0-4800-abdd-4a7b2239f08e",
    "name": "Novobirilyussy",
    "state_id": "6490ef33-df02-4053-9af2-968cabd94ab6"
  },
  {
    "id": "1a827ec8-1242-4c35-829a-f26879c50c89",
    "name": "Novochernorechenskiy",
    "state_id": "6490ef33-df02-4053-9af2-968cabd94ab6"
  },
  {
    "id": "c0d8e2d9-0404-407d-9919-fbb31b15dfb4",
    "name": "Ovsyanka",
    "state_id": "6490ef33-df02-4053-9af2-968cabd94ab6"
  },
  {
    "id": "61377498-dbd8-49c5-b7e5-77c301b066ff",
    "name": "Partizanskiy Rayon",
    "state_id": "6490ef33-df02-4053-9af2-968cabd94ab6"
  },
  {
    "id": "e31c1edb-5ea8-45bd-b683-3623a5bf57f3",
    "name": "Partizanskoye",
    "state_id": "6490ef33-df02-4053-9af2-968cabd94ab6"
  },
  {
    "id": "bd431133-024e-4b9f-b152-e8a53a7cc66d",
    "name": "Pirovskoye",
    "state_id": "6490ef33-df02-4053-9af2-968cabd94ab6"
  },
  {
    "id": "ae841528-a6dd-4a86-b431-f8090179a2a2",
    "name": "Predivinsk",
    "state_id": "6490ef33-df02-4053-9af2-968cabd94ab6"
  },
  {
    "id": "cc236620-c82a-4e8a-a732-926dab077efc",
    "name": "Rassvet",
    "state_id": "6490ef33-df02-4053-9af2-968cabd94ab6"
  },
  {
    "id": "6c5b2fd9-582d-4a20-bb3f-98ad956f7499",
    "name": "Razdolinsk",
    "state_id": "6490ef33-df02-4053-9af2-968cabd94ab6"
  },
  {
    "id": "4e86815a-9810-44ab-8027-d124504828fc",
    "name": "Sayansk",
    "state_id": "6490ef33-df02-4053-9af2-968cabd94ab6"
  },
  {
    "id": "ca297628-05e2-4d29-8f6b-e9a1e10696ac",
    "name": "Sayanskiy Rayon",
    "state_id": "6490ef33-df02-4053-9af2-968cabd94ab6"
  },
  {
    "id": "deb49429-d8ba-4cbe-b12b-0dbd12e06878",
    "name": "Severo-Yeniseyskiy",
    "state_id": "6490ef33-df02-4053-9af2-968cabd94ab6"
  },
  {
    "id": "6e92f96f-a1a2-4ba1-a915-0ab6fe022ec8",
    "name": "Severo-Yeniseyskiy Rayon",
    "state_id": "6490ef33-df02-4053-9af2-968cabd94ab6"
  },
  {
    "id": "86eb54eb-2ff1-4432-adcc-2cbfaf7fac0e",
    "name": "Shalinskoye",
    "state_id": "6490ef33-df02-4053-9af2-968cabd94ab6"
  },
  {
    "id": "027f969e-3abe-440d-a847-83d48c9ace7e",
    "name": "Sharypovo",
    "state_id": "6490ef33-df02-4053-9af2-968cabd94ab6"
  },
  {
    "id": "3b6dcb0f-f902-46fc-8692-885923c8045c",
    "name": "Sharypovskiy Rayon",
    "state_id": "6490ef33-df02-4053-9af2-968cabd94ab6"
  },
  {
    "id": "ea14978f-72cb-42fe-a497-8d6ac3f3e28f",
    "name": "Shushenskiy Rayon",
    "state_id": "6490ef33-df02-4053-9af2-968cabd94ab6"
  },
  {
    "id": "d1f7aac7-b95c-4e2a-a80a-52c23fa8ae8e",
    "name": "Shushenskoye",
    "state_id": "6490ef33-df02-4053-9af2-968cabd94ab6"
  },
  {
    "id": "ae110fa9-5866-43fc-a9be-f189b619464d",
    "name": "Snezhnogorsk",
    "state_id": "6490ef33-df02-4053-9af2-968cabd94ab6"
  },
  {
    "id": "6875661a-c854-4c24-bb7f-ab744c124edd",
    "name": "Solnechnyy",
    "state_id": "6490ef33-df02-4053-9af2-968cabd94ab6"
  },
  {
    "id": "c427e208-2b91-4c23-9161-9cdec2669836",
    "name": "Sosnovoborsk",
    "state_id": "6490ef33-df02-4053-9af2-968cabd94ab6"
  },
  {
    "id": "61123d7b-0c33-442c-95e8-506bc186b53c",
    "name": "Strelka",
    "state_id": "6490ef33-df02-4053-9af2-968cabd94ab6"
  },
  {
    "id": "ca3c7f21-ab23-4e6b-881b-0585a6d3380c",
    "name": "Sukhobuzimskoye",
    "state_id": "6490ef33-df02-4053-9af2-968cabd94ab6"
  },
  {
    "id": "4c6b75b7-8da1-4ee4-a591-3aa6443a32c1",
    "name": "Svetlogorsk",
    "state_id": "6490ef33-df02-4053-9af2-968cabd94ab6"
  },
  {
    "id": "40cd2a34-d1a3-4802-a7c2-537d16aebc2d",
    "name": "Talnakh",
    "state_id": "6490ef33-df02-4053-9af2-968cabd94ab6"
  },
  {
    "id": "1632d8a6-2f3c-4389-91b8-e27f8602662d",
    "name": "Tanzybey",
    "state_id": "6490ef33-df02-4053-9af2-968cabd94ab6"
  },
  {
    "id": "ef6eac72-7fcb-44e1-b6f5-d91425339a38",
    "name": "Taseyevo",
    "state_id": "6490ef33-df02-4053-9af2-968cabd94ab6"
  },
  {
    "id": "fe9b2b25-b525-4417-a2a8-6776d38d39d8",
    "name": "Taymyrsky Dolgano-Nenetsky District",
    "state_id": "6490ef33-df02-4053-9af2-968cabd94ab6"
  },
  {
    "id": "a5f9822e-f6ef-4479-b7f0-70cb8c19e317",
    "name": "Teya",
    "state_id": "6490ef33-df02-4053-9af2-968cabd94ab6"
  },
  {
    "id": "93355b82-4fa7-4bac-92be-8b80e401138b",
    "name": "Tinskoy",
    "state_id": "6490ef33-df02-4053-9af2-968cabd94ab6"
  },
  {
    "id": "614dfde9-1e71-4839-acdc-ce890b78ee1b",
    "name": "Tura",
    "state_id": "6490ef33-df02-4053-9af2-968cabd94ab6"
  },
  {
    "id": "a2b8d8e3-386e-4546-bc04-63ce1bf61e02",
    "name": "Turukhansk",
    "state_id": "6490ef33-df02-4053-9af2-968cabd94ab6"
  },
  {
    "id": "b327c4d5-2edb-46f7-a6a6-fcbc6ad79b4a",
    "name": "Tyukhtet",
    "state_id": "6490ef33-df02-4053-9af2-968cabd94ab6"
  },
  {
    "id": "bb09c993-6992-4c9f-846b-9da5555bf47b",
    "name": "Ural",
    "state_id": "6490ef33-df02-4053-9af2-968cabd94ab6"
  },
  {
    "id": "58334ee9-ab58-41c6-9388-4da916a3a95c",
    "name": "Uyar",
    "state_id": "6490ef33-df02-4053-9af2-968cabd94ab6"
  },
  {
    "id": "5ad3de0c-7425-4378-90a8-8d1e1dee0af6",
    "name": "Uyarskiy Rayon",
    "state_id": "6490ef33-df02-4053-9af2-968cabd94ab6"
  },
  {
    "id": "cc9f522b-34c7-4240-a577-38f632b7726b",
    "name": "Uzhur",
    "state_id": "6490ef33-df02-4053-9af2-968cabd94ab6"
  },
  {
    "id": "34819c54-2fd9-454d-bff0-ad51bd37ae3b",
    "name": "Vanavara",
    "state_id": "6490ef33-df02-4053-9af2-968cabd94ab6"
  },
  {
    "id": "5181cb81-af76-40c3-889a-21fab913c2e6",
    "name": "Yemel’yanovo",
    "state_id": "6490ef33-df02-4053-9af2-968cabd94ab6"
  },
  {
    "id": "cfaa0337-969c-4ab2-8251-ca019d69a002",
    "name": "Yemel’yanovskiy Rayon",
    "state_id": "6490ef33-df02-4053-9af2-968cabd94ab6"
  },
  {
    "id": "fdda84a0-dc74-4b69-8559-ab7f64f95541",
    "name": "Yeniseysk",
    "state_id": "6490ef33-df02-4053-9af2-968cabd94ab6"
  },
  {
    "id": "bb1096c1-951e-434f-8ae9-b716817e57b5",
    "name": "Yeniseyskiy Rayon",
    "state_id": "6490ef33-df02-4053-9af2-968cabd94ab6"
  },
  {
    "id": "09801461-c2dd-4f65-bc90-c67d85149cc2",
    "name": "Yermakovskoye",
    "state_id": "6490ef33-df02-4053-9af2-968cabd94ab6"
  },
  {
    "id": "f434dc2c-0efe-4eae-99de-41dd108a4fd3",
    "name": "Zelenogorsk",
    "state_id": "6490ef33-df02-4053-9af2-968cabd94ab6"
  },
  {
    "id": "f1990919-cc1a-46be-9ced-406623a468a2",
    "name": "Zelënyy Bor",
    "state_id": "6490ef33-df02-4053-9af2-968cabd94ab6"
  },
  {
    "id": "ba5e2c6b-563f-4552-b1ab-0378c0a24456",
    "name": "Zheleznogorsk",
    "state_id": "6490ef33-df02-4053-9af2-968cabd94ab6"
  },
  {
    "id": "bf968243-4d9a-462a-879a-edf83b68d9e4",
    "name": "Zykovo",
    "state_id": "6490ef33-df02-4053-9af2-968cabd94ab6"
  }
]