[
  {
    "id": "7a5c40bf-c4aa-4f87-be20-39d0ff4e702b",
    "name": "Eket",
    "state_id": "65374802-3206-44b5-8482-5403ab4f90a1"
  },
  {
    "id": "d7a735dc-18c2-49ce-9b20-eb2d3c66bb1f",
    "name": "Esuk Oron",
    "state_id": "65374802-3206-44b5-8482-5403ab4f90a1"
  },
  {
    "id": "5f54316d-9bbc-4063-a6d2-24ece0a5610c",
    "name": "Ikot Ekpene",
    "state_id": "65374802-3206-44b5-8482-5403ab4f90a1"
  },
  {
    "id": "0c2865b6-cca5-425d-a9f1-a305e4f124ef",
    "name": "Itu",
    "state_id": "65374802-3206-44b5-8482-5403ab4f90a1"
  },
  {
    "id": "1b318e93-59c5-462c-817c-1e994dfb05e8",
    "name": "Uyo",
    "state_id": "65374802-3206-44b5-8482-5403ab4f90a1"
  }
]