[
  {
    "id": "069d38bb-e959-49f6-9002-1c4838a3e1c2",
    "name": "Abou el Hassan",
    "state_id": "65b3adad-f6b9-4fac-9b70-77d4025bacba"
  },
  {
    "id": "6a495cad-ee0b-4bf9-a9c6-0fc6deb7c1ed",
    "name": "Boukadir",
    "state_id": "65b3adad-f6b9-4fac-9b70-77d4025bacba"
  },
  {
    "id": "7aa6457e-6014-43da-9652-d776d17eee05",
    "name": "Chlef",
    "state_id": "65b3adad-f6b9-4fac-9b70-77d4025bacba"
  },
  {
    "id": "edbf3247-0678-4750-8097-1c9cee498234",
    "name": "Ech Chettia",
    "state_id": "65b3adad-f6b9-4fac-9b70-77d4025bacba"
  },
  {
    "id": "49400c6e-9e34-4a2a-8653-95365f0434be",
    "name": "Oued Fodda",
    "state_id": "65b3adad-f6b9-4fac-9b70-77d4025bacba"
  },
  {
    "id": "46727304-cdec-463b-b9b0-b1f20ff69493",
    "name": "Oued Sly",
    "state_id": "65b3adad-f6b9-4fac-9b70-77d4025bacba"
  },
  {
    "id": "d8358f71-a837-4df4-8fab-85cb468ffe73",
    "name": "Sidi Akkacha",
    "state_id": "65b3adad-f6b9-4fac-9b70-77d4025bacba"
  }
]