[
  {
    "id": "6e1acb61-6f96-4d5a-a454-f54101ee0f4e",
    "name": "Babynino",
    "state_id": "65e9020a-081f-4ddb-838c-883a128f3edf"
  },
  {
    "id": "5d751ea5-5886-42d8-800a-934346dd38a7",
    "name": "Babyninskiy Rayon",
    "state_id": "65e9020a-081f-4ddb-838c-883a128f3edf"
  },
  {
    "id": "8bc9abef-3b9f-4ce3-96ed-2ef5ea992460",
    "name": "Balabanovo",
    "state_id": "65e9020a-081f-4ddb-838c-883a128f3edf"
  },
  {
    "id": "2b95c2b0-28b1-4de1-927f-05d100667bde",
    "name": "Baryatino",
    "state_id": "65e9020a-081f-4ddb-838c-883a128f3edf"
  },
  {
    "id": "43e1f5cc-97b0-4ee7-bbfa-5da5a83ce313",
    "name": "Baryatinskiy Rayon",
    "state_id": "65e9020a-081f-4ddb-838c-883a128f3edf"
  },
  {
    "id": "fe6f2ecf-c19a-40a3-b5ae-6585b3e4cc3d",
    "name": "Belousovo",
    "state_id": "65e9020a-081f-4ddb-838c-883a128f3edf"
  },
  {
    "id": "3eb6c8dd-ae4e-4934-9b7e-f16078e80b2f",
    "name": "Betlitsa",
    "state_id": "65e9020a-081f-4ddb-838c-883a128f3edf"
  },
  {
    "id": "cec6c9c6-ab2a-4bc4-9f94-3408399aa6b4",
    "name": "Borovsk",
    "state_id": "65e9020a-081f-4ddb-838c-883a128f3edf"
  },
  {
    "id": "95bae1e8-ae4c-4439-9ce0-0de53f4c3775",
    "name": "Borovskiy Rayon",
    "state_id": "65e9020a-081f-4ddb-838c-883a128f3edf"
  },
  {
    "id": "a9ad9108-e7b2-4562-834d-9d99c7fe8510",
    "name": "Deshovki",
    "state_id": "65e9020a-081f-4ddb-838c-883a128f3edf"
  },
  {
    "id": "0687155a-fe5a-4ea8-859b-55a7c58817be",
    "name": "Detchino",
    "state_id": "65e9020a-081f-4ddb-838c-883a128f3edf"
  },
  {
    "id": "8b9c7452-1541-4318-ba1d-c51c16f7b8f3",
    "name": "Duminichi",
    "state_id": "65e9020a-081f-4ddb-838c-883a128f3edf"
  },
  {
    "id": "28133e1c-7e3d-4ce3-8723-16e460b9a122",
    "name": "Duminichskiy Rayon",
    "state_id": "65e9020a-081f-4ddb-838c-883a128f3edf"
  },
  {
    "id": "a2f92357-6ce3-4d0d-815a-be100052081e",
    "name": "Dvortsy",
    "state_id": "65e9020a-081f-4ddb-838c-883a128f3edf"
  },
  {
    "id": "536c58d7-7928-4c1d-b840-0caf75a4ae0f",
    "name": "Dzerzhinskiy Rayon",
    "state_id": "65e9020a-081f-4ddb-838c-883a128f3edf"
  },
  {
    "id": "dfbe2da1-5ae4-423b-bd6b-69edfefaef77",
    "name": "Ferzikovo",
    "state_id": "65e9020a-081f-4ddb-838c-883a128f3edf"
  },
  {
    "id": "925d97f0-8072-412d-8131-c5cc6c1f6728",
    "name": "Ferzikovskiy Rayon",
    "state_id": "65e9020a-081f-4ddb-838c-883a128f3edf"
  },
  {
    "id": "a5d11ff4-f575-426b-a739-7fab29132892",
    "name": "Iznoski",
    "state_id": "65e9020a-081f-4ddb-838c-883a128f3edf"
  },
  {
    "id": "03c27c56-13ab-4f99-84e5-e27c0427268f",
    "name": "Iznoskovskiy rayon",
    "state_id": "65e9020a-081f-4ddb-838c-883a128f3edf"
  },
  {
    "id": "89586e9c-6897-4378-81f7-f8803ed4b6fb",
    "name": "Kaluga",
    "state_id": "65e9020a-081f-4ddb-838c-883a128f3edf"
  },
  {
    "id": "439a37c5-26ab-4206-bcd2-54bbea26947b",
    "name": "Khvastovichi",
    "state_id": "65e9020a-081f-4ddb-838c-883a128f3edf"
  },
  {
    "id": "66cc28ea-e718-4542-9257-faa35292d180",
    "name": "Khvastovichskiy Rayon",
    "state_id": "65e9020a-081f-4ddb-838c-883a128f3edf"
  },
  {
    "id": "234dec84-edd5-4096-8eee-2e67fd9f0831",
    "name": "Kirov",
    "state_id": "65e9020a-081f-4ddb-838c-883a128f3edf"
  },
  {
    "id": "05fbba6d-18d5-4180-947c-f93f0beb12af",
    "name": "Kirovskiy Rayon",
    "state_id": "65e9020a-081f-4ddb-838c-883a128f3edf"
  },
  {
    "id": "d7431daf-e49b-42f9-90c7-2cb7da645998",
    "name": "Kondrovo",
    "state_id": "65e9020a-081f-4ddb-838c-883a128f3edf"
  },
  {
    "id": "7ab626e1-997f-4e9f-a645-0e1f19b5589a",
    "name": "Kozel’sk",
    "state_id": "65e9020a-081f-4ddb-838c-883a128f3edf"
  },
  {
    "id": "14c12f26-b0ec-47a6-a1f5-1690a019863b",
    "name": "Kozel’skiy Rayon",
    "state_id": "65e9020a-081f-4ddb-838c-883a128f3edf"
  },
  {
    "id": "2229c113-1e85-40f1-8efb-fba2994f3810",
    "name": "Kremenki",
    "state_id": "65e9020a-081f-4ddb-838c-883a128f3edf"
  },
  {
    "id": "ecac50a8-95ad-45ea-99d1-b3687c428be0",
    "name": "Kudinovo",
    "state_id": "65e9020a-081f-4ddb-838c-883a128f3edf"
  },
  {
    "id": "4a6e0402-4388-4cb6-976c-63d568a4422a",
    "name": "Kurovskoye",
    "state_id": "65e9020a-081f-4ddb-838c-883a128f3edf"
  },
  {
    "id": "08c8e5da-39ac-4e2f-b9dd-092eab714ca0",
    "name": "Kuybyshevskiy Rayon",
    "state_id": "65e9020a-081f-4ddb-838c-883a128f3edf"
  },
  {
    "id": "15749670-4019-4a83-b1b9-a9a498bebc5a",
    "name": "Lyudinovo",
    "state_id": "65e9020a-081f-4ddb-838c-883a128f3edf"
  },
  {
    "id": "db8e81e2-0906-4309-bcd1-0abc61d87875",
    "name": "Lyudinovskiy Rayon",
    "state_id": "65e9020a-081f-4ddb-838c-883a128f3edf"
  },
  {
    "id": "aa35a910-9067-478c-9227-c304496a2554",
    "name": "Maloyaroslavets",
    "state_id": "65e9020a-081f-4ddb-838c-883a128f3edf"
  },
  {
    "id": "d5824428-4ee2-4bc4-b9ad-054645db5295",
    "name": "Maloyaroslavetskiy Rayon",
    "state_id": "65e9020a-081f-4ddb-838c-883a128f3edf"
  },
  {
    "id": "2889a398-02ad-452f-a9bb-2d6d8a306dec",
    "name": "Medyn’",
    "state_id": "65e9020a-081f-4ddb-838c-883a128f3edf"
  },
  {
    "id": "96d3214f-e3e7-49e1-a5f0-f7c35d42cf76",
    "name": "Medynskiy Rayon",
    "state_id": "65e9020a-081f-4ddb-838c-883a128f3edf"
  },
  {
    "id": "dcdf39ce-a226-4300-bfea-94e2ea6aaf08",
    "name": "Meshchovsk",
    "state_id": "65e9020a-081f-4ddb-838c-883a128f3edf"
  },
  {
    "id": "77bb6776-9f46-4fd1-94c2-b639c2099ba4",
    "name": "Meshchovskiy Rayon",
    "state_id": "65e9020a-081f-4ddb-838c-883a128f3edf"
  },
  {
    "id": "686f8e85-6204-473b-8340-2892ac49690f",
    "name": "Mosal’sk",
    "state_id": "65e9020a-081f-4ddb-838c-883a128f3edf"
  },
  {
    "id": "f161b922-796d-41c6-9cb9-79509fa34675",
    "name": "Mosal’skiy Rayon",
    "state_id": "65e9020a-081f-4ddb-838c-883a128f3edf"
  },
  {
    "id": "714de97a-4f36-401f-8bbf-e15a8338a87b",
    "name": "Mstikhino",
    "state_id": "65e9020a-081f-4ddb-838c-883a128f3edf"
  },
  {
    "id": "d55a07bf-f811-4499-aa4a-904df525a20a",
    "name": "Myatlevo",
    "state_id": "65e9020a-081f-4ddb-838c-883a128f3edf"
  },
  {
    "id": "9a389bf3-24c4-4cdb-b313-688fc49f547c",
    "name": "Nikola-Lenivets",
    "state_id": "65e9020a-081f-4ddb-838c-883a128f3edf"
  },
  {
    "id": "c3258910-5cc2-4f21-8f44-35592da8d760",
    "name": "Obninsk",
    "state_id": "65e9020a-081f-4ddb-838c-883a128f3edf"
  },
  {
    "id": "bdecb9fc-f85b-4906-adee-c54193c18581",
    "name": "Peremyshl’",
    "state_id": "65e9020a-081f-4ddb-838c-883a128f3edf"
  },
  {
    "id": "e07e3f49-51c5-4783-a33b-0258304f90b6",
    "name": "Peremyshl’skiy Rayon",
    "state_id": "65e9020a-081f-4ddb-838c-883a128f3edf"
  },
  {
    "id": "2813bd15-3fdf-4619-b8f0-4f5171a59b34",
    "name": "Polotnyanyy Zavod",
    "state_id": "65e9020a-081f-4ddb-838c-883a128f3edf"
  },
  {
    "id": "dcfb5861-ac26-4277-9c5f-1f7bf11d2726",
    "name": "Pyatovskiy",
    "state_id": "65e9020a-081f-4ddb-838c-883a128f3edf"
  },
  {
    "id": "acbdcb0b-b84b-48f4-8449-fee97471868f",
    "name": "Seredeyskiy",
    "state_id": "65e9020a-081f-4ddb-838c-883a128f3edf"
  },
  {
    "id": "0f757c75-9f2a-4cbf-bff6-7ccd3179a4eb",
    "name": "Sosenskiy",
    "state_id": "65e9020a-081f-4ddb-838c-883a128f3edf"
  },
  {
    "id": "5f347031-d1fb-4a9b-915a-46363790bc68",
    "name": "Spas-Demensk",
    "state_id": "65e9020a-081f-4ddb-838c-883a128f3edf"
  },
  {
    "id": "85af8b44-de32-4fbc-8d65-574de332f2a0",
    "name": "Spas-Demenskiy Rayon",
    "state_id": "65e9020a-081f-4ddb-838c-883a128f3edf"
  },
  {
    "id": "b3623872-2e97-4885-9aa5-bef9ef1903a7",
    "name": "Sukhinichi",
    "state_id": "65e9020a-081f-4ddb-838c-883a128f3edf"
  },
  {
    "id": "53087f9a-d4ca-4fe4-98f2-36233589ff6b",
    "name": "Sukhinichskiy Rayon",
    "state_id": "65e9020a-081f-4ddb-838c-883a128f3edf"
  },
  {
    "id": "5efe5f92-2460-4d28-a176-a54c105b84ea",
    "name": "Tarusa",
    "state_id": "65e9020a-081f-4ddb-838c-883a128f3edf"
  },
  {
    "id": "6addd391-2344-47ac-8c8d-f9c85cd8d23d",
    "name": "Tarusskiy Rayon",
    "state_id": "65e9020a-081f-4ddb-838c-883a128f3edf"
  },
  {
    "id": "6cec71c9-4257-49d7-8117-61f64aa298ab",
    "name": "Tovarkovo",
    "state_id": "65e9020a-081f-4ddb-838c-883a128f3edf"
  },
  {
    "id": "0ad18bd3-c610-41ef-bfea-d5d88993ffb1",
    "name": "Ul’yanovskiy Rayon",
    "state_id": "65e9020a-081f-4ddb-838c-883a128f3edf"
  },
  {
    "id": "b53c3855-2a10-4860-b144-5ccfcb2b82a1",
    "name": "Vorotynsk",
    "state_id": "65e9020a-081f-4ddb-838c-883a128f3edf"
  },
  {
    "id": "76f2be7e-e308-45ba-aa36-95d190c6f9af",
    "name": "Vysokinichi",
    "state_id": "65e9020a-081f-4ddb-838c-883a128f3edf"
  },
  {
    "id": "f5171ddd-3f8f-4c92-8223-337857ac22ed",
    "name": "Yermolino",
    "state_id": "65e9020a-081f-4ddb-838c-883a128f3edf"
  },
  {
    "id": "0a1b1c92-ed51-4310-b22d-73be6ce21e2d",
    "name": "Yukhnov",
    "state_id": "65e9020a-081f-4ddb-838c-883a128f3edf"
  },
  {
    "id": "5a9f873c-5476-4dac-bf1f-58a0383a92fb",
    "name": "Yukhnovskiy Rayon",
    "state_id": "65e9020a-081f-4ddb-838c-883a128f3edf"
  },
  {
    "id": "88c1e79f-1820-451d-afcf-042cfd7e00b7",
    "name": "Zarech’ye",
    "state_id": "65e9020a-081f-4ddb-838c-883a128f3edf"
  },
  {
    "id": "437a36a3-fe30-4b99-a376-54c49f9f9e6c",
    "name": "Zhiletovo",
    "state_id": "65e9020a-081f-4ddb-838c-883a128f3edf"
  },
  {
    "id": "c9a92b58-ea8b-4400-9b2a-a4eb8d4ff7e4",
    "name": "Zhizdra",
    "state_id": "65e9020a-081f-4ddb-838c-883a128f3edf"
  },
  {
    "id": "eded9e33-726b-43e9-aa15-a84876e47473",
    "name": "Zhizdrinskiy Rayon",
    "state_id": "65e9020a-081f-4ddb-838c-883a128f3edf"
  },
  {
    "id": "f0a832d9-b17d-4841-ae34-63c898db5974",
    "name": "Zhukovo",
    "state_id": "65e9020a-081f-4ddb-838c-883a128f3edf"
  },
  {
    "id": "8b92af1e-9a32-42af-b606-ab460b58a2c1",
    "name": "Zhukovskiy Rayon",
    "state_id": "65e9020a-081f-4ddb-838c-883a128f3edf"
  }
]