[
  {
    "id": "e25d6259-bdf6-4775-ae16-e6fad470cf63",
    "name": "Avdiyivka",
    "state_id": "65ffe4c8-fe62-4a68-98ce-693a6e9dfe30"
  },
  {
    "id": "60c99465-46aa-4afd-9566-e599d0e8132b",
    "name": "Bakhmach",
    "state_id": "65ffe4c8-fe62-4a68-98ce-693a6e9dfe30"
  },
  {
    "id": "67315c44-5fc2-41b5-b33c-e17094531dd5",
    "name": "Baturyn",
    "state_id": "65ffe4c8-fe62-4a68-98ce-693a6e9dfe30"
  },
  {
    "id": "6fc8149e-3dc5-4ce4-ab30-6b968a570a7e",
    "name": "Berezna",
    "state_id": "65ffe4c8-fe62-4a68-98ce-693a6e9dfe30"
  },
  {
    "id": "13688d42-0439-4cfd-9696-7162a4959086",
    "name": "Bobrovytsya",
    "state_id": "65ffe4c8-fe62-4a68-98ce-693a6e9dfe30"
  },
  {
    "id": "1c394f7e-8fe3-4065-be90-22a69936150e",
    "name": "Borzna",
    "state_id": "65ffe4c8-fe62-4a68-98ce-693a6e9dfe30"
  },
  {
    "id": "f7b6545b-aae6-497f-a130-7e07c545a1f6",
    "name": "Chernihiv",
    "state_id": "65ffe4c8-fe62-4a68-98ce-693a6e9dfe30"
  },
  {
    "id": "b9c208b9-a937-4f86-8c22-ef0a14d2c4d6",
    "name": "Chernihiv Raion",
    "state_id": "65ffe4c8-fe62-4a68-98ce-693a6e9dfe30"
  },
  {
    "id": "17fbe7bc-b1dd-46e8-a726-807c3d7107a7",
    "name": "Chernihivs’ka Mis’krada",
    "state_id": "65ffe4c8-fe62-4a68-98ce-693a6e9dfe30"
  },
  {
    "id": "37f7c328-0355-4608-94d4-5d0d1cf5f338",
    "name": "Desna",
    "state_id": "65ffe4c8-fe62-4a68-98ce-693a6e9dfe30"
  },
  {
    "id": "1195188a-6a64-45f4-a440-801bdc667cf0",
    "name": "Dihtyari",
    "state_id": "65ffe4c8-fe62-4a68-98ce-693a6e9dfe30"
  },
  {
    "id": "346ea57a-7057-4a08-8a67-a0db7c8f8016",
    "name": "Dobryanka",
    "state_id": "65ffe4c8-fe62-4a68-98ce-693a6e9dfe30"
  },
  {
    "id": "37530d2d-3e77-4033-908a-05074c3be60c",
    "name": "Horodnya",
    "state_id": "65ffe4c8-fe62-4a68-98ce-693a6e9dfe30"
  },
  {
    "id": "a2778660-525f-4aba-b0db-d1146a4ef44d",
    "name": "Ichnya",
    "state_id": "65ffe4c8-fe62-4a68-98ce-693a6e9dfe30"
  },
  {
    "id": "ed1c940a-25c9-4fba-a2f8-b928f0596ecd",
    "name": "Kholmy",
    "state_id": "65ffe4c8-fe62-4a68-98ce-693a6e9dfe30"
  },
  {
    "id": "441d6e34-4693-4cbb-9631-c53f5b66477b",
    "name": "Kobyzhcha",
    "state_id": "65ffe4c8-fe62-4a68-98ce-693a6e9dfe30"
  },
  {
    "id": "23f3c079-e574-4b1e-943d-74471058f8b3",
    "name": "Korop",
    "state_id": "65ffe4c8-fe62-4a68-98ce-693a6e9dfe30"
  },
  {
    "id": "22a33477-b57e-4190-8c8d-b8b46077f9f8",
    "name": "Koryukivka",
    "state_id": "65ffe4c8-fe62-4a68-98ce-693a6e9dfe30"
  },
  {
    "id": "4ebe4fc9-32d7-48ae-b051-5ebfdf125cd3",
    "name": "Kozelets’",
    "state_id": "65ffe4c8-fe62-4a68-98ce-693a6e9dfe30"
  },
  {
    "id": "73444f3e-8c68-4350-b3f4-23f9304ef005",
    "name": "Kruty",
    "state_id": "65ffe4c8-fe62-4a68-98ce-693a6e9dfe30"
  },
  {
    "id": "98483c1d-c78c-4b75-8a94-2b968bbc0f8a",
    "name": "Kulykivka",
    "state_id": "65ffe4c8-fe62-4a68-98ce-693a6e9dfe30"
  },
  {
    "id": "29cd8745-7ad8-431f-b1df-ed0723b7066c",
    "name": "Ladan",
    "state_id": "65ffe4c8-fe62-4a68-98ce-693a6e9dfe30"
  },
  {
    "id": "b27b3a56-da58-4255-8287-993a26b6874b",
    "name": "Lisovi Sorochyntsi",
    "state_id": "65ffe4c8-fe62-4a68-98ce-693a6e9dfe30"
  },
  {
    "id": "edab45f3-a422-4c2a-9bad-7866bdb6e05e",
    "name": "Lyubech",
    "state_id": "65ffe4c8-fe62-4a68-98ce-693a6e9dfe30"
  },
  {
    "id": "4dc289da-9c55-4432-9bb2-383f7cba5624",
    "name": "Mena",
    "state_id": "65ffe4c8-fe62-4a68-98ce-693a6e9dfe30"
  },
  {
    "id": "37fea8c3-b438-4cb3-b520-22778ee9109a",
    "name": "Mens’kyy Rayon",
    "state_id": "65ffe4c8-fe62-4a68-98ce-693a6e9dfe30"
  },
  {
    "id": "a359aa21-05a3-4c6c-8188-549887107736",
    "name": "Nizhyn",
    "state_id": "65ffe4c8-fe62-4a68-98ce-693a6e9dfe30"
  },
  {
    "id": "436e4da1-bc2e-4b77-a6ff-b42ec80bc1c1",
    "name": "Nosivka",
    "state_id": "65ffe4c8-fe62-4a68-98ce-693a6e9dfe30"
  },
  {
    "id": "935001e4-9ec4-4b21-9022-4d63113b6393",
    "name": "Novhorod-Sivers’kyy",
    "state_id": "65ffe4c8-fe62-4a68-98ce-693a6e9dfe30"
  },
  {
    "id": "0b1a158c-d561-4da5-ab44-b907045e74f4",
    "name": "Olyshivka",
    "state_id": "65ffe4c8-fe62-4a68-98ce-693a6e9dfe30"
  },
  {
    "id": "09219a91-23e8-4562-bf77-72e6df6c5688",
    "name": "Oster",
    "state_id": "65ffe4c8-fe62-4a68-98ce-693a6e9dfe30"
  },
  {
    "id": "653ab27e-aacd-43ee-a7f9-0fb640582b49",
    "name": "Pryluky",
    "state_id": "65ffe4c8-fe62-4a68-98ce-693a6e9dfe30"
  },
  {
    "id": "cbe42f1b-566d-4489-ab1e-8d355b99f457",
    "name": "Ripky",
    "state_id": "65ffe4c8-fe62-4a68-98ce-693a6e9dfe30"
  },
  {
    "id": "7de1936f-306f-4b81-ae6d-76dba3306a10",
    "name": "Sedniv",
    "state_id": "65ffe4c8-fe62-4a68-98ce-693a6e9dfe30"
  },
  {
    "id": "4f7120af-bb44-4f35-b390-85ec1475a5db",
    "name": "Semenivka",
    "state_id": "65ffe4c8-fe62-4a68-98ce-693a6e9dfe30"
  },
  {
    "id": "fa427a64-dcb5-4544-986f-310042d0f354",
    "name": "Shchors",
    "state_id": "65ffe4c8-fe62-4a68-98ce-693a6e9dfe30"
  },
  {
    "id": "555be4ec-8053-4088-9651-ca352a0d5f51",
    "name": "Snovs'kyy Rayon",
    "state_id": "65ffe4c8-fe62-4a68-98ce-693a6e9dfe30"
  },
  {
    "id": "9ffff8d2-24e6-47a8-be1f-4523a447feba",
    "name": "Sosnytsya",
    "state_id": "65ffe4c8-fe62-4a68-98ce-693a6e9dfe30"
  },
  {
    "id": "988a0216-d3b2-45fb-8a82-74af2696e31c",
    "name": "Sribne",
    "state_id": "65ffe4c8-fe62-4a68-98ce-693a6e9dfe30"
  },
  {
    "id": "a0918e1d-5e4e-4bf1-bbbe-51ec0f308884",
    "name": "Varva",
    "state_id": "65ffe4c8-fe62-4a68-98ce-693a6e9dfe30"
  },
  {
    "id": "15708967-0107-47c5-a9d6-6b6bb49d375d",
    "name": "Zhuravka",
    "state_id": "65ffe4c8-fe62-4a68-98ce-693a6e9dfe30"
  }
]