[
  {
    "id": "d2dc05a1-dd74-4a5a-9119-62df5ffb5bf0",
    "name": "Amberley",
    "state_id": "6635d4cc-07df-4c3c-bd45-9138193a3d04"
  },
  {
    "id": "38d48409-77bb-4ab3-bb38-2349f0e997f3",
    "name": "Ashburton",
    "state_id": "6635d4cc-07df-4c3c-bd45-9138193a3d04"
  },
  {
    "id": "2a8cfe7f-864d-4c15-bbaa-8e7e481f6738",
    "name": "Ashburton District",
    "state_id": "6635d4cc-07df-4c3c-bd45-9138193a3d04"
  },
  {
    "id": "44c5fb4f-3644-4ad0-a1da-758af578db7c",
    "name": "Burnham",
    "state_id": "6635d4cc-07df-4c3c-bd45-9138193a3d04"
  },
  {
    "id": "437e6ace-f34e-4914-8e11-3d20f627fdda",
    "name": "Christchurch",
    "state_id": "6635d4cc-07df-4c3c-bd45-9138193a3d04"
  },
  {
    "id": "72790509-a3b0-45ee-926c-41b91990a67b",
    "name": "Christchurch City",
    "state_id": "6635d4cc-07df-4c3c-bd45-9138193a3d04"
  },
  {
    "id": "1d0f57a5-db54-414a-b431-571e355c99a5",
    "name": "Darfield",
    "state_id": "6635d4cc-07df-4c3c-bd45-9138193a3d04"
  },
  {
    "id": "23a16f58-0018-441c-a6ac-abee7c4b287c",
    "name": "Geraldine",
    "state_id": "6635d4cc-07df-4c3c-bd45-9138193a3d04"
  },
  {
    "id": "af06f081-2973-490d-8efd-6a544bfeb586",
    "name": "Kaiapoi",
    "state_id": "6635d4cc-07df-4c3c-bd45-9138193a3d04"
  },
  {
    "id": "ab7a2fe0-ee28-4823-91c8-070a884269d4",
    "name": "Leeston",
    "state_id": "6635d4cc-07df-4c3c-bd45-9138193a3d04"
  },
  {
    "id": "481c884b-be9e-4b60-b424-31e66b44ad02",
    "name": "Lincoln",
    "state_id": "6635d4cc-07df-4c3c-bd45-9138193a3d04"
  },
  {
    "id": "9cfdd693-ef3b-4eb1-94b1-357c8ae6dc8b",
    "name": "Mackenzie District",
    "state_id": "6635d4cc-07df-4c3c-bd45-9138193a3d04"
  },
  {
    "id": "beef524d-997a-4ac8-b4b6-14c460191e4a",
    "name": "Methven",
    "state_id": "6635d4cc-07df-4c3c-bd45-9138193a3d04"
  },
  {
    "id": "bfe4397c-716a-449b-8c4f-b85d0a796302",
    "name": "Oxford",
    "state_id": "6635d4cc-07df-4c3c-bd45-9138193a3d04"
  },
  {
    "id": "106bdd2d-5ae4-42e6-82b9-999f3163c636",
    "name": "Pleasant Point",
    "state_id": "6635d4cc-07df-4c3c-bd45-9138193a3d04"
  },
  {
    "id": "3f709389-26b5-421d-9bad-0ff3a1a25598",
    "name": "Prebbleton",
    "state_id": "6635d4cc-07df-4c3c-bd45-9138193a3d04"
  },
  {
    "id": "e07d9287-9d69-4bc9-980e-5efeac355aff",
    "name": "Rakaia",
    "state_id": "6635d4cc-07df-4c3c-bd45-9138193a3d04"
  },
  {
    "id": "18f5b544-1dd6-4a95-8b57-c9456448cbc1",
    "name": "Rolleston",
    "state_id": "6635d4cc-07df-4c3c-bd45-9138193a3d04"
  },
  {
    "id": "9f2b9a6c-2aa4-462a-9313-8a54cbbac376",
    "name": "Selwyn District",
    "state_id": "6635d4cc-07df-4c3c-bd45-9138193a3d04"
  },
  {
    "id": "315da7a6-63f6-43b7-98bd-72659a31f470",
    "name": "Timaru",
    "state_id": "6635d4cc-07df-4c3c-bd45-9138193a3d04"
  },
  {
    "id": "e698488f-112d-4293-8afa-6c8dbb09b424",
    "name": "Timaru District",
    "state_id": "6635d4cc-07df-4c3c-bd45-9138193a3d04"
  },
  {
    "id": "7534cdca-3bc7-47dc-84d8-164c90fcb076",
    "name": "Tinwald",
    "state_id": "6635d4cc-07df-4c3c-bd45-9138193a3d04"
  },
  {
    "id": "4693edd8-27b6-40b9-8d64-9e8dd40879e2",
    "name": "Waimakariri District",
    "state_id": "6635d4cc-07df-4c3c-bd45-9138193a3d04"
  },
  {
    "id": "3c87c9b4-29bf-4746-b99b-2fbfeeced90b",
    "name": "Woodend",
    "state_id": "6635d4cc-07df-4c3c-bd45-9138193a3d04"
  }
]