[
  {
    "id": "1fbf2e58-e22e-4445-85e7-bffc0822d072",
    "name": "Bua Province",
    "state_id": "66ac8e4c-7924-4c9b-8df9-1b504b147162"
  },
  {
    "id": "4d48f1f8-a6d3-46fd-a464-d6470a76a620",
    "name": "Cakaudrove Province",
    "state_id": "66ac8e4c-7924-4c9b-8df9-1b504b147162"
  },
  {
    "id": "18947438-ea2d-4d00-b0de-0c8eae3539c0",
    "name": "Labasa",
    "state_id": "66ac8e4c-7924-4c9b-8df9-1b504b147162"
  },
  {
    "id": "7af0278e-9a68-4557-9c6f-4b765ff62f2d",
    "name": "Macuata Province",
    "state_id": "66ac8e4c-7924-4c9b-8df9-1b504b147162"
  }
]