[
  {
    "id": "62b90bb4-b7a9-482e-824d-3bda17afd73d",
    "name": "Åkarp",
    "state_id": "66cae9da-6968-4d7f-b1d7-0e091860e0e8"
  },
  {
    "id": "cdf7116c-8471-4231-a89a-f6c750dee1f7",
    "name": "Alafors",
    "state_id": "66cae9da-6968-4d7f-b1d7-0e091860e0e8"
  },
  {
    "id": "e8f3f360-484b-4d7e-b91b-b1c016922021",
    "name": "Alingsås",
    "state_id": "66cae9da-6968-4d7f-b1d7-0e091860e0e8"
  },
  {
    "id": "8b02dd7c-5510-4441-af9e-e44799703610",
    "name": "Älvängen",
    "state_id": "66cae9da-6968-4d7f-b1d7-0e091860e0e8"
  },
  {
    "id": "d27f2675-e7c7-498c-8c2f-a6a7ac516c59",
    "name": "Åmål",
    "state_id": "66cae9da-6968-4d7f-b1d7-0e091860e0e8"
  },
  {
    "id": "11736804-8933-45f9-a858-69095ca96557",
    "name": "Andalen",
    "state_id": "66cae9da-6968-4d7f-b1d7-0e091860e0e8"
  },
  {
    "id": "47856781-5fe9-4a5e-9b06-7750e6fcbddc",
    "name": "Anderstorp",
    "state_id": "66cae9da-6968-4d7f-b1d7-0e091860e0e8"
  },
  {
    "id": "218072c0-a94c-4399-b002-c348c4b3fa96",
    "name": "Angered",
    "state_id": "66cae9da-6968-4d7f-b1d7-0e091860e0e8"
  },
  {
    "id": "b8c75f2f-0f44-4b56-8efc-22e5159a01ff",
    "name": "Annelund",
    "state_id": "66cae9da-6968-4d7f-b1d7-0e091860e0e8"
  },
  {
    "id": "745c416c-c906-4b09-bfa3-da8b83007274",
    "name": "Axvall",
    "state_id": "66cae9da-6968-4d7f-b1d7-0e091860e0e8"
  },
  {
    "id": "55a60e32-e035-4581-8022-6d160e0881e3",
    "name": "Bengtsfors",
    "state_id": "66cae9da-6968-4d7f-b1d7-0e091860e0e8"
  },
  {
    "id": "bbaa70ca-a422-4f77-b675-d7ad5792da60",
    "name": "Billdal",
    "state_id": "66cae9da-6968-4d7f-b1d7-0e091860e0e8"
  },
  {
    "id": "25f14810-3902-4738-a6be-ee0fdef50932",
    "name": "Billingsfors",
    "state_id": "66cae9da-6968-4d7f-b1d7-0e091860e0e8"
  },
  {
    "id": "d5c71c32-5caa-4711-877c-6861aa127a3e",
    "name": "Björboholm",
    "state_id": "66cae9da-6968-4d7f-b1d7-0e091860e0e8"
  },
  {
    "id": "468ddba5-4278-4485-a643-71e3254571ef",
    "name": "Björkö",
    "state_id": "66cae9da-6968-4d7f-b1d7-0e091860e0e8"
  },
  {
    "id": "4c55b549-f82d-49ab-8910-ce40130363ef",
    "name": "Björlanda",
    "state_id": "66cae9da-6968-4d7f-b1d7-0e091860e0e8"
  },
  {
    "id": "2a4e820a-fcaa-4bff-9b0d-4fd2db52155b",
    "name": "Bollebygd",
    "state_id": "66cae9da-6968-4d7f-b1d7-0e091860e0e8"
  },
  {
    "id": "16bd5d90-9ad7-4608-9cc4-6d1ee32427de",
    "name": "Borås",
    "state_id": "66cae9da-6968-4d7f-b1d7-0e091860e0e8"
  },
  {
    "id": "d470a0cc-6850-4347-9e1d-98abcb9a3162",
    "name": "Brålanda",
    "state_id": "66cae9da-6968-4d7f-b1d7-0e091860e0e8"
  },
  {
    "id": "c0bc28a8-f018-47a4-980b-13bff8ef89d5",
    "name": "Brastad",
    "state_id": "66cae9da-6968-4d7f-b1d7-0e091860e0e8"
  },
  {
    "id": "929f5ab0-f934-4563-8ca5-129b5716d83c",
    "name": "Dals Långed",
    "state_id": "66cae9da-6968-4d7f-b1d7-0e091860e0e8"
  },
  {
    "id": "ada82e04-b29f-4abe-b23a-3a7b89799093",
    "name": "Dalsjöfors",
    "state_id": "66cae9da-6968-4d7f-b1d7-0e091860e0e8"
  },
  {
    "id": "860b40b7-a096-473b-98bb-6aab584da9a0",
    "name": "Diseröd",
    "state_id": "66cae9da-6968-4d7f-b1d7-0e091860e0e8"
  },
  {
    "id": "b2e55547-f71d-45ac-9399-8d1a96eec1c2",
    "name": "Donsö",
    "state_id": "66cae9da-6968-4d7f-b1d7-0e091860e0e8"
  },
  {
    "id": "fd75ed1d-f1ad-4bfd-b2a6-f2f1122427c8",
    "name": "Ed",
    "state_id": "66cae9da-6968-4d7f-b1d7-0e091860e0e8"
  },
  {
    "id": "6b4360d2-0c82-468b-adda-39faf0c330de",
    "name": "Ellös",
    "state_id": "66cae9da-6968-4d7f-b1d7-0e091860e0e8"
  },
  {
    "id": "45e576e4-e71f-44bc-a5fe-147a2115d5f0",
    "name": "Eriksbo",
    "state_id": "66cae9da-6968-4d7f-b1d7-0e091860e0e8"
  },
  {
    "id": "2a8ed34c-19a6-4449-886f-bffd3de930fb",
    "name": "Falköping",
    "state_id": "66cae9da-6968-4d7f-b1d7-0e091860e0e8"
  },
  {
    "id": "27bf9bb8-4dea-44f1-9f45-b81d8164e5da",
    "name": "Färgelanda",
    "state_id": "66cae9da-6968-4d7f-b1d7-0e091860e0e8"
  },
  {
    "id": "b50671e1-e0db-470b-ac4f-7fb28cbb44e8",
    "name": "Floby",
    "state_id": "66cae9da-6968-4d7f-b1d7-0e091860e0e8"
  },
  {
    "id": "a69af182-3c23-4be4-af55-7f02086b3d13",
    "name": "Fristad",
    "state_id": "66cae9da-6968-4d7f-b1d7-0e091860e0e8"
  },
  {
    "id": "7502b993-fb80-4f07-9d9d-2aabf99f9846",
    "name": "Fritsla",
    "state_id": "66cae9da-6968-4d7f-b1d7-0e091860e0e8"
  },
  {
    "id": "c7a3bdb1-c3df-4713-a2fc-ad73c14c5078",
    "name": "Furulund",
    "state_id": "66cae9da-6968-4d7f-b1d7-0e091860e0e8"
  },
  {
    "id": "6a987cdf-c8c2-4ae8-8133-abbbcabff293",
    "name": "Gånghester",
    "state_id": "66cae9da-6968-4d7f-b1d7-0e091860e0e8"
  },
  {
    "id": "b72f28b7-eab4-43f3-a0ab-cf87ea9495b9",
    "name": "Gårdsten",
    "state_id": "66cae9da-6968-4d7f-b1d7-0e091860e0e8"
  },
  {
    "id": "374b3295-3a64-46e3-b994-a682646926e4",
    "name": "Göta",
    "state_id": "66cae9da-6968-4d7f-b1d7-0e091860e0e8"
  },
  {
    "id": "dfc7a24d-5d64-4589-b730-bbef1e50ec09",
    "name": "Göteborg",
    "state_id": "66cae9da-6968-4d7f-b1d7-0e091860e0e8"
  },
  {
    "id": "bd6e7ec5-ae8e-4f75-9a5c-f325dbb07fd4",
    "name": "Göteborgs stad",
    "state_id": "66cae9da-6968-4d7f-b1d7-0e091860e0e8"
  },
  {
    "id": "e4fe1b7d-0663-4248-8e94-33eccd5fe0e2",
    "name": "Götene",
    "state_id": "66cae9da-6968-4d7f-b1d7-0e091860e0e8"
  },
  {
    "id": "2e8601e5-f7e1-4f78-9152-23b63ab21f97",
    "name": "Gråbo",
    "state_id": "66cae9da-6968-4d7f-b1d7-0e091860e0e8"
  },
  {
    "id": "23259580-5be6-446d-b517-9672c4548ce7",
    "name": "Grästorp",
    "state_id": "66cae9da-6968-4d7f-b1d7-0e091860e0e8"
  },
  {
    "id": "831365ec-e638-41df-9235-448b1783e16a",
    "name": "Grebbestad",
    "state_id": "66cae9da-6968-4d7f-b1d7-0e091860e0e8"
  },
  {
    "id": "14cd6d34-412c-4c17-80b3-1b1a55bbd68a",
    "name": "Gullspång",
    "state_id": "66cae9da-6968-4d7f-b1d7-0e091860e0e8"
  },
  {
    "id": "f44ab950-6e4b-4bf2-8217-7bbf6ea32774",
    "name": "Hammarkullen",
    "state_id": "66cae9da-6968-4d7f-b1d7-0e091860e0e8"
  },
  {
    "id": "4610edba-8ac2-480d-a7a2-9f9ebe7f2ab9",
    "name": "Henån",
    "state_id": "66cae9da-6968-4d7f-b1d7-0e091860e0e8"
  },
  {
    "id": "863d9c40-9746-42bd-a2ae-c4401aa01b91",
    "name": "Herrljunga",
    "state_id": "66cae9da-6968-4d7f-b1d7-0e091860e0e8"
  },
  {
    "id": "44738dec-cc03-4adf-b313-a29e05e189d7",
    "name": "Hindås",
    "state_id": "66cae9da-6968-4d7f-b1d7-0e091860e0e8"
  },
  {
    "id": "eb8939ec-47f8-4e14-a2b8-955a23c3cfef",
    "name": "Hjo",
    "state_id": "66cae9da-6968-4d7f-b1d7-0e091860e0e8"
  },
  {
    "id": "0c7c145b-9364-41bf-b6a6-b4e1c76c9cbb",
    "name": "Hjuvik",
    "state_id": "66cae9da-6968-4d7f-b1d7-0e091860e0e8"
  },
  {
    "id": "86538167-3c14-4c2d-a623-f8ac8be1de9a",
    "name": "Hönö",
    "state_id": "66cae9da-6968-4d7f-b1d7-0e091860e0e8"
  },
  {
    "id": "6689cd62-804e-4a3f-ba9d-f84e1b411f98",
    "name": "Horred",
    "state_id": "66cae9da-6968-4d7f-b1d7-0e091860e0e8"
  },
  {
    "id": "c54068ce-b68d-4f85-9c1c-1618eaa8f508",
    "name": "Hova",
    "state_id": "66cae9da-6968-4d7f-b1d7-0e091860e0e8"
  },
  {
    "id": "34ce0d14-1e65-454e-901e-445f6572ebb9",
    "name": "Höviksnäs",
    "state_id": "66cae9da-6968-4d7f-b1d7-0e091860e0e8"
  },
  {
    "id": "843f5f51-2ac9-4afd-80f5-7ab056be77a7",
    "name": "Hunnebostrand",
    "state_id": "66cae9da-6968-4d7f-b1d7-0e091860e0e8"
  },
  {
    "id": "cc756933-c0d7-47a0-9360-c7b610508304",
    "name": "Ingared",
    "state_id": "66cae9da-6968-4d7f-b1d7-0e091860e0e8"
  },
  {
    "id": "44860d49-22ba-45f1-a75e-884103ab5650",
    "name": "Jonstorp",
    "state_id": "66cae9da-6968-4d7f-b1d7-0e091860e0e8"
  },
  {
    "id": "32834a8e-1b75-404f-9077-8b2b9b4838cf",
    "name": "Jörlanda",
    "state_id": "66cae9da-6968-4d7f-b1d7-0e091860e0e8"
  },
  {
    "id": "941aea70-588d-41d2-bebd-efec0d31042f",
    "name": "Källby",
    "state_id": "66cae9da-6968-4d7f-b1d7-0e091860e0e8"
  },
  {
    "id": "0edae8a8-3332-46e8-a1a8-e1b69e343f27",
    "name": "Kållered",
    "state_id": "66cae9da-6968-4d7f-b1d7-0e091860e0e8"
  },
  {
    "id": "7c0b5641-cb8d-489c-8ce6-ca8c95a04fd6",
    "name": "Karlsborg",
    "state_id": "66cae9da-6968-4d7f-b1d7-0e091860e0e8"
  },
  {
    "id": "f52a4b86-30db-4893-9e40-78cccce10d9c",
    "name": "Kinna",
    "state_id": "66cae9da-6968-4d7f-b1d7-0e091860e0e8"
  },
  {
    "id": "06f026bd-81c8-49f3-986c-803bf77f5b03",
    "name": "Kode",
    "state_id": "66cae9da-6968-4d7f-b1d7-0e091860e0e8"
  },
  {
    "id": "11e8a17d-e958-4374-984a-27363c91bd27",
    "name": "Kungälv",
    "state_id": "66cae9da-6968-4d7f-b1d7-0e091860e0e8"
  },
  {
    "id": "66232dec-86ab-44a7-992c-7f534b5dd6de",
    "name": "Kungshamn",
    "state_id": "66cae9da-6968-4d7f-b1d7-0e091860e0e8"
  },
  {
    "id": "30fc5b8b-1c29-4376-926b-54bb36728d2b",
    "name": "Kvänum",
    "state_id": "66cae9da-6968-4d7f-b1d7-0e091860e0e8"
  },
  {
    "id": "1c3ea0ce-3139-46f8-a464-b498dd5fe3b9",
    "name": "Landvetter",
    "state_id": "66cae9da-6968-4d7f-b1d7-0e091860e0e8"
  },
  {
    "id": "cc2fa149-ecfb-43c6-bea3-d3bf56501b97",
    "name": "Länghem",
    "state_id": "66cae9da-6968-4d7f-b1d7-0e091860e0e8"
  },
  {
    "id": "24fa8d46-40e7-4344-a2d1-a691874fa69a",
    "name": "Lerum",
    "state_id": "66cae9da-6968-4d7f-b1d7-0e091860e0e8"
  },
  {
    "id": "68f2e6df-b6b6-4e95-92a9-754de02e6c94",
    "name": "Lidköping",
    "state_id": "66cae9da-6968-4d7f-b1d7-0e091860e0e8"
  },
  {
    "id": "87f184ee-4bdc-489f-baf0-18ddac516b6f",
    "name": "Lilla Edet",
    "state_id": "66cae9da-6968-4d7f-b1d7-0e091860e0e8"
  },
  {
    "id": "f10d5f6f-6a8f-4415-9bd7-3b198ef223ac",
    "name": "Limmared",
    "state_id": "66cae9da-6968-4d7f-b1d7-0e091860e0e8"
  },
  {
    "id": "00b8183a-f34a-4126-8653-15f53f89b6de",
    "name": "Lindome",
    "state_id": "66cae9da-6968-4d7f-b1d7-0e091860e0e8"
  },
  {
    "id": "9906f2bb-4384-4c9b-9d66-44e7102ceaf2",
    "name": "Ljungskile",
    "state_id": "66cae9da-6968-4d7f-b1d7-0e091860e0e8"
  },
  {
    "id": "de70a323-760c-4cd6-b6d9-1294dacfe89b",
    "name": "Lödöse",
    "state_id": "66cae9da-6968-4d7f-b1d7-0e091860e0e8"
  },
  {
    "id": "73c936a4-755b-4ef3-9abf-6fd6f70e3db8",
    "name": "Lövgärdet",
    "state_id": "66cae9da-6968-4d7f-b1d7-0e091860e0e8"
  },
  {
    "id": "dad982bc-f67c-4f9e-823b-97ab86928ec6",
    "name": "Lysekil",
    "state_id": "66cae9da-6968-4d7f-b1d7-0e091860e0e8"
  },
  {
    "id": "8927c0fd-e6d1-4745-88df-8ec7293bda6d",
    "name": "Majorna",
    "state_id": "66cae9da-6968-4d7f-b1d7-0e091860e0e8"
  },
  {
    "id": "a5416d05-6f19-48a9-b0e7-da2a86990846",
    "name": "Mariestad",
    "state_id": "66cae9da-6968-4d7f-b1d7-0e091860e0e8"
  },
  {
    "id": "e7749d56-9b4e-402c-84c6-cad8709c3034",
    "name": "Mellerud",
    "state_id": "66cae9da-6968-4d7f-b1d7-0e091860e0e8"
  },
  {
    "id": "59b17568-27f2-48ec-a6e1-0a5c5c541794",
    "name": "Mölltorp",
    "state_id": "66cae9da-6968-4d7f-b1d7-0e091860e0e8"
  },
  {
    "id": "5890fed5-d51f-4f0b-b67a-eaf4dc1290c4",
    "name": "Mölndal",
    "state_id": "66cae9da-6968-4d7f-b1d7-0e091860e0e8"
  },
  {
    "id": "decf1296-8aa5-4184-8c4f-5c02de8b62b1",
    "name": "Mölnlycke",
    "state_id": "66cae9da-6968-4d7f-b1d7-0e091860e0e8"
  },
  {
    "id": "6f373ce5-2fb3-4225-a9d3-56299fcf39b3",
    "name": "Munkedal",
    "state_id": "66cae9da-6968-4d7f-b1d7-0e091860e0e8"
  },
  {
    "id": "c487ff67-b716-414c-b9c9-55bd26676070",
    "name": "Myggenäs",
    "state_id": "66cae9da-6968-4d7f-b1d7-0e091860e0e8"
  },
  {
    "id": "d41ad901-6f5d-4e24-9331-fefd8ae1c97e",
    "name": "Nolvik",
    "state_id": "66cae9da-6968-4d7f-b1d7-0e091860e0e8"
  },
  {
    "id": "2bbbe45d-6130-4250-bbd5-bca2a4c70817",
    "name": "Nossebro",
    "state_id": "66cae9da-6968-4d7f-b1d7-0e091860e0e8"
  },
  {
    "id": "07d11138-32bd-4c2d-9a45-7f556d48022e",
    "name": "Öckerö",
    "state_id": "66cae9da-6968-4d7f-b1d7-0e091860e0e8"
  },
  {
    "id": "d2c5def1-ea54-4728-b0c4-3fd5bced2c43",
    "name": "Ödsmål",
    "state_id": "66cae9da-6968-4d7f-b1d7-0e091860e0e8"
  },
  {
    "id": "d1a14b6d-8758-4c92-a96a-65ac80c837cf",
    "name": "Öjersjö",
    "state_id": "66cae9da-6968-4d7f-b1d7-0e091860e0e8"
  },
  {
    "id": "d3df80c9-935b-4a02-8685-819a0cc90f4b",
    "name": "Olofstorp",
    "state_id": "66cae9da-6968-4d7f-b1d7-0e091860e0e8"
  },
  {
    "id": "8805a32f-d071-4f1b-8eba-3b6237ce3d17",
    "name": "Olstorp",
    "state_id": "66cae9da-6968-4d7f-b1d7-0e091860e0e8"
  },
  {
    "id": "9721c10b-e1bb-497f-a137-2989f67115ad",
    "name": "Orust",
    "state_id": "66cae9da-6968-4d7f-b1d7-0e091860e0e8"
  },
  {
    "id": "58b91f6b-96de-43f5-a03c-ee37b6eb4e08",
    "name": "Partille",
    "state_id": "66cae9da-6968-4d7f-b1d7-0e091860e0e8"
  },
  {
    "id": "fc0d569d-49ee-44b0-a526-ce4efee5ae65",
    "name": "Rannebergen",
    "state_id": "66cae9da-6968-4d7f-b1d7-0e091860e0e8"
  },
  {
    "id": "f001d115-ae35-492c-ab69-bf09dc6d9685",
    "name": "Rävlanda",
    "state_id": "66cae9da-6968-4d7f-b1d7-0e091860e0e8"
  },
  {
    "id": "8b150480-a5e9-431b-b019-69db9ee3e69e",
    "name": "Rönnäng",
    "state_id": "66cae9da-6968-4d7f-b1d7-0e091860e0e8"
  },
  {
    "id": "8c39cfb8-f3ae-4b9e-a2ca-693aaa47f52c",
    "name": "Sålanda",
    "state_id": "66cae9da-6968-4d7f-b1d7-0e091860e0e8"
  },
  {
    "id": "a3a6b44d-b067-4954-ab5a-2f31bd5057af",
    "name": "Sandared",
    "state_id": "66cae9da-6968-4d7f-b1d7-0e091860e0e8"
  },
  {
    "id": "5f6b24ab-abb1-42eb-8f52-4d4690442a50",
    "name": "Sätila",
    "state_id": "66cae9da-6968-4d7f-b1d7-0e091860e0e8"
  },
  {
    "id": "f28fecf3-ca8b-43fd-9b2d-f472db7868f2",
    "name": "Sjömarken",
    "state_id": "66cae9da-6968-4d7f-b1d7-0e091860e0e8"
  },
  {
    "id": "d3555786-d7cf-46ce-badd-cd7bd0b0ddad",
    "name": "Sjuntorp",
    "state_id": "66cae9da-6968-4d7f-b1d7-0e091860e0e8"
  },
  {
    "id": "85be4f50-8681-438a-969b-f1dc840ef2ac",
    "name": "Skara",
    "state_id": "66cae9da-6968-4d7f-b1d7-0e091860e0e8"
  },
  {
    "id": "1d1720ad-5725-484d-a50f-219cb221dded",
    "name": "Skärhamn",
    "state_id": "66cae9da-6968-4d7f-b1d7-0e091860e0e8"
  },
  {
    "id": "2be791db-8c82-4ff6-ab54-e81a14cd6af4",
    "name": "Skepplanda",
    "state_id": "66cae9da-6968-4d7f-b1d7-0e091860e0e8"
  },
  {
    "id": "b4c744a7-4353-4ec0-bbc6-05655b6bd8d2",
    "name": "Skövde",
    "state_id": "66cae9da-6968-4d7f-b1d7-0e091860e0e8"
  },
  {
    "id": "5f3bac5a-84a2-465e-a5e1-01e91ea2e6c2",
    "name": "Skultorp",
    "state_id": "66cae9da-6968-4d7f-b1d7-0e091860e0e8"
  },
  {
    "id": "a9c15754-3ac8-48a3-83df-c4a6bb8bd33a",
    "name": "Smögen",
    "state_id": "66cae9da-6968-4d7f-b1d7-0e091860e0e8"
  },
  {
    "id": "3df0f078-0b8a-42f0-b6fc-a9651b42c8e3",
    "name": "Sollebrunn",
    "state_id": "66cae9da-6968-4d7f-b1d7-0e091860e0e8"
  },
  {
    "id": "5929ed27-14fc-4c78-b63e-ec31e504fe61",
    "name": "Stenkullen",
    "state_id": "66cae9da-6968-4d7f-b1d7-0e091860e0e8"
  },
  {
    "id": "dbe86eae-43a4-462d-a057-20b823930b1d",
    "name": "Stenstorp",
    "state_id": "66cae9da-6968-4d7f-b1d7-0e091860e0e8"
  },
  {
    "id": "7e29e583-3725-4acb-acc9-dc3554336103",
    "name": "Stenungsund",
    "state_id": "66cae9da-6968-4d7f-b1d7-0e091860e0e8"
  },
  {
    "id": "8f245d4f-456f-4a7e-bf63-7704ccd5c22b",
    "name": "Stöpen",
    "state_id": "66cae9da-6968-4d7f-b1d7-0e091860e0e8"
  },
  {
    "id": "30fca557-1beb-42d3-b7da-ac1c5bb10492",
    "name": "Stora Höga",
    "state_id": "66cae9da-6968-4d7f-b1d7-0e091860e0e8"
  },
  {
    "id": "734d8296-e9f1-4a22-94e2-e966b4412d33",
    "name": "Strömstad",
    "state_id": "66cae9da-6968-4d7f-b1d7-0e091860e0e8"
  },
  {
    "id": "fe44f4c0-e13b-4c6d-90f7-e503d564ec9c",
    "name": "Styrsö",
    "state_id": "66cae9da-6968-4d7f-b1d7-0e091860e0e8"
  },
  {
    "id": "ef3462db-c015-4668-9fd7-d174041d44b9",
    "name": "Surte",
    "state_id": "66cae9da-6968-4d7f-b1d7-0e091860e0e8"
  },
  {
    "id": "30ce0446-44db-400a-93c2-db6fd93be1df",
    "name": "Svanesund",
    "state_id": "66cae9da-6968-4d7f-b1d7-0e091860e0e8"
  },
  {
    "id": "efd27ff7-915a-481c-b7b0-70b0354036bb",
    "name": "Svenljunga",
    "state_id": "66cae9da-6968-4d7f-b1d7-0e091860e0e8"
  },
  {
    "id": "758e3117-b628-438c-8811-628aeb2f03f9",
    "name": "Tanumshede",
    "state_id": "66cae9da-6968-4d7f-b1d7-0e091860e0e8"
  },
  {
    "id": "e30eb31f-1754-4679-ac3f-b564edc3433f",
    "name": "Tibro",
    "state_id": "66cae9da-6968-4d7f-b1d7-0e091860e0e8"
  },
  {
    "id": "e14f360a-e2e7-45d3-b0ed-b895c078c57b",
    "name": "Tidaholm",
    "state_id": "66cae9da-6968-4d7f-b1d7-0e091860e0e8"
  },
  {
    "id": "24b083ca-8241-4bd4-b9da-f2203c457257",
    "name": "Tjuvkil",
    "state_id": "66cae9da-6968-4d7f-b1d7-0e091860e0e8"
  },
  {
    "id": "54547be9-3355-4627-ad24-a94d98d2923b",
    "name": "Töreboda",
    "state_id": "66cae9da-6968-4d7f-b1d7-0e091860e0e8"
  },
  {
    "id": "d825edc1-6306-4099-a2dc-815750e03eea",
    "name": "Torslanda",
    "state_id": "66cae9da-6968-4d7f-b1d7-0e091860e0e8"
  },
  {
    "id": "41b8f4d4-08f6-4426-b64b-46525c848591",
    "name": "Tranemo",
    "state_id": "66cae9da-6968-4d7f-b1d7-0e091860e0e8"
  },
  {
    "id": "540b24ee-4853-49ee-9c84-3adbeb77c4b1",
    "name": "Trollhättan",
    "state_id": "66cae9da-6968-4d7f-b1d7-0e091860e0e8"
  },
  {
    "id": "168ca41a-f3b6-4821-ba67-efd1c73fa9cf",
    "name": "Uddevalla",
    "state_id": "66cae9da-6968-4d7f-b1d7-0e091860e0e8"
  },
  {
    "id": "7e0efcbc-9b42-4ef2-af04-f35052836dc1",
    "name": "Ulricehamn",
    "state_id": "66cae9da-6968-4d7f-b1d7-0e091860e0e8"
  },
  {
    "id": "03627964-b99a-4fe7-9dda-ff3f5fc0d961",
    "name": "Vänersborg",
    "state_id": "66cae9da-6968-4d7f-b1d7-0e091860e0e8"
  },
  {
    "id": "f0a23a64-99d8-46f4-8adc-6e0ce69db020",
    "name": "Vara",
    "state_id": "66cae9da-6968-4d7f-b1d7-0e091860e0e8"
  },
  {
    "id": "90b87c23-587c-4ea9-a822-aeae5e673b83",
    "name": "Vårgårda",
    "state_id": "66cae9da-6968-4d7f-b1d7-0e091860e0e8"
  },
  {
    "id": "405ee2b4-ef16-4263-9932-2cfcae70ea65",
    "name": "Vargön",
    "state_id": "66cae9da-6968-4d7f-b1d7-0e091860e0e8"
  },
  {
    "id": "6df4268a-6f09-4124-b80a-265d7eb051df",
    "name": "Västra Frölunda",
    "state_id": "66cae9da-6968-4d7f-b1d7-0e091860e0e8"
  },
  {
    "id": "b6df9277-697b-475e-b4ce-9541bbb09f3e",
    "name": "Vinninga",
    "state_id": "66cae9da-6968-4d7f-b1d7-0e091860e0e8"
  },
  {
    "id": "9ebcfb5c-390b-429a-adfd-65d89af9ed6e",
    "name": "Viskafors",
    "state_id": "66cae9da-6968-4d7f-b1d7-0e091860e0e8"
  }
]