[
  {
    "id": "243f4573-4a89-4a79-9833-fcf77aad9c1c",
    "name": "Al Jabin",
    "state_id": "670ba4c8-6df1-4a3e-af40-e3c54b753b67"
  },
  {
    "id": "367fef43-3826-43f9-bcf0-7b94fa9d117a",
    "name": "Al Jafariyah",
    "state_id": "670ba4c8-6df1-4a3e-af40-e3c54b753b67"
  },
  {
    "id": "47171486-e2b4-41b5-96dd-226a2f0886bc",
    "name": "As Salafiyah",
    "state_id": "670ba4c8-6df1-4a3e-af40-e3c54b753b67"
  },
  {
    "id": "debc9b22-0585-444a-9a29-63c19d98d483",
    "name": "Bilad At Ta'am",
    "state_id": "670ba4c8-6df1-4a3e-af40-e3c54b753b67"
  },
  {
    "id": "582afa3d-e007-4db2-a695-74630734ac9d",
    "name": "Kusmah",
    "state_id": "670ba4c8-6df1-4a3e-af40-e3c54b753b67"
  },
  {
    "id": "568d23cc-1f3d-4ced-a459-f861ab832233",
    "name": "Mazhar",
    "state_id": "670ba4c8-6df1-4a3e-af40-e3c54b753b67"
  }
]