[
  {
    "id": "106647b7-4873-484a-9c1d-4a470ce89aab",
    "name": "Huyện Cái Bè",
    "state_id": "67924e3a-54c1-4464-999a-ee3cee459eb7"
  },
  {
    "id": "abe0ac17-aa66-4617-b39c-61b77d1afc51",
    "name": "Huyện Cai Lậy",
    "state_id": "67924e3a-54c1-4464-999a-ee3cee459eb7"
  },
  {
    "id": "a15f46c8-1c9a-4d6f-b96a-c3262de4a678",
    "name": "Huyện Châu Thành",
    "state_id": "67924e3a-54c1-4464-999a-ee3cee459eb7"
  },
  {
    "id": "0bf03e20-b50f-49e4-9acc-eaf37a5bb873",
    "name": "Huyện Chợ Gạo",
    "state_id": "67924e3a-54c1-4464-999a-ee3cee459eb7"
  },
  {
    "id": "81c588cf-2908-461e-8688-b34d762ff4fd",
    "name": "Huyện Gò Công Đông",
    "state_id": "67924e3a-54c1-4464-999a-ee3cee459eb7"
  },
  {
    "id": "4c05a9ab-a44a-49ca-887a-af20ee887f62",
    "name": "Huyện Gò Công Tây",
    "state_id": "67924e3a-54c1-4464-999a-ee3cee459eb7"
  },
  {
    "id": "6a8ca651-c2b3-46ed-b44b-a2dbe0a3d88b",
    "name": "Huyện Tân Phước",
    "state_id": "67924e3a-54c1-4464-999a-ee3cee459eb7"
  },
  {
    "id": "0ad18c69-62ca-43a4-9294-39f348c46333",
    "name": "Mỹ Tho",
    "state_id": "67924e3a-54c1-4464-999a-ee3cee459eb7"
  },
  {
    "id": "1e0268c2-8360-4386-ac9a-de30ea8dea1b",
    "name": "Thành Phố Mỹ Tho",
    "state_id": "67924e3a-54c1-4464-999a-ee3cee459eb7"
  },
  {
    "id": "c6fbb549-c967-4923-8de3-ca4c8e828d01",
    "name": "Thị Xã Gò Công",
    "state_id": "67924e3a-54c1-4464-999a-ee3cee459eb7"
  }
]