[
  {
    "id": "47e063a0-9f71-44e6-b116-32e5a352e453",
    "name": "Abyysky District",
    "state_id": "67fdc7ba-e026-4de5-9a88-75d00b6ed1e5"
  },
  {
    "id": "87ab07b1-de80-466f-934d-78b491f312e6",
    "name": "Aldan",
    "state_id": "67fdc7ba-e026-4de5-9a88-75d00b6ed1e5"
  },
  {
    "id": "87f4deb4-7ec5-465e-8f28-bd4f4a17bddf",
    "name": "Allaikhovskiy Rayon",
    "state_id": "67fdc7ba-e026-4de5-9a88-75d00b6ed1e5"
  },
  {
    "id": "3db99791-84ed-47ff-a8f5-00022099811d",
    "name": "Almaznyy",
    "state_id": "67fdc7ba-e026-4de5-9a88-75d00b6ed1e5"
  },
  {
    "id": "a742b1ab-e6d2-46cc-919d-450856bb1271",
    "name": "Amga",
    "state_id": "67fdc7ba-e026-4de5-9a88-75d00b6ed1e5"
  },
  {
    "id": "0e5c6164-1d3e-4a4b-baec-baef6892adfa",
    "name": "Anabarskiy Rayon",
    "state_id": "67fdc7ba-e026-4de5-9a88-75d00b6ed1e5"
  },
  {
    "id": "95b42a4f-8718-4771-8581-3913e957d53e",
    "name": "Aykhal",
    "state_id": "67fdc7ba-e026-4de5-9a88-75d00b6ed1e5"
  },
  {
    "id": "908d7161-430f-4ddc-b778-896e11ae8065",
    "name": "Batagay",
    "state_id": "67fdc7ba-e026-4de5-9a88-75d00b6ed1e5"
  },
  {
    "id": "11a553ad-259e-469f-b5a0-9258b0cf042f",
    "name": "Batagay-Alyta",
    "state_id": "67fdc7ba-e026-4de5-9a88-75d00b6ed1e5"
  },
  {
    "id": "a6ef19f0-91ff-42b6-8d19-4b93eb8c1be1",
    "name": "Belaya Gora",
    "state_id": "67fdc7ba-e026-4de5-9a88-75d00b6ed1e5"
  },
  {
    "id": "4496374e-735f-427a-8b41-0a887c81fa2f",
    "name": "Berdigestyakh",
    "state_id": "67fdc7ba-e026-4de5-9a88-75d00b6ed1e5"
  },
  {
    "id": "16f76e1e-ffe0-47ca-bf56-3ec991e7c38b",
    "name": "Berkakit",
    "state_id": "67fdc7ba-e026-4de5-9a88-75d00b6ed1e5"
  },
  {
    "id": "a232a6a7-3890-4dcd-9b6e-0dcbf9b9b1f5",
    "name": "Borogontsy",
    "state_id": "67fdc7ba-e026-4de5-9a88-75d00b6ed1e5"
  },
  {
    "id": "7aa7d7a6-1966-4815-bbdd-bd4ccec0f8fe",
    "name": "Bulunskiy Rayon",
    "state_id": "67fdc7ba-e026-4de5-9a88-75d00b6ed1e5"
  },
  {
    "id": "5b9a546d-29e5-4048-9aee-d7e441e6a6a5",
    "name": "Chernyshevskiy",
    "state_id": "67fdc7ba-e026-4de5-9a88-75d00b6ed1e5"
  },
  {
    "id": "623394ec-7764-49ed-ab3c-cbe5ab7d6753",
    "name": "Cherskiy",
    "state_id": "67fdc7ba-e026-4de5-9a88-75d00b6ed1e5"
  },
  {
    "id": "574ffc97-2b49-4222-93fc-a8f64435c989",
    "name": "Chokurdakh",
    "state_id": "67fdc7ba-e026-4de5-9a88-75d00b6ed1e5"
  },
  {
    "id": "16d20e23-d0ad-4dd4-9419-e7cac4ae4e68",
    "name": "Chul’man",
    "state_id": "67fdc7ba-e026-4de5-9a88-75d00b6ed1e5"
  },
  {
    "id": "7bb23666-aff9-45b8-bcb8-c6c551fcbaf0",
    "name": "Churapcha",
    "state_id": "67fdc7ba-e026-4de5-9a88-75d00b6ed1e5"
  },
  {
    "id": "8b56f48e-1389-414d-ab6f-ffbc809550d2",
    "name": "Deputatsky",
    "state_id": "67fdc7ba-e026-4de5-9a88-75d00b6ed1e5"
  },
  {
    "id": "46196f6b-b450-4682-b504-d71ff303a8ac",
    "name": "Dzhebariki-Khaya",
    "state_id": "67fdc7ba-e026-4de5-9a88-75d00b6ed1e5"
  },
  {
    "id": "86e03779-5cad-4834-b64f-d24b7bb190ba",
    "name": "Eveno-Bytantaysky National District",
    "state_id": "67fdc7ba-e026-4de5-9a88-75d00b6ed1e5"
  },
  {
    "id": "616b4941-1a49-4faa-8c27-3b928fbb68f1",
    "name": "Gornyy Rayon",
    "state_id": "67fdc7ba-e026-4de5-9a88-75d00b6ed1e5"
  },
  {
    "id": "3f425757-3b8d-4e78-b0e6-de77162a3e68",
    "name": "Kangalassy",
    "state_id": "67fdc7ba-e026-4de5-9a88-75d00b6ed1e5"
  },
  {
    "id": "aa329b5f-73a1-4b1a-a1e1-bfe6fff0a0b5",
    "name": "Khandyga",
    "state_id": "67fdc7ba-e026-4de5-9a88-75d00b6ed1e5"
  },
  {
    "id": "342260f7-c4ae-4af8-af26-d6f0e9c54755",
    "name": "Khatassy",
    "state_id": "67fdc7ba-e026-4de5-9a88-75d00b6ed1e5"
  },
  {
    "id": "0902bb71-0c8c-4293-93f6-8fb4a2443413",
    "name": "Kobyayskiy Rayon",
    "state_id": "67fdc7ba-e026-4de5-9a88-75d00b6ed1e5"
  },
  {
    "id": "7b8c5dd4-ba39-44b3-9185-128bc4ffb216",
    "name": "Kysyl-Syr",
    "state_id": "67fdc7ba-e026-4de5-9a88-75d00b6ed1e5"
  },
  {
    "id": "83397c56-0936-4e2d-a05a-211ff0bf2224",
    "name": "Lebedinyy",
    "state_id": "67fdc7ba-e026-4de5-9a88-75d00b6ed1e5"
  },
  {
    "id": "ff7c0592-8d85-4ed5-b324-99d6555dba1e",
    "name": "Leninskiy",
    "state_id": "67fdc7ba-e026-4de5-9a88-75d00b6ed1e5"
  },
  {
    "id": "db7ff2a7-61bd-4802-a623-122cd7ee2d14",
    "name": "Lensk",
    "state_id": "67fdc7ba-e026-4de5-9a88-75d00b6ed1e5"
  },
  {
    "id": "522eb8d3-5889-4233-b6db-c928ec0ebb02",
    "name": "Magan",
    "state_id": "67fdc7ba-e026-4de5-9a88-75d00b6ed1e5"
  },
  {
    "id": "144e5ded-8260-482e-be6e-7b1ecf4e6922",
    "name": "Markha",
    "state_id": "67fdc7ba-e026-4de5-9a88-75d00b6ed1e5"
  },
  {
    "id": "5cb62e43-d776-46a3-bf32-1b011bc1810d",
    "name": "Mayya",
    "state_id": "67fdc7ba-e026-4de5-9a88-75d00b6ed1e5"
  },
  {
    "id": "59c1e71f-a736-4900-b25c-3bd2f2bcaa9f",
    "name": "Mirninskiy Rayon",
    "state_id": "67fdc7ba-e026-4de5-9a88-75d00b6ed1e5"
  },
  {
    "id": "89fc23aa-4c5a-4034-8aef-87cb2037f95c",
    "name": "Mirny",
    "state_id": "67fdc7ba-e026-4de5-9a88-75d00b6ed1e5"
  },
  {
    "id": "24dae24f-3b64-4756-b3e3-e5e22710db05",
    "name": "Mokhsogollokh",
    "state_id": "67fdc7ba-e026-4de5-9a88-75d00b6ed1e5"
  },
  {
    "id": "36747b89-66d8-45b8-a086-77446b57904c",
    "name": "Momsky District",
    "state_id": "67fdc7ba-e026-4de5-9a88-75d00b6ed1e5"
  },
  {
    "id": "e6e158e4-8654-494f-993a-37e9efab04e7",
    "name": "Namskiy Rayon",
    "state_id": "67fdc7ba-e026-4de5-9a88-75d00b6ed1e5"
  },
  {
    "id": "ab1e3ea9-d321-43f8-b064-a9e0dc2b5c20",
    "name": "Namtsy",
    "state_id": "67fdc7ba-e026-4de5-9a88-75d00b6ed1e5"
  },
  {
    "id": "77cefd71-3daf-4fb0-93bf-2a97c03be44e",
    "name": "Neryungri",
    "state_id": "67fdc7ba-e026-4de5-9a88-75d00b6ed1e5"
  },
  {
    "id": "f396f3b5-450c-4a06-82dc-23e6d2c0cd0c",
    "name": "Nezhdaninskoe",
    "state_id": "67fdc7ba-e026-4de5-9a88-75d00b6ed1e5"
  },
  {
    "id": "913384da-0f19-442c-b944-96632c77510d",
    "name": "Nizhniy Bestyakh",
    "state_id": "67fdc7ba-e026-4de5-9a88-75d00b6ed1e5"
  },
  {
    "id": "6ff7f491-ffa2-4bdb-a7d7-2caae9155fff",
    "name": "Nizhniy Kuranakh",
    "state_id": "67fdc7ba-e026-4de5-9a88-75d00b6ed1e5"
  },
  {
    "id": "77ebeb3d-bc8e-4e00-b540-81d6c2f8cd8f",
    "name": "Nyurba",
    "state_id": "67fdc7ba-e026-4de5-9a88-75d00b6ed1e5"
  },
  {
    "id": "8c6e2137-51e9-4674-af59-2897eb4c9751",
    "name": "Nyurbinsky District",
    "state_id": "67fdc7ba-e026-4de5-9a88-75d00b6ed1e5"
  },
  {
    "id": "d3c20d95-c23d-420f-82ce-b35b495db08b",
    "name": "Olenyok",
    "state_id": "67fdc7ba-e026-4de5-9a88-75d00b6ed1e5"
  },
  {
    "id": "a606caf2-d98b-419d-823a-ceafab32776c",
    "name": "Olenyoksky District",
    "state_id": "67fdc7ba-e026-4de5-9a88-75d00b6ed1e5"
  },
  {
    "id": "925e6c53-cf6d-4421-9ea6-58fc0aa09c6d",
    "name": "Olyokminsk",
    "state_id": "67fdc7ba-e026-4de5-9a88-75d00b6ed1e5"
  },
  {
    "id": "b2373ea0-03f9-4e83-875c-3902adcfca3a",
    "name": "Olyokminsky District",
    "state_id": "67fdc7ba-e026-4de5-9a88-75d00b6ed1e5"
  },
  {
    "id": "cd1194c7-95a5-4361-86a9-d5e5ebc37daa",
    "name": "Oymyakonskiy District",
    "state_id": "67fdc7ba-e026-4de5-9a88-75d00b6ed1e5"
  },
  {
    "id": "ae2b3f5d-e23d-4c28-b988-3ff9a4f86fe6",
    "name": "Peleduy",
    "state_id": "67fdc7ba-e026-4de5-9a88-75d00b6ed1e5"
  },
  {
    "id": "63885c65-072e-4d6a-a59d-268861fbb69b",
    "name": "Pokrovsk",
    "state_id": "67fdc7ba-e026-4de5-9a88-75d00b6ed1e5"
  },
  {
    "id": "41ea08ab-b032-4295-a7a4-2fe8f9f6a4db",
    "name": "Sangar",
    "state_id": "67fdc7ba-e026-4de5-9a88-75d00b6ed1e5"
  },
  {
    "id": "b31b8430-1567-429f-8a5b-4bd07115f336",
    "name": "Saskylakh",
    "state_id": "67fdc7ba-e026-4de5-9a88-75d00b6ed1e5"
  },
  {
    "id": "22526c21-0f6c-4b52-acea-28052fe08f1d",
    "name": "Serebryanyy Bor",
    "state_id": "67fdc7ba-e026-4de5-9a88-75d00b6ed1e5"
  },
  {
    "id": "a14cfd74-e25f-4f6a-9d1c-b783b1694f40",
    "name": "Solnechnyy",
    "state_id": "67fdc7ba-e026-4de5-9a88-75d00b6ed1e5"
  },
  {
    "id": "d0b279d1-3604-41eb-afad-13e5b5b99dc5",
    "name": "Srednekolymsk",
    "state_id": "67fdc7ba-e026-4de5-9a88-75d00b6ed1e5"
  },
  {
    "id": "39567b2e-8c36-4043-b0ad-cee24ba3e6f2",
    "name": "Srednekolymsky District",
    "state_id": "67fdc7ba-e026-4de5-9a88-75d00b6ed1e5"
  },
  {
    "id": "5f964c07-80f5-4555-968e-ba9902c66774",
    "name": "Suntar",
    "state_id": "67fdc7ba-e026-4de5-9a88-75d00b6ed1e5"
  },
  {
    "id": "28e13bd9-d0f5-44a1-9576-aa8254bbf34d",
    "name": "Suntarskiy District",
    "state_id": "67fdc7ba-e026-4de5-9a88-75d00b6ed1e5"
  },
  {
    "id": "f5221e15-ded7-4795-a958-ba0783f043c9",
    "name": "Tabaga",
    "state_id": "67fdc7ba-e026-4de5-9a88-75d00b6ed1e5"
  },
  {
    "id": "fb958472-f053-4d45-a575-4850c3bfa496",
    "name": "Tiksi",
    "state_id": "67fdc7ba-e026-4de5-9a88-75d00b6ed1e5"
  },
  {
    "id": "e049b3bc-8a4f-47a5-98c4-c3aec18dd761",
    "name": "Tommot",
    "state_id": "67fdc7ba-e026-4de5-9a88-75d00b6ed1e5"
  },
  {
    "id": "92867450-e802-470e-a243-6ae1181b9b35",
    "name": "Tomponskiy District",
    "state_id": "67fdc7ba-e026-4de5-9a88-75d00b6ed1e5"
  },
  {
    "id": "fa0594c5-700e-441c-ad8d-a3f382a20bd8",
    "name": "Udachny",
    "state_id": "67fdc7ba-e026-4de5-9a88-75d00b6ed1e5"
  },
  {
    "id": "668687b0-9f9e-4eaa-984c-d3e3874cbc79",
    "name": "Ust-Aldansky District",
    "state_id": "67fdc7ba-e026-4de5-9a88-75d00b6ed1e5"
  },
  {
    "id": "7a56c914-ad4b-42fd-892f-3baae23909d2",
    "name": "Ust-Kuyga",
    "state_id": "67fdc7ba-e026-4de5-9a88-75d00b6ed1e5"
  },
  {
    "id": "43348172-0a92-4265-a905-992392f6bf2e",
    "name": "Ust-Maya",
    "state_id": "67fdc7ba-e026-4de5-9a88-75d00b6ed1e5"
  },
  {
    "id": "24990e9f-0f24-441d-b59e-f07436a6a697",
    "name": "Ust-Nera",
    "state_id": "67fdc7ba-e026-4de5-9a88-75d00b6ed1e5"
  },
  {
    "id": "6fa9bdba-7b9a-4a7f-84ba-f4cbb5074c8f",
    "name": "Ust’-Yanskiy Rayon",
    "state_id": "67fdc7ba-e026-4de5-9a88-75d00b6ed1e5"
  },
  {
    "id": "6a0d3f24-fa6f-4cf8-a663-acb33b7893ea",
    "name": "Verkhnekolymsky District",
    "state_id": "67fdc7ba-e026-4de5-9a88-75d00b6ed1e5"
  },
  {
    "id": "7d0cfa96-c877-4386-b076-c5a746d6ad02",
    "name": "Verkhnevilyuysk",
    "state_id": "67fdc7ba-e026-4de5-9a88-75d00b6ed1e5"
  },
  {
    "id": "d991b901-b029-4c79-a5ec-b41fbbf889a0",
    "name": "Verkhnevilyuysky District",
    "state_id": "67fdc7ba-e026-4de5-9a88-75d00b6ed1e5"
  },
  {
    "id": "e32db419-825e-4d47-ba7d-f07deabe7225",
    "name": "Verkhoyansk",
    "state_id": "67fdc7ba-e026-4de5-9a88-75d00b6ed1e5"
  },
  {
    "id": "70587c09-7c0f-46dd-9208-a5b21d964adb",
    "name": "Verkhoyansky District",
    "state_id": "67fdc7ba-e026-4de5-9a88-75d00b6ed1e5"
  },
  {
    "id": "727fa9c4-1008-41c4-8d14-66e81e32b61b",
    "name": "Vilyuysk",
    "state_id": "67fdc7ba-e026-4de5-9a88-75d00b6ed1e5"
  },
  {
    "id": "7f98d07d-0015-40a5-9002-8e793e8b7d7d",
    "name": "Vilyuyskiy Rayon",
    "state_id": "67fdc7ba-e026-4de5-9a88-75d00b6ed1e5"
  },
  {
    "id": "6e0a897c-db95-4685-bae3-a2b70c196088",
    "name": "Vilyuysky District",
    "state_id": "67fdc7ba-e026-4de5-9a88-75d00b6ed1e5"
  },
  {
    "id": "5b945530-905d-4c83-ac6f-a41693870aa2",
    "name": "Vitim",
    "state_id": "67fdc7ba-e026-4de5-9a88-75d00b6ed1e5"
  },
  {
    "id": "6fac90b4-51eb-47c0-929b-b34c2dd6ff85",
    "name": "Yakutsk",
    "state_id": "67fdc7ba-e026-4de5-9a88-75d00b6ed1e5"
  },
  {
    "id": "94db6713-5763-4329-b95a-6c8f15b1288b",
    "name": "Ytyk-Kyuyël’",
    "state_id": "67fdc7ba-e026-4de5-9a88-75d00b6ed1e5"
  },
  {
    "id": "033c71ac-94ba-4c7e-b3b1-efda17fa6ac9",
    "name": "Zhatay",
    "state_id": "67fdc7ba-e026-4de5-9a88-75d00b6ed1e5"
  },
  {
    "id": "a29633d3-00fb-47c3-870d-0c3e052a18fa",
    "name": "Zhigansk",
    "state_id": "67fdc7ba-e026-4de5-9a88-75d00b6ed1e5"
  },
  {
    "id": "2a7e0608-3423-4a0c-ae13-bffaedabc782",
    "name": "Zhigansky District",
    "state_id": "67fdc7ba-e026-4de5-9a88-75d00b6ed1e5"
  },
  {
    "id": "b8f2fc64-c71b-4ab8-abde-39eb051b9ce8",
    "name": "Zyryanka",
    "state_id": "67fdc7ba-e026-4de5-9a88-75d00b6ed1e5"
  }
]