[
  {
    "id": "0790f93c-1afb-4d0f-8c95-77dd3b537aff",
    "name": "Baraguá",
    "state_id": "684919d2-3b80-409b-bbc8-90969afd7ef7"
  },
  {
    "id": "b8273709-5ca6-4f05-9005-3b7ac6d022bb",
    "name": "Chambas",
    "state_id": "684919d2-3b80-409b-bbc8-90969afd7ef7"
  },
  {
    "id": "9b510e89-e4d4-4ff3-b0b2-c40037d5b255",
    "name": "Ciego de Ávila",
    "state_id": "684919d2-3b80-409b-bbc8-90969afd7ef7"
  },
  {
    "id": "bc77a36f-0e42-4867-92e7-6b4a6e0c1aa6",
    "name": "Ciro Redondo",
    "state_id": "684919d2-3b80-409b-bbc8-90969afd7ef7"
  },
  {
    "id": "7e699581-e9ed-48ef-a20d-8352f3269ca8",
    "name": "Florencia",
    "state_id": "684919d2-3b80-409b-bbc8-90969afd7ef7"
  },
  {
    "id": "a0035cc3-0c34-4628-9cfc-1824c2cd4ad7",
    "name": "Morón",
    "state_id": "684919d2-3b80-409b-bbc8-90969afd7ef7"
  },
  {
    "id": "3981b847-b805-4938-9f4e-f69b7731fc00",
    "name": "Municipio de Ciego de Ávila",
    "state_id": "684919d2-3b80-409b-bbc8-90969afd7ef7"
  },
  {
    "id": "42aa0cce-c12d-4035-847e-6cfeb7de1a71",
    "name": "Municipio de Morón",
    "state_id": "684919d2-3b80-409b-bbc8-90969afd7ef7"
  },
  {
    "id": "87c518d9-78b4-404c-8f90-afa457971a56",
    "name": "Primero de Enero",
    "state_id": "684919d2-3b80-409b-bbc8-90969afd7ef7"
  },
  {
    "id": "fc4b22fa-1f6a-40dd-9ffa-d67a0627274e",
    "name": "Venezuela",
    "state_id": "684919d2-3b80-409b-bbc8-90969afd7ef7"
  }
]