[
  {
    "id": "9f8b8332-1a56-455c-b424-c15bb8b2ebec",
    "name": "Bera",
    "state_id": "68cf908b-89d0-4dcc-8526-6a01e624a338"
  },
  {
    "id": "9a755526-be7c-471b-bd08-ef6f14a2678e",
    "name": "Bogra",
    "state_id": "68cf908b-89d0-4dcc-8526-6a01e624a338"
  },
  {
    "id": "c5640024-d751-413c-9758-66a65f167fa9",
    "name": "Chapai Nababganj",
    "state_id": "68cf908b-89d0-4dcc-8526-6a01e624a338"
  },
  {
    "id": "135222c3-bb6d-4059-b9a2-889979ce2831",
    "name": "Ishurdi",
    "state_id": "68cf908b-89d0-4dcc-8526-6a01e624a338"
  },
  {
    "id": "6399a50d-8a5a-4fd6-a927-8e345ce82b3e",
    "name": "Joypur Hāt",
    "state_id": "68cf908b-89d0-4dcc-8526-6a01e624a338"
  },
  {
    "id": "867a815d-f969-4990-a991-da09d76166fc",
    "name": "Joypurhat",
    "state_id": "68cf908b-89d0-4dcc-8526-6a01e624a338"
  },
  {
    "id": "d50634d0-ba0e-4d25-a4a5-dd869ecf2861",
    "name": "Mahasthangarh",
    "state_id": "68cf908b-89d0-4dcc-8526-6a01e624a338"
  },
  {
    "id": "887ce549-ce46-4734-bd89-db6232ae219d",
    "name": "Naogaon",
    "state_id": "68cf908b-89d0-4dcc-8526-6a01e624a338"
  },
  {
    "id": "ee706175-3a23-48b1-ae36-a21a49487862",
    "name": "Natore",
    "state_id": "68cf908b-89d0-4dcc-8526-6a01e624a338"
  },
  {
    "id": "248238e2-0ac1-4a6f-bd41-ea1a0a668095",
    "name": "Nawābganj",
    "state_id": "68cf908b-89d0-4dcc-8526-6a01e624a338"
  },
  {
    "id": "17e0dc52-aa46-4cae-85e8-d363df5c854c",
    "name": "Pabna",
    "state_id": "68cf908b-89d0-4dcc-8526-6a01e624a338"
  },
  {
    "id": "b453ba70-bcfa-4968-81d7-4d4d897ab2ba",
    "name": "Pār Naogaon",
    "state_id": "68cf908b-89d0-4dcc-8526-6a01e624a338"
  },
  {
    "id": "6d066b3f-0b95-4ca6-a786-f78ff7490087",
    "name": "Puthia",
    "state_id": "68cf908b-89d0-4dcc-8526-6a01e624a338"
  },
  {
    "id": "86dd5ac0-ba6b-4fee-bba2-99d6fa7e8af9",
    "name": "Rajshahi",
    "state_id": "68cf908b-89d0-4dcc-8526-6a01e624a338"
  },
  {
    "id": "20ee1d15-ad5e-4ed1-9a66-acae5b1fb559",
    "name": "Saidpur",
    "state_id": "68cf908b-89d0-4dcc-8526-6a01e624a338"
  },
  {
    "id": "fc32ebe6-aaf8-4d18-8a83-c44959937439",
    "name": "Shāhzādpur",
    "state_id": "68cf908b-89d0-4dcc-8526-6a01e624a338"
  },
  {
    "id": "a880df3d-47d5-4890-a1ac-541746e51b92",
    "name": "Shibganj",
    "state_id": "68cf908b-89d0-4dcc-8526-6a01e624a338"
  },
  {
    "id": "1729b340-9ada-49fe-b6ed-0192bc4756e2",
    "name": "Sirajganj",
    "state_id": "68cf908b-89d0-4dcc-8526-6a01e624a338"
  }
]