[
  {
    "id": "21b4fb44-b1ee-4da5-b65e-75ffb36a97cc",
    "name": "Bulolo",
    "state_id": "69c12c51-3d49-409e-88fd-34054386d300"
  },
  {
    "id": "73aa8047-696d-4640-bcce-e95d519f479c",
    "name": "Finschhafen",
    "state_id": "69c12c51-3d49-409e-88fd-34054386d300"
  },
  {
    "id": "fdd4c391-a6c4-48d2-88ea-b6d9b436a9e0",
    "name": "Huon Gulf",
    "state_id": "69c12c51-3d49-409e-88fd-34054386d300"
  },
  {
    "id": "e5ad8bd6-2ed4-4c77-9234-e11114e22836",
    "name": "Kabwum",
    "state_id": "69c12c51-3d49-409e-88fd-34054386d300"
  },
  {
    "id": "f908e9eb-d712-4132-a3c8-7ef9307152e9",
    "name": "Lae",
    "state_id": "69c12c51-3d49-409e-88fd-34054386d300"
  },
  {
    "id": "ca46e53c-8e90-4865-acc6-929cb3204355",
    "name": "Markham",
    "state_id": "69c12c51-3d49-409e-88fd-34054386d300"
  },
  {
    "id": "3cc7f81a-98aa-47c8-a80b-48a4e65a1aa1",
    "name": "Menyamya",
    "state_id": "69c12c51-3d49-409e-88fd-34054386d300"
  },
  {
    "id": "d79b0526-5b29-4d8f-8b33-b14c3107bb3f",
    "name": "Nawae",
    "state_id": "69c12c51-3d49-409e-88fd-34054386d300"
  },
  {
    "id": "6f629242-fcbf-40d9-bb36-b97ad292ded6",
    "name": "Tewai Siassi",
    "state_id": "69c12c51-3d49-409e-88fd-34054386d300"
  },
  {
    "id": "92a0258f-6e10-4a95-8492-c685dbda1e11",
    "name": "Wau",
    "state_id": "69c12c51-3d49-409e-88fd-34054386d300"
  }
]