[
  {
    "id": "40680c9e-84eb-4273-861b-dee61ec6c77b",
    "name": "Bashkia Malësi e Madhe",
    "state_id": "6a7d83db-4ff7-4708-b7c4-b04b755eeda8"
  },
  {
    "id": "a2157cc0-c6dc-42f0-ae81-d2290af31af0",
    "name": "Bashkia Pukë",
    "state_id": "6a7d83db-4ff7-4708-b7c4-b04b755eeda8"
  },
  {
    "id": "9d63bf86-e012-412c-9ebf-b1f85b7def40",
    "name": "Bashkia Vau i Dejës",
    "state_id": "6a7d83db-4ff7-4708-b7c4-b04b755eeda8"
  },
  {
    "id": "02e9fb0e-946f-4d4d-bdef-9d231e207979",
    "name": "Fushë-Arrëz",
    "state_id": "6a7d83db-4ff7-4708-b7c4-b04b755eeda8"
  },
  {
    "id": "e7d748c1-6eaf-475b-b6aa-b2dd9f155087",
    "name": "Koplik",
    "state_id": "6a7d83db-4ff7-4708-b7c4-b04b755eeda8"
  },
  {
    "id": "f6c4fc44-cc43-455e-85da-3a21de6ba0a5",
    "name": "Pukë",
    "state_id": "6a7d83db-4ff7-4708-b7c4-b04b755eeda8"
  },
  {
    "id": "7ae02a07-b368-4054-8043-41656343190b",
    "name": "Rrethi i Malësia e Madhe",
    "state_id": "6a7d83db-4ff7-4708-b7c4-b04b755eeda8"
  },
  {
    "id": "92533b0c-dd41-4db9-b8a9-74c904207d9e",
    "name": "Rrethi i Shkodrës",
    "state_id": "6a7d83db-4ff7-4708-b7c4-b04b755eeda8"
  },
  {
    "id": "1de80530-084b-49f6-94d3-4f11d158c3a7",
    "name": "Shkodër",
    "state_id": "6a7d83db-4ff7-4708-b7c4-b04b755eeda8"
  },
  {
    "id": "b877aa56-3221-4dc0-bf82-926ea7f36132",
    "name": "Vau i Dejës",
    "state_id": "6a7d83db-4ff7-4708-b7c4-b04b755eeda8"
  },
  {
    "id": "e1e633fc-052f-43e4-9433-2a8ac15ed4fa",
    "name": "Vukatanë",
    "state_id": "6a7d83db-4ff7-4708-b7c4-b04b755eeda8"
  }
]