[
  {
    "id": "88b7d09b-8e0c-4582-b668-92e34506a310",
    "name": "Ārt Khwājah",
    "state_id": "6a8b0403-4e1e-4b89-97cf-0036ecd2a80c"
  },
  {
    "id": "b083ab8d-b3a6-4221-a623-211a64b8793e",
    "name": "Taloqan",
    "state_id": "6a8b0403-4e1e-4b89-97cf-0036ecd2a80c"
  }
]