[
  {
    "id": "982e8e6b-0208-4bdf-9e4f-5e8fd68c9875",
    "name": "Akçakent İlçesi",
    "state_id": "6a92c98b-b51b-47e7-b674-9e11d1ec85e1"
  },
  {
    "id": "19e8f1f3-8fdd-48b8-aa08-ac1e7668ea80",
    "name": "Akpınar",
    "state_id": "6a92c98b-b51b-47e7-b674-9e11d1ec85e1"
  },
  {
    "id": "338ee203-1b6c-435b-b558-ed1202b2aff9",
    "name": "Boztepe İlçesi",
    "state_id": "6a92c98b-b51b-47e7-b674-9e11d1ec85e1"
  },
  {
    "id": "f572433c-b79b-4742-9da3-76bcade57cf8",
    "name": "Çiçekdağı",
    "state_id": "6a92c98b-b51b-47e7-b674-9e11d1ec85e1"
  },
  {
    "id": "efbd5bde-99f8-49a6-85bc-482ffdbc977a",
    "name": "Kaman",
    "state_id": "6a92c98b-b51b-47e7-b674-9e11d1ec85e1"
  },
  {
    "id": "8cf9b089-1e0c-4f36-abde-9e4c7b706a65",
    "name": "Kırşehir",
    "state_id": "6a92c98b-b51b-47e7-b674-9e11d1ec85e1"
  },
  {
    "id": "3328aceb-3965-48eb-9af9-5f4d5dda529c",
    "name": "Mucur",
    "state_id": "6a92c98b-b51b-47e7-b674-9e11d1ec85e1"
  }
]