[
  {
    "id": "8510db3f-c61c-401e-a11f-52770835e505",
    "name": "Chincha Alta",
    "state_id": "6aa06a2d-cb01-4836-b61d-164264690fd3"
  },
  {
    "id": "8149f8cb-2500-4031-b00f-ac8411b6dec1",
    "name": "Ica",
    "state_id": "6aa06a2d-cb01-4836-b61d-164264690fd3"
  },
  {
    "id": "3abfa675-3572-4c40-ab14-8117d72f1154",
    "name": "Los Aquijes",
    "state_id": "6aa06a2d-cb01-4836-b61d-164264690fd3"
  },
  {
    "id": "14972b40-2921-44e6-a2a9-f4a79fe59ebf",
    "name": "Minas de Marcona",
    "state_id": "6aa06a2d-cb01-4836-b61d-164264690fd3"
  },
  {
    "id": "d3f5b8f4-a3c7-4066-bbe7-cb65ba39523e",
    "name": "Nazca",
    "state_id": "6aa06a2d-cb01-4836-b61d-164264690fd3"
  },
  {
    "id": "2436bbbf-2b48-4944-a28c-a2287ee091ef",
    "name": "Palpa",
    "state_id": "6aa06a2d-cb01-4836-b61d-164264690fd3"
  },
  {
    "id": "e69b1206-c9b8-4e50-8cc5-f7f8863ed528",
    "name": "Paracas",
    "state_id": "6aa06a2d-cb01-4836-b61d-164264690fd3"
  },
  {
    "id": "3599c06a-59e2-47a4-b49e-a6f846b09d3c",
    "name": "Pisco",
    "state_id": "6aa06a2d-cb01-4836-b61d-164264690fd3"
  },
  {
    "id": "1e5f2490-fc62-43ff-8b90-a197f064e155",
    "name": "Provincia de Chincha",
    "state_id": "6aa06a2d-cb01-4836-b61d-164264690fd3"
  },
  {
    "id": "b2232f97-9420-4ce0-b92c-a2f79653e686",
    "name": "Provincia de Ica",
    "state_id": "6aa06a2d-cb01-4836-b61d-164264690fd3"
  },
  {
    "id": "a6716b7d-9db3-4f48-b1d1-efb6b915328a",
    "name": "Provincia de Nazca",
    "state_id": "6aa06a2d-cb01-4836-b61d-164264690fd3"
  },
  {
    "id": "c81331e0-0649-42a7-b13e-7dcb013e7199",
    "name": "Provincia de Palpa",
    "state_id": "6aa06a2d-cb01-4836-b61d-164264690fd3"
  },
  {
    "id": "3485969f-4960-431a-a502-6659dec660d4",
    "name": "Provincia de Pisco",
    "state_id": "6aa06a2d-cb01-4836-b61d-164264690fd3"
  },
  {
    "id": "2162784d-80d7-4f4c-8443-2ff3068bb2a0",
    "name": "Río Grande",
    "state_id": "6aa06a2d-cb01-4836-b61d-164264690fd3"
  },
  {
    "id": "3707c046-5d9c-4152-87a3-abd4075305a9",
    "name": "San Clemente",
    "state_id": "6aa06a2d-cb01-4836-b61d-164264690fd3"
  },
  {
    "id": "eef6458f-c5a4-4be3-b55d-cddf5f37140e",
    "name": "San Juan Bautista",
    "state_id": "6aa06a2d-cb01-4836-b61d-164264690fd3"
  },
  {
    "id": "190cb334-12d7-46b7-9ed1-047dc4095e8a",
    "name": "Santiago",
    "state_id": "6aa06a2d-cb01-4836-b61d-164264690fd3"
  },
  {
    "id": "4aa11c10-8d90-47e5-8eae-fdba0f133331",
    "name": "Subtanjalla",
    "state_id": "6aa06a2d-cb01-4836-b61d-164264690fd3"
  },
  {
    "id": "d0cd0af3-1a3a-4d3a-a0bb-af8ee483e4b4",
    "name": "Villa Tupac Amaru",
    "state_id": "6aa06a2d-cb01-4836-b61d-164264690fd3"
  }
]