[
  {
    "id": "006a32fa-ec5b-4ccb-8b43-8cf31df1fdeb",
    "name": "Ágios Tomás",
    "state_id": "6ae05d7b-fee2-4047-b89a-a69f2a3edb24"
  },
  {
    "id": "92d4ac37-5398-4871-b741-5b614dbaf554",
    "name": "Ágios Týchon",
    "state_id": "6ae05d7b-fee2-4047-b89a-a69f2a3edb24"
  },
  {
    "id": "f4224332-9f3c-40d8-b5f2-27f94b642e23",
    "name": "Erími",
    "state_id": "6ae05d7b-fee2-4047-b89a-a69f2a3edb24"
  },
  {
    "id": "0edb11f0-6a08-4e53-94bc-4047f90d4b8a",
    "name": "Germasógeia",
    "state_id": "6ae05d7b-fee2-4047-b89a-a69f2a3edb24"
  },
  {
    "id": "71e69cca-bd71-4ab4-8695-1b512920dbab",
    "name": "Kyperoúnta",
    "state_id": "6ae05d7b-fee2-4047-b89a-a69f2a3edb24"
  },
  {
    "id": "f03b9a3c-5ba1-4ffa-9949-5f825b47cb90",
    "name": "Lemesós",
    "state_id": "6ae05d7b-fee2-4047-b89a-a69f2a3edb24"
  },
  {
    "id": "ca63e585-edd6-4bc7-aeb4-229c3d255227",
    "name": "Limassol",
    "state_id": "6ae05d7b-fee2-4047-b89a-a69f2a3edb24"
  },
  {
    "id": "c83b207a-65d6-47c7-954c-c4065d3f7955",
    "name": "Mouttagiáka",
    "state_id": "6ae05d7b-fee2-4047-b89a-a69f2a3edb24"
  },
  {
    "id": "fa2df5df-1d79-4cd5-ab85-93a408402d50",
    "name": "Páchna",
    "state_id": "6ae05d7b-fee2-4047-b89a-a69f2a3edb24"
  },
  {
    "id": "78ce9879-65f5-4b21-9a1e-7cf2f6fced84",
    "name": "Páno Polemídia",
    "state_id": "6ae05d7b-fee2-4047-b89a-a69f2a3edb24"
  },
  {
    "id": "5d2cda2b-55c1-4f33-b193-4f37c0ad4cf1",
    "name": "Parekklisha",
    "state_id": "6ae05d7b-fee2-4047-b89a-a69f2a3edb24"
  },
  {
    "id": "4b510007-656c-401d-9fec-11908b74f55e",
    "name": "Peléndri",
    "state_id": "6ae05d7b-fee2-4047-b89a-a69f2a3edb24"
  },
  {
    "id": "6c5bcf6a-20a5-4aad-9697-b2ffe980f542",
    "name": "Pissoúri",
    "state_id": "6ae05d7b-fee2-4047-b89a-a69f2a3edb24"
  },
  {
    "id": "6e026107-8a0b-45fe-a949-1b7e463efef9",
    "name": "Pyrgos",
    "state_id": "6ae05d7b-fee2-4047-b89a-a69f2a3edb24"
  },
  {
    "id": "4e186c0a-b4fa-4ea8-93b9-9a8d2d351e50",
    "name": "Sotíra",
    "state_id": "6ae05d7b-fee2-4047-b89a-a69f2a3edb24"
  },
  {
    "id": "a58bca65-e089-495f-ae59-3c2ec718be0c",
    "name": "Soúni-Zanakiá",
    "state_id": "6ae05d7b-fee2-4047-b89a-a69f2a3edb24"
  },
  {
    "id": "0edac717-1a7a-4e43-8bfd-6eb6266b55af",
    "name": "Ýpsonas",
    "state_id": "6ae05d7b-fee2-4047-b89a-a69f2a3edb24"
  }
]