[
  {
    "id": "8d1d8d9c-975e-4690-9aeb-ec85be9bfdf7",
    "name": "Probishtip",
    "state_id": "6cb356af-c6cf-4da8-8241-e5206e2ce5a0"
  },
  {
    "id": "dca9c0ae-59d2-45ce-90ee-d8a10fe6acc5",
    "name": "Zletovo",
    "state_id": "6cb356af-c6cf-4da8-8241-e5206e2ce5a0"
  }
]