[
  {
    "id": "2583e239-34dc-46bb-b9bb-28e3c856a353",
    "name": "Asosa",
    "state_id": "6df70f09-1d1a-47f1-b996-9c3f3e8e5f2d"
  },
  {
    "id": "3c55ea2f-a723-40d6-8a48-a06454a5c007",
    "name": "Metekel",
    "state_id": "6df70f09-1d1a-47f1-b996-9c3f3e8e5f2d"
  }
]