[
  {
    "id": "0cb609b3-fcc9-4527-a94d-3be4959e4790",
    "name": "Aksay",
    "state_id": "6efa672e-1f56-470b-bba0-d0e0f58b22e6"
  },
  {
    "id": "3380874b-57c2-44b1-af5b-49f6035ff115",
    "name": "Almaznyy",
    "state_id": "6efa672e-1f56-470b-bba0-d0e0f58b22e6"
  },
  {
    "id": "7bf2fa9b-9b7d-4a66-9f19-5c195db60c32",
    "name": "Anastasiyevka",
    "state_id": "6efa672e-1f56-470b-bba0-d0e0f58b22e6"
  },
  {
    "id": "f6ce7e25-7549-4c2c-ac9a-55e325c1cadd",
    "name": "Ayutinskiy",
    "state_id": "6efa672e-1f56-470b-bba0-d0e0f58b22e6"
  },
  {
    "id": "eb2c07a5-a762-4f9f-a9f7-e307454767e2",
    "name": "Azov",
    "state_id": "6efa672e-1f56-470b-bba0-d0e0f58b22e6"
  },
  {
    "id": "8e7217af-0ce3-4ab2-a277-059b4adfef5c",
    "name": "Bagayevskaya",
    "state_id": "6efa672e-1f56-470b-bba0-d0e0f58b22e6"
  },
  {
    "id": "3d4764a4-678e-4c2e-bf6c-37a0e8966b66",
    "name": "Bataysk",
    "state_id": "6efa672e-1f56-470b-bba0-d0e0f58b22e6"
  },
  {
    "id": "1699e824-bbfd-46a4-a822-d918512d7cbf",
    "name": "Belaya Kalitva",
    "state_id": "6efa672e-1f56-470b-bba0-d0e0f58b22e6"
  },
  {
    "id": "02013c1b-596e-421b-ae9d-224dc0fcd81f",
    "name": "Bokovskaya",
    "state_id": "6efa672e-1f56-470b-bba0-d0e0f58b22e6"
  },
  {
    "id": "b5468f55-90e5-484d-afd9-cb0d27ef109b",
    "name": "Bystrogorskiy",
    "state_id": "6efa672e-1f56-470b-bba0-d0e0f58b22e6"
  },
  {
    "id": "7cdaa632-5012-40fd-bc65-4f999582ae74",
    "name": "Chaltyr",
    "state_id": "6efa672e-1f56-470b-bba0-d0e0f58b22e6"
  },
  {
    "id": "7eb8d7b2-2e3c-4353-8340-34aa36763e6f",
    "name": "Chertkovo",
    "state_id": "6efa672e-1f56-470b-bba0-d0e0f58b22e6"
  },
  {
    "id": "d8a93c35-2ad4-4793-b992-99cadac1887e",
    "name": "Donetsk",
    "state_id": "6efa672e-1f56-470b-bba0-d0e0f58b22e6"
  },
  {
    "id": "3ab36496-1b7c-4b20-a93c-1507cc48eef8",
    "name": "Donskoy",
    "state_id": "6efa672e-1f56-470b-bba0-d0e0f58b22e6"
  },
  {
    "id": "f128e799-a395-46d2-93f6-4579a3b292a5",
    "name": "Dubovskoye",
    "state_id": "6efa672e-1f56-470b-bba0-d0e0f58b22e6"
  },
  {
    "id": "ea3b2ccb-b2a5-4675-b985-f4619013a9bc",
    "name": "Gigant",
    "state_id": "6efa672e-1f56-470b-bba0-d0e0f58b22e6"
  },
  {
    "id": "6992363f-0bff-407c-831c-279ae03f80d3",
    "name": "Glubokiy",
    "state_id": "6efa672e-1f56-470b-bba0-d0e0f58b22e6"
  },
  {
    "id": "bb6a4b17-29c9-4bcf-bbae-33287356d126",
    "name": "Gornyatskiy",
    "state_id": "6efa672e-1f56-470b-bba0-d0e0f58b22e6"
  },
  {
    "id": "ee44fddc-e59c-4a38-9ef3-5f224df30627",
    "name": "Gornyy",
    "state_id": "6efa672e-1f56-470b-bba0-d0e0f58b22e6"
  },
  {
    "id": "dc17f838-2615-42f1-af69-02854393cf5e",
    "name": "Grushevskaya",
    "state_id": "6efa672e-1f56-470b-bba0-d0e0f58b22e6"
  },
  {
    "id": "e2f49319-0ca5-4e6d-bfbb-0349902fc780",
    "name": "Gukovo",
    "state_id": "6efa672e-1f56-470b-bba0-d0e0f58b22e6"
  },
  {
    "id": "d0f53c17-a323-43eb-9c93-b8f6b3a0a017",
    "name": "Gundorovskiy",
    "state_id": "6efa672e-1f56-470b-bba0-d0e0f58b22e6"
  },
  {
    "id": "9491fbb5-2e4a-455f-8834-4ef9a34269d5",
    "name": "Kagal’nitskaya",
    "state_id": "6efa672e-1f56-470b-bba0-d0e0f58b22e6"
  },
  {
    "id": "c133300a-155a-41ad-9c77-01e06b612849",
    "name": "Kalinin",
    "state_id": "6efa672e-1f56-470b-bba0-d0e0f58b22e6"
  },
  {
    "id": "ab210486-7499-40b0-a3bd-83410c7006da",
    "name": "Kamenolomni",
    "state_id": "6efa672e-1f56-470b-bba0-d0e0f58b22e6"
  },
  {
    "id": "df22bfdb-35d9-4e3e-a460-ea1f63a65e45",
    "name": "Kamensk-Shakhtinskiy",
    "state_id": "6efa672e-1f56-470b-bba0-d0e0f58b22e6"
  },
  {
    "id": "83d07010-2d23-4f34-b7e2-29e51c26268f",
    "name": "Kashary",
    "state_id": "6efa672e-1f56-470b-bba0-d0e0f58b22e6"
  },
  {
    "id": "c5606fee-1553-4511-9d4c-d3ec1118fc2e",
    "name": "Kazanskaya",
    "state_id": "6efa672e-1f56-470b-bba0-d0e0f58b22e6"
  },
  {
    "id": "5391c836-1691-46d9-a390-99d5b06e19b7",
    "name": "Kirovskaya",
    "state_id": "6efa672e-1f56-470b-bba0-d0e0f58b22e6"
  },
  {
    "id": "6d4f0572-d5bf-4b6f-bbfb-ef1975c7e092",
    "name": "Koksovyy",
    "state_id": "6efa672e-1f56-470b-bba0-d0e0f58b22e6"
  },
  {
    "id": "6121370b-6136-4dab-8024-6d8081374cba",
    "name": "Konstantinovsk",
    "state_id": "6efa672e-1f56-470b-bba0-d0e0f58b22e6"
  },
  {
    "id": "9745d630-87b5-466b-bd9a-e9281f8d73a9",
    "name": "Krasnaya Polyana",
    "state_id": "6efa672e-1f56-470b-bba0-d0e0f58b22e6"
  },
  {
    "id": "d5f5c72f-3de2-45f6-a21b-a95097074946",
    "name": "Krasnoarmeyskiy",
    "state_id": "6efa672e-1f56-470b-bba0-d0e0f58b22e6"
  },
  {
    "id": "26763945-c7b2-49f8-b691-bf407ca52b05",
    "name": "Krasnovka",
    "state_id": "6efa672e-1f56-470b-bba0-d0e0f58b22e6"
  },
  {
    "id": "77cf717a-fce0-4dff-a095-a6fbd806147a",
    "name": "Krasnoyarskaya",
    "state_id": "6efa672e-1f56-470b-bba0-d0e0f58b22e6"
  },
  {
    "id": "5869a3a7-c79b-4e9e-b32e-4760db5e81ea",
    "name": "Krasnyy Sulin",
    "state_id": "6efa672e-1f56-470b-bba0-d0e0f58b22e6"
  },
  {
    "id": "f35e9069-f49c-4d1a-b812-238c21d504df",
    "name": "Krasyukovskaya",
    "state_id": "6efa672e-1f56-470b-bba0-d0e0f58b22e6"
  },
  {
    "id": "1c62249a-a7c1-4a47-b7bd-f02cfd651668",
    "name": "Krivyanskaya",
    "state_id": "6efa672e-1f56-470b-bba0-d0e0f58b22e6"
  },
  {
    "id": "f6ed7105-2d07-4a5d-a026-6104f9e9307a",
    "name": "Krym",
    "state_id": "6efa672e-1f56-470b-bba0-d0e0f58b22e6"
  },
  {
    "id": "9ce8780e-a126-41ff-90d8-d6dc0dbaa459",
    "name": "Kuleshovka",
    "state_id": "6efa672e-1f56-470b-bba0-d0e0f58b22e6"
  },
  {
    "id": "0a0c5a4d-e7af-48ad-9474-2254c3ae6fb5",
    "name": "Kuybyshevo",
    "state_id": "6efa672e-1f56-470b-bba0-d0e0f58b22e6"
  },
  {
    "id": "2a9afcdd-4205-43df-972e-6399e089ad71",
    "name": "Letnik",
    "state_id": "6efa672e-1f56-470b-bba0-d0e0f58b22e6"
  },
  {
    "id": "2b39b879-7db2-4788-ae62-7cbb534729c9",
    "name": "Likhovskoy",
    "state_id": "6efa672e-1f56-470b-bba0-d0e0f58b22e6"
  },
  {
    "id": "649e3abf-4d82-4ad9-9b5f-4a6742bea793",
    "name": "Likhoy",
    "state_id": "6efa672e-1f56-470b-bba0-d0e0f58b22e6"
  },
  {
    "id": "9fd7bf44-5837-4cca-afc2-df5992dafa87",
    "name": "Martynovskiy Rayon",
    "state_id": "6efa672e-1f56-470b-bba0-d0e0f58b22e6"
  },
  {
    "id": "5d1b7126-a555-405c-8b68-e78705caccd8",
    "name": "Masalovka",
    "state_id": "6efa672e-1f56-470b-bba0-d0e0f58b22e6"
  },
  {
    "id": "eb2a5b0f-3a40-4725-8a67-97523ac7489d",
    "name": "Matveyev Kurgan",
    "state_id": "6efa672e-1f56-470b-bba0-d0e0f58b22e6"
  },
  {
    "id": "9d8837dd-3b72-4231-8d35-bb3ca70cc7ae",
    "name": "Mayskiy",
    "state_id": "6efa672e-1f56-470b-bba0-d0e0f58b22e6"
  },
  {
    "id": "7b7583ad-7cc2-4961-8090-28d23b84847a",
    "name": "Mechetinskaya",
    "state_id": "6efa672e-1f56-470b-bba0-d0e0f58b22e6"
  },
  {
    "id": "d1cb8a2d-e363-4b6d-add1-b5f91f199565",
    "name": "Melikhovskaya",
    "state_id": "6efa672e-1f56-470b-bba0-d0e0f58b22e6"
  },
  {
    "id": "fe8d9373-5ab2-4031-8338-d080c9d135d2",
    "name": "Millerovo",
    "state_id": "6efa672e-1f56-470b-bba0-d0e0f58b22e6"
  },
  {
    "id": "5fc32b17-0131-4cab-839e-df1eb356c922",
    "name": "Milyutinskaya",
    "state_id": "6efa672e-1f56-470b-bba0-d0e0f58b22e6"
  },
  {
    "id": "30e1b317-710f-45e8-8a09-4f416587897e",
    "name": "Milyutinskiy Rayon",
    "state_id": "6efa672e-1f56-470b-bba0-d0e0f58b22e6"
  },
  {
    "id": "275d2ee8-f48d-4eb1-b780-91044e266acb",
    "name": "Morozovsk",
    "state_id": "6efa672e-1f56-470b-bba0-d0e0f58b22e6"
  },
  {
    "id": "4a426985-bafc-40fd-8324-bca7249fbd68",
    "name": "Nedvigovka",
    "state_id": "6efa672e-1f56-470b-bba0-d0e0f58b22e6"
  },
  {
    "id": "893ed020-456e-4ed3-afc1-d1a341d3349f",
    "name": "Nikolayevskaya",
    "state_id": "6efa672e-1f56-470b-bba0-d0e0f58b22e6"
  },
  {
    "id": "9fbd1713-3182-4ed9-9024-ea539dfd7b65",
    "name": "Novobataysk",
    "state_id": "6efa672e-1f56-470b-bba0-d0e0f58b22e6"
  },
  {
    "id": "976e492d-8d3d-4a0d-af17-fd91e9e87b02",
    "name": "Novobessergenovka",
    "state_id": "6efa672e-1f56-470b-bba0-d0e0f58b22e6"
  },
  {
    "id": "9869ab65-3aa1-4f70-aabb-065df74e4b5c",
    "name": "Novocherkassk",
    "state_id": "6efa672e-1f56-470b-bba0-d0e0f58b22e6"
  },
  {
    "id": "12376ab5-6db9-4f2e-a4f9-c9390ae869a8",
    "name": "Novoshakhtinsk",
    "state_id": "6efa672e-1f56-470b-bba0-d0e0f58b22e6"
  },
  {
    "id": "a98369fc-2d62-4a07-9985-f67b4bc9d759",
    "name": "Novyy Yegorlyk",
    "state_id": "6efa672e-1f56-470b-bba0-d0e0f58b22e6"
  },
  {
    "id": "929bc9ce-2a75-49bb-9815-4b9ad0f0b574",
    "name": "Oblivskaya",
    "state_id": "6efa672e-1f56-470b-bba0-d0e0f58b22e6"
  },
  {
    "id": "31614ddb-b586-4953-a4d0-f8499f0879b6",
    "name": "Ol’ginskaya",
    "state_id": "6efa672e-1f56-470b-bba0-d0e0f58b22e6"
  },
  {
    "id": "d5e3bc21-5ec8-461d-a4e8-0589114766aa",
    "name": "Orlovskiy",
    "state_id": "6efa672e-1f56-470b-bba0-d0e0f58b22e6"
  },
  {
    "id": "198598b1-b6bb-4773-914f-d7cf40c721fe",
    "name": "Persianovka",
    "state_id": "6efa672e-1f56-470b-bba0-d0e0f58b22e6"
  },
  {
    "id": "48a5e724-5643-4b10-8ebc-3d8abfc56967",
    "name": "Peschanokopskoye",
    "state_id": "6efa672e-1f56-470b-bba0-d0e0f58b22e6"
  },
  {
    "id": "99af60db-d469-4cc5-937b-3df218a1ba57",
    "name": "Peshkovo",
    "state_id": "6efa672e-1f56-470b-bba0-d0e0f58b22e6"
  },
  {
    "id": "e7cc96aa-135d-4122-b8b2-52fd8724d5b0",
    "name": "Pokrovskoye",
    "state_id": "6efa672e-1f56-470b-bba0-d0e0f58b22e6"
  },
  {
    "id": "8ae8ab62-7d91-42a4-af96-bcaa2e9547e7",
    "name": "Port-Katon",
    "state_id": "6efa672e-1f56-470b-bba0-d0e0f58b22e6"
  },
  {
    "id": "367c101c-49be-4101-984e-0ea956c3f849",
    "name": "Primorka",
    "state_id": "6efa672e-1f56-470b-bba0-d0e0f58b22e6"
  },
  {
    "id": "f0451862-4e08-4eec-8cba-14d260189e03",
    "name": "Proletarsk",
    "state_id": "6efa672e-1f56-470b-bba0-d0e0f58b22e6"
  },
  {
    "id": "9ee07d50-a311-4614-b400-c133b4c217c4",
    "name": "Rassvet",
    "state_id": "6efa672e-1f56-470b-bba0-d0e0f58b22e6"
  },
  {
    "id": "4eaa5de1-1245-4fa9-878d-69734d094282",
    "name": "Remontnoye",
    "state_id": "6efa672e-1f56-470b-bba0-d0e0f58b22e6"
  },
  {
    "id": "c6cc8d0b-2046-4769-9bd4-14e9d4049978",
    "name": "Rodionovo-Nesvetaiskoye",
    "state_id": "6efa672e-1f56-470b-bba0-d0e0f58b22e6"
  },
  {
    "id": "c34bbc5b-1270-4250-94da-9c80b9609ebe",
    "name": "Rodionovo-Nesvetayskaya",
    "state_id": "6efa672e-1f56-470b-bba0-d0e0f58b22e6"
  },
  {
    "id": "5e94bdc3-542f-4609-b4a3-5adc1d142cfa",
    "name": "Romanovskaya",
    "state_id": "6efa672e-1f56-470b-bba0-d0e0f58b22e6"
  },
  {
    "id": "b7fe531e-281d-4e77-af58-0365f182450d",
    "name": "Rostov-na-Donu",
    "state_id": "6efa672e-1f56-470b-bba0-d0e0f58b22e6"
  },
  {
    "id": "86a6a40e-4e8d-476f-9ed0-ef3a14c00609",
    "name": "Sal’sk",
    "state_id": "6efa672e-1f56-470b-bba0-d0e0f58b22e6"
  },
  {
    "id": "fa7a46b7-2138-4bfb-b0d3-d5d7302ab9bd",
    "name": "Samarskoye",
    "state_id": "6efa672e-1f56-470b-bba0-d0e0f58b22e6"
  },
  {
    "id": "a4809ee9-e150-4de6-a2f0-9c9daf74b83a",
    "name": "Sambek",
    "state_id": "6efa672e-1f56-470b-bba0-d0e0f58b22e6"
  },
  {
    "id": "2874d006-8474-44f9-8597-4d14c3eeed89",
    "name": "Sandata",
    "state_id": "6efa672e-1f56-470b-bba0-d0e0f58b22e6"
  },
  {
    "id": "7c50bdf3-82ed-4606-ac5d-ba5bc35644a5",
    "name": "Semikarakorsk",
    "state_id": "6efa672e-1f56-470b-bba0-d0e0f58b22e6"
  },
  {
    "id": "46ebe5d2-ee59-4d61-9b56-865da26dc59d",
    "name": "Shakhty",
    "state_id": "6efa672e-1f56-470b-bba0-d0e0f58b22e6"
  },
  {
    "id": "e077a0c6-5a9a-47af-8479-67de452dfcdb",
    "name": "Sholokhovskiy",
    "state_id": "6efa672e-1f56-470b-bba0-d0e0f58b22e6"
  },
  {
    "id": "f4d513bf-72d3-4ed2-b446-01abb63c7ffd",
    "name": "Sinegorskiy",
    "state_id": "6efa672e-1f56-470b-bba0-d0e0f58b22e6"
  },
  {
    "id": "1a2d0cd1-05c9-48d8-ae6f-3c6cbc874779",
    "name": "Sinyavskoye",
    "state_id": "6efa672e-1f56-470b-bba0-d0e0f58b22e6"
  },
  {
    "id": "6ee80da8-226d-4c0b-a81b-c5fd5ab30f21",
    "name": "Sokolovo-Kundryuchenskiy",
    "state_id": "6efa672e-1f56-470b-bba0-d0e0f58b22e6"
  },
  {
    "id": "de448192-620d-42ec-b785-d8c556153595",
    "name": "Sovetskaya",
    "state_id": "6efa672e-1f56-470b-bba0-d0e0f58b22e6"
  },
  {
    "id": "3865c45e-48ab-4069-9e50-4481f01f7ae2",
    "name": "Staraya Stanitsa",
    "state_id": "6efa672e-1f56-470b-bba0-d0e0f58b22e6"
  },
  {
    "id": "876c09b6-64af-425f-b8eb-ff20a807807c",
    "name": "Starocherkasskaya",
    "state_id": "6efa672e-1f56-470b-bba0-d0e0f58b22e6"
  },
  {
    "id": "8d6dd4ab-00fa-47d9-aa67-612142e2021e",
    "name": "Taganrog",
    "state_id": "6efa672e-1f56-470b-bba0-d0e0f58b22e6"
  },
  {
    "id": "a32d34dc-8bdd-40e2-bbe3-f54a2a55d8e9",
    "name": "Talovyy",
    "state_id": "6efa672e-1f56-470b-bba0-d0e0f58b22e6"
  },
  {
    "id": "510fb7fc-6547-49e3-b72d-64a252ca031d",
    "name": "Tanais",
    "state_id": "6efa672e-1f56-470b-bba0-d0e0f58b22e6"
  },
  {
    "id": "0b875d88-2118-4c95-995c-b777c1cfe066",
    "name": "Tarasovskiy",
    "state_id": "6efa672e-1f56-470b-bba0-d0e0f58b22e6"
  },
  {
    "id": "b14ffa0a-862d-4f1b-9d2d-05903b6ce0b6",
    "name": "Tatsinskiy",
    "state_id": "6efa672e-1f56-470b-bba0-d0e0f58b22e6"
  },
  {
    "id": "915086a9-b40b-483b-b8e1-044d006dc0f9",
    "name": "Tselina",
    "state_id": "6efa672e-1f56-470b-bba0-d0e0f58b22e6"
  },
  {
    "id": "2584a94c-45b7-44f6-8f6f-98d7c98feba2",
    "name": "Tsimlyansk",
    "state_id": "6efa672e-1f56-470b-bba0-d0e0f58b22e6"
  },
  {
    "id": "1625b0f0-c4b1-484d-8878-0be4d99d8741",
    "name": "Uglegorskiy",
    "state_id": "6efa672e-1f56-470b-bba0-d0e0f58b22e6"
  },
  {
    "id": "e5f5b1e3-b4ab-4e52-858e-f023edcd0141",
    "name": "Uglerodovskiy",
    "state_id": "6efa672e-1f56-470b-bba0-d0e0f58b22e6"
  },
  {
    "id": "837c55b7-e61b-43c1-a3ef-c57a4da964c1",
    "name": "Ust’-Donetskiy",
    "state_id": "6efa672e-1f56-470b-bba0-d0e0f58b22e6"
  },
  {
    "id": "9de43b53-4eef-43a9-9d1d-b0c10e492f70",
    "name": "Vesëlyy",
    "state_id": "6efa672e-1f56-470b-bba0-d0e0f58b22e6"
  },
  {
    "id": "eca212f8-8064-4895-aa16-467b2aa640ab",
    "name": "Veshenskaya",
    "state_id": "6efa672e-1f56-470b-bba0-d0e0f58b22e6"
  },
  {
    "id": "0b585be6-1e7b-4e9f-b73b-f4450e39358c",
    "name": "Volgodonsk",
    "state_id": "6efa672e-1f56-470b-bba0-d0e0f58b22e6"
  },
  {
    "id": "9711a915-06b0-4086-9b0d-7365b8b3d49f",
    "name": "Yegorlykskaya",
    "state_id": "6efa672e-1f56-470b-bba0-d0e0f58b22e6"
  },
  {
    "id": "8be1b85d-e04e-4ee6-ac6f-1938d11f75c1",
    "name": "Zavetnoye",
    "state_id": "6efa672e-1f56-470b-bba0-d0e0f58b22e6"
  },
  {
    "id": "da878b62-3bf0-4943-b349-8cf5d28368ed",
    "name": "Zernograd",
    "state_id": "6efa672e-1f56-470b-bba0-d0e0f58b22e6"
  },
  {
    "id": "8c86f82a-4213-4fe5-85b4-488a26ce2996",
    "name": "Zhirnov",
    "state_id": "6efa672e-1f56-470b-bba0-d0e0f58b22e6"
  },
  {
    "id": "8907cde1-e802-4553-a5c8-852b7bd56d1d",
    "name": "Zimovniki",
    "state_id": "6efa672e-1f56-470b-bba0-d0e0f58b22e6"
  },
  {
    "id": "ec46219f-64f4-4fb9-99a5-878fc7fd5735",
    "name": "Zverevo",
    "state_id": "6efa672e-1f56-470b-bba0-d0e0f58b22e6"
  }
]