[
  {
    "id": "a030dd2e-1b4b-42b2-bd2d-08d4b4086c1e",
    "name": "Batangafo",
    "state_id": "6f35026e-fbcf-4345-a0e9-5bcbed141ef9"
  },
  {
    "id": "b3d22cd5-6015-4f4c-98ed-3dc66520a814",
    "name": "Bossangoa",
    "state_id": "6f35026e-fbcf-4345-a0e9-5bcbed141ef9"
  },
  {
    "id": "8f7ac123-920b-4855-9133-783c9f12270a",
    "name": "Bouca",
    "state_id": "6f35026e-fbcf-4345-a0e9-5bcbed141ef9"
  },
  {
    "id": "469ec943-f863-4477-9006-cfd37211577b",
    "name": "Kabo",
    "state_id": "6f35026e-fbcf-4345-a0e9-5bcbed141ef9"
  }
]