[
  {
    "id": "41747f3a-fa52-41ad-b036-dcac83346d6e",
    "name": "Bhadrapur",
    "state_id": "70a51964-b86e-4220-afbb-a0b281234c82"
  },
  {
    "id": "c2b31297-d29f-4cb0-b3f1-13d67f45735d",
    "name": "Bhojpur",
    "state_id": "70a51964-b86e-4220-afbb-a0b281234c82"
  },
  {
    "id": "8b081b6f-72ac-488c-a014-c95242efdbcc",
    "name": "Biratnagar",
    "state_id": "70a51964-b86e-4220-afbb-a0b281234c82"
  },
  {
    "id": "a849cc6c-6d4d-4885-aa13-d70dd3c06877",
    "name": "Dhankutā",
    "state_id": "70a51964-b86e-4220-afbb-a0b281234c82"
  },
  {
    "id": "bc29b31e-3273-484c-8a84-f7534f630033",
    "name": "Dharān",
    "state_id": "70a51964-b86e-4220-afbb-a0b281234c82"
  },
  {
    "id": "9d986aa7-435f-4705-9e34-ff4d69de8f33",
    "name": "Ilām",
    "state_id": "70a51964-b86e-4220-afbb-a0b281234c82"
  },
  {
    "id": "9955c029-5618-4aeb-95fb-0884ec4e54d5",
    "name": "Inaruwa",
    "state_id": "70a51964-b86e-4220-afbb-a0b281234c82"
  },
  {
    "id": "138278a6-6ee5-47a1-bff7-a7ab6ed94bab",
    "name": "Khanbari",
    "state_id": "70a51964-b86e-4220-afbb-a0b281234c82"
  },
  {
    "id": "8876ce1b-bb79-476e-acdb-f076cfcc3d77",
    "name": "Lahān",
    "state_id": "70a51964-b86e-4220-afbb-a0b281234c82"
  },
  {
    "id": "8528e515-a603-4a96-976f-2c675bf80a6d",
    "name": "Lobujya",
    "state_id": "70a51964-b86e-4220-afbb-a0b281234c82"
  },
  {
    "id": "78a30694-58e1-406b-b2ef-1cff0c644750",
    "name": "Namche Bazar",
    "state_id": "70a51964-b86e-4220-afbb-a0b281234c82"
  },
  {
    "id": "cfc45d51-6ae5-4292-a1ca-026a6bdb8bdf",
    "name": "Rājbirāj",
    "state_id": "70a51964-b86e-4220-afbb-a0b281234c82"
  },
  {
    "id": "501f944d-f90f-48f8-b3d2-5915837e0c00",
    "name": "Siraha",
    "state_id": "70a51964-b86e-4220-afbb-a0b281234c82"
  },
  {
    "id": "a390dddc-154e-4d8a-8bd8-f746c3e8037b",
    "name": "Titahari",
    "state_id": "70a51964-b86e-4220-afbb-a0b281234c82"
  },
  {
    "id": "27f34cde-facd-4027-baa0-4daf201cf738",
    "name": "Triyuga",
    "state_id": "70a51964-b86e-4220-afbb-a0b281234c82"
  }
]