[
  {
    "id": "a9d6cabc-d52a-4af7-860a-687bdef3517c",
    "name": "Agía Kyriakí",
    "state_id": "730acea4-72a3-4bbb-b8f1-76413fb20305"
  },
  {
    "id": "e90063d9-be23-4204-93b8-986ae4eca7c8",
    "name": "Anatolí",
    "state_id": "730acea4-72a3-4bbb-b8f1-76413fb20305"
  },
  {
    "id": "b271c74f-2376-4631-ba60-c1a0220ea3eb",
    "name": "Anéza",
    "state_id": "730acea4-72a3-4bbb-b8f1-76413fb20305"
  },
  {
    "id": "ef85155c-ef0f-47ca-9376-decb8101cbdc",
    "name": "Áno Kalentíni",
    "state_id": "730acea4-72a3-4bbb-b8f1-76413fb20305"
  },
  {
    "id": "ea179f75-f56a-4d7b-a2d9-9e22b90e3a7d",
    "name": "Árta",
    "state_id": "730acea4-72a3-4bbb-b8f1-76413fb20305"
  },
  {
    "id": "e862444c-f269-4744-8ac8-cb9338e7f0c6",
    "name": "Asprángeloi",
    "state_id": "730acea4-72a3-4bbb-b8f1-76413fb20305"
  },
  {
    "id": "aef9833b-6364-46f9-acf5-c9579c507638",
    "name": "Chalkiádes",
    "state_id": "730acea4-72a3-4bbb-b8f1-76413fb20305"
  },
  {
    "id": "b9a09abf-14c2-4dbe-b946-c96512a6e3ef",
    "name": "Eksochí",
    "state_id": "730acea4-72a3-4bbb-b8f1-76413fb20305"
  },
  {
    "id": "751f2a99-9f9c-4117-b0cd-f76fee498cad",
    "name": "Eleoúsa",
    "state_id": "730acea4-72a3-4bbb-b8f1-76413fb20305"
  },
  {
    "id": "cfb8b700-71db-4ead-8e11-63e392351872",
    "name": "Filiátes",
    "state_id": "730acea4-72a3-4bbb-b8f1-76413fb20305"
  },
  {
    "id": "e0c25ae4-1a6f-4980-bd07-8086776ab39e",
    "name": "Filippiáda",
    "state_id": "730acea4-72a3-4bbb-b8f1-76413fb20305"
  },
  {
    "id": "5687854f-de45-4d05-bdf5-e3c20d627e5a",
    "name": "Graikochóri",
    "state_id": "730acea4-72a3-4bbb-b8f1-76413fb20305"
  },
  {
    "id": "a5573a65-8504-4a6a-ab72-b3f31c338773",
    "name": "Grammenítsa",
    "state_id": "730acea4-72a3-4bbb-b8f1-76413fb20305"
  },
  {
    "id": "50688287-973a-412b-816c-220ab57904f3",
    "name": "Igoumenítsa",
    "state_id": "730acea4-72a3-4bbb-b8f1-76413fb20305"
  },
  {
    "id": "9cf8572b-e744-46e1-8c98-abe84a81e635",
    "name": "Ioánnina",
    "state_id": "730acea4-72a3-4bbb-b8f1-76413fb20305"
  },
  {
    "id": "6e1f1399-3ec5-492b-a6d8-f4e90486983b",
    "name": "Kalamiá",
    "state_id": "730acea4-72a3-4bbb-b8f1-76413fb20305"
  },
  {
    "id": "4b081a7f-e5ef-4013-bb0f-8231db257c03",
    "name": "Kalpáki",
    "state_id": "730acea4-72a3-4bbb-b8f1-76413fb20305"
  },
  {
    "id": "c03656c7-53d8-43c0-91f9-66f8e6fd04c5",
    "name": "Kanaláki",
    "state_id": "730acea4-72a3-4bbb-b8f1-76413fb20305"
  },
  {
    "id": "d9c01fdd-b15d-4346-8273-6b1120805663",
    "name": "Kardamítsia",
    "state_id": "730acea4-72a3-4bbb-b8f1-76413fb20305"
  },
  {
    "id": "815f0e2a-15ec-4d93-8b1f-ac210d69bb83",
    "name": "Katsikás",
    "state_id": "730acea4-72a3-4bbb-b8f1-76413fb20305"
  },
  {
    "id": "8167cd2e-4097-4a13-b69e-81308ae3fc63",
    "name": "Kompóti",
    "state_id": "730acea4-72a3-4bbb-b8f1-76413fb20305"
  },
  {
    "id": "77b516b5-9605-48b8-9bad-8f216186e7d0",
    "name": "Kónitsa",
    "state_id": "730acea4-72a3-4bbb-b8f1-76413fb20305"
  },
  {
    "id": "4c035324-3985-43d6-b6a1-670bf9975bd6",
    "name": "Kostakioí",
    "state_id": "730acea4-72a3-4bbb-b8f1-76413fb20305"
  },
  {
    "id": "026d9409-c7f9-40d1-9088-3689a853939b",
    "name": "Koutselió",
    "state_id": "730acea4-72a3-4bbb-b8f1-76413fb20305"
  },
  {
    "id": "b356479f-6145-42ba-869c-a83627a0b143",
    "name": "Loúros",
    "state_id": "730acea4-72a3-4bbb-b8f1-76413fb20305"
  },
  {
    "id": "002425cd-8296-4a1e-8592-3278ef2d5cb9",
    "name": "Metsovo",
    "state_id": "730acea4-72a3-4bbb-b8f1-76413fb20305"
  },
  {
    "id": "d9b974ef-a334-48a8-8170-cc5c08dfba00",
    "name": "Néa Seléfkeia",
    "state_id": "730acea4-72a3-4bbb-b8f1-76413fb20305"
  },
  {
    "id": "923983e1-8e7f-401e-a2a3-5d95ca17ff8e",
    "name": "Neochóri",
    "state_id": "730acea4-72a3-4bbb-b8f1-76413fb20305"
  },
  {
    "id": "9f2c7a49-e9a1-49ed-9d96-ef1e9322cf8a",
    "name": "Neochorópoulo",
    "state_id": "730acea4-72a3-4bbb-b8f1-76413fb20305"
  },
  {
    "id": "835ab449-f0cc-4604-8e27-c0cdc9cc76f0",
    "name": "Néos Oropós",
    "state_id": "730acea4-72a3-4bbb-b8f1-76413fb20305"
  },
  {
    "id": "5775d812-e772-4521-88c9-3667addc3c78",
    "name": "Nomós Ioannínon",
    "state_id": "730acea4-72a3-4bbb-b8f1-76413fb20305"
  },
  {
    "id": "ac6a5f9f-76bd-4ad2-80de-52759817cf9d",
    "name": "Pappadátes",
    "state_id": "730acea4-72a3-4bbb-b8f1-76413fb20305"
  },
  {
    "id": "4bc602f2-1b47-452e-b671-fca97562dffe",
    "name": "Paramythiá",
    "state_id": "730acea4-72a3-4bbb-b8f1-76413fb20305"
  },
  {
    "id": "b956bebf-3d25-490e-b9be-ee88bf76cb66",
    "name": "Parapótamos",
    "state_id": "730acea4-72a3-4bbb-b8f1-76413fb20305"
  },
  {
    "id": "25e8c602-c0e2-4bf0-ba65-f4f2f0f9b7df",
    "name": "Párga",
    "state_id": "730acea4-72a3-4bbb-b8f1-76413fb20305"
  },
  {
    "id": "03dd24ca-e9b0-4067-9857-e50ff4e8333e",
    "name": "Pediní",
    "state_id": "730acea4-72a3-4bbb-b8f1-76413fb20305"
  },
  {
    "id": "57344fd1-4dee-4bfa-b473-c00374a9fde8",
    "name": "Pérama",
    "state_id": "730acea4-72a3-4bbb-b8f1-76413fb20305"
  },
  {
    "id": "8b076ca0-a3e9-4aca-9a7b-1193a22f536a",
    "name": "Pérdika",
    "state_id": "730acea4-72a3-4bbb-b8f1-76413fb20305"
  },
  {
    "id": "7ba84a8c-b0d5-43c6-98cf-9384d8fccbbd",
    "name": "Péta",
    "state_id": "730acea4-72a3-4bbb-b8f1-76413fb20305"
  },
  {
    "id": "14a3368d-a654-44f3-9b02-13840ba077b9",
    "name": "Platariá",
    "state_id": "730acea4-72a3-4bbb-b8f1-76413fb20305"
  },
  {
    "id": "0aadc608-e2bc-4aa8-a43b-bf0ab77d42cb",
    "name": "Prámanta",
    "state_id": "730acea4-72a3-4bbb-b8f1-76413fb20305"
  },
  {
    "id": "07e59b88-e448-47ea-b495-f8b53fa6b2ea",
    "name": "Préveza",
    "state_id": "730acea4-72a3-4bbb-b8f1-76413fb20305"
  },
  {
    "id": "05091df0-74e6-41eb-b029-05dbbfc8ac3d",
    "name": "Rodotópi",
    "state_id": "730acea4-72a3-4bbb-b8f1-76413fb20305"
  },
  {
    "id": "eb6796ec-ae5c-4b98-be09-217064aa7d82",
    "name": "Stavráki",
    "state_id": "730acea4-72a3-4bbb-b8f1-76413fb20305"
  },
  {
    "id": "3b1954f7-2802-4ab2-a175-e493d6d9e1f4",
    "name": "Thesprotikó",
    "state_id": "730acea4-72a3-4bbb-b8f1-76413fb20305"
  },
  {
    "id": "2de4a871-be09-41eb-9926-fb1bcc858a66",
    "name": "Tsiflikópoulo",
    "state_id": "730acea4-72a3-4bbb-b8f1-76413fb20305"
  },
  {
    "id": "afb52a31-d915-40ce-b2b1-7751d237ce92",
    "name": "Voulgaréli",
    "state_id": "730acea4-72a3-4bbb-b8f1-76413fb20305"
  },
  {
    "id": "76eb2614-9be0-4623-a5ba-2d27e5fd87a9",
    "name": "Vounoplagiá",
    "state_id": "730acea4-72a3-4bbb-b8f1-76413fb20305"
  }
]