[
  {
    "id": "4af8d906-9095-471d-9b2e-4b9488af5550",
    "name": "Bulnes",
    "state_id": "7449a8be-ea04-44be-9097-4de5845b2687"
  },
  {
    "id": "b62cafd5-15ab-4517-827d-14ad9794bfae",
    "name": "Chillán",
    "state_id": "7449a8be-ea04-44be-9097-4de5845b2687"
  },
  {
    "id": "21468427-8647-4322-b17f-6e3b29a81ff9",
    "name": "Chillán Viejo",
    "state_id": "7449a8be-ea04-44be-9097-4de5845b2687"
  },
  {
    "id": "776b7e6b-fbdb-43a9-8284-92f00ec774bf",
    "name": "Cobquecura",
    "state_id": "7449a8be-ea04-44be-9097-4de5845b2687"
  },
  {
    "id": "a4115b9f-6ce1-41d4-893b-b34ff1b844d7",
    "name": "Coelemu",
    "state_id": "7449a8be-ea04-44be-9097-4de5845b2687"
  },
  {
    "id": "958cc9ab-5471-4081-8ac6-59a63a7d7f62",
    "name": "Coihueco",
    "state_id": "7449a8be-ea04-44be-9097-4de5845b2687"
  },
  {
    "id": "6e423527-e488-4752-b3ac-febbbe75e10f",
    "name": "El Carmen",
    "state_id": "7449a8be-ea04-44be-9097-4de5845b2687"
  },
  {
    "id": "4e366daf-c750-40b9-97fc-785de09f36db",
    "name": "Ninhue",
    "state_id": "7449a8be-ea04-44be-9097-4de5845b2687"
  },
  {
    "id": "2277855d-f959-486e-ac17-46c7c90e8ae8",
    "name": "Ñiquén",
    "state_id": "7449a8be-ea04-44be-9097-4de5845b2687"
  },
  {
    "id": "98532369-d9d7-4ff8-a9ce-6abc9fbcc57f",
    "name": "Pemuco",
    "state_id": "7449a8be-ea04-44be-9097-4de5845b2687"
  },
  {
    "id": "ffbbc0d4-38ec-42fd-a395-404109cd7e5c",
    "name": "Pinto",
    "state_id": "7449a8be-ea04-44be-9097-4de5845b2687"
  },
  {
    "id": "63f495ee-c922-4041-8d95-7a1a25cb9604",
    "name": "Portezuelo",
    "state_id": "7449a8be-ea04-44be-9097-4de5845b2687"
  },
  {
    "id": "4c49cc83-95f2-4811-bb23-7feb27661b5f",
    "name": "Quillón",
    "state_id": "7449a8be-ea04-44be-9097-4de5845b2687"
  },
  {
    "id": "daba45ec-5132-45af-8068-8a17a5367587",
    "name": "Quirihue",
    "state_id": "7449a8be-ea04-44be-9097-4de5845b2687"
  },
  {
    "id": "feeaf2a9-eba0-445a-9a9e-97b9b0c534f1",
    "name": "Ránquil",
    "state_id": "7449a8be-ea04-44be-9097-4de5845b2687"
  },
  {
    "id": "e67627b0-0f31-4b9c-b0f1-ae344abbc324",
    "name": "San Carlos",
    "state_id": "7449a8be-ea04-44be-9097-4de5845b2687"
  },
  {
    "id": "62b26dca-22fb-4337-a265-9480ed54399e",
    "name": "San Fabián",
    "state_id": "7449a8be-ea04-44be-9097-4de5845b2687"
  },
  {
    "id": "7af4199b-6b62-405f-b94c-78fb40ff6372",
    "name": "San Ignacio",
    "state_id": "7449a8be-ea04-44be-9097-4de5845b2687"
  },
  {
    "id": "9f2f54f0-2e98-42e2-a5d0-bf49331002c8",
    "name": "San Nicolás",
    "state_id": "7449a8be-ea04-44be-9097-4de5845b2687"
  },
  {
    "id": "97861455-253c-48b9-8833-aa1b99b3773d",
    "name": "Treguaco",
    "state_id": "7449a8be-ea04-44be-9097-4de5845b2687"
  },
  {
    "id": "e6a920fe-e658-4d86-a68f-3ee740d8ad76",
    "name": "Yungay",
    "state_id": "7449a8be-ea04-44be-9097-4de5845b2687"
  }
]