[
  {
    "id": "23efbe0e-542b-4ec8-b74a-14cb020a26c0",
    "name": "Akkışla",
    "state_id": "74bdd644-c9e2-47a1-ac39-5b9f5c543110"
  },
  {
    "id": "0c490e2c-5fab-4a07-9ec9-ef4659f88ada",
    "name": "Bünyan",
    "state_id": "74bdd644-c9e2-47a1-ac39-5b9f5c543110"
  },
  {
    "id": "77b3e1f3-7706-4f4a-990c-243446ad773c",
    "name": "Develi",
    "state_id": "74bdd644-c9e2-47a1-ac39-5b9f5c543110"
  },
  {
    "id": "e9d1421c-c8e0-4529-98a6-a1959c9ea9f3",
    "name": "Felahiye",
    "state_id": "74bdd644-c9e2-47a1-ac39-5b9f5c543110"
  },
  {
    "id": "1a3f86dc-d17a-47b2-8cc0-e19d407c9dd4",
    "name": "Hacılar",
    "state_id": "74bdd644-c9e2-47a1-ac39-5b9f5c543110"
  },
  {
    "id": "c6bbdea1-e613-4e7b-821f-1291ab27e021",
    "name": "Incesu",
    "state_id": "74bdd644-c9e2-47a1-ac39-5b9f5c543110"
  },
  {
    "id": "12124919-4304-4d1a-86a9-b1c9d9ebddaa",
    "name": "Kayseri",
    "state_id": "74bdd644-c9e2-47a1-ac39-5b9f5c543110"
  },
  {
    "id": "7075ca49-95a2-4ea1-9b39-ae34b13895a9",
    "name": "Kocasinan",
    "state_id": "74bdd644-c9e2-47a1-ac39-5b9f5c543110"
  },
  {
    "id": "091503df-b12c-4af9-bf73-d9e39f329b0f",
    "name": "Melikgazi",
    "state_id": "74bdd644-c9e2-47a1-ac39-5b9f5c543110"
  },
  {
    "id": "42e19167-b78c-47a9-8fc9-d07e84ab6ec3",
    "name": "Özvatan İlçesi",
    "state_id": "74bdd644-c9e2-47a1-ac39-5b9f5c543110"
  },
  {
    "id": "ebf7af97-3d86-4f71-a4ff-76430dea1242",
    "name": "Pınarbaşı",
    "state_id": "74bdd644-c9e2-47a1-ac39-5b9f5c543110"
  },
  {
    "id": "e4f45967-12eb-4e48-997e-3eddcfc23691",
    "name": "Sarıoğlan",
    "state_id": "74bdd644-c9e2-47a1-ac39-5b9f5c543110"
  },
  {
    "id": "da298c35-e718-4190-9ce2-f68832c5b76f",
    "name": "Sarız",
    "state_id": "74bdd644-c9e2-47a1-ac39-5b9f5c543110"
  },
  {
    "id": "1eb42eda-b240-488f-bbf0-b203ba747cb9",
    "name": "Talas",
    "state_id": "74bdd644-c9e2-47a1-ac39-5b9f5c543110"
  },
  {
    "id": "02b15ac8-2154-4c1e-bcfa-abc4a2faf0e0",
    "name": "Tomarza",
    "state_id": "74bdd644-c9e2-47a1-ac39-5b9f5c543110"
  },
  {
    "id": "e3ebf4c8-1806-45a3-99b7-e706cce49cf9",
    "name": "Yahyali",
    "state_id": "74bdd644-c9e2-47a1-ac39-5b9f5c543110"
  },
  {
    "id": "1e70c50f-a368-4b94-9bde-2c5cfebf8d0b",
    "name": "Yahyalı",
    "state_id": "74bdd644-c9e2-47a1-ac39-5b9f5c543110"
  },
  {
    "id": "088696be-e0fb-49a3-b7f5-cff59817b651",
    "name": "Yesilhisar",
    "state_id": "74bdd644-c9e2-47a1-ac39-5b9f5c543110"
  }
]