[
  {
    "id": "bf7e1ff7-597c-44f9-89c7-cf86b1e7ba00",
    "name": "Albina",
    "state_id": "7560d6e0-6192-497c-bbdc-ffbc1f6bb79b"
  },
  {
    "id": "3d2100c5-5bff-4817-8d2c-53963ad3b0c6",
    "name": "Moengo",
    "state_id": "7560d6e0-6192-497c-bbdc-ffbc1f6bb79b"
  }
]