[
  {
    "id": "05ff65f7-6a34-45a3-b9ca-b6279e775e00",
    "name": "Isiro",
    "state_id": "75d89d6a-2b57-4200-a7ad-421a1f564c1a"
  },
  {
    "id": "85a6cff6-d650-4e3e-a364-3286f0b5428b",
    "name": "Wamba",
    "state_id": "75d89d6a-2b57-4200-a7ad-421a1f564c1a"
  },
  {
    "id": "bfa90048-584a-4947-8d6f-0726f636469b",
    "name": "Watsa",
    "state_id": "75d89d6a-2b57-4200-a7ad-421a1f564c1a"
  }
]