[
  {
    "id": "82f640d8-bd7f-44c3-85ed-bece7c506fa1",
    "name": "Qusar",
    "state_id": "77ed186b-ab39-4d56-bce1-66dd482e32a0"
  },
  {
    "id": "191f0a76-1ff7-4b01-a451-a9ac5fc9a1a8",
    "name": "Samur",
    "state_id": "77ed186b-ab39-4d56-bce1-66dd482e32a0"
  }
]