[
  {
    "id": "8b703934-5d49-4ab1-a132-6e25fa262ef9",
    "name": "Aleksandrovskoye",
    "state_id": "77f77ce7-a8f0-4ae9-9f5a-e18d4ff21079"
  },
  {
    "id": "dc99e24d-330d-4d92-a39b-9df894e60564",
    "name": "Asino",
    "state_id": "77f77ce7-a8f0-4ae9-9f5a-e18d4ff21079"
  },
  {
    "id": "296004f6-2a59-4363-97af-eef91a903716",
    "name": "Bakchar",
    "state_id": "77f77ce7-a8f0-4ae9-9f5a-e18d4ff21079"
  },
  {
    "id": "efbbcf7f-7e3e-42c7-8521-1a2e98037611",
    "name": "Belyy Yar",
    "state_id": "77f77ce7-a8f0-4ae9-9f5a-e18d4ff21079"
  },
  {
    "id": "5562c75a-521b-4102-bd8b-12ab905c782a",
    "name": "Bogashevo",
    "state_id": "77f77ce7-a8f0-4ae9-9f5a-e18d4ff21079"
  },
  {
    "id": "a0b72732-f232-4e4c-917d-e59b52559ba4",
    "name": "Kaltay",
    "state_id": "77f77ce7-a8f0-4ae9-9f5a-e18d4ff21079"
  },
  {
    "id": "83043888-bb30-43c8-8935-2693267192f8",
    "name": "Kargasok",
    "state_id": "77f77ce7-a8f0-4ae9-9f5a-e18d4ff21079"
  },
  {
    "id": "6fa252be-ca4b-4a44-9788-84f587dd5da7",
    "name": "Kedrovyy",
    "state_id": "77f77ce7-a8f0-4ae9-9f5a-e18d4ff21079"
  },
  {
    "id": "7872d839-fb5b-4fee-b286-31bf9ce483e5",
    "name": "Kolpashevo",
    "state_id": "77f77ce7-a8f0-4ae9-9f5a-e18d4ff21079"
  },
  {
    "id": "078d61d3-5862-41b5-b224-d1748b825e1d",
    "name": "Kozhevnikovo",
    "state_id": "77f77ce7-a8f0-4ae9-9f5a-e18d4ff21079"
  },
  {
    "id": "d96880f1-5cfb-4deb-bd63-8b62698529e9",
    "name": "Krasnyy Yar",
    "state_id": "77f77ce7-a8f0-4ae9-9f5a-e18d4ff21079"
  },
  {
    "id": "abe99c3f-a47a-439f-be18-53137574f2be",
    "name": "Krivosheino",
    "state_id": "77f77ce7-a8f0-4ae9-9f5a-e18d4ff21079"
  },
  {
    "id": "fe9aa39b-d305-4398-a07d-3035a4ed2d21",
    "name": "Mel’nikovo",
    "state_id": "77f77ce7-a8f0-4ae9-9f5a-e18d4ff21079"
  },
  {
    "id": "efd00d37-dd14-4933-afd1-ddf47231b0ec",
    "name": "Molchanovo",
    "state_id": "77f77ce7-a8f0-4ae9-9f5a-e18d4ff21079"
  },
  {
    "id": "3f8dcf79-3589-459b-b172-055fd8652b6e",
    "name": "Molchanovskiy Rayon",
    "state_id": "77f77ce7-a8f0-4ae9-9f5a-e18d4ff21079"
  },
  {
    "id": "8abfc3f5-99a9-4761-b9f1-024ffb796f99",
    "name": "Moryakovskiy Zaton",
    "state_id": "77f77ce7-a8f0-4ae9-9f5a-e18d4ff21079"
  },
  {
    "id": "9081510f-acce-40b7-b92e-3a784e56829b",
    "name": "Parabel’",
    "state_id": "77f77ce7-a8f0-4ae9-9f5a-e18d4ff21079"
  },
  {
    "id": "2fb4a55a-1747-473b-a8fe-6da26060e2d3",
    "name": "Pervomayskoye",
    "state_id": "77f77ce7-a8f0-4ae9-9f5a-e18d4ff21079"
  },
  {
    "id": "d19317d0-3108-426f-b229-5455211e994a",
    "name": "Podgornoye",
    "state_id": "77f77ce7-a8f0-4ae9-9f5a-e18d4ff21079"
  },
  {
    "id": "5c012bc9-f979-4979-9843-fc21fb3cbc31",
    "name": "Samus’",
    "state_id": "77f77ce7-a8f0-4ae9-9f5a-e18d4ff21079"
  },
  {
    "id": "3a339cf9-b759-4b9e-9eee-9426869b8aeb",
    "name": "Seversk",
    "state_id": "77f77ce7-a8f0-4ae9-9f5a-e18d4ff21079"
  },
  {
    "id": "9f5030c8-dca6-48d0-939d-54f4095ec2ac",
    "name": "Strezhevoy",
    "state_id": "77f77ce7-a8f0-4ae9-9f5a-e18d4ff21079"
  },
  {
    "id": "63927870-9686-457d-a0f3-dd7d0423a72c",
    "name": "Svetlyy",
    "state_id": "77f77ce7-a8f0-4ae9-9f5a-e18d4ff21079"
  },
  {
    "id": "b8a1b02e-e0ef-47bc-a3f6-a472753b28b7",
    "name": "Tegul’det",
    "state_id": "77f77ce7-a8f0-4ae9-9f5a-e18d4ff21079"
  },
  {
    "id": "f100f49c-218d-4c11-bb7b-082063db30f8",
    "name": "Tegul’detskiy Rayon",
    "state_id": "77f77ce7-a8f0-4ae9-9f5a-e18d4ff21079"
  },
  {
    "id": "b4c6a1c9-c96d-4639-8d62-414ae1aa9f30",
    "name": "Timiryazevskoye",
    "state_id": "77f77ce7-a8f0-4ae9-9f5a-e18d4ff21079"
  },
  {
    "id": "010ae3be-8826-4356-a7d1-2f49ad81d0d6",
    "name": "Togur",
    "state_id": "77f77ce7-a8f0-4ae9-9f5a-e18d4ff21079"
  },
  {
    "id": "aba5c17b-907f-48b5-90d8-42dd3d4a9af3",
    "name": "Tomsk",
    "state_id": "77f77ce7-a8f0-4ae9-9f5a-e18d4ff21079"
  },
  {
    "id": "7fd2d103-f45a-4f15-9d7c-5432bfd6f046",
    "name": "Tomskiy Rayon",
    "state_id": "77f77ce7-a8f0-4ae9-9f5a-e18d4ff21079"
  },
  {
    "id": "ddd30117-9731-4261-bbed-e055d6748533",
    "name": "Zyryanskoye",
    "state_id": "77f77ce7-a8f0-4ae9-9f5a-e18d4ff21079"
  }
]