[
  {
    "id": "6b22e446-4319-4e3a-a1d9-ec7222bebdca",
    "name": "Chisinau",
    "state_id": "781d98bd-7032-4f43-a691-b76be227e1fd"
  },
  {
    "id": "1f3c8904-4090-457c-9fa7-97f8087cfc50",
    "name": "Ciorescu",
    "state_id": "781d98bd-7032-4f43-a691-b76be227e1fd"
  },
  {
    "id": "1d1afa73-169a-4229-bc49-51d833a7eab0",
    "name": "Cricova",
    "state_id": "781d98bd-7032-4f43-a691-b76be227e1fd"
  },
  {
    "id": "e9a9440f-3213-451f-866e-a18f5ab6ce71",
    "name": "Sîngera",
    "state_id": "781d98bd-7032-4f43-a691-b76be227e1fd"
  },
  {
    "id": "14dad1e5-0e32-48a3-af8a-6790cb12fbe8",
    "name": "Stăuceni",
    "state_id": "781d98bd-7032-4f43-a691-b76be227e1fd"
  },
  {
    "id": "31cb5fa3-4d22-4317-8cc5-b58b193a4b04",
    "name": "Vadul lui Vodă",
    "state_id": "781d98bd-7032-4f43-a691-b76be227e1fd"
  },
  {
    "id": "5fb6d159-310f-4ad1-87bb-8283caeea2e8",
    "name": "Vatra",
    "state_id": "781d98bd-7032-4f43-a691-b76be227e1fd"
  }
]