[
  {
    "id": "0586a68d-711e-4713-819e-84bd7c645a8f",
    "name": "Bhimbar",
    "state_id": "791fb9d1-5087-419a-8055-4dad9b6cf1d0"
  },
  {
    "id": "6c3807a1-9ea2-4826-9326-6d3efe0db0e8",
    "name": "Kotli",
    "state_id": "791fb9d1-5087-419a-8055-4dad9b6cf1d0"
  },
  {
    "id": "9cb807d1-3373-4495-9571-4cd908afbff6",
    "name": "Kotli District",
    "state_id": "791fb9d1-5087-419a-8055-4dad9b6cf1d0"
  },
  {
    "id": "9348e42c-94e2-4cf6-b4e3-038213c02d03",
    "name": "Mirpur District",
    "state_id": "791fb9d1-5087-419a-8055-4dad9b6cf1d0"
  },
  {
    "id": "52fc9364-e8a0-4b5e-bad8-b3c2188b956c",
    "name": "Muzaffarābād",
    "state_id": "791fb9d1-5087-419a-8055-4dad9b6cf1d0"
  },
  {
    "id": "df157217-53bb-4030-b2b7-700d977a0930",
    "name": "New Mirpur",
    "state_id": "791fb9d1-5087-419a-8055-4dad9b6cf1d0"
  },
  {
    "id": "63e96554-0ed3-48d3-80c5-5decd9ae2fb3",
    "name": "Rawala Kot",
    "state_id": "791fb9d1-5087-419a-8055-4dad9b6cf1d0"
  }
]