[
  {
    "id": "d979af44-52bd-4841-8a93-938fff394cc7",
    "name": "Alaplı",
    "state_id": "79220225-8c7f-45bb-9cf9-f076768ea027"
  },
  {
    "id": "b96b0246-5310-4458-84e2-90e3fe026fd5",
    "name": "Çaycuma",
    "state_id": "79220225-8c7f-45bb-9cf9-f076768ea027"
  },
  {
    "id": "ac91653e-5663-4455-b1e2-ad4aa995f5bd",
    "name": "Devrek",
    "state_id": "79220225-8c7f-45bb-9cf9-f076768ea027"
  },
  {
    "id": "6a4e5186-a0b1-4f37-b577-a753ca95282c",
    "name": "Ereğli",
    "state_id": "79220225-8c7f-45bb-9cf9-f076768ea027"
  },
  {
    "id": "bb44563a-cdff-4d75-a016-825bfa883081",
    "name": "Gökçebey İlçesi",
    "state_id": "79220225-8c7f-45bb-9cf9-f076768ea027"
  },
  {
    "id": "846cd355-d88a-47fc-b14a-37f96d4d6c0b",
    "name": "Kilimli",
    "state_id": "79220225-8c7f-45bb-9cf9-f076768ea027"
  },
  {
    "id": "efef3be9-5771-420d-8fd6-9e83b6295171",
    "name": "Kozlu",
    "state_id": "79220225-8c7f-45bb-9cf9-f076768ea027"
  },
  {
    "id": "e8360e4a-abe5-49aa-b8b6-e743a4741581",
    "name": "Zonguldak",
    "state_id": "79220225-8c7f-45bb-9cf9-f076768ea027"
  }
]