[
  {
    "id": "89efd4ea-aebe-4afe-9278-52043986c815",
    "name": "Arcahaie",
    "state_id": "798c0b37-2922-4e9b-a0b3-923bdf0af1b3"
  },
  {
    "id": "2f1f674c-3eb1-4f3f-b6b0-90407ee367c6",
    "name": "Arrondissement de Port-de-Paix",
    "state_id": "798c0b37-2922-4e9b-a0b3-923bdf0af1b3"
  },
  {
    "id": "bca4ec86-5c66-4d96-b5d6-6345cd03bda6",
    "name": "Arrondissement de Saint-Louis du Nord",
    "state_id": "798c0b37-2922-4e9b-a0b3-923bdf0af1b3"
  },
  {
    "id": "957b9fca-9077-41c8-98e0-4e129d9dbb0f",
    "name": "Arrondissement du Môle Saint-Nicolas",
    "state_id": "798c0b37-2922-4e9b-a0b3-923bdf0af1b3"
  },
  {
    "id": "71a5959b-19aa-4f96-8568-0ba249d79315",
    "name": "Baie de Henne",
    "state_id": "798c0b37-2922-4e9b-a0b3-923bdf0af1b3"
  },
  {
    "id": "381ea641-8ae3-4bdb-98f9-700cf21538f5",
    "name": "Bombardopolis",
    "state_id": "798c0b37-2922-4e9b-a0b3-923bdf0af1b3"
  },
  {
    "id": "b4f7e0b5-695b-4e36-820a-af3a963d9c55",
    "name": "Fond Bassin Bleu",
    "state_id": "798c0b37-2922-4e9b-a0b3-923bdf0af1b3"
  },
  {
    "id": "5f28b548-7eec-46ea-b4c9-fa5f86a1b337",
    "name": "Jean-Rabel",
    "state_id": "798c0b37-2922-4e9b-a0b3-923bdf0af1b3"
  },
  {
    "id": "a3a74348-1c9d-48fd-ab52-e6ad71f7bd32",
    "name": "Môle Saint-Nicolas",
    "state_id": "798c0b37-2922-4e9b-a0b3-923bdf0af1b3"
  },
  {
    "id": "5637c895-4134-4dc9-9ce0-821d4eb4431e",
    "name": "Petite Anse",
    "state_id": "798c0b37-2922-4e9b-a0b3-923bdf0af1b3"
  },
  {
    "id": "10ae473c-e650-4a69-9c51-67d101b6c418",
    "name": "Port-de-Paix",
    "state_id": "798c0b37-2922-4e9b-a0b3-923bdf0af1b3"
  },
  {
    "id": "a796757d-7c8b-4e85-bbdc-3d1f7b681ad8",
    "name": "Saint-Louis du Nord",
    "state_id": "798c0b37-2922-4e9b-a0b3-923bdf0af1b3"
  },
  {
    "id": "e5e3c6c5-797f-495b-a8de-9fdb528a4e4d",
    "name": "Ti Port-de-Paix",
    "state_id": "798c0b37-2922-4e9b-a0b3-923bdf0af1b3"
  }
]