[
  {
    "id": "6c3297d6-6e96-490a-a148-dd7af6a58106",
    "name": "Alfonso Garzón [Granjas Familiares]",
    "state_id": "79d0375b-d16b-40a4-8637-e3e3aa271d25"
  },
  {
    "id": "7140b2a6-79bd-4dbd-b98a-0ebf36908d03",
    "name": "Benito García (El Zorrillo)",
    "state_id": "79d0375b-d16b-40a4-8637-e3e3aa271d25"
  },
  {
    "id": "77a68818-0a66-473e-8509-a76fe5078b22",
    "name": "Benito Juárez",
    "state_id": "79d0375b-d16b-40a4-8637-e3e3aa271d25"
  },
  {
    "id": "7417f0fa-1196-477d-851a-8df65aa1b5e7",
    "name": "Buenos Aires",
    "state_id": "79d0375b-d16b-40a4-8637-e3e3aa271d25"
  },
  {
    "id": "19816208-9707-41f4-8bfa-10e3f0196b47",
    "name": "Camalú",
    "state_id": "79d0375b-d16b-40a4-8637-e3e3aa271d25"
  },
  {
    "id": "5816e009-1541-45d4-a5e7-8e3145a099af",
    "name": "Cereso del Hongo",
    "state_id": "79d0375b-d16b-40a4-8637-e3e3aa271d25"
  },
  {
    "id": "186c699d-8a63-47b7-8c0d-b3b825402de2",
    "name": "Ciudad Coahuila (Kilómetro Cincuenta y Siete)",
    "state_id": "79d0375b-d16b-40a4-8637-e3e3aa271d25"
  },
  {
    "id": "6bdad290-cfef-479a-8172-e43e0b187aad",
    "name": "Ciudad Morelos",
    "state_id": "79d0375b-d16b-40a4-8637-e3e3aa271d25"
  },
  {
    "id": "a66e1b39-c421-4160-8d7b-4008ecd0068b",
    "name": "Colinas del Sol",
    "state_id": "79d0375b-d16b-40a4-8637-e3e3aa271d25"
  },
  {
    "id": "3e2abc7e-0e08-47ce-b94e-67dc2e7930d4",
    "name": "Colonia Gómez Morín",
    "state_id": "79d0375b-d16b-40a4-8637-e3e3aa271d25"
  },
  {
    "id": "0e7b24de-eaf6-433e-81d4-1b862a18b74c",
    "name": "Colonia Lomas de San Ramón (Triquis)",
    "state_id": "79d0375b-d16b-40a4-8637-e3e3aa271d25"
  },
  {
    "id": "2c12a9c5-28cb-47a3-a025-88628b63ec26",
    "name": "Colonia Nueva Era",
    "state_id": "79d0375b-d16b-40a4-8637-e3e3aa271d25"
  },
  {
    "id": "0f7936a2-1be1-48a9-9c48-3ed31e46e726",
    "name": "Colonia Venustiano Carranza",
    "state_id": "79d0375b-d16b-40a4-8637-e3e3aa271d25"
  },
  {
    "id": "2915848b-e6a0-401e-a6a9-eea2c33d6001",
    "name": "Delta",
    "state_id": "79d0375b-d16b-40a4-8637-e3e3aa271d25"
  },
  {
    "id": "790dd163-9811-430e-9023-f4ca4f748523",
    "name": "Doctor Alberto Oviedo Mota",
    "state_id": "79d0375b-d16b-40a4-8637-e3e3aa271d25"
  },
  {
    "id": "f5b8e68a-8a4d-467a-83bc-987ef650d571",
    "name": "Durango",
    "state_id": "79d0375b-d16b-40a4-8637-e3e3aa271d25"
  },
  {
    "id": "7a76e986-742a-4ebd-ae2f-df7609d84132",
    "name": "Ejido Doctor Alberto Oviedo Mota (El Indiviso)",
    "state_id": "79d0375b-d16b-40a4-8637-e3e3aa271d25"
  },
  {
    "id": "ab6c2b41-1c3d-44ba-8ac9-3fecdc3a801f",
    "name": "Ejido General Leandro Valle",
    "state_id": "79d0375b-d16b-40a4-8637-e3e3aa271d25"
  },
  {
    "id": "41bf9019-1e43-499c-a548-94f7b917edcb",
    "name": "Ejido Javier Rojo Gómez",
    "state_id": "79d0375b-d16b-40a4-8637-e3e3aa271d25"
  },
  {
    "id": "d388de1c-a3ba-414e-a265-54cc18cf3371",
    "name": "Ejido Jiquilpan",
    "state_id": "79d0375b-d16b-40a4-8637-e3e3aa271d25"
  },
  {
    "id": "c3f99e7e-4cd5-4388-8d32-25dc3f1a4602",
    "name": "Ejido Lázaro Cárdenas",
    "state_id": "79d0375b-d16b-40a4-8637-e3e3aa271d25"
  },
  {
    "id": "d2c699f4-a3eb-4306-8325-48429eb14ee0",
    "name": "Ejido Michoacán de Ocampo",
    "state_id": "79d0375b-d16b-40a4-8637-e3e3aa271d25"
  },
  {
    "id": "01760fb4-a35f-413b-8b10-6665cdc18336",
    "name": "Ejido Netzahualcóyotl",
    "state_id": "79d0375b-d16b-40a4-8637-e3e3aa271d25"
  },
  {
    "id": "23ae2e99-dae4-48e0-bcf2-5f0fac599d1f",
    "name": "Ejido Nuevo León",
    "state_id": "79d0375b-d16b-40a4-8637-e3e3aa271d25"
  },
  {
    "id": "a433f27e-9419-4d93-b99f-7bb22f928b70",
    "name": "Ejido Ojo de Agua",
    "state_id": "79d0375b-d16b-40a4-8637-e3e3aa271d25"
  },
  {
    "id": "9747243d-6770-42f1-af51-39aa5602dc6b",
    "name": "Ejido Pátzcuaro",
    "state_id": "79d0375b-d16b-40a4-8637-e3e3aa271d25"
  },
  {
    "id": "493fe2fc-9f6d-4d7b-8f21-ee5424146e15",
    "name": "Ejido Plan de Ayala",
    "state_id": "79d0375b-d16b-40a4-8637-e3e3aa271d25"
  },
  {
    "id": "07b746ad-fdf7-45d2-a5e3-576fde28cd93",
    "name": "Ejido Quintana Roo",
    "state_id": "79d0375b-d16b-40a4-8637-e3e3aa271d25"
  },
  {
    "id": "7afb7b3e-180d-46d9-bfce-d0c136441b5f",
    "name": "Ejido Saltillo",
    "state_id": "79d0375b-d16b-40a4-8637-e3e3aa271d25"
  },
  {
    "id": "84f279fe-ee1b-4109-b2b4-390eed7e400f",
    "name": "Ejido Sinaloa",
    "state_id": "79d0375b-d16b-40a4-8637-e3e3aa271d25"
  },
  {
    "id": "8391fccf-2488-4b22-a264-0b11a1e1a588",
    "name": "Ejido Sonora",
    "state_id": "79d0375b-d16b-40a4-8637-e3e3aa271d25"
  },
  {
    "id": "2f095d72-ef22-4737-9271-02b3d971e18f",
    "name": "Ejido Tabasco",
    "state_id": "79d0375b-d16b-40a4-8637-e3e3aa271d25"
  },
  {
    "id": "cabb6edc-3256-4c31-b33a-798aa5c380ee",
    "name": "Ejido Toluca",
    "state_id": "79d0375b-d16b-40a4-8637-e3e3aa271d25"
  },
  {
    "id": "ebe7ab7b-666a-4983-ac0e-e78502429af5",
    "name": "Ejido Vicente Guerrero",
    "state_id": "79d0375b-d16b-40a4-8637-e3e3aa271d25"
  },
  {
    "id": "74ac3523-c251-494c-9c30-c18381413824",
    "name": "Ejido Yucatán",
    "state_id": "79d0375b-d16b-40a4-8637-e3e3aa271d25"
  },
  {
    "id": "f649fb02-faca-41f9-8897-c61f982b1676",
    "name": "El Niño",
    "state_id": "79d0375b-d16b-40a4-8637-e3e3aa271d25"
  },
  {
    "id": "0470b6a9-5373-4bbb-a54d-79425e3718df",
    "name": "El Porvenir",
    "state_id": "79d0375b-d16b-40a4-8637-e3e3aa271d25"
  },
  {
    "id": "e7608751-4651-4033-aa84-5b26d1749dd0",
    "name": "El Rosario de Arriba",
    "state_id": "79d0375b-d16b-40a4-8637-e3e3aa271d25"
  },
  {
    "id": "c53440ba-f0c5-4bde-8402-1d6b494c873c",
    "name": "El Sauzal de Rodríguez",
    "state_id": "79d0375b-d16b-40a4-8637-e3e3aa271d25"
  },
  {
    "id": "ec90e6c0-569a-4b1e-8ca2-ec5a2cae4ac5",
    "name": "Emiliano Zapata",
    "state_id": "79d0375b-d16b-40a4-8637-e3e3aa271d25"
  },
  {
    "id": "69c7d74f-0ced-483c-b539-ac2a64eff251",
    "name": "Ensenada",
    "state_id": "79d0375b-d16b-40a4-8637-e3e3aa271d25"
  },
  {
    "id": "c2104461-dd12-4242-94b2-509a653b1404",
    "name": "Estación Coahuila",
    "state_id": "79d0375b-d16b-40a4-8637-e3e3aa271d25"
  },
  {
    "id": "06654935-0471-4863-b08b-e63afdecd6ad",
    "name": "Estación Pescaderos",
    "state_id": "79d0375b-d16b-40a4-8637-e3e3aa271d25"
  },
  {
    "id": "19229fa4-a7e5-49da-9dcf-2da0cd06b856",
    "name": "Fraccionamiento del Valle",
    "state_id": "79d0375b-d16b-40a4-8637-e3e3aa271d25"
  },
  {
    "id": "b9a0da74-8426-4b54-96c1-c0eef5c82bc2",
    "name": "Francisco Zarco",
    "state_id": "79d0375b-d16b-40a4-8637-e3e3aa271d25"
  },
  {
    "id": "8551b10d-72ec-4261-b8d2-46d3aed3ba4a",
    "name": "Guadalupe Victoria",
    "state_id": "79d0375b-d16b-40a4-8637-e3e3aa271d25"
  },
  {
    "id": "6c820c27-12e0-4d4c-8da9-a9a93e9844cd",
    "name": "Guerrero Negro",
    "state_id": "79d0375b-d16b-40a4-8637-e3e3aa271d25"
  },
  {
    "id": "84c0a0ef-7a67-42a5-9d3a-0e88a50ac72a",
    "name": "Hacienda Tecate",
    "state_id": "79d0375b-d16b-40a4-8637-e3e3aa271d25"
  },
  {
    "id": "6e6fb5e5-38cf-4a98-8cbe-ffbfea5bb79d",
    "name": "Hermosillo",
    "state_id": "79d0375b-d16b-40a4-8637-e3e3aa271d25"
  },
  {
    "id": "c3097502-fad9-45fd-bb01-233833c5f44d",
    "name": "Islas Agrarias Grupo A",
    "state_id": "79d0375b-d16b-40a4-8637-e3e3aa271d25"
  },
  {
    "id": "9963812d-88bf-4473-a9cb-50f9d2464066",
    "name": "Islas Agrarias Grupo B",
    "state_id": "79d0375b-d16b-40a4-8637-e3e3aa271d25"
  },
  {
    "id": "5253945a-1866-45d2-b37a-3814520c2d24",
    "name": "La Esperanza [Granjas Familiares]",
    "state_id": "79d0375b-d16b-40a4-8637-e3e3aa271d25"
  },
  {
    "id": "f74bdf6d-55cd-43a6-8f30-b1054c91bf2c",
    "name": "La Providencia",
    "state_id": "79d0375b-d16b-40a4-8637-e3e3aa271d25"
  },
  {
    "id": "8ddecf6a-dd90-4a2b-88eb-8ab846588037",
    "name": "Las Brisas",
    "state_id": "79d0375b-d16b-40a4-8637-e3e3aa271d25"
  },
  {
    "id": "fbff81d7-fb9b-4a7c-9be1-ad3bc2f670f6",
    "name": "Las Delicias",
    "state_id": "79d0375b-d16b-40a4-8637-e3e3aa271d25"
  },
  {
    "id": "25258883-ee3e-4b0e-a1d5-645cd8079d5b",
    "name": "Lázaro Cárdenas",
    "state_id": "79d0375b-d16b-40a4-8637-e3e3aa271d25"
  },
  {
    "id": "3aeae3b4-8117-46b0-a68c-4bf0dfdea875",
    "name": "Licenciado Gustavo Díaz Ordaz",
    "state_id": "79d0375b-d16b-40a4-8637-e3e3aa271d25"
  },
  {
    "id": "d1898be8-2a12-4577-833e-3fead358c13e",
    "name": "Lomas de Santa Anita",
    "state_id": "79d0375b-d16b-40a4-8637-e3e3aa271d25"
  },
  {
    "id": "98e8b1a0-2c6b-474d-8081-d0670c0f5eea",
    "name": "Lomas de Tlatelolco",
    "state_id": "79d0375b-d16b-40a4-8637-e3e3aa271d25"
  },
  {
    "id": "8d9de5a4-cad6-4faf-b22f-2d6455c6c586",
    "name": "Los Algodones",
    "state_id": "79d0375b-d16b-40a4-8637-e3e3aa271d25"
  },
  {
    "id": "f2ed147d-3c0c-4271-ab1e-dde9ca32095a",
    "name": "Los Valles",
    "state_id": "79d0375b-d16b-40a4-8637-e3e3aa271d25"
  },
  {
    "id": "f628cfca-ecc0-4779-a7be-4e53939550e9",
    "name": "Luis Rodríguez (El Vergel)",
    "state_id": "79d0375b-d16b-40a4-8637-e3e3aa271d25"
  },
  {
    "id": "77ea3527-4316-43f6-9502-3a71a920a113",
    "name": "Maclovio Herrera (Colonia Aviación)",
    "state_id": "79d0375b-d16b-40a4-8637-e3e3aa271d25"
  },
  {
    "id": "932efbfd-2765-4fe4-ac21-51017c77d351",
    "name": "Maclovio Rojas",
    "state_id": "79d0375b-d16b-40a4-8637-e3e3aa271d25"
  },
  {
    "id": "9dadbe9e-87a1-4933-8e54-f9d1913f3beb",
    "name": "Mexicali",
    "state_id": "79d0375b-d16b-40a4-8637-e3e3aa271d25"
  },
  {
    "id": "4ae92e4e-f1c4-4140-aca9-e9b3e1457d93",
    "name": "Playas de Rosarito",
    "state_id": "79d0375b-d16b-40a4-8637-e3e3aa271d25"
  },
  {
    "id": "7a40a715-023b-426c-a359-8e44c26c753b",
    "name": "Poblado Chulavista (El Chorizo)",
    "state_id": "79d0375b-d16b-40a4-8637-e3e3aa271d25"
  },
  {
    "id": "0ab55b9d-ae32-4599-ad6a-dd94b3fe9805",
    "name": "Poblado Lázaro Cárdenas (La Veintiocho)",
    "state_id": "79d0375b-d16b-40a4-8637-e3e3aa271d25"
  },
  {
    "id": "0c187b27-e3a6-4a08-bd6e-568ece13d669",
    "name": "Pórticos de San Antonio",
    "state_id": "79d0375b-d16b-40a4-8637-e3e3aa271d25"
  },
  {
    "id": "7153028c-7bd0-4a8c-a8d8-882ad913c814",
    "name": "Primo Tapia",
    "state_id": "79d0375b-d16b-40a4-8637-e3e3aa271d25"
  },
  {
    "id": "3efd7f86-8e93-4d98-99c5-3264d4b73f11",
    "name": "Progreso",
    "state_id": "79d0375b-d16b-40a4-8637-e3e3aa271d25"
  },
  {
    "id": "7ec4b4eb-6d14-4dd8-b673-6dfba831f53b",
    "name": "Puebla",
    "state_id": "79d0375b-d16b-40a4-8637-e3e3aa271d25"
  },
  {
    "id": "c8c54d4b-17f2-400a-b456-22f714407e88",
    "name": "Pueblo Benito García",
    "state_id": "79d0375b-d16b-40a4-8637-e3e3aa271d25"
  },
  {
    "id": "94a05da3-d37e-40d4-ba29-e50467d8f5d8",
    "name": "Quinta del Cedro",
    "state_id": "79d0375b-d16b-40a4-8637-e3e3aa271d25"
  },
  {
    "id": "f77dbb22-d253-4f1c-aa1c-2a4a829f9844",
    "name": "Rancho La Gloria",
    "state_id": "79d0375b-d16b-40a4-8637-e3e3aa271d25"
  },
  {
    "id": "e29ba99d-ddf0-4fec-bb3b-49915eca7925",
    "name": "Rancho Verde",
    "state_id": "79d0375b-d16b-40a4-8637-e3e3aa271d25"
  },
  {
    "id": "0ebdfc3f-d048-4950-af06-678daa8fd3cb",
    "name": "Rodolfo Sánchez Taboada",
    "state_id": "79d0375b-d16b-40a4-8637-e3e3aa271d25"
  },
  {
    "id": "bbb37660-9558-4163-9294-55f85f6d1417",
    "name": "Rosarito",
    "state_id": "79d0375b-d16b-40a4-8637-e3e3aa271d25"
  },
  {
    "id": "2fba48c9-7ddf-4ce3-8175-9a0593c8858f",
    "name": "Rumorosa",
    "state_id": "79d0375b-d16b-40a4-8637-e3e3aa271d25"
  },
  {
    "id": "68720fa2-37ad-42bd-869d-28a7778989fc",
    "name": "Salvador Rosas Magallón",
    "state_id": "79d0375b-d16b-40a4-8637-e3e3aa271d25"
  },
  {
    "id": "167f6c74-9347-450d-872e-8ef55429d25f",
    "name": "San Felipe",
    "state_id": "79d0375b-d16b-40a4-8637-e3e3aa271d25"
  },
  {
    "id": "19f36e2e-16a9-419a-9cb9-ab0682d085a9",
    "name": "San Luis",
    "state_id": "79d0375b-d16b-40a4-8637-e3e3aa271d25"
  },
  {
    "id": "0cad261f-2571-49b9-a923-649f61ced37d",
    "name": "San Quintín",
    "state_id": "79d0375b-d16b-40a4-8637-e3e3aa271d25"
  },
  {
    "id": "e94ad44e-5cd3-4b6e-b194-e77d5633ea41",
    "name": "San Vicente",
    "state_id": "79d0375b-d16b-40a4-8637-e3e3aa271d25"
  },
  {
    "id": "72654259-ff19-4a58-af82-1251d0684e29",
    "name": "Santa Anita",
    "state_id": "79d0375b-d16b-40a4-8637-e3e3aa271d25"
  },
  {
    "id": "2f24708b-449e-414b-b998-d7e93c4cf5d8",
    "name": "Santa Fé",
    "state_id": "79d0375b-d16b-40a4-8637-e3e3aa271d25"
  },
  {
    "id": "d1e34f18-c0b8-417a-a74e-45785296dae4",
    "name": "Santa Isabel",
    "state_id": "79d0375b-d16b-40a4-8637-e3e3aa271d25"
  },
  {
    "id": "f7e99331-d471-40a8-ae65-70e263234058",
    "name": "Tecate",
    "state_id": "79d0375b-d16b-40a4-8637-e3e3aa271d25"
  },
  {
    "id": "b0a7cdf6-bf9c-4920-95b6-5100b4af59da",
    "name": "Tecolots",
    "state_id": "79d0375b-d16b-40a4-8637-e3e3aa271d25"
  },
  {
    "id": "6dfb9acd-54ba-46ec-9c84-c7f84527578c",
    "name": "Terrazas del Valle",
    "state_id": "79d0375b-d16b-40a4-8637-e3e3aa271d25"
  },
  {
    "id": "b56ce8be-2575-45ed-90fa-6586788209a4",
    "name": "Tijuana",
    "state_id": "79d0375b-d16b-40a4-8637-e3e3aa271d25"
  },
  {
    "id": "55efb767-88e0-4cfc-ac99-72bfa4e75ccf",
    "name": "Vicente Guerrero",
    "state_id": "79d0375b-d16b-40a4-8637-e3e3aa271d25"
  },
  {
    "id": "e74f67a6-9749-4eb6-9b83-17f54570471e",
    "name": "Villa del Campo",
    "state_id": "79d0375b-d16b-40a4-8637-e3e3aa271d25"
  },
  {
    "id": "39a6d85b-468b-4d16-80ed-edf3afb9205b",
    "name": "Villa del Prado 2da Sección",
    "state_id": "79d0375b-d16b-40a4-8637-e3e3aa271d25"
  },
  {
    "id": "15f0a85a-c0b9-4881-bd47-ced4b216e040",
    "name": "Viñas del Sol",
    "state_id": "79d0375b-d16b-40a4-8637-e3e3aa271d25"
  }
]