[
  {
    "id": "234f15e5-13cb-4ffd-a338-38fc8ceb8cc7",
    "name": "Dobong-gu",
    "state_id": "7b51a6ff-e66d-4757-917e-ab1b119d50de"
  },
  {
    "id": "ae26ad3c-1f9a-49d6-9ced-47b5882da2bc",
    "name": "Dongdaemun-gu",
    "state_id": "7b51a6ff-e66d-4757-917e-ab1b119d50de"
  },
  {
    "id": "ca0aa5da-f205-4209-b7be-5ac9c3e022d7",
    "name": "Dongjak-gu",
    "state_id": "7b51a6ff-e66d-4757-917e-ab1b119d50de"
  },
  {
    "id": "33a6549f-b77e-40eb-b24d-c7efc2ffbce1",
    "name": "Eunpyeong-gu",
    "state_id": "7b51a6ff-e66d-4757-917e-ab1b119d50de"
  },
  {
    "id": "fa1d6452-6649-4949-a57f-1aaf9f7f033c",
    "name": "Gangbuk-gu",
    "state_id": "7b51a6ff-e66d-4757-917e-ab1b119d50de"
  },
  {
    "id": "7539bc24-c8b2-4f56-a866-b79f87839934",
    "name": "Gangdong-gu",
    "state_id": "7b51a6ff-e66d-4757-917e-ab1b119d50de"
  },
  {
    "id": "acdd33d0-7e60-43cd-bf88-0cf358d00812",
    "name": "Gangnam-gu",
    "state_id": "7b51a6ff-e66d-4757-917e-ab1b119d50de"
  },
  {
    "id": "e4e80cb7-97fb-4b60-969d-d6fa6a2abc9b",
    "name": "Gangseo-gu",
    "state_id": "7b51a6ff-e66d-4757-917e-ab1b119d50de"
  },
  {
    "id": "afe19e00-66c1-4420-a08e-b7ff6a49f128",
    "name": "Geumcheon-gu",
    "state_id": "7b51a6ff-e66d-4757-917e-ab1b119d50de"
  },
  {
    "id": "7b8e077c-9f52-4d47-a971-134a777ce0eb",
    "name": "Guro-gu",
    "state_id": "7b51a6ff-e66d-4757-917e-ab1b119d50de"
  },
  {
    "id": "dfb94d3b-b9c7-4ce8-9527-148d0bb11c66",
    "name": "Gwanak-gu",
    "state_id": "7b51a6ff-e66d-4757-917e-ab1b119d50de"
  },
  {
    "id": "ef8d0064-ed22-44d0-9ae9-630d44f68782",
    "name": "Gwangjin-gu",
    "state_id": "7b51a6ff-e66d-4757-917e-ab1b119d50de"
  },
  {
    "id": "c9a65e79-cdb1-4cb3-a319-00259633b338",
    "name": "Jongno-gu",
    "state_id": "7b51a6ff-e66d-4757-917e-ab1b119d50de"
  },
  {
    "id": "6f2730fb-e8cb-4bc9-a16b-3d1a28e1fe34",
    "name": "Jung-gu",
    "state_id": "7b51a6ff-e66d-4757-917e-ab1b119d50de"
  },
  {
    "id": "049e1a37-831f-4d52-8326-d996717b65de",
    "name": "Jungnang-gu",
    "state_id": "7b51a6ff-e66d-4757-917e-ab1b119d50de"
  },
  {
    "id": "2b3a3f95-bf4d-4fe6-a44d-d413b94d60d9",
    "name": "Mapo-gu",
    "state_id": "7b51a6ff-e66d-4757-917e-ab1b119d50de"
  },
  {
    "id": "34588f17-3acf-407b-9f71-a29f495a6ca5",
    "name": "Nowon-gu",
    "state_id": "7b51a6ff-e66d-4757-917e-ab1b119d50de"
  },
  {
    "id": "7958fc87-552b-4c6f-9655-a6a55d6de441",
    "name": "Seocho-gu",
    "state_id": "7b51a6ff-e66d-4757-917e-ab1b119d50de"
  },
  {
    "id": "77e94473-dfc3-4dd6-9cb1-cd17a6bafc0a",
    "name": "Seodaemun-gu",
    "state_id": "7b51a6ff-e66d-4757-917e-ab1b119d50de"
  },
  {
    "id": "8819a8b0-7b03-4ffc-8bab-e604be7d27f3",
    "name": "Seongbuk-gu",
    "state_id": "7b51a6ff-e66d-4757-917e-ab1b119d50de"
  },
  {
    "id": "4100b8ee-7901-4fdc-a059-a2a08feffe35",
    "name": "Seongdong-gu",
    "state_id": "7b51a6ff-e66d-4757-917e-ab1b119d50de"
  },
  {
    "id": "06517d79-985f-4dcd-a10b-eb97ed4c5b2f",
    "name": "Seoul",
    "state_id": "7b51a6ff-e66d-4757-917e-ab1b119d50de"
  },
  {
    "id": "2242c7f2-3e9a-4e8f-9e0c-de6c10671630",
    "name": "Songpa-gu",
    "state_id": "7b51a6ff-e66d-4757-917e-ab1b119d50de"
  },
  {
    "id": "19301ff1-4bf4-44e4-8be1-3beb2afe328a",
    "name": "Yangcheon-gu",
    "state_id": "7b51a6ff-e66d-4757-917e-ab1b119d50de"
  },
  {
    "id": "1a51d188-53d4-4b96-bfc2-16a1a04352a3",
    "name": "Yeongdeungpo-gu",
    "state_id": "7b51a6ff-e66d-4757-917e-ab1b119d50de"
  },
  {
    "id": "9cdccd4d-2602-4932-84d6-633a6d0134ce",
    "name": "Yongsan-dong",
    "state_id": "7b51a6ff-e66d-4757-917e-ab1b119d50de"
  },
  {
    "id": "23e6aa33-cc94-4c04-9f17-3e3055d8aaad",
    "name": "Yongsan-gu",
    "state_id": "7b51a6ff-e66d-4757-917e-ab1b119d50de"
  }
]