[
  {
    "id": "2cbe40fd-ed06-4298-96e5-7dcac5a466c8",
    "name": "Anju",
    "state_id": "7bd3a2dc-1e9f-4dfc-b8cd-608f49cc0c96"
  },
  {
    "id": "888bffab-8c6e-418a-bae6-6fdad9a37e5e",
    "name": "Namp’o",
    "state_id": "7bd3a2dc-1e9f-4dfc-b8cd-608f49cc0c96"
  },
  {
    "id": "97e9086e-b925-471a-b337-fcb54efb0e6f",
    "name": "P’yŏngsŏng",
    "state_id": "7bd3a2dc-1e9f-4dfc-b8cd-608f49cc0c96"
  },
  {
    "id": "7ec24c67-2dfb-48e4-8889-b87ed5f8091d",
    "name": "Sangsŏng-ni",
    "state_id": "7bd3a2dc-1e9f-4dfc-b8cd-608f49cc0c96"
  },
  {
    "id": "1704262d-1c04-49f2-b1b0-e37076cc151f",
    "name": "Sil-li",
    "state_id": "7bd3a2dc-1e9f-4dfc-b8cd-608f49cc0c96"
  },
  {
    "id": "4ba837a1-d5c8-4270-9555-c4863542b553",
    "name": "Sinanju",
    "state_id": "7bd3a2dc-1e9f-4dfc-b8cd-608f49cc0c96"
  },
  {
    "id": "68dfb6fd-ed17-4425-b0eb-d176ead15675",
    "name": "Sunch’ŏn",
    "state_id": "7bd3a2dc-1e9f-4dfc-b8cd-608f49cc0c96"
  },
  {
    "id": "1038df0f-4862-48bd-be29-b89572ccf803",
    "name": "Yonggang-ŭp",
    "state_id": "7bd3a2dc-1e9f-4dfc-b8cd-608f49cc0c96"
  }
]