[
  {
    "id": "85164fad-28d8-4cb9-8c98-0c13d923371b",
    "name": "Atauro Island",
    "state_id": "7bd49ec1-ea33-4817-b2e2-4db912faf838"
  },
  {
    "id": "4dc4d8af-e829-46d2-94d8-4e541676ec40",
    "name": "Cristo Rei",
    "state_id": "7bd49ec1-ea33-4817-b2e2-4db912faf838"
  },
  {
    "id": "c94c5b25-85e0-4ed3-92fe-048242d0f76a",
    "name": "Dili",
    "state_id": "7bd49ec1-ea33-4817-b2e2-4db912faf838"
  },
  {
    "id": "d13b4895-168f-42be-965f-c36daff8b05e",
    "name": "Metinaro",
    "state_id": "7bd49ec1-ea33-4817-b2e2-4db912faf838"
  }
]