[
  {
    "id": "7e73d67a-ceb0-4796-8e91-25c45f268289",
    "name": "Kabalo",
    "state_id": "7c0f61bd-2989-4086-a006-f0b1ac70f4d0"
  },
  {
    "id": "15014239-ad61-4e7a-a212-c71f24ec67da",
    "name": "Kalemie",
    "state_id": "7c0f61bd-2989-4086-a006-f0b1ac70f4d0"
  },
  {
    "id": "2f40974b-daba-48b3-87b2-a587bf9d52e8",
    "name": "Kongolo",
    "state_id": "7c0f61bd-2989-4086-a006-f0b1ac70f4d0"
  }
]