[
  {
    "id": "1c1989ff-2c36-4605-98c1-e44c7173845b",
    "name": "Bojnūrd",
    "state_id": "7c32d5a2-b097-4fb3-a3d6-2544e3a1d347"
  },
  {
    "id": "2b16dd84-28dc-4ed2-b584-59960a012ecb",
    "name": "Esfarāyen",
    "state_id": "7c32d5a2-b097-4fb3-a3d6-2544e3a1d347"
  },
  {
    "id": "eee011fa-1f41-4335-b65c-04bf72f55e0a",
    "name": "Raz and Jargalan",
    "state_id": "7c32d5a2-b097-4fb3-a3d6-2544e3a1d347"
  },
  {
    "id": "56bd6f33-8b89-4a4d-b1fb-fb6d9d7f6613",
    "name": "Shahrestān-e Bojnūrd",
    "state_id": "7c32d5a2-b097-4fb3-a3d6-2544e3a1d347"
  },
  {
    "id": "87e9f3ce-b749-40a1-ab0c-72c3c75f9b95",
    "name": "Shahrestān-e Esfarāyen",
    "state_id": "7c32d5a2-b097-4fb3-a3d6-2544e3a1d347"
  },
  {
    "id": "40903ec5-7c2c-42d2-bafa-c53acd245232",
    "name": "Shahrestān-e Fārūj",
    "state_id": "7c32d5a2-b097-4fb3-a3d6-2544e3a1d347"
  },
  {
    "id": "583afc6e-c27b-40a9-a1af-c402a1c94cf0",
    "name": "Shahrestān-e Jājarm",
    "state_id": "7c32d5a2-b097-4fb3-a3d6-2544e3a1d347"
  },
  {
    "id": "350b0823-36ee-4ba8-9ce4-dde44cda072c",
    "name": "Shahrestān-e Māneh va Samalqān",
    "state_id": "7c32d5a2-b097-4fb3-a3d6-2544e3a1d347"
  },
  {
    "id": "cf05b111-8d0c-49b0-b477-7b4c2161f8ed",
    "name": "Shahrestān-e Shīrvān",
    "state_id": "7c32d5a2-b097-4fb3-a3d6-2544e3a1d347"
  },
  {
    "id": "42ac8a69-b59d-42d9-82c6-d47a9278f0dc",
    "name": "Shīrvān",
    "state_id": "7c32d5a2-b097-4fb3-a3d6-2544e3a1d347"
  }
]