[
  {
    "id": "7b5ee746-72c2-4d09-a6eb-b2cff5c73d75",
    "name": "Diriá",
    "state_id": "7cd7dcd9-47c5-4760-91aa-33eea9b5388d"
  },
  {
    "id": "1f7a7fc7-2b19-4a89-846c-2e88eaf864a0",
    "name": "Diriomo",
    "state_id": "7cd7dcd9-47c5-4760-91aa-33eea9b5388d"
  },
  {
    "id": "9eba4e15-cab6-451a-bb3e-1b2fe3561c97",
    "name": "Granada",
    "state_id": "7cd7dcd9-47c5-4760-91aa-33eea9b5388d"
  },
  {
    "id": "30a1389b-63e0-47ad-8b63-794705dfc216",
    "name": "Nandaime",
    "state_id": "7cd7dcd9-47c5-4760-91aa-33eea9b5388d"
  }
]