[
  {
    "id": "047a39bb-546f-4e35-83dd-ba4de1b4d1a8",
    "name": "Aleshtar",
    "state_id": "7d4b4cb0-2cf3-4cee-b9cf-be75aa510083"
  },
  {
    "id": "510e1f83-ed11-4d77-9088-279c5984675b",
    "name": "Alīgūdarz",
    "state_id": "7d4b4cb0-2cf3-4cee-b9cf-be75aa510083"
  },
  {
    "id": "2d5b8d47-cf96-4168-9866-d281e378efd7",
    "name": "Aznā",
    "state_id": "7d4b4cb0-2cf3-4cee-b9cf-be75aa510083"
  },
  {
    "id": "812dd44d-2972-4a85-8283-8b8f75720b43",
    "name": "Borūjerd",
    "state_id": "7d4b4cb0-2cf3-4cee-b9cf-be75aa510083"
  },
  {
    "id": "e29dd4a6-8071-4c78-92a1-22b9251fc828",
    "name": "Delfan",
    "state_id": "7d4b4cb0-2cf3-4cee-b9cf-be75aa510083"
  },
  {
    "id": "c469c13c-5d3c-49f6-af68-f57507c1dbe0",
    "name": "Khorramabad",
    "state_id": "7d4b4cb0-2cf3-4cee-b9cf-be75aa510083"
  },
  {
    "id": "cf2970db-7fe2-4095-a138-0e7bdac0164f",
    "name": "Kūhdasht",
    "state_id": "7d4b4cb0-2cf3-4cee-b9cf-be75aa510083"
  },
  {
    "id": "4bfa698b-de0f-4e49-bc96-bbd4de782193",
    "name": "Nūrābād",
    "state_id": "7d4b4cb0-2cf3-4cee-b9cf-be75aa510083"
  },
  {
    "id": "ca0b6568-56d5-433c-b84a-498c316a04c5",
    "name": "Pol-e Dokhtar",
    "state_id": "7d4b4cb0-2cf3-4cee-b9cf-be75aa510083"
  },
  {
    "id": "40ea2321-0cdd-4ccc-a168-9aad2ae9498b",
    "name": "Rumeshkhan County",
    "state_id": "7d4b4cb0-2cf3-4cee-b9cf-be75aa510083"
  },
  {
    "id": "520a3e15-3005-4cdc-aa15-051c0f4a65e6",
    "name": "Selseleh",
    "state_id": "7d4b4cb0-2cf3-4cee-b9cf-be75aa510083"
  },
  {
    "id": "d0fcd5b2-68d7-402c-bcd9-45bac545b68f",
    "name": "Shahrestān-e Alīgūdarz",
    "state_id": "7d4b4cb0-2cf3-4cee-b9cf-be75aa510083"
  },
  {
    "id": "df73b0e7-d0d6-47f4-acd6-42942f6ff04e",
    "name": "Shahrestān-e Aznā",
    "state_id": "7d4b4cb0-2cf3-4cee-b9cf-be75aa510083"
  },
  {
    "id": "3630f5b7-3823-4a4b-908f-b38d842df33d",
    "name": "Shahrestān-e Borūjerd",
    "state_id": "7d4b4cb0-2cf3-4cee-b9cf-be75aa510083"
  },
  {
    "id": "48aac85c-98f7-4c2f-9ca7-056b579f3b8f",
    "name": "Shahrestān-e Dūreh",
    "state_id": "7d4b4cb0-2cf3-4cee-b9cf-be75aa510083"
  },
  {
    "id": "ed8c8c5d-67b2-42fd-9deb-2f407fcdec5d",
    "name": "Shahrestān-e Khorramābād",
    "state_id": "7d4b4cb0-2cf3-4cee-b9cf-be75aa510083"
  },
  {
    "id": "f4d5d926-61b4-4fc6-aeaa-221a08f45e55",
    "name": "Shahrestān-e Kūhdasht",
    "state_id": "7d4b4cb0-2cf3-4cee-b9cf-be75aa510083"
  },
  {
    "id": "433efc27-f7ba-4d5d-afcd-f26243fa66ea",
    "name": "Vasīān",
    "state_id": "7d4b4cb0-2cf3-4cee-b9cf-be75aa510083"
  }
]