[
  {
    "id": "a9f36564-22cb-4b17-bb68-bed37eb782eb",
    "name": "Dob",
    "state_id": "7d862be6-6113-4787-bf54-fbb0e8a15d39"
  },
  {
    "id": "21633c33-6e02-4446-ba63-63c1411026d8",
    "name": "Domžale",
    "state_id": "7d862be6-6113-4787-bf54-fbb0e8a15d39"
  },
  {
    "id": "2fe548f9-39fc-46e6-b082-34cf062b5bae",
    "name": "Radomlje",
    "state_id": "7d862be6-6113-4787-bf54-fbb0e8a15d39"
  },
  {
    "id": "acf4724a-ebf0-4c40-892b-8eb750e574bc",
    "name": "Vir",
    "state_id": "7d862be6-6113-4787-bf54-fbb0e8a15d39"
  }
]