[
  {
    "id": "bc97c844-ecd5-405c-a9dc-e12b66804bff",
    "name": "Boma",
    "state_id": "7e15cfa3-c344-49c3-82bf-5b1f2ba47b7e"
  },
  {
    "id": "ec59abba-f1c2-4554-80c8-86c930650639",
    "name": "Kasangulu",
    "state_id": "7e15cfa3-c344-49c3-82bf-5b1f2ba47b7e"
  },
  {
    "id": "3539bb2a-1a38-4943-8236-94477b06817b",
    "name": "Matadi",
    "state_id": "7e15cfa3-c344-49c3-82bf-5b1f2ba47b7e"
  },
  {
    "id": "ff03b667-6545-4765-8b68-3b7b2d597d23",
    "name": "Mbanza-Ngungu",
    "state_id": "7e15cfa3-c344-49c3-82bf-5b1f2ba47b7e"
  },
  {
    "id": "788cbcdd-ab6e-4c90-9fba-8c241a169e61",
    "name": "Moanda",
    "state_id": "7e15cfa3-c344-49c3-82bf-5b1f2ba47b7e"
  },
  {
    "id": "efb1886c-0b2c-46c2-adaf-dfcd3cbfc68b",
    "name": "Tshela",
    "state_id": "7e15cfa3-c344-49c3-82bf-5b1f2ba47b7e"
  }
]