[
  {
    "id": "91ec29c7-c945-47d5-b8f9-1e91ec4519a5",
    "name": "Dasht-e Archī",
    "state_id": "7e7bdaba-8230-4920-94b9-5da8bf88aa63"
  },
  {
    "id": "1ac8d662-794d-4936-b77a-bce535843d98",
    "name": "Imām Şāḩib",
    "state_id": "7e7bdaba-8230-4920-94b9-5da8bf88aa63"
  },
  {
    "id": "21a7c9cb-ba63-4684-a781-384f10b31416",
    "name": "Khanabad",
    "state_id": "7e7bdaba-8230-4920-94b9-5da8bf88aa63"
  },
  {
    "id": "e8f10947-c8c3-4fee-8d4b-68684f57bc02",
    "name": "Kunduz",
    "state_id": "7e7bdaba-8230-4920-94b9-5da8bf88aa63"
  },
  {
    "id": "65f80eff-d1e4-4c3e-a963-a44f08fb6a84",
    "name": "Qarāwul",
    "state_id": "7e7bdaba-8230-4920-94b9-5da8bf88aa63"
  }
]