[
  {
    "id": "798b206a-735f-440b-bf14-f0697c1b3d60",
    "name": "Dadeldhurā",
    "state_id": "7f387109-4435-436a-8f5e-c6faf3ce0051"
  },
  {
    "id": "c018a36e-b651-491c-951b-95c366be6120",
    "name": "Dhangaḍhi̇̄",
    "state_id": "7f387109-4435-436a-8f5e-c6faf3ce0051"
  },
  {
    "id": "19a4bbf7-3906-47b8-aa44-0c24494d9cbf",
    "name": "Dipayal",
    "state_id": "7f387109-4435-436a-8f5e-c6faf3ce0051"
  },
  {
    "id": "ba455ed1-73ad-4d6b-beda-c19bab295e64",
    "name": "Mahendranagar",
    "state_id": "7f387109-4435-436a-8f5e-c6faf3ce0051"
  },
  {
    "id": "74b5e2de-2ea8-4231-9edb-ac895cc03687",
    "name": "Ṭikāpur",
    "state_id": "7f387109-4435-436a-8f5e-c6faf3ce0051"
  }
]