[
  {
    "id": "ca2f288d-b7af-4dd5-a0ab-67719f45c849",
    "name": "Amphoe Ban Luang",
    "state_id": "8054ea0e-7fef-4a58-960e-00f0f8bcd462"
  },
  {
    "id": "0f3ac9f6-e1ca-459d-a823-180486519c85",
    "name": "Amphoe Bo Kluea",
    "state_id": "8054ea0e-7fef-4a58-960e-00f0f8bcd462"
  },
  {
    "id": "156f37d7-58a6-41ef-9d2f-d74232c9d46a",
    "name": "Amphoe Chaloem Phra Kiat",
    "state_id": "8054ea0e-7fef-4a58-960e-00f0f8bcd462"
  },
  {
    "id": "9f87988c-16d1-4444-9270-5fc3b6ab1bf9",
    "name": "Amphoe Chiang Klang",
    "state_id": "8054ea0e-7fef-4a58-960e-00f0f8bcd462"
  },
  {
    "id": "061cc652-cea8-4acd-9ea1-ec9b872ec918",
    "name": "Amphoe Mae Charim",
    "state_id": "8054ea0e-7fef-4a58-960e-00f0f8bcd462"
  },
  {
    "id": "9d98f562-7f4e-4a72-ba97-19ce199b718a",
    "name": "Amphoe Mueang Nan",
    "state_id": "8054ea0e-7fef-4a58-960e-00f0f8bcd462"
  },
  {
    "id": "70f30392-d16b-4858-adb5-87c5fdc93ab3",
    "name": "Amphoe Na Muen",
    "state_id": "8054ea0e-7fef-4a58-960e-00f0f8bcd462"
  },
  {
    "id": "71e70313-90ec-4986-8a58-57994b46ec66",
    "name": "Amphoe Na Noi",
    "state_id": "8054ea0e-7fef-4a58-960e-00f0f8bcd462"
  },
  {
    "id": "6ba623b4-2048-4548-8ca2-1bee51777f36",
    "name": "Amphoe Phu Phiang",
    "state_id": "8054ea0e-7fef-4a58-960e-00f0f8bcd462"
  },
  {
    "id": "b5bffdc9-f698-49f4-a0c5-744c14f2c2ba",
    "name": "Amphoe Pua",
    "state_id": "8054ea0e-7fef-4a58-960e-00f0f8bcd462"
  },
  {
    "id": "39adf4f1-fbdc-4f2b-b857-e0fa3785699c",
    "name": "Amphoe Santi Suk",
    "state_id": "8054ea0e-7fef-4a58-960e-00f0f8bcd462"
  },
  {
    "id": "dea620f5-3d51-4f36-a99a-68a5bf33f539",
    "name": "Amphoe Song Khwae",
    "state_id": "8054ea0e-7fef-4a58-960e-00f0f8bcd462"
  },
  {
    "id": "d49fb106-9f22-43d8-8f15-1be600fb0760",
    "name": "Amphoe Tha Wang Pha",
    "state_id": "8054ea0e-7fef-4a58-960e-00f0f8bcd462"
  },
  {
    "id": "fdb3376c-6442-4c4d-af08-332006464e82",
    "name": "Amphoe Thung Chang",
    "state_id": "8054ea0e-7fef-4a58-960e-00f0f8bcd462"
  },
  {
    "id": "4dbf382f-c59b-41cc-a6cf-80e703741c60",
    "name": "Amphoe Wiang Sa",
    "state_id": "8054ea0e-7fef-4a58-960e-00f0f8bcd462"
  },
  {
    "id": "dc0d09af-ce6c-49c3-a9b4-e225f1025cac",
    "name": "Chiang Klang",
    "state_id": "8054ea0e-7fef-4a58-960e-00f0f8bcd462"
  },
  {
    "id": "f1a04b5b-5253-4a4a-8431-555740655b45",
    "name": "Nan",
    "state_id": "8054ea0e-7fef-4a58-960e-00f0f8bcd462"
  }
]