[
  {
    "id": "17a0172e-5366-4ab8-b622-a8f199f4591e",
    "name": "Ab Meshkin",
    "state_id": "80abd7a3-2907-4c43-85f1-c5b34ee36703"
  },
  {
    "id": "a31b5d6b-ec5f-445d-8231-0cf5088344dc",
    "name": "Abarlaq-e Sofla",
    "state_id": "80abd7a3-2907-4c43-85f1-c5b34ee36703"
  },
  {
    "id": "d17108a5-d912-411a-88f5-b7eef23a51cc",
    "name": "Abdalan",
    "state_id": "80abd7a3-2907-4c43-85f1-c5b34ee36703"
  },
  {
    "id": "aee4afb2-f57b-4e3e-8f63-ecd2c68383be",
    "name": "Abdol Rahim",
    "state_id": "80abd7a3-2907-4c43-85f1-c5b34ee36703"
  },
  {
    "id": "85b7b808-7f2e-4d65-b0b6-8db3c39eb92d",
    "name": "Abrumand",
    "state_id": "80abd7a3-2907-4c43-85f1-c5b34ee36703"
  },
  {
    "id": "1ea206df-9da4-4d6f-926f-0b085db4d1f2",
    "name": "Abshineh",
    "state_id": "80abd7a3-2907-4c43-85f1-c5b34ee36703"
  },
  {
    "id": "028cedfb-3731-469d-9b9e-094d7e958f1f",
    "name": "Abu ol Fathabad",
    "state_id": "80abd7a3-2907-4c43-85f1-c5b34ee36703"
  },
  {
    "id": "2f34c1fc-7424-4523-b546-2633180fd6f6",
    "name": "Aghcheh Qayah",
    "state_id": "80abd7a3-2907-4c43-85f1-c5b34ee36703"
  },
  {
    "id": "ca0a4baa-a3aa-4b0b-a2d8-83f53512bac6",
    "name": "Ahmadabad-e Tappeh",
    "state_id": "80abd7a3-2907-4c43-85f1-c5b34ee36703"
  },
  {
    "id": "5380efa1-3b14-43b1-8a8f-6902f52fbdcd",
    "name": "Ahu Tappeh",
    "state_id": "80abd7a3-2907-4c43-85f1-c5b34ee36703"
  },
  {
    "id": "6ec3e3d3-7446-4be0-93c3-e4e89909e858",
    "name": "Ajin",
    "state_id": "80abd7a3-2907-4c43-85f1-c5b34ee36703"
  },
  {
    "id": "e33f8f60-83a6-4a3a-a8a1-825d2a8a475b",
    "name": "Ajorlu",
    "state_id": "80abd7a3-2907-4c43-85f1-c5b34ee36703"
  },
  {
    "id": "b63ae852-eccc-431b-b0ab-a22c192a51cd",
    "name": "Akanlu",
    "state_id": "80abd7a3-2907-4c43-85f1-c5b34ee36703"
  },
  {
    "id": "dfa83889-cf42-4a27-917e-110c40aae71a",
    "name": "Akleh",
    "state_id": "80abd7a3-2907-4c43-85f1-c5b34ee36703"
  },
  {
    "id": "4074dc57-f6d4-4632-b4fe-d75d21677bfa",
    "name": "Alan-e Sofla",
    "state_id": "80abd7a3-2907-4c43-85f1-c5b34ee36703"
  },
  {
    "id": "d7722a6d-e6c1-4e24-88cd-fa4c3371716c",
    "name": "Alanjeh",
    "state_id": "80abd7a3-2907-4c43-85f1-c5b34ee36703"
  },
  {
    "id": "4b49820c-3f8a-443e-bfbf-f35c94e8092c",
    "name": "Alfavut",
    "state_id": "80abd7a3-2907-4c43-85f1-c5b34ee36703"
  },
  {
    "id": "3034474e-3ce4-4587-9989-3ad2b4bbb366",
    "name": "Aliabad-e Posht Shahr",
    "state_id": "80abd7a3-2907-4c43-85f1-c5b34ee36703"
  },
  {
    "id": "d1e6356a-283e-4d05-8ea2-9df6d8fc0ba2",
    "name": "Amirabad-e Kord",
    "state_id": "80abd7a3-2907-4c43-85f1-c5b34ee36703"
  },
  {
    "id": "d52d00df-c06a-4fc2-ab0d-853595068fcd",
    "name": "Amzajerd",
    "state_id": "80abd7a3-2907-4c43-85f1-c5b34ee36703"
  },
  {
    "id": "c965709e-96ab-4e11-9bed-75c3f094d3d0",
    "name": "Angoshteh",
    "state_id": "80abd7a3-2907-4c43-85f1-c5b34ee36703"
  },
  {
    "id": "68246d49-4ef0-4d6d-92f3-00684bc2398f",
    "name": "Anjir Baghi",
    "state_id": "80abd7a3-2907-4c43-85f1-c5b34ee36703"
  },
  {
    "id": "f5f13a05-c92a-43a7-bac3-f116ba320bd1",
    "name": "Ansar ol Emam",
    "state_id": "80abd7a3-2907-4c43-85f1-c5b34ee36703"
  },
  {
    "id": "f0056531-f19b-45f5-8598-6e9cbbb854c6",
    "name": "Anuch",
    "state_id": "80abd7a3-2907-4c43-85f1-c5b34ee36703"
  },
  {
    "id": "6c1cd0d6-eed9-46c2-bb79-f2738232664b",
    "name": "Aq Bolagh-e Aqdaq",
    "state_id": "80abd7a3-2907-4c43-85f1-c5b34ee36703"
  },
  {
    "id": "c1bb7741-ebea-40d9-ad9f-fa3177779e22",
    "name": "Aq Bolagh-e Latgah",
    "state_id": "80abd7a3-2907-4c43-85f1-c5b34ee36703"
  },
  {
    "id": "4dec493d-b523-4b8c-9087-3e916f1bf89e",
    "name": "Aq Bolagh-e Morshed",
    "state_id": "80abd7a3-2907-4c43-85f1-c5b34ee36703"
  },
  {
    "id": "1d0f8669-043f-477e-b0a6-83d9408db4b0",
    "name": "Aq Chay",
    "state_id": "80abd7a3-2907-4c43-85f1-c5b34ee36703"
  },
  {
    "id": "f1346e47-6c85-4969-8240-30b267e19062",
    "name": "Aqa Bolaghi",
    "state_id": "80abd7a3-2907-4c43-85f1-c5b34ee36703"
  },
  {
    "id": "5acceefd-898e-4b70-b622-8d26682eec54",
    "name": "Aqa Jan Bolaghi",
    "state_id": "80abd7a3-2907-4c43-85f1-c5b34ee36703"
  },
  {
    "id": "d45c7e1a-4df9-4373-968f-024f7f3a849d",
    "name": "Aqaj",
    "state_id": "80abd7a3-2907-4c43-85f1-c5b34ee36703"
  },
  {
    "id": "f5b61152-ca30-40eb-a1ff-669c51f8c593",
    "name": "Aqcheh Kharabeh",
    "state_id": "80abd7a3-2907-4c43-85f1-c5b34ee36703"
  },
  {
    "id": "8a48ccf3-dd53-4fa0-890d-3a69b7643f28",
    "name": "Aqchelu",
    "state_id": "80abd7a3-2907-4c43-85f1-c5b34ee36703"
  },
  {
    "id": "490bafca-0ff6-4707-9c36-58d149c9320d",
    "name": "Arges-e Sofla",
    "state_id": "80abd7a3-2907-4c43-85f1-c5b34ee36703"
  },
  {
    "id": "1363582b-30f0-485e-838c-cdf82b999103",
    "name": "Arikan",
    "state_id": "80abd7a3-2907-4c43-85f1-c5b34ee36703"
  },
  {
    "id": "51aa7a50-3242-4a85-af0c-abdff2d21f75",
    "name": "Arpa Darreh",
    "state_id": "80abd7a3-2907-4c43-85f1-c5b34ee36703"
  },
  {
    "id": "08c6e609-45e8-4ccc-9eb2-103d90a26aff",
    "name": "Arteh Bolagh",
    "state_id": "80abd7a3-2907-4c43-85f1-c5b34ee36703"
  },
  {
    "id": "049337b5-f774-4417-84a6-c6f928b62de5",
    "name": "Artiman",
    "state_id": "80abd7a3-2907-4c43-85f1-c5b34ee36703"
  },
  {
    "id": "eeba75cd-73d3-4d72-b8fc-c6905b470f49",
    "name": "Arzan Fud",
    "state_id": "80abd7a3-2907-4c43-85f1-c5b34ee36703"
  },
  {
    "id": "ae016ac3-83c1-4524-a5bd-3ffc8cafc63c",
    "name": "Arzuvaj",
    "state_id": "80abd7a3-2907-4c43-85f1-c5b34ee36703"
  },
  {
    "id": "ebbfcf21-6cf1-4300-ba6c-f13be0891674",
    "name": "Asadabad",
    "state_id": "80abd7a3-2907-4c43-85f1-c5b34ee36703"
  },
  {
    "id": "e030b4f0-0d79-456a-af16-31a0b19cc8e8",
    "name": "Ashmizan",
    "state_id": "80abd7a3-2907-4c43-85f1-c5b34ee36703"
  },
  {
    "id": "ae902358-2aef-451e-a9fc-cbb7c496bf6f",
    "name": "Avarzaman",
    "state_id": "80abd7a3-2907-4c43-85f1-c5b34ee36703"
  },
  {
    "id": "4388c6ae-eb82-4ac4-982d-5f4cb4250e14",
    "name": "Azandarian",
    "state_id": "80abd7a3-2907-4c43-85f1-c5b34ee36703"
  },
  {
    "id": "94de0900-843a-48be-8c90-0b00b656dc90",
    "name": "Aznahri",
    "state_id": "80abd7a3-2907-4c43-85f1-c5b34ee36703"
  },
  {
    "id": "7f515262-7acc-4716-9449-21a8cef31431",
    "name": "Baba Khanjar",
    "state_id": "80abd7a3-2907-4c43-85f1-c5b34ee36703"
  },
  {
    "id": "20605a64-48a6-49b9-aab4-95b47ba5c947",
    "name": "Baba Pir",
    "state_id": "80abd7a3-2907-4c43-85f1-c5b34ee36703"
  },
  {
    "id": "f541ad03-c15d-4f25-aa33-13ee4a1f36c3",
    "name": "Baba Qasem",
    "state_id": "80abd7a3-2907-4c43-85f1-c5b34ee36703"
  },
  {
    "id": "594b8878-7a8c-4ae3-9f61-caa80afec27a",
    "name": "Babolqani",
    "state_id": "80abd7a3-2907-4c43-85f1-c5b34ee36703"
  },
  {
    "id": "e2495a6b-12e0-4945-8ea4-06036881ea73",
    "name": "Bad Khvoreh",
    "state_id": "80abd7a3-2907-4c43-85f1-c5b34ee36703"
  },
  {
    "id": "1ab2aedb-d4ba-4632-b89c-b0f85b8a98e0",
    "name": "Bahar",
    "state_id": "80abd7a3-2907-4c43-85f1-c5b34ee36703"
  },
  {
    "id": "08335289-e1d9-419d-ac9d-09a271bdf9aa",
    "name": "Band Aman",
    "state_id": "80abd7a3-2907-4c43-85f1-c5b34ee36703"
  },
  {
    "id": "446e79d8-69e3-4688-b162-5319c8453226",
    "name": "Banesareh",
    "state_id": "80abd7a3-2907-4c43-85f1-c5b34ee36703"
  },
  {
    "id": "40ecb441-131b-4e5a-a4cf-f65060e315fe",
    "name": "Baraband",
    "state_id": "80abd7a3-2907-4c43-85f1-c5b34ee36703"
  },
  {
    "id": "e62e81aa-a8db-4d61-aef9-01fb8a326ad1",
    "name": "Bargecheh",
    "state_id": "80abd7a3-2907-4c43-85f1-c5b34ee36703"
  },
  {
    "id": "d5d6aaf8-02bc-40bd-b676-7c3ee6c12445",
    "name": "Barreh Farakh",
    "state_id": "80abd7a3-2907-4c43-85f1-c5b34ee36703"
  },
  {
    "id": "663b300e-aef1-4f82-9ff5-f374950c1e17",
    "name": "Barzul",
    "state_id": "80abd7a3-2907-4c43-85f1-c5b34ee36703"
  },
  {
    "id": "d424da7d-e5e3-4311-ba7d-75eb6a4dd24f",
    "name": "Bashqurtaran",
    "state_id": "80abd7a3-2907-4c43-85f1-c5b34ee36703"
  },
  {
    "id": "0a46cc06-30b8-440a-b0de-00eed173e7c1",
    "name": "Bazeran",
    "state_id": "80abd7a3-2907-4c43-85f1-c5b34ee36703"
  },
  {
    "id": "c39822eb-e22b-4ce1-b93d-cf9be3c301f5",
    "name": "Behkandan",
    "state_id": "80abd7a3-2907-4c43-85f1-c5b34ee36703"
  },
  {
    "id": "dd1f9e83-78d9-4f06-a795-803dd740b368",
    "name": "Belartu",
    "state_id": "80abd7a3-2907-4c43-85f1-c5b34ee36703"
  },
  {
    "id": "7742e440-2646-4958-b8aa-772086dcbbdc",
    "name": "Beshik Tappeh",
    "state_id": "80abd7a3-2907-4c43-85f1-c5b34ee36703"
  },
  {
    "id": "77d835c7-f077-499c-ab67-7c8526a328dd",
    "name": "Biaj",
    "state_id": "80abd7a3-2907-4c43-85f1-c5b34ee36703"
  },
  {
    "id": "19515875-2a07-46ef-a51b-694ec1965c29",
    "name": "Biatan-e Sofla",
    "state_id": "80abd7a3-2907-4c43-85f1-c5b34ee36703"
  },
  {
    "id": "40e69493-d8b9-4c66-b6ae-1ef76b1cff59",
    "name": "Bid Korpeh-ye Sofla",
    "state_id": "80abd7a3-2907-4c43-85f1-c5b34ee36703"
  },
  {
    "id": "e6425c64-0ea5-45fd-8510-a50009eff2b4",
    "name": "Bid Korpeh-ye Vosta",
    "state_id": "80abd7a3-2907-4c43-85f1-c5b34ee36703"
  },
  {
    "id": "ee90269c-6a63-42b6-b5a1-cbf997d648a3",
    "name": "Bifanaj",
    "state_id": "80abd7a3-2907-4c43-85f1-c5b34ee36703"
  },
  {
    "id": "c2aef588-8d21-44ee-8424-2b0449019536",
    "name": "Bighash",
    "state_id": "80abd7a3-2907-4c43-85f1-c5b34ee36703"
  },
  {
    "id": "0516b6a6-e4e4-4337-8478-7a2ef199bfcb",
    "name": "Bish Aghaj",
    "state_id": "80abd7a3-2907-4c43-85f1-c5b34ee36703"
  },
  {
    "id": "fc01bb95-cc34-4b26-ae7b-e46e5ff9738c",
    "name": "Bitervan",
    "state_id": "80abd7a3-2907-4c43-85f1-c5b34ee36703"
  },
  {
    "id": "ac2885b2-2057-4676-b740-720679660ba2",
    "name": "Borjaki",
    "state_id": "80abd7a3-2907-4c43-85f1-c5b34ee36703"
  },
  {
    "id": "acbc3960-3ece-4d43-a952-356920a70aa0",
    "name": "Boyukabad",
    "state_id": "80abd7a3-2907-4c43-85f1-c5b34ee36703"
  },
  {
    "id": "72c18f7c-8013-485e-ab82-510d7a19348f",
    "name": "Bozchalu",
    "state_id": "80abd7a3-2907-4c43-85f1-c5b34ee36703"
  },
  {
    "id": "d75311a7-2c08-46b9-ab88-bad7941a0471",
    "name": "Bozineh Jerd",
    "state_id": "80abd7a3-2907-4c43-85f1-c5b34ee36703"
  },
  {
    "id": "51e2250e-dff2-4ecd-94ac-ff5e71f108fa",
    "name": "Bujin",
    "state_id": "80abd7a3-2907-4c43-85f1-c5b34ee36703"
  },
  {
    "id": "5c3a70f4-bed9-492b-a0d0-3cca735b3963",
    "name": "Bustandar",
    "state_id": "80abd7a3-2907-4c43-85f1-c5b34ee36703"
  },
  {
    "id": "fad44db8-805e-460d-be05-7d1a84ed975b",
    "name": "Buyaqchi",
    "state_id": "80abd7a3-2907-4c43-85f1-c5b34ee36703"
  },
  {
    "id": "d809a2ea-fc6c-48e8-a836-a1f6e5e31cee",
    "name": "Chahar Bolagh",
    "state_id": "80abd7a3-2907-4c43-85f1-c5b34ee36703"
  },
  {
    "id": "93e029d8-943a-448e-a70a-c8d1fbdd1f1b",
    "name": "Chal Boqa",
    "state_id": "80abd7a3-2907-4c43-85f1-c5b34ee36703"
  },
  {
    "id": "ccbddd01-3108-45a3-bf88-aa290cc22085",
    "name": "Chaleh Kand",
    "state_id": "80abd7a3-2907-4c43-85f1-c5b34ee36703"
  },
  {
    "id": "49df994a-5121-4106-814f-98456d1e6f56",
    "name": "Charoq",
    "state_id": "80abd7a3-2907-4c43-85f1-c5b34ee36703"
  },
  {
    "id": "493d1243-6968-41fe-94f2-ed26da8fdbdf",
    "name": "Chasht Khvoreh",
    "state_id": "80abd7a3-2907-4c43-85f1-c5b34ee36703"
  },
  {
    "id": "f8c0fa6d-3b87-450a-80db-e4ea011fa122",
    "name": "Chenari",
    "state_id": "80abd7a3-2907-4c43-85f1-c5b34ee36703"
  },
  {
    "id": "f3d8c508-f54e-47bb-8448-fa0497b26d88",
    "name": "Cheshmeh Malek",
    "state_id": "80abd7a3-2907-4c43-85f1-c5b34ee36703"
  },
  {
    "id": "4252aa10-ba73-4947-88b3-4e847740ea49",
    "name": "Cheshmeh Pahn-e Nanaj",
    "state_id": "80abd7a3-2907-4c43-85f1-c5b34ee36703"
  },
  {
    "id": "910cd732-62e2-4c32-87ee-fa0d2697009a",
    "name": "Cheshmeh Qandab",
    "state_id": "80abd7a3-2907-4c43-85f1-c5b34ee36703"
  },
  {
    "id": "d845c190-110e-4654-bb8d-57a9f7958c15",
    "name": "Cheshmeh Qareh",
    "state_id": "80abd7a3-2907-4c43-85f1-c5b34ee36703"
  },
  {
    "id": "48a86324-31e4-4c9c-b181-48fadc296b7a",
    "name": "Cheshmeh Qassaban",
    "state_id": "80abd7a3-2907-4c43-85f1-c5b34ee36703"
  },
  {
    "id": "997ad8b3-6e80-448d-9266-e75b7bd29bc7",
    "name": "Cheshmeh Valad",
    "state_id": "80abd7a3-2907-4c43-85f1-c5b34ee36703"
  },
  {
    "id": "1c8990ad-ff9d-4c81-9642-d926d0ac5f2f",
    "name": "Cheshmeh Zowraq",
    "state_id": "80abd7a3-2907-4c43-85f1-c5b34ee36703"
  },
  {
    "id": "06cc618f-a832-46c2-875d-e06fe561318c",
    "name": "Choqa Sarahi",
    "state_id": "80abd7a3-2907-4c43-85f1-c5b34ee36703"
  },
  {
    "id": "0ba9acf5-0fcf-41d8-94ed-87ba923104d4",
    "name": "Chowtash",
    "state_id": "80abd7a3-2907-4c43-85f1-c5b34ee36703"
  },
  {
    "id": "58b4cb8d-bc8f-41f1-aaaa-f149a1754256",
    "name": "Chulak Qapanuri",
    "state_id": "80abd7a3-2907-4c43-85f1-c5b34ee36703"
  },
  {
    "id": "df8e135c-7ac0-4ae1-a095-f6d2e90b220f",
    "name": "Dahnejerd",
    "state_id": "80abd7a3-2907-4c43-85f1-c5b34ee36703"
  },
  {
    "id": "44e2478e-e2c5-49e3-85c3-5716fe3a88c5",
    "name": "Dali Chu",
    "state_id": "80abd7a3-2907-4c43-85f1-c5b34ee36703"
  },
  {
    "id": "ab938cd6-31b4-4cab-aa5e-4ba4725cc456",
    "name": "Damaq",
    "state_id": "80abd7a3-2907-4c43-85f1-c5b34ee36703"
  },
  {
    "id": "2c5cc979-e2ba-427e-bf63-46bcff1b708b",
    "name": "Daqdaqabad",
    "state_id": "80abd7a3-2907-4c43-85f1-c5b34ee36703"
  },
  {
    "id": "14086193-f51b-4f95-86ea-34633bb53af0",
    "name": "Dar Qeshlaq",
    "state_id": "80abd7a3-2907-4c43-85f1-c5b34ee36703"
  },
  {
    "id": "7c52d4fe-352e-4efb-9773-d18f258b8afa",
    "name": "Darani-ye Sofla",
    "state_id": "80abd7a3-2907-4c43-85f1-c5b34ee36703"
  },
  {
    "id": "e5912f41-5cf7-44ed-ab63-5cf65c2b1374",
    "name": "Darcham",
    "state_id": "80abd7a3-2907-4c43-85f1-c5b34ee36703"
  },
  {
    "id": "a9681eca-99ea-4024-832e-d48424330cbd",
    "name": "Darreh Chenar",
    "state_id": "80abd7a3-2907-4c43-85f1-c5b34ee36703"
  },
  {
    "id": "440230f5-8281-40a4-8a3e-730cbe46318c",
    "name": "Darreh Mianeh-ye Sofla",
    "state_id": "80abd7a3-2907-4c43-85f1-c5b34ee36703"
  },
  {
    "id": "df52e4a0-3f92-4796-a8aa-15a48b4d020d",
    "name": "Darreh Mirza",
    "state_id": "80abd7a3-2907-4c43-85f1-c5b34ee36703"
  },
  {
    "id": "1bae58a0-d7b9-4fd4-b5d5-a1e2859d9160",
    "name": "Darreh-ye Ebrahim",
    "state_id": "80abd7a3-2907-4c43-85f1-c5b34ee36703"
  },
  {
    "id": "85c35cf2-93cd-4a52-993e-acdbe1530b99",
    "name": "Darsibeh",
    "state_id": "80abd7a3-2907-4c43-85f1-c5b34ee36703"
  },
  {
    "id": "2c01b29c-a65f-436b-be00-47077cc99187",
    "name": "Davijan",
    "state_id": "80abd7a3-2907-4c43-85f1-c5b34ee36703"
  },
  {
    "id": "ebfd5d69-8c80-4fd4-8e6a-acdc24b29fdd",
    "name": "Deh Chaneh",
    "state_id": "80abd7a3-2907-4c43-85f1-c5b34ee36703"
  },
  {
    "id": "74aad82c-cf08-4bc3-8d39-dea37986e54b",
    "name": "Deh Dalian",
    "state_id": "80abd7a3-2907-4c43-85f1-c5b34ee36703"
  },
  {
    "id": "b6ee7d92-a384-4b9a-94ad-d41b768857b8",
    "name": "Deh Ful",
    "state_id": "80abd7a3-2907-4c43-85f1-c5b34ee36703"
  },
  {
    "id": "f179938d-e5c4-4ec2-9cdf-9513496ede0e",
    "name": "Deh Mianeh",
    "state_id": "80abd7a3-2907-4c43-85f1-c5b34ee36703"
  },
  {
    "id": "35eeb307-7f01-4abf-a889-6f63e6cb6a92",
    "name": "Deh Nush",
    "state_id": "80abd7a3-2907-4c43-85f1-c5b34ee36703"
  },
  {
    "id": "cdc987a0-6899-4ec0-a873-14dd93ae3d42",
    "name": "Deh Piaz",
    "state_id": "80abd7a3-2907-4c43-85f1-c5b34ee36703"
  },
  {
    "id": "4a2df678-376d-4cd6-a06a-09dc64df5d14",
    "name": "Deh-e Shaker",
    "state_id": "80abd7a3-2907-4c43-85f1-c5b34ee36703"
  },
  {
    "id": "5dc3fd3c-4e98-45a8-836d-82687f9cca62",
    "name": "Dehnow-e Avarzaman",
    "state_id": "80abd7a3-2907-4c43-85f1-c5b34ee36703"
  },
  {
    "id": "6f423492-172a-4e21-974f-989ae8712d1d",
    "name": "Dingeleh Kahriz",
    "state_id": "80abd7a3-2907-4c43-85f1-c5b34ee36703"
  },
  {
    "id": "b451b13d-4f8a-4fcb-a764-3c3469b89df9",
    "name": "Do Rudan",
    "state_id": "80abd7a3-2907-4c43-85f1-c5b34ee36703"
  },
  {
    "id": "f28d2fdc-c2fe-45af-bed2-f206dead0e85",
    "name": "Doraneh",
    "state_id": "80abd7a3-2907-4c43-85f1-c5b34ee36703"
  },
  {
    "id": "c4f98d44-84ac-4b42-878e-ea8ad0e7f874",
    "name": "Dorudgaran",
    "state_id": "80abd7a3-2907-4c43-85f1-c5b34ee36703"
  },
  {
    "id": "100ed773-0651-4488-867c-16e306d0f2b5",
    "name": "Dow Baraleh",
    "state_id": "80abd7a3-2907-4c43-85f1-c5b34ee36703"
  },
  {
    "id": "9317bdfc-42c7-43fa-84b7-b36af7402648",
    "name": "Dowlatabad-e Hajjilu",
    "state_id": "80abd7a3-2907-4c43-85f1-c5b34ee36703"
  },
  {
    "id": "339ad80f-88ed-4c3a-86b1-cb0205aae26e",
    "name": "Dowlujerdin-e Bala",
    "state_id": "80abd7a3-2907-4c43-85f1-c5b34ee36703"
  },
  {
    "id": "8b60118b-dc11-4f0d-acc4-e45698eca5c7",
    "name": "Durijan",
    "state_id": "80abd7a3-2907-4c43-85f1-c5b34ee36703"
  },
  {
    "id": "77d054a5-8e33-4dfd-a554-d401c16c374c",
    "name": "Durnian",
    "state_id": "80abd7a3-2907-4c43-85f1-c5b34ee36703"
  },
  {
    "id": "324823e2-8ff0-4d88-8549-ca89f2dc165c",
    "name": "Emamzadeh Khatun",
    "state_id": "80abd7a3-2907-4c43-85f1-c5b34ee36703"
  },
  {
    "id": "07c18699-9da5-41ec-bfdc-736839decdd3",
    "name": "Emamzadeh Pir Nahan",
    "state_id": "80abd7a3-2907-4c43-85f1-c5b34ee36703"
  },
  {
    "id": "d8e27b3b-122c-48ad-98d1-5e47c6ec1539",
    "name": "Eskanan",
    "state_id": "80abd7a3-2907-4c43-85f1-c5b34ee36703"
  },
  {
    "id": "1b24813f-3d63-4cd2-af91-6a86eb57a9a7",
    "name": "Fahrumand",
    "state_id": "80abd7a3-2907-4c43-85f1-c5b34ee36703"
  },
  {
    "id": "24911c92-ef6f-429a-a7cb-98bcfd070d5c",
    "name": "Famast",
    "state_id": "80abd7a3-2907-4c43-85f1-c5b34ee36703"
  },
  {
    "id": "9ae3eec9-8e3c-4952-8c67-1129099d9408",
    "name": "Famenin",
    "state_id": "80abd7a3-2907-4c43-85f1-c5b34ee36703"
  },
  {
    "id": "00beacb9-28ed-4fd7-8c91-ad4ba28f0878",
    "name": "Farasfaj",
    "state_id": "80abd7a3-2907-4c43-85f1-c5b34ee36703"
  },
  {
    "id": "e0934442-0a51-4cf5-b5c0-989d2a74e53e",
    "name": "Farsban",
    "state_id": "80abd7a3-2907-4c43-85f1-c5b34ee36703"
  },
  {
    "id": "ebe54dfc-2c03-4672-9686-f7a989e6ba60",
    "name": "Farvaz",
    "state_id": "80abd7a3-2907-4c43-85f1-c5b34ee36703"
  },
  {
    "id": "df233481-2481-4f69-a202-0a28ec2343a1",
    "name": "Faryazan",
    "state_id": "80abd7a3-2907-4c43-85f1-c5b34ee36703"
  },
  {
    "id": "b18c13ec-3318-4bb0-ac02-0a28fc1ba1e9",
    "name": "Fasijan",
    "state_id": "80abd7a3-2907-4c43-85f1-c5b34ee36703"
  },
  {
    "id": "bfc72cab-12d3-409a-9fe7-ad6e010a0ea4",
    "name": "Fiazaman",
    "state_id": "80abd7a3-2907-4c43-85f1-c5b34ee36703"
  },
  {
    "id": "215db9d2-09ca-4a8d-8d99-bf10effd97b6",
    "name": "Firuzabad-e Sofla",
    "state_id": "80abd7a3-2907-4c43-85f1-c5b34ee36703"
  },
  {
    "id": "5b349faf-ac7a-47e6-b521-60887a51f89e",
    "name": "Firuzan",
    "state_id": "80abd7a3-2907-4c43-85f1-c5b34ee36703"
  },
  {
    "id": "d53b8e70-ff45-472b-9ade-f09573572b1d",
    "name": "Gamasa",
    "state_id": "80abd7a3-2907-4c43-85f1-c5b34ee36703"
  },
  {
    "id": "feccde96-6860-4a9a-bb47-8c187cbf81ac",
    "name": "Gamasb",
    "state_id": "80abd7a3-2907-4c43-85f1-c5b34ee36703"
  },
  {
    "id": "7992e2fc-2c91-4f46-b8b8-295579730527",
    "name": "Ganj Tappeh",
    "state_id": "80abd7a3-2907-4c43-85f1-c5b34ee36703"
  },
  {
    "id": "5c1cda31-e83b-48fa-8f32-3c1d0b709c9c",
    "name": "Ganjab",
    "state_id": "80abd7a3-2907-4c43-85f1-c5b34ee36703"
  },
  {
    "id": "ce4bee44-cf24-47ce-9bac-13b7ed1a044d",
    "name": "Gashani",
    "state_id": "80abd7a3-2907-4c43-85f1-c5b34ee36703"
  },
  {
    "id": "9a827aed-ae17-4e76-9bc9-ab9bae4daab5",
    "name": "Gav Zaban",
    "state_id": "80abd7a3-2907-4c43-85f1-c5b34ee36703"
  },
  {
    "id": "f94a43b3-9475-488d-a189-8b1e6b26b892",
    "name": "Gavkaran",
    "state_id": "80abd7a3-2907-4c43-85f1-c5b34ee36703"
  },
  {
    "id": "aa6ea433-c6c5-40af-8e44-771c903c1bfb",
    "name": "Ghazyatan",
    "state_id": "80abd7a3-2907-4c43-85f1-c5b34ee36703"
  },
  {
    "id": "71eb0f64-d5a6-433f-96ee-c0863ba6075a",
    "name": "Gholam Veys",
    "state_id": "80abd7a3-2907-4c43-85f1-c5b34ee36703"
  },
  {
    "id": "a61b33e7-b5a4-4ce1-bb2a-6afcd1608fc1",
    "name": "Givaki",
    "state_id": "80abd7a3-2907-4c43-85f1-c5b34ee36703"
  },
  {
    "id": "10e32745-e4f0-4d57-8072-c01e09c2f94c",
    "name": "Giyan",
    "state_id": "80abd7a3-2907-4c43-85f1-c5b34ee36703"
  },
  {
    "id": "cdbf8924-9cd2-4ce6-997e-4365586a78e1",
    "name": "Gol Darreh-ye Anuch",
    "state_id": "80abd7a3-2907-4c43-85f1-c5b34ee36703"
  },
  {
    "id": "c15a96f7-fe96-4d1e-8b6f-f50e71c4b374",
    "name": "Gol Heydar",
    "state_id": "80abd7a3-2907-4c43-85f1-c5b34ee36703"
  },
  {
    "id": "4a6cb5bc-cca2-406f-af0b-62c28a4f9611",
    "name": "Golparabad",
    "state_id": "80abd7a3-2907-4c43-85f1-c5b34ee36703"
  },
  {
    "id": "74aafadb-1cd0-492d-8b05-f45bfec7ab20",
    "name": "Golshir",
    "state_id": "80abd7a3-2907-4c43-85f1-c5b34ee36703"
  },
  {
    "id": "93ed7f9e-83a4-43d3-9293-6f6d932639ee",
    "name": "Golushjerd",
    "state_id": "80abd7a3-2907-4c43-85f1-c5b34ee36703"
  },
  {
    "id": "957bfbc2-4e9d-4e8f-971f-936f742fc2f5",
    "name": "Gomush Bolagh",
    "state_id": "80abd7a3-2907-4c43-85f1-c5b34ee36703"
  },
  {
    "id": "528d41b2-e6aa-46b6-b110-f2222d740c9f",
    "name": "Gonbad Chay",
    "state_id": "80abd7a3-2907-4c43-85f1-c5b34ee36703"
  },
  {
    "id": "0260db68-59a4-4365-9bfe-2a6481b6ecbc",
    "name": "Gonbad-e Kabud",
    "state_id": "80abd7a3-2907-4c43-85f1-c5b34ee36703"
  },
  {
    "id": "de159af2-b8a8-41a5-bb34-2a1047dfa88d",
    "name": "Gostar",
    "state_id": "80abd7a3-2907-4c43-85f1-c5b34ee36703"
  },
  {
    "id": "91b75d64-82d5-4279-a822-0d4459f79467",
    "name": "Gozal Abdal",
    "state_id": "80abd7a3-2907-4c43-85f1-c5b34ee36703"
  },
  {
    "id": "ebff13f4-93d1-4e45-9ad1-4eddf77c9bf3",
    "name": "Gug Qash",
    "state_id": "80abd7a3-2907-4c43-85f1-c5b34ee36703"
  },
  {
    "id": "04bbdad8-04ba-4874-878d-c5aca9974405",
    "name": "Gujak",
    "state_id": "80abd7a3-2907-4c43-85f1-c5b34ee36703"
  },
  {
    "id": "a722a7cf-0780-42e4-904e-9fa2e04b6828",
    "name": "Gulvand",
    "state_id": "80abd7a3-2907-4c43-85f1-c5b34ee36703"
  },
  {
    "id": "ce70b1dc-d707-48df-b481-b095360cc3cb",
    "name": "Gunestan",
    "state_id": "80abd7a3-2907-4c43-85f1-c5b34ee36703"
  },
  {
    "id": "f90511f8-c6f3-49a0-9ba4-fb724aae75c7",
    "name": "Gur Gaz",
    "state_id": "80abd7a3-2907-4c43-85f1-c5b34ee36703"
  },
  {
    "id": "4c8f9e4e-788c-42c0-91b6-6b7cb9f89dae",
    "name": "Gurjiu",
    "state_id": "80abd7a3-2907-4c43-85f1-c5b34ee36703"
  },
  {
    "id": "7dedbe69-e25f-4e9a-bd71-38442ee11b60",
    "name": "Gushalan",
    "state_id": "80abd7a3-2907-4c43-85f1-c5b34ee36703"
  },
  {
    "id": "55755adf-2646-4ca9-94d9-7816d338ef6d",
    "name": "Gusheh-ye Kasavand",
    "state_id": "80abd7a3-2907-4c43-85f1-c5b34ee36703"
  },
  {
    "id": "d3a6eadb-f447-4302-99c1-abdffe8a649a",
    "name": "Hajji Kheder",
    "state_id": "80abd7a3-2907-4c43-85f1-c5b34ee36703"
  },
  {
    "id": "3fb87b4f-7639-407c-9d56-48d761bda089",
    "name": "Hajji Maqsud",
    "state_id": "80abd7a3-2907-4c43-85f1-c5b34ee36703"
  },
  {
    "id": "bb71c453-592d-42a2-b10c-6f8af0119782",
    "name": "Hajji Tu",
    "state_id": "80abd7a3-2907-4c43-85f1-c5b34ee36703"
  },
  {
    "id": "7f82ecf9-23f4-4df2-99ae-9c1662ddc925",
    "name": "Hamadan",
    "state_id": "80abd7a3-2907-4c43-85f1-c5b34ee36703"
  },
  {
    "id": "08b187a7-caac-4d35-94a9-1bb32ca49682",
    "name": "Hamilabad",
    "state_id": "80abd7a3-2907-4c43-85f1-c5b34ee36703"
  },
  {
    "id": "31d4c39f-6903-46e0-bbc6-5f8a60956422",
    "name": "Hamzehlu-ye Sofla",
    "state_id": "80abd7a3-2907-4c43-85f1-c5b34ee36703"
  },
  {
    "id": "5a0748fc-1314-4150-b316-0874d59dd2fb",
    "name": "Haramabad",
    "state_id": "80abd7a3-2907-4c43-85f1-c5b34ee36703"
  },
  {
    "id": "66962a45-d241-4fd9-9acc-762597fbd38e",
    "name": "Hasan Kusej",
    "state_id": "80abd7a3-2907-4c43-85f1-c5b34ee36703"
  },
  {
    "id": "27593b31-2539-4e96-9067-e00e1860999b",
    "name": "Hasan Teymur",
    "state_id": "80abd7a3-2907-4c43-85f1-c5b34ee36703"
  },
  {
    "id": "493ed2a0-6136-4500-85ed-1511525547ad",
    "name": "Hasanabad-e Emam",
    "state_id": "80abd7a3-2907-4c43-85f1-c5b34ee36703"
  },
  {
    "id": "121b91c9-cead-498c-bc09-f317012090c1",
    "name": "Hasanabad-e Qush Bolagh",
    "state_id": "80abd7a3-2907-4c43-85f1-c5b34ee36703"
  },
  {
    "id": "2b463bae-f794-43af-8067-dccbbe6f2818",
    "name": "Hasanabad-e Sheverin",
    "state_id": "80abd7a3-2907-4c43-85f1-c5b34ee36703"
  },
  {
    "id": "0f56b811-ae37-46a6-b084-8168eac0867c",
    "name": "Heriraz",
    "state_id": "80abd7a3-2907-4c43-85f1-c5b34ee36703"
  },
  {
    "id": "db8266a7-1955-4d7b-a495-644f0054ea9d",
    "name": "Hesar-e Qarah Baghi",
    "state_id": "80abd7a3-2907-4c43-85f1-c5b34ee36703"
  },
  {
    "id": "84aea8fd-88d9-4d92-8f32-17b7e4a71c9d",
    "name": "Hesar-e Qujeh Baghi",
    "state_id": "80abd7a3-2907-4c43-85f1-c5b34ee36703"
  },
  {
    "id": "2cd00b23-d8ed-451a-94a9-61bf6348d780",
    "name": "Heydareh-ye Dar-e Emam",
    "state_id": "80abd7a3-2907-4c43-85f1-c5b34ee36703"
  },
  {
    "id": "7e3b7d4e-0030-4404-97fb-3884a7fc4319",
    "name": "Heydareh-ye Posht-e Shahr",
    "state_id": "80abd7a3-2907-4c43-85f1-c5b34ee36703"
  },
  {
    "id": "b20c49df-b211-4fc1-91f8-8b9b639c88c4",
    "name": "Hizaj",
    "state_id": "80abd7a3-2907-4c43-85f1-c5b34ee36703"
  },
  {
    "id": "9bf67390-ff6d-4b98-b2a0-7fb600a7484d",
    "name": "Holvar-e Sofla",
    "state_id": "80abd7a3-2907-4c43-85f1-c5b34ee36703"
  },
  {
    "id": "9a248939-3a88-49fa-83c8-4f5d0eea514c",
    "name": "Hom-e Khosrow",
    "state_id": "80abd7a3-2907-4c43-85f1-c5b34ee36703"
  },
  {
    "id": "5a1f8851-e19c-45c9-bd41-87377ff8ab6c",
    "name": "Horhoreh",
    "state_id": "80abd7a3-2907-4c43-85f1-c5b34ee36703"
  },
  {
    "id": "966f8ad4-f88c-472d-9c18-6cee7d0fd14a",
    "name": "Hoseynabad-e Bahar",
    "state_id": "80abd7a3-2907-4c43-85f1-c5b34ee36703"
  },
  {
    "id": "1761df58-4d47-401a-9f1a-fc5010ce2566",
    "name": "Hoseynabad-e Nazem",
    "state_id": "80abd7a3-2907-4c43-85f1-c5b34ee36703"
  },
  {
    "id": "1fdef409-d9fc-4908-a554-aadecab5c5b8",
    "name": "Hoseynabad-e Shamlu",
    "state_id": "80abd7a3-2907-4c43-85f1-c5b34ee36703"
  },
  {
    "id": "322fb2ba-4666-4ae6-8341-d14de6ee037b",
    "name": "Hudaraj",
    "state_id": "80abd7a3-2907-4c43-85f1-c5b34ee36703"
  },
  {
    "id": "95568917-7b8a-476a-88db-d2655fe33028",
    "name": "Iraneh",
    "state_id": "80abd7a3-2907-4c43-85f1-c5b34ee36703"
  },
  {
    "id": "8d934a35-5425-4293-8217-9dc14089fc36",
    "name": "Isti Bolagh",
    "state_id": "80abd7a3-2907-4c43-85f1-c5b34ee36703"
  },
  {
    "id": "8b61a430-7aca-4777-832a-3647062fd7a7",
    "name": "Jamishlu",
    "state_id": "80abd7a3-2907-4c43-85f1-c5b34ee36703"
  },
  {
    "id": "fdeb145e-6a7b-443b-b16d-0562be117e79",
    "name": "Jaria",
    "state_id": "80abd7a3-2907-4c43-85f1-c5b34ee36703"
  },
  {
    "id": "965ae6b5-dfd6-4330-93d6-59de2263e3c7",
    "name": "Javar Sajin",
    "state_id": "80abd7a3-2907-4c43-85f1-c5b34ee36703"
  },
  {
    "id": "2984b35d-8daa-4671-a39e-6dadaede4735",
    "name": "Jerbanlu",
    "state_id": "80abd7a3-2907-4c43-85f1-c5b34ee36703"
  },
  {
    "id": "a59fb684-5f75-4898-b30a-de2622151d25",
    "name": "Jighi",
    "state_id": "80abd7a3-2907-4c43-85f1-c5b34ee36703"
  },
  {
    "id": "ecb6fe60-f2b4-44c2-a799-14c8d8e40667",
    "name": "Jijan Kuh",
    "state_id": "80abd7a3-2907-4c43-85f1-c5b34ee36703"
  },
  {
    "id": "7a2fb276-409a-4082-9c0d-466ca32fa0dd",
    "name": "Jijian Rud",
    "state_id": "80abd7a3-2907-4c43-85f1-c5b34ee36703"
  },
  {
    "id": "7cc7b7ab-f602-4665-a4e6-4394395e10ba",
    "name": "Jin Taraqayah",
    "state_id": "80abd7a3-2907-4c43-85f1-c5b34ee36703"
  },
  {
    "id": "2faaa257-1c83-4ea9-9a18-aa48db7905d9",
    "name": "Juraqan",
    "state_id": "80abd7a3-2907-4c43-85f1-c5b34ee36703"
  },
  {
    "id": "56a3c226-3ce7-471f-8cb3-220f44189f03",
    "name": "Kaboodrahang",
    "state_id": "80abd7a3-2907-4c43-85f1-c5b34ee36703"
  },
  {
    "id": "ff23076f-27ad-486e-89f2-654b997d436f",
    "name": "Kahard",
    "state_id": "80abd7a3-2907-4c43-85f1-c5b34ee36703"
  },
  {
    "id": "6b45fc2c-588c-4fc6-8869-177b4c45726d",
    "name": "Kahkadan",
    "state_id": "80abd7a3-2907-4c43-85f1-c5b34ee36703"
  },
  {
    "id": "24bf5bca-714b-442a-a73d-e47ba4b925bc",
    "name": "Kahriz-e Baba Hoseyn",
    "state_id": "80abd7a3-2907-4c43-85f1-c5b34ee36703"
  },
  {
    "id": "83d8a7f2-7ffd-41c9-92a4-eeda5453d0a1",
    "name": "Kahriz-e Boqazi",
    "state_id": "80abd7a3-2907-4c43-85f1-c5b34ee36703"
  },
  {
    "id": "5e9ba0af-458c-4dcf-a465-35b48ca2d12f",
    "name": "Kahriz-e Hoseynabad-e Nazem",
    "state_id": "80abd7a3-2907-4c43-85f1-c5b34ee36703"
  },
  {
    "id": "4eea0d11-c7d9-45b6-86b9-f1dc5b0ce766",
    "name": "Kahriz-e Jamal",
    "state_id": "80abd7a3-2907-4c43-85f1-c5b34ee36703"
  },
  {
    "id": "1851d7bf-6d93-421b-a01f-d929a3a913de",
    "name": "Kahriz-e Salim",
    "state_id": "80abd7a3-2907-4c43-85f1-c5b34ee36703"
  },
  {
    "id": "90c6d849-9e24-4770-ab3f-5a5fa4a501d6",
    "name": "Kal Kabud",
    "state_id": "80abd7a3-2907-4c43-85f1-c5b34ee36703"
  },
  {
    "id": "cb8485b6-8165-446b-9eb9-718d84212e11",
    "name": "Kalb Hesari",
    "state_id": "80abd7a3-2907-4c43-85f1-c5b34ee36703"
  },
  {
    "id": "ea20eff8-08a5-455b-939e-5d97d602be74",
    "name": "Kalilabad",
    "state_id": "80abd7a3-2907-4c43-85f1-c5b34ee36703"
  },
  {
    "id": "a2e89af8-84c9-4655-b3a3-d26a23a4448b",
    "name": "Kamak-e Sofla",
    "state_id": "80abd7a3-2907-4c43-85f1-c5b34ee36703"
  },
  {
    "id": "51ed5c53-9929-45ac-a51a-eec6f148f4b3",
    "name": "Kamar Boneh",
    "state_id": "80abd7a3-2907-4c43-85f1-c5b34ee36703"
  },
  {
    "id": "7c2d6d5c-5c54-4333-9ce5-b4def32c306c",
    "name": "Kamazan",
    "state_id": "80abd7a3-2907-4c43-85f1-c5b34ee36703"
  },
  {
    "id": "616db360-d32e-4d83-9a7e-a6bf951524d5",
    "name": "Kand Halan",
    "state_id": "80abd7a3-2907-4c43-85f1-c5b34ee36703"
  },
  {
    "id": "bd04b625-b7b8-4bae-8fd5-f70e294a5d16",
    "name": "Kand Tappeh",
    "state_id": "80abd7a3-2907-4c43-85f1-c5b34ee36703"
  },
  {
    "id": "13a281ec-92f4-482c-8cdd-c1e4fad70c48",
    "name": "Kand-e Bolaghi",
    "state_id": "80abd7a3-2907-4c43-85f1-c5b34ee36703"
  },
  {
    "id": "96e799d3-290a-4b1d-a739-d1aeaaf1889f",
    "name": "Kangavar-e Kohneh",
    "state_id": "80abd7a3-2907-4c43-85f1-c5b34ee36703"
  },
  {
    "id": "1ff4efd0-13f9-494e-a529-729b5ea24512",
    "name": "Karafs",
    "state_id": "80abd7a3-2907-4c43-85f1-c5b34ee36703"
  },
  {
    "id": "2005e6f9-f006-4dc3-975c-11d14d563164",
    "name": "Kark-e Sofla",
    "state_id": "80abd7a3-2907-4c43-85f1-c5b34ee36703"
  },
  {
    "id": "aafa0866-403c-49b5-bbf4-75fbe5f2ec13",
    "name": "Kartilabad",
    "state_id": "80abd7a3-2907-4c43-85f1-c5b34ee36703"
  },
  {
    "id": "c821df22-a4b1-4f74-93a3-cf793363d6bf",
    "name": "Kasavand",
    "state_id": "80abd7a3-2907-4c43-85f1-c5b34ee36703"
  },
  {
    "id": "c27f722a-5dd0-4f10-b9dc-abb0864dedff",
    "name": "Kaslan Qayah",
    "state_id": "80abd7a3-2907-4c43-85f1-c5b34ee36703"
  },
  {
    "id": "b63c76f5-21f8-4286-9a44-f1de8780e1d8",
    "name": "Kavanaj",
    "state_id": "80abd7a3-2907-4c43-85f1-c5b34ee36703"
  },
  {
    "id": "bf56dc39-3084-453b-95c8-b920d79f82ca",
    "name": "Kesb",
    "state_id": "80abd7a3-2907-4c43-85f1-c5b34ee36703"
  },
  {
    "id": "07e47a5f-1de5-4eb5-8270-ae96ac10eaa8",
    "name": "Keykaleh",
    "state_id": "80abd7a3-2907-4c43-85f1-c5b34ee36703"
  },
  {
    "id": "afc1cd1a-6b97-45a2-a028-2fae98ba2e96",
    "name": "Keyni Sayeh",
    "state_id": "80abd7a3-2907-4c43-85f1-c5b34ee36703"
  },
  {
    "id": "ed06dd85-e1c6-4fb7-86e5-bd7968c9e695",
    "name": "Khabar Arkhi",
    "state_id": "80abd7a3-2907-4c43-85f1-c5b34ee36703"
  },
  {
    "id": "813f3738-277b-44f4-b613-3018bcf9a98f",
    "name": "Khaku",
    "state_id": "80abd7a3-2907-4c43-85f1-c5b34ee36703"
  },
  {
    "id": "9447c8fc-2d72-4d58-9a7b-dc3af3da6e8c",
    "name": "Khaleq Verdi",
    "state_id": "80abd7a3-2907-4c43-85f1-c5b34ee36703"
  },
  {
    "id": "04f36770-7e2f-4635-babb-9f57710aaf52",
    "name": "Khalil Kord",
    "state_id": "80abd7a3-2907-4c43-85f1-c5b34ee36703"
  },
  {
    "id": "17508085-81b7-4de2-b01b-1340388b8527",
    "name": "Kheradmand",
    "state_id": "80abd7a3-2907-4c43-85f1-c5b34ee36703"
  },
  {
    "id": "d4300bf3-8e84-4b81-aa9f-370ed790432b",
    "name": "Kheyr Qoli",
    "state_id": "80abd7a3-2907-4c43-85f1-c5b34ee36703"
  },
  {
    "id": "1a6ae8e4-a8d0-429a-a51a-c9ba9f99d302",
    "name": "Khomeygan",
    "state_id": "80abd7a3-2907-4c43-85f1-c5b34ee36703"
  },
  {
    "id": "96f68c43-1433-4149-828b-db92ef8fc88d",
    "name": "Khvajeh Hesar",
    "state_id": "80abd7a3-2907-4c43-85f1-c5b34ee36703"
  },
  {
    "id": "a3f1f1e7-819c-4404-ad3f-720b6fde933c",
    "name": "Khvajeh Hoseyni",
    "state_id": "80abd7a3-2907-4c43-85f1-c5b34ee36703"
  },
  {
    "id": "00ee1dbd-333d-4bd8-8e4f-7ca40b2d2726",
    "name": "Khvajeh Kandi",
    "state_id": "80abd7a3-2907-4c43-85f1-c5b34ee36703"
  },
  {
    "id": "90c03494-d119-49d6-a681-da65ac4679b0",
    "name": "Khvoshab-e Sofla",
    "state_id": "80abd7a3-2907-4c43-85f1-c5b34ee36703"
  },
  {
    "id": "2f032e68-5721-4842-9049-e937d90cf1e9",
    "name": "Kitu",
    "state_id": "80abd7a3-2907-4c43-85f1-c5b34ee36703"
  },
  {
    "id": "e7e18524-5292-47f4-9d0b-80f4b65e06a2",
    "name": "Kohnush",
    "state_id": "80abd7a3-2907-4c43-85f1-c5b34ee36703"
  },
  {
    "id": "a67c7432-259f-4b25-a2e9-5eb9ee660868",
    "name": "Kolanjan",
    "state_id": "80abd7a3-2907-4c43-85f1-c5b34ee36703"
  },
  {
    "id": "f6e9d61c-1486-47e3-9fd7-f3f4f700b8b6",
    "name": "Konjineh",
    "state_id": "80abd7a3-2907-4c43-85f1-c5b34ee36703"
  },
  {
    "id": "e7f7ea55-2aa4-4394-a0dd-cd4a58a4a978",
    "name": "Kord Bolagh",
    "state_id": "80abd7a3-2907-4c43-85f1-c5b34ee36703"
  },
  {
    "id": "2da7c201-de28-45ee-a178-e10283c6049b",
    "name": "Korzan",
    "state_id": "80abd7a3-2907-4c43-85f1-c5b34ee36703"
  },
  {
    "id": "905054de-d212-4601-acea-98dc55bb3814",
    "name": "Kowzareh",
    "state_id": "80abd7a3-2907-4c43-85f1-c5b34ee36703"
  },
  {
    "id": "acc30935-74c9-4b26-885f-86e2ca512065",
    "name": "Kuhani",
    "state_id": "80abd7a3-2907-4c43-85f1-c5b34ee36703"
  },
  {
    "id": "205245f4-0875-4b53-a187-e548078e91f1",
    "name": "Kur Kahriz",
    "state_id": "80abd7a3-2907-4c43-85f1-c5b34ee36703"
  },
  {
    "id": "a03a0eca-eb54-46a4-b8c2-7638926347b6",
    "name": "Kusaj Khalil",
    "state_id": "80abd7a3-2907-4c43-85f1-c5b34ee36703"
  },
  {
    "id": "cf97d621-b17f-409c-88a4-ca4b4427cb64",
    "name": "Kutah Darreh",
    "state_id": "80abd7a3-2907-4c43-85f1-c5b34ee36703"
  },
  {
    "id": "f2ca7daf-e6d2-4a98-8e84-96c99f2ad28c",
    "name": "Laleh Dan",
    "state_id": "80abd7a3-2907-4c43-85f1-c5b34ee36703"
  },
  {
    "id": "3845b0d5-caa3-4196-b27e-382d9594a1a2",
    "name": "Lalejin",
    "state_id": "80abd7a3-2907-4c43-85f1-c5b34ee36703"
  },
  {
    "id": "0ab23dde-557d-46ff-9816-a13d31f0dfe9",
    "name": "Lamiyan",
    "state_id": "80abd7a3-2907-4c43-85f1-c5b34ee36703"
  },
  {
    "id": "da16cca5-6e36-495e-b365-e46bff7602ef",
    "name": "Latgah",
    "state_id": "80abd7a3-2907-4c43-85f1-c5b34ee36703"
  },
  {
    "id": "1e5b3e54-3d90-4c36-b767-f0bc4579b4e5",
    "name": "Lavashan",
    "state_id": "80abd7a3-2907-4c43-85f1-c5b34ee36703"
  },
  {
    "id": "1f9fb253-6238-4f0c-8218-4b57061355a3",
    "name": "Leyli Yadegar",
    "state_id": "80abd7a3-2907-4c43-85f1-c5b34ee36703"
  },
  {
    "id": "9da4944c-3525-4e3c-a14e-ea65976ab120",
    "name": "Luluhar",
    "state_id": "80abd7a3-2907-4c43-85f1-c5b34ee36703"
  },
  {
    "id": "e63cf22f-4184-4733-8f1f-9738a90a07d3",
    "name": "Mahanabad",
    "state_id": "80abd7a3-2907-4c43-85f1-c5b34ee36703"
  },
  {
    "id": "4c5a3531-d0e9-4a0c-99cc-80567b1c61d1",
    "name": "Mahbar",
    "state_id": "80abd7a3-2907-4c43-85f1-c5b34ee36703"
  },
  {
    "id": "ca089f9f-bd74-412f-856d-6315109d9ad6",
    "name": "Mahdaviyeh",
    "state_id": "80abd7a3-2907-4c43-85f1-c5b34ee36703"
  },
  {
    "id": "3913fb55-1187-4ce2-a4a0-bc427deee8d1",
    "name": "Mahnian",
    "state_id": "80abd7a3-2907-4c43-85f1-c5b34ee36703"
  },
  {
    "id": "e2490844-6b32-4859-a7c8-b846e38c9eba",
    "name": "Malayer",
    "state_id": "80abd7a3-2907-4c43-85f1-c5b34ee36703"
  },
  {
    "id": "f3e5e6e0-fa93-4d03-a915-3584d5f2b5ec",
    "name": "Malek-e Ashtar",
    "state_id": "80abd7a3-2907-4c43-85f1-c5b34ee36703"
  },
  {
    "id": "7fabc1f4-4a72-4d21-9566-b75d458aadfa",
    "name": "Malusan",
    "state_id": "80abd7a3-2907-4c43-85f1-c5b34ee36703"
  },
  {
    "id": "119b2c94-1857-491a-a1ef-eb2df712405d",
    "name": "Mangavi",
    "state_id": "80abd7a3-2907-4c43-85f1-c5b34ee36703"
  },
  {
    "id": "34174d5a-a305-4993-8d22-97b6bb699fcd",
    "name": "Marvil",
    "state_id": "80abd7a3-2907-4c43-85f1-c5b34ee36703"
  },
  {
    "id": "ce123d59-4b01-467d-a2cd-c9d9421abb97",
    "name": "Maryanaj",
    "state_id": "80abd7a3-2907-4c43-85f1-c5b34ee36703"
  },
  {
    "id": "ef9c1337-a5bf-4d33-ad4c-a904d7a761b0",
    "name": "Masjedin",
    "state_id": "80abd7a3-2907-4c43-85f1-c5b34ee36703"
  },
  {
    "id": "7c8c1156-6d40-42c8-8482-d913ffe5051a",
    "name": "Menjan",
    "state_id": "80abd7a3-2907-4c43-85f1-c5b34ee36703"
  },
  {
    "id": "13149f13-f855-4604-8344-80e93540389e",
    "name": "Mesinak",
    "state_id": "80abd7a3-2907-4c43-85f1-c5b34ee36703"
  },
  {
    "id": "abb0a6c1-0083-4d74-b1ce-e882051fc5f2",
    "name": "Meyvaleh",
    "state_id": "80abd7a3-2907-4c43-85f1-c5b34ee36703"
  },
  {
    "id": "eb7322ed-d4e9-4b0f-b8b9-46ec845d96ed",
    "name": "Mianzulan",
    "state_id": "80abd7a3-2907-4c43-85f1-c5b34ee36703"
  },
  {
    "id": "0dd94fde-c50e-48fd-be1d-6dab5d6ae72f",
    "name": "Mihamleh-ye Sofla",
    "state_id": "80abd7a3-2907-4c43-85f1-c5b34ee36703"
  },
  {
    "id": "c4982f8a-e41a-49dc-b9c7-8ca476056857",
    "name": "Milab",
    "state_id": "80abd7a3-2907-4c43-85f1-c5b34ee36703"
  },
  {
    "id": "7cf209c2-b90a-49df-9821-1940403d0301",
    "name": "Mirza Hesari",
    "state_id": "80abd7a3-2907-4c43-85f1-c5b34ee36703"
  },
  {
    "id": "2a49cb8f-fb69-4b80-94b2-30ab5d60d9cf",
    "name": "Mishen",
    "state_id": "80abd7a3-2907-4c43-85f1-c5b34ee36703"
  },
  {
    "id": "a7db7a9d-53f7-4acb-9c28-d57dff70b711",
    "name": "Mobarakin",
    "state_id": "80abd7a3-2907-4c43-85f1-c5b34ee36703"
  },
  {
    "id": "7782137d-cafd-4ea8-a024-3da1cc380093",
    "name": "Mohajeran",
    "state_id": "80abd7a3-2907-4c43-85f1-c5b34ee36703"
  },
  {
    "id": "14b51123-6a82-4090-94b9-fd4e88ebf866",
    "name": "Mohammadabad-e Chulak",
    "state_id": "80abd7a3-2907-4c43-85f1-c5b34ee36703"
  },
  {
    "id": "46f1e6af-750a-4f03-9525-6663602a3d18",
    "name": "Mohammadiyeh-e Sofla",
    "state_id": "80abd7a3-2907-4c43-85f1-c5b34ee36703"
  },
  {
    "id": "c5d743f1-04db-4351-8eee-bd335f1a6e20",
    "name": "Mohara",
    "state_id": "80abd7a3-2907-4c43-85f1-c5b34ee36703"
  },
  {
    "id": "f6ec410b-894a-46f5-9deb-dbd1451c2bf7",
    "name": "Mokarrabi",
    "state_id": "80abd7a3-2907-4c43-85f1-c5b34ee36703"
  },
  {
    "id": "3ba677d0-a99d-4b43-80e3-50677e754fc1",
    "name": "Molham Darreh",
    "state_id": "80abd7a3-2907-4c43-85f1-c5b34ee36703"
  },
  {
    "id": "16727da8-7859-4d73-8e89-c6fdec521eaa",
    "name": "Molla Bodagh",
    "state_id": "80abd7a3-2907-4c43-85f1-c5b34ee36703"
  },
  {
    "id": "8170dd1b-5223-4218-81b3-d6d82627a6fc",
    "name": "Monavvar Tappeh",
    "state_id": "80abd7a3-2907-4c43-85f1-c5b34ee36703"
  },
  {
    "id": "b5f9a88a-c7c7-41be-befc-ea96a7cefc97",
    "name": "Morghabad",
    "state_id": "80abd7a3-2907-4c43-85f1-c5b34ee36703"
  },
  {
    "id": "6947dd6c-f7c9-4cb6-a310-a235014932b4",
    "name": "Mowdaran",
    "state_id": "80abd7a3-2907-4c43-85f1-c5b34ee36703"
  },
  {
    "id": "2c350444-9259-49b5-b6a5-c4ee3028ab85",
    "name": "Musa Bolaghi",
    "state_id": "80abd7a3-2907-4c43-85f1-c5b34ee36703"
  },
  {
    "id": "99d1a859-3ed3-43bd-b23a-c5d18e162a0c",
    "name": "Nahandar",
    "state_id": "80abd7a3-2907-4c43-85f1-c5b34ee36703"
  },
  {
    "id": "d8a786c5-872a-4a12-991b-70988b3161a8",
    "name": "Nahavand",
    "state_id": "80abd7a3-2907-4c43-85f1-c5b34ee36703"
  },
  {
    "id": "0fb35d98-97a5-49b0-a8de-cdefaf29e1d7",
    "name": "Najafiyeh",
    "state_id": "80abd7a3-2907-4c43-85f1-c5b34ee36703"
  },
  {
    "id": "3aaa5dc5-f6ea-4388-bce9-77ab16477078",
    "name": "Nakilabad",
    "state_id": "80abd7a3-2907-4c43-85f1-c5b34ee36703"
  },
  {
    "id": "4bf91b7b-4d54-4572-99e9-35f6aca70b34",
    "name": "Nakin",
    "state_id": "80abd7a3-2907-4c43-85f1-c5b34ee36703"
  },
  {
    "id": "60fdbf3d-ea19-49d9-8ab2-407ba33f3aeb",
    "name": "Namileh",
    "state_id": "80abd7a3-2907-4c43-85f1-c5b34ee36703"
  },
  {
    "id": "f3ac11a9-2d07-4957-ad7e-1f0c4585b59b",
    "name": "Nanaj",
    "state_id": "80abd7a3-2907-4c43-85f1-c5b34ee36703"
  },
  {
    "id": "fc7ed6f6-45d7-4e02-acee-6abb4ef0c27d",
    "name": "Nazul",
    "state_id": "80abd7a3-2907-4c43-85f1-c5b34ee36703"
  },
  {
    "id": "43e42cb8-a3c6-4d82-bc9a-e4761b39fe30",
    "name": "Negar Khatun",
    "state_id": "80abd7a3-2907-4c43-85f1-c5b34ee36703"
  },
  {
    "id": "c858d138-9f3e-4c62-b03f-7b389e43b020",
    "name": "Negarabad",
    "state_id": "80abd7a3-2907-4c43-85f1-c5b34ee36703"
  },
  {
    "id": "d66ec121-c3f3-4478-82f6-f1b6eb77a00a",
    "name": "Nehenjeh",
    "state_id": "80abd7a3-2907-4c43-85f1-c5b34ee36703"
  },
  {
    "id": "f6b08556-6ab7-4d58-875a-0248f205b2a9",
    "name": "Nesar",
    "state_id": "80abd7a3-2907-4c43-85f1-c5b34ee36703"
  },
  {
    "id": "e61901d3-4a68-4e1c-a63d-ff63b1f55caa",
    "name": "Neshar",
    "state_id": "80abd7a3-2907-4c43-85f1-c5b34ee36703"
  },
  {
    "id": "19ffca3c-8216-4676-8962-f04392608fb4",
    "name": "Niyanj",
    "state_id": "80abd7a3-2907-4c43-85f1-c5b34ee36703"
  },
  {
    "id": "867e2ce3-11d6-4684-bbe9-9e070b859dd2",
    "name": "Nosratabad-e Behraz",
    "state_id": "80abd7a3-2907-4c43-85f1-c5b34ee36703"
  },
  {
    "id": "efca3583-d6e8-418f-94a5-2cf76016f03f",
    "name": "Nosratabad-e Laklak",
    "state_id": "80abd7a3-2907-4c43-85f1-c5b34ee36703"
  },
  {
    "id": "134ead01-a2db-4ffb-87e4-77ec336d648e",
    "name": "Nurabad-e Simineh",
    "state_id": "80abd7a3-2907-4c43-85f1-c5b34ee36703"
  },
  {
    "id": "51a49522-bba3-44e9-8e61-fb8c1c73dd0d",
    "name": "Ojaq",
    "state_id": "80abd7a3-2907-4c43-85f1-c5b34ee36703"
  },
  {
    "id": "bfd8c38f-fb5e-41de-84f8-a0b6cc96fa96",
    "name": "Ommatlar",
    "state_id": "80abd7a3-2907-4c43-85f1-c5b34ee36703"
  },
  {
    "id": "a60a161e-089f-4f6a-ace3-9b1de4ce9c93",
    "name": "Oshtoran",
    "state_id": "80abd7a3-2907-4c43-85f1-c5b34ee36703"
  },
  {
    "id": "05abcd92-9f75-4314-9fa1-dcce10158b52",
    "name": "Oshtorjin",
    "state_id": "80abd7a3-2907-4c43-85f1-c5b34ee36703"
  },
  {
    "id": "7b04f16e-1a61-48d8-b1fb-d958c7abd400",
    "name": "Ovraqin",
    "state_id": "80abd7a3-2907-4c43-85f1-c5b34ee36703"
  },
  {
    "id": "607e7054-fb7c-40fe-9e53-084577ab7192",
    "name": "Owrteh Qamish",
    "state_id": "80abd7a3-2907-4c43-85f1-c5b34ee36703"
  },
  {
    "id": "51779211-404c-4bca-9c41-24dce877b4bc",
    "name": "Owryad",
    "state_id": "80abd7a3-2907-4c43-85f1-c5b34ee36703"
  },
  {
    "id": "72272db9-eccd-479c-83d4-6cf56bcae1c0",
    "name": "Pahnabad",
    "state_id": "80abd7a3-2907-4c43-85f1-c5b34ee36703"
  },
  {
    "id": "d1ab8210-bda1-4a77-961a-e444ccb8d814",
    "name": "Panbeh Dar",
    "state_id": "80abd7a3-2907-4c43-85f1-c5b34ee36703"
  },
  {
    "id": "9ae040f0-e701-4139-aa45-8523e91e81d5",
    "name": "Parluk",
    "state_id": "80abd7a3-2907-4c43-85f1-c5b34ee36703"
  },
  {
    "id": "e3fa3678-3146-405c-8c12-7af1b42b1b92",
    "name": "Parvaraq",
    "state_id": "80abd7a3-2907-4c43-85f1-c5b34ee36703"
  },
  {
    "id": "1cc4e105-9acc-4c75-b617-ec7fc81d0ae9",
    "name": "Payandeh",
    "state_id": "80abd7a3-2907-4c43-85f1-c5b34ee36703"
  },
  {
    "id": "742a08ec-f86d-4506-a840-285fe36b291c",
    "name": "Peyhan",
    "state_id": "80abd7a3-2907-4c43-85f1-c5b34ee36703"
  },
  {
    "id": "10211382-7e80-4146-bba8-76468490e9b0",
    "name": "Pileh Jin",
    "state_id": "80abd7a3-2907-4c43-85f1-c5b34ee36703"
  },
  {
    "id": "aa3ae5c8-7734-48c7-b3fe-bd5493905b66",
    "name": "Pir Anbar",
    "state_id": "80abd7a3-2907-4c43-85f1-c5b34ee36703"
  },
  {
    "id": "2d596483-5aeb-454f-85f7-cdf333d9865a",
    "name": "Pir Badam",
    "state_id": "80abd7a3-2907-4c43-85f1-c5b34ee36703"
  },
  {
    "id": "8c00495e-fffd-411d-8430-6b4e7788ae08",
    "name": "Pir Khodaverdi",
    "state_id": "80abd7a3-2907-4c43-85f1-c5b34ee36703"
  },
  {
    "id": "a3b4d668-59ca-4dfa-98d7-bb0b3f3f0b4b",
    "name": "Pir Malu",
    "state_id": "80abd7a3-2907-4c43-85f1-c5b34ee36703"
  },
  {
    "id": "cac25433-677a-4c5a-a7cc-2770ab36bdee",
    "name": "Pir Mishan",
    "state_id": "80abd7a3-2907-4c43-85f1-c5b34ee36703"
  },
  {
    "id": "6479f30f-647c-4f7b-9ed6-1bb4eafe480e",
    "name": "Pir Savaran",
    "state_id": "80abd7a3-2907-4c43-85f1-c5b34ee36703"
  },
  {
    "id": "8b51aa84-ca3a-474e-95da-248533e41d60",
    "name": "Pir Yusof",
    "state_id": "80abd7a3-2907-4c43-85f1-c5b34ee36703"
  },
  {
    "id": "f2172bae-26df-4a02-b4ac-eaa7250e0c21",
    "name": "Piruz",
    "state_id": "80abd7a3-2907-4c43-85f1-c5b34ee36703"
  },
  {
    "id": "e3746ef7-39ed-4344-9fd8-68854fdfb78a",
    "name": "Poshtjin",
    "state_id": "80abd7a3-2907-4c43-85f1-c5b34ee36703"
  },
  {
    "id": "1442bd7a-7cb6-4185-8bbb-7737f10ce236",
    "name": "Qabanqoli",
    "state_id": "80abd7a3-2907-4c43-85f1-c5b34ee36703"
  },
  {
    "id": "12abbe80-1a8c-4261-abd5-ae36c8e0cc2f",
    "name": "Qader Khalaj",
    "state_id": "80abd7a3-2907-4c43-85f1-c5b34ee36703"
  },
  {
    "id": "cdff1043-087c-4b66-843b-f123240fcda3",
    "name": "Qadimi",
    "state_id": "80abd7a3-2907-4c43-85f1-c5b34ee36703"
  },
  {
    "id": "a95e9556-e368-4854-b87b-90931b01d8b6",
    "name": "Qahavand",
    "state_id": "80abd7a3-2907-4c43-85f1-c5b34ee36703"
  },
  {
    "id": "08defa3f-0c78-4552-8ffd-18b50c735012",
    "name": "Qajar Ab-e Sofla",
    "state_id": "80abd7a3-2907-4c43-85f1-c5b34ee36703"
  },
  {
    "id": "f153e973-df30-4d6e-8da2-5a3902de1982",
    "name": "Qarah Day",
    "state_id": "80abd7a3-2907-4c43-85f1-c5b34ee36703"
  },
  {
    "id": "a2f7429e-35b0-40c6-b2bb-d375c05e5a5e",
    "name": "Qarah Tegini",
    "state_id": "80abd7a3-2907-4c43-85f1-c5b34ee36703"
  },
  {
    "id": "92d5af8b-e8fe-4e52-ac26-b4bf0b1e688c",
    "name": "Qaranqu Darreh",
    "state_id": "80abd7a3-2907-4c43-85f1-c5b34ee36703"
  },
  {
    "id": "bcf77b3b-c83a-4fe1-8741-5ee23c07179a",
    "name": "Qasabestan",
    "state_id": "80abd7a3-2907-4c43-85f1-c5b34ee36703"
  },
  {
    "id": "095fc8b4-69ca-4605-aef8-f5e50de09746",
    "name": "Qasemabad-e Laklak",
    "state_id": "80abd7a3-2907-4c43-85f1-c5b34ee36703"
  },
  {
    "id": "f8f9c8a2-08a3-41b2-80ba-06c944f9f933",
    "name": "Qater Owlan",
    "state_id": "80abd7a3-2907-4c43-85f1-c5b34ee36703"
  },
  {
    "id": "be4f6d59-da1a-4e39-9853-bcb6f6117e33",
    "name": "Qayesh",
    "state_id": "80abd7a3-2907-4c43-85f1-c5b34ee36703"
  },
  {
    "id": "7a3a1b57-0367-409d-9f2a-8af3550d5fd7",
    "name": "Qazan Qarah",
    "state_id": "80abd7a3-2907-4c43-85f1-c5b34ee36703"
  },
  {
    "id": "5a872dbb-8049-4d2d-9fb6-02254edc7853",
    "name": "Qazi Mardan",
    "state_id": "80abd7a3-2907-4c43-85f1-c5b34ee36703"
  },
  {
    "id": "58555dc5-0d18-4786-b9bd-a841d02b3533",
    "name": "Qeshlaq Baba Rostam",
    "state_id": "80abd7a3-2907-4c43-85f1-c5b34ee36703"
  },
  {
    "id": "ac10bac4-3118-469e-bad1-5ed611cb36b3",
    "name": "Qeshlaq-e Anuch",
    "state_id": "80abd7a3-2907-4c43-85f1-c5b34ee36703"
  },
  {
    "id": "8eeb4119-9e6b-442c-bffb-369502587a3a",
    "name": "Qeshlaq-e Deh Ful",
    "state_id": "80abd7a3-2907-4c43-85f1-c5b34ee36703"
  },
  {
    "id": "d12ea375-e159-4ee7-8560-795f69b70408",
    "name": "Qeshlaq-e Dehnow",
    "state_id": "80abd7a3-2907-4c43-85f1-c5b34ee36703"
  },
  {
    "id": "72a90d70-752b-4e36-920e-dcc5752e2687",
    "name": "Qeshlaq-e Mohammadi",
    "state_id": "80abd7a3-2907-4c43-85f1-c5b34ee36703"
  },
  {
    "id": "9faa7cb0-7383-4278-bfba-84e5b48ecfb6",
    "name": "Qeshlaq-e Najaf",
    "state_id": "80abd7a3-2907-4c43-85f1-c5b34ee36703"
  },
  {
    "id": "6793c4e8-ab53-4b71-a0ce-b76b90c032bc",
    "name": "Qeshlaq-e Pust Shuran",
    "state_id": "80abd7a3-2907-4c43-85f1-c5b34ee36703"
  },
  {
    "id": "638f5ef2-df7f-4163-8479-41786d3945ad",
    "name": "Qeshlaq-e Qobad",
    "state_id": "80abd7a3-2907-4c43-85f1-c5b34ee36703"
  },
  {
    "id": "c1e81421-8e99-462c-834a-478193e5a0e3",
    "name": "Qeshlaq-e Shirazi",
    "state_id": "80abd7a3-2907-4c43-85f1-c5b34ee36703"
  },
  {
    "id": "76b42d26-f81e-46f9-9965-febfa11b4703",
    "name": "Qeshlaq-e Sofla",
    "state_id": "80abd7a3-2907-4c43-85f1-c5b34ee36703"
  },
  {
    "id": "a2f34e0c-f62a-46e7-b6f3-2e95c5ef8ce9",
    "name": "Qeshlaq-e Valiollah",
    "state_id": "80abd7a3-2907-4c43-85f1-c5b34ee36703"
  },
  {
    "id": "a4decb6e-92ed-4658-88d8-87848b638e9d",
    "name": "Qeydli Bolagh",
    "state_id": "80abd7a3-2907-4c43-85f1-c5b34ee36703"
  },
  {
    "id": "be6f8afa-a4d1-4b26-adaa-f432cbca5858",
    "name": "Qilab",
    "state_id": "80abd7a3-2907-4c43-85f1-c5b34ee36703"
  },
  {
    "id": "4cc043ab-11d9-48f7-a1bb-55f8a5464baa",
    "name": "Qohurd-e Sofla",
    "state_id": "80abd7a3-2907-4c43-85f1-c5b34ee36703"
  },
  {
    "id": "2ff94c11-6cb0-461f-a972-b1460eb6f68a",
    "name": "Qoli Laleh-ye Sofla",
    "state_id": "80abd7a3-2907-4c43-85f1-c5b34ee36703"
  },
  {
    "id": "974c098c-7efd-4bab-913d-d3dfa637c8a0",
    "name": "Qolqolabad",
    "state_id": "80abd7a3-2907-4c43-85f1-c5b34ee36703"
  },
  {
    "id": "ddcf5cd6-f65e-4b00-9afb-011f683922fa",
    "name": "Quch Tappeh",
    "state_id": "80abd7a3-2907-4c43-85f1-c5b34ee36703"
  },
  {
    "id": "1e33a101-e19a-4a00-b709-90c4e851a6ee",
    "name": "Qushjeh",
    "state_id": "80abd7a3-2907-4c43-85f1-c5b34ee36703"
  },
  {
    "id": "e5e1bc9f-a810-43a1-9403-1618cc6bf0b3",
    "name": "Rahmanabad, Malayer",
    "state_id": "80abd7a3-2907-4c43-85f1-c5b34ee36703"
  },
  {
    "id": "52c88bfb-04ea-4fca-b122-a1d13f1e857b",
    "name": "Ramishan",
    "state_id": "80abd7a3-2907-4c43-85f1-c5b34ee36703"
  },
  {
    "id": "b8e81e72-c5cd-4efb-8488-9ddffbd266e4",
    "name": "Rastguyan",
    "state_id": "80abd7a3-2907-4c43-85f1-c5b34ee36703"
  },
  {
    "id": "6a79fafc-0495-487c-8c02-76037afdc729",
    "name": "Rasulabad-e Sofla",
    "state_id": "80abd7a3-2907-4c43-85f1-c5b34ee36703"
  },
  {
    "id": "f9f23442-3492-47da-a58f-da39eac0e974",
    "name": "Ravand-e Vosta",
    "state_id": "80abd7a3-2907-4c43-85f1-c5b34ee36703"
  },
  {
    "id": "475bef15-48b9-40f1-b0e3-f260b670e894",
    "name": "Rayegan-e Sofla",
    "state_id": "80abd7a3-2907-4c43-85f1-c5b34ee36703"
  },
  {
    "id": "35a96019-c4bc-4c71-a717-242bdae04a40",
    "name": "Razaj",
    "state_id": "80abd7a3-2907-4c43-85f1-c5b34ee36703"
  },
  {
    "id": "c1546d95-6fe7-425a-84b4-986ded0b36ef",
    "name": "Razan",
    "state_id": "80abd7a3-2907-4c43-85f1-c5b34ee36703"
  },
  {
    "id": "e1e06b4b-2200-4569-9ddd-b4b7d8e6149e",
    "name": "Razini",
    "state_id": "80abd7a3-2907-4c43-85f1-c5b34ee36703"
  },
  {
    "id": "c093db03-96d5-415c-92e1-d27092551465",
    "name": "Reza Baghi",
    "state_id": "80abd7a3-2907-4c43-85f1-c5b34ee36703"
  },
  {
    "id": "e3a875b5-faf8-439d-ae79-178d4262c3f5",
    "name": "Rezvankadeh",
    "state_id": "80abd7a3-2907-4c43-85f1-c5b34ee36703"
  },
  {
    "id": "67443563-6003-43bb-b917-b6681ba672c9",
    "name": "Rivasijan",
    "state_id": "80abd7a3-2907-4c43-85f1-c5b34ee36703"
  },
  {
    "id": "2a0dfb02-1f44-4d52-aa58-eb3eb22ca1bf",
    "name": "Robat-e Sheverin",
    "state_id": "80abd7a3-2907-4c43-85f1-c5b34ee36703"
  },
  {
    "id": "0f4d0346-dd1c-414a-b1a9-07d75ae8b228",
    "name": "Rud Avar",
    "state_id": "80abd7a3-2907-4c43-85f1-c5b34ee36703"
  },
  {
    "id": "0f233911-4a07-4967-bb71-ad051a8b4cda",
    "name": "Rud-e Hasan-e Sofla",
    "state_id": "80abd7a3-2907-4c43-85f1-c5b34ee36703"
  },
  {
    "id": "310734a1-20ca-49bb-b638-748c954a4f12",
    "name": "Safa Riz",
    "state_id": "80abd7a3-2907-4c43-85f1-c5b34ee36703"
  },
  {
    "id": "22d8fab7-7f56-4401-8400-d198da99c0d0",
    "name": "Sahamabad",
    "state_id": "80abd7a3-2907-4c43-85f1-c5b34ee36703"
  },
  {
    "id": "ec53f710-b078-40e5-ba57-98bf0c4fb5d8",
    "name": "Salehabad",
    "state_id": "80abd7a3-2907-4c43-85f1-c5b34ee36703"
  },
  {
    "id": "569632b5-82dc-4ef0-a46a-0930833b1688",
    "name": "Salilak",
    "state_id": "80abd7a3-2907-4c43-85f1-c5b34ee36703"
  },
  {
    "id": "7ca2c1d8-8ab1-4348-886e-6a545ecd22a0",
    "name": "Saluk",
    "state_id": "80abd7a3-2907-4c43-85f1-c5b34ee36703"
  },
  {
    "id": "eb16fce3-ad21-4092-b394-f4209e2d753d",
    "name": "Samen",
    "state_id": "80abd7a3-2907-4c43-85f1-c5b34ee36703"
  },
  {
    "id": "9919ddc0-396e-42e3-a6ab-04ddfc2458b5",
    "name": "Sanaj",
    "state_id": "80abd7a3-2907-4c43-85f1-c5b34ee36703"
  },
  {
    "id": "63c61700-1fc7-431a-8ef4-cb06be94bf6e",
    "name": "Sanjuzan",
    "state_id": "80abd7a3-2907-4c43-85f1-c5b34ee36703"
  },
  {
    "id": "726e3be9-a605-45f7-b613-cfe4cf3a837e",
    "name": "Sar Duran",
    "state_id": "80abd7a3-2907-4c43-85f1-c5b34ee36703"
  },
  {
    "id": "99487662-f28e-4977-ac90-7d73033b354f",
    "name": "Sarab-e Tajar",
    "state_id": "80abd7a3-2907-4c43-85f1-c5b34ee36703"
  },
  {
    "id": "3efe173a-c6d8-4198-a436-8c7aff2774cc",
    "name": "Saravak",
    "state_id": "80abd7a3-2907-4c43-85f1-c5b34ee36703"
  },
  {
    "id": "1a5d972a-b60f-4a53-bf0d-95147d7cbef2",
    "name": "Sarayjuq",
    "state_id": "80abd7a3-2907-4c43-85f1-c5b34ee36703"
  },
  {
    "id": "8b493a5e-5522-4074-87a6-59f185ffadac",
    "name": "Sarijlu",
    "state_id": "80abd7a3-2907-4c43-85f1-c5b34ee36703"
  },
  {
    "id": "1cabfadb-9470-4084-82e2-1bfb672585c8",
    "name": "Sarkan",
    "state_id": "80abd7a3-2907-4c43-85f1-c5b34ee36703"
  },
  {
    "id": "723d2132-bc39-44fe-ab88-ef6800bdb2da",
    "name": "Saziyan",
    "state_id": "80abd7a3-2907-4c43-85f1-c5b34ee36703"
  },
  {
    "id": "16b9c7c6-efe9-4758-821a-1423443deaa5",
    "name": "Sefid Khaneh",
    "state_id": "80abd7a3-2907-4c43-85f1-c5b34ee36703"
  },
  {
    "id": "204b8cec-b879-4333-b214-94a540a76e8a",
    "name": "Segavi",
    "state_id": "80abd7a3-2907-4c43-85f1-c5b34ee36703"
  },
  {
    "id": "39c8fe34-4631-447e-929d-d958cc6ea827",
    "name": "Setaq",
    "state_id": "80abd7a3-2907-4c43-85f1-c5b34ee36703"
  },
  {
    "id": "de573847-ad69-43b2-b311-d5a8a28bec3a",
    "name": "Shademaneh",
    "state_id": "80abd7a3-2907-4c43-85f1-c5b34ee36703"
  },
  {
    "id": "5db8dddb-020a-4b63-b59d-9e6a305da390",
    "name": "Shanabad",
    "state_id": "80abd7a3-2907-4c43-85f1-c5b34ee36703"
  },
  {
    "id": "16766d61-8244-4866-a7a6-723ad6438e23",
    "name": "Shanjur",
    "state_id": "80abd7a3-2907-4c43-85f1-c5b34ee36703"
  },
  {
    "id": "77fa8564-fc8e-427d-b673-61ec057c203c",
    "name": "Sharifabad-e Quzan",
    "state_id": "80abd7a3-2907-4c43-85f1-c5b34ee36703"
  },
  {
    "id": "24654da9-418d-4d17-b14d-195dbb1efece",
    "name": "Sharifabad-e Tajar",
    "state_id": "80abd7a3-2907-4c43-85f1-c5b34ee36703"
  },
  {
    "id": "b83dd804-5375-4e02-8ad6-496d38b730e4",
    "name": "Shatzal",
    "state_id": "80abd7a3-2907-4c43-85f1-c5b34ee36703"
  },
  {
    "id": "f1de3893-75b6-4f14-8635-2d9e9470573f",
    "name": "Shavand",
    "state_id": "80abd7a3-2907-4c43-85f1-c5b34ee36703"
  },
  {
    "id": "c548cfe0-39bd-4fe6-b8a9-538314da4b71",
    "name": "Sheverin",
    "state_id": "80abd7a3-2907-4c43-85f1-c5b34ee36703"
  },
  {
    "id": "46637e6e-60df-4da1-b4d5-986cdcc52d22",
    "name": "Sheykh Jarrah",
    "state_id": "80abd7a3-2907-4c43-85f1-c5b34ee36703"
  },
  {
    "id": "038690f3-4466-4e9c-a45f-8c1c5b54af52",
    "name": "Shilandar-e Sofla",
    "state_id": "80abd7a3-2907-4c43-85f1-c5b34ee36703"
  },
  {
    "id": "ea89f513-445c-45b3-a742-23fab935fe47",
    "name": "Shir Barat",
    "state_id": "80abd7a3-2907-4c43-85f1-c5b34ee36703"
  },
  {
    "id": "4aeb1ad0-5744-46c0-900b-73d1d8877fff",
    "name": "Shirin Su",
    "state_id": "80abd7a3-2907-4c43-85f1-c5b34ee36703"
  },
  {
    "id": "5257adac-b67c-4e7c-89cf-cb7f4beff534",
    "name": "Shush Ab",
    "state_id": "80abd7a3-2907-4c43-85f1-c5b34ee36703"
  },
  {
    "id": "4e418542-9e30-4421-b4f3-a227853c2fe3",
    "name": "Siah Goleh",
    "state_id": "80abd7a3-2907-4c43-85f1-c5b34ee36703"
  },
  {
    "id": "4dff3c9f-2b4b-4acb-8d1b-50401f713424",
    "name": "Sib Dar",
    "state_id": "80abd7a3-2907-4c43-85f1-c5b34ee36703"
  },
  {
    "id": "e2f51e6a-729b-4f77-a83d-756fe8e21bde",
    "name": "Silvar",
    "state_id": "80abd7a3-2907-4c43-85f1-c5b34ee36703"
  },
  {
    "id": "e23f325c-e6e7-492b-9f6f-0e8437b43d4b",
    "name": "Simin-e Abaru",
    "state_id": "80abd7a3-2907-4c43-85f1-c5b34ee36703"
  },
  {
    "id": "e960f138-af1a-434d-bfc5-d110e93ab96e",
    "name": "Simin-e Zagheh",
    "state_id": "80abd7a3-2907-4c43-85f1-c5b34ee36703"
  },
  {
    "id": "54d5a29d-2ed4-45b8-a804-32012409889c",
    "name": "Siravand",
    "state_id": "80abd7a3-2907-4c43-85f1-c5b34ee36703"
  },
  {
    "id": "0b1222e2-bd8b-4c13-b75c-a059dfa5530c",
    "name": "Sistaneh",
    "state_id": "80abd7a3-2907-4c43-85f1-c5b34ee36703"
  },
  {
    "id": "6aeb48ff-0fc0-43f5-b971-dbec5e2bb5a6",
    "name": "Solulan",
    "state_id": "80abd7a3-2907-4c43-85f1-c5b34ee36703"
  },
  {
    "id": "5aed2373-ac0a-4099-bf06-c4a2299f7e9e",
    "name": "Sorkh Kand",
    "state_id": "80abd7a3-2907-4c43-85f1-c5b34ee36703"
  },
  {
    "id": "fb435ef1-afb6-433e-98b7-ad1e9b02bee7",
    "name": "Sulijeh",
    "state_id": "80abd7a3-2907-4c43-85f1-c5b34ee36703"
  },
  {
    "id": "1ebf824f-4aa1-4d0c-be43-71a956decf07",
    "name": "Surtajin",
    "state_id": "80abd7a3-2907-4c43-85f1-c5b34ee36703"
  },
  {
    "id": "4c710dca-d9c5-46a3-8bea-ebda15ad28fa",
    "name": "Sutlaq",
    "state_id": "80abd7a3-2907-4c43-85f1-c5b34ee36703"
  },
  {
    "id": "1f2c81f2-fdcf-428f-aeba-b0607814c8d1",
    "name": "Tafrijan",
    "state_id": "80abd7a3-2907-4c43-85f1-c5b34ee36703"
  },
  {
    "id": "d0717711-8aa3-4cc7-b1b6-0389cca3dc7e",
    "name": "Tahunabad",
    "state_id": "80abd7a3-2907-4c43-85f1-c5b34ee36703"
  },
  {
    "id": "1642275b-4ceb-4a14-81c4-fa971cb52fbb",
    "name": "Tajar-e Samen",
    "state_id": "80abd7a3-2907-4c43-85f1-c5b34ee36703"
  },
  {
    "id": "9c153666-388c-4128-a885-142a80d28a71",
    "name": "Takhtiabad",
    "state_id": "80abd7a3-2907-4c43-85f1-c5b34ee36703"
  },
  {
    "id": "3fc0b76b-91b0-48df-b383-478c8ca9508d",
    "name": "Taleh Jerd-e Sofla",
    "state_id": "80abd7a3-2907-4c43-85f1-c5b34ee36703"
  },
  {
    "id": "24adb981-8604-449f-a54e-adf7a215faab",
    "name": "Tamuzan",
    "state_id": "80abd7a3-2907-4c43-85f1-c5b34ee36703"
  },
  {
    "id": "9c25721e-e98d-456f-acd3-e55c2858a77e",
    "name": "Tappeh Yazdan",
    "state_id": "80abd7a3-2907-4c43-85f1-c5b34ee36703"
  },
  {
    "id": "e88482f1-1c70-4111-b9a3-53af6a6e9672",
    "name": "Tappeh-ye Dibi",
    "state_id": "80abd7a3-2907-4c43-85f1-c5b34ee36703"
  },
  {
    "id": "4a390460-ae8a-4975-9678-795c710ff5d5",
    "name": "Taraqayah",
    "state_id": "80abd7a3-2907-4c43-85f1-c5b34ee36703"
  },
  {
    "id": "7351dc78-fae3-4054-b73c-982059af0350",
    "name": "Tarik Darreh-ye Bala",
    "state_id": "80abd7a3-2907-4c43-85f1-c5b34ee36703"
  },
  {
    "id": "f9c1b72f-c616-4954-b2a7-d40b55c5dde1",
    "name": "Tarkhinabad",
    "state_id": "80abd7a3-2907-4c43-85f1-c5b34ee36703"
  },
  {
    "id": "bafac2d7-0a0c-4a0d-b1c7-2dd0ca1ee798",
    "name": "Tas Tappeh",
    "state_id": "80abd7a3-2907-4c43-85f1-c5b34ee36703"
  },
  {
    "id": "9477166d-496b-4db8-813c-e239c84bb50a",
    "name": "Tasbandi",
    "state_id": "80abd7a3-2907-4c43-85f1-c5b34ee36703"
  },
  {
    "id": "5a79a9bf-2a91-410a-a443-cc3beedee603",
    "name": "Tasran",
    "state_id": "80abd7a3-2907-4c43-85f1-c5b34ee36703"
  },
  {
    "id": "4accc9d0-9178-4f05-be06-15863b9e1bbc",
    "name": "Tavaleh",
    "state_id": "80abd7a3-2907-4c43-85f1-c5b34ee36703"
  },
  {
    "id": "950d7ca9-b941-4ed0-a332-906385c67fa8",
    "name": "Tavaneh",
    "state_id": "80abd7a3-2907-4c43-85f1-c5b34ee36703"
  },
  {
    "id": "9172265a-03b5-45b5-ae9b-4bb49809a89f",
    "name": "Taveh",
    "state_id": "80abd7a3-2907-4c43-85f1-c5b34ee36703"
  },
  {
    "id": "0bf8aef9-b226-428d-ac19-2d9d5f996623",
    "name": "Tavilan-e Sofla",
    "state_id": "80abd7a3-2907-4c43-85f1-c5b34ee36703"
  },
  {
    "id": "3856edfc-eec1-4398-8ae2-069cf97f822e",
    "name": "Tazehnab-e Sofla",
    "state_id": "80abd7a3-2907-4c43-85f1-c5b34ee36703"
  },
  {
    "id": "a6763d36-f451-45f1-a36c-531499e150b5",
    "name": "Termianak",
    "state_id": "80abd7a3-2907-4c43-85f1-c5b34ee36703"
  },
  {
    "id": "7d0063cf-9356-4d9b-8b00-07efa4b49d7d",
    "name": "Timi Jan",
    "state_id": "80abd7a3-2907-4c43-85f1-c5b34ee36703"
  },
  {
    "id": "f93c665a-22d9-4d6b-b51e-c9870da8d935",
    "name": "Tuchaqaz",
    "state_id": "80abd7a3-2907-4c43-85f1-c5b34ee36703"
  },
  {
    "id": "c3ee299d-438b-47d7-8dc4-6ecdb8f26859",
    "name": "Tulki Tappeh",
    "state_id": "80abd7a3-2907-4c43-85f1-c5b34ee36703"
  },
  {
    "id": "ee35ade4-1f97-4329-be27-5026b7aee4cc",
    "name": "Tusk-e Sofla",
    "state_id": "80abd7a3-2907-4c43-85f1-c5b34ee36703"
  },
  {
    "id": "398ad6ad-a89f-47f5-9c2e-b6d971f7bdba",
    "name": "Tutal",
    "state_id": "80abd7a3-2907-4c43-85f1-c5b34ee36703"
  },
  {
    "id": "16f97bd4-dcf3-4f8b-99ad-893512d0ae58",
    "name": "Tuyserkan",
    "state_id": "80abd7a3-2907-4c43-85f1-c5b34ee36703"
  },
  {
    "id": "f1dd06a2-44c3-4fe5-9608-6ebd5843302e",
    "name": "Vafr-e Jin",
    "state_id": "80abd7a3-2907-4c43-85f1-c5b34ee36703"
  },
  {
    "id": "ec5f750a-bf18-45ea-a30d-781ef4ea6ea5",
    "name": "Vahandeh",
    "state_id": "80abd7a3-2907-4c43-85f1-c5b34ee36703"
  },
  {
    "id": "d633ed64-67bf-4e97-8884-4492e6cc0c62",
    "name": "Vahman",
    "state_id": "80abd7a3-2907-4c43-85f1-c5b34ee36703"
  },
  {
    "id": "1ebb5e4c-a321-4636-8ae3-113c1993c653",
    "name": "Vahnan",
    "state_id": "80abd7a3-2907-4c43-85f1-c5b34ee36703"
  },
  {
    "id": "41802060-1d1f-4378-a7b8-d78ef164aae5",
    "name": "Vali Mohammad",
    "state_id": "80abd7a3-2907-4c43-85f1-c5b34ee36703"
  },
  {
    "id": "a8fc460a-af9c-40dd-97fc-5ca5acfa3998",
    "name": "Vali Sir Ab",
    "state_id": "80abd7a3-2907-4c43-85f1-c5b34ee36703"
  },
  {
    "id": "72a14193-3f2d-4df9-9bd0-7643c2b7fe30",
    "name": "Vandarabad",
    "state_id": "80abd7a3-2907-4c43-85f1-c5b34ee36703"
  },
  {
    "id": "37303805-70ff-48dc-b45f-0db7c915ab1a",
    "name": "Varayeneh",
    "state_id": "80abd7a3-2907-4c43-85f1-c5b34ee36703"
  },
  {
    "id": "19e18492-76f8-4223-b897-2cdcd74544ad",
    "name": "Varazaneh",
    "state_id": "80abd7a3-2907-4c43-85f1-c5b34ee36703"
  },
  {
    "id": "edfdfc87-683c-4927-868d-ab98d98f3ca4",
    "name": "Varchaq",
    "state_id": "80abd7a3-2907-4c43-85f1-c5b34ee36703"
  },
  {
    "id": "cddd52e4-3828-459b-beea-9ad48d03330c",
    "name": "Vardavard-e Sofla",
    "state_id": "80abd7a3-2907-4c43-85f1-c5b34ee36703"
  },
  {
    "id": "371021d9-820d-42e3-b786-d427a62e557d",
    "name": "Vardavard-e Vosta",
    "state_id": "80abd7a3-2907-4c43-85f1-c5b34ee36703"
  },
  {
    "id": "85ecd511-50d6-4ed9-86a2-8a822dd5d241",
    "name": "Varkaneh",
    "state_id": "80abd7a3-2907-4c43-85f1-c5b34ee36703"
  },
  {
    "id": "0b3497ce-966e-4fb0-9419-42ea40c3a42d",
    "name": "Varqestan",
    "state_id": "80abd7a3-2907-4c43-85f1-c5b34ee36703"
  },
  {
    "id": "57d23ef1-e0d5-4fc4-913e-69fc040aeb4c",
    "name": "Varvazin",
    "state_id": "80abd7a3-2907-4c43-85f1-c5b34ee36703"
  },
  {
    "id": "91f44954-3925-4fe8-b826-57327b0ca109",
    "name": "Vasaj",
    "state_id": "80abd7a3-2907-4c43-85f1-c5b34ee36703"
  },
  {
    "id": "554c1abf-6d89-4c5e-9271-2583eac64068",
    "name": "Vashur",
    "state_id": "80abd7a3-2907-4c43-85f1-c5b34ee36703"
  },
  {
    "id": "e31db704-8b06-40f9-b206-9f59fc66084a",
    "name": "Vasleh",
    "state_id": "80abd7a3-2907-4c43-85f1-c5b34ee36703"
  },
  {
    "id": "c509181f-bacb-408b-bab7-59d63afb8f09",
    "name": "Vesht",
    "state_id": "80abd7a3-2907-4c43-85f1-c5b34ee36703"
  },
  {
    "id": "ecc33d22-2a40-4a1f-a618-d78afded8439",
    "name": "Vezendan",
    "state_id": "80abd7a3-2907-4c43-85f1-c5b34ee36703"
  },
  {
    "id": "104cbba6-3439-48b4-88b3-d326a1ee9313",
    "name": "Yalfan",
    "state_id": "80abd7a3-2907-4c43-85f1-c5b34ee36703"
  },
  {
    "id": "95233811-6448-4d8f-b8a6-e624469e330f",
    "name": "Yarom Qayah",
    "state_id": "80abd7a3-2907-4c43-85f1-c5b34ee36703"
  },
  {
    "id": "559441fa-286a-4014-ac6c-3acd461e1716",
    "name": "Yaromjeh Bagh",
    "state_id": "80abd7a3-2907-4c43-85f1-c5b34ee36703"
  },
  {
    "id": "1c2af3cb-670e-4b9d-be89-c2dd7cb2db79",
    "name": "Yeganeh",
    "state_id": "80abd7a3-2907-4c43-85f1-c5b34ee36703"
  },
  {
    "id": "1c39c85b-4a78-46f1-89f3-4c9000b55e3f",
    "name": "Yekanabad",
    "state_id": "80abd7a3-2907-4c43-85f1-c5b34ee36703"
  },
  {
    "id": "45fa2bae-effa-461a-9048-07db0b452b66",
    "name": "Yekleh",
    "state_id": "80abd7a3-2907-4c43-85f1-c5b34ee36703"
  },
  {
    "id": "e1de10ce-e0a6-4aca-8774-91a288873dab",
    "name": "Yeserlu",
    "state_id": "80abd7a3-2907-4c43-85f1-c5b34ee36703"
  },
  {
    "id": "d90918c1-c358-4da9-8174-ed165c80b45f",
    "name": "Yunes",
    "state_id": "80abd7a3-2907-4c43-85f1-c5b34ee36703"
  },
  {
    "id": "e8c05df1-b482-49f3-a77e-8eb3b7f3a691",
    "name": "Yunji",
    "state_id": "80abd7a3-2907-4c43-85f1-c5b34ee36703"
  },
  {
    "id": "8d67350c-5a28-4d31-aa65-2b21138432e2",
    "name": "Zagheh-ye Anuch",
    "state_id": "80abd7a3-2907-4c43-85f1-c5b34ee36703"
  },
  {
    "id": "e714b533-ef8d-4859-b124-3dbac98d8f72",
    "name": "Zagheh-ye Tasbandi",
    "state_id": "80abd7a3-2907-4c43-85f1-c5b34ee36703"
  },
  {
    "id": "68f8ad11-2e6d-4a2e-b6dd-d5f36a3643cb",
    "name": "Zaghlijeh",
    "state_id": "80abd7a3-2907-4c43-85f1-c5b34ee36703"
  },
  {
    "id": "f0d914a2-64e8-41e3-935d-a632130b9b38",
    "name": "Zamanabad-e Mohammadabad",
    "state_id": "80abd7a3-2907-4c43-85f1-c5b34ee36703"
  },
  {
    "id": "f993b8b8-65e3-4e75-b4b8-b262609db5a9",
    "name": "Zangeneh-ye Sofla",
    "state_id": "80abd7a3-2907-4c43-85f1-c5b34ee36703"
  },
  {
    "id": "a8419e5b-04c5-4681-847d-f955e638c0df",
    "name": "Zapon",
    "state_id": "80abd7a3-2907-4c43-85f1-c5b34ee36703"
  },
  {
    "id": "b4257115-c5c8-44b2-9a4d-466a5addb7e6",
    "name": "Zaramin-e Sofla",
    "state_id": "80abd7a3-2907-4c43-85f1-c5b34ee36703"
  },
  {
    "id": "bf85a7cd-37cb-4d94-94f3-6fa1c2631090",
    "name": "Zarrin Bagh",
    "state_id": "80abd7a3-2907-4c43-85f1-c5b34ee36703"
  },
  {
    "id": "afa812fa-02dd-4004-a016-0f199835d25b",
    "name": "Zeraq",
    "state_id": "80abd7a3-2907-4c43-85f1-c5b34ee36703"
  },
  {
    "id": "031ac661-3a45-4a3d-85e7-0815424fb72d",
    "name": "Zirabiyeh",
    "state_id": "80abd7a3-2907-4c43-85f1-c5b34ee36703"
  }
]