[
  {
    "id": "aa5dd3cb-b72e-4490-a311-61616023ce72",
    "name": "Aguanqueterique",
    "state_id": "80af0ea8-223f-41e8-8696-bb39725cefa6"
  },
  {
    "id": "af9c45a9-6f7b-4643-8bd8-4db42cc8a4d1",
    "name": "Cabañas",
    "state_id": "80af0ea8-223f-41e8-8696-bb39725cefa6"
  },
  {
    "id": "3b448cd4-e759-47bd-ba9b-05e761b1647f",
    "name": "Cane",
    "state_id": "80af0ea8-223f-41e8-8696-bb39725cefa6"
  },
  {
    "id": "48756ede-1140-4edf-9123-8a01dc88426a",
    "name": "Chinacla",
    "state_id": "80af0ea8-223f-41e8-8696-bb39725cefa6"
  },
  {
    "id": "26d05fbc-2400-46ec-b005-0540593da088",
    "name": "Guajiquiro",
    "state_id": "80af0ea8-223f-41e8-8696-bb39725cefa6"
  },
  {
    "id": "15a0ac05-9e0c-4b4e-8460-e6685aa3dafa",
    "name": "La Paz",
    "state_id": "80af0ea8-223f-41e8-8696-bb39725cefa6"
  },
  {
    "id": "f5884d34-67ea-4fb0-84f4-1105e6815e94",
    "name": "Lauterique",
    "state_id": "80af0ea8-223f-41e8-8696-bb39725cefa6"
  },
  {
    "id": "381531f5-0333-4fef-873f-ae01dc4cefb4",
    "name": "Los Planes",
    "state_id": "80af0ea8-223f-41e8-8696-bb39725cefa6"
  },
  {
    "id": "6b5a6579-0100-4074-bc04-b2a47abb242d",
    "name": "Marcala",
    "state_id": "80af0ea8-223f-41e8-8696-bb39725cefa6"
  },
  {
    "id": "b2a4cb66-9038-4acd-bed5-197f5ec5bdc0",
    "name": "Mercedes de Oriente",
    "state_id": "80af0ea8-223f-41e8-8696-bb39725cefa6"
  },
  {
    "id": "9111b423-4855-4b6e-86e6-ea84430fa7f9",
    "name": "Opatoro",
    "state_id": "80af0ea8-223f-41e8-8696-bb39725cefa6"
  },
  {
    "id": "919edcf0-48b2-4f98-9381-0aee64ccfc4a",
    "name": "San Antonio del Norte",
    "state_id": "80af0ea8-223f-41e8-8696-bb39725cefa6"
  },
  {
    "id": "d5e99403-f13b-47a8-aecc-341d84f0bf9c",
    "name": "San José",
    "state_id": "80af0ea8-223f-41e8-8696-bb39725cefa6"
  },
  {
    "id": "4a835e4a-31ed-42d5-afec-b065e215437c",
    "name": "San Juan",
    "state_id": "80af0ea8-223f-41e8-8696-bb39725cefa6"
  },
  {
    "id": "59355ed8-0bf3-4328-ad63-a95e45438b96",
    "name": "San Pedro de Tutule",
    "state_id": "80af0ea8-223f-41e8-8696-bb39725cefa6"
  },
  {
    "id": "ea2e3600-83b1-4623-9a67-754c1e6eda18",
    "name": "Santa Ana",
    "state_id": "80af0ea8-223f-41e8-8696-bb39725cefa6"
  },
  {
    "id": "bd81365a-3c96-48c3-8873-2ede45f9ead7",
    "name": "Santa Elena",
    "state_id": "80af0ea8-223f-41e8-8696-bb39725cefa6"
  },
  {
    "id": "294f7f1a-59cd-4fad-adee-c0b2a6783940",
    "name": "Santa María",
    "state_id": "80af0ea8-223f-41e8-8696-bb39725cefa6"
  },
  {
    "id": "7e4b86be-38b1-4d9d-bbf3-8529c2d52044",
    "name": "Santiago Puringla",
    "state_id": "80af0ea8-223f-41e8-8696-bb39725cefa6"
  },
  {
    "id": "b05593f7-2a3f-4509-a317-7917bc1e95ba",
    "name": "Tepanguare",
    "state_id": "80af0ea8-223f-41e8-8696-bb39725cefa6"
  },
  {
    "id": "2791cf2f-4845-4996-b3b4-c09ef0125d25",
    "name": "Yarula",
    "state_id": "80af0ea8-223f-41e8-8696-bb39725cefa6"
  },
  {
    "id": "ee041501-6adf-42fe-b757-9d44a0781efd",
    "name": "Yarumela",
    "state_id": "80af0ea8-223f-41e8-8696-bb39725cefa6"
  }
]