[
  {
    "id": "6c370062-cd87-409d-b43d-69b95b8bdc86",
    "name": "Alapi Village",
    "state_id": "80ca35f2-680d-4333-94d5-d121a4d5131f"
  },
  {
    "id": "044c4494-ece6-4947-8b64-247ead245408",
    "name": "Fakaifou Village",
    "state_id": "80ca35f2-680d-4333-94d5-d121a4d5131f"
  },
  {
    "id": "9e1f4f1a-c12c-46c1-b080-0e6f1c251499",
    "name": "Funafuti",
    "state_id": "80ca35f2-680d-4333-94d5-d121a4d5131f"
  }
]