[
  {
    "id": "9fecf3dd-0ef3-4d33-bf6f-3a4a30d0b695",
    "name": "Būkān",
    "state_id": "80da2fd7-4b20-41d0-afde-e7df9ab38c42"
  },
  {
    "id": "53c22002-14ec-497d-9188-ca0109ce26cc",
    "name": "Chāypāreh",
    "state_id": "80da2fd7-4b20-41d0-afde-e7df9ab38c42"
  },
  {
    "id": "24fdee18-9909-403d-8a82-4c7e7bbe071f",
    "name": "Khowy",
    "state_id": "80da2fd7-4b20-41d0-afde-e7df9ab38c42"
  },
  {
    "id": "a0ed3f8c-8164-452a-a371-a405819d1182",
    "name": "Mahābād",
    "state_id": "80da2fd7-4b20-41d0-afde-e7df9ab38c42"
  },
  {
    "id": "808828af-46d0-4831-a60d-fe8e27c1b901",
    "name": "Mīāndoāb",
    "state_id": "80da2fd7-4b20-41d0-afde-e7df9ab38c42"
  },
  {
    "id": "c9d58a6e-df5e-4412-af0d-bcc8e1ca9473",
    "name": "Naqadeh",
    "state_id": "80da2fd7-4b20-41d0-afde-e7df9ab38c42"
  },
  {
    "id": "5a0e184d-b634-4efb-b8c3-692b76aa7fec",
    "name": "Orūmīyeh",
    "state_id": "80da2fd7-4b20-41d0-afde-e7df9ab38c42"
  },
  {
    "id": "4e5941ca-1602-4585-ab63-c94de43f1845",
    "name": "Oshnavīyeh",
    "state_id": "80da2fd7-4b20-41d0-afde-e7df9ab38c42"
  },
  {
    "id": "2dac90ca-5873-4296-a251-02794875e92d",
    "name": "Piranshahr",
    "state_id": "80da2fd7-4b20-41d0-afde-e7df9ab38c42"
  },
  {
    "id": "d2f1bf06-79e0-4b31-ad2e-408ed08ca806",
    "name": "Poldasht",
    "state_id": "80da2fd7-4b20-41d0-afde-e7df9ab38c42"
  },
  {
    "id": "2b3d0620-ce79-44d2-ba9a-58b723b209cf",
    "name": "Qarah Ẕīā’ od Dīn",
    "state_id": "80da2fd7-4b20-41d0-afde-e7df9ab38c42"
  },
  {
    "id": "6a5b3193-af9d-4552-aaf2-5d4482354116",
    "name": "Salmās",
    "state_id": "80da2fd7-4b20-41d0-afde-e7df9ab38c42"
  },
  {
    "id": "2711a58f-b6bb-4a64-92f4-b96050ecd8de",
    "name": "Sardasht",
    "state_id": "80da2fd7-4b20-41d0-afde-e7df9ab38c42"
  },
  {
    "id": "6b917d14-d126-4b24-9f78-3f4145df284a",
    "name": "Shāhīn Dezh",
    "state_id": "80da2fd7-4b20-41d0-afde-e7df9ab38c42"
  },
  {
    "id": "b980047b-f2dd-4d24-a8b5-9565ac59c186",
    "name": "Shahrestān-e Būkān",
    "state_id": "80da2fd7-4b20-41d0-afde-e7df9ab38c42"
  },
  {
    "id": "84444614-8e52-4224-9285-2cf1faa8fe97",
    "name": "Shahrestān-e Chāldorān",
    "state_id": "80da2fd7-4b20-41d0-afde-e7df9ab38c42"
  },
  {
    "id": "0cf347a1-faf5-4524-8e3a-3dfc9d37abe0",
    "name": "Shahrestān-e Mahābād",
    "state_id": "80da2fd7-4b20-41d0-afde-e7df9ab38c42"
  },
  {
    "id": "2baf3941-c4f4-46ee-904a-a50e799ef58a",
    "name": "Shahrestān-e Mākū",
    "state_id": "80da2fd7-4b20-41d0-afde-e7df9ab38c42"
  },
  {
    "id": "cd0f3ad3-b95e-4a2a-8f33-269d61936291",
    "name": "Shahrestān-e Mīāndoāb",
    "state_id": "80da2fd7-4b20-41d0-afde-e7df9ab38c42"
  },
  {
    "id": "1aaf65bb-38d3-4096-8c38-a316f4292259",
    "name": "Shahrestān-e Orūmīyeh",
    "state_id": "80da2fd7-4b20-41d0-afde-e7df9ab38c42"
  },
  {
    "id": "9eea061d-5293-47f1-b4dc-77e0f6f401b6",
    "name": "Shahrestān-e Oshnavīyeh",
    "state_id": "80da2fd7-4b20-41d0-afde-e7df9ab38c42"
  },
  {
    "id": "3e2005db-5886-4466-bba1-234a3ca02315",
    "name": "Shahrestān-e Pīrānshahr",
    "state_id": "80da2fd7-4b20-41d0-afde-e7df9ab38c42"
  },
  {
    "id": "295cd4f3-4085-435a-9811-69afd6f8599b",
    "name": "Shahrestān-e Salmās",
    "state_id": "80da2fd7-4b20-41d0-afde-e7df9ab38c42"
  },
  {
    "id": "4b734a94-356c-41e1-b7eb-9b5ac29b0d60",
    "name": "Shahrestān-e Shāhīn Dezh",
    "state_id": "80da2fd7-4b20-41d0-afde-e7df9ab38c42"
  },
  {
    "id": "b6594e0a-a293-400f-bafe-d5ff68296c4e",
    "name": "Shahrestān-e Takāb",
    "state_id": "80da2fd7-4b20-41d0-afde-e7df9ab38c42"
  },
  {
    "id": "eaec0b93-7dce-4dce-b7eb-89676dbe791e",
    "name": "Takāb",
    "state_id": "80da2fd7-4b20-41d0-afde-e7df9ab38c42"
  }
]