[
  {
    "id": "c8f95047-b858-4bf5-8ee4-3ac1000c7a88",
    "name": "Balcarres",
    "state_id": "80eea322-6c90-448c-aab6-5f44d4032104"
  },
  {
    "id": "371f4afa-f363-42e9-b14a-eecff48698bb",
    "name": "Bangor Ridge",
    "state_id": "80eea322-6c90-448c-aab6-5f44d4032104"
  },
  {
    "id": "f8ab077a-bb1a-42b2-b476-36b0d5b33818",
    "name": "Belvedere",
    "state_id": "80eea322-6c90-448c-aab6-5f44d4032104"
  },
  {
    "id": "496e220b-64a0-4d91-96bf-fe225df81ef0",
    "name": "Black Hill",
    "state_id": "80eea322-6c90-448c-aab6-5f44d4032104"
  },
  {
    "id": "09a8274b-8c9e-48b3-9cb1-0203bbe62ceb",
    "name": "Boundbrook",
    "state_id": "80eea322-6c90-448c-aab6-5f44d4032104"
  },
  {
    "id": "6f5a4978-80a3-4ac1-a9bd-997e6227e51f",
    "name": "Breastworks",
    "state_id": "80eea322-6c90-448c-aab6-5f44d4032104"
  },
  {
    "id": "4798b3d0-7112-42cf-ba89-48d60101306f",
    "name": "Buff Bay",
    "state_id": "80eea322-6c90-448c-aab6-5f44d4032104"
  },
  {
    "id": "ee340eac-6c54-4636-9b01-d0b29cb812a1",
    "name": "Bybrook",
    "state_id": "80eea322-6c90-448c-aab6-5f44d4032104"
  },
  {
    "id": "92e8dc56-a9dc-43d0-8f98-8a4f448aa677",
    "name": "Cascade",
    "state_id": "80eea322-6c90-448c-aab6-5f44d4032104"
  },
  {
    "id": "77ba9022-253a-4464-8f2c-bd77c3fb1bcc",
    "name": "Castle Comfort",
    "state_id": "80eea322-6c90-448c-aab6-5f44d4032104"
  },
  {
    "id": "513b2f77-1ed4-46e5-a1f5-15fbbd74baaf",
    "name": "Central Port Antonio",
    "state_id": "80eea322-6c90-448c-aab6-5f44d4032104"
  },
  {
    "id": "65ee7131-5598-48a9-a51d-2b41e086e0f5",
    "name": "Charles Town",
    "state_id": "80eea322-6c90-448c-aab6-5f44d4032104"
  },
  {
    "id": "0beca32b-ccce-4a2d-8adb-36176afbfacb",
    "name": "Claverty Cottage",
    "state_id": "80eea322-6c90-448c-aab6-5f44d4032104"
  },
  {
    "id": "fa8d5cb1-abd0-46f9-8489-0dfe460c590a",
    "name": "Comfort Castle",
    "state_id": "80eea322-6c90-448c-aab6-5f44d4032104"
  },
  {
    "id": "98302eb8-62fc-4d6f-baef-b5c3702b79f7",
    "name": "Drapers",
    "state_id": "80eea322-6c90-448c-aab6-5f44d4032104"
  },
  {
    "id": "5030c88b-1e27-40e3-af91-4a33853bfa9a",
    "name": "Durham",
    "state_id": "80eea322-6c90-448c-aab6-5f44d4032104"
  },
  {
    "id": "ba0eb54a-076d-469e-822d-f77db9c4725b",
    "name": "Fairy Hill",
    "state_id": "80eea322-6c90-448c-aab6-5f44d4032104"
  },
  {
    "id": "c5ec5728-6720-4ec4-a54a-d6bce31b1566",
    "name": "Fellowship",
    "state_id": "80eea322-6c90-448c-aab6-5f44d4032104"
  },
  {
    "id": "f577cc90-359b-48c1-8168-0ed4063fa25e",
    "name": "Fruitfulvale",
    "state_id": "80eea322-6c90-448c-aab6-5f44d4032104"
  },
  {
    "id": "f24178fb-10de-45d7-a73e-cb593b3c80ac",
    "name": "Hectors River",
    "state_id": "80eea322-6c90-448c-aab6-5f44d4032104"
  },
  {
    "id": "763b684d-cc2a-42ee-8640-12d8d7a06932",
    "name": "Hope Bay",
    "state_id": "80eea322-6c90-448c-aab6-5f44d4032104"
  },
  {
    "id": "2c92da55-ae92-451f-9c14-f5dfa011bc3e",
    "name": "Kensington",
    "state_id": "80eea322-6c90-448c-aab6-5f44d4032104"
  },
  {
    "id": "251a6fb2-2ba4-45b4-94cb-97fd7648a0d2",
    "name": "Long Bay",
    "state_id": "80eea322-6c90-448c-aab6-5f44d4032104"
  },
  {
    "id": "b92bf389-8d02-4685-8cbc-505081040747",
    "name": "Long Road",
    "state_id": "80eea322-6c90-448c-aab6-5f44d4032104"
  },
  {
    "id": "f34ba94f-092b-46be-b50f-54ad1fa166ab",
    "name": "Manchioneal",
    "state_id": "80eea322-6c90-448c-aab6-5f44d4032104"
  },
  {
    "id": "3f361683-3c60-4597-aa67-867f5a532a9e",
    "name": "Moore Town",
    "state_id": "80eea322-6c90-448c-aab6-5f44d4032104"
  },
  {
    "id": "78faf4a5-f394-4ca1-b449-a89d348190e3",
    "name": "Mount Pleasant",
    "state_id": "80eea322-6c90-448c-aab6-5f44d4032104"
  },
  {
    "id": "9bb78a10-6acf-479d-a0c2-9836b58d52a7",
    "name": "Nonsuch",
    "state_id": "80eea322-6c90-448c-aab6-5f44d4032104"
  },
  {
    "id": "a8f4eea0-2df9-4789-a4ce-37f9f9b9b4c3",
    "name": "Norwich",
    "state_id": "80eea322-6c90-448c-aab6-5f44d4032104"
  },
  {
    "id": "577170ff-1e28-4ffa-85e9-68aba4d9e589",
    "name": "Orange Bay",
    "state_id": "80eea322-6c90-448c-aab6-5f44d4032104"
  },
  {
    "id": "6727d58c-97e2-40e6-92ae-76d73b49168c",
    "name": "Port Antonio",
    "state_id": "80eea322-6c90-448c-aab6-5f44d4032104"
  },
  {
    "id": "94c4fa04-d1d1-41ce-b26a-0327aa853049",
    "name": "Prospect",
    "state_id": "80eea322-6c90-448c-aab6-5f44d4032104"
  },
  {
    "id": "bbb8afee-c98d-469c-9c54-39e690217fcd",
    "name": "Rock Hall",
    "state_id": "80eea322-6c90-448c-aab6-5f44d4032104"
  },
  {
    "id": "5bc076f9-d3d4-45bd-8951-92699681759e",
    "name": "Sherwood Forest",
    "state_id": "80eea322-6c90-448c-aab6-5f44d4032104"
  },
  {
    "id": "34dac7c3-e57f-4bcc-bb3c-cc18007d63cb",
    "name": "Shirley Castle",
    "state_id": "80eea322-6c90-448c-aab6-5f44d4032104"
  },
  {
    "id": "ba99c57c-684a-4ff6-b36c-2eadbfc1818b",
    "name": "Skibo",
    "state_id": "80eea322-6c90-448c-aab6-5f44d4032104"
  },
  {
    "id": "b1f3c2fb-7368-4a79-8501-73ad24414660",
    "name": "Snow Hill",
    "state_id": "80eea322-6c90-448c-aab6-5f44d4032104"
  },
  {
    "id": "bc34f2db-0bf6-4e82-b8f9-2a59010f83c1",
    "name": "Spring Hill",
    "state_id": "80eea322-6c90-448c-aab6-5f44d4032104"
  },
  {
    "id": "955dd3ae-c36b-4699-8625-0735d6ef3c71",
    "name": "St. Margaret's Bay",
    "state_id": "80eea322-6c90-448c-aab6-5f44d4032104"
  },
  {
    "id": "bc4f8c66-15d9-470d-8bbe-e5befe341cef",
    "name": "Swift River",
    "state_id": "80eea322-6c90-448c-aab6-5f44d4032104"
  },
  {
    "id": "30dd22ac-202f-4e92-8bcd-004ad8efe917",
    "name": "Tranquility",
    "state_id": "80eea322-6c90-448c-aab6-5f44d4032104"
  },
  {
    "id": "b12177f4-9b83-46ed-9244-0d2a3de37461",
    "name": "Windsor",
    "state_id": "80eea322-6c90-448c-aab6-5f44d4032104"
  },
  {
    "id": "8e346657-0850-4e28-9d5f-464e1542599d",
    "name": "Windsor Castle",
    "state_id": "80eea322-6c90-448c-aab6-5f44d4032104"
  },
  {
    "id": "251214ca-f0ae-4574-b9b0-4d7ae13aacfd",
    "name": "Windsor Forest",
    "state_id": "80eea322-6c90-448c-aab6-5f44d4032104"
  }
]