[
  {
    "id": "16b1e9cd-23bf-466d-82d9-9687fa6f52b6",
    "name": "Al Farwānīyah",
    "state_id": "814f022f-829c-4ac7-a819-5d0f88b27e07"
  },
  {
    "id": "16a9a139-c857-4fc5-a0e2-8735e9220716",
    "name": "Janūb as Surrah",
    "state_id": "814f022f-829c-4ac7-a819-5d0f88b27e07"
  }
]