[
  {
    "id": "db696dd6-5b27-4d72-aa2a-e255ed42e38c",
    "name": "Bamnet Narong",
    "state_id": "8214ad0b-d528-4580-800a-97642e5309f9"
  },
  {
    "id": "35c6c110-601f-40f9-b6e3-ece4a665be0e",
    "name": "Chaiyaphum",
    "state_id": "8214ad0b-d528-4580-800a-97642e5309f9"
  },
  {
    "id": "095b5917-5a62-47c1-a18a-6b46320d811b",
    "name": "Kaeng Khro",
    "state_id": "8214ad0b-d528-4580-800a-97642e5309f9"
  },
  {
    "id": "ac61745d-d85f-47c9-95ea-ab398b1a8e23",
    "name": "Kaset Sombun",
    "state_id": "8214ad0b-d528-4580-800a-97642e5309f9"
  },
  {
    "id": "202b1080-026c-4b97-928d-8b368059d009",
    "name": "Nakhon Nayok",
    "state_id": "8214ad0b-d528-4580-800a-97642e5309f9"
  },
  {
    "id": "18dbaf9c-dfea-4d68-b199-7bd94c72cde0",
    "name": "Phu Khiao",
    "state_id": "8214ad0b-d528-4580-800a-97642e5309f9"
  }
]