[
  {
    "id": "c1f9c3e6-83c2-4a40-be80-3d110379474d",
    "name": "Alor Setar",
    "state_id": "836c6c7f-79c5-470d-a3e7-5fa0cb137e44"
  },
  {
    "id": "0b6da0e9-bda9-45e4-8440-a0f8669205e8",
    "name": "Ayer Hangat",
    "state_id": "836c6c7f-79c5-470d-a3e7-5fa0cb137e44"
  },
  {
    "id": "16e9447f-2f4d-4edf-9b8b-8b585ca343e0",
    "name": "Bedong",
    "state_id": "836c6c7f-79c5-470d-a3e7-5fa0cb137e44"
  },
  {
    "id": "9333476c-4e28-4e9e-b4a7-192b31d2694d",
    "name": "Gurun",
    "state_id": "836c6c7f-79c5-470d-a3e7-5fa0cb137e44"
  },
  {
    "id": "b156f4ed-00b1-4e58-921c-d29bb33f73fc",
    "name": "Jitra",
    "state_id": "836c6c7f-79c5-470d-a3e7-5fa0cb137e44"
  },
  {
    "id": "6851bdd4-e542-47dc-9c4f-bdeb0d17a232",
    "name": "Kampung Kilim",
    "state_id": "836c6c7f-79c5-470d-a3e7-5fa0cb137e44"
  },
  {
    "id": "1ce41c1d-e8b0-4f11-9af0-d25f98b102a2",
    "name": "Kampung Kok",
    "state_id": "836c6c7f-79c5-470d-a3e7-5fa0cb137e44"
  },
  {
    "id": "2de16061-b46d-48a4-a573-a94eaa671c92",
    "name": "Kuah",
    "state_id": "836c6c7f-79c5-470d-a3e7-5fa0cb137e44"
  },
  {
    "id": "c9275687-1660-4548-9d82-201de548c8c7",
    "name": "Kuala Kedah",
    "state_id": "836c6c7f-79c5-470d-a3e7-5fa0cb137e44"
  },
  {
    "id": "676c4078-448a-4294-8b55-0252382ec626",
    "name": "Kuala Teriang",
    "state_id": "836c6c7f-79c5-470d-a3e7-5fa0cb137e44"
  },
  {
    "id": "49df0910-c798-45a8-931a-0ad189c61074",
    "name": "Kulim",
    "state_id": "836c6c7f-79c5-470d-a3e7-5fa0cb137e44"
  },
  {
    "id": "30069798-0183-43ff-9b88-1a9d130b9a6b",
    "name": "Langkawi",
    "state_id": "836c6c7f-79c5-470d-a3e7-5fa0cb137e44"
  },
  {
    "id": "aa1be5a9-045a-41bc-9a5b-4a9f9a6c8e0d",
    "name": "Padang Mat Sirat",
    "state_id": "836c6c7f-79c5-470d-a3e7-5fa0cb137e44"
  },
  {
    "id": "3adb17dc-bd32-4d3b-9c5c-f4822247a3b8",
    "name": "Sungai Petani",
    "state_id": "836c6c7f-79c5-470d-a3e7-5fa0cb137e44"
  }
]