[
  {
    "id": "c92f94e2-1379-4c01-8725-66a733489a10",
    "name": "Aral",
    "state_id": "84047596-c594-4187-b50c-9ea42075be6f"
  },
  {
    "id": "503f3dad-8ffb-4097-9976-51395cd6002c",
    "name": "Ayteke Bi",
    "state_id": "84047596-c594-4187-b50c-9ea42075be6f"
  },
  {
    "id": "df04b4a8-5e80-4f3e-a3fc-da14eba4383e",
    "name": "Belköl",
    "state_id": "84047596-c594-4187-b50c-9ea42075be6f"
  },
  {
    "id": "49a61ae4-010a-48c4-bbfa-fae09c9be253",
    "name": "Dzhalagash",
    "state_id": "84047596-c594-4187-b50c-9ea42075be6f"
  },
  {
    "id": "be9bad99-9f40-4465-aba0-9d79b0f49525",
    "name": "Kyzylorda",
    "state_id": "84047596-c594-4187-b50c-9ea42075be6f"
  },
  {
    "id": "4e9c243b-5e8f-4e2e-9281-64d51087c706",
    "name": "Qazaly",
    "state_id": "84047596-c594-4187-b50c-9ea42075be6f"
  },
  {
    "id": "d61d8e48-4c38-427d-b10d-a40d367b6d78",
    "name": "Sekseūil",
    "state_id": "84047596-c594-4187-b50c-9ea42075be6f"
  },
  {
    "id": "b97d2b4b-49c8-4eb7-bf63-dd196d901be1",
    "name": "Shalqīya",
    "state_id": "84047596-c594-4187-b50c-9ea42075be6f"
  },
  {
    "id": "2fe623ff-d532-42b9-b08e-8480ae82a48c",
    "name": "Shīeli",
    "state_id": "84047596-c594-4187-b50c-9ea42075be6f"
  },
  {
    "id": "4e717766-d8f0-4982-8cc9-8959ef9b77ab",
    "name": "Tasböget",
    "state_id": "84047596-c594-4187-b50c-9ea42075be6f"
  },
  {
    "id": "e355d645-96c2-41ba-baac-c873693d2f38",
    "name": "Terenozek",
    "state_id": "84047596-c594-4187-b50c-9ea42075be6f"
  },
  {
    "id": "d5f228c5-d133-43e2-9ab2-9af207b25498",
    "name": "Yanykurgan",
    "state_id": "84047596-c594-4187-b50c-9ea42075be6f"
  },
  {
    "id": "ea2d2202-eb74-4045-9e61-5d2afef06e87",
    "name": "Zhosaly",
    "state_id": "84047596-c594-4187-b50c-9ea42075be6f"
  }
]