[
  {
    "id": "cfbd23f9-67a6-401f-872a-3a981365770a",
    "name": "Acriș",
    "state_id": "84b132c1-f053-4acf-9991-33988792375a"
  },
  {
    "id": "eeff38f3-c0fb-4465-86c7-dd094217ec96",
    "name": "Apaţa",
    "state_id": "84b132c1-f053-4acf-9991-33988792375a"
  },
  {
    "id": "8e0cfbf8-f457-4061-a328-4be5fe8b3fc2",
    "name": "Augustin",
    "state_id": "84b132c1-f053-4acf-9991-33988792375a"
  },
  {
    "id": "03be9c7e-df03-497d-aacb-b6ec677bfbe6",
    "name": "Beclean",
    "state_id": "84b132c1-f053-4acf-9991-33988792375a"
  },
  {
    "id": "b33c90b8-a1d0-4c2f-af27-32153e4d8251",
    "name": "Bod",
    "state_id": "84b132c1-f053-4acf-9991-33988792375a"
  },
  {
    "id": "395c9f6e-d445-490e-9c16-abc02dd144c8",
    "name": "Bran",
    "state_id": "84b132c1-f053-4acf-9991-33988792375a"
  },
  {
    "id": "d470cdf5-9769-4c71-8168-9fb2b2c5b7bd",
    "name": "Braşov",
    "state_id": "84b132c1-f053-4acf-9991-33988792375a"
  },
  {
    "id": "a05e5fb6-cc26-4871-9158-79b128408c2f",
    "name": "Budila",
    "state_id": "84b132c1-f053-4acf-9991-33988792375a"
  },
  {
    "id": "bca50690-1f8a-4ffe-8f5b-3a6d9be1df9d",
    "name": "Buneşti",
    "state_id": "84b132c1-f053-4acf-9991-33988792375a"
  },
  {
    "id": "a2af04eb-6a27-4914-878d-490368cdcad3",
    "name": "Caţa",
    "state_id": "84b132c1-f053-4acf-9991-33988792375a"
  },
  {
    "id": "c365d2f1-9d3d-417d-bc41-ba1efa6b0b42",
    "name": "Cincu",
    "state_id": "84b132c1-f053-4acf-9991-33988792375a"
  },
  {
    "id": "4b6252d6-9c4e-478f-a46a-158c0d1c9740",
    "name": "Codlea",
    "state_id": "84b132c1-f053-4acf-9991-33988792375a"
  },
  {
    "id": "44263c6d-37a7-4dcf-90a4-cc1360494106",
    "name": "Colonia Bod",
    "state_id": "84b132c1-f053-4acf-9991-33988792375a"
  },
  {
    "id": "64a540f3-03fe-437d-abe5-f3a16f56b428",
    "name": "Comana de Jos",
    "state_id": "84b132c1-f053-4acf-9991-33988792375a"
  },
  {
    "id": "fa7f5a3c-c207-423c-8f59-0b9472733d60",
    "name": "Comana de Sus",
    "state_id": "84b132c1-f053-4acf-9991-33988792375a"
  },
  {
    "id": "c9dace4c-e4dd-4ccf-adef-6fd0bbc8dd0e",
    "name": "Comuna Apaţa",
    "state_id": "84b132c1-f053-4acf-9991-33988792375a"
  },
  {
    "id": "a9e482b8-86df-4c2e-a3ba-3bc6d80cafbd",
    "name": "Comuna Augustin",
    "state_id": "84b132c1-f053-4acf-9991-33988792375a"
  },
  {
    "id": "4f43ec55-cbb5-4260-818c-5a05e2c0f710",
    "name": "Comuna Beclean",
    "state_id": "84b132c1-f053-4acf-9991-33988792375a"
  },
  {
    "id": "e11bceb3-06b7-42c7-9827-60979dc080c3",
    "name": "Comuna Bod",
    "state_id": "84b132c1-f053-4acf-9991-33988792375a"
  },
  {
    "id": "60c7f20b-49b9-4a9a-9c2f-f389a4251cda",
    "name": "Comuna Bran",
    "state_id": "84b132c1-f053-4acf-9991-33988792375a"
  },
  {
    "id": "fb2d3e13-dda8-4021-a219-ad750b19c559",
    "name": "Comuna Budila",
    "state_id": "84b132c1-f053-4acf-9991-33988792375a"
  },
  {
    "id": "89d0718f-55a3-43cf-a358-d396314424c9",
    "name": "Comuna Buneşti",
    "state_id": "84b132c1-f053-4acf-9991-33988792375a"
  },
  {
    "id": "50646c9b-888f-4a2b-bcd6-226c815ed238",
    "name": "Comuna Caţa",
    "state_id": "84b132c1-f053-4acf-9991-33988792375a"
  },
  {
    "id": "d9bb8cd4-cfb5-43fc-9df9-c3b275cba878",
    "name": "Comuna Cincu",
    "state_id": "84b132c1-f053-4acf-9991-33988792375a"
  },
  {
    "id": "6c273d1a-f7af-4132-b0d7-f02b939d8d98",
    "name": "Comuna Comana",
    "state_id": "84b132c1-f053-4acf-9991-33988792375a"
  },
  {
    "id": "1309b7aa-1ac5-4ae5-9544-370fcb2358b6",
    "name": "Comuna Cristian",
    "state_id": "84b132c1-f053-4acf-9991-33988792375a"
  },
  {
    "id": "0971c4d0-febf-4d4a-84bb-a036d1f637ef",
    "name": "Comuna Crizbav",
    "state_id": "84b132c1-f053-4acf-9991-33988792375a"
  },
  {
    "id": "98e2e6e5-fe16-4183-ae29-29eac5d4cde0",
    "name": "Comuna Drăguş",
    "state_id": "84b132c1-f053-4acf-9991-33988792375a"
  },
  {
    "id": "a4784060-4e23-4b67-865e-654c78401b75",
    "name": "Comuna Dumbrăviţa",
    "state_id": "84b132c1-f053-4acf-9991-33988792375a"
  },
  {
    "id": "3248a506-2edf-4f0b-b7f9-b32586870ffd",
    "name": "Comuna Feldioara",
    "state_id": "84b132c1-f053-4acf-9991-33988792375a"
  },
  {
    "id": "9ad8da54-109e-4813-87f8-72c00b1c6dd6",
    "name": "Comuna Fundata",
    "state_id": "84b132c1-f053-4acf-9991-33988792375a"
  },
  {
    "id": "f751fa59-633e-4dfe-b84a-271cee318536",
    "name": "Comuna Hălchiu",
    "state_id": "84b132c1-f053-4acf-9991-33988792375a"
  },
  {
    "id": "09dc08bf-59bc-41b8-b4fa-3861c64561eb",
    "name": "Comuna Hărman",
    "state_id": "84b132c1-f053-4acf-9991-33988792375a"
  },
  {
    "id": "37c7dd0b-0d3c-4cd2-9413-936012ff08d9",
    "name": "Comuna Hârşeni",
    "state_id": "84b132c1-f053-4acf-9991-33988792375a"
  },
  {
    "id": "ec6d1d18-a902-49b4-a900-3a0c4efcaef4",
    "name": "Comuna Hoghiz",
    "state_id": "84b132c1-f053-4acf-9991-33988792375a"
  },
  {
    "id": "b76594ee-dbd2-4b4c-a535-ce22db1e1325",
    "name": "Comuna Holbav",
    "state_id": "84b132c1-f053-4acf-9991-33988792375a"
  },
  {
    "id": "193d6610-3b23-4a9d-88ec-dc4519a066bd",
    "name": "Comuna Homorod",
    "state_id": "84b132c1-f053-4acf-9991-33988792375a"
  },
  {
    "id": "770f2d8c-31d8-4c30-a001-1fbe67317be6",
    "name": "Comuna Jibert",
    "state_id": "84b132c1-f053-4acf-9991-33988792375a"
  },
  {
    "id": "e6a51e54-5eaf-46c6-9974-7bef572e3c6d",
    "name": "Comuna Lisa",
    "state_id": "84b132c1-f053-4acf-9991-33988792375a"
  },
  {
    "id": "c190a93c-decc-4802-b37d-102645d2f01b",
    "name": "Comuna Mãieruş",
    "state_id": "84b132c1-f053-4acf-9991-33988792375a"
  },
  {
    "id": "651651b3-291f-4219-91be-9c78e2408b34",
    "name": "Comuna Mândra",
    "state_id": "84b132c1-f053-4acf-9991-33988792375a"
  },
  {
    "id": "8793ba41-797c-4024-8b08-e41ed9862263",
    "name": "Comuna Moieciu",
    "state_id": "84b132c1-f053-4acf-9991-33988792375a"
  },
  {
    "id": "6caaa6a5-4550-4bdc-8213-e3af413cad55",
    "name": "Comuna Ormeniş",
    "state_id": "84b132c1-f053-4acf-9991-33988792375a"
  },
  {
    "id": "3227e012-9733-4efe-b548-64750a8d9f2a",
    "name": "Comuna Pârâu",
    "state_id": "84b132c1-f053-4acf-9991-33988792375a"
  },
  {
    "id": "e57b8651-4bdd-46a5-934d-ccdc8eb02c75",
    "name": "Comuna Poiana Mărului (Brașov)",
    "state_id": "84b132c1-f053-4acf-9991-33988792375a"
  },
  {
    "id": "9134845d-ea05-4d7c-971c-ee5be5a20f6a",
    "name": "Comuna Prejmer",
    "state_id": "84b132c1-f053-4acf-9991-33988792375a"
  },
  {
    "id": "b9bc61b5-b278-4e62-ac43-676fd479bcfd",
    "name": "Comuna Racoş",
    "state_id": "84b132c1-f053-4acf-9991-33988792375a"
  },
  {
    "id": "562c839e-bf5f-4d96-b8d0-bc624fdee207",
    "name": "Comuna Recea",
    "state_id": "84b132c1-f053-4acf-9991-33988792375a"
  },
  {
    "id": "51746e06-12bb-4594-a766-313ec4b608f1",
    "name": "Comuna Sâmbăta de Sus",
    "state_id": "84b132c1-f053-4acf-9991-33988792375a"
  },
  {
    "id": "5110d639-9730-4c4d-9943-52292244c726",
    "name": "Comuna Sânpetru",
    "state_id": "84b132c1-f053-4acf-9991-33988792375a"
  },
  {
    "id": "174df024-5857-4fe6-8deb-f179bae8df67",
    "name": "Comuna Şercaia",
    "state_id": "84b132c1-f053-4acf-9991-33988792375a"
  },
  {
    "id": "d412fbff-1339-4807-b243-e3ea76db1b34",
    "name": "Comuna Şinca Nouă",
    "state_id": "84b132c1-f053-4acf-9991-33988792375a"
  },
  {
    "id": "31711940-9146-4363-a95d-16cb034852a4",
    "name": "Comuna Şinca Veche",
    "state_id": "84b132c1-f053-4acf-9991-33988792375a"
  },
  {
    "id": "3786efda-1768-4f9d-b9d9-d12af3ea7ab6",
    "name": "Comuna Şoarş",
    "state_id": "84b132c1-f053-4acf-9991-33988792375a"
  },
  {
    "id": "d2e6565c-a502-4fc3-9bf8-90c84668e7c1",
    "name": "Comuna Tărlungeni",
    "state_id": "84b132c1-f053-4acf-9991-33988792375a"
  },
  {
    "id": "338e4803-844e-4110-ac2e-9d1e9c116e02",
    "name": "Comuna Teliu",
    "state_id": "84b132c1-f053-4acf-9991-33988792375a"
  },
  {
    "id": "0467d117-7192-4acf-9836-fce42f1da42c",
    "name": "Comuna Ticuşu Vechi",
    "state_id": "84b132c1-f053-4acf-9991-33988792375a"
  },
  {
    "id": "86cfa10e-1f8d-40d9-9d8a-b61cd0a4bf61",
    "name": "Comuna Ucea de Jos",
    "state_id": "84b132c1-f053-4acf-9991-33988792375a"
  },
  {
    "id": "d8b0933a-bf6e-4524-8ba9-2d15c590ab00",
    "name": "Comuna Ungra",
    "state_id": "84b132c1-f053-4acf-9991-33988792375a"
  },
  {
    "id": "4c673e03-3756-46c8-98b3-8ed64f2f1d65",
    "name": "Comuna Vama Buzăului",
    "state_id": "84b132c1-f053-4acf-9991-33988792375a"
  },
  {
    "id": "a97a9e77-73ba-44ff-95d4-dd34c7213493",
    "name": "Comuna Viştea de Jos",
    "state_id": "84b132c1-f053-4acf-9991-33988792375a"
  },
  {
    "id": "93b71813-d540-4a1b-b207-4312d4df1053",
    "name": "Comuna Voila",
    "state_id": "84b132c1-f053-4acf-9991-33988792375a"
  },
  {
    "id": "9a8267bf-2480-4fe4-8e07-d567ef195a31",
    "name": "Comuna Vulcan",
    "state_id": "84b132c1-f053-4acf-9991-33988792375a"
  },
  {
    "id": "7fec23a8-e9d8-4cbe-b007-9e3d54c461ce",
    "name": "Cristian",
    "state_id": "84b132c1-f053-4acf-9991-33988792375a"
  },
  {
    "id": "19a08dcc-8982-44aa-b0ad-ffaaabe0d896",
    "name": "Crivina",
    "state_id": "84b132c1-f053-4acf-9991-33988792375a"
  },
  {
    "id": "8670aed9-c0c2-4d20-b469-51a0751ea27e",
    "name": "Crizbav",
    "state_id": "84b132c1-f053-4acf-9991-33988792375a"
  },
  {
    "id": "549a2beb-6d1a-4ff7-a26a-d389f45cc65a",
    "name": "Cuciulata",
    "state_id": "84b132c1-f053-4acf-9991-33988792375a"
  },
  {
    "id": "f1758fbf-8ce8-469f-9882-2cf5d266abf2",
    "name": "Drăguș",
    "state_id": "84b132c1-f053-4acf-9991-33988792375a"
  },
  {
    "id": "4dcaa252-2b2c-4150-83c9-25a9fe21b637",
    "name": "Dumbrăviţa",
    "state_id": "84b132c1-f053-4acf-9991-33988792375a"
  },
  {
    "id": "11f21904-6fc9-4dad-8ddf-318df7d7cbdd",
    "name": "Făgăraș",
    "state_id": "84b132c1-f053-4acf-9991-33988792375a"
  },
  {
    "id": "068493cd-d180-4c82-86eb-ac51a90c325f",
    "name": "Feldioara",
    "state_id": "84b132c1-f053-4acf-9991-33988792375a"
  },
  {
    "id": "7858f7b3-f483-4a52-b77e-2cc3ff33597f",
    "name": "Fișer",
    "state_id": "84b132c1-f053-4acf-9991-33988792375a"
  },
  {
    "id": "2e9766a8-5407-465f-958e-d6b8512362c6",
    "name": "Fundata",
    "state_id": "84b132c1-f053-4acf-9991-33988792375a"
  },
  {
    "id": "ecbb2532-7ecb-4ff8-934c-8f80b3be3df6",
    "name": "Ghimbav",
    "state_id": "84b132c1-f053-4acf-9991-33988792375a"
  },
  {
    "id": "3fead9bc-8f76-42ab-88ce-b7dcf85a940a",
    "name": "Hălchiu",
    "state_id": "84b132c1-f053-4acf-9991-33988792375a"
  },
  {
    "id": "95ba97ce-b43a-4324-b463-140446dcdd0a",
    "name": "Hărman",
    "state_id": "84b132c1-f053-4acf-9991-33988792375a"
  },
  {
    "id": "edbee534-100d-40b9-a0bd-116696575094",
    "name": "Hârşeni",
    "state_id": "84b132c1-f053-4acf-9991-33988792375a"
  },
  {
    "id": "72692192-7563-4a86-b931-2d5ae7b9f822",
    "name": "Hoghiz",
    "state_id": "84b132c1-f053-4acf-9991-33988792375a"
  },
  {
    "id": "1420b41f-6e51-48a1-b23f-b25823363808",
    "name": "Holbav",
    "state_id": "84b132c1-f053-4acf-9991-33988792375a"
  },
  {
    "id": "fd5301d5-d29c-460f-86db-01746d7ada35",
    "name": "Homorod",
    "state_id": "84b132c1-f053-4acf-9991-33988792375a"
  },
  {
    "id": "3be8ee47-ac5c-40cf-a23c-59963ebccb7a",
    "name": "Jibert",
    "state_id": "84b132c1-f053-4acf-9991-33988792375a"
  },
  {
    "id": "d07cd8fe-2cf8-4571-90c0-495a58d21852",
    "name": "Lisa",
    "state_id": "84b132c1-f053-4acf-9991-33988792375a"
  },
  {
    "id": "9bcf66f1-17be-4364-9da8-88e590682aa4",
    "name": "Măieruş",
    "state_id": "84b132c1-f053-4acf-9991-33988792375a"
  },
  {
    "id": "8fe834a8-23db-4f1e-9700-0b945dc8818c",
    "name": "Mândra",
    "state_id": "84b132c1-f053-4acf-9991-33988792375a"
  },
  {
    "id": "2ea6dfb9-0398-4e14-8ec9-ed9e87809dc3",
    "name": "Moeciu de Jos",
    "state_id": "84b132c1-f053-4acf-9991-33988792375a"
  },
  {
    "id": "01482a4a-5d0c-4875-a845-34289bb5b605",
    "name": "Moieciu de Jos",
    "state_id": "84b132c1-f053-4acf-9991-33988792375a"
  },
  {
    "id": "c552f670-7cdc-420b-957d-10ac783e577f",
    "name": "Municipiul  Codlea",
    "state_id": "84b132c1-f053-4acf-9991-33988792375a"
  },
  {
    "id": "82574176-9648-4df6-8f24-ceaf52f861bc",
    "name": "Municipiul Braşov",
    "state_id": "84b132c1-f053-4acf-9991-33988792375a"
  },
  {
    "id": "e73d7ace-78a2-4cd9-bea1-d91146f2fcb7",
    "name": "Municipiul Fãgãraş",
    "state_id": "84b132c1-f053-4acf-9991-33988792375a"
  },
  {
    "id": "f1343b9d-5abb-4865-88f2-0dd36aba894d",
    "name": "Municipiul Sãcele",
    "state_id": "84b132c1-f053-4acf-9991-33988792375a"
  },
  {
    "id": "60019a7e-33fa-4e73-b176-5796b446e344",
    "name": "Oraş Ghimbav",
    "state_id": "84b132c1-f053-4acf-9991-33988792375a"
  },
  {
    "id": "91e3cc84-bcb8-4647-b267-89e8389247c0",
    "name": "Oraş Predeal",
    "state_id": "84b132c1-f053-4acf-9991-33988792375a"
  },
  {
    "id": "3a040a10-2d34-45de-8730-4e94575d4237",
    "name": "Oraş Râşnov",
    "state_id": "84b132c1-f053-4acf-9991-33988792375a"
  },
  {
    "id": "eb6d309c-9734-4d1d-aef3-68e3b3e0adde",
    "name": "Oraş Rupea",
    "state_id": "84b132c1-f053-4acf-9991-33988792375a"
  },
  {
    "id": "c8493c05-3b17-4f31-9f39-ce8f901105af",
    "name": "Oraş Victoria",
    "state_id": "84b132c1-f053-4acf-9991-33988792375a"
  },
  {
    "id": "488d2832-5101-4f42-9181-ef0deaedafce",
    "name": "Oraş Zãrneşti",
    "state_id": "84b132c1-f053-4acf-9991-33988792375a"
  },
  {
    "id": "9e71350e-0514-4305-ab38-656a34e44a6c",
    "name": "Ormeniş",
    "state_id": "84b132c1-f053-4acf-9991-33988792375a"
  },
  {
    "id": "bd06db30-d944-4b78-9b16-209bfe012320",
    "name": "Pârâu",
    "state_id": "84b132c1-f053-4acf-9991-33988792375a"
  },
  {
    "id": "c2947fe0-f920-410f-bbe9-d59bc6e48b35",
    "name": "Perșani",
    "state_id": "84b132c1-f053-4acf-9991-33988792375a"
  },
  {
    "id": "e98186a8-e7c5-437c-b3f1-9ec9b3f70ecf",
    "name": "Poiana Mărului (Brașov)",
    "state_id": "84b132c1-f053-4acf-9991-33988792375a"
  },
  {
    "id": "452da023-bed2-4c43-acad-dd26f36da052",
    "name": "Predeal",
    "state_id": "84b132c1-f053-4acf-9991-33988792375a"
  },
  {
    "id": "c3dfff34-22c9-40ec-b91d-32d65b079fac",
    "name": "Prejmer",
    "state_id": "84b132c1-f053-4acf-9991-33988792375a"
  },
  {
    "id": "5b82cdad-ea6b-4ffd-ab74-27db7dcb1b76",
    "name": "Purcăreni",
    "state_id": "84b132c1-f053-4acf-9991-33988792375a"
  },
  {
    "id": "92b6c44f-fb68-46f3-aea6-4832293b1f62",
    "name": "Racoș",
    "state_id": "84b132c1-f053-4acf-9991-33988792375a"
  },
  {
    "id": "1a8b99d6-9fa1-42ba-9d89-03cb9601ef63",
    "name": "Râşnov",
    "state_id": "84b132c1-f053-4acf-9991-33988792375a"
  },
  {
    "id": "9420a368-a8d7-4fa5-821e-73bdbb1ed8fd",
    "name": "Recea",
    "state_id": "84b132c1-f053-4acf-9991-33988792375a"
  },
  {
    "id": "280724db-ae15-402b-8f2b-1e4584d66283",
    "name": "Rupea",
    "state_id": "84b132c1-f053-4acf-9991-33988792375a"
  },
  {
    "id": "e54c3869-5c9d-4b3a-9635-4ab3a4456b7e",
    "name": "Săcele",
    "state_id": "84b132c1-f053-4acf-9991-33988792375a"
  },
  {
    "id": "ed92a549-ba10-46b9-b56d-150c3de1df4f",
    "name": "Sâmbăta de Sus",
    "state_id": "84b132c1-f053-4acf-9991-33988792375a"
  },
  {
    "id": "8a3c4ed1-5118-4aae-ad04-b1080dece55c",
    "name": "Sânpetru",
    "state_id": "84b132c1-f053-4acf-9991-33988792375a"
  },
  {
    "id": "07fce727-ff8b-47fa-ad02-f0351d1c524b",
    "name": "Şercaia",
    "state_id": "84b132c1-f053-4acf-9991-33988792375a"
  },
  {
    "id": "88b98dca-deab-41d9-8d38-20ca95b1ba0c",
    "name": "Șimon",
    "state_id": "84b132c1-f053-4acf-9991-33988792375a"
  },
  {
    "id": "31cb223b-a7c9-4fb9-a001-c0e8c0208ebb",
    "name": "Șinca Nouă",
    "state_id": "84b132c1-f053-4acf-9991-33988792375a"
  },
  {
    "id": "81aaef20-3fef-42a4-bb09-e72a2598f43f",
    "name": "Şinca Veche",
    "state_id": "84b132c1-f053-4acf-9991-33988792375a"
  },
  {
    "id": "f7c2ff72-2455-4ba6-a0af-7927b2a2075b",
    "name": "Şoarş",
    "state_id": "84b132c1-f053-4acf-9991-33988792375a"
  },
  {
    "id": "81d9394e-1302-458b-8ebe-c6b042153ea6",
    "name": "Sohodol",
    "state_id": "84b132c1-f053-4acf-9991-33988792375a"
  },
  {
    "id": "086d5f70-8754-428a-a111-d0bf62f5f9ac",
    "name": "Tărlungeni",
    "state_id": "84b132c1-f053-4acf-9991-33988792375a"
  },
  {
    "id": "03825f68-e22d-4bb4-b67d-7f5f6928e729",
    "name": "Teliu",
    "state_id": "84b132c1-f053-4acf-9991-33988792375a"
  },
  {
    "id": "08fb2c5f-cb7f-4344-9410-d9ba84c1ff76",
    "name": "Ticuşu Vechi",
    "state_id": "84b132c1-f053-4acf-9991-33988792375a"
  },
  {
    "id": "f916ffd0-622e-4de3-9fec-7342c98a4873",
    "name": "Tohanu Nou",
    "state_id": "84b132c1-f053-4acf-9991-33988792375a"
  },
  {
    "id": "3ce4c3f8-93a7-451b-80a8-aba3f6f58a6e",
    "name": "Tunelu-Teliu",
    "state_id": "84b132c1-f053-4acf-9991-33988792375a"
  },
  {
    "id": "0c09eff0-1ae1-462e-8a87-0c53855348a3",
    "name": "Ucea de Jos",
    "state_id": "84b132c1-f053-4acf-9991-33988792375a"
  },
  {
    "id": "5d19f8fe-8c94-4abd-a178-96f26fa54ce3",
    "name": "Ucea de Sus",
    "state_id": "84b132c1-f053-4acf-9991-33988792375a"
  },
  {
    "id": "6ef5243f-d442-4f0a-a662-d23346462af9",
    "name": "Ungra",
    "state_id": "84b132c1-f053-4acf-9991-33988792375a"
  },
  {
    "id": "dfe2b404-46ec-4a80-a88a-78e5e4036e40",
    "name": "Vama Buzăului",
    "state_id": "84b132c1-f053-4acf-9991-33988792375a"
  },
  {
    "id": "b59b1549-e860-466a-ab0f-afa2b9345217",
    "name": "Victoria",
    "state_id": "84b132c1-f053-4acf-9991-33988792375a"
  },
  {
    "id": "35e58e29-06b8-4c80-baad-4dbd094127cf",
    "name": "Viscri",
    "state_id": "84b132c1-f053-4acf-9991-33988792375a"
  },
  {
    "id": "f840cf62-b9d2-46da-b27c-b6ade3e74c47",
    "name": "Viștea de Jos",
    "state_id": "84b132c1-f053-4acf-9991-33988792375a"
  },
  {
    "id": "1941d7a6-cd19-4ea6-8713-75e931d792ee",
    "name": "Voila",
    "state_id": "84b132c1-f053-4acf-9991-33988792375a"
  },
  {
    "id": "d49690a8-603e-47fa-b366-de5b278ad3df",
    "name": "Vulcan",
    "state_id": "84b132c1-f053-4acf-9991-33988792375a"
  },
  {
    "id": "497d2340-9f09-40cc-b962-ee17722c8277",
    "name": "Zărnești",
    "state_id": "84b132c1-f053-4acf-9991-33988792375a"
  },
  {
    "id": "97d4b6aa-caa8-4429-9594-2a1ec8a845f9",
    "name": "Zizin",
    "state_id": "84b132c1-f053-4acf-9991-33988792375a"
  }
]