[
  {
    "id": "365639b7-5ada-4e58-881f-78b81358b4f7",
    "name": "Anse à Galets",
    "state_id": "8586fcce-066d-4374-9788-eb61ab2b1b4e"
  },
  {
    "id": "352595ba-16aa-4835-8fd4-88ce998c57d0",
    "name": "Arcahaie",
    "state_id": "8586fcce-066d-4374-9788-eb61ab2b1b4e"
  },
  {
    "id": "0a8ac3bf-9302-4aff-aa91-5bd72281f2bf",
    "name": "Arrondissement de Croix des Bouquets",
    "state_id": "8586fcce-066d-4374-9788-eb61ab2b1b4e"
  },
  {
    "id": "68155cbb-e698-46d0-97e1-36582390a305",
    "name": "Arrondissement de Léogâne",
    "state_id": "8586fcce-066d-4374-9788-eb61ab2b1b4e"
  },
  {
    "id": "ea87a82b-bb56-4804-983c-458a2054eeb0",
    "name": "Arrondissement de Port-au-Prince",
    "state_id": "8586fcce-066d-4374-9788-eb61ab2b1b4e"
  },
  {
    "id": "4b07de69-9f0f-409c-9a12-d6e9b1c040ea",
    "name": "Cabaret",
    "state_id": "8586fcce-066d-4374-9788-eb61ab2b1b4e"
  },
  {
    "id": "334031aa-7edd-408d-a9af-b99afb13c575",
    "name": "Carrefour",
    "state_id": "8586fcce-066d-4374-9788-eb61ab2b1b4e"
  },
  {
    "id": "aa2919fd-d2a6-4cff-9c29-a25411da0eb9",
    "name": "Cornillon",
    "state_id": "8586fcce-066d-4374-9788-eb61ab2b1b4e"
  },
  {
    "id": "c1d4a91f-bc5f-4cde-958d-21e5a43f135d",
    "name": "Croix-des-Bouquets",
    "state_id": "8586fcce-066d-4374-9788-eb61ab2b1b4e"
  },
  {
    "id": "99c5405c-7228-43be-b9b6-79493b6a24c3",
    "name": "Delmas 73",
    "state_id": "8586fcce-066d-4374-9788-eb61ab2b1b4e"
  },
  {
    "id": "0739d28b-458d-497d-8ed7-3894c659d710",
    "name": "Fond Parisien",
    "state_id": "8586fcce-066d-4374-9788-eb61ab2b1b4e"
  },
  {
    "id": "5c9a4325-cca3-410e-860d-8a39165cc7e5",
    "name": "Fonds Verrettes",
    "state_id": "8586fcce-066d-4374-9788-eb61ab2b1b4e"
  },
  {
    "id": "cf1ba628-f6ab-481c-a50b-9d5a35f440ea",
    "name": "Grangwav",
    "state_id": "8586fcce-066d-4374-9788-eb61ab2b1b4e"
  },
  {
    "id": "97409990-f698-43fc-8388-1086bfa538b9",
    "name": "Gressier",
    "state_id": "8586fcce-066d-4374-9788-eb61ab2b1b4e"
  },
  {
    "id": "9fec602d-bb6c-40a9-91d5-96ce54a3fa83",
    "name": "Kenscoff",
    "state_id": "8586fcce-066d-4374-9788-eb61ab2b1b4e"
  },
  {
    "id": "0a821c94-61a5-483f-a86b-7aecdcf8257a",
    "name": "Lagonav",
    "state_id": "8586fcce-066d-4374-9788-eb61ab2b1b4e"
  },
  {
    "id": "3bfa65a0-a06e-46a0-aedf-f454008c25ea",
    "name": "Léogâne",
    "state_id": "8586fcce-066d-4374-9788-eb61ab2b1b4e"
  },
  {
    "id": "f5332d63-f53f-4a8f-a32a-ea9f3fab4bb4",
    "name": "Pétionville",
    "state_id": "8586fcce-066d-4374-9788-eb61ab2b1b4e"
  },
  {
    "id": "6cc6cef8-2f97-462b-9682-a21d4c0037c7",
    "name": "Port-au-Prince",
    "state_id": "8586fcce-066d-4374-9788-eb61ab2b1b4e"
  },
  {
    "id": "a3c62728-0580-4c69-a4af-3728f7284b27",
    "name": "Thomazeau",
    "state_id": "8586fcce-066d-4374-9788-eb61ab2b1b4e"
  },
  {
    "id": "5beb4864-1a18-4b2c-b886-c66b8ac8b9e8",
    "name": "Tigwav",
    "state_id": "8586fcce-066d-4374-9788-eb61ab2b1b4e"
  }
]