[
  {
    "id": "2b9f111d-6d8b-4ba0-9d04-dd8f8f751934",
    "name": "Igugunu",
    "state_id": "85ca8ddd-628d-42a6-adad-730bd7dc76b3"
  },
  {
    "id": "b5cb5bf4-8681-4932-bf38-161f9659c7a9",
    "name": "Ikungi",
    "state_id": "85ca8ddd-628d-42a6-adad-730bd7dc76b3"
  },
  {
    "id": "930a3954-f43f-4b8e-8609-d5e20443a9dd",
    "name": "Ilongero",
    "state_id": "85ca8ddd-628d-42a6-adad-730bd7dc76b3"
  },
  {
    "id": "a41b9ebd-f6b0-4d4b-9d93-523a41c2de6f",
    "name": "Itigi",
    "state_id": "85ca8ddd-628d-42a6-adad-730bd7dc76b3"
  },
  {
    "id": "2123e21d-48bb-4ad4-8102-fc38a6b2bfb1",
    "name": "Kilimatinde",
    "state_id": "85ca8ddd-628d-42a6-adad-730bd7dc76b3"
  },
  {
    "id": "fe387ed3-458f-4773-9786-3931c734ca46",
    "name": "Kintinku",
    "state_id": "85ca8ddd-628d-42a6-adad-730bd7dc76b3"
  },
  {
    "id": "2dcc7d3a-a640-4322-a612-8fc5dfd58f48",
    "name": "Kiomboi",
    "state_id": "85ca8ddd-628d-42a6-adad-730bd7dc76b3"
  },
  {
    "id": "8ff53b1d-b3b6-476a-9068-c7f7e11c660e",
    "name": "Mgandu",
    "state_id": "85ca8ddd-628d-42a6-adad-730bd7dc76b3"
  },
  {
    "id": "cf7614e0-baad-4846-8132-4d2c66ab705f",
    "name": "Mtinko",
    "state_id": "85ca8ddd-628d-42a6-adad-730bd7dc76b3"
  },
  {
    "id": "f3434927-86b0-46c2-87c7-d2a59ade5438",
    "name": "Mungaa",
    "state_id": "85ca8ddd-628d-42a6-adad-730bd7dc76b3"
  },
  {
    "id": "b0525f64-8d06-4e2a-ad9c-8d70dafbec2e",
    "name": "Ndago",
    "state_id": "85ca8ddd-628d-42a6-adad-730bd7dc76b3"
  },
  {
    "id": "a92f11f3-db8e-4049-9710-451008d1d6cb",
    "name": "Puma",
    "state_id": "85ca8ddd-628d-42a6-adad-730bd7dc76b3"
  },
  {
    "id": "d5b5cb6c-deb7-46e5-8531-3e8e799463d8",
    "name": "Sepuka",
    "state_id": "85ca8ddd-628d-42a6-adad-730bd7dc76b3"
  },
  {
    "id": "38275ad7-b061-4a11-93eb-4e22b0d47181",
    "name": "Shelui",
    "state_id": "85ca8ddd-628d-42a6-adad-730bd7dc76b3"
  },
  {
    "id": "2edbe4ac-416a-4fdc-a693-9a594cb3e4ca",
    "name": "Singida",
    "state_id": "85ca8ddd-628d-42a6-adad-730bd7dc76b3"
  }
]