[
  {
    "id": "48331d79-76ba-455d-8a1d-b9298f108f72",
    "name": "Escuintla",
    "state_id": "85ed5b18-5d41-4990-bd50-82251ff99c75"
  },
  {
    "id": "5baace4d-46f4-4513-b240-57a7162c41da",
    "name": "Guanagazapa",
    "state_id": "85ed5b18-5d41-4990-bd50-82251ff99c75"
  },
  {
    "id": "a54690c7-dcd5-47dd-bc6f-3fbeec493f5d",
    "name": "Iztapa",
    "state_id": "85ed5b18-5d41-4990-bd50-82251ff99c75"
  },
  {
    "id": "e164ed48-93ae-456d-a3de-018654410c8a",
    "name": "La Democracia",
    "state_id": "85ed5b18-5d41-4990-bd50-82251ff99c75"
  },
  {
    "id": "bd9d796f-d912-4674-815c-1b234b5fc4d4",
    "name": "La Gomera",
    "state_id": "85ed5b18-5d41-4990-bd50-82251ff99c75"
  },
  {
    "id": "d8cf8588-a3b1-4232-8688-c16c8330ea9d",
    "name": "Masagua",
    "state_id": "85ed5b18-5d41-4990-bd50-82251ff99c75"
  },
  {
    "id": "16970505-876c-4eaa-9c86-8a2187c4ab71",
    "name": "Nueva Concepción",
    "state_id": "85ed5b18-5d41-4990-bd50-82251ff99c75"
  },
  {
    "id": "d84ee0aa-1953-45e1-92c5-72ef27e3ca48",
    "name": "Palín",
    "state_id": "85ed5b18-5d41-4990-bd50-82251ff99c75"
  },
  {
    "id": "ac42b90d-eb8b-49bf-86bb-dfb0610fcf65",
    "name": "Puerto San José",
    "state_id": "85ed5b18-5d41-4990-bd50-82251ff99c75"
  },
  {
    "id": "80369e47-1a1f-44e1-b746-ed5d264fd0d9",
    "name": "San Vicente Pacaya",
    "state_id": "85ed5b18-5d41-4990-bd50-82251ff99c75"
  },
  {
    "id": "ad00303a-33cf-40c2-96e5-20cd80e87ab1",
    "name": "Santa Lucía Cotzumalguapa",
    "state_id": "85ed5b18-5d41-4990-bd50-82251ff99c75"
  },
  {
    "id": "856fcf1e-c102-4835-a0c5-866eb785d9ee",
    "name": "Siquinalá",
    "state_id": "85ed5b18-5d41-4990-bd50-82251ff99c75"
  },
  {
    "id": "6c7c3d8a-6d7a-467c-a6c8-5b68cf40419a",
    "name": "Tiquisate",
    "state_id": "85ed5b18-5d41-4990-bd50-82251ff99c75"
  }
]