[
  {
    "id": "0fdf034c-63d8-48f9-85f9-98b3246ed833",
    "name": "Kavaratti",
    "state_id": "87a33b13-fe61-4a1e-8cb5-1cabbd0db2c5"
  },
  {
    "id": "06cd3f2b-8f0d-414d-886a-533357deb7df",
    "name": "Lakshadweep",
    "state_id": "87a33b13-fe61-4a1e-8cb5-1cabbd0db2c5"
  }
]