[
  {
    "id": "ba5db2d4-31a9-4909-a45e-d01955897f1b",
    "name": "Kuala Belait",
    "state_id": "881e7a11-8232-4a14-8b39-5a07eb99218a"
  },
  {
    "id": "938f6b71-c0b6-4cfd-b5f1-64cdb6647e73",
    "name": "Seria",
    "state_id": "881e7a11-8232-4a14-8b39-5a07eb99218a"
  }
]