[
  {
    "id": "175f4818-6ee7-4cb3-929f-229aefd5831d",
    "name": "Lanchkhuti",
    "state_id": "895c98c6-966d-4985-a25b-e500f8da45e4"
  },
  {
    "id": "e4e09f5a-59fa-46a4-9f1a-6b3d792e154f",
    "name": "Naruja",
    "state_id": "895c98c6-966d-4985-a25b-e500f8da45e4"
  },
  {
    "id": "1bc0f97a-5095-479b-a1d2-8449bc679df4",
    "name": "Ozurgeti",
    "state_id": "895c98c6-966d-4985-a25b-e500f8da45e4"
  },
  {
    "id": "ca91141d-d17a-47d2-bc8e-ac15d2fde729",
    "name": "Urek’i",
    "state_id": "895c98c6-966d-4985-a25b-e500f8da45e4"
  }
]