[
  {
    "id": "f19a9ffe-65ca-4d35-868b-1b6bfcd18615",
    "name": "Baie Ste. Anne",
    "state_id": "8b36deb7-51a8-4d00-9817-baf8d5984ca6"
  },
  {
    "id": "4f8bfed0-ecdd-4684-accc-c984a319dbc3",
    "name": "Bathurst",
    "state_id": "8b36deb7-51a8-4d00-9817-baf8d5984ca6"
  },
  {
    "id": "c1bdd06f-4494-4f43-bf4a-d88106533def",
    "name": "Bouctouche",
    "state_id": "8b36deb7-51a8-4d00-9817-baf8d5984ca6"
  },
  {
    "id": "662ceea4-d84e-48e4-b79e-994e078ab6e3",
    "name": "Campbellton",
    "state_id": "8b36deb7-51a8-4d00-9817-baf8d5984ca6"
  },
  {
    "id": "7c651339-b8b9-4d42-af2d-ae286e985477",
    "name": "Dieppe",
    "state_id": "8b36deb7-51a8-4d00-9817-baf8d5984ca6"
  },
  {
    "id": "358a63fe-6652-4bd3-9319-9ec5c966c091",
    "name": "Edmundston",
    "state_id": "8b36deb7-51a8-4d00-9817-baf8d5984ca6"
  },
  {
    "id": "c0fff024-bd15-4fc6-93b7-c4c3454080a4",
    "name": "Florenceville-Bristol",
    "state_id": "8b36deb7-51a8-4d00-9817-baf8d5984ca6"
  },
  {
    "id": "85b44b97-1fa7-4c66-8e55-afbe45468202",
    "name": "Fredericton",
    "state_id": "8b36deb7-51a8-4d00-9817-baf8d5984ca6"
  },
  {
    "id": "232f2f98-2ab2-4cb5-9e8a-fa5aeefacc30",
    "name": "Fundy Bay",
    "state_id": "8b36deb7-51a8-4d00-9817-baf8d5984ca6"
  },
  {
    "id": "9e2e3219-9ca7-465e-aca1-2f017b36e64d",
    "name": "Grande-Digue",
    "state_id": "8b36deb7-51a8-4d00-9817-baf8d5984ca6"
  },
  {
    "id": "a8fa1795-c700-4fb0-84bf-ef71b3349887",
    "name": "Greater Lakeburn",
    "state_id": "8b36deb7-51a8-4d00-9817-baf8d5984ca6"
  },
  {
    "id": "54d058a9-dc7e-46eb-b2ad-ee0ac9888a76",
    "name": "Hampton",
    "state_id": "8b36deb7-51a8-4d00-9817-baf8d5984ca6"
  },
  {
    "id": "4f2b619c-2048-49ab-b92f-a5a79fb083d6",
    "name": "Harrison Brook",
    "state_id": "8b36deb7-51a8-4d00-9817-baf8d5984ca6"
  },
  {
    "id": "45d08ef6-364a-4596-8a74-ce2b55bd6b4d",
    "name": "Keswick Ridge",
    "state_id": "8b36deb7-51a8-4d00-9817-baf8d5984ca6"
  },
  {
    "id": "27449999-330b-4854-86a0-b05b862d9de2",
    "name": "Lincoln",
    "state_id": "8b36deb7-51a8-4d00-9817-baf8d5984ca6"
  },
  {
    "id": "cc3d6f74-6cb1-4bba-a705-9cb5535c840c",
    "name": "Lutes Mountain",
    "state_id": "8b36deb7-51a8-4d00-9817-baf8d5984ca6"
  },
  {
    "id": "db18f2bf-cf6a-4655-810c-ee04d991a0a2",
    "name": "McEwen",
    "state_id": "8b36deb7-51a8-4d00-9817-baf8d5984ca6"
  },
  {
    "id": "60ef923e-25b3-4276-b3d2-7949c928322a",
    "name": "Miramichi",
    "state_id": "8b36deb7-51a8-4d00-9817-baf8d5984ca6"
  },
  {
    "id": "af59294a-7661-41f6-9c84-7be16325e3c0",
    "name": "Moncton",
    "state_id": "8b36deb7-51a8-4d00-9817-baf8d5984ca6"
  },
  {
    "id": "13b22800-0b7e-47f2-a3b6-7d96dd621fc5",
    "name": "Nackawic",
    "state_id": "8b36deb7-51a8-4d00-9817-baf8d5984ca6"
  },
  {
    "id": "64d62652-6faa-49e8-afa0-1fe3b40d0330",
    "name": "New Maryland",
    "state_id": "8b36deb7-51a8-4d00-9817-baf8d5984ca6"
  },
  {
    "id": "a0b98a63-7e79-41e6-aee8-f252b51e82e4",
    "name": "Noonan",
    "state_id": "8b36deb7-51a8-4d00-9817-baf8d5984ca6"
  },
  {
    "id": "dae58c07-48f0-41fc-9d1b-6ed97b1e8ede",
    "name": "Oromocto",
    "state_id": "8b36deb7-51a8-4d00-9817-baf8d5984ca6"
  },
  {
    "id": "73dcfb63-77f7-4054-97a8-3cde9f82996e",
    "name": "Richibucto",
    "state_id": "8b36deb7-51a8-4d00-9817-baf8d5984ca6"
  },
  {
    "id": "117b3ebb-cd3a-41a5-a3c2-7a957a72a6f5",
    "name": "Sackville",
    "state_id": "8b36deb7-51a8-4d00-9817-baf8d5984ca6"
  },
  {
    "id": "880ff652-aa9d-42bc-b7dd-d6a1ae659a60",
    "name": "Saint Andrews",
    "state_id": "8b36deb7-51a8-4d00-9817-baf8d5984ca6"
  },
  {
    "id": "63da1de2-9df4-49f8-8b43-d3d07882fc7a",
    "name": "Saint John",
    "state_id": "8b36deb7-51a8-4d00-9817-baf8d5984ca6"
  },
  {
    "id": "64d80db4-6572-474b-8231-dd12a2b4805c",
    "name": "Saint-Antoine",
    "state_id": "8b36deb7-51a8-4d00-9817-baf8d5984ca6"
  },
  {
    "id": "ad1657d7-482e-413d-af89-574e6072ffef",
    "name": "Saint-Léonard",
    "state_id": "8b36deb7-51a8-4d00-9817-baf8d5984ca6"
  },
  {
    "id": "ffe4832c-31ae-452c-bb2f-5e1be8a498c9",
    "name": "Salisbury",
    "state_id": "8b36deb7-51a8-4d00-9817-baf8d5984ca6"
  },
  {
    "id": "c0635d48-0271-4bd1-b6aa-1691d91023c4",
    "name": "Shediac",
    "state_id": "8b36deb7-51a8-4d00-9817-baf8d5984ca6"
  },
  {
    "id": "b470d907-e876-4c1b-82d6-23892ca8e64e",
    "name": "Shediac Bridge-Shediac River",
    "state_id": "8b36deb7-51a8-4d00-9817-baf8d5984ca6"
  },
  {
    "id": "05c46563-6e5b-41c6-84a0-3674024e2c85",
    "name": "Shippagan",
    "state_id": "8b36deb7-51a8-4d00-9817-baf8d5984ca6"
  },
  {
    "id": "cb93a80d-9fe3-442e-afb6-c185a8b8f067",
    "name": "Starlight Village",
    "state_id": "8b36deb7-51a8-4d00-9817-baf8d5984ca6"
  },
  {
    "id": "e8aa831e-29ec-4233-a81d-9f9d758da309",
    "name": "Sussex",
    "state_id": "8b36deb7-51a8-4d00-9817-baf8d5984ca6"
  },
  {
    "id": "5a8c83e4-0895-44a6-bc16-fc733126eacf",
    "name": "Tracadie-Sheila",
    "state_id": "8b36deb7-51a8-4d00-9817-baf8d5984ca6"
  },
  {
    "id": "592e3798-a2b8-40ef-b9ad-5d67c27d12c7",
    "name": "Wells",
    "state_id": "8b36deb7-51a8-4d00-9817-baf8d5984ca6"
  }
]