[
  {
    "id": "271df717-e36c-4c0b-875e-0845eeb485ce",
    "name": "Abomsa",
    "state_id": "8d446cd0-28fd-4cd8-85c6-5cdc0090fed5"
  },
  {
    "id": "44d6d457-ffa6-4ee8-8934-34e9fb39b9ee",
    "name": "Addiet Canna",
    "state_id": "8d446cd0-28fd-4cd8-85c6-5cdc0090fed5"
  },
  {
    "id": "fa805a3d-8f44-44fc-9c8e-152e9c33b2a9",
    "name": "Ādīs Zemen",
    "state_id": "8d446cd0-28fd-4cd8-85c6-5cdc0090fed5"
  },
  {
    "id": "dd56bfbc-c72e-49e6-a53f-d402b82cd518",
    "name": "Bahir Dar",
    "state_id": "8d446cd0-28fd-4cd8-85c6-5cdc0090fed5"
  },
  {
    "id": "c8898e28-0d7f-45d2-b510-594817e851d2",
    "name": "Batī",
    "state_id": "8d446cd0-28fd-4cd8-85c6-5cdc0090fed5"
  },
  {
    "id": "c0cf930e-afdf-4c85-99dd-6a8bafbcf7d0",
    "name": "Bichena",
    "state_id": "8d446cd0-28fd-4cd8-85c6-5cdc0090fed5"
  },
  {
    "id": "e36dac6b-f705-4fbf-a270-6ada80c67764",
    "name": "Burē",
    "state_id": "8d446cd0-28fd-4cd8-85c6-5cdc0090fed5"
  },
  {
    "id": "a90ea465-23f9-4e79-ac5c-a0c1e412a1e9",
    "name": "Dabat",
    "state_id": "8d446cd0-28fd-4cd8-85c6-5cdc0090fed5"
  },
  {
    "id": "146b9148-a032-4fdf-bb5a-1cb09a0edd38",
    "name": "Debark’",
    "state_id": "8d446cd0-28fd-4cd8-85c6-5cdc0090fed5"
  },
  {
    "id": "0a54bfc7-63ef-43ae-b518-da7492dad478",
    "name": "Debre Birhan",
    "state_id": "8d446cd0-28fd-4cd8-85c6-5cdc0090fed5"
  },
  {
    "id": "181874e3-d932-4ec1-ac44-9b063a852bef",
    "name": "Debre Mark’os",
    "state_id": "8d446cd0-28fd-4cd8-85c6-5cdc0090fed5"
  },
  {
    "id": "557e8913-ae36-4962-9872-ebfefb735760",
    "name": "Debre Sīna",
    "state_id": "8d446cd0-28fd-4cd8-85c6-5cdc0090fed5"
  },
  {
    "id": "a16743f1-42d7-4153-bd43-c5ce16300e56",
    "name": "Debre Tabor",
    "state_id": "8d446cd0-28fd-4cd8-85c6-5cdc0090fed5"
  },
  {
    "id": "89791445-2edd-473c-9b0c-c92d81620e04",
    "name": "Debre Werk’",
    "state_id": "8d446cd0-28fd-4cd8-85c6-5cdc0090fed5"
  },
  {
    "id": "ce20f0ec-0d3f-48ed-b796-6bf2d5388ea9",
    "name": "Dejen",
    "state_id": "8d446cd0-28fd-4cd8-85c6-5cdc0090fed5"
  },
  {
    "id": "0c58de46-e139-40f0-8871-2ac91af12783",
    "name": "Desē",
    "state_id": "8d446cd0-28fd-4cd8-85c6-5cdc0090fed5"
  },
  {
    "id": "caf14971-e254-43ae-8c7e-5cc7fd21955b",
    "name": "Finote Selam",
    "state_id": "8d446cd0-28fd-4cd8-85c6-5cdc0090fed5"
  },
  {
    "id": "5cb04d4d-c83c-49fb-be02-175cda48fd44",
    "name": "Gondar",
    "state_id": "8d446cd0-28fd-4cd8-85c6-5cdc0090fed5"
  },
  {
    "id": "8fde6ce8-d81a-4c4f-bb74-5ddea79b0dd9",
    "name": "Kemisē",
    "state_id": "8d446cd0-28fd-4cd8-85c6-5cdc0090fed5"
  },
  {
    "id": "2b97759c-e45f-44e9-a30a-9178832205a2",
    "name": "Kombolcha",
    "state_id": "8d446cd0-28fd-4cd8-85c6-5cdc0090fed5"
  },
  {
    "id": "2811f6f2-c12b-4464-a0f2-4669f38b601a",
    "name": "Lalībela",
    "state_id": "8d446cd0-28fd-4cd8-85c6-5cdc0090fed5"
  },
  {
    "id": "7cf6a92a-38a8-44b7-8eaf-8c8f8ef4eed4",
    "name": "North Shewa Zone",
    "state_id": "8d446cd0-28fd-4cd8-85c6-5cdc0090fed5"
  },
  {
    "id": "65403ed5-b187-4f44-9c9c-e43d9ead0e44",
    "name": "North Wollo Zone",
    "state_id": "8d446cd0-28fd-4cd8-85c6-5cdc0090fed5"
  },
  {
    "id": "6846a6da-7b30-4ecd-a5a5-0c11105b4ba0",
    "name": "Robīt",
    "state_id": "8d446cd0-28fd-4cd8-85c6-5cdc0090fed5"
  },
  {
    "id": "34ad5768-742a-4e47-8ca2-7dd6b6137da9",
    "name": "South Gondar Zone",
    "state_id": "8d446cd0-28fd-4cd8-85c6-5cdc0090fed5"
  },
  {
    "id": "22bd4d79-b6a0-4c7b-a7a2-8f1a9fd5266f",
    "name": "South Wollo Zone",
    "state_id": "8d446cd0-28fd-4cd8-85c6-5cdc0090fed5"
  },
  {
    "id": "7b91f9aa-adbb-4986-adb0-a7ceca61dd40",
    "name": "Wag Hemra Zone",
    "state_id": "8d446cd0-28fd-4cd8-85c6-5cdc0090fed5"
  },
  {
    "id": "d8d41487-5845-4ff2-b9d0-cb5c9df16c8a",
    "name": "Were Īlu",
    "state_id": "8d446cd0-28fd-4cd8-85c6-5cdc0090fed5"
  },
  {
    "id": "9384d4a6-30a3-49f5-be30-abb301cdc422",
    "name": "Werota",
    "state_id": "8d446cd0-28fd-4cd8-85c6-5cdc0090fed5"
  }
]