[
  {
    "id": "3faf4587-6805-4264-a3f8-ad5d2e9910ed",
    "name": "Bashkia Finiq",
    "state_id": "8d4eb763-6b6a-4f5c-b516-4738651e0983"
  },
  {
    "id": "b7c2da92-b062-4d49-adda-fe690c4944c4",
    "name": "Bashkia Himarë",
    "state_id": "8d4eb763-6b6a-4f5c-b516-4738651e0983"
  },
  {
    "id": "76dfb84c-15f8-4dfe-83f7-3c5bf8fabf9c",
    "name": "Bashkia Konispol",
    "state_id": "8d4eb763-6b6a-4f5c-b516-4738651e0983"
  },
  {
    "id": "74212e98-b50d-4081-b073-a7b8969b3f8a",
    "name": "Bashkia Selenicë",
    "state_id": "8d4eb763-6b6a-4f5c-b516-4738651e0983"
  },
  {
    "id": "7597a994-c575-4081-a899-0986a84cddd2",
    "name": "Bashkia Vlorë",
    "state_id": "8d4eb763-6b6a-4f5c-b516-4738651e0983"
  },
  {
    "id": "b4514fa8-1879-4506-bf7e-1176cff2b831",
    "name": "Delvinë",
    "state_id": "8d4eb763-6b6a-4f5c-b516-4738651e0983"
  },
  {
    "id": "5fa90818-709f-4ba0-9a7e-56f69ea97b2c",
    "name": "Himarë",
    "state_id": "8d4eb763-6b6a-4f5c-b516-4738651e0983"
  },
  {
    "id": "3fed2dd5-192d-447c-8fcc-8f4da56d6a6f",
    "name": "Konispol",
    "state_id": "8d4eb763-6b6a-4f5c-b516-4738651e0983"
  },
  {
    "id": "6a9046b1-16cf-44f1-8134-c065d2095e7b",
    "name": "Ksamil",
    "state_id": "8d4eb763-6b6a-4f5c-b516-4738651e0983"
  },
  {
    "id": "df73edab-e7c0-474d-9599-8a5dc8935ec9",
    "name": "Orikum",
    "state_id": "8d4eb763-6b6a-4f5c-b516-4738651e0983"
  },
  {
    "id": "661a29c3-2708-456f-be1a-33641bc8696d",
    "name": "Rrethi i Delvinës",
    "state_id": "8d4eb763-6b6a-4f5c-b516-4738651e0983"
  },
  {
    "id": "a81f8976-59a6-4afe-93a0-1b215717db0c",
    "name": "Sarandë",
    "state_id": "8d4eb763-6b6a-4f5c-b516-4738651e0983"
  },
  {
    "id": "68ca256b-8af5-4d64-a6c3-605611b2c6b3",
    "name": "Selenicë",
    "state_id": "8d4eb763-6b6a-4f5c-b516-4738651e0983"
  },
  {
    "id": "235171f6-febe-422f-97fd-f700a76ea099",
    "name": "Vlorë",
    "state_id": "8d4eb763-6b6a-4f5c-b516-4738651e0983"
  }
]