[
  {
    "id": "ad13d775-dcf6-487f-9bc0-a8a57363ecd9",
    "name": "Alavieska",
    "state_id": "8db6cdd8-61fe-4c85-8837-90968c4504ef"
  },
  {
    "id": "e8ecd788-3b24-4026-bcfc-6d22a826897c",
    "name": "Haapajärvi",
    "state_id": "8db6cdd8-61fe-4c85-8837-90968c4504ef"
  },
  {
    "id": "3e20c081-c2c9-4ca8-90c8-b3dfa3e94982",
    "name": "Haapavesi",
    "state_id": "8db6cdd8-61fe-4c85-8837-90968c4504ef"
  },
  {
    "id": "2ab19501-5b32-4a3d-8c85-7665bcfb5396",
    "name": "Hailuoto",
    "state_id": "8db6cdd8-61fe-4c85-8837-90968c4504ef"
  },
  {
    "id": "4f78f195-222f-4f03-8751-2549bab02332",
    "name": "Haukipudas",
    "state_id": "8db6cdd8-61fe-4c85-8837-90968c4504ef"
  },
  {
    "id": "e07da2ca-5687-415e-848c-68aeb9c33938",
    "name": "Himanka",
    "state_id": "8db6cdd8-61fe-4c85-8837-90968c4504ef"
  },
  {
    "id": "d5d96fb7-92a7-46c7-95b7-0748d62d1b19",
    "name": "Ii",
    "state_id": "8db6cdd8-61fe-4c85-8837-90968c4504ef"
  },
  {
    "id": "a03fd81a-c20a-415c-818a-9f8428288067",
    "name": "Kalajoki",
    "state_id": "8db6cdd8-61fe-4c85-8837-90968c4504ef"
  },
  {
    "id": "e5dfd8db-ae4c-44e2-978d-94d0a1c50cec",
    "name": "Kärsämäki",
    "state_id": "8db6cdd8-61fe-4c85-8837-90968c4504ef"
  },
  {
    "id": "b8779d77-8077-4d88-a823-22152e21c631",
    "name": "Kempele",
    "state_id": "8db6cdd8-61fe-4c85-8837-90968c4504ef"
  },
  {
    "id": "a944d863-1440-4213-aed9-0702029259eb",
    "name": "Kestilä",
    "state_id": "8db6cdd8-61fe-4c85-8837-90968c4504ef"
  },
  {
    "id": "37200c14-fde5-467f-a38f-52198cf4324c",
    "name": "Kiiminki",
    "state_id": "8db6cdd8-61fe-4c85-8837-90968c4504ef"
  },
  {
    "id": "b60e3027-8f00-4a88-990e-49d1b3eb0b21",
    "name": "Kuivaniemi",
    "state_id": "8db6cdd8-61fe-4c85-8837-90968c4504ef"
  },
  {
    "id": "94de1117-3545-495c-af44-253b87dc1be1",
    "name": "Kuusamo",
    "state_id": "8db6cdd8-61fe-4c85-8837-90968c4504ef"
  },
  {
    "id": "1a653429-e750-4558-9a4c-fde0c72e9493",
    "name": "Liminka",
    "state_id": "8db6cdd8-61fe-4c85-8837-90968c4504ef"
  },
  {
    "id": "3c8d127b-9a2b-4298-a11b-fbc55d680276",
    "name": "Lumijoki",
    "state_id": "8db6cdd8-61fe-4c85-8837-90968c4504ef"
  },
  {
    "id": "a51d7ff5-2db2-46c8-a0c0-ee858fb71a7e",
    "name": "Merijärvi",
    "state_id": "8db6cdd8-61fe-4c85-8837-90968c4504ef"
  },
  {
    "id": "2dcfbd9f-7e7d-4378-a3ef-4609fc5977b5",
    "name": "Muhos",
    "state_id": "8db6cdd8-61fe-4c85-8837-90968c4504ef"
  },
  {
    "id": "d396d076-8772-49f8-8dae-6ccdfafbf2ac",
    "name": "Nivala",
    "state_id": "8db6cdd8-61fe-4c85-8837-90968c4504ef"
  },
  {
    "id": "72e7290c-8be3-4637-b704-34b71d196b05",
    "name": "Oulainen",
    "state_id": "8db6cdd8-61fe-4c85-8837-90968c4504ef"
  },
  {
    "id": "1ef198ca-80f7-4d2c-8d0e-3513546faf52",
    "name": "Oulu",
    "state_id": "8db6cdd8-61fe-4c85-8837-90968c4504ef"
  },
  {
    "id": "19e85d95-eca6-4aab-827e-750dae8c6d5a",
    "name": "Oulunsalo",
    "state_id": "8db6cdd8-61fe-4c85-8837-90968c4504ef"
  },
  {
    "id": "5341ed9e-a41b-45f7-89a4-5b5de29833f0",
    "name": "Piippola",
    "state_id": "8db6cdd8-61fe-4c85-8837-90968c4504ef"
  },
  {
    "id": "29c6613b-af69-47d0-83ae-c7918388e24b",
    "name": "Pudasjärvi",
    "state_id": "8db6cdd8-61fe-4c85-8837-90968c4504ef"
  },
  {
    "id": "9aa7476c-d548-4efd-b5a9-04c8e66ec6b7",
    "name": "Pulkkila",
    "state_id": "8db6cdd8-61fe-4c85-8837-90968c4504ef"
  },
  {
    "id": "1df9890b-cfec-410b-9760-9c1dd991d557",
    "name": "Pyhäjärvi",
    "state_id": "8db6cdd8-61fe-4c85-8837-90968c4504ef"
  },
  {
    "id": "0934163c-1880-42c1-bb4e-31e4a4e2d353",
    "name": "Pyhäjoki",
    "state_id": "8db6cdd8-61fe-4c85-8837-90968c4504ef"
  },
  {
    "id": "817a7082-357a-4093-80db-c029c772bd52",
    "name": "Pyhäntä",
    "state_id": "8db6cdd8-61fe-4c85-8837-90968c4504ef"
  },
  {
    "id": "3ea66d69-9cc5-4f66-8454-f3362f2d88f9",
    "name": "Raahe",
    "state_id": "8db6cdd8-61fe-4c85-8837-90968c4504ef"
  },
  {
    "id": "1e652fcb-31b4-43bd-b036-7871169fdf07",
    "name": "Rantsila",
    "state_id": "8db6cdd8-61fe-4c85-8837-90968c4504ef"
  },
  {
    "id": "8bc4b633-a0de-4406-a2cd-64600fbfd402",
    "name": "Reisjärvi",
    "state_id": "8db6cdd8-61fe-4c85-8837-90968c4504ef"
  },
  {
    "id": "34260235-73bb-410c-8ffa-8e75670b923d",
    "name": "Ruukki",
    "state_id": "8db6cdd8-61fe-4c85-8837-90968c4504ef"
  },
  {
    "id": "00fca1cb-e3de-413b-9d98-7ff20ca86b2f",
    "name": "Sievi",
    "state_id": "8db6cdd8-61fe-4c85-8837-90968c4504ef"
  },
  {
    "id": "663902a9-2408-4cf2-8e77-379d0eb22b91",
    "name": "Siikajoki",
    "state_id": "8db6cdd8-61fe-4c85-8837-90968c4504ef"
  },
  {
    "id": "01374b3a-35d8-4af5-95ee-d99ffaeb0118",
    "name": "Taivalkoski",
    "state_id": "8db6cdd8-61fe-4c85-8837-90968c4504ef"
  },
  {
    "id": "c9c2bde8-b72e-4815-8fbf-a8a5ec6607aa",
    "name": "Tyrnävä",
    "state_id": "8db6cdd8-61fe-4c85-8837-90968c4504ef"
  },
  {
    "id": "d076b4ea-c831-4cd7-892a-7d0a7db79b84",
    "name": "Utajärvi",
    "state_id": "8db6cdd8-61fe-4c85-8837-90968c4504ef"
  },
  {
    "id": "37237491-11a4-48e7-8883-e08e4f71bbf0",
    "name": "Vihanti",
    "state_id": "8db6cdd8-61fe-4c85-8837-90968c4504ef"
  },
  {
    "id": "7d5ba478-59e2-4e09-9d0f-ed6ded6d4774",
    "name": "Yli-Ii",
    "state_id": "8db6cdd8-61fe-4c85-8837-90968c4504ef"
  },
  {
    "id": "9b2a77b0-91cb-4cc5-8cf4-06a54cd532d7",
    "name": "Ylikiiminki",
    "state_id": "8db6cdd8-61fe-4c85-8837-90968c4504ef"
  },
  {
    "id": "15a0e231-63a3-46a7-be29-e65e049bc9a8",
    "name": "Ylivieska",
    "state_id": "8db6cdd8-61fe-4c85-8837-90968c4504ef"
  }
]