[
  {
    "id": "cd0d4717-7166-47aa-93ec-298c36cd625e",
    "name": "Cabral",
    "state_id": "8dc3f5f4-1117-442c-ba1e-80e81ae3318d"
  },
  {
    "id": "e8ebbd24-3be3-46ce-9e8f-a45e02a2ecfd",
    "name": "Cachón",
    "state_id": "8dc3f5f4-1117-442c-ba1e-80e81ae3318d"
  },
  {
    "id": "9499138a-75e1-43ca-9ebb-a0921810e16e",
    "name": "Canoa",
    "state_id": "8dc3f5f4-1117-442c-ba1e-80e81ae3318d"
  },
  {
    "id": "f828f8ca-2cee-4919-a5c5-2e8585632d81",
    "name": "El Peñón",
    "state_id": "8dc3f5f4-1117-442c-ba1e-80e81ae3318d"
  },
  {
    "id": "fd9e9946-5c61-4426-9cc2-2cf221aaf9d6",
    "name": "Enriquillo",
    "state_id": "8dc3f5f4-1117-442c-ba1e-80e81ae3318d"
  },
  {
    "id": "d814a253-dafb-49d7-b77d-15b6b1861031",
    "name": "Fundación",
    "state_id": "8dc3f5f4-1117-442c-ba1e-80e81ae3318d"
  },
  {
    "id": "1b11d546-ec2f-4327-85e4-c55a412f6621",
    "name": "Jaquimeyes",
    "state_id": "8dc3f5f4-1117-442c-ba1e-80e81ae3318d"
  },
  {
    "id": "a6976155-7c36-44fe-8e95-117f009122ef",
    "name": "La Ciénaga",
    "state_id": "8dc3f5f4-1117-442c-ba1e-80e81ae3318d"
  },
  {
    "id": "0947fbcb-e304-4477-a8c7-0779e6ad31f0",
    "name": "Las Salinas",
    "state_id": "8dc3f5f4-1117-442c-ba1e-80e81ae3318d"
  },
  {
    "id": "73234f20-a049-4351-ba3a-4a4e63cc49e0",
    "name": "Paraíso",
    "state_id": "8dc3f5f4-1117-442c-ba1e-80e81ae3318d"
  },
  {
    "id": "12c406a2-5501-4327-bf65-e12e0f89a9d0",
    "name": "Pescadería",
    "state_id": "8dc3f5f4-1117-442c-ba1e-80e81ae3318d"
  },
  {
    "id": "ee769e94-8366-4e3a-bf48-ea028375dc70",
    "name": "Polo",
    "state_id": "8dc3f5f4-1117-442c-ba1e-80e81ae3318d"
  },
  {
    "id": "2a7b7748-1ed5-40b5-9bbc-329b81fa057e",
    "name": "Santa Cruz de Barahona",
    "state_id": "8dc3f5f4-1117-442c-ba1e-80e81ae3318d"
  },
  {
    "id": "d84543b0-375e-45b9-8c0f-703e9837e287",
    "name": "Vicente Noble",
    "state_id": "8dc3f5f4-1117-442c-ba1e-80e81ae3318d"
  }
]