[
  {
    "id": "8fe744a8-28b4-40b7-bd2a-5820f25703ba",
    "name": "Adams Morgan",
    "state_id": "8dd2ae84-134e-408e-a5e6-5d3216651ff2"
  },
  {
    "id": "d5421968-3094-454a-9a3a-f4b8bb53daf2",
    "name": "Bloomingdale",
    "state_id": "8dd2ae84-134e-408e-a5e6-5d3216651ff2"
  },
  {
    "id": "7c012aad-a306-4a18-9853-a69bcb657bfb",
    "name": "Chevy Chase",
    "state_id": "8dd2ae84-134e-408e-a5e6-5d3216651ff2"
  },
  {
    "id": "a2b600bd-3ef6-4c34-b6fd-999d00fc61a0",
    "name": "Shaw",
    "state_id": "8dd2ae84-134e-408e-a5e6-5d3216651ff2"
  },
  {
    "id": "e375690e-b1e5-45af-937d-9bb1169b3650",
    "name": "Washington, D.C.",
    "state_id": "8dd2ae84-134e-408e-a5e6-5d3216651ff2"
  }
]