[
  {
    "id": "32ce7058-22da-4ed2-9662-9efa489bb2db",
    "name": "Mbanza Congo",
    "state_id": "8e048abf-f0c2-4bdd-a157-81e3ee605594"
  },
  {
    "id": "716a77c6-ad83-4228-b3e2-fd8015e2e464",
    "name": "N'zeto",
    "state_id": "8e048abf-f0c2-4bdd-a157-81e3ee605594"
  },
  {
    "id": "646178ad-f987-4322-b8ac-5989be0c87ec",
    "name": "Soio",
    "state_id": "8e048abf-f0c2-4bdd-a157-81e3ee605594"
  }
]