[
  {
    "id": "738bd207-d5aa-4dff-b0a2-55bad0b19953",
    "name": "Alligator Pond",
    "state_id": "8f9cf802-9853-4d6e-af94-1db08b333302"
  },
  {
    "id": "7dd4e49d-b864-419f-9f4e-5c435a8a6251",
    "name": "Asia/Pratville",
    "state_id": "8f9cf802-9853-4d6e-af94-1db08b333302"
  },
  {
    "id": "3bc054bf-82f0-470c-af61-b7c2d947de79",
    "name": "Auchtembeddie",
    "state_id": "8f9cf802-9853-4d6e-af94-1db08b333302"
  },
  {
    "id": "a1025848-00bf-43c0-ab69-15133964a867",
    "name": "Bellefield",
    "state_id": "8f9cf802-9853-4d6e-af94-1db08b333302"
  },
  {
    "id": "4ea1dffc-4980-49ef-949e-869c20d8ce42",
    "name": "Bethany",
    "state_id": "8f9cf802-9853-4d6e-af94-1db08b333302"
  },
  {
    "id": "6b90ff23-a080-48c8-8b3a-90d6d2bda04b",
    "name": "Blue Mountain",
    "state_id": "8f9cf802-9853-4d6e-af94-1db08b333302"
  },
  {
    "id": "65e2fb36-a31a-4138-ac85-3e1977a84759",
    "name": "Bombay",
    "state_id": "8f9cf802-9853-4d6e-af94-1db08b333302"
  },
  {
    "id": "28f0473d-1971-47ec-9ddc-336c5ca087df",
    "name": "Butt-Up",
    "state_id": "8f9cf802-9853-4d6e-af94-1db08b333302"
  },
  {
    "id": "7c72ab8a-dfc2-4af6-9cb2-778225053a29",
    "name": "Cedar Grove",
    "state_id": "8f9cf802-9853-4d6e-af94-1db08b333302"
  },
  {
    "id": "2500f7a0-13f2-44d1-b1ad-a5233ae3e99b",
    "name": "Chantilly",
    "state_id": "8f9cf802-9853-4d6e-af94-1db08b333302"
  },
  {
    "id": "5854aaf9-8ea2-4373-892a-336a8202fcab",
    "name": "Christiana",
    "state_id": "8f9cf802-9853-4d6e-af94-1db08b333302"
  },
  {
    "id": "c0ba6b9d-1040-4ad7-b6ef-288de0ee8d8e",
    "name": "Chudleigh",
    "state_id": "8f9cf802-9853-4d6e-af94-1db08b333302"
  },
  {
    "id": "095d2ee6-0cd8-402a-a417-740daf320664",
    "name": "Cobbla",
    "state_id": "8f9cf802-9853-4d6e-af94-1db08b333302"
  },
  {
    "id": "ba284cb7-7f0f-454b-afc2-8a5d42a77418",
    "name": "Coleyville",
    "state_id": "8f9cf802-9853-4d6e-af94-1db08b333302"
  },
  {
    "id": "f3460cca-7849-42fd-a83b-be192bdf0096",
    "name": "Comfort",
    "state_id": "8f9cf802-9853-4d6e-af94-1db08b333302"
  },
  {
    "id": "b7e19bdd-e1e3-437a-9170-2e8424b40613",
    "name": "Comfort Hall",
    "state_id": "8f9cf802-9853-4d6e-af94-1db08b333302"
  },
  {
    "id": "8dbd4a94-a54c-4079-b4ae-1f91da4f5900",
    "name": "Content",
    "state_id": "8f9cf802-9853-4d6e-af94-1db08b333302"
  },
  {
    "id": "9fe33e3e-06e5-439d-a862-4e154f7fc29d",
    "name": "Craig Head",
    "state_id": "8f9cf802-9853-4d6e-af94-1db08b333302"
  },
  {
    "id": "503eacff-7238-4963-8056-3bd146b064f8",
    "name": "Cross Keys",
    "state_id": "8f9cf802-9853-4d6e-af94-1db08b333302"
  },
  {
    "id": "be7a2b88-b252-4907-82ca-327543eacc44",
    "name": "Devon",
    "state_id": "8f9cf802-9853-4d6e-af94-1db08b333302"
  },
  {
    "id": "2f2cf165-2012-4ccd-9fdf-2e892c898e48",
    "name": "Downs",
    "state_id": "8f9cf802-9853-4d6e-af94-1db08b333302"
  },
  {
    "id": "56cc2b08-6c9f-4381-be74-efe126838445",
    "name": "Ellen Street",
    "state_id": "8f9cf802-9853-4d6e-af94-1db08b333302"
  },
  {
    "id": "379f9afa-14d5-40b7-9a24-349edc18b371",
    "name": "Evergreen",
    "state_id": "8f9cf802-9853-4d6e-af94-1db08b333302"
  },
  {
    "id": "1f89b933-6595-457b-aa39-f59c4a9a6567",
    "name": "Fairfield",
    "state_id": "8f9cf802-9853-4d6e-af94-1db08b333302"
  },
  {
    "id": "aaa75ea1-d161-4b5a-8796-a3a14bf74b70",
    "name": "French Park",
    "state_id": "8f9cf802-9853-4d6e-af94-1db08b333302"
  },
  {
    "id": "9d46d93f-e1a5-445f-aecd-ad2fb125beb5",
    "name": "George's Valley",
    "state_id": "8f9cf802-9853-4d6e-af94-1db08b333302"
  },
  {
    "id": "f18bfa16-6df9-40c1-8aaa-101f8c431f29",
    "name": "Good Intent",
    "state_id": "8f9cf802-9853-4d6e-af94-1db08b333302"
  },
  {
    "id": "bd9ad15c-cd39-4a86-8036-12ebb63e6491",
    "name": "Greenvale",
    "state_id": "8f9cf802-9853-4d6e-af94-1db08b333302"
  },
  {
    "id": "2dc19ae0-902e-4f0d-8b25-f09db8e23b3e",
    "name": "Grove Place",
    "state_id": "8f9cf802-9853-4d6e-af94-1db08b333302"
  },
  {
    "id": "56d480d3-0ff8-4868-89b1-ec77ec1aabf1",
    "name": "Grove Town",
    "state_id": "8f9cf802-9853-4d6e-af94-1db08b333302"
  },
  {
    "id": "74b79e20-d921-4d04-8086-b2446f1a273c",
    "name": "Harmons",
    "state_id": "8f9cf802-9853-4d6e-af94-1db08b333302"
  },
  {
    "id": "fd47fc2c-269f-4a2b-bf32-995a87e37994",
    "name": "Harry Watch",
    "state_id": "8f9cf802-9853-4d6e-af94-1db08b333302"
  },
  {
    "id": "8d867d7c-3129-4ec5-a670-0ac14b050ff1",
    "name": "Hatfield",
    "state_id": "8f9cf802-9853-4d6e-af94-1db08b333302"
  },
  {
    "id": "82b537be-a18c-4a43-a708-07469941fe45",
    "name": "Heartease",
    "state_id": "8f9cf802-9853-4d6e-af94-1db08b333302"
  },
  {
    "id": "adeee60a-30cd-4a72-a599-75868c41511e",
    "name": "Hibernia",
    "state_id": "8f9cf802-9853-4d6e-af94-1db08b333302"
  },
  {
    "id": "109d9c7a-f8f2-46a5-87b6-e05c580fce7c",
    "name": "Huntley",
    "state_id": "8f9cf802-9853-4d6e-af94-1db08b333302"
  },
  {
    "id": "a5f7b88d-a7fd-4815-a549-bd84ad65b46e",
    "name": "Kendal",
    "state_id": "8f9cf802-9853-4d6e-af94-1db08b333302"
  },
  {
    "id": "a73f33ed-28b8-443d-8aed-4450fb33a4ad",
    "name": "Knockpatrick",
    "state_id": "8f9cf802-9853-4d6e-af94-1db08b333302"
  },
  {
    "id": "04c73f4c-d973-4735-ac89-e5e353472cdc",
    "name": "Lancaster",
    "state_id": "8f9cf802-9853-4d6e-af94-1db08b333302"
  },
  {
    "id": "31db46c2-e929-4da5-b749-bd83ecb8555f",
    "name": "Litchfield",
    "state_id": "8f9cf802-9853-4d6e-af94-1db08b333302"
  },
  {
    "id": "16a073d9-3594-4aa1-9bfb-9b6a9fec10eb",
    "name": "Maidstone",
    "state_id": "8f9cf802-9853-4d6e-af94-1db08b333302"
  },
  {
    "id": "b0e55d08-0bf3-4f03-9103-5d7311e80654",
    "name": "Mandeville",
    "state_id": "8f9cf802-9853-4d6e-af94-1db08b333302"
  },
  {
    "id": "30241108-f417-413a-883b-24f7a96200de",
    "name": "Mandeville Proper",
    "state_id": "8f9cf802-9853-4d6e-af94-1db08b333302"
  },
  {
    "id": "be933063-3270-4063-a007-c4c57db9b636",
    "name": "Marlie Hill",
    "state_id": "8f9cf802-9853-4d6e-af94-1db08b333302"
  },
  {
    "id": "38f390d9-a8b9-458c-8973-393f3dc3464f",
    "name": "May Day",
    "state_id": "8f9cf802-9853-4d6e-af94-1db08b333302"
  },
  {
    "id": "b3112a2d-8694-4bae-b351-ed785d229503",
    "name": "Medina",
    "state_id": "8f9cf802-9853-4d6e-af94-1db08b333302"
  },
  {
    "id": "6f8f81ac-e8bb-4328-95a9-2fe80d3cf77a",
    "name": "Mike Town",
    "state_id": "8f9cf802-9853-4d6e-af94-1db08b333302"
  },
  {
    "id": "7de61c65-b35f-4b6d-b3eb-f8bfa4379e76",
    "name": "Mile Gully",
    "state_id": "8f9cf802-9853-4d6e-af94-1db08b333302"
  },
  {
    "id": "92c01113-885c-467f-8c93-49faf3b081eb",
    "name": "New Forest",
    "state_id": "8f9cf802-9853-4d6e-af94-1db08b333302"
  },
  {
    "id": "640ed4ec-2658-40be-9445-6dd8c62a1886",
    "name": "New Green",
    "state_id": "8f9cf802-9853-4d6e-af94-1db08b333302"
  },
  {
    "id": "09b786f1-8682-4ede-ad29-f707c2a7b5be",
    "name": "Newport",
    "state_id": "8f9cf802-9853-4d6e-af94-1db08b333302"
  },
  {
    "id": "81a18849-decc-44d2-9247-54dc5e7c03b4",
    "name": "Old England",
    "state_id": "8f9cf802-9853-4d6e-af94-1db08b333302"
  },
  {
    "id": "c42c69e8-cadc-4dca-bef9-ff20627b33d8",
    "name": "Part Of Banana Ground",
    "state_id": "8f9cf802-9853-4d6e-af94-1db08b333302"
  },
  {
    "id": "c7e47452-23c8-4685-8090-6cbb20428614",
    "name": "Part Of Gutters",
    "state_id": "8f9cf802-9853-4d6e-af94-1db08b333302"
  },
  {
    "id": "6d310044-706d-4805-af87-018927e0e283",
    "name": "Part of Spaldings",
    "state_id": "8f9cf802-9853-4d6e-af94-1db08b333302"
  },
  {
    "id": "309c073f-3954-41a2-bc15-a08e161e2977",
    "name": "Pike",
    "state_id": "8f9cf802-9853-4d6e-af94-1db08b333302"
  },
  {
    "id": "7f2b69c9-474f-4d40-ab85-f2995d36a383",
    "name": "Plowden",
    "state_id": "8f9cf802-9853-4d6e-af94-1db08b333302"
  },
  {
    "id": "edb15eba-27dd-45ca-b6aa-2713e9dcef82",
    "name": "Porus",
    "state_id": "8f9cf802-9853-4d6e-af94-1db08b333302"
  },
  {
    "id": "bb0d3440-6bad-4d08-9ba4-7e185bc886db",
    "name": "Prospect",
    "state_id": "8f9cf802-9853-4d6e-af94-1db08b333302"
  },
  {
    "id": "4fe813ac-7c5c-4650-bb3b-8c358dbe85a8",
    "name": "Richmond",
    "state_id": "8f9cf802-9853-4d6e-af94-1db08b333302"
  },
  {
    "id": "d94d1407-3afd-4732-a809-bf7d98d200fc",
    "name": "Robins Hall",
    "state_id": "8f9cf802-9853-4d6e-af94-1db08b333302"
  },
  {
    "id": "764d31a8-6cec-4c60-87d6-45ebe06ad5d1",
    "name": "Rose Hill",
    "state_id": "8f9cf802-9853-4d6e-af94-1db08b333302"
  },
  {
    "id": "6c220b3e-2c22-4594-9204-d17b7f10ab50",
    "name": "Royal Flat",
    "state_id": "8f9cf802-9853-4d6e-af94-1db08b333302"
  },
  {
    "id": "0b6b5baa-5c1d-4284-b4cd-dce72131b637",
    "name": "Scotts Pass",
    "state_id": "8f9cf802-9853-4d6e-af94-1db08b333302"
  },
  {
    "id": "6751c5db-c18e-4509-a2a9-4da5add98610",
    "name": "Snowdon",
    "state_id": "8f9cf802-9853-4d6e-af94-1db08b333302"
  },
  {
    "id": "f1b648f7-39ab-41ad-be6c-fdbd9d787782",
    "name": "Somerset",
    "state_id": "8f9cf802-9853-4d6e-af94-1db08b333302"
  },
  {
    "id": "5e431318-cf01-4b5f-83d5-d088ff48b664",
    "name": "Spring Ground",
    "state_id": "8f9cf802-9853-4d6e-af94-1db08b333302"
  },
  {
    "id": "2c635b7a-9d4d-4f4d-99bf-bda40d6b2a1b",
    "name": "Spur Tree",
    "state_id": "8f9cf802-9853-4d6e-af94-1db08b333302"
  },
  {
    "id": "0959ede9-8d2f-4ab7-bc87-ebe9104215f2",
    "name": "St. Paul's",
    "state_id": "8f9cf802-9853-4d6e-af94-1db08b333302"
  },
  {
    "id": "108105c0-b5ad-4f63-b069-a5583db0b11c",
    "name": "Swaby's Hope",
    "state_id": "8f9cf802-9853-4d6e-af94-1db08b333302"
  },
  {
    "id": "1d30ad2f-c05d-4a7b-8811-dbf248cb191a",
    "name": "Top Hill",
    "state_id": "8f9cf802-9853-4d6e-af94-1db08b333302"
  },
  {
    "id": "20e79297-bf8f-40c2-93c7-5fbfced57e4f",
    "name": "Victoria Town",
    "state_id": "8f9cf802-9853-4d6e-af94-1db08b333302"
  },
  {
    "id": "e70da815-0cc0-42bb-bc99-13d37fcaf38c",
    "name": "Walderston",
    "state_id": "8f9cf802-9853-4d6e-af94-1db08b333302"
  },
  {
    "id": "abf9209f-5db0-4009-9b3f-cbac042a37a7",
    "name": "Watham",
    "state_id": "8f9cf802-9853-4d6e-af94-1db08b333302"
  },
  {
    "id": "4c875b52-af30-4ad1-a93c-2f798bd38748",
    "name": "Williamsfield",
    "state_id": "8f9cf802-9853-4d6e-af94-1db08b333302"
  }
]