[
  {
    "id": "7fb33658-1a35-4011-b24c-3aee095d8dc9",
    "name": "Forssa",
    "state_id": "8fb74b29-3dcd-4e36-b6b9-8f3f61475734"
  },
  {
    "id": "6a779b3d-f6d0-4fc6-975f-e49a0bc74f06",
    "name": "Hämeenlinna",
    "state_id": "8fb74b29-3dcd-4e36-b6b9-8f3f61475734"
  },
  {
    "id": "70b72ee0-9012-4e76-84fb-c3346e0d6ac9",
    "name": "Hauho",
    "state_id": "8fb74b29-3dcd-4e36-b6b9-8f3f61475734"
  },
  {
    "id": "004a70a5-ddae-4195-8b85-755958e10fc4",
    "name": "Hausjärvi",
    "state_id": "8fb74b29-3dcd-4e36-b6b9-8f3f61475734"
  },
  {
    "id": "eca1ad55-6eb4-48eb-8b98-d0cdd55de4fd",
    "name": "Humppila",
    "state_id": "8fb74b29-3dcd-4e36-b6b9-8f3f61475734"
  },
  {
    "id": "522350a6-5136-4077-be9d-a6b3a866b641",
    "name": "Janakkala",
    "state_id": "8fb74b29-3dcd-4e36-b6b9-8f3f61475734"
  },
  {
    "id": "3c1ace51-305c-4ac0-9797-6948634e2f3a",
    "name": "Jokioinen",
    "state_id": "8fb74b29-3dcd-4e36-b6b9-8f3f61475734"
  },
  {
    "id": "e71118d4-03fa-4aa8-a170-b5f057b8ffbb",
    "name": "Kalvola",
    "state_id": "8fb74b29-3dcd-4e36-b6b9-8f3f61475734"
  },
  {
    "id": "d97db419-08c7-4345-b674-f5afa0db228a",
    "name": "Lammi",
    "state_id": "8fb74b29-3dcd-4e36-b6b9-8f3f61475734"
  },
  {
    "id": "d7f49395-961a-4797-9813-7cb03ab80b19",
    "name": "Loppi",
    "state_id": "8fb74b29-3dcd-4e36-b6b9-8f3f61475734"
  },
  {
    "id": "79bedd29-1447-4ecb-8706-6d0cd95d5895",
    "name": "Renko",
    "state_id": "8fb74b29-3dcd-4e36-b6b9-8f3f61475734"
  },
  {
    "id": "40b39902-f99d-4382-8b54-63f9f25261de",
    "name": "Riihimäki",
    "state_id": "8fb74b29-3dcd-4e36-b6b9-8f3f61475734"
  },
  {
    "id": "6dab391e-0a95-40dc-a37e-256f7d485078",
    "name": "Tammela",
    "state_id": "8fb74b29-3dcd-4e36-b6b9-8f3f61475734"
  },
  {
    "id": "71615e09-c35b-4dcf-bf7c-0137e124474e",
    "name": "Tervakoski",
    "state_id": "8fb74b29-3dcd-4e36-b6b9-8f3f61475734"
  },
  {
    "id": "e6996c4f-45cf-408b-83a6-71cc99abf8c9",
    "name": "Tuulos",
    "state_id": "8fb74b29-3dcd-4e36-b6b9-8f3f61475734"
  },
  {
    "id": "8b361add-43a2-4e8b-a3cd-1dd040527c2a",
    "name": "Ypäjä",
    "state_id": "8fb74b29-3dcd-4e36-b6b9-8f3f61475734"
  }
]