[
  {
    "id": "daabf539-21a4-48eb-b145-fc7d8dd59a6e",
    "name": "Albeşti",
    "state_id": "9092cb2f-85fa-4df7-b825-d7208b9b97f7"
  },
  {
    "id": "8b8c80e6-75da-4c2e-9e63-a04730763c51",
    "name": "Alexandru Vlăhuţă",
    "state_id": "9092cb2f-85fa-4df7-b825-d7208b9b97f7"
  },
  {
    "id": "b76edcb7-f03d-4a9f-b53d-20bc82e83fd0",
    "name": "Arsura",
    "state_id": "9092cb2f-85fa-4df7-b825-d7208b9b97f7"
  },
  {
    "id": "d84db6b1-6f1b-4645-8f1a-af71e13147c7",
    "name": "Băcani",
    "state_id": "9092cb2f-85fa-4df7-b825-d7208b9b97f7"
  },
  {
    "id": "24c3899f-0967-433f-b81c-7164e66292f5",
    "name": "Băceşti",
    "state_id": "9092cb2f-85fa-4df7-b825-d7208b9b97f7"
  },
  {
    "id": "6dd9810e-e85b-46d8-9981-69dbcc77da85",
    "name": "Bădeana",
    "state_id": "9092cb2f-85fa-4df7-b825-d7208b9b97f7"
  },
  {
    "id": "eacc0519-a1bd-42eb-9672-096eaddb2e09",
    "name": "Băile Drânceni",
    "state_id": "9092cb2f-85fa-4df7-b825-d7208b9b97f7"
  },
  {
    "id": "42f7c078-5a8b-4846-9ebd-cd46d0995d89",
    "name": "Bălteni",
    "state_id": "9092cb2f-85fa-4df7-b825-d7208b9b97f7"
  },
  {
    "id": "cf36f378-d98b-4475-be68-c00feccd9097",
    "name": "Banca",
    "state_id": "9092cb2f-85fa-4df7-b825-d7208b9b97f7"
  },
  {
    "id": "6ec63233-8357-4d45-b8d3-c527b84f4def",
    "name": "Bârlad",
    "state_id": "9092cb2f-85fa-4df7-b825-d7208b9b97f7"
  },
  {
    "id": "158dd142-0794-4046-8812-2ece853ec60c",
    "name": "Bârzești",
    "state_id": "9092cb2f-85fa-4df7-b825-d7208b9b97f7"
  },
  {
    "id": "7374adab-4f36-4a89-8b78-7893fc436a72",
    "name": "Berezeni",
    "state_id": "9092cb2f-85fa-4df7-b825-d7208b9b97f7"
  },
  {
    "id": "19adc72b-1554-444b-a469-29411a7802f1",
    "name": "Blăgeşti",
    "state_id": "9092cb2f-85fa-4df7-b825-d7208b9b97f7"
  },
  {
    "id": "181a4198-78a5-414e-9cb8-661b293209d9",
    "name": "Bogdana",
    "state_id": "9092cb2f-85fa-4df7-b825-d7208b9b97f7"
  },
  {
    "id": "41a0f022-a743-4501-817a-4a065ed3c8eb",
    "name": "Bogdănești",
    "state_id": "9092cb2f-85fa-4df7-b825-d7208b9b97f7"
  },
  {
    "id": "93d497af-83a7-493e-a03e-5e60c26d8857",
    "name": "Bogdăniţa",
    "state_id": "9092cb2f-85fa-4df7-b825-d7208b9b97f7"
  },
  {
    "id": "0ff03e77-00d5-45a0-957d-8b8f308cc61b",
    "name": "Boţeşti",
    "state_id": "9092cb2f-85fa-4df7-b825-d7208b9b97f7"
  },
  {
    "id": "a59f7742-bf81-4ae1-a4ef-67f7889e1cb7",
    "name": "Brodoc",
    "state_id": "9092cb2f-85fa-4df7-b825-d7208b9b97f7"
  },
  {
    "id": "cfd2939a-fc2e-44dd-b8b4-9509b4067614",
    "name": "Buda",
    "state_id": "9092cb2f-85fa-4df7-b825-d7208b9b97f7"
  },
  {
    "id": "bf1a9d0b-ea2c-48d5-9792-34458fa08261",
    "name": "Buneşti",
    "state_id": "9092cb2f-85fa-4df7-b825-d7208b9b97f7"
  },
  {
    "id": "b517e751-72f2-4c90-b3ec-d18f2e185628",
    "name": "Cârja",
    "state_id": "9092cb2f-85fa-4df7-b825-d7208b9b97f7"
  },
  {
    "id": "72ac6e2e-2d56-481a-8a5f-8736b0aed8c7",
    "name": "Chircești",
    "state_id": "9092cb2f-85fa-4df7-b825-d7208b9b97f7"
  },
  {
    "id": "3583e563-1d10-4703-bcbd-bd5bcd0c1734",
    "name": "Chițoc",
    "state_id": "9092cb2f-85fa-4df7-b825-d7208b9b97f7"
  },
  {
    "id": "70e9dafe-bd51-41ba-a8e2-c0c8c9691520",
    "name": "Ciocani",
    "state_id": "9092cb2f-85fa-4df7-b825-d7208b9b97f7"
  },
  {
    "id": "7e43e6f7-a1ee-4f65-9010-9c0899e32678",
    "name": "Codăeşti",
    "state_id": "9092cb2f-85fa-4df7-b825-d7208b9b97f7"
  },
  {
    "id": "66aaa397-c25d-476f-a56e-80b348eb7409",
    "name": "Comuna Albeşti",
    "state_id": "9092cb2f-85fa-4df7-b825-d7208b9b97f7"
  },
  {
    "id": "6be8eb0d-d35f-4ba2-9450-e455edb13231",
    "name": "Comuna Alexandru Vlăhuţă",
    "state_id": "9092cb2f-85fa-4df7-b825-d7208b9b97f7"
  },
  {
    "id": "a18be138-13e1-4c32-ade4-7b2831d18469",
    "name": "Comuna Arsura",
    "state_id": "9092cb2f-85fa-4df7-b825-d7208b9b97f7"
  },
  {
    "id": "f298c174-0423-4ff8-ac45-40eca4ec0412",
    "name": "Comuna Băcani",
    "state_id": "9092cb2f-85fa-4df7-b825-d7208b9b97f7"
  },
  {
    "id": "9634a373-297e-4300-86b5-4c25fd78fe12",
    "name": "Comuna Băceşti",
    "state_id": "9092cb2f-85fa-4df7-b825-d7208b9b97f7"
  },
  {
    "id": "9f3a54c9-f48a-490c-a573-df9b3a62f857",
    "name": "Comuna Bălteni",
    "state_id": "9092cb2f-85fa-4df7-b825-d7208b9b97f7"
  },
  {
    "id": "6a811f2a-fb3d-49c1-9cf4-5fff36970a3c",
    "name": "Comuna Banca",
    "state_id": "9092cb2f-85fa-4df7-b825-d7208b9b97f7"
  },
  {
    "id": "13380af3-9482-4093-b01f-3caeb04c4fca",
    "name": "Comuna Berezeni",
    "state_id": "9092cb2f-85fa-4df7-b825-d7208b9b97f7"
  },
  {
    "id": "0bb4e875-5ee1-4db2-9e5a-9c1cf1ce5462",
    "name": "Comuna Blăgeşti",
    "state_id": "9092cb2f-85fa-4df7-b825-d7208b9b97f7"
  },
  {
    "id": "6a390608-d0ba-4845-bf11-e7e4bce507cf",
    "name": "Comuna Bogdana",
    "state_id": "9092cb2f-85fa-4df7-b825-d7208b9b97f7"
  },
  {
    "id": "dce478e6-d01d-4ca2-9bbb-f9a9f3db3c05",
    "name": "Comuna Bogdăneşti",
    "state_id": "9092cb2f-85fa-4df7-b825-d7208b9b97f7"
  },
  {
    "id": "509a53eb-43eb-40cf-a3f7-cb0271775c11",
    "name": "Comuna Bogdăniţa",
    "state_id": "9092cb2f-85fa-4df7-b825-d7208b9b97f7"
  },
  {
    "id": "20abffe8-994f-414b-9580-1037f8e0de12",
    "name": "Comuna Boţeşti",
    "state_id": "9092cb2f-85fa-4df7-b825-d7208b9b97f7"
  },
  {
    "id": "33c5e4ad-96d0-42e2-a608-eba4ffb48ecf",
    "name": "Comuna Bunești Averești",
    "state_id": "9092cb2f-85fa-4df7-b825-d7208b9b97f7"
  },
  {
    "id": "e93b5266-9fd3-49cf-974d-ff463ee21d5b",
    "name": "Comuna Ciocani",
    "state_id": "9092cb2f-85fa-4df7-b825-d7208b9b97f7"
  },
  {
    "id": "37d15bf6-a717-4828-b87d-0a7f8c13e337",
    "name": "Comuna Codăeşti",
    "state_id": "9092cb2f-85fa-4df7-b825-d7208b9b97f7"
  },
  {
    "id": "e0b71c28-dbf9-4204-b1b6-90e66c9ab038",
    "name": "Comuna Coroieşti",
    "state_id": "9092cb2f-85fa-4df7-b825-d7208b9b97f7"
  },
  {
    "id": "3402eefe-7ca0-4280-b1e8-0c4e7891d0db",
    "name": "Comuna Costeşti",
    "state_id": "9092cb2f-85fa-4df7-b825-d7208b9b97f7"
  },
  {
    "id": "2bdee7b2-16e9-431a-9486-1705bcc989b1",
    "name": "Comuna Cozmeşti",
    "state_id": "9092cb2f-85fa-4df7-b825-d7208b9b97f7"
  },
  {
    "id": "7c1851cd-3816-43fc-b3e5-1d2d1064225b",
    "name": "Comuna Creţeşti",
    "state_id": "9092cb2f-85fa-4df7-b825-d7208b9b97f7"
  },
  {
    "id": "be159f14-0581-45d2-9e1d-99b239fe739b",
    "name": "Comuna Dăneşti",
    "state_id": "9092cb2f-85fa-4df7-b825-d7208b9b97f7"
  },
  {
    "id": "d120d7eb-41de-471c-88bb-f22cff47f0df",
    "name": "Comuna Deleni",
    "state_id": "9092cb2f-85fa-4df7-b825-d7208b9b97f7"
  },
  {
    "id": "0567e51d-140e-421c-a157-0f05dcc36587",
    "name": "Comuna Deleşti",
    "state_id": "9092cb2f-85fa-4df7-b825-d7208b9b97f7"
  },
  {
    "id": "2db223e3-65cb-4490-80a6-cc73895e8773",
    "name": "Comuna Dimitrie Cantemir",
    "state_id": "9092cb2f-85fa-4df7-b825-d7208b9b97f7"
  },
  {
    "id": "5d7991ed-213b-43f9-b6a3-0bcfcc8b87f1",
    "name": "Comuna Dodeşti",
    "state_id": "9092cb2f-85fa-4df7-b825-d7208b9b97f7"
  },
  {
    "id": "6b83c27f-8716-48ff-8e5b-ad0b42bc02ca",
    "name": "Comuna Dragomireşti",
    "state_id": "9092cb2f-85fa-4df7-b825-d7208b9b97f7"
  },
  {
    "id": "00a776fc-8736-4b96-856b-a13d141811b1",
    "name": "Comuna Drânceni",
    "state_id": "9092cb2f-85fa-4df7-b825-d7208b9b97f7"
  },
  {
    "id": "5d256939-dc74-4819-90dd-bcbf48e19be4",
    "name": "Comuna Duda  Epureni",
    "state_id": "9092cb2f-85fa-4df7-b825-d7208b9b97f7"
  },
  {
    "id": "f725bfde-6586-4015-8892-24d1984c840f",
    "name": "Comuna Dumeşti",
    "state_id": "9092cb2f-85fa-4df7-b825-d7208b9b97f7"
  },
  {
    "id": "409330bb-f31c-4bb0-b0ee-23024b85cdd1",
    "name": "Comuna Epureni",
    "state_id": "9092cb2f-85fa-4df7-b825-d7208b9b97f7"
  },
  {
    "id": "ce201c2a-53bf-4631-b931-b31ed32ff979",
    "name": "Comuna Fălciu",
    "state_id": "9092cb2f-85fa-4df7-b825-d7208b9b97f7"
  },
  {
    "id": "9e58dca1-0b4d-467a-a4ae-70e384aad6a7",
    "name": "Comuna Fereşti",
    "state_id": "9092cb2f-85fa-4df7-b825-d7208b9b97f7"
  },
  {
    "id": "fa4455fb-7e4e-4fab-b2f9-6fb1a5c0f39b",
    "name": "Comuna Fruntişeni",
    "state_id": "9092cb2f-85fa-4df7-b825-d7208b9b97f7"
  },
  {
    "id": "4b9af930-19fc-47e8-b356-a5fa7e5f7eb1",
    "name": "Comuna Găgeşti",
    "state_id": "9092cb2f-85fa-4df7-b825-d7208b9b97f7"
  },
  {
    "id": "f559444c-2f2c-4a27-a721-b9f25ee20d95",
    "name": "Comuna Gârceni",
    "state_id": "9092cb2f-85fa-4df7-b825-d7208b9b97f7"
  },
  {
    "id": "aaa0c5f4-f07f-4c77-b08d-ff7b43b2137a",
    "name": "Comuna Ghergheşti",
    "state_id": "9092cb2f-85fa-4df7-b825-d7208b9b97f7"
  },
  {
    "id": "e05c69b0-b8d8-48c3-8d95-545b411a81c6",
    "name": "Comuna Griviţa",
    "state_id": "9092cb2f-85fa-4df7-b825-d7208b9b97f7"
  },
  {
    "id": "f71771da-abf4-45ff-9574-c530fcd313ba",
    "name": "Comuna Hoceni",
    "state_id": "9092cb2f-85fa-4df7-b825-d7208b9b97f7"
  },
  {
    "id": "972b31cd-adea-4f66-926f-35f7e4bcc379",
    "name": "Comuna Iana",
    "state_id": "9092cb2f-85fa-4df7-b825-d7208b9b97f7"
  },
  {
    "id": "f4aeafdb-4722-46ea-b4e0-63f8eb969b08",
    "name": "Comuna Ibăneşti",
    "state_id": "9092cb2f-85fa-4df7-b825-d7208b9b97f7"
  },
  {
    "id": "0eaf5c16-cb65-4a7e-b18b-68120ca4fd72",
    "name": "Comuna Ivăneşti",
    "state_id": "9092cb2f-85fa-4df7-b825-d7208b9b97f7"
  },
  {
    "id": "487fec96-331a-426a-8c3c-1df94f492ea8",
    "name": "Comuna Iveşti",
    "state_id": "9092cb2f-85fa-4df7-b825-d7208b9b97f7"
  },
  {
    "id": "e2004569-17f9-4d21-9176-7747e6a8c854",
    "name": "Comuna Laza",
    "state_id": "9092cb2f-85fa-4df7-b825-d7208b9b97f7"
  },
  {
    "id": "b17ebda3-88a0-40d5-bf94-2416e7846f65",
    "name": "Comuna Lipovăţ",
    "state_id": "9092cb2f-85fa-4df7-b825-d7208b9b97f7"
  },
  {
    "id": "ca544cdb-a14d-441d-8512-b991401a18d6",
    "name": "Comuna Lunca Banului",
    "state_id": "9092cb2f-85fa-4df7-b825-d7208b9b97f7"
  },
  {
    "id": "e85cbf5f-89ae-4c57-8c2d-6701447915b5",
    "name": "Comuna Măluşteni",
    "state_id": "9092cb2f-85fa-4df7-b825-d7208b9b97f7"
  },
  {
    "id": "bf22c3d2-fb0c-47bd-ab34-043798aef431",
    "name": "Comuna Micleşti",
    "state_id": "9092cb2f-85fa-4df7-b825-d7208b9b97f7"
  },
  {
    "id": "770c2aaf-9204-489a-9458-db0463c211dc",
    "name": "Comuna Muntenii de Jos",
    "state_id": "9092cb2f-85fa-4df7-b825-d7208b9b97f7"
  },
  {
    "id": "f81c8d32-fdc5-48a3-8966-6c352d038457",
    "name": "Comuna Muntenii de Sus",
    "state_id": "9092cb2f-85fa-4df7-b825-d7208b9b97f7"
  },
  {
    "id": "4a35fb8c-c82a-4e76-8526-97998faedbd5",
    "name": "Comuna Olteneşti",
    "state_id": "9092cb2f-85fa-4df7-b825-d7208b9b97f7"
  },
  {
    "id": "f8a23876-bd94-43eb-a1d3-411c902be9c6",
    "name": "Comuna Oşeşti",
    "state_id": "9092cb2f-85fa-4df7-b825-d7208b9b97f7"
  },
  {
    "id": "577932e1-2ace-429a-a963-de09526a80ca",
    "name": "Comuna Pădureni",
    "state_id": "9092cb2f-85fa-4df7-b825-d7208b9b97f7"
  },
  {
    "id": "29878d0b-64fb-404f-a0dc-e8d52c6ac687",
    "name": "Comuna Perieni",
    "state_id": "9092cb2f-85fa-4df7-b825-d7208b9b97f7"
  },
  {
    "id": "3da044a9-a430-46a5-9d5c-0bfc7ecc66ca",
    "name": "Comuna Pochidia",
    "state_id": "9092cb2f-85fa-4df7-b825-d7208b9b97f7"
  },
  {
    "id": "1a6b2539-2fa2-45da-b313-1a602b55545c",
    "name": "Comuna Pogana",
    "state_id": "9092cb2f-85fa-4df7-b825-d7208b9b97f7"
  },
  {
    "id": "e5428ce4-1c54-47d6-b8db-1d7b65a8366e",
    "name": "Comuna Pogoneşti",
    "state_id": "9092cb2f-85fa-4df7-b825-d7208b9b97f7"
  },
  {
    "id": "b4998bc3-f54c-4003-8d43-3296c48c2f4d",
    "name": "Comuna Poieneşti",
    "state_id": "9092cb2f-85fa-4df7-b825-d7208b9b97f7"
  },
  {
    "id": "842a5765-cd98-4790-8982-bb63daa54935",
    "name": "Comuna Puieşti",
    "state_id": "9092cb2f-85fa-4df7-b825-d7208b9b97f7"
  },
  {
    "id": "9bf13103-04e3-4ea5-8aa7-bb4bc7ce5149",
    "name": "Comuna Pungeşti",
    "state_id": "9092cb2f-85fa-4df7-b825-d7208b9b97f7"
  },
  {
    "id": "43a9f1be-a617-43d6-beb5-4a30d59a9fcf",
    "name": "Comuna Puşcaşi",
    "state_id": "9092cb2f-85fa-4df7-b825-d7208b9b97f7"
  },
  {
    "id": "9ca505e0-e8eb-4910-9afd-305298f376be",
    "name": "Comuna Rafaila",
    "state_id": "9092cb2f-85fa-4df7-b825-d7208b9b97f7"
  },
  {
    "id": "82a31a08-5d13-4320-8d9a-09432a1410ae",
    "name": "Comuna Rebricea",
    "state_id": "9092cb2f-85fa-4df7-b825-d7208b9b97f7"
  },
  {
    "id": "5edddf70-0fa1-43b7-97d4-484833e92fa8",
    "name": "Comuna Roşieşti",
    "state_id": "9092cb2f-85fa-4df7-b825-d7208b9b97f7"
  },
  {
    "id": "9b0eb064-b9c7-4a46-bb7c-d6a92cef9035",
    "name": "Comuna Soleşti",
    "state_id": "9092cb2f-85fa-4df7-b825-d7208b9b97f7"
  },
  {
    "id": "89246990-393f-4fcd-8781-d16ef1a60943",
    "name": "Comuna Stănileşti",
    "state_id": "9092cb2f-85fa-4df7-b825-d7208b9b97f7"
  },
  {
    "id": "15a6dc24-0669-4a4b-a1a4-3fe579b4a895",
    "name": "Comuna Ştefan cel Mare",
    "state_id": "9092cb2f-85fa-4df7-b825-d7208b9b97f7"
  },
  {
    "id": "73e7df63-e1f6-438d-9f69-054b4ae12e99",
    "name": "Comuna Şuletea",
    "state_id": "9092cb2f-85fa-4df7-b825-d7208b9b97f7"
  },
  {
    "id": "635ff596-79e1-42b9-bb61-5f4d3e45cbaa",
    "name": "Comuna Tăcuta",
    "state_id": "9092cb2f-85fa-4df7-b825-d7208b9b97f7"
  },
  {
    "id": "19e0b237-9f37-4335-b7c4-3c70e3ead0c8",
    "name": "Comuna Tanacu",
    "state_id": "9092cb2f-85fa-4df7-b825-d7208b9b97f7"
  },
  {
    "id": "d5c88946-1a2f-4003-9d09-070cb1ccc6ae",
    "name": "Comuna Tătărăni",
    "state_id": "9092cb2f-85fa-4df7-b825-d7208b9b97f7"
  },
  {
    "id": "350beaf7-b674-48cd-b864-fb785793a887",
    "name": "Comuna Todireşti",
    "state_id": "9092cb2f-85fa-4df7-b825-d7208b9b97f7"
  },
  {
    "id": "e3fda791-fb51-425b-a8ad-265718f18180",
    "name": "Comuna Tutova",
    "state_id": "9092cb2f-85fa-4df7-b825-d7208b9b97f7"
  },
  {
    "id": "b9606df6-32b2-408d-8824-2a300714b7f3",
    "name": "Comuna Vãleni",
    "state_id": "9092cb2f-85fa-4df7-b825-d7208b9b97f7"
  },
  {
    "id": "e6b4f017-0bd6-42ee-9a29-5c66a46032ef",
    "name": "Comuna Vetrişoaia",
    "state_id": "9092cb2f-85fa-4df7-b825-d7208b9b97f7"
  },
  {
    "id": "8e7afc79-78bd-4a6d-a14d-932f269a0708",
    "name": "Comuna Viişoara",
    "state_id": "9092cb2f-85fa-4df7-b825-d7208b9b97f7"
  },
  {
    "id": "d7de1579-4920-4741-8fe3-5b29ca5ae523",
    "name": "Comuna Vinderei",
    "state_id": "9092cb2f-85fa-4df7-b825-d7208b9b97f7"
  },
  {
    "id": "68c7c49c-0a25-4345-8334-9a6d979e73e8",
    "name": "Comuna Voineşti",
    "state_id": "9092cb2f-85fa-4df7-b825-d7208b9b97f7"
  },
  {
    "id": "5c372ef4-5ee2-4c5c-beb6-d68137e02508",
    "name": "Comuna Vultureşti",
    "state_id": "9092cb2f-85fa-4df7-b825-d7208b9b97f7"
  },
  {
    "id": "46fad5b3-7c83-4593-8ced-7a2fc3e2b3d6",
    "name": "Comuna Vutcani",
    "state_id": "9092cb2f-85fa-4df7-b825-d7208b9b97f7"
  },
  {
    "id": "9ec09e27-3918-49a1-80be-fc4d7744de9e",
    "name": "Comuna Zăpodeni",
    "state_id": "9092cb2f-85fa-4df7-b825-d7208b9b97f7"
  },
  {
    "id": "82821ca8-ca82-4aac-af7d-4262dc800f88",
    "name": "Comuna Zorleni",
    "state_id": "9092cb2f-85fa-4df7-b825-d7208b9b97f7"
  },
  {
    "id": "9465e6c6-3f10-459d-ade2-508de29c1603",
    "name": "Corni-Albești",
    "state_id": "9092cb2f-85fa-4df7-b825-d7208b9b97f7"
  },
  {
    "id": "591da0bf-888b-4cee-8c8c-97f9fd9e0e6f",
    "name": "Coroieşti",
    "state_id": "9092cb2f-85fa-4df7-b825-d7208b9b97f7"
  },
  {
    "id": "e2cae435-f977-41cc-9f62-a378f9e3948e",
    "name": "Costeşti",
    "state_id": "9092cb2f-85fa-4df7-b825-d7208b9b97f7"
  },
  {
    "id": "d9b43981-0bbd-4e85-b1a7-98af46d67da3",
    "name": "Cozmești",
    "state_id": "9092cb2f-85fa-4df7-b825-d7208b9b97f7"
  },
  {
    "id": "d280bc2d-b9da-457e-8e47-10104339334e",
    "name": "Crețești",
    "state_id": "9092cb2f-85fa-4df7-b825-d7208b9b97f7"
  },
  {
    "id": "94ac661d-ee0b-4eb1-9bb1-0182c3f849d5",
    "name": "Dăneşti",
    "state_id": "9092cb2f-85fa-4df7-b825-d7208b9b97f7"
  },
  {
    "id": "d4887bfa-09e8-4a9b-88b9-ce19aa06a495",
    "name": "Deleni",
    "state_id": "9092cb2f-85fa-4df7-b825-d7208b9b97f7"
  },
  {
    "id": "c8003e23-1388-4875-9413-284b3e6057c8",
    "name": "Deleşti",
    "state_id": "9092cb2f-85fa-4df7-b825-d7208b9b97f7"
  },
  {
    "id": "338fc374-c74b-4129-832c-64d61db2c580",
    "name": "Dodești",
    "state_id": "9092cb2f-85fa-4df7-b825-d7208b9b97f7"
  },
  {
    "id": "29f9927b-ef1e-4592-a630-e30a7749c82c",
    "name": "Dragomireşti",
    "state_id": "9092cb2f-85fa-4df7-b825-d7208b9b97f7"
  },
  {
    "id": "6cc7b1ee-8f5a-4caa-b39f-92415f33dae9",
    "name": "Drânceni",
    "state_id": "9092cb2f-85fa-4df7-b825-d7208b9b97f7"
  },
  {
    "id": "0f0f114d-ce72-4fde-8e21-add55fa3bd10",
    "name": "Duda",
    "state_id": "9092cb2f-85fa-4df7-b825-d7208b9b97f7"
  },
  {
    "id": "f8421f43-459a-4927-aba7-d85681a74fa8",
    "name": "Dumeşti",
    "state_id": "9092cb2f-85fa-4df7-b825-d7208b9b97f7"
  },
  {
    "id": "ce7cc967-3128-463e-817b-06db34fe9989",
    "name": "Emil Racoviță",
    "state_id": "9092cb2f-85fa-4df7-b825-d7208b9b97f7"
  },
  {
    "id": "3e630335-f4ab-480a-9df4-5bb6f093a2e9",
    "name": "Epureni",
    "state_id": "9092cb2f-85fa-4df7-b825-d7208b9b97f7"
  },
  {
    "id": "a8d98de3-6a0e-4ed3-8a05-76f697012717",
    "name": "Fălciu",
    "state_id": "9092cb2f-85fa-4df7-b825-d7208b9b97f7"
  },
  {
    "id": "3811f281-7753-4124-a1c7-4f7e78163ce7",
    "name": "Fâstâci",
    "state_id": "9092cb2f-85fa-4df7-b825-d7208b9b97f7"
  },
  {
    "id": "40934b9b-d572-40f4-9f6e-3e39aa2a4e65",
    "name": "Ferești",
    "state_id": "9092cb2f-85fa-4df7-b825-d7208b9b97f7"
  },
  {
    "id": "5961535b-3388-4db3-9f1a-104a2d17f167",
    "name": "Fruntișeni",
    "state_id": "9092cb2f-85fa-4df7-b825-d7208b9b97f7"
  },
  {
    "id": "b8657962-a6b6-43f6-b62b-e09d85cd81cf",
    "name": "Găgeşti",
    "state_id": "9092cb2f-85fa-4df7-b825-d7208b9b97f7"
  },
  {
    "id": "354be5ac-e1b8-4bc5-baec-44e7a4f20e6c",
    "name": "Gârceni",
    "state_id": "9092cb2f-85fa-4df7-b825-d7208b9b97f7"
  },
  {
    "id": "c7504ad8-e6e7-424a-b32c-0d0049099ef7",
    "name": "Ghergheşti",
    "state_id": "9092cb2f-85fa-4df7-b825-d7208b9b97f7"
  },
  {
    "id": "195e3c71-3eb3-4d81-8090-0a2a062d44de",
    "name": "Ghermănești",
    "state_id": "9092cb2f-85fa-4df7-b825-d7208b9b97f7"
  },
  {
    "id": "b28f9bb7-7f65-4a76-8cfb-837a1a12a9be",
    "name": "Griviţa",
    "state_id": "9092cb2f-85fa-4df7-b825-d7208b9b97f7"
  },
  {
    "id": "2d26b02b-98c0-4061-962f-31badda88c05",
    "name": "Gugești",
    "state_id": "9092cb2f-85fa-4df7-b825-d7208b9b97f7"
  },
  {
    "id": "7cfed4ca-366c-4084-b2d9-970ee5a1934e",
    "name": "Hălărești",
    "state_id": "9092cb2f-85fa-4df7-b825-d7208b9b97f7"
  },
  {
    "id": "31a45597-d752-4f45-a0e6-4f2ef31a3507",
    "name": "Hoceni",
    "state_id": "9092cb2f-85fa-4df7-b825-d7208b9b97f7"
  },
  {
    "id": "aa7b9b37-1b77-4997-994b-260f2326f7a0",
    "name": "Hurdugi",
    "state_id": "9092cb2f-85fa-4df7-b825-d7208b9b97f7"
  },
  {
    "id": "d4a92ce3-ece1-49ba-954d-b5ec8c7467d6",
    "name": "Huşi",
    "state_id": "9092cb2f-85fa-4df7-b825-d7208b9b97f7"
  },
  {
    "id": "ef7e9dbd-8790-4562-9bbf-463389e732e1",
    "name": "Iana",
    "state_id": "9092cb2f-85fa-4df7-b825-d7208b9b97f7"
  },
  {
    "id": "7cd7bc8c-aeaa-4469-8ff8-609c144858bb",
    "name": "Ibănești",
    "state_id": "9092cb2f-85fa-4df7-b825-d7208b9b97f7"
  },
  {
    "id": "13ef4990-aeae-4f1f-8d36-20b6d6c34722",
    "name": "Ivănești",
    "state_id": "9092cb2f-85fa-4df7-b825-d7208b9b97f7"
  },
  {
    "id": "0a188c44-e1a6-4c48-9e80-eefb8f4d7288",
    "name": "Iveşti",
    "state_id": "9092cb2f-85fa-4df7-b825-d7208b9b97f7"
  },
  {
    "id": "de31969f-9f04-4945-aee5-cbf8ab036648",
    "name": "Laza",
    "state_id": "9092cb2f-85fa-4df7-b825-d7208b9b97f7"
  },
  {
    "id": "8da5c2c9-c019-4e22-9693-4f2ac6ea0151",
    "name": "Lipovăţ",
    "state_id": "9092cb2f-85fa-4df7-b825-d7208b9b97f7"
  },
  {
    "id": "2ee59642-5041-49cf-b1ce-8815d7d950ea",
    "name": "Lunca Banului",
    "state_id": "9092cb2f-85fa-4df7-b825-d7208b9b97f7"
  },
  {
    "id": "6ac87807-d4b7-4d5b-8346-3f0b8d8e87e3",
    "name": "Măluşteni",
    "state_id": "9092cb2f-85fa-4df7-b825-d7208b9b97f7"
  },
  {
    "id": "7bc477bf-e853-4eb3-b262-2116b44acd02",
    "name": "Micleşti",
    "state_id": "9092cb2f-85fa-4df7-b825-d7208b9b97f7"
  },
  {
    "id": "68a0d596-3cd0-496f-877b-92e574be4487",
    "name": "Moara Domnească",
    "state_id": "9092cb2f-85fa-4df7-b825-d7208b9b97f7"
  },
  {
    "id": "04eebd6f-0864-4ed2-a658-5df2615278d1",
    "name": "Moara Grecilor",
    "state_id": "9092cb2f-85fa-4df7-b825-d7208b9b97f7"
  },
  {
    "id": "c1e09915-fdf1-4eda-9c7a-0ac373cd9d90",
    "name": "Municipiul Bârlad",
    "state_id": "9092cb2f-85fa-4df7-b825-d7208b9b97f7"
  },
  {
    "id": "c30ecf1f-f436-4fa0-bbcc-07ebca5ab58c",
    "name": "Municipiul Huşi",
    "state_id": "9092cb2f-85fa-4df7-b825-d7208b9b97f7"
  },
  {
    "id": "13699b5d-1a34-4e76-a087-fadf34913083",
    "name": "Municipiul Vaslui",
    "state_id": "9092cb2f-85fa-4df7-b825-d7208b9b97f7"
  },
  {
    "id": "6e664ec9-3e23-4c60-ac8c-6fc7ad93f983",
    "name": "Muntenii de Jos",
    "state_id": "9092cb2f-85fa-4df7-b825-d7208b9b97f7"
  },
  {
    "id": "19483bd8-af95-45f6-8355-bd19123702c4",
    "name": "Muntenii de Sus",
    "state_id": "9092cb2f-85fa-4df7-b825-d7208b9b97f7"
  },
  {
    "id": "463a7fdf-f44d-43e1-b869-17d24d3e327b",
    "name": "Murgeni",
    "state_id": "9092cb2f-85fa-4df7-b825-d7208b9b97f7"
  },
  {
    "id": "c7698907-2c01-4c4c-a5d5-6c35d3281a7a",
    "name": "Negreşti",
    "state_id": "9092cb2f-85fa-4df7-b825-d7208b9b97f7"
  },
  {
    "id": "d79d0301-9e4a-49b0-8808-b8b3aef34ebc",
    "name": "Olteneşti",
    "state_id": "9092cb2f-85fa-4df7-b825-d7208b9b97f7"
  },
  {
    "id": "35e62525-97d6-4880-a71f-046e1cf1dd7e",
    "name": "Oraș Murgeni",
    "state_id": "9092cb2f-85fa-4df7-b825-d7208b9b97f7"
  },
  {
    "id": "51b5720e-0d55-4f90-99f7-3ce671bc25ec",
    "name": "Oraş Negreşti",
    "state_id": "9092cb2f-85fa-4df7-b825-d7208b9b97f7"
  },
  {
    "id": "59a13a35-fc17-4a02-95a1-c1521c52a1d9",
    "name": "Oşeşti",
    "state_id": "9092cb2f-85fa-4df7-b825-d7208b9b97f7"
  },
  {
    "id": "ad93298a-2680-4498-91e0-06a06f8c5f6a",
    "name": "Pădureni",
    "state_id": "9092cb2f-85fa-4df7-b825-d7208b9b97f7"
  },
  {
    "id": "e70260d9-236a-47d0-9294-de23c7c595f2",
    "name": "Perieni",
    "state_id": "9092cb2f-85fa-4df7-b825-d7208b9b97f7"
  },
  {
    "id": "d4d05770-4c4b-47b3-b038-3048ad464912",
    "name": "Pochidia",
    "state_id": "9092cb2f-85fa-4df7-b825-d7208b9b97f7"
  },
  {
    "id": "fc2e839d-2588-4741-992c-e5a1562526b3",
    "name": "Pogana",
    "state_id": "9092cb2f-85fa-4df7-b825-d7208b9b97f7"
  },
  {
    "id": "235330fd-1005-4703-bd61-f0800add8e7d",
    "name": "Pogănești",
    "state_id": "9092cb2f-85fa-4df7-b825-d7208b9b97f7"
  },
  {
    "id": "5386ce07-6175-4abd-be8d-e1e5f998d870",
    "name": "Pogonești",
    "state_id": "9092cb2f-85fa-4df7-b825-d7208b9b97f7"
  },
  {
    "id": "a3b245d6-236b-44c4-9277-b3ae64a3cfeb",
    "name": "Poieneşti",
    "state_id": "9092cb2f-85fa-4df7-b825-d7208b9b97f7"
  },
  {
    "id": "03088dbe-476f-4537-8c96-203c8056c5d7",
    "name": "Popeni",
    "state_id": "9092cb2f-85fa-4df7-b825-d7208b9b97f7"
  },
  {
    "id": "009836c3-a17e-4660-ba06-946c9a86e8ef",
    "name": "Pribești",
    "state_id": "9092cb2f-85fa-4df7-b825-d7208b9b97f7"
  },
  {
    "id": "85c772e4-751e-4cb1-93d8-088e56485f88",
    "name": "Puieşti",
    "state_id": "9092cb2f-85fa-4df7-b825-d7208b9b97f7"
  },
  {
    "id": "068c9487-3b2b-4919-a15e-e1e6fb8a3dd5",
    "name": "Pungeşti",
    "state_id": "9092cb2f-85fa-4df7-b825-d7208b9b97f7"
  },
  {
    "id": "6992fb32-f447-4c29-8b9d-0c3d346f4735",
    "name": "Pușcași",
    "state_id": "9092cb2f-85fa-4df7-b825-d7208b9b97f7"
  },
  {
    "id": "ceca5ba4-ad56-45a9-b3e6-909ed1fa2c93",
    "name": "Rafaila",
    "state_id": "9092cb2f-85fa-4df7-b825-d7208b9b97f7"
  },
  {
    "id": "39b96dd6-6f81-4957-8141-dc996a77b818",
    "name": "Rânzești",
    "state_id": "9092cb2f-85fa-4df7-b825-d7208b9b97f7"
  },
  {
    "id": "581256a7-838e-49c8-ac48-b27f6a3cff74",
    "name": "Râșești",
    "state_id": "9092cb2f-85fa-4df7-b825-d7208b9b97f7"
  },
  {
    "id": "aa4fd769-c500-49a7-b2cc-b9b5846a4f3d",
    "name": "Rebricea",
    "state_id": "9092cb2f-85fa-4df7-b825-d7208b9b97f7"
  },
  {
    "id": "1f21f7b5-7a4c-4be5-b6d8-3c39e529dc04",
    "name": "Rediu",
    "state_id": "9092cb2f-85fa-4df7-b825-d7208b9b97f7"
  },
  {
    "id": "0973c626-f810-4af8-be34-dd518e8b4581",
    "name": "Roşieşti",
    "state_id": "9092cb2f-85fa-4df7-b825-d7208b9b97f7"
  },
  {
    "id": "594ccd63-ec17-4afd-b7fa-777970dcc60a",
    "name": "Satu Nou",
    "state_id": "9092cb2f-85fa-4df7-b825-d7208b9b97f7"
  },
  {
    "id": "19931eed-27c6-4152-acf3-f45a154494ee",
    "name": "Sauca",
    "state_id": "9092cb2f-85fa-4df7-b825-d7208b9b97f7"
  },
  {
    "id": "efc290c3-ad1d-4ebb-aa2c-6ce9c2d2c1e7",
    "name": "Soleşti",
    "state_id": "9092cb2f-85fa-4df7-b825-d7208b9b97f7"
  },
  {
    "id": "0c14d2df-20fa-4459-bc98-b27d7a64e7df",
    "name": "Stănileşti",
    "state_id": "9092cb2f-85fa-4df7-b825-d7208b9b97f7"
  },
  {
    "id": "e5a71542-d945-4802-8b84-94c3ad5c08ca",
    "name": "Ştefan cel Mare",
    "state_id": "9092cb2f-85fa-4df7-b825-d7208b9b97f7"
  },
  {
    "id": "57872757-1dcf-487b-9a5f-e2a7bf7fd814",
    "name": "Şuletea",
    "state_id": "9092cb2f-85fa-4df7-b825-d7208b9b97f7"
  },
  {
    "id": "43398c63-07bb-49b2-9081-ab6b206fe760",
    "name": "Tăcuta",
    "state_id": "9092cb2f-85fa-4df7-b825-d7208b9b97f7"
  },
  {
    "id": "7abc11c1-5b14-43e8-af34-9ee73693fcd5",
    "name": "Tanacu",
    "state_id": "9092cb2f-85fa-4df7-b825-d7208b9b97f7"
  },
  {
    "id": "c389ed02-0c7a-4e51-ae2e-ac3cd959550f",
    "name": "Tătărăni",
    "state_id": "9092cb2f-85fa-4df7-b825-d7208b9b97f7"
  },
  {
    "id": "7ceab2b9-959c-45de-932b-2b692b6d055a",
    "name": "Todireşti",
    "state_id": "9092cb2f-85fa-4df7-b825-d7208b9b97f7"
  },
  {
    "id": "4344c63b-52b9-4918-8823-280f4c6e6a13",
    "name": "Trestiana",
    "state_id": "9092cb2f-85fa-4df7-b825-d7208b9b97f7"
  },
  {
    "id": "72c5e5e8-1616-4226-9603-f0884d413251",
    "name": "Tutova",
    "state_id": "9092cb2f-85fa-4df7-b825-d7208b9b97f7"
  },
  {
    "id": "8349e143-8fa4-499a-bbc8-a34da45df51d",
    "name": "Valea Grecului",
    "state_id": "9092cb2f-85fa-4df7-b825-d7208b9b97f7"
  },
  {
    "id": "dab9d411-a922-46a4-9ac9-53db2f0d9a02",
    "name": "Văleni",
    "state_id": "9092cb2f-85fa-4df7-b825-d7208b9b97f7"
  },
  {
    "id": "0b4e59c2-0c11-4f3a-ba38-360114d47183",
    "name": "Vaslui",
    "state_id": "9092cb2f-85fa-4df7-b825-d7208b9b97f7"
  },
  {
    "id": "abc90ea1-a220-4ebd-8886-89475afecd2e",
    "name": "Vetrişoaia",
    "state_id": "9092cb2f-85fa-4df7-b825-d7208b9b97f7"
  },
  {
    "id": "3a998f8d-5b67-4287-8dc2-ace970a99000",
    "name": "Viişoara",
    "state_id": "9092cb2f-85fa-4df7-b825-d7208b9b97f7"
  },
  {
    "id": "acbb853c-9cd7-4094-bf8a-8fe3a1bc7fc4",
    "name": "Vinderei",
    "state_id": "9092cb2f-85fa-4df7-b825-d7208b9b97f7"
  },
  {
    "id": "fc534382-4493-4c7f-b229-ae58eb4290f5",
    "name": "Voineşti",
    "state_id": "9092cb2f-85fa-4df7-b825-d7208b9b97f7"
  },
  {
    "id": "b37662e1-34f2-41a1-a2c3-89b152765cc4",
    "name": "Vultureşti",
    "state_id": "9092cb2f-85fa-4df7-b825-d7208b9b97f7"
  },
  {
    "id": "b756264e-a17f-425a-a836-4784045d72a5",
    "name": "Vutcani",
    "state_id": "9092cb2f-85fa-4df7-b825-d7208b9b97f7"
  },
  {
    "id": "32600ed8-d04c-4704-bb12-3492eca55503",
    "name": "Zăpodeni",
    "state_id": "9092cb2f-85fa-4df7-b825-d7208b9b97f7"
  },
  {
    "id": "1ec2d83d-6cf4-42b9-a1f7-d32d7f1aa0be",
    "name": "Zorleni",
    "state_id": "9092cb2f-85fa-4df7-b825-d7208b9b97f7"
  }
]