[
  {
    "id": "d566dacf-aa9f-4070-94bb-85e146618b5f",
    "name": "Acachapan y Colmena 3ra. Sección",
    "state_id": "909b225c-b2e6-480c-a6d9-63d858445c6a"
  },
  {
    "id": "214ba431-bcc5-4b8e-955b-5858c7ccbd36",
    "name": "Álvaro Obregón (Santa Cruz)",
    "state_id": "909b225c-b2e6-480c-a6d9-63d858445c6a"
  },
  {
    "id": "977f2600-2267-45a0-a428-0a5d59ca381e",
    "name": "Álvaro Obregón 2da. Sección (El Lechugal)",
    "state_id": "909b225c-b2e6-480c-a6d9-63d858445c6a"
  },
  {
    "id": "0d99c289-f278-444d-9f7a-1c9571c942bf",
    "name": "Amado Gómez",
    "state_id": "909b225c-b2e6-480c-a6d9-63d858445c6a"
  },
  {
    "id": "e3bc22e3-9221-4ddc-b9d7-333a5e2c1400",
    "name": "Anacleto Canabal 2da. Sección",
    "state_id": "909b225c-b2e6-480c-a6d9-63d858445c6a"
  },
  {
    "id": "3c02cccc-2c10-447a-95bc-928ddb66a7f6",
    "name": "Anacleto Canabal 3ra. Sección",
    "state_id": "909b225c-b2e6-480c-a6d9-63d858445c6a"
  },
  {
    "id": "41199005-a822-4a46-8348-6107be88069e",
    "name": "Andrés Quintana Roo",
    "state_id": "909b225c-b2e6-480c-a6d9-63d858445c6a"
  },
  {
    "id": "67acb83d-3c47-4724-ba67-9d131c1dc5ae",
    "name": "Apatzingán",
    "state_id": "909b225c-b2e6-480c-a6d9-63d858445c6a"
  },
  {
    "id": "339ba48a-d42d-4de2-97dd-23ecaf87f7c4",
    "name": "Aquiles Serdán",
    "state_id": "909b225c-b2e6-480c-a6d9-63d858445c6a"
  },
  {
    "id": "4835c6f7-4210-433e-96e6-a00e36d1ea21",
    "name": "Aquiles Serdán (San Fernando)",
    "state_id": "909b225c-b2e6-480c-a6d9-63d858445c6a"
  },
  {
    "id": "f921b54a-9923-40c5-acc0-1a085493065f",
    "name": "Aquiles Serdán 1ra. Sección",
    "state_id": "909b225c-b2e6-480c-a6d9-63d858445c6a"
  },
  {
    "id": "075f10fe-d0b3-4042-9b61-5d5206158415",
    "name": "Arena 1ra. Sección",
    "state_id": "909b225c-b2e6-480c-a6d9-63d858445c6a"
  },
  {
    "id": "2a821f72-eac3-4e15-acb8-dd6bb3496b7a",
    "name": "Arena 6ta. Sección (La Bolsa)",
    "state_id": "909b225c-b2e6-480c-a6d9-63d858445c6a"
  },
  {
    "id": "edc35c49-3740-4e05-a340-41f94fc5b325",
    "name": "Arena de Hidalgo",
    "state_id": "909b225c-b2e6-480c-a6d9-63d858445c6a"
  },
  {
    "id": "1e9f5cd2-fa09-4bc3-b5b7-043b8466901c",
    "name": "Arroyo Hondo Abejonal",
    "state_id": "909b225c-b2e6-480c-a6d9-63d858445c6a"
  },
  {
    "id": "552832a1-4e5a-4a98-8034-7a75a5e983de",
    "name": "Astapa",
    "state_id": "909b225c-b2e6-480c-a6d9-63d858445c6a"
  },
  {
    "id": "1cc01261-5444-415b-850b-daf2eca79b18",
    "name": "Ayapa",
    "state_id": "909b225c-b2e6-480c-a6d9-63d858445c6a"
  },
  {
    "id": "37ba97a0-0484-471a-9f81-b02ba27470a7",
    "name": "Balancán",
    "state_id": "909b225c-b2e6-480c-a6d9-63d858445c6a"
  },
  {
    "id": "2d926308-1f1a-4f2e-89ea-bf6ce9c90915",
    "name": "Banderas (Guatacalca 2da. Sección)",
    "state_id": "909b225c-b2e6-480c-a6d9-63d858445c6a"
  },
  {
    "id": "41016cb4-b9f9-4b13-ba63-22f89d9dcf11",
    "name": "Barrancas y Amate 3ra. Sección",
    "state_id": "909b225c-b2e6-480c-a6d9-63d858445c6a"
  },
  {
    "id": "5d89ebd3-84f3-4663-87db-cc4e3b068781",
    "name": "Belén",
    "state_id": "909b225c-b2e6-480c-a6d9-63d858445c6a"
  },
  {
    "id": "152c144c-2a64-482e-aa38-c82f11c442ed",
    "name": "Benito González",
    "state_id": "909b225c-b2e6-480c-a6d9-63d858445c6a"
  },
  {
    "id": "e30619c1-d94b-4597-89c5-3701515bfd6a",
    "name": "Benito Juárez",
    "state_id": "909b225c-b2e6-480c-a6d9-63d858445c6a"
  },
  {
    "id": "df323daf-2a76-4c2a-bbcd-af0c9675212b",
    "name": "Benito Juárez (La Playita)",
    "state_id": "909b225c-b2e6-480c-a6d9-63d858445c6a"
  },
  {
    "id": "b1e4dad1-8070-41ad-a6f3-ab53829cb94f",
    "name": "Betania",
    "state_id": "909b225c-b2e6-480c-a6d9-63d858445c6a"
  },
  {
    "id": "4eefcb0c-5f24-4088-971f-8f6fe1f9c3c7",
    "name": "Blasillo 1ra. Sección (Nicolás Bravo)",
    "state_id": "909b225c-b2e6-480c-a6d9-63d858445c6a"
  },
  {
    "id": "78471ee4-a879-4861-a990-eeed46162737",
    "name": "Boquiapa",
    "state_id": "909b225c-b2e6-480c-a6d9-63d858445c6a"
  },
  {
    "id": "a56eb090-db00-4320-a25f-00231a963a78",
    "name": "Bosque de Saloya",
    "state_id": "909b225c-b2e6-480c-a6d9-63d858445c6a"
  },
  {
    "id": "138c5b11-d8d8-49cf-a336-2a2d19796c9e",
    "name": "Brisas del Carrizal",
    "state_id": "909b225c-b2e6-480c-a6d9-63d858445c6a"
  },
  {
    "id": "1dae4fac-4696-415f-9d49-e3fdb8468208",
    "name": "Buena Vista (Apasco)",
    "state_id": "909b225c-b2e6-480c-a6d9-63d858445c6a"
  },
  {
    "id": "e839021d-0725-4119-9e23-afa3555609a8",
    "name": "Buena Vista (Puxcatán)",
    "state_id": "909b225c-b2e6-480c-a6d9-63d858445c6a"
  },
  {
    "id": "468116ea-3da8-4dd8-b760-9ff7212504ae",
    "name": "Buena Vista 1ra. Sección",
    "state_id": "909b225c-b2e6-480c-a6d9-63d858445c6a"
  },
  {
    "id": "b30a2d4e-d46d-469b-810a-107e6399a43b",
    "name": "Buenavista",
    "state_id": "909b225c-b2e6-480c-a6d9-63d858445c6a"
  },
  {
    "id": "854354d5-7e76-473a-a0fa-ee1ed2b8077c",
    "name": "C-32 (Licenciado Francisco Trujillo Gurría)",
    "state_id": "909b225c-b2e6-480c-a6d9-63d858445c6a"
  },
  {
    "id": "c1bb3e0e-d63c-433a-be79-38036f9d1765",
    "name": "C-41 (Licenciado Carlos A. Madrazo)",
    "state_id": "909b225c-b2e6-480c-a6d9-63d858445c6a"
  },
  {
    "id": "f944d0c4-930e-4fd0-87e4-63dd3b5eac43",
    "name": "Caobanal 1ra. Sección (Mezcalapa)",
    "state_id": "909b225c-b2e6-480c-a6d9-63d858445c6a"
  },
  {
    "id": "6fab095b-8ee1-436a-8368-60b4a2ae4c0d",
    "name": "Caparroso",
    "state_id": "909b225c-b2e6-480c-a6d9-63d858445c6a"
  },
  {
    "id": "647410e2-0522-4055-8259-aa5e351b81fb",
    "name": "Capitán Felipe Castellanos Díaz (San Pedro)",
    "state_id": "909b225c-b2e6-480c-a6d9-63d858445c6a"
  },
  {
    "id": "9a3bf68a-aba2-4bf5-a9dc-ec44e9aefddf",
    "name": "Cárdenas",
    "state_id": "909b225c-b2e6-480c-a6d9-63d858445c6a"
  },
  {
    "id": "c1f39247-8bed-4103-bfe4-d88d881bd8ba",
    "name": "Ceiba 1ra. Sección (Jahuactal)",
    "state_id": "909b225c-b2e6-480c-a6d9-63d858445c6a"
  },
  {
    "id": "b1113080-0fb0-4cd6-ba24-2623e2a3bab2",
    "name": "Centro",
    "state_id": "909b225c-b2e6-480c-a6d9-63d858445c6a"
  },
  {
    "id": "48812d41-1e8d-4948-b12f-429cc87a0254",
    "name": "Chablé",
    "state_id": "909b225c-b2e6-480c-a6d9-63d858445c6a"
  },
  {
    "id": "b37d5327-09f0-4596-9d54-223039b534ef",
    "name": "Chichicapa",
    "state_id": "909b225c-b2e6-480c-a6d9-63d858445c6a"
  },
  {
    "id": "914e90bf-fc48-40d1-bd93-1c63c48e8159",
    "name": "Chichicastle 1ra. Sección",
    "state_id": "909b225c-b2e6-480c-a6d9-63d858445c6a"
  },
  {
    "id": "ce4e9fd3-7e92-471a-9771-c2c1d8d83bc3",
    "name": "Chontalpa",
    "state_id": "909b225c-b2e6-480c-a6d9-63d858445c6a"
  },
  {
    "id": "81d9d2f4-5f10-4e23-a1a3-6ee57002c193",
    "name": "Ciudad Pemex",
    "state_id": "909b225c-b2e6-480c-a6d9-63d858445c6a"
  },
  {
    "id": "194bb148-2af4-48f6-9f5f-0183fdacd395",
    "name": "Cocohital",
    "state_id": "909b225c-b2e6-480c-a6d9-63d858445c6a"
  },
  {
    "id": "7c45c765-3dc4-4f4e-ae67-ab1a64b52cbd",
    "name": "Comalcalco",
    "state_id": "909b225c-b2e6-480c-a6d9-63d858445c6a"
  },
  {
    "id": "47326e76-1abd-4d5f-9826-b1114b59e92e",
    "name": "Constitución",
    "state_id": "909b225c-b2e6-480c-a6d9-63d858445c6a"
  },
  {
    "id": "94e78749-58e8-4e04-8a14-ab5c4a8d6234",
    "name": "Corriente 1ra. Sección",
    "state_id": "909b225c-b2e6-480c-a6d9-63d858445c6a"
  },
  {
    "id": "2ffcfeb8-9d5c-4559-8c90-914905db251c",
    "name": "Cucuyulapa Primera Sección",
    "state_id": "909b225c-b2e6-480c-a6d9-63d858445c6a"
  },
  {
    "id": "870e8131-b49d-403d-aca2-e47f252ef486",
    "name": "Cúlico 2da. Sección",
    "state_id": "909b225c-b2e6-480c-a6d9-63d858445c6a"
  },
  {
    "id": "73465695-e6dd-4c75-b04a-d4976407989e",
    "name": "Cumuapa 1ra. Sección",
    "state_id": "909b225c-b2e6-480c-a6d9-63d858445c6a"
  },
  {
    "id": "d171c76f-0305-40d2-99fc-c759a1667571",
    "name": "Cunduacán",
    "state_id": "909b225c-b2e6-480c-a6d9-63d858445c6a"
  },
  {
    "id": "47f865fa-b52e-45b1-9841-75048b8aba32",
    "name": "Cupilco",
    "state_id": "909b225c-b2e6-480c-a6d9-63d858445c6a"
  },
  {
    "id": "8316572f-0618-4023-941d-ec63f0bdd6a2",
    "name": "Dos Ceibas",
    "state_id": "909b225c-b2e6-480c-a6d9-63d858445c6a"
  },
  {
    "id": "1fbc6137-5b54-431b-8c0d-162c87b831a3",
    "name": "Dos Montes",
    "state_id": "909b225c-b2e6-480c-a6d9-63d858445c6a"
  },
  {
    "id": "af14d5bd-7327-4514-bade-eac1aff7c3c8",
    "name": "El Bajío",
    "state_id": "909b225c-b2e6-480c-a6d9-63d858445c6a"
  },
  {
    "id": "2909b797-56ce-41d2-9e38-1c25a0382bee",
    "name": "El Bellote (Miguel de la Madrid)",
    "state_id": "909b225c-b2e6-480c-a6d9-63d858445c6a"
  },
  {
    "id": "ed485161-14f3-4aac-9156-b93146fadc5b",
    "name": "El Cedro",
    "state_id": "909b225c-b2e6-480c-a6d9-63d858445c6a"
  },
  {
    "id": "55b8f338-415a-4289-a2b9-534d13994e27",
    "name": "El Congo",
    "state_id": "909b225c-b2e6-480c-a6d9-63d858445c6a"
  },
  {
    "id": "60fc478b-f7b8-4ded-a3ed-ed0398dfd81b",
    "name": "El Dorado",
    "state_id": "909b225c-b2e6-480c-a6d9-63d858445c6a"
  },
  {
    "id": "bcaf14eb-cba4-41db-b641-b909982dfb17",
    "name": "El Escribano",
    "state_id": "909b225c-b2e6-480c-a6d9-63d858445c6a"
  },
  {
    "id": "257ba92c-ff5f-43a8-b2ad-097bd540b856",
    "name": "El Recreo",
    "state_id": "909b225c-b2e6-480c-a6d9-63d858445c6a"
  },
  {
    "id": "b0270867-9c80-4dbd-afa7-f861d0d5057c",
    "name": "El Tigre",
    "state_id": "909b225c-b2e6-480c-a6d9-63d858445c6a"
  },
  {
    "id": "f7e78a54-ad49-48c8-8216-3cc4b38776eb",
    "name": "El Tortuguero",
    "state_id": "909b225c-b2e6-480c-a6d9-63d858445c6a"
  },
  {
    "id": "a5df70ae-0a3e-446a-a187-825c3aa1b4d2",
    "name": "El Triunfo",
    "state_id": "909b225c-b2e6-480c-a6d9-63d858445c6a"
  },
  {
    "id": "a1d74c74-7b6c-4add-9b17-c07380adfaab",
    "name": "El Tular",
    "state_id": "909b225c-b2e6-480c-a6d9-63d858445c6a"
  },
  {
    "id": "7ad0a98c-7995-4871-af9b-42f2cd82574c",
    "name": "Encrucijada 3ra. Sección (Las Calzadas)",
    "state_id": "909b225c-b2e6-480c-a6d9-63d858445c6a"
  },
  {
    "id": "706d01df-a13e-422f-8c73-c3d29db66529",
    "name": "Estapilla",
    "state_id": "909b225c-b2e6-480c-a6d9-63d858445c6a"
  },
  {
    "id": "1c39757c-5504-4b97-968f-2bc8cb70289e",
    "name": "Eureka y Belén",
    "state_id": "909b225c-b2e6-480c-a6d9-63d858445c6a"
  },
  {
    "id": "8662a913-6011-470b-933c-66c482d85f0e",
    "name": "Fraccionamiento Ocuiltzapotlán Dos",
    "state_id": "909b225c-b2e6-480c-a6d9-63d858445c6a"
  },
  {
    "id": "b15554b3-3dd0-4928-895c-7942972b8969",
    "name": "Francisco I. Madero",
    "state_id": "909b225c-b2e6-480c-a6d9-63d858445c6a"
  },
  {
    "id": "b74096cf-bf07-4d87-8dea-2a09912bdf2f",
    "name": "Francisco Rueda",
    "state_id": "909b225c-b2e6-480c-a6d9-63d858445c6a"
  },
  {
    "id": "d54fe76f-acdb-4efc-8c3b-6b7df494baa7",
    "name": "Frontera",
    "state_id": "909b225c-b2e6-480c-a6d9-63d858445c6a"
  },
  {
    "id": "dc5fbc52-b2e7-4ef4-9c77-acc60443114f",
    "name": "Gaviotas Sur (El Cedral)",
    "state_id": "909b225c-b2e6-480c-a6d9-63d858445c6a"
  },
  {
    "id": "c49157a2-4208-4d22-a844-f89ba01e2d32",
    "name": "General Luis Felipe Domínguez Suárez",
    "state_id": "909b225c-b2e6-480c-a6d9-63d858445c6a"
  },
  {
    "id": "e443f9eb-5491-41a7-9a4c-96023f5f2e37",
    "name": "Gobernador Cruz",
    "state_id": "909b225c-b2e6-480c-a6d9-63d858445c6a"
  },
  {
    "id": "2d25e62e-519d-4682-a3ee-0b129ae96624",
    "name": "Gobernadores",
    "state_id": "909b225c-b2e6-480c-a6d9-63d858445c6a"
  },
  {
    "id": "e371efff-663d-4ebb-9581-7ad89cade3f1",
    "name": "Gregorio Méndez",
    "state_id": "909b225c-b2e6-480c-a6d9-63d858445c6a"
  },
  {
    "id": "6c83f214-2e12-4180-9e92-e5648730d809",
    "name": "Guatacalca",
    "state_id": "909b225c-b2e6-480c-a6d9-63d858445c6a"
  },
  {
    "id": "bf09fdf5-5425-42c1-a06f-4f6bd2de1892",
    "name": "Guaytalpa",
    "state_id": "909b225c-b2e6-480c-a6d9-63d858445c6a"
  },
  {
    "id": "cf20534f-3489-459a-8ae5-09dd4e5b1456",
    "name": "Habanero 1ra. Sección (Venustiano Carranza)",
    "state_id": "909b225c-b2e6-480c-a6d9-63d858445c6a"
  },
  {
    "id": "219cdba5-6861-476c-9c40-0437bfbd066c",
    "name": "Hermenegildo Galeana 2da. Sección",
    "state_id": "909b225c-b2e6-480c-a6d9-63d858445c6a"
  },
  {
    "id": "dae051f7-04ba-4255-8919-d8c91d35b863",
    "name": "Huacapa y Amestoy",
    "state_id": "909b225c-b2e6-480c-a6d9-63d858445c6a"
  },
  {
    "id": "bab9e4b5-6868-4645-8c78-4c4124550e5d",
    "name": "Huapacal 1ra. Sección",
    "state_id": "909b225c-b2e6-480c-a6d9-63d858445c6a"
  },
  {
    "id": "3e58da4f-3dc6-4f8f-ae64-24e33b2dcc1c",
    "name": "Huapacal 2da. Sección (Punta Brava)",
    "state_id": "909b225c-b2e6-480c-a6d9-63d858445c6a"
  },
  {
    "id": "d72fa914-d5b2-43ca-9ad8-2de171bc07d2",
    "name": "Huapinol",
    "state_id": "909b225c-b2e6-480c-a6d9-63d858445c6a"
  },
  {
    "id": "7a052442-8af7-483f-ac4b-dc6eb3efccc0",
    "name": "Huimanguillo",
    "state_id": "909b225c-b2e6-480c-a6d9-63d858445c6a"
  },
  {
    "id": "acb8b0bd-bdb4-4de3-ac05-d1f9e6236134",
    "name": "Ignacio Allende",
    "state_id": "909b225c-b2e6-480c-a6d9-63d858445c6a"
  },
  {
    "id": "89030a17-9fdc-4a76-b612-32064e2b63d7",
    "name": "Ignacio Gutiérrez Gómez",
    "state_id": "909b225c-b2e6-480c-a6d9-63d858445c6a"
  },
  {
    "id": "10ca68e0-e135-4ae1-8edb-a3048b681151",
    "name": "Ignacio Zaragoza",
    "state_id": "909b225c-b2e6-480c-a6d9-63d858445c6a"
  },
  {
    "id": "b2d00566-147f-4d34-9609-d21c6c7b5e8c",
    "name": "Ignacio Zaragoza 1ra. Sección",
    "state_id": "909b225c-b2e6-480c-a6d9-63d858445c6a"
  },
  {
    "id": "08ca47a1-49f4-4457-be97-7b5318442a2b",
    "name": "Iquinuapa",
    "state_id": "909b225c-b2e6-480c-a6d9-63d858445c6a"
  },
  {
    "id": "86115b62-9dd6-423f-bba3-4277fddba6a6",
    "name": "Jalapa",
    "state_id": "909b225c-b2e6-480c-a6d9-63d858445c6a"
  },
  {
    "id": "4dd258d9-531d-4a4f-87e3-1737f2a40fa9",
    "name": "Jalapita",
    "state_id": "909b225c-b2e6-480c-a6d9-63d858445c6a"
  },
  {
    "id": "d5f8d210-6a57-4737-9da2-1b899cba663a",
    "name": "Jalpa de Méndez",
    "state_id": "909b225c-b2e6-480c-a6d9-63d858445c6a"
  },
  {
    "id": "367b6d01-0f0c-44e6-a9a8-2368678b3afc",
    "name": "Jalupa",
    "state_id": "909b225c-b2e6-480c-a6d9-63d858445c6a"
  },
  {
    "id": "8115ce03-923c-4f0a-941d-41b4ba4641b5",
    "name": "Jiménez",
    "state_id": "909b225c-b2e6-480c-a6d9-63d858445c6a"
  },
  {
    "id": "1d8f9761-0c0e-4165-9962-fb1d5c7ecd4d",
    "name": "Jolochero 2da. Sección",
    "state_id": "909b225c-b2e6-480c-a6d9-63d858445c6a"
  },
  {
    "id": "60db9cfc-1d00-44fc-8fa3-76492a7f737f",
    "name": "Jonuta",
    "state_id": "909b225c-b2e6-480c-a6d9-63d858445c6a"
  },
  {
    "id": "55c2806b-f8eb-4110-80fc-e5a77476c518",
    "name": "José Colomo",
    "state_id": "909b225c-b2e6-480c-a6d9-63d858445c6a"
  },
  {
    "id": "32a20247-7256-4d25-b2fc-23c40cdc5aa4",
    "name": "La Ceiba",
    "state_id": "909b225c-b2e6-480c-a6d9-63d858445c6a"
  },
  {
    "id": "30aa750e-b3f1-4e08-8b44-588e84e6e89f",
    "name": "La Curva",
    "state_id": "909b225c-b2e6-480c-a6d9-63d858445c6a"
  },
  {
    "id": "a64fc0fa-9c2b-4fbd-b241-ed4694660bf7",
    "name": "La Escalera",
    "state_id": "909b225c-b2e6-480c-a6d9-63d858445c6a"
  },
  {
    "id": "ef5abe60-7d1d-4952-a8ca-f34f551efd83",
    "name": "La Estrella",
    "state_id": "909b225c-b2e6-480c-a6d9-63d858445c6a"
  },
  {
    "id": "ea1e2b09-6e4f-4b79-b831-1a4a43db41e8",
    "name": "La Lima",
    "state_id": "909b225c-b2e6-480c-a6d9-63d858445c6a"
  },
  {
    "id": "4baf670a-3400-4033-a236-3777bd41df83",
    "name": "La Lucha",
    "state_id": "909b225c-b2e6-480c-a6d9-63d858445c6a"
  },
  {
    "id": "742540dc-7473-4418-8e75-35413bf9aa03",
    "name": "La Manga 2da. Sección (El Jobal)",
    "state_id": "909b225c-b2e6-480c-a6d9-63d858445c6a"
  },
  {
    "id": "df1d4e58-02cc-48a0-bee9-511b74a1b44d",
    "name": "La Palma",
    "state_id": "909b225c-b2e6-480c-a6d9-63d858445c6a"
  },
  {
    "id": "d91a7120-5cfc-4927-9d1f-6c823fa1b0a0",
    "name": "La Península",
    "state_id": "909b225c-b2e6-480c-a6d9-63d858445c6a"
  },
  {
    "id": "56087598-1f3e-4d55-b17e-ea7ddd36a628",
    "name": "La Sábana",
    "state_id": "909b225c-b2e6-480c-a6d9-63d858445c6a"
  },
  {
    "id": "2acc281b-6689-4b5e-9c5a-cef126e073e7",
    "name": "La Selva",
    "state_id": "909b225c-b2e6-480c-a6d9-63d858445c6a"
  },
  {
    "id": "a6c97cb7-37b7-4c9d-887c-56a6194243ce",
    "name": "La Unión",
    "state_id": "909b225c-b2e6-480c-a6d9-63d858445c6a"
  },
  {
    "id": "78967333-12ad-4cb3-86e6-61428daa831b",
    "name": "La Victoria",
    "state_id": "909b225c-b2e6-480c-a6d9-63d858445c6a"
  },
  {
    "id": "be8247ec-bfdc-490b-b47b-05df449eae53",
    "name": "Lagartera 1ra. Sección",
    "state_id": "909b225c-b2e6-480c-a6d9-63d858445c6a"
  },
  {
    "id": "633d2b36-9c3c-4c80-9b37-67c7480f0963",
    "name": "Libertad",
    "state_id": "909b225c-b2e6-480c-a6d9-63d858445c6a"
  },
  {
    "id": "0cf43c5c-7126-4831-8261-9d9694ebe17d",
    "name": "Lomitas",
    "state_id": "909b225c-b2e6-480c-a6d9-63d858445c6a"
  },
  {
    "id": "e15b3a1d-2aea-4ca5-b665-838f41a8682f",
    "name": "Los Cenotes",
    "state_id": "909b225c-b2e6-480c-a6d9-63d858445c6a"
  },
  {
    "id": "bbdd8a02-8bd1-43e0-a11f-1aaf3d73ba3b",
    "name": "Los Sauces",
    "state_id": "909b225c-b2e6-480c-a6d9-63d858445c6a"
  },
  {
    "id": "33cfe2c6-4158-440d-953d-fef7a4d6053f",
    "name": "Luis Gil Pérez",
    "state_id": "909b225c-b2e6-480c-a6d9-63d858445c6a"
  },
  {
    "id": "ccc5b9c5-d151-43e4-bce6-eeffe449ac40",
    "name": "Mactún",
    "state_id": "909b225c-b2e6-480c-a6d9-63d858445c6a"
  },
  {
    "id": "c7dceb54-4c06-4cbb-a872-914bf9e42e87",
    "name": "Macultepec",
    "state_id": "909b225c-b2e6-480c-a6d9-63d858445c6a"
  },
  {
    "id": "0df0a33d-63db-488f-9476-3258c01e5691",
    "name": "Macuspana",
    "state_id": "909b225c-b2e6-480c-a6d9-63d858445c6a"
  },
  {
    "id": "f153b226-f988-4e7b-9596-5e2e3a6dae78",
    "name": "Mazateupa",
    "state_id": "909b225c-b2e6-480c-a6d9-63d858445c6a"
  },
  {
    "id": "a3c063a5-99f0-43e4-bce8-4ee344cbd6fc",
    "name": "Mecatepec",
    "state_id": "909b225c-b2e6-480c-a6d9-63d858445c6a"
  },
  {
    "id": "f3b616d7-5196-4852-b646-ea0f4498047d",
    "name": "Mecoacán",
    "state_id": "909b225c-b2e6-480c-a6d9-63d858445c6a"
  },
  {
    "id": "81158fd8-6a36-490c-9c6e-d54926ae6f75",
    "name": "Mecoacán 2da. Sección (San Lorenzo)",
    "state_id": "909b225c-b2e6-480c-a6d9-63d858445c6a"
  },
  {
    "id": "6b9b2b35-c2a4-41ac-aeb0-997cec3f5ca3",
    "name": "Medellín y Madero Segunda Sección",
    "state_id": "909b225c-b2e6-480c-a6d9-63d858445c6a"
  },
  {
    "id": "a70576de-8f01-4b6a-8d92-830f29c5f247",
    "name": "Melchor Ocampo",
    "state_id": "909b225c-b2e6-480c-a6d9-63d858445c6a"
  },
  {
    "id": "0d750f2c-2b72-4fb3-addf-5feee99f047d",
    "name": "Miguel Hidalgo",
    "state_id": "909b225c-b2e6-480c-a6d9-63d858445c6a"
  },
  {
    "id": "637348ad-a89e-44c8-8c85-bba887fc78ed",
    "name": "Miguel Hidalgo 2da. Sección B (La Natividad)",
    "state_id": "909b225c-b2e6-480c-a6d9-63d858445c6a"
  },
  {
    "id": "4cbe4ef1-637e-4b81-bdce-6ea1f787c4d2",
    "name": "Monte Grande",
    "state_id": "909b225c-b2e6-480c-a6d9-63d858445c6a"
  },
  {
    "id": "0ea8df65-e3da-4897-9c73-ba7719286327",
    "name": "Monte Largo 1ra. Sección",
    "state_id": "909b225c-b2e6-480c-a6d9-63d858445c6a"
  },
  {
    "id": "882637ac-190c-4f72-999c-a08e98c9773d",
    "name": "Morelos Piedra 3ra. Sección",
    "state_id": "909b225c-b2e6-480c-a6d9-63d858445c6a"
  },
  {
    "id": "1aca9b5f-03b1-4a7a-b7d8-ef075b1216e8",
    "name": "Multé",
    "state_id": "909b225c-b2e6-480c-a6d9-63d858445c6a"
  },
  {
    "id": "d822d59a-4a03-4176-9adf-d71f7accbbac",
    "name": "Nacajuca",
    "state_id": "909b225c-b2e6-480c-a6d9-63d858445c6a"
  },
  {
    "id": "5b23f2ac-2c4d-4441-b093-f6608cc611b9",
    "name": "Netzahualcóyotl",
    "state_id": "909b225c-b2e6-480c-a6d9-63d858445c6a"
  },
  {
    "id": "0a204abf-c016-44b9-8fe0-e84ad05b0f30",
    "name": "Nicolás Bravo",
    "state_id": "909b225c-b2e6-480c-a6d9-63d858445c6a"
  },
  {
    "id": "f32b89f3-8a9b-459c-ad1c-1f018421f9fa",
    "name": "Nicolás Bravo 5ta. Sección (Punta Brava)",
    "state_id": "909b225c-b2e6-480c-a6d9-63d858445c6a"
  },
  {
    "id": "9b18ade4-51fa-4f6c-b2e8-46da2623c52b",
    "name": "Norte 1ra. Sección (San Julián)",
    "state_id": "909b225c-b2e6-480c-a6d9-63d858445c6a"
  },
  {
    "id": "777d2500-9d61-42bd-990f-085802b85e5e",
    "name": "Nueva División del Bayo (Guatemala)",
    "state_id": "909b225c-b2e6-480c-a6d9-63d858445c6a"
  },
  {
    "id": "7b64e748-1b82-4380-b917-923aa99a0779",
    "name": "Nuevo Torno Largo",
    "state_id": "909b225c-b2e6-480c-a6d9-63d858445c6a"
  },
  {
    "id": "3f68d867-a1b2-4faa-abfb-d4360ec1d27a",
    "name": "Occidente (San Francisco)",
    "state_id": "909b225c-b2e6-480c-a6d9-63d858445c6a"
  },
  {
    "id": "8a2ba211-34e3-410f-b39b-ce0dead3b68c",
    "name": "Occidente 4ta. Sección",
    "state_id": "909b225c-b2e6-480c-a6d9-63d858445c6a"
  },
  {
    "id": "bc9507c8-50cc-4144-b0e6-281d1c4f05a7",
    "name": "Ocuapan",
    "state_id": "909b225c-b2e6-480c-a6d9-63d858445c6a"
  },
  {
    "id": "d6f2858e-79c1-40bf-9ca0-c5ae5a413a92",
    "name": "Olcuatitán",
    "state_id": "909b225c-b2e6-480c-a6d9-63d858445c6a"
  },
  {
    "id": "ec96b39f-3979-43c2-b511-bea1d0706321",
    "name": "Oriente 1ra. Sección",
    "state_id": "909b225c-b2e6-480c-a6d9-63d858445c6a"
  },
  {
    "id": "0f3ad702-1b76-450b-bd29-547f46d6a8f9",
    "name": "Oriente 1ra. Sección (Santo Domingo)",
    "state_id": "909b225c-b2e6-480c-a6d9-63d858445c6a"
  },
  {
    "id": "283ecac0-9458-4e64-9f5d-29e1ede0cfb5",
    "name": "Oriente 2da. Sección (Palma Huaca)",
    "state_id": "909b225c-b2e6-480c-a6d9-63d858445c6a"
  },
  {
    "id": "a80f19b6-4708-4b0f-a9a4-598af5ac2c6f",
    "name": "Oriente 2da. Sección (San Cayetano)",
    "state_id": "909b225c-b2e6-480c-a6d9-63d858445c6a"
  },
  {
    "id": "117c9466-1f57-4413-bb18-ac2ad3f2a411",
    "name": "Oriente 6ta. Sección (Los Mulatos)",
    "state_id": "909b225c-b2e6-480c-a6d9-63d858445c6a"
  },
  {
    "id": "acad0464-5b07-489f-b004-c4ca6d3397ee",
    "name": "Oxiacaque",
    "state_id": "909b225c-b2e6-480c-a6d9-63d858445c6a"
  },
  {
    "id": "cf6e5e1d-4651-46ed-81ba-ba07f268ed6f",
    "name": "Oxolotán",
    "state_id": "909b225c-b2e6-480c-a6d9-63d858445c6a"
  },
  {
    "id": "c743ed0a-a344-4e2a-8d10-1e8948f1ce1f",
    "name": "Pablo L. Sidar",
    "state_id": "909b225c-b2e6-480c-a6d9-63d858445c6a"
  },
  {
    "id": "39faa2e6-747a-42a1-b71a-df7e67ad963a",
    "name": "Palo Mulato",
    "state_id": "909b225c-b2e6-480c-a6d9-63d858445c6a"
  },
  {
    "id": "bf24f202-3ed2-4c7a-8e92-9986a9f866e2",
    "name": "Palomas",
    "state_id": "909b225c-b2e6-480c-a6d9-63d858445c6a"
  },
  {
    "id": "b4917562-37f5-45e8-8605-5039d02ccb95",
    "name": "Paraiso",
    "state_id": "909b225c-b2e6-480c-a6d9-63d858445c6a"
  },
  {
    "id": "22baf3cb-4223-4747-bcc8-e91dc22b78cb",
    "name": "Parilla",
    "state_id": "909b225c-b2e6-480c-a6d9-63d858445c6a"
  },
  {
    "id": "b24929b8-59a3-47a4-96ad-9d02c65ffcc7",
    "name": "Parrilla II",
    "state_id": "909b225c-b2e6-480c-a6d9-63d858445c6a"
  },
  {
    "id": "17bb3ec6-0717-44a9-9365-2c6310ab016c",
    "name": "Paso de la Mina 2da. Sección (Barrial)",
    "state_id": "909b225c-b2e6-480c-a6d9-63d858445c6a"
  },
  {
    "id": "bae20b50-1b4c-4324-95b2-e7c746f23392",
    "name": "Paso de la Mina 3ra. Sección",
    "state_id": "909b225c-b2e6-480c-a6d9-63d858445c6a"
  },
  {
    "id": "d40cfa8b-ba4a-4133-a206-de0137849778",
    "name": "Pechucalco",
    "state_id": "909b225c-b2e6-480c-a6d9-63d858445c6a"
  },
  {
    "id": "d91b7eac-5e46-453f-8644-fbf85605fdbc",
    "name": "Pechucalco 2da. Sección (Las Cruces)",
    "state_id": "909b225c-b2e6-480c-a6d9-63d858445c6a"
  },
  {
    "id": "cba168c5-d6ea-483e-a509-9b2b51b0a9bf",
    "name": "Pejelagartero 1ra. Sección (Plataforma)",
    "state_id": "909b225c-b2e6-480c-a6d9-63d858445c6a"
  },
  {
    "id": "28a7d85f-4c98-434b-b27e-a65fc239881d",
    "name": "Pénjamo",
    "state_id": "909b225c-b2e6-480c-a6d9-63d858445c6a"
  },
  {
    "id": "25040a35-a453-42b2-b679-3a6114cdbbc8",
    "name": "Playas del Rosario",
    "state_id": "909b225c-b2e6-480c-a6d9-63d858445c6a"
  },
  {
    "id": "8c5725c6-4ddd-4fd4-a09b-d8cd1c868d59",
    "name": "Poblado C-11 José María Morelos y Pavón",
    "state_id": "909b225c-b2e6-480c-a6d9-63d858445c6a"
  },
  {
    "id": "d086a6c1-ebdb-4eb7-be52-28df5a757686",
    "name": "Poblado C-21 Licenciado Benito Juárez García",
    "state_id": "909b225c-b2e6-480c-a6d9-63d858445c6a"
  },
  {
    "id": "97831211-b683-4b22-b56f-f5579afc35eb",
    "name": "Poblado C-33 20 de Noviembre",
    "state_id": "909b225c-b2e6-480c-a6d9-63d858445c6a"
  },
  {
    "id": "53b87173-e89c-4a6f-8726-5f99bb0c8f3b",
    "name": "Pomoca",
    "state_id": "909b225c-b2e6-480c-a6d9-63d858445c6a"
  },
  {
    "id": "7ed9f2f0-7c6a-467c-bb5c-881bc03c7cc4",
    "name": "Potrerillo",
    "state_id": "909b225c-b2e6-480c-a6d9-63d858445c6a"
  },
  {
    "id": "b231cd8a-45db-4451-938a-29097d00d0b9",
    "name": "Pueblo Nuevo de las Raíces",
    "state_id": "909b225c-b2e6-480c-a6d9-63d858445c6a"
  },
  {
    "id": "3a1f6f92-8670-4490-a638-ef5f775c24b7",
    "name": "Pueblo Viejo",
    "state_id": "909b225c-b2e6-480c-a6d9-63d858445c6a"
  },
  {
    "id": "4d39ed8d-da69-4a82-92c8-d0e045869967",
    "name": "Puerto Ceiba",
    "state_id": "909b225c-b2e6-480c-a6d9-63d858445c6a"
  },
  {
    "id": "8b795317-a414-4bd9-ab1c-0b74bd72738d",
    "name": "Puxcatán",
    "state_id": "909b225c-b2e6-480c-a6d9-63d858445c6a"
  },
  {
    "id": "a5245596-953c-41c2-a4fc-827517e1638a",
    "name": "Quintín Arauz",
    "state_id": "909b225c-b2e6-480c-a6d9-63d858445c6a"
  },
  {
    "id": "74b48ed0-0bab-4cba-a2ba-f4b582d6a69c",
    "name": "Rancho Nuevo",
    "state_id": "909b225c-b2e6-480c-a6d9-63d858445c6a"
  },
  {
    "id": "6556af37-5ce3-46be-a0ab-48a47c2057ed",
    "name": "Raya Zaragoza",
    "state_id": "909b225c-b2e6-480c-a6d9-63d858445c6a"
  },
  {
    "id": "08be4afe-32ae-4162-8d88-fcb0a967e216",
    "name": "Reforma",
    "state_id": "909b225c-b2e6-480c-a6d9-63d858445c6a"
  },
  {
    "id": "da68f472-2dda-4b58-a676-3547a8b1a6ef",
    "name": "Río de Teapa",
    "state_id": "909b225c-b2e6-480c-a6d9-63d858445c6a"
  },
  {
    "id": "62f8f370-8022-4cad-b4f9-3c2bd2d403c4",
    "name": "Río Seco 2da. Sección (Santiaguito)",
    "state_id": "909b225c-b2e6-480c-a6d9-63d858445c6a"
  },
  {
    "id": "372fd0b1-698c-40dd-afa7-27a62660154c",
    "name": "Río Viejo Primera Sección",
    "state_id": "909b225c-b2e6-480c-a6d9-63d858445c6a"
  },
  {
    "id": "c7df566f-bb9c-4550-847c-12360a2c6ddb",
    "name": "Saloya 2da. Sección",
    "state_id": "909b225c-b2e6-480c-a6d9-63d858445c6a"
  },
  {
    "id": "3b4728fa-986b-4e98-b4d5-4462879cd1c6",
    "name": "Samarkanda",
    "state_id": "909b225c-b2e6-480c-a6d9-63d858445c6a"
  },
  {
    "id": "da59c452-27e0-4601-8896-632c15322ccc",
    "name": "San Carlos",
    "state_id": "909b225c-b2e6-480c-a6d9-63d858445c6a"
  },
  {
    "id": "e4f6fc19-c474-4be5-ba34-ee4fefa7730f",
    "name": "San Simón",
    "state_id": "909b225c-b2e6-480c-a6d9-63d858445c6a"
  },
  {
    "id": "22eca2bc-b129-430b-9bc4-ace181cfaa11",
    "name": "Santa Rosalía",
    "state_id": "909b225c-b2e6-480c-a6d9-63d858445c6a"
  },
  {
    "id": "32d4ff96-de9c-4ef2-a52b-332260a59f6a",
    "name": "Santana 2da. Sección B (La Palma)",
    "state_id": "909b225c-b2e6-480c-a6d9-63d858445c6a"
  },
  {
    "id": "8b7c1a29-a2c1-4558-b154-25ffdd5e3e49",
    "name": "Sargento López 2da. Sección (El Chuzo)",
    "state_id": "909b225c-b2e6-480c-a6d9-63d858445c6a"
  },
  {
    "id": "484ca073-08a4-4f6d-8aeb-ef9c3d64a9aa",
    "name": "Simón Sarlat",
    "state_id": "909b225c-b2e6-480c-a6d9-63d858445c6a"
  },
  {
    "id": "02849c7f-0b9e-4dab-ba4a-244afcf91cf2",
    "name": "Soyataco",
    "state_id": "909b225c-b2e6-480c-a6d9-63d858445c6a"
  },
  {
    "id": "437cbbfa-3604-4206-b77d-6b528885c690",
    "name": "Tacotalpa",
    "state_id": "909b225c-b2e6-480c-a6d9-63d858445c6a"
  },
  {
    "id": "a1eb66a6-d516-4fc7-9411-66e4cd1a9096",
    "name": "Tamulte de las Sabanas",
    "state_id": "909b225c-b2e6-480c-a6d9-63d858445c6a"
  },
  {
    "id": "3a87741a-7c5d-4b91-a325-6224465ea143",
    "name": "Tapijulapa",
    "state_id": "909b225c-b2e6-480c-a6d9-63d858445c6a"
  },
  {
    "id": "d8957694-9e7e-4cd3-b3ee-b5c9600a488b",
    "name": "Tapotzingo",
    "state_id": "909b225c-b2e6-480c-a6d9-63d858445c6a"
  },
  {
    "id": "e21e91c8-a3f5-49dc-893c-6b06cd8798ec",
    "name": "Taxco",
    "state_id": "909b225c-b2e6-480c-a6d9-63d858445c6a"
  },
  {
    "id": "91814dc0-e055-4178-9219-e174f5b56244",
    "name": "Teapa",
    "state_id": "909b225c-b2e6-480c-a6d9-63d858445c6a"
  },
  {
    "id": "c6709fb2-5297-4cc1-b95d-edfadffbf06a",
    "name": "Tecoluta 2da. Sección",
    "state_id": "909b225c-b2e6-480c-a6d9-63d858445c6a"
  },
  {
    "id": "0e69c503-675f-4163-a7a9-b4aff115b7e9",
    "name": "Tecominoacán",
    "state_id": "909b225c-b2e6-480c-a6d9-63d858445c6a"
  },
  {
    "id": "dcfb27e3-9613-43e3-8707-8ec34c70690f",
    "name": "Tenosique",
    "state_id": "909b225c-b2e6-480c-a6d9-63d858445c6a"
  },
  {
    "id": "15df1389-52e7-404f-8f3d-55666c60de73",
    "name": "Tepetitán",
    "state_id": "909b225c-b2e6-480c-a6d9-63d858445c6a"
  },
  {
    "id": "1f8627f6-b25f-412e-a394-c4bc4b478ca7",
    "name": "Tequila 1ra. Sección (La Aurora)",
    "state_id": "909b225c-b2e6-480c-a6d9-63d858445c6a"
  },
  {
    "id": "28759faa-258c-4b00-afa9-95e09bc15583",
    "name": "Transito Tular",
    "state_id": "909b225c-b2e6-480c-a6d9-63d858445c6a"
  },
  {
    "id": "3d21e618-868d-472f-bd39-7d38218eaa02",
    "name": "Tres Bocas 1ra. Sección",
    "state_id": "909b225c-b2e6-480c-a6d9-63d858445c6a"
  },
  {
    "id": "127db27a-805e-49d0-bd60-49ea306c243f",
    "name": "Tucta",
    "state_id": "909b225c-b2e6-480c-a6d9-63d858445c6a"
  },
  {
    "id": "572e1406-0546-49cb-b0c2-f27bb009b1bb",
    "name": "Veinte de Noviembre",
    "state_id": "909b225c-b2e6-480c-a6d9-63d858445c6a"
  },
  {
    "id": "ac16e3c8-39cb-4888-bf85-434605f4e2a6",
    "name": "Vicente Guerrero",
    "state_id": "909b225c-b2e6-480c-a6d9-63d858445c6a"
  },
  {
    "id": "da2bcae3-9735-4237-9025-19a06510a288",
    "name": "Villa Aldama",
    "state_id": "909b225c-b2e6-480c-a6d9-63d858445c6a"
  },
  {
    "id": "467d3838-655f-42e3-89b3-2deb46e91b1d",
    "name": "Villa la Venta",
    "state_id": "909b225c-b2e6-480c-a6d9-63d858445c6a"
  },
  {
    "id": "ccfee306-e06b-43db-8258-27aa351bbe9a",
    "name": "Villa Tecolutilla",
    "state_id": "909b225c-b2e6-480c-a6d9-63d858445c6a"
  },
  {
    "id": "9e8fef44-e032-4356-87bd-d1ca55d947d5",
    "name": "Villa Vicente Guerrero",
    "state_id": "909b225c-b2e6-480c-a6d9-63d858445c6a"
  },
  {
    "id": "a513c9f3-8920-42f1-a968-89211577ace9",
    "name": "Villahermosa",
    "state_id": "909b225c-b2e6-480c-a6d9-63d858445c6a"
  },
  {
    "id": "76f5d745-1ed1-4511-8902-26efdfe11b81",
    "name": "Xicoténcatl",
    "state_id": "909b225c-b2e6-480c-a6d9-63d858445c6a"
  }
]