[
  {
    "id": "97e386e9-77ff-4b84-a9c4-525a4d9d8736",
    "name": "Caruru",
    "state_id": "90ad62b9-a87d-48b2-8cd4-4c8d1ed562b0"
  },
  {
    "id": "a66d1ead-49cc-463f-9b14-674c64430bf5",
    "name": "Mitú",
    "state_id": "90ad62b9-a87d-48b2-8cd4-4c8d1ed562b0"
  },
  {
    "id": "b600082b-c801-4bc9-ae0a-95eaf73627d1",
    "name": "Pacoa",
    "state_id": "90ad62b9-a87d-48b2-8cd4-4c8d1ed562b0"
  },
  {
    "id": "61b107cf-dfc2-46bd-8cc3-77a6c97a95e8",
    "name": "Papunaua",
    "state_id": "90ad62b9-a87d-48b2-8cd4-4c8d1ed562b0"
  },
  {
    "id": "eda58e65-f215-45cc-a8d3-46bb09adcbd9",
    "name": "Taraira",
    "state_id": "90ad62b9-a87d-48b2-8cd4-4c8d1ed562b0"
  },
  {
    "id": "71a1d33b-50ae-4b80-b451-f0ef11343fbd",
    "name": "Yavaraté",
    "state_id": "90ad62b9-a87d-48b2-8cd4-4c8d1ed562b0"
  }
]