[
  {
    "id": "73cb9a4f-92a0-4cfb-aafd-b8a12e35f607",
    "name": "Anshun",
    "state_id": "9102f4ac-307a-4e73-a2e3-be64b52f8938"
  },
  {
    "id": "19b969ee-db04-4176-82ab-cc4d9040a316",
    "name": "Aoshi",
    "state_id": "9102f4ac-307a-4e73-a2e3-be64b52f8938"
  },
  {
    "id": "7dfeaedd-4c0c-407f-9c85-3808f2d0b181",
    "name": "Bahuang",
    "state_id": "9102f4ac-307a-4e73-a2e3-be64b52f8938"
  },
  {
    "id": "3be29b95-1853-4058-83bb-6754f6ddb49b",
    "name": "Baishi",
    "state_id": "9102f4ac-307a-4e73-a2e3-be64b52f8938"
  },
  {
    "id": "8d90722d-1e3e-4d5b-a9ac-c233000914f7",
    "name": "Bangdong",
    "state_id": "9102f4ac-307a-4e73-a2e3-be64b52f8938"
  },
  {
    "id": "32164494-73b2-48b4-82d7-31e2a78d4fa4",
    "name": "Benchu",
    "state_id": "9102f4ac-307a-4e73-a2e3-be64b52f8938"
  },
  {
    "id": "446d41db-a34d-4d4a-ad37-3eb40d683a3c",
    "name": "Bijie",
    "state_id": "9102f4ac-307a-4e73-a2e3-be64b52f8938"
  },
  {
    "id": "5eaff37e-3b51-4a19-906a-9d2a4c1bbdc3",
    "name": "Chadian",
    "state_id": "9102f4ac-307a-4e73-a2e3-be64b52f8938"
  },
  {
    "id": "30ed1c95-f927-42c6-a147-afee7709c1e5",
    "name": "Changsha",
    "state_id": "9102f4ac-307a-4e73-a2e3-be64b52f8938"
  },
  {
    "id": "3cbeba97-a102-4548-9c41-06e2900fea1d",
    "name": "Chumi",
    "state_id": "9102f4ac-307a-4e73-a2e3-be64b52f8938"
  },
  {
    "id": "fa9be2ba-78a9-4ec4-823c-d54ce5ac8bfc",
    "name": "Dabachang",
    "state_id": "9102f4ac-307a-4e73-a2e3-be64b52f8938"
  },
  {
    "id": "aafaf2a7-0f6d-48db-ba1a-0d3ac6ce25f3",
    "name": "Darong",
    "state_id": "9102f4ac-307a-4e73-a2e3-be64b52f8938"
  },
  {
    "id": "49ac5634-9f3f-4df7-931d-166c66c19111",
    "name": "Dundong",
    "state_id": "9102f4ac-307a-4e73-a2e3-be64b52f8938"
  },
  {
    "id": "789ed5f4-f285-45b7-9810-ba256e3e0478",
    "name": "Duyun",
    "state_id": "9102f4ac-307a-4e73-a2e3-be64b52f8938"
  },
  {
    "id": "968f2178-5fe9-48c3-aee6-5fa44d001a7a",
    "name": "Gaoniang",
    "state_id": "9102f4ac-307a-4e73-a2e3-be64b52f8938"
  },
  {
    "id": "11f9f1aa-5890-46cf-91ff-5d2944af013b",
    "name": "Gaowu",
    "state_id": "9102f4ac-307a-4e73-a2e3-be64b52f8938"
  },
  {
    "id": "68ecb0e4-bf12-4bfd-a00a-26160d506b3d",
    "name": "Gaozeng",
    "state_id": "9102f4ac-307a-4e73-a2e3-be64b52f8938"
  },
  {
    "id": "2d8a9073-0631-414e-955a-799470d75877",
    "name": "Guandu",
    "state_id": "9102f4ac-307a-4e73-a2e3-be64b52f8938"
  },
  {
    "id": "258b520b-b799-4c7e-9477-bd2f55800015",
    "name": "Guiyang",
    "state_id": "9102f4ac-307a-4e73-a2e3-be64b52f8938"
  },
  {
    "id": "bfc38574-f859-4279-8bcb-01bb02a8b9a4",
    "name": "Hongzhou",
    "state_id": "9102f4ac-307a-4e73-a2e3-be64b52f8938"
  },
  {
    "id": "32cce97e-b9a7-411b-bff6-16ebd2d06d89",
    "name": "Huaqiu",
    "state_id": "9102f4ac-307a-4e73-a2e3-be64b52f8938"
  },
  {
    "id": "3f63478c-d444-483f-9944-32e2095c6057",
    "name": "Lantian",
    "state_id": "9102f4ac-307a-4e73-a2e3-be64b52f8938"
  },
  {
    "id": "6f4f6138-900c-4506-b398-211389bf714d",
    "name": "Liangcunchang",
    "state_id": "9102f4ac-307a-4e73-a2e3-be64b52f8938"
  },
  {
    "id": "c0ed6abc-9289-4ab7-b373-a4081ecb6ee9",
    "name": "Liupanshui",
    "state_id": "9102f4ac-307a-4e73-a2e3-be64b52f8938"
  },
  {
    "id": "2d8500e4-1ae9-4651-818e-914ba61460ff",
    "name": "Longlisuo",
    "state_id": "9102f4ac-307a-4e73-a2e3-be64b52f8938"
  },
  {
    "id": "6e165955-fc96-4fa7-a9df-96ad6a66d842",
    "name": "Loushanguan",
    "state_id": "9102f4ac-307a-4e73-a2e3-be64b52f8938"
  },
  {
    "id": "693d90cf-1a47-410f-b560-a9abd1179f52",
    "name": "Maoping",
    "state_id": "9102f4ac-307a-4e73-a2e3-be64b52f8938"
  },
  {
    "id": "01accdb5-5006-4559-80d1-5e25d56356b3",
    "name": "Ouyang",
    "state_id": "9102f4ac-307a-4e73-a2e3-be64b52f8938"
  },
  {
    "id": "4eb5cfac-38f0-4226-9ca9-4b1fd2e4cc32",
    "name": "Pingjiang",
    "state_id": "9102f4ac-307a-4e73-a2e3-be64b52f8938"
  },
  {
    "id": "f421ed97-eae9-4d69-983d-c11bb25c037c",
    "name": "Qiandongnan Miao and Dong Autonomous Prefecture",
    "state_id": "9102f4ac-307a-4e73-a2e3-be64b52f8938"
  },
  {
    "id": "b0915a15-2274-41e4-bc7e-0882cca10c3e",
    "name": "Qianxinan Bouyeizu Miaozu Zizhizhou",
    "state_id": "9102f4ac-307a-4e73-a2e3-be64b52f8938"
  },
  {
    "id": "b3ee2cfe-fd1d-42e7-a79c-b3536895fcdd",
    "name": "Qimeng",
    "state_id": "9102f4ac-307a-4e73-a2e3-be64b52f8938"
  },
  {
    "id": "96335aa2-ad13-481d-9d5c-1fba0403a62f",
    "name": "Qinglang",
    "state_id": "9102f4ac-307a-4e73-a2e3-be64b52f8938"
  },
  {
    "id": "882e31ea-e9e1-4415-84fd-2f9e201b2c5f",
    "name": "Runsong",
    "state_id": "9102f4ac-307a-4e73-a2e3-be64b52f8938"
  },
  {
    "id": "146ffdf8-3624-4e05-8fde-ec52a668caa1",
    "name": "Sanchahe",
    "state_id": "9102f4ac-307a-4e73-a2e3-be64b52f8938"
  },
  {
    "id": "26144d80-021a-46c4-bcda-7ded29c85f0f",
    "name": "Sangmu",
    "state_id": "9102f4ac-307a-4e73-a2e3-be64b52f8938"
  },
  {
    "id": "19cdc1fb-fa3c-425b-8074-ceae8acbd1e7",
    "name": "Shiqian",
    "state_id": "9102f4ac-307a-4e73-a2e3-be64b52f8938"
  },
  {
    "id": "718754ff-5d06-4dc5-94e5-791220a3ff8d",
    "name": "Songkan",
    "state_id": "9102f4ac-307a-4e73-a2e3-be64b52f8938"
  },
  {
    "id": "20a6d055-5e0d-406c-be5a-0681a240a56c",
    "name": "Tingdong",
    "state_id": "9102f4ac-307a-4e73-a2e3-be64b52f8938"
  },
  {
    "id": "f05ba07e-9a99-4f73-9a51-d3396ad3b041",
    "name": "Tonggu",
    "state_id": "9102f4ac-307a-4e73-a2e3-be64b52f8938"
  },
  {
    "id": "c799a20f-34fc-4b59-b326-bd3b59ff3b8a",
    "name": "Tongren",
    "state_id": "9102f4ac-307a-4e73-a2e3-be64b52f8938"
  },
  {
    "id": "d3c54620-99ae-4cde-87eb-295d5f94006e",
    "name": "Tongren Diqu",
    "state_id": "9102f4ac-307a-4e73-a2e3-be64b52f8938"
  },
  {
    "id": "0b27e981-4416-45c8-82ce-f13e5336d8cd",
    "name": "Weining",
    "state_id": "9102f4ac-307a-4e73-a2e3-be64b52f8938"
  },
  {
    "id": "8b6df004-c79a-48e7-952b-f299da65f4fe",
    "name": "Wenshui",
    "state_id": "9102f4ac-307a-4e73-a2e3-be64b52f8938"
  },
  {
    "id": "8de7a5af-48b3-47e1-8682-567157227016",
    "name": "Xiajiang",
    "state_id": "9102f4ac-307a-4e73-a2e3-be64b52f8938"
  },
  {
    "id": "99be9612-4f5c-41ea-9751-adbc4661df18",
    "name": "Xiaoweizhai",
    "state_id": "9102f4ac-307a-4e73-a2e3-be64b52f8938"
  },
  {
    "id": "fabf4d5d-df1a-4b61-b320-f5c8f2a06bdd",
    "name": "Xinzhan",
    "state_id": "9102f4ac-307a-4e73-a2e3-be64b52f8938"
  },
  {
    "id": "edde8b04-da9c-423f-b76d-fb2fea1eca2e",
    "name": "Xishan",
    "state_id": "9102f4ac-307a-4e73-a2e3-be64b52f8938"
  },
  {
    "id": "d458bf42-9aff-4fa6-8f25-747d1d9905f1",
    "name": "Xujiaba",
    "state_id": "9102f4ac-307a-4e73-a2e3-be64b52f8938"
  },
  {
    "id": "737d9d6b-a6d1-44cf-803e-54418c26d955",
    "name": "Yangtou",
    "state_id": "9102f4ac-307a-4e73-a2e3-be64b52f8938"
  },
  {
    "id": "7d96f112-97ce-4a12-b38d-1b1dd1e4adb8",
    "name": "Youyupu",
    "state_id": "9102f4ac-307a-4e73-a2e3-be64b52f8938"
  },
  {
    "id": "cad4c93f-59e9-4d3a-9395-0d249b7fa266",
    "name": "Zhongchao",
    "state_id": "9102f4ac-307a-4e73-a2e3-be64b52f8938"
  },
  {
    "id": "e7f1995e-0c1a-48b4-9641-b92b21c5c90a",
    "name": "Zhujiachang",
    "state_id": "9102f4ac-307a-4e73-a2e3-be64b52f8938"
  },
  {
    "id": "101f40a2-0b72-498f-8eea-c6b6c102e793",
    "name": "Zunyi",
    "state_id": "9102f4ac-307a-4e73-a2e3-be64b52f8938"
  }
]