[
  {
    "id": "1e014a38-0cdc-471b-9f12-326c8e16d633",
    "name": "Amphoe Bang Krathum",
    "state_id": "910f25fc-ebb1-44bb-b49c-2bc73862dfd6"
  },
  {
    "id": "690fa9a3-93c2-430a-8f17-e7a81679ce08",
    "name": "Amphoe Bang Rakam",
    "state_id": "910f25fc-ebb1-44bb-b49c-2bc73862dfd6"
  },
  {
    "id": "750baf0c-6eac-41ea-8896-b69f9b3d7ba8",
    "name": "Amphoe Chat Trakan",
    "state_id": "910f25fc-ebb1-44bb-b49c-2bc73862dfd6"
  },
  {
    "id": "ad80a056-d622-499a-9bf9-464a1c5c7dc8",
    "name": "Amphoe Mueang Phitsanulok",
    "state_id": "910f25fc-ebb1-44bb-b49c-2bc73862dfd6"
  },
  {
    "id": "de40cc50-5c17-41ed-a4e1-e9f413130bb4",
    "name": "Amphoe Nakhon Thai",
    "state_id": "910f25fc-ebb1-44bb-b49c-2bc73862dfd6"
  },
  {
    "id": "159ea22d-51bb-43eb-8752-62ab69f8c261",
    "name": "Amphoe Noen Maprang",
    "state_id": "910f25fc-ebb1-44bb-b49c-2bc73862dfd6"
  },
  {
    "id": "67a822fb-6865-4047-b462-4144b5efe7f3",
    "name": "Amphoe Phrom Phiram",
    "state_id": "910f25fc-ebb1-44bb-b49c-2bc73862dfd6"
  },
  {
    "id": "7c7312c9-4046-43bc-a110-2fffc4dcc580",
    "name": "Amphoe Wang Thong",
    "state_id": "910f25fc-ebb1-44bb-b49c-2bc73862dfd6"
  },
  {
    "id": "07c55f01-b135-46eb-a5d8-51bdadbff925",
    "name": "Amphoe Wat Bot",
    "state_id": "910f25fc-ebb1-44bb-b49c-2bc73862dfd6"
  },
  {
    "id": "820dfc72-4ba3-498e-bf82-ae0c90093e22",
    "name": "Bang Krathum",
    "state_id": "910f25fc-ebb1-44bb-b49c-2bc73862dfd6"
  },
  {
    "id": "3d3a5a6a-4d45-4ae9-a897-86b357cb5252",
    "name": "Bang Rakam",
    "state_id": "910f25fc-ebb1-44bb-b49c-2bc73862dfd6"
  },
  {
    "id": "de3599d2-79a6-4d6e-90b1-df86b797794f",
    "name": "Chat Trakan",
    "state_id": "910f25fc-ebb1-44bb-b49c-2bc73862dfd6"
  },
  {
    "id": "15246698-2c09-499b-a74e-b578fe475c2c",
    "name": "Nakhon Thai",
    "state_id": "910f25fc-ebb1-44bb-b49c-2bc73862dfd6"
  },
  {
    "id": "ba93af29-0ad7-4723-b9e1-fe5fe154c3d9",
    "name": "Phitsanulok",
    "state_id": "910f25fc-ebb1-44bb-b49c-2bc73862dfd6"
  }
]