[
  {
    "id": "2840d583-2345-4d30-971c-49af35bdc2be",
    "name": "Bulls",
    "state_id": "915c25a5-f3ba-4bd6-9930-be0d12501c7b"
  },
  {
    "id": "b0cbea24-a214-473b-9a3b-2d1edb36372b",
    "name": "Foxton",
    "state_id": "915c25a5-f3ba-4bd6-9930-be0d12501c7b"
  },
  {
    "id": "1c3a0608-012f-49cf-9626-b257f8551465",
    "name": "Horowhenua District",
    "state_id": "915c25a5-f3ba-4bd6-9930-be0d12501c7b"
  },
  {
    "id": "57a7bfe6-bd19-470e-a4a7-5a628b02a23c",
    "name": "Levin",
    "state_id": "915c25a5-f3ba-4bd6-9930-be0d12501c7b"
  },
  {
    "id": "b835a59e-4312-48af-b494-2806c6c19adf",
    "name": "Manawatu District",
    "state_id": "915c25a5-f3ba-4bd6-9930-be0d12501c7b"
  },
  {
    "id": "082030f6-d042-4f8e-8e71-7ca6c7781f9b",
    "name": "Palmerston North",
    "state_id": "915c25a5-f3ba-4bd6-9930-be0d12501c7b"
  },
  {
    "id": "359fc4e9-a3c3-46bd-9a09-83a4d46ee1c6",
    "name": "Waiouru",
    "state_id": "915c25a5-f3ba-4bd6-9930-be0d12501c7b"
  },
  {
    "id": "c56f53bc-3d5d-4c14-ae84-3eae0d3494c7",
    "name": "Wanganui",
    "state_id": "915c25a5-f3ba-4bd6-9930-be0d12501c7b"
  }
]