[
  {
    "id": "dbd9547b-b9bb-4aea-81ba-6542f1d4d979",
    "name": "Lambaréné",
    "state_id": "926ac9e2-b8a8-4e8f-85ce-b418940a8244"
  },
  {
    "id": "3a24a034-25d3-4a57-9a43-aebeb03d8f81",
    "name": "Ndjolé",
    "state_id": "926ac9e2-b8a8-4e8f-85ce-b418940a8244"
  }
]