[
  {
    "id": "160e19f6-f4a7-4d90-9954-05f42da45852",
    "name": "Kabupaten Bangka",
    "state_id": "92dc57c7-e251-4b0d-81c0-2fdc3973de46"
  },
  {
    "id": "fd87c437-4f82-4dfa-ac48-d7eacc76c7ff",
    "name": "Kabupaten Bangka Barat",
    "state_id": "92dc57c7-e251-4b0d-81c0-2fdc3973de46"
  },
  {
    "id": "7f3505e8-35f3-4c17-b1bf-735829b5b07b",
    "name": "Kabupaten Bangka Selatan",
    "state_id": "92dc57c7-e251-4b0d-81c0-2fdc3973de46"
  },
  {
    "id": "5825353a-7a0c-46eb-8dff-39e373c5d0ae",
    "name": "Kabupaten Bangka Tengah",
    "state_id": "92dc57c7-e251-4b0d-81c0-2fdc3973de46"
  },
  {
    "id": "d5aa1cad-5962-453f-ba60-3d9f274c8bac",
    "name": "Kabupaten Belitung",
    "state_id": "92dc57c7-e251-4b0d-81c0-2fdc3973de46"
  },
  {
    "id": "6976fd97-90f9-4e3e-b1bd-7a0a8696f2ba",
    "name": "Kabupaten Belitung Timur",
    "state_id": "92dc57c7-e251-4b0d-81c0-2fdc3973de46"
  },
  {
    "id": "cc69b0be-fcd0-4291-a680-b98e3310b794",
    "name": "Kota Pangkal Pinang",
    "state_id": "92dc57c7-e251-4b0d-81c0-2fdc3973de46"
  },
  {
    "id": "dc4990cb-0a7c-4205-9ae8-0e3701db9de1",
    "name": "Manggar",
    "state_id": "92dc57c7-e251-4b0d-81c0-2fdc3973de46"
  },
  {
    "id": "46231883-e0f7-4903-a783-5781afedeb52",
    "name": "Muntok",
    "state_id": "92dc57c7-e251-4b0d-81c0-2fdc3973de46"
  },
  {
    "id": "dc9d1af6-66ef-4b66-8dd4-b09d86c433e4",
    "name": "Pangkalpinang",
    "state_id": "92dc57c7-e251-4b0d-81c0-2fdc3973de46"
  },
  {
    "id": "e5da573a-4108-44eb-96d6-d254da306629",
    "name": "Sungailiat",
    "state_id": "92dc57c7-e251-4b0d-81c0-2fdc3973de46"
  },
  {
    "id": "e379d60e-116f-443b-82d4-68fa1c8c37b9",
    "name": "Tanjung Pandan",
    "state_id": "92dc57c7-e251-4b0d-81c0-2fdc3973de46"
  }
]