[
  {
    "id": "12fbc7a2-018e-4e34-b30e-47b5535a3947",
    "name": "Berberati",
    "state_id": "93ad69e4-d648-4232-ab36-ebfb053c4e8c"
  },
  {
    "id": "1d01889f-3957-4491-9006-993d6e3816cd",
    "name": "Carnot",
    "state_id": "93ad69e4-d648-4232-ab36-ebfb053c4e8c"
  },
  {
    "id": "aa22e374-0d3a-47c7-a8e7-199e4de51b5c",
    "name": "Gamboula",
    "state_id": "93ad69e4-d648-4232-ab36-ebfb053c4e8c"
  }
]