[
  {
    "id": "34016e0c-6160-4a98-85a6-64d7ee23c1cc",
    "name": "Angalimp South Wahgi",
    "state_id": "93b7f560-118d-4cd6-ba64-c5df8f3bfbbc"
  },
  {
    "id": "0345e8f1-dbc3-420e-a471-c6d5b1ef3822",
    "name": "Jimi",
    "state_id": "93b7f560-118d-4cd6-ba64-c5df8f3bfbbc"
  },
  {
    "id": "1a3ad980-b36c-4047-a503-199201137162",
    "name": "North Wahgi",
    "state_id": "93b7f560-118d-4cd6-ba64-c5df8f3bfbbc"
  }
]