[
  {
    "id": "40d6b764-2963-484b-89f9-a285224771a5",
    "name": "Aykino",
    "state_id": "9514f1d9-6aaf-4db3-9a6b-c91d4e6370a9"
  },
  {
    "id": "2c1e91c4-2641-41bf-b6f0-1bff69867385",
    "name": "Blagoyevo",
    "state_id": "9514f1d9-6aaf-4db3-9a6b-c91d4e6370a9"
  },
  {
    "id": "4ae8c831-b5e1-4b12-8522-214257d1a961",
    "name": "Borovoy",
    "state_id": "9514f1d9-6aaf-4db3-9a6b-c91d4e6370a9"
  },
  {
    "id": "60bc5e36-a5e3-403a-972c-9672b941f90a",
    "name": "Ezhva",
    "state_id": "9514f1d9-6aaf-4db3-9a6b-c91d4e6370a9"
  },
  {
    "id": "b59d42b8-c495-4d76-b136-5b8a03a29d36",
    "name": "Inta",
    "state_id": "9514f1d9-6aaf-4db3-9a6b-c91d4e6370a9"
  },
  {
    "id": "d98b8a97-979b-4a9e-8243-df6c7f4cfbeb",
    "name": "Izhma",
    "state_id": "9514f1d9-6aaf-4db3-9a6b-c91d4e6370a9"
  },
  {
    "id": "fcd45365-7575-4ba7-bfba-937fe8de913b",
    "name": "Knyazhpogostskiy Rayon",
    "state_id": "9514f1d9-6aaf-4db3-9a6b-c91d4e6370a9"
  },
  {
    "id": "2b97e3cb-9cd3-4f10-9b86-b06cc82a4eaf",
    "name": "Kortkeros",
    "state_id": "9514f1d9-6aaf-4db3-9a6b-c91d4e6370a9"
  },
  {
    "id": "a272a94d-54ec-499e-a5b1-7472bc1c11da",
    "name": "Koslan",
    "state_id": "9514f1d9-6aaf-4db3-9a6b-c91d4e6370a9"
  },
  {
    "id": "de8d9110-687f-45a6-8142-6d0aa7e32c77",
    "name": "Koygorodok",
    "state_id": "9514f1d9-6aaf-4db3-9a6b-c91d4e6370a9"
  },
  {
    "id": "6e9e3830-e639-48ea-901a-ec1668cb5f1d",
    "name": "Koygorodskiy Rayon",
    "state_id": "9514f1d9-6aaf-4db3-9a6b-c91d4e6370a9"
  },
  {
    "id": "df1e027b-e7ce-472e-95af-0a2d40929d3c",
    "name": "Kozhva",
    "state_id": "9514f1d9-6aaf-4db3-9a6b-c91d4e6370a9"
  },
  {
    "id": "0c1e8997-965b-47c8-92db-20dbaffedfff",
    "name": "Letka",
    "state_id": "9514f1d9-6aaf-4db3-9a6b-c91d4e6370a9"
  },
  {
    "id": "f53dd4b7-4c32-46f9-acf8-490d52741980",
    "name": "Mezhdurechensk",
    "state_id": "9514f1d9-6aaf-4db3-9a6b-c91d4e6370a9"
  },
  {
    "id": "71feddf5-26ce-437c-9178-5b7a79d04e22",
    "name": "Mikun’",
    "state_id": "9514f1d9-6aaf-4db3-9a6b-c91d4e6370a9"
  },
  {
    "id": "ba20935a-756f-4e81-af84-9fabc1a4194b",
    "name": "Mordino",
    "state_id": "9514f1d9-6aaf-4db3-9a6b-c91d4e6370a9"
  },
  {
    "id": "40cca1a1-ea5d-42f1-80cf-1d1b9691901b",
    "name": "Nizhniy Odes",
    "state_id": "9514f1d9-6aaf-4db3-9a6b-c91d4e6370a9"
  },
  {
    "id": "2a5b5cba-24b6-485a-9436-e6c057ac8c36",
    "name": "Parma",
    "state_id": "9514f1d9-6aaf-4db3-9a6b-c91d4e6370a9"
  },
  {
    "id": "cdd5e96f-fde5-4b59-a6bc-17b4a62bccc9",
    "name": "Pechora",
    "state_id": "9514f1d9-6aaf-4db3-9a6b-c91d4e6370a9"
  },
  {
    "id": "842c8a2c-5970-410e-b5b4-3bad3bfaaa7e",
    "name": "Priluzskiy Rayon",
    "state_id": "9514f1d9-6aaf-4db3-9a6b-c91d4e6370a9"
  },
  {
    "id": "72fbd8ad-6ed6-4ee4-9873-4b8665eb9760",
    "name": "Promyshlennyy",
    "state_id": "9514f1d9-6aaf-4db3-9a6b-c91d4e6370a9"
  },
  {
    "id": "8bee8b26-e23c-4502-b431-d5c1bff1b4fa",
    "name": "Puteyets",
    "state_id": "9514f1d9-6aaf-4db3-9a6b-c91d4e6370a9"
  },
  {
    "id": "9ec7dcb9-2f15-47e5-8d12-cb8aa776b310",
    "name": "Sedkyrkeshch",
    "state_id": "9514f1d9-6aaf-4db3-9a6b-c91d4e6370a9"
  },
  {
    "id": "ba28f2be-1d90-4e21-8eeb-073a5ad79f2a",
    "name": "Shudayag",
    "state_id": "9514f1d9-6aaf-4db3-9a6b-c91d4e6370a9"
  },
  {
    "id": "8f7ed740-91e2-4487-9370-8175eff60e62",
    "name": "Sindor",
    "state_id": "9514f1d9-6aaf-4db3-9a6b-c91d4e6370a9"
  },
  {
    "id": "e59b6d15-6340-4e5f-82f2-9b56d7f4b912",
    "name": "Sosnogorsk",
    "state_id": "9514f1d9-6aaf-4db3-9a6b-c91d4e6370a9"
  },
  {
    "id": "ebb15f65-6445-4b50-870d-65239f511a69",
    "name": "Sovetskiy",
    "state_id": "9514f1d9-6aaf-4db3-9a6b-c91d4e6370a9"
  },
  {
    "id": "f099d967-00ff-49b5-b99f-6a102509a2b8",
    "name": "Syktyvkar",
    "state_id": "9514f1d9-6aaf-4db3-9a6b-c91d4e6370a9"
  },
  {
    "id": "590f0ccb-fcd5-41bd-9c20-a7d1547214ba",
    "name": "Synya",
    "state_id": "9514f1d9-6aaf-4db3-9a6b-c91d4e6370a9"
  },
  {
    "id": "bbb0f5ba-7734-4c04-8920-45e433d1034d",
    "name": "Troitsko-Pechorsk",
    "state_id": "9514f1d9-6aaf-4db3-9a6b-c91d4e6370a9"
  },
  {
    "id": "91a9cfcd-bb54-4931-9a48-2fc67b7ee5c2",
    "name": "Troitsko-Pechorskiy Rayon",
    "state_id": "9514f1d9-6aaf-4db3-9a6b-c91d4e6370a9"
  },
  {
    "id": "f563631f-6be0-4f4c-901b-0644c1b5acbd",
    "name": "Tsementnozavodskiy",
    "state_id": "9514f1d9-6aaf-4db3-9a6b-c91d4e6370a9"
  },
  {
    "id": "643a4a76-3294-4d4e-a51e-064cd0e173a3",
    "name": "Ukhta",
    "state_id": "9514f1d9-6aaf-4db3-9a6b-c91d4e6370a9"
  },
  {
    "id": "492196b2-478d-42e0-8fb9-468285a97536",
    "name": "Usinsk",
    "state_id": "9514f1d9-6aaf-4db3-9a6b-c91d4e6370a9"
  },
  {
    "id": "7ebf7416-afaa-492f-9349-f2b911c1ffec",
    "name": "Usogorsk",
    "state_id": "9514f1d9-6aaf-4db3-9a6b-c91d4e6370a9"
  },
  {
    "id": "6359caf3-c62c-4e5b-a02e-c2cc7e89c1fe",
    "name": "Ust-Tsilma",
    "state_id": "9514f1d9-6aaf-4db3-9a6b-c91d4e6370a9"
  },
  {
    "id": "feb5fa4a-a351-4ebd-a201-8a42424be83c",
    "name": "Ust’-Kulom",
    "state_id": "9514f1d9-6aaf-4db3-9a6b-c91d4e6370a9"
  },
  {
    "id": "5c7eda34-4265-434d-85a3-2c879a4104c3",
    "name": "Ust’-Tsilemskiy Rayon",
    "state_id": "9514f1d9-6aaf-4db3-9a6b-c91d4e6370a9"
  },
  {
    "id": "1e3a18aa-fe0c-47fa-aae3-77b98c0b51f8",
    "name": "Verkhnyaya Inta",
    "state_id": "9514f1d9-6aaf-4db3-9a6b-c91d4e6370a9"
  },
  {
    "id": "c8dce17d-9fef-4594-8a2c-a970eb279a9c",
    "name": "Verkhnyaya Maksakovka",
    "state_id": "9514f1d9-6aaf-4db3-9a6b-c91d4e6370a9"
  },
  {
    "id": "5959e9de-c6dc-473c-9ad1-be23c1922f94",
    "name": "Vizinga",
    "state_id": "9514f1d9-6aaf-4db3-9a6b-c91d4e6370a9"
  },
  {
    "id": "7d3dcdb3-4c72-49ed-91cd-b1b0b75fad74",
    "name": "Vodnyy",
    "state_id": "9514f1d9-6aaf-4db3-9a6b-c91d4e6370a9"
  },
  {
    "id": "d411eaee-e87e-4375-bebd-91d0b4ccd4c9",
    "name": "Vorgashor",
    "state_id": "9514f1d9-6aaf-4db3-9a6b-c91d4e6370a9"
  },
  {
    "id": "6d24e123-be62-40a0-9aed-adb1156bcd4e",
    "name": "Vorkuta",
    "state_id": "9514f1d9-6aaf-4db3-9a6b-c91d4e6370a9"
  },
  {
    "id": "1a82ffcd-f5f7-4790-8c08-99c97faaddbd",
    "name": "Voyvozh",
    "state_id": "9514f1d9-6aaf-4db3-9a6b-c91d4e6370a9"
  },
  {
    "id": "eceb72f6-1162-4884-8568-ebcb89a310ed",
    "name": "Vuktyl",
    "state_id": "9514f1d9-6aaf-4db3-9a6b-c91d4e6370a9"
  },
  {
    "id": "8e928ed5-6f91-48c7-88f5-455d5822ee57",
    "name": "Yarega",
    "state_id": "9514f1d9-6aaf-4db3-9a6b-c91d4e6370a9"
  },
  {
    "id": "e0729866-11ae-405c-a1c8-ca9cfbc1da5e",
    "name": "Yemva",
    "state_id": "9514f1d9-6aaf-4db3-9a6b-c91d4e6370a9"
  },
  {
    "id": "c9b23645-8fbb-47a9-9c3d-0655ff6daf07",
    "name": "Zapolyarnyy",
    "state_id": "9514f1d9-6aaf-4db3-9a6b-c91d4e6370a9"
  },
  {
    "id": "be5a26fb-60f1-4ea4-82ea-3df812cdba56",
    "name": "Zelenets",
    "state_id": "9514f1d9-6aaf-4db3-9a6b-c91d4e6370a9"
  },
  {
    "id": "3b64fae3-8f2b-4695-8dd5-aa589a2942e3",
    "name": "Zheshart",
    "state_id": "9514f1d9-6aaf-4db3-9a6b-c91d4e6370a9"
  }
]