[
  {
    "id": "c60fbb4c-a724-4ba9-92d2-312b9c87dd30",
    "name": "Khan 7 Makara",
    "state_id": "95c724aa-2c7d-4766-88fc-e8c40452181e"
  },
  {
    "id": "6f17361d-2885-4288-9c08-df9b536cd1e3",
    "name": "Khan Châmkar Mon",
    "state_id": "95c724aa-2c7d-4766-88fc-e8c40452181e"
  },
  {
    "id": "8ac00e01-fb1e-467b-8392-6de94b72749c",
    "name": "Khan Dângkaô",
    "state_id": "95c724aa-2c7d-4766-88fc-e8c40452181e"
  },
  {
    "id": "65cc1cd3-e39a-4563-b32b-abe8992d8d08",
    "name": "Khan Duŏn Pénh",
    "state_id": "95c724aa-2c7d-4766-88fc-e8c40452181e"
  },
  {
    "id": "38f0579b-e518-4f5a-80ea-9e8e5af14a87",
    "name": "Khan Méan Chey",
    "state_id": "95c724aa-2c7d-4766-88fc-e8c40452181e"
  },
  {
    "id": "2d82c22f-c429-4334-91b9-43e2673bc9b8",
    "name": "Khan Russey Keo",
    "state_id": "95c724aa-2c7d-4766-88fc-e8c40452181e"
  },
  {
    "id": "b234081d-0033-41f3-8181-688f7ee1e559",
    "name": "Khan Saen Sokh",
    "state_id": "95c724aa-2c7d-4766-88fc-e8c40452181e"
  },
  {
    "id": "c89e9483-04e9-49af-b9be-38fb21c16070",
    "name": "Phnom Penh",
    "state_id": "95c724aa-2c7d-4766-88fc-e8c40452181e"
  }
]