[
  {
    "id": "051b60a6-33bc-4662-ae34-f99bc56f95b5",
    "name": "Damaturu",
    "state_id": "95ed0615-dbf6-48e1-a212-bd30f453fbce"
  },
  {
    "id": "c4156ead-2a61-4b01-a61b-09dadca1cc59",
    "name": "Dankalwa",
    "state_id": "95ed0615-dbf6-48e1-a212-bd30f453fbce"
  },
  {
    "id": "6bdd5501-e02b-4b67-ae18-4d89946e2872",
    "name": "Dapchi",
    "state_id": "95ed0615-dbf6-48e1-a212-bd30f453fbce"
  },
  {
    "id": "bd023f70-902c-408f-9ed2-c7411a592933",
    "name": "Daura",
    "state_id": "95ed0615-dbf6-48e1-a212-bd30f453fbce"
  },
  {
    "id": "78c3e2c4-4ea6-4743-933e-902aa9a5ea3d",
    "name": "Fika",
    "state_id": "95ed0615-dbf6-48e1-a212-bd30f453fbce"
  },
  {
    "id": "5d62a0d1-998b-482d-b739-e01b43e8b3aa",
    "name": "Gashua",
    "state_id": "95ed0615-dbf6-48e1-a212-bd30f453fbce"
  },
  {
    "id": "4d4e078b-94ec-4c8c-9a44-02e875166c49",
    "name": "Geidam",
    "state_id": "95ed0615-dbf6-48e1-a212-bd30f453fbce"
  },
  {
    "id": "6a10f506-b362-4483-aad2-52484421109f",
    "name": "Goniri",
    "state_id": "95ed0615-dbf6-48e1-a212-bd30f453fbce"
  },
  {
    "id": "82747076-17d9-4367-84f2-c29a2cd9ad6d",
    "name": "Gorgoram",
    "state_id": "95ed0615-dbf6-48e1-a212-bd30f453fbce"
  },
  {
    "id": "7d9ee762-4345-4c74-82b0-f83bdf3aa090",
    "name": "Gujba",
    "state_id": "95ed0615-dbf6-48e1-a212-bd30f453fbce"
  },
  {
    "id": "b39f78b7-70cf-4b10-b55a-d5f3fdccb283",
    "name": "Gwio Kura",
    "state_id": "95ed0615-dbf6-48e1-a212-bd30f453fbce"
  },
  {
    "id": "9b4e1154-4e13-4ae9-995b-22b362a54fb7",
    "name": "Kumagunnam",
    "state_id": "95ed0615-dbf6-48e1-a212-bd30f453fbce"
  },
  {
    "id": "8dbeee6f-1b00-4de1-86a7-7bf885f0b5af",
    "name": "Lajere",
    "state_id": "95ed0615-dbf6-48e1-a212-bd30f453fbce"
  },
  {
    "id": "17019209-d14b-4d2c-a1f5-9755a90ec8ab",
    "name": "Machina",
    "state_id": "95ed0615-dbf6-48e1-a212-bd30f453fbce"
  },
  {
    "id": "c14d15d1-cec8-466f-93cd-49f0d6250e6f",
    "name": "Nguru",
    "state_id": "95ed0615-dbf6-48e1-a212-bd30f453fbce"
  },
  {
    "id": "c9b8574e-41b1-4dbf-bd45-d0e3da58a1b0",
    "name": "Potiskum",
    "state_id": "95ed0615-dbf6-48e1-a212-bd30f453fbce"
  }
]