[
  {
    "id": "879ab39c-bb95-4b72-bd7d-2f6ebea1bd51",
    "name": "Adamov",
    "state_id": "96b4118e-e72c-4409-b0da-92dba3144402"
  },
  {
    "id": "ce12b5a9-c9eb-4fe2-9dce-30a7dfa72511",
    "name": "Bílovice nad Svitavou",
    "state_id": "96b4118e-e72c-4409-b0da-92dba3144402"
  },
  {
    "id": "31b82084-5989-4314-8dc6-e92657e4dbf3",
    "name": "Blansko",
    "state_id": "96b4118e-e72c-4409-b0da-92dba3144402"
  },
  {
    "id": "debe1563-1e3c-4bc4-ad2a-2ad6a943423c",
    "name": "Blažovice",
    "state_id": "96b4118e-e72c-4409-b0da-92dba3144402"
  },
  {
    "id": "b38128a5-b66b-429f-95dd-87ad2df36aff",
    "name": "Blížkovice",
    "state_id": "96b4118e-e72c-4409-b0da-92dba3144402"
  },
  {
    "id": "81c50dab-8c59-4b56-a521-75a8810a8971",
    "name": "Blučina",
    "state_id": "96b4118e-e72c-4409-b0da-92dba3144402"
  },
  {
    "id": "84ea74e2-1231-4ca2-a473-a5fd821b2f1c",
    "name": "Bořetice",
    "state_id": "96b4118e-e72c-4409-b0da-92dba3144402"
  },
  {
    "id": "5ad80cc3-8a89-446e-9660-2c15acc72eab",
    "name": "Bořitov",
    "state_id": "96b4118e-e72c-4409-b0da-92dba3144402"
  },
  {
    "id": "213133a7-fd8a-45b8-ad03-2807bc8588f5",
    "name": "Boskovice",
    "state_id": "96b4118e-e72c-4409-b0da-92dba3144402"
  },
  {
    "id": "98ea7704-8610-4595-bdbf-6890a1941c4d",
    "name": "Bošovice",
    "state_id": "96b4118e-e72c-4409-b0da-92dba3144402"
  },
  {
    "id": "95af23f0-54e7-447b-80a3-a1c8e04f3d18",
    "name": "Božice",
    "state_id": "96b4118e-e72c-4409-b0da-92dba3144402"
  },
  {
    "id": "f3069260-5a84-44d1-b029-f1d6e8c04ef8",
    "name": "Břeclav",
    "state_id": "96b4118e-e72c-4409-b0da-92dba3144402"
  },
  {
    "id": "71e4ee2b-0989-488e-b8a0-87caa1f47805",
    "name": "Březí",
    "state_id": "96b4118e-e72c-4409-b0da-92dba3144402"
  },
  {
    "id": "4323691a-6eee-4c38-8fca-b92cc831d51e",
    "name": "Brno",
    "state_id": "96b4118e-e72c-4409-b0da-92dba3144402"
  },
  {
    "id": "5e4e183f-402b-4066-8450-d9fcf4afb15e",
    "name": "Bučovice",
    "state_id": "96b4118e-e72c-4409-b0da-92dba3144402"
  },
  {
    "id": "5b4b9eb4-d494-4735-9dac-10c84f90800a",
    "name": "Bzenec",
    "state_id": "96b4118e-e72c-4409-b0da-92dba3144402"
  },
  {
    "id": "93a81369-b3d9-4ec4-9e3e-a2523f6ae432",
    "name": "Čebín",
    "state_id": "96b4118e-e72c-4409-b0da-92dba3144402"
  },
  {
    "id": "157c74da-81e5-48b3-b41b-8fef80ba2741",
    "name": "Čejč",
    "state_id": "96b4118e-e72c-4409-b0da-92dba3144402"
  },
  {
    "id": "99f6af36-b016-4a69-954a-01919a5b027a",
    "name": "Čejkovice",
    "state_id": "96b4118e-e72c-4409-b0da-92dba3144402"
  },
  {
    "id": "ee6395c9-3864-4160-a671-acb385e4a924",
    "name": "Černá Hora",
    "state_id": "96b4118e-e72c-4409-b0da-92dba3144402"
  },
  {
    "id": "d772fe6c-e02d-4438-81b1-95d0b4d3d953",
    "name": "Dambořice",
    "state_id": "96b4118e-e72c-4409-b0da-92dba3144402"
  },
  {
    "id": "8044c594-42c7-45a9-ab5d-ffad3e40b45f",
    "name": "Dobšice",
    "state_id": "96b4118e-e72c-4409-b0da-92dba3144402"
  },
  {
    "id": "efcd955e-1f5f-4137-86d7-9d02381c4909",
    "name": "Dolní Bojanovice",
    "state_id": "96b4118e-e72c-4409-b0da-92dba3144402"
  },
  {
    "id": "ffc0fdeb-4bc8-4299-b773-29ae6b24a808",
    "name": "Dolní Dunajovice",
    "state_id": "96b4118e-e72c-4409-b0da-92dba3144402"
  },
  {
    "id": "0de168a0-3d6e-4710-99aa-84861ce628b2",
    "name": "Dolní Kounice",
    "state_id": "96b4118e-e72c-4409-b0da-92dba3144402"
  },
  {
    "id": "444c02f3-3035-4078-ab39-26acc1c5e249",
    "name": "Dolní Loućky",
    "state_id": "96b4118e-e72c-4409-b0da-92dba3144402"
  },
  {
    "id": "08050928-4187-4310-be00-cf5a62933e7d",
    "name": "Domanín",
    "state_id": "96b4118e-e72c-4409-b0da-92dba3144402"
  },
  {
    "id": "73ddbd24-2ac1-4992-a8d7-ef6c92e6ed65",
    "name": "Doubravice nad Svitavou",
    "state_id": "96b4118e-e72c-4409-b0da-92dba3144402"
  },
  {
    "id": "74045eb8-2154-451f-a134-2f5ad369237f",
    "name": "Drásov",
    "state_id": "96b4118e-e72c-4409-b0da-92dba3144402"
  },
  {
    "id": "46b1ccb7-b18b-479f-9235-233905821a70",
    "name": "Drnholec",
    "state_id": "96b4118e-e72c-4409-b0da-92dba3144402"
  },
  {
    "id": "b8269b04-8e11-43e9-96f9-de83532b7b71",
    "name": "Drnovice",
    "state_id": "96b4118e-e72c-4409-b0da-92dba3144402"
  },
  {
    "id": "aac64ab6-ee9a-4a26-81b8-26d7b607a9c2",
    "name": "Dubňany",
    "state_id": "96b4118e-e72c-4409-b0da-92dba3144402"
  },
  {
    "id": "34fb462d-8f86-41af-b42b-0b2bcea481af",
    "name": "Hevlín",
    "state_id": "96b4118e-e72c-4409-b0da-92dba3144402"
  },
  {
    "id": "fb83a8ec-b8ed-4356-a18e-f9e6844e16dc",
    "name": "Hlohovec",
    "state_id": "96b4118e-e72c-4409-b0da-92dba3144402"
  },
  {
    "id": "5c91debc-0847-4b95-b891-88fa18328d43",
    "name": "Hodonice",
    "state_id": "96b4118e-e72c-4409-b0da-92dba3144402"
  },
  {
    "id": "77831fb0-8a06-43d6-9815-bdd0a5228894",
    "name": "Hodonín",
    "state_id": "96b4118e-e72c-4409-b0da-92dba3144402"
  },
  {
    "id": "d872131c-9a63-43ff-8063-08b7d5762c0c",
    "name": "Hostěradice",
    "state_id": "96b4118e-e72c-4409-b0da-92dba3144402"
  },
  {
    "id": "c4850640-429b-4ade-a761-d0d226f4ab96",
    "name": "Hovorany",
    "state_id": "96b4118e-e72c-4409-b0da-92dba3144402"
  },
  {
    "id": "baad0780-daf7-4817-9302-c573d119a28b",
    "name": "Hroznová Lhota",
    "state_id": "96b4118e-e72c-4409-b0da-92dba3144402"
  },
  {
    "id": "d06c50dd-e10a-46c7-b41c-b745c6e729b4",
    "name": "Hrušky",
    "state_id": "96b4118e-e72c-4409-b0da-92dba3144402"
  },
  {
    "id": "495e1fa7-0fe7-4413-9ac4-464d12bf842a",
    "name": "Hrušovany nad Jevišovkou",
    "state_id": "96b4118e-e72c-4409-b0da-92dba3144402"
  },
  {
    "id": "adf33204-2991-4b57-88d1-da34c910e700",
    "name": "Hrušovany u Brna",
    "state_id": "96b4118e-e72c-4409-b0da-92dba3144402"
  },
  {
    "id": "896c09a6-1dd1-4301-b5a5-33259c760ee0",
    "name": "Hustopeče",
    "state_id": "96b4118e-e72c-4409-b0da-92dba3144402"
  },
  {
    "id": "d2fba89c-2d17-4417-ba24-3c557739b971",
    "name": "Ivančice",
    "state_id": "96b4118e-e72c-4409-b0da-92dba3144402"
  },
  {
    "id": "4cdd0ae7-01c5-4af0-8f3b-e3cdf56193c6",
    "name": "Ivanovice na Hané",
    "state_id": "96b4118e-e72c-4409-b0da-92dba3144402"
  },
  {
    "id": "49831ae3-68d5-464e-ab8e-0f71847ba4bf",
    "name": "Jaroslavice",
    "state_id": "96b4118e-e72c-4409-b0da-92dba3144402"
  },
  {
    "id": "ee31f5d0-696e-4f81-86a8-c7fe4ada89d8",
    "name": "Jedovnice",
    "state_id": "96b4118e-e72c-4409-b0da-92dba3144402"
  },
  {
    "id": "2216ccbb-0148-418a-a66d-473caf5e342b",
    "name": "Jevišovice",
    "state_id": "96b4118e-e72c-4409-b0da-92dba3144402"
  },
  {
    "id": "48529e91-ed1b-4301-a212-9caef1ca0bf9",
    "name": "Klobouky",
    "state_id": "96b4118e-e72c-4409-b0da-92dba3144402"
  },
  {
    "id": "9e39d5ba-abfa-420b-aaa4-f25d7af525f0",
    "name": "Kněždub",
    "state_id": "96b4118e-e72c-4409-b0da-92dba3144402"
  },
  {
    "id": "3c9b10c8-486a-4989-b44a-9d075982172d",
    "name": "Kobylí",
    "state_id": "96b4118e-e72c-4409-b0da-92dba3144402"
  },
  {
    "id": "f50926af-72e7-4f96-8210-ba1422942f9b",
    "name": "Kostice",
    "state_id": "96b4118e-e72c-4409-b0da-92dba3144402"
  },
  {
    "id": "b8c07cf8-6b7d-4a31-bd9f-74810ed268d0",
    "name": "Křenovice",
    "state_id": "96b4118e-e72c-4409-b0da-92dba3144402"
  },
  {
    "id": "a553a10a-8cde-487c-b834-1354e11e6b75",
    "name": "Křepice",
    "state_id": "96b4118e-e72c-4409-b0da-92dba3144402"
  },
  {
    "id": "f049b9c8-6931-42ad-bcc7-dede642071fe",
    "name": "Krumvíř",
    "state_id": "96b4118e-e72c-4409-b0da-92dba3144402"
  },
  {
    "id": "7e257592-f015-4625-830c-b8808dd61a42",
    "name": "Kunštát",
    "state_id": "96b4118e-e72c-4409-b0da-92dba3144402"
  },
  {
    "id": "bac6f16b-769d-42bd-931b-a665bf72a678",
    "name": "Kuřim",
    "state_id": "96b4118e-e72c-4409-b0da-92dba3144402"
  },
  {
    "id": "8f49396c-51a5-48bf-91fa-ffe9de302ddc",
    "name": "Kyjov",
    "state_id": "96b4118e-e72c-4409-b0da-92dba3144402"
  },
  {
    "id": "42c159ca-70d5-4825-8173-9ac1c97f5635",
    "name": "Lanžhot",
    "state_id": "96b4118e-e72c-4409-b0da-92dba3144402"
  },
  {
    "id": "d90573c8-4f2c-46e3-927d-e0fd095ca66e",
    "name": "Lednice",
    "state_id": "96b4118e-e72c-4409-b0da-92dba3144402"
  },
  {
    "id": "ec29355b-c6bd-41ea-9875-ce19b8f4c7c1",
    "name": "Lelekovice",
    "state_id": "96b4118e-e72c-4409-b0da-92dba3144402"
  },
  {
    "id": "fd7c6246-06fb-40f3-ab43-da6c75106c48",
    "name": "Letonice",
    "state_id": "96b4118e-e72c-4409-b0da-92dba3144402"
  },
  {
    "id": "223e1d3f-4d86-4b89-9452-727c5fc455bf",
    "name": "Letovice",
    "state_id": "96b4118e-e72c-4409-b0da-92dba3144402"
  },
  {
    "id": "fa88ce9d-8e3b-420f-9253-87ac787d27c5",
    "name": "Lipov",
    "state_id": "96b4118e-e72c-4409-b0da-92dba3144402"
  },
  {
    "id": "68822b33-0878-4cab-835f-699bfbfc6ae1",
    "name": "Lipovec",
    "state_id": "96b4118e-e72c-4409-b0da-92dba3144402"
  },
  {
    "id": "62c02d39-b5bb-4052-8bd2-f05127eab86a",
    "name": "Lipůvka",
    "state_id": "96b4118e-e72c-4409-b0da-92dba3144402"
  },
  {
    "id": "a171aed6-8e37-4351-91ce-5e101f6f2885",
    "name": "Lomnice",
    "state_id": "96b4118e-e72c-4409-b0da-92dba3144402"
  },
  {
    "id": "b7a85aeb-ddc1-45a1-9b94-5a4b0f3927e3",
    "name": "Louka",
    "state_id": "96b4118e-e72c-4409-b0da-92dba3144402"
  },
  {
    "id": "fc8c24ae-d8ba-4db5-94a8-c9fa1d818cff",
    "name": "Lužice",
    "state_id": "96b4118e-e72c-4409-b0da-92dba3144402"
  },
  {
    "id": "e23345cb-f360-49f8-873c-f9109ac6f7bb",
    "name": "Lysice",
    "state_id": "96b4118e-e72c-4409-b0da-92dba3144402"
  },
  {
    "id": "c8d681f8-87e4-4942-8687-2c7f129ed36d",
    "name": "Měnín",
    "state_id": "96b4118e-e72c-4409-b0da-92dba3144402"
  },
  {
    "id": "77ff4f2a-9027-4279-a1e3-85b48bdf0270",
    "name": "Město Brno",
    "state_id": "96b4118e-e72c-4409-b0da-92dba3144402"
  },
  {
    "id": "741c13d4-6a49-4015-a81d-23adedf65e8d",
    "name": "Mikulčice",
    "state_id": "96b4118e-e72c-4409-b0da-92dba3144402"
  },
  {
    "id": "85098734-b342-4450-8f84-0baca8709bd6",
    "name": "Mikulov",
    "state_id": "96b4118e-e72c-4409-b0da-92dba3144402"
  },
  {
    "id": "748d0ccf-7d43-44b2-bd4f-6a6ab9300413",
    "name": "Milotice",
    "state_id": "96b4118e-e72c-4409-b0da-92dba3144402"
  },
  {
    "id": "52ac0367-64f3-4100-9d7f-33c756d85567",
    "name": "Miroslav",
    "state_id": "96b4118e-e72c-4409-b0da-92dba3144402"
  },
  {
    "id": "6c99b749-bba3-4f1f-ae18-7776ea3f35dc",
    "name": "Modřice",
    "state_id": "96b4118e-e72c-4409-b0da-92dba3144402"
  },
  {
    "id": "7cc43545-0851-44a2-82a5-ae5df40adec2",
    "name": "Mokrá Hora",
    "state_id": "96b4118e-e72c-4409-b0da-92dba3144402"
  },
  {
    "id": "ad849e56-b598-4b59-85fa-9906ef513ba5",
    "name": "Moravany",
    "state_id": "96b4118e-e72c-4409-b0da-92dba3144402"
  },
  {
    "id": "32b2e7ec-b152-45f0-a779-7fda428092d2",
    "name": "Moravská Nová Ves",
    "state_id": "96b4118e-e72c-4409-b0da-92dba3144402"
  },
  {
    "id": "67650fe9-fb07-4a39-8f93-c488f95b0417",
    "name": "Moravský Krumlov",
    "state_id": "96b4118e-e72c-4409-b0da-92dba3144402"
  },
  {
    "id": "7a0dd05a-7218-4546-a7d4-48f13b4c74fb",
    "name": "Moravský Písek",
    "state_id": "96b4118e-e72c-4409-b0da-92dba3144402"
  },
  {
    "id": "22d2999f-25e0-4819-888c-4eaceb99519e",
    "name": "Moravský Žižkov",
    "state_id": "96b4118e-e72c-4409-b0da-92dba3144402"
  },
  {
    "id": "c9623146-80e8-4342-8cce-aae9dd755842",
    "name": "Moutnice",
    "state_id": "96b4118e-e72c-4409-b0da-92dba3144402"
  },
  {
    "id": "54304c9f-641d-49f9-804d-9dd011db7d4e",
    "name": "Mutěnice",
    "state_id": "96b4118e-e72c-4409-b0da-92dba3144402"
  },
  {
    "id": "76dade1a-b073-4559-824b-712c345cca40",
    "name": "Nedvědice",
    "state_id": "96b4118e-e72c-4409-b0da-92dba3144402"
  },
  {
    "id": "8d2edaaa-228c-4215-8741-6f92857b551b",
    "name": "Nesovice",
    "state_id": "96b4118e-e72c-4409-b0da-92dba3144402"
  },
  {
    "id": "0829ef3d-6cfe-430f-bd6a-3c21fbb0d1bf",
    "name": "Nosislav",
    "state_id": "96b4118e-e72c-4409-b0da-92dba3144402"
  },
  {
    "id": "85bc520c-5160-46ed-82c5-787a98b16834",
    "name": "Novosedly",
    "state_id": "96b4118e-e72c-4409-b0da-92dba3144402"
  },
  {
    "id": "2db7e68c-c2f9-4f3e-832a-5bb698b131f9",
    "name": "Okres Blansko",
    "state_id": "96b4118e-e72c-4409-b0da-92dba3144402"
  },
  {
    "id": "f636fcb3-773a-40de-880b-27a04cb7616f",
    "name": "Okres Břeclav",
    "state_id": "96b4118e-e72c-4409-b0da-92dba3144402"
  },
  {
    "id": "f9b192bb-7fdc-4044-b6da-4924d937f76a",
    "name": "Okres Brno-venkov",
    "state_id": "96b4118e-e72c-4409-b0da-92dba3144402"
  },
  {
    "id": "29cedd86-5617-4d3d-b66d-2f7e95f9380f",
    "name": "Okres Hodonín",
    "state_id": "96b4118e-e72c-4409-b0da-92dba3144402"
  },
  {
    "id": "0e1b938e-243d-43d0-9d3f-6909af4e208c",
    "name": "Okres Vyškov",
    "state_id": "96b4118e-e72c-4409-b0da-92dba3144402"
  },
  {
    "id": "adfff939-8fa7-4425-b276-d454817bef42",
    "name": "Okres Znojmo",
    "state_id": "96b4118e-e72c-4409-b0da-92dba3144402"
  },
  {
    "id": "e5d07795-c8d8-4910-acd3-42352f5b8798",
    "name": "Olbramovice",
    "state_id": "96b4118e-e72c-4409-b0da-92dba3144402"
  },
  {
    "id": "445e0f03-88b5-4515-82b8-6d31c252c8f3",
    "name": "Olešnice",
    "state_id": "96b4118e-e72c-4409-b0da-92dba3144402"
  },
  {
    "id": "732a1a19-b7d0-4259-a2a9-7f12050ad574",
    "name": "Ořechov",
    "state_id": "96b4118e-e72c-4409-b0da-92dba3144402"
  },
  {
    "id": "c8a37d8d-6e5f-4a2b-9340-ec81e8b1c891",
    "name": "Oslavany",
    "state_id": "96b4118e-e72c-4409-b0da-92dba3144402"
  },
  {
    "id": "f55dd60c-82b2-4193-bd58-f6e6e4b3d40e",
    "name": "Ostopovice",
    "state_id": "96b4118e-e72c-4409-b0da-92dba3144402"
  },
  {
    "id": "c41cfd06-1694-453f-aca4-31e5037d265a",
    "name": "Ostrov u Macochy",
    "state_id": "96b4118e-e72c-4409-b0da-92dba3144402"
  },
  {
    "id": "c49a6049-78aa-4d9c-8610-452aed9dd5e6",
    "name": "Otnice",
    "state_id": "96b4118e-e72c-4409-b0da-92dba3144402"
  },
  {
    "id": "6db4735f-7064-47bd-82e4-62073b27ca57",
    "name": "Petrov",
    "state_id": "96b4118e-e72c-4409-b0da-92dba3144402"
  },
  {
    "id": "1913b484-cd66-4393-8541-bcad34c808c2",
    "name": "Podivín",
    "state_id": "96b4118e-e72c-4409-b0da-92dba3144402"
  },
  {
    "id": "88476df1-86a3-4660-a9b2-a30b2492d3d1",
    "name": "Podolí",
    "state_id": "96b4118e-e72c-4409-b0da-92dba3144402"
  },
  {
    "id": "a5cf58c3-408c-42d4-881f-abe940a2937c",
    "name": "Pohořelice",
    "state_id": "96b4118e-e72c-4409-b0da-92dba3144402"
  },
  {
    "id": "e5eef35d-1185-46f6-9860-c6f68a6d90d3",
    "name": "Pozořice",
    "state_id": "96b4118e-e72c-4409-b0da-92dba3144402"
  },
  {
    "id": "8db1bef8-e52d-4846-854f-3ece15247bb5",
    "name": "Předklášteří",
    "state_id": "96b4118e-e72c-4409-b0da-92dba3144402"
  },
  {
    "id": "0ae615d3-9c64-494e-a804-bedda29316b4",
    "name": "Prušánky",
    "state_id": "96b4118e-e72c-4409-b0da-92dba3144402"
  },
  {
    "id": "20742051-f933-4012-b38a-695b648035fb",
    "name": "Pustiměř",
    "state_id": "96b4118e-e72c-4409-b0da-92dba3144402"
  },
  {
    "id": "26e576f7-0dff-46ba-9d64-d34846ff5c69",
    "name": "Rájec-Jestřebí",
    "state_id": "96b4118e-e72c-4409-b0da-92dba3144402"
  },
  {
    "id": "8f1aebf8-e242-4441-9f26-13c4da6ca8c8",
    "name": "Ráječko",
    "state_id": "96b4118e-e72c-4409-b0da-92dba3144402"
  },
  {
    "id": "25f8eed5-8f91-482c-836b-8a12ed2ccbdf",
    "name": "Rajhrad",
    "state_id": "96b4118e-e72c-4409-b0da-92dba3144402"
  },
  {
    "id": "2fd487db-27cf-4522-ae32-35e4b2bed33a",
    "name": "Rajhradice",
    "state_id": "96b4118e-e72c-4409-b0da-92dba3144402"
  },
  {
    "id": "5e40035e-2935-4b4d-b1b6-12880141b7d4",
    "name": "Rakvice",
    "state_id": "96b4118e-e72c-4409-b0da-92dba3144402"
  },
  {
    "id": "c852666c-b6a0-40cd-a0f6-f3b82a78bd63",
    "name": "Ratíškovice",
    "state_id": "96b4118e-e72c-4409-b0da-92dba3144402"
  },
  {
    "id": "3f0fb031-828a-49af-98d0-ffe62732c4e4",
    "name": "Říčany",
    "state_id": "96b4118e-e72c-4409-b0da-92dba3144402"
  },
  {
    "id": "faa7ae4c-2885-4198-958a-2037d119647f",
    "name": "Rohatec",
    "state_id": "96b4118e-e72c-4409-b0da-92dba3144402"
  },
  {
    "id": "6454bef3-52b2-43c0-9ec7-22bc3283266c",
    "name": "Rosice",
    "state_id": "96b4118e-e72c-4409-b0da-92dba3144402"
  },
  {
    "id": "9f14d638-976e-4892-b401-1454459eb18c",
    "name": "Rousínov",
    "state_id": "96b4118e-e72c-4409-b0da-92dba3144402"
  },
  {
    "id": "54f162f8-8ac8-490b-b265-aaf870bdfe24",
    "name": "Šakvice",
    "state_id": "96b4118e-e72c-4409-b0da-92dba3144402"
  },
  {
    "id": "e437e73f-18f2-47a3-a016-b81992461a24",
    "name": "Šanov",
    "state_id": "96b4118e-e72c-4409-b0da-92dba3144402"
  },
  {
    "id": "0cdd6c47-d443-41eb-b8b0-d60d38a12357",
    "name": "Šardice",
    "state_id": "96b4118e-e72c-4409-b0da-92dba3144402"
  },
  {
    "id": "d887f3ef-17d7-4cb5-8d68-4f9f87e47287",
    "name": "Šatov",
    "state_id": "96b4118e-e72c-4409-b0da-92dba3144402"
  },
  {
    "id": "f575ed70-4eee-4f2f-b7a3-f9b089e6926e",
    "name": "Šitbořice",
    "state_id": "96b4118e-e72c-4409-b0da-92dba3144402"
  },
  {
    "id": "b987be60-cebe-4646-abf0-1a9372a78f54",
    "name": "Šlapanice",
    "state_id": "96b4118e-e72c-4409-b0da-92dba3144402"
  },
  {
    "id": "70657e15-dd5e-49f1-9db7-4ea94fb3bbb6",
    "name": "Slavkov u Brna",
    "state_id": "96b4118e-e72c-4409-b0da-92dba3144402"
  },
  {
    "id": "cb372aa4-4f62-4b0a-bd24-9556a3a7d99a",
    "name": "Sokolnice",
    "state_id": "96b4118e-e72c-4409-b0da-92dba3144402"
  },
  {
    "id": "108e07e8-a94a-4fba-9142-a729ff2b23b4",
    "name": "Strážnice",
    "state_id": "96b4118e-e72c-4409-b0da-92dba3144402"
  },
  {
    "id": "f71946f7-1c90-439b-b9cb-e36ed71bf05c",
    "name": "Střelice",
    "state_id": "96b4118e-e72c-4409-b0da-92dba3144402"
  },
  {
    "id": "d24e5777-f164-47da-808a-517b9985cfbc",
    "name": "Suchohrdly",
    "state_id": "96b4118e-e72c-4409-b0da-92dba3144402"
  },
  {
    "id": "cc271b42-ac41-4361-88c3-531ebec25547",
    "name": "Sudoměřice",
    "state_id": "96b4118e-e72c-4409-b0da-92dba3144402"
  },
  {
    "id": "3c1c9c2b-5d03-46fd-abd9-c0277fb95600",
    "name": "Svitávka",
    "state_id": "96b4118e-e72c-4409-b0da-92dba3144402"
  },
  {
    "id": "22b48be6-3e08-4038-9f09-28ca5658cc89",
    "name": "Tasovice",
    "state_id": "96b4118e-e72c-4409-b0da-92dba3144402"
  },
  {
    "id": "9144562b-058a-4c54-b90d-3a500bf3bdac",
    "name": "Telnice",
    "state_id": "96b4118e-e72c-4409-b0da-92dba3144402"
  },
  {
    "id": "db5efd15-9f84-4f68-bc23-260be1ec6a85",
    "name": "Těšany",
    "state_id": "96b4118e-e72c-4409-b0da-92dba3144402"
  },
  {
    "id": "cafe921b-f14a-4308-84a2-6fcc8be9fda0",
    "name": "Tišnov",
    "state_id": "96b4118e-e72c-4409-b0da-92dba3144402"
  },
  {
    "id": "ab543648-2da2-457d-8810-b96f7a6f0e58",
    "name": "Troubsko",
    "state_id": "96b4118e-e72c-4409-b0da-92dba3144402"
  },
  {
    "id": "c67aa3d0-f913-49dd-a46b-4e2332349e94",
    "name": "Tvarožná",
    "state_id": "96b4118e-e72c-4409-b0da-92dba3144402"
  },
  {
    "id": "4b0507b7-000a-4063-9a7f-bfe2e85105e2",
    "name": "Tvrdonice",
    "state_id": "96b4118e-e72c-4409-b0da-92dba3144402"
  },
  {
    "id": "0a47b81f-fdd1-4d3d-b00a-d85e52d50f28",
    "name": "Týnec",
    "state_id": "96b4118e-e72c-4409-b0da-92dba3144402"
  },
  {
    "id": "67ae8435-58db-4b91-8d77-e56d730ed5cc",
    "name": "Únanov",
    "state_id": "96b4118e-e72c-4409-b0da-92dba3144402"
  },
  {
    "id": "8dd1b0f1-15d9-4001-b887-905750d1f8e0",
    "name": "Vacenovice",
    "state_id": "96b4118e-e72c-4409-b0da-92dba3144402"
  },
  {
    "id": "a61191bb-5017-4c55-ad2c-203fef72b832",
    "name": "Valtice",
    "state_id": "96b4118e-e72c-4409-b0da-92dba3144402"
  },
  {
    "id": "32bbf5ea-f0ef-43b8-8554-d544644c0e55",
    "name": "Velká nad Veličkou",
    "state_id": "96b4118e-e72c-4409-b0da-92dba3144402"
  },
  {
    "id": "70cb9819-6326-4f4e-b112-2b6664e84a77",
    "name": "Velké Bílovice",
    "state_id": "96b4118e-e72c-4409-b0da-92dba3144402"
  },
  {
    "id": "c47a0db9-18f0-42a1-998e-40b807e6aa5f",
    "name": "Velké Němčice",
    "state_id": "96b4118e-e72c-4409-b0da-92dba3144402"
  },
  {
    "id": "11127108-dc7a-4dd9-91e6-e2d4a3479e1d",
    "name": "Velké Opatovice",
    "state_id": "96b4118e-e72c-4409-b0da-92dba3144402"
  },
  {
    "id": "4503cd60-9a1c-4e9e-98d1-2b1c7c3e020b",
    "name": "Velké Pavlovice",
    "state_id": "96b4118e-e72c-4409-b0da-92dba3144402"
  },
  {
    "id": "572dde0d-0742-4aaf-a81d-8203bca1f939",
    "name": "Veselí nad Moravou",
    "state_id": "96b4118e-e72c-4409-b0da-92dba3144402"
  },
  {
    "id": "4fe04909-1e7e-49c0-a380-f255fe52702a",
    "name": "Veverská Bítýška",
    "state_id": "96b4118e-e72c-4409-b0da-92dba3144402"
  },
  {
    "id": "62236733-e91f-4fa7-ad02-43f32b35a469",
    "name": "Viničné Šumice",
    "state_id": "96b4118e-e72c-4409-b0da-92dba3144402"
  },
  {
    "id": "a9f13c33-a727-4ac5-9919-80283ae46753",
    "name": "Višňové",
    "state_id": "96b4118e-e72c-4409-b0da-92dba3144402"
  },
  {
    "id": "ae0bba24-88d6-43d2-81ea-042740b9d633",
    "name": "Vlkoš",
    "state_id": "96b4118e-e72c-4409-b0da-92dba3144402"
  },
  {
    "id": "577ba557-a811-40c6-9705-58257d68d879",
    "name": "Vnorovy",
    "state_id": "96b4118e-e72c-4409-b0da-92dba3144402"
  },
  {
    "id": "bc72bce1-7aa6-4e98-bb4c-d5bd075e74ea",
    "name": "Vojkovice",
    "state_id": "96b4118e-e72c-4409-b0da-92dba3144402"
  },
  {
    "id": "ad6e6334-186e-4350-8bf8-4a55264206e1",
    "name": "Vracov",
    "state_id": "96b4118e-e72c-4409-b0da-92dba3144402"
  },
  {
    "id": "81a17c94-3d65-45b8-bc55-1d8a8fdf3a55",
    "name": "Vranovice",
    "state_id": "96b4118e-e72c-4409-b0da-92dba3144402"
  },
  {
    "id": "d333d398-0139-4c8a-9dc1-689dfa1faa2c",
    "name": "Vrbice",
    "state_id": "96b4118e-e72c-4409-b0da-92dba3144402"
  },
  {
    "id": "881fc9ac-e4dc-4c94-90f0-b0a7a3440a95",
    "name": "Vrbovec",
    "state_id": "96b4118e-e72c-4409-b0da-92dba3144402"
  },
  {
    "id": "2224b4a9-154e-492c-b309-98fc90db26dc",
    "name": "Vyškov",
    "state_id": "96b4118e-e72c-4409-b0da-92dba3144402"
  },
  {
    "id": "fdf7324b-7147-4941-9cb9-1093df160790",
    "name": "Žabčice",
    "state_id": "96b4118e-e72c-4409-b0da-92dba3144402"
  },
  {
    "id": "2e647995-e7a7-4a8f-bfd3-c721e6317bd7",
    "name": "Zaječí",
    "state_id": "96b4118e-e72c-4409-b0da-92dba3144402"
  },
  {
    "id": "b35b2191-0175-42e1-92cc-2d1815736de4",
    "name": "Zastávka",
    "state_id": "96b4118e-e72c-4409-b0da-92dba3144402"
  },
  {
    "id": "92faf2fc-401f-400e-a753-b6c5d1c71f58",
    "name": "Zbraslav",
    "state_id": "96b4118e-e72c-4409-b0da-92dba3144402"
  },
  {
    "id": "f6533e57-f150-4170-829f-d9042f4e2716",
    "name": "Zbýšov",
    "state_id": "96b4118e-e72c-4409-b0da-92dba3144402"
  },
  {
    "id": "63857574-f0a2-46d6-bafe-78b5c0f34d9b",
    "name": "Ždánice",
    "state_id": "96b4118e-e72c-4409-b0da-92dba3144402"
  },
  {
    "id": "ed956387-93c5-44d6-8d45-1c5437473638",
    "name": "Želešice",
    "state_id": "96b4118e-e72c-4409-b0da-92dba3144402"
  },
  {
    "id": "aa3566a0-d6d6-4900-975d-e51d723380d2",
    "name": "Žeravice",
    "state_id": "96b4118e-e72c-4409-b0da-92dba3144402"
  },
  {
    "id": "df9bcf12-1134-4084-ba75-3dc726dc77f3",
    "name": "Židlochovice",
    "state_id": "96b4118e-e72c-4409-b0da-92dba3144402"
  },
  {
    "id": "398adf4d-743f-4c94-bc02-cdd11e8387df",
    "name": "Znojmo",
    "state_id": "96b4118e-e72c-4409-b0da-92dba3144402"
  }
]