[
  {
    "id": "d97c81c3-fc78-484c-9606-d6b2475b075a",
    "name": "Baryshivka",
    "state_id": "96c084ca-c5fe-41c6-b63a-55b615d5995f"
  },
  {
    "id": "4b1a8c69-fc70-4ecd-a3de-d1a89b994f8b",
    "name": "Baryshivs’kyy Rayon",
    "state_id": "96c084ca-c5fe-41c6-b63a-55b615d5995f"
  },
  {
    "id": "82fbd670-1b12-4e6c-9a2f-5f8c93d15cbd",
    "name": "Bila Tserkva",
    "state_id": "96c084ca-c5fe-41c6-b63a-55b615d5995f"
  },
  {
    "id": "98ec4444-c86c-48dc-ab1d-37a7071f4d9b",
    "name": "Bila Tserkva Raion",
    "state_id": "96c084ca-c5fe-41c6-b63a-55b615d5995f"
  },
  {
    "id": "5ceeb75a-c229-4260-aa98-d825de5372c4",
    "name": "Bohuslav",
    "state_id": "96c084ca-c5fe-41c6-b63a-55b615d5995f"
  },
  {
    "id": "020c9ca6-2d34-4cd2-bb94-1b2472e54322",
    "name": "Borispol’skiy Rayon",
    "state_id": "96c084ca-c5fe-41c6-b63a-55b615d5995f"
  },
  {
    "id": "66ccdf92-a741-4733-84a4-4aebeb13a9ad",
    "name": "Borodianka",
    "state_id": "96c084ca-c5fe-41c6-b63a-55b615d5995f"
  },
  {
    "id": "1f793eaf-366b-4c77-a915-4b927271aef8",
    "name": "Borodyans’kyy Rayon",
    "state_id": "96c084ca-c5fe-41c6-b63a-55b615d5995f"
  },
  {
    "id": "7febc5a3-a789-4385-9d16-50b5b12fe9e9",
    "name": "Borova",
    "state_id": "96c084ca-c5fe-41c6-b63a-55b615d5995f"
  },
  {
    "id": "579000a8-3750-47cc-8d47-805913f45398",
    "name": "Boryspil’",
    "state_id": "96c084ca-c5fe-41c6-b63a-55b615d5995f"
  },
  {
    "id": "9a70577c-50f1-4145-9426-bbedfcaff548",
    "name": "Boyarka",
    "state_id": "96c084ca-c5fe-41c6-b63a-55b615d5995f"
  },
  {
    "id": "6625b19b-0062-4227-afcd-18512b4451ba",
    "name": "Brovary",
    "state_id": "96c084ca-c5fe-41c6-b63a-55b615d5995f"
  },
  {
    "id": "79762905-820b-4ee6-a727-24019efb7e69",
    "name": "Brovary Raion",
    "state_id": "96c084ca-c5fe-41c6-b63a-55b615d5995f"
  },
  {
    "id": "21e35142-475c-40c0-b4a8-fc82b3e359cf",
    "name": "Bucha",
    "state_id": "96c084ca-c5fe-41c6-b63a-55b615d5995f"
  },
  {
    "id": "42561f8d-6170-4176-b75a-71ca4da2e863",
    "name": "Chabany",
    "state_id": "96c084ca-c5fe-41c6-b63a-55b615d5995f"
  },
  {
    "id": "cdac6d98-6d6d-4c25-801d-5a78ed20a513",
    "name": "Chernyakhivka",
    "state_id": "96c084ca-c5fe-41c6-b63a-55b615d5995f"
  },
  {
    "id": "af32a6b2-0cc5-410c-9aff-b87379dfa985",
    "name": "Dymer",
    "state_id": "96c084ca-c5fe-41c6-b63a-55b615d5995f"
  },
  {
    "id": "4002bd00-c159-48f0-ac64-208e2b207b0c",
    "name": "Fastiv",
    "state_id": "96c084ca-c5fe-41c6-b63a-55b615d5995f"
  },
  {
    "id": "953b3f5a-dc83-4334-87a5-32532ebb887e",
    "name": "Fastiv Raion",
    "state_id": "96c084ca-c5fe-41c6-b63a-55b615d5995f"
  },
  {
    "id": "f05689ca-8c5a-48be-9b26-f862d6907b3f",
    "name": "Hlevakha",
    "state_id": "96c084ca-c5fe-41c6-b63a-55b615d5995f"
  },
  {
    "id": "97ae8eea-06be-42fc-87e1-a83cf9d1761f",
    "name": "Hnidyn",
    "state_id": "96c084ca-c5fe-41c6-b63a-55b615d5995f"
  },
  {
    "id": "78a68fa7-b06a-4954-bf09-301de0456627",
    "name": "Horenka",
    "state_id": "96c084ca-c5fe-41c6-b63a-55b615d5995f"
  },
  {
    "id": "ca04df36-3ce7-4b74-8f79-ba202ef3ce38",
    "name": "Hostomel",
    "state_id": "96c084ca-c5fe-41c6-b63a-55b615d5995f"
  },
  {
    "id": "6649850b-dcad-4d58-aa85-cf8392369fa1",
    "name": "Irpin",
    "state_id": "96c084ca-c5fe-41c6-b63a-55b615d5995f"
  },
  {
    "id": "6678086c-b407-44c8-8c8a-46ab8aa93d14",
    "name": "Irpins’ka Mis’krada",
    "state_id": "96c084ca-c5fe-41c6-b63a-55b615d5995f"
  },
  {
    "id": "720df8a2-a071-44cc-ab08-53741b110411",
    "name": "Ivankiv",
    "state_id": "96c084ca-c5fe-41c6-b63a-55b615d5995f"
  },
  {
    "id": "dc270471-9244-4d3f-a052-d170930f4f34",
    "name": "Ivankiv Raion",
    "state_id": "96c084ca-c5fe-41c6-b63a-55b615d5995f"
  },
  {
    "id": "56f12eae-8d02-48b6-970c-173e67aa71a6",
    "name": "Kaharlyk",
    "state_id": "96c084ca-c5fe-41c6-b63a-55b615d5995f"
  },
  {
    "id": "2543e5d9-a079-4467-91a2-922dba007de9",
    "name": "Kaharlyk Raion",
    "state_id": "96c084ca-c5fe-41c6-b63a-55b615d5995f"
  },
  {
    "id": "4b2a7d81-6142-437a-bfe5-1c161ed2f317",
    "name": "Kalynove",
    "state_id": "96c084ca-c5fe-41c6-b63a-55b615d5995f"
  },
  {
    "id": "95eacf94-e9c0-4cba-8fab-9b0f97fcac1c",
    "name": "Karapyshi",
    "state_id": "96c084ca-c5fe-41c6-b63a-55b615d5995f"
  },
  {
    "id": "560a693b-0d14-4a83-8896-19908a0b0566",
    "name": "Katyuzhanka",
    "state_id": "96c084ca-c5fe-41c6-b63a-55b615d5995f"
  },
  {
    "id": "7c1ef4b0-fe02-4b24-96ed-3dcaf1a331d6",
    "name": "Khotiv",
    "state_id": "96c084ca-c5fe-41c6-b63a-55b615d5995f"
  },
  {
    "id": "33c457e7-8790-413a-9b04-2bfb410e5381",
    "name": "Kirove",
    "state_id": "96c084ca-c5fe-41c6-b63a-55b615d5995f"
  },
  {
    "id": "36758172-95df-4014-a4a7-6926299d1e22",
    "name": "Klavdiyevo-Tarasove",
    "state_id": "96c084ca-c5fe-41c6-b63a-55b615d5995f"
  },
  {
    "id": "9e169921-25c5-41a7-8ecf-f8b33893a711",
    "name": "Knyazhichi",
    "state_id": "96c084ca-c5fe-41c6-b63a-55b615d5995f"
  },
  {
    "id": "1140b2ad-69e0-45ef-a099-6ff507429dd0",
    "name": "Kodra",
    "state_id": "96c084ca-c5fe-41c6-b63a-55b615d5995f"
  },
  {
    "id": "929a1803-829b-4627-9b6d-7349b5ada02a",
    "name": "Korniyivka",
    "state_id": "96c084ca-c5fe-41c6-b63a-55b615d5995f"
  },
  {
    "id": "e0024cc5-54d3-4298-8546-2d8534c9305d",
    "name": "Kozhanka",
    "state_id": "96c084ca-c5fe-41c6-b63a-55b615d5995f"
  },
  {
    "id": "fd2e59da-438d-442e-bbc8-a9806fd798ea",
    "name": "Krasyatychi",
    "state_id": "96c084ca-c5fe-41c6-b63a-55b615d5995f"
  },
  {
    "id": "b77f7580-6ec9-48ca-ae8d-7d73054d3602",
    "name": "Kriukivschina",
    "state_id": "96c084ca-c5fe-41c6-b63a-55b615d5995f"
  },
  {
    "id": "6c8d9229-c326-406b-8fb7-aab8e104ece0",
    "name": "Kryva Hora",
    "state_id": "96c084ca-c5fe-41c6-b63a-55b615d5995f"
  },
  {
    "id": "20064642-46a6-4d19-b9aa-ffaaf7fcfae8",
    "name": "Kyyevo-Svyatoshyns’kyy Rayon",
    "state_id": "96c084ca-c5fe-41c6-b63a-55b615d5995f"
  },
  {
    "id": "d0f9002c-f552-4604-9651-2361f0705d02",
    "name": "Liutizh",
    "state_id": "96c084ca-c5fe-41c6-b63a-55b615d5995f"
  },
  {
    "id": "4a40f034-3e62-4489-b305-b66159abb8d7",
    "name": "Makariv",
    "state_id": "96c084ca-c5fe-41c6-b63a-55b615d5995f"
  },
  {
    "id": "560e8140-043f-461e-a625-3d4fa9cdb5af",
    "name": "Makariv Raion",
    "state_id": "96c084ca-c5fe-41c6-b63a-55b615d5995f"
  },
  {
    "id": "ef052e69-22d3-4751-85c0-91011839a1a4",
    "name": "Mirovka",
    "state_id": "96c084ca-c5fe-41c6-b63a-55b615d5995f"
  },
  {
    "id": "f14a5cb4-1548-430d-926e-746af59020af",
    "name": "Motovylivka",
    "state_id": "96c084ca-c5fe-41c6-b63a-55b615d5995f"
  },
  {
    "id": "751ad998-4a89-4352-b8ac-00fbf2c2acd3",
    "name": "Myronivka",
    "state_id": "96c084ca-c5fe-41c6-b63a-55b615d5995f"
  },
  {
    "id": "37d0428f-8ae7-484c-86e0-018fbced6113",
    "name": "Novi Petrivtsi",
    "state_id": "96c084ca-c5fe-41c6-b63a-55b615d5995f"
  },
  {
    "id": "5e177c86-f272-4714-9340-7946932a86f6",
    "name": "Obukhiv",
    "state_id": "96c084ca-c5fe-41c6-b63a-55b615d5995f"
  },
  {
    "id": "eee493f9-5da6-4253-a014-836b9c02b989",
    "name": "Obukhiv Raion",
    "state_id": "96c084ca-c5fe-41c6-b63a-55b615d5995f"
  },
  {
    "id": "e2057ec7-2bfd-47a6-80d5-4aff3682a142",
    "name": "Obukhivs’ka Mis’krada",
    "state_id": "96c084ca-c5fe-41c6-b63a-55b615d5995f"
  },
  {
    "id": "7f37352f-bdeb-4c5e-a95e-6fb6a3f95869",
    "name": "Pereiaslav-Khmelnytskyi",
    "state_id": "96c084ca-c5fe-41c6-b63a-55b615d5995f"
  },
  {
    "id": "1e95da18-c759-45d3-be72-9570b1e342b2",
    "name": "Pereiaslav-Khmelnytskyi Raion",
    "state_id": "96c084ca-c5fe-41c6-b63a-55b615d5995f"
  },
  {
    "id": "bd0b2072-4ddb-468a-b1b4-b883ecbe3c35",
    "name": "Piskivka",
    "state_id": "96c084ca-c5fe-41c6-b63a-55b615d5995f"
  },
  {
    "id": "3fa227de-afa4-4a13-ab55-65fd023a380c",
    "name": "Pohreby",
    "state_id": "96c084ca-c5fe-41c6-b63a-55b615d5995f"
  },
  {
    "id": "889a09a3-afa9-4e26-af3b-ab6c79c53e1f",
    "name": "Pukhivka",
    "state_id": "96c084ca-c5fe-41c6-b63a-55b615d5995f"
  },
  {
    "id": "9c891953-73e9-400c-bf2d-780b5bc197dc",
    "name": "Rokytne",
    "state_id": "96c084ca-c5fe-41c6-b63a-55b615d5995f"
  },
  {
    "id": "97e7db43-28d8-4a5a-a747-08a468f8c04e",
    "name": "Rokytne Raion",
    "state_id": "96c084ca-c5fe-41c6-b63a-55b615d5995f"
  },
  {
    "id": "c4e3abd9-df68-42d6-930d-bd45fad7407a",
    "name": "Roskoshnyy",
    "state_id": "96c084ca-c5fe-41c6-b63a-55b615d5995f"
  },
  {
    "id": "2408b702-29d8-4e49-818d-6cbe37d81727",
    "name": "Rzhyshchiv",
    "state_id": "96c084ca-c5fe-41c6-b63a-55b615d5995f"
  },
  {
    "id": "c3ffad9e-3969-4d88-9be1-f2a47860cabf",
    "name": "Semypolky",
    "state_id": "96c084ca-c5fe-41c6-b63a-55b615d5995f"
  },
  {
    "id": "74288b21-6608-485a-bf22-400bee783678",
    "name": "Skvyra",
    "state_id": "96c084ca-c5fe-41c6-b63a-55b615d5995f"
  },
  {
    "id": "bb70dff4-2b8d-409d-b2dd-d84ec6de25b3",
    "name": "Skvyrs’kyy Rayon",
    "state_id": "96c084ca-c5fe-41c6-b63a-55b615d5995f"
  },
  {
    "id": "6a8ae73f-6f1b-4662-b1a3-996f8e075926",
    "name": "Slavutych",
    "state_id": "96c084ca-c5fe-41c6-b63a-55b615d5995f"
  },
  {
    "id": "028044e1-cf00-4c12-bc73-0d81d267ba05",
    "name": "Sofiyivska Borschagivka",
    "state_id": "96c084ca-c5fe-41c6-b63a-55b615d5995f"
  },
  {
    "id": "62d1792f-6532-4387-83bc-6f0be85e33f0",
    "name": "Stavyshche",
    "state_id": "96c084ca-c5fe-41c6-b63a-55b615d5995f"
  },
  {
    "id": "a5c2b4fc-d7fb-444e-9f72-423e47ef0036",
    "name": "Stayki",
    "state_id": "96c084ca-c5fe-41c6-b63a-55b615d5995f"
  },
  {
    "id": "7b9e5d94-e277-4df3-99d8-9717174cf837",
    "name": "Tarashcha",
    "state_id": "96c084ca-c5fe-41c6-b63a-55b615d5995f"
  },
  {
    "id": "4b04e97b-4a95-4828-90c8-80822f9ef79f",
    "name": "Tetiiv",
    "state_id": "96c084ca-c5fe-41c6-b63a-55b615d5995f"
  },
  {
    "id": "6d0a5393-2a04-46fc-8f26-ea6f220082fd",
    "name": "Trebukhiv",
    "state_id": "96c084ca-c5fe-41c6-b63a-55b615d5995f"
  },
  {
    "id": "99640eaf-7c1f-41dd-8183-6dba4da81691",
    "name": "Trypillia",
    "state_id": "96c084ca-c5fe-41c6-b63a-55b615d5995f"
  },
  {
    "id": "1608a8f5-4e46-4b62-8b93-f22dc5c71c29",
    "name": "Tsybli",
    "state_id": "96c084ca-c5fe-41c6-b63a-55b615d5995f"
  },
  {
    "id": "c00fc05b-60a0-490d-a89c-58179864637c",
    "name": "Ukrainka",
    "state_id": "96c084ca-c5fe-41c6-b63a-55b615d5995f"
  },
  {
    "id": "c41c683e-b14a-422e-8bf7-20384cae24c0",
    "name": "Uzyn",
    "state_id": "96c084ca-c5fe-41c6-b63a-55b615d5995f"
  },
  {
    "id": "3c80543d-2c7b-44a3-9488-0297c94570e6",
    "name": "Vasylkiv",
    "state_id": "96c084ca-c5fe-41c6-b63a-55b615d5995f"
  },
  {
    "id": "9ab60029-aefd-4c60-b2c0-17b2ba02bc1f",
    "name": "Vasylkiv Raion",
    "state_id": "96c084ca-c5fe-41c6-b63a-55b615d5995f"
  },
  {
    "id": "055f12ef-92b8-4c61-90df-15f61ca44a68",
    "name": "Velyka Dymerka",
    "state_id": "96c084ca-c5fe-41c6-b63a-55b615d5995f"
  },
  {
    "id": "159ddec8-5890-4d44-a031-b193483cd6a6",
    "name": "Volodarka",
    "state_id": "96c084ca-c5fe-41c6-b63a-55b615d5995f"
  },
  {
    "id": "4b0f5031-1ced-4107-9556-1ebf95f81878",
    "name": "Voronkov",
    "state_id": "96c084ca-c5fe-41c6-b63a-55b615d5995f"
  },
  {
    "id": "55b9da28-f5b2-424f-b15c-8b757f1d50ba",
    "name": "Vorzel’",
    "state_id": "96c084ca-c5fe-41c6-b63a-55b615d5995f"
  },
  {
    "id": "e1007538-b923-428c-b4f9-7da767d7e105",
    "name": "Vyshgorodskiy Rayon",
    "state_id": "96c084ca-c5fe-41c6-b63a-55b615d5995f"
  },
  {
    "id": "2912d004-5b4c-4330-879a-645d40279cae",
    "name": "Vyshhorod",
    "state_id": "96c084ca-c5fe-41c6-b63a-55b615d5995f"
  },
  {
    "id": "7fe35dfe-e6ca-47c5-b920-a938dec27913",
    "name": "Vyshneve",
    "state_id": "96c084ca-c5fe-41c6-b63a-55b615d5995f"
  },
  {
    "id": "c3afbcc5-ab43-4819-a8d4-e6542034949b",
    "name": "Yahotyn",
    "state_id": "96c084ca-c5fe-41c6-b63a-55b615d5995f"
  },
  {
    "id": "8d150b8c-4def-4ade-b92d-93d627d31681",
    "name": "Yahotyns’kyy Rayon",
    "state_id": "96c084ca-c5fe-41c6-b63a-55b615d5995f"
  },
  {
    "id": "1cbccdd6-4730-4d98-b008-d2ac95955644",
    "name": "Z·hurivs’kyy Rayon",
    "state_id": "96c084ca-c5fe-41c6-b63a-55b615d5995f"
  },
  {
    "id": "e3910510-7006-4caf-a4f4-c5b0568def3c",
    "name": "Zgurovka",
    "state_id": "96c084ca-c5fe-41c6-b63a-55b615d5995f"
  }
]