[
  {
    "id": "3e9b4e66-aa9f-4288-9627-cf275d7f119c",
    "name": "Adamsville",
    "state_id": "979bc521-c037-4700-8e71-098b979b9f21"
  },
  {
    "id": "941d5199-e9e1-4c03-931c-693bf78e913c",
    "name": "Alamo",
    "state_id": "979bc521-c037-4700-8e71-098b979b9f21"
  },
  {
    "id": "3e3e1f65-3f8b-49f2-8aca-885fbe4cae19",
    "name": "Alcoa",
    "state_id": "979bc521-c037-4700-8e71-098b979b9f21"
  },
  {
    "id": "2a8f3ac1-2325-4998-8952-7742f4c3b6fe",
    "name": "Algood",
    "state_id": "979bc521-c037-4700-8e71-098b979b9f21"
  },
  {
    "id": "c7669bbf-b52c-4613-ac8e-5cb2e9db4991",
    "name": "Altamont",
    "state_id": "979bc521-c037-4700-8e71-098b979b9f21"
  },
  {
    "id": "f7183eaf-61e5-4a03-802e-ffd8d28b6502",
    "name": "Anderson County",
    "state_id": "979bc521-c037-4700-8e71-098b979b9f21"
  },
  {
    "id": "e0e8ca21-3081-424a-afb5-bad858e88c0e",
    "name": "Apison",
    "state_id": "979bc521-c037-4700-8e71-098b979b9f21"
  },
  {
    "id": "d89015ae-4cbb-4b94-b0fe-79677fe2bc85",
    "name": "Ardmore",
    "state_id": "979bc521-c037-4700-8e71-098b979b9f21"
  },
  {
    "id": "aaa92102-82b9-47a8-805d-efe362ee7b2d",
    "name": "Arlington",
    "state_id": "979bc521-c037-4700-8e71-098b979b9f21"
  },
  {
    "id": "75883225-9d5c-4d51-9275-be55219a3351",
    "name": "Ashland City",
    "state_id": "979bc521-c037-4700-8e71-098b979b9f21"
  },
  {
    "id": "944328b1-ba05-4bb0-baad-8751e4e478c5",
    "name": "Athens",
    "state_id": "979bc521-c037-4700-8e71-098b979b9f21"
  },
  {
    "id": "299c19a2-7229-4ba6-aec0-125cf1e85a69",
    "name": "Atoka",
    "state_id": "979bc521-c037-4700-8e71-098b979b9f21"
  },
  {
    "id": "68c7f0e6-11d3-45ed-bbda-fb3dfeaf085f",
    "name": "Banner Hill",
    "state_id": "979bc521-c037-4700-8e71-098b979b9f21"
  },
  {
    "id": "f3af33c4-c40b-42d1-be27-41907a935864",
    "name": "Bartlett",
    "state_id": "979bc521-c037-4700-8e71-098b979b9f21"
  },
  {
    "id": "80e7e12f-d255-4182-880f-75e18b68d867",
    "name": "Baxter",
    "state_id": "979bc521-c037-4700-8e71-098b979b9f21"
  },
  {
    "id": "e1f5ecfc-87b8-41bf-afa4-2e7a7fc75e3c",
    "name": "Bean Station",
    "state_id": "979bc521-c037-4700-8e71-098b979b9f21"
  },
  {
    "id": "f1befb9b-a9ae-45c9-b3b5-d48939f80512",
    "name": "Bedford County",
    "state_id": "979bc521-c037-4700-8e71-098b979b9f21"
  },
  {
    "id": "39edeebe-e3a9-4dae-a669-09e78abbee17",
    "name": "Belle Meade",
    "state_id": "979bc521-c037-4700-8e71-098b979b9f21"
  },
  {
    "id": "b1b865ce-88ba-47e0-8ef6-ddd92ca8fb61",
    "name": "Bells",
    "state_id": "979bc521-c037-4700-8e71-098b979b9f21"
  },
  {
    "id": "312c479f-c081-47c6-83c6-5410380f97b0",
    "name": "Benton",
    "state_id": "979bc521-c037-4700-8e71-098b979b9f21"
  },
  {
    "id": "87ebd9a4-48ec-4df7-befc-5eda45df4cfb",
    "name": "Benton County",
    "state_id": "979bc521-c037-4700-8e71-098b979b9f21"
  },
  {
    "id": "585a1324-1592-4451-8765-2cc9b753559f",
    "name": "Blaine",
    "state_id": "979bc521-c037-4700-8e71-098b979b9f21"
  },
  {
    "id": "4ac8fb86-df09-41f8-9011-ff3b83fa2262",
    "name": "Bledsoe County",
    "state_id": "979bc521-c037-4700-8e71-098b979b9f21"
  },
  {
    "id": "84461422-ec83-4a22-8003-7e29245d0674",
    "name": "Bloomingdale",
    "state_id": "979bc521-c037-4700-8e71-098b979b9f21"
  },
  {
    "id": "322c0679-0f83-43e1-b803-8729bbe2913c",
    "name": "Blount County",
    "state_id": "979bc521-c037-4700-8e71-098b979b9f21"
  },
  {
    "id": "868e8235-d855-4cb1-8542-89242ef2f10a",
    "name": "Blountville",
    "state_id": "979bc521-c037-4700-8e71-098b979b9f21"
  },
  {
    "id": "e744ada3-ac75-4869-aaea-bebd08e46e6f",
    "name": "Bluff City",
    "state_id": "979bc521-c037-4700-8e71-098b979b9f21"
  },
  {
    "id": "ea2f0272-6b17-476d-8793-0f33a2e2a637",
    "name": "Bolivar",
    "state_id": "979bc521-c037-4700-8e71-098b979b9f21"
  },
  {
    "id": "98ca5108-b722-4b6b-b430-97ba87adc864",
    "name": "Bon Aqua Junction",
    "state_id": "979bc521-c037-4700-8e71-098b979b9f21"
  },
  {
    "id": "14cd109f-e452-42f0-b9aa-2df8d9a3195b",
    "name": "Bradford",
    "state_id": "979bc521-c037-4700-8e71-098b979b9f21"
  },
  {
    "id": "483aa96b-789e-4b18-840f-a78e377c608a",
    "name": "Bradley County",
    "state_id": "979bc521-c037-4700-8e71-098b979b9f21"
  },
  {
    "id": "09042384-b44a-425a-ba31-9d7b2d19a111",
    "name": "Brentwood",
    "state_id": "979bc521-c037-4700-8e71-098b979b9f21"
  },
  {
    "id": "b937d478-9bfe-4c69-8ce8-63c21863c852",
    "name": "Brentwood Estates",
    "state_id": "979bc521-c037-4700-8e71-098b979b9f21"
  },
  {
    "id": "efba9309-390f-48fe-9362-c03c41f35102",
    "name": "Brighton",
    "state_id": "979bc521-c037-4700-8e71-098b979b9f21"
  },
  {
    "id": "0c2d9bd0-db0d-4fe3-bea4-c37b1b58e0d3",
    "name": "Bristol",
    "state_id": "979bc521-c037-4700-8e71-098b979b9f21"
  },
  {
    "id": "dd0860e8-cbbf-479b-8505-fc01834b50c4",
    "name": "Brownsville",
    "state_id": "979bc521-c037-4700-8e71-098b979b9f21"
  },
  {
    "id": "9574b5dd-62fb-4b78-9382-ad51fedf1aee",
    "name": "Bruceton",
    "state_id": "979bc521-c037-4700-8e71-098b979b9f21"
  },
  {
    "id": "88b2e5e7-e96d-40c5-9680-4368fb58881e",
    "name": "Burns",
    "state_id": "979bc521-c037-4700-8e71-098b979b9f21"
  },
  {
    "id": "f72bd622-dfdc-4e8a-b0d3-225f8849330f",
    "name": "Byrdstown",
    "state_id": "979bc521-c037-4700-8e71-098b979b9f21"
  },
  {
    "id": "8a4d6345-64e0-4472-bae4-82b2b34576cd",
    "name": "Camden",
    "state_id": "979bc521-c037-4700-8e71-098b979b9f21"
  },
  {
    "id": "affd0854-8f75-4ba5-b4c3-b507b4c3fc02",
    "name": "Campbell County",
    "state_id": "979bc521-c037-4700-8e71-098b979b9f21"
  },
  {
    "id": "0b883f70-b5c1-4ca5-94d8-f86edc1265f5",
    "name": "Cannon County",
    "state_id": "979bc521-c037-4700-8e71-098b979b9f21"
  },
  {
    "id": "6bb25305-243a-44cd-a6df-3553aadeea9a",
    "name": "Carroll County",
    "state_id": "979bc521-c037-4700-8e71-098b979b9f21"
  },
  {
    "id": "597a6c5f-3f49-49a7-b191-ab5c3f48d22b",
    "name": "Carter County",
    "state_id": "979bc521-c037-4700-8e71-098b979b9f21"
  },
  {
    "id": "83e9e126-2006-45b2-be3c-ef818264d978",
    "name": "Carthage",
    "state_id": "979bc521-c037-4700-8e71-098b979b9f21"
  },
  {
    "id": "7f510c8b-e01d-4a4b-9517-c3637b16ac53",
    "name": "Caryville",
    "state_id": "979bc521-c037-4700-8e71-098b979b9f21"
  },
  {
    "id": "bd307e63-7f6e-43aa-9e38-2527d92e8a0b",
    "name": "Celina",
    "state_id": "979bc521-c037-4700-8e71-098b979b9f21"
  },
  {
    "id": "179746a3-4340-4cb4-8d82-634aaea93cfc",
    "name": "Centerville",
    "state_id": "979bc521-c037-4700-8e71-098b979b9f21"
  },
  {
    "id": "a590b9d3-a0d3-441d-891f-00e6f779d23d",
    "name": "Central",
    "state_id": "979bc521-c037-4700-8e71-098b979b9f21"
  },
  {
    "id": "4e6b2252-ba8a-44c3-be5b-ab807c8d8eeb",
    "name": "Chapel Hill",
    "state_id": "979bc521-c037-4700-8e71-098b979b9f21"
  },
  {
    "id": "6f7b1cd3-6b0c-4bee-80d9-77393dd15938",
    "name": "Charlotte",
    "state_id": "979bc521-c037-4700-8e71-098b979b9f21"
  },
  {
    "id": "91a42ca4-f34f-4f0f-a358-f5f0b4b58488",
    "name": "Chattanooga",
    "state_id": "979bc521-c037-4700-8e71-098b979b9f21"
  },
  {
    "id": "e31f4e63-bfcc-4208-927c-7e4c704ec7e3",
    "name": "Cheatham County",
    "state_id": "979bc521-c037-4700-8e71-098b979b9f21"
  },
  {
    "id": "c1f53420-1843-49a5-8e71-3996050a35cd",
    "name": "Chester County",
    "state_id": "979bc521-c037-4700-8e71-098b979b9f21"
  },
  {
    "id": "cbdea5aa-ff4e-4f20-a774-7b1d673537a5",
    "name": "Christiana",
    "state_id": "979bc521-c037-4700-8e71-098b979b9f21"
  },
  {
    "id": "acb42011-b9a7-483d-992e-37437b69b2a4",
    "name": "Church Hill",
    "state_id": "979bc521-c037-4700-8e71-098b979b9f21"
  },
  {
    "id": "b9c94a06-83e1-4359-bc90-d04517c3b3db",
    "name": "Claiborne County",
    "state_id": "979bc521-c037-4700-8e71-098b979b9f21"
  },
  {
    "id": "cc729ceb-ea40-4701-b8ef-8ef1a9200f92",
    "name": "Clarksville",
    "state_id": "979bc521-c037-4700-8e71-098b979b9f21"
  },
  {
    "id": "b42814c0-cca0-4eae-93f8-4ef712e7da53",
    "name": "Clay County",
    "state_id": "979bc521-c037-4700-8e71-098b979b9f21"
  },
  {
    "id": "17333d38-4339-4539-ba93-a3caff7f3a00",
    "name": "Cleveland",
    "state_id": "979bc521-c037-4700-8e71-098b979b9f21"
  },
  {
    "id": "d5a7d764-aaf6-4168-bab7-7a918326d29f",
    "name": "Clifton",
    "state_id": "979bc521-c037-4700-8e71-098b979b9f21"
  },
  {
    "id": "bad65c10-7781-4eea-aed4-969e8ff20bcd",
    "name": "Clinton",
    "state_id": "979bc521-c037-4700-8e71-098b979b9f21"
  },
  {
    "id": "6aec935a-6630-4bda-9d44-5ff9317e334b",
    "name": "Coalfield",
    "state_id": "979bc521-c037-4700-8e71-098b979b9f21"
  },
  {
    "id": "757770d7-6488-4245-bdc1-7d2accbeb718",
    "name": "Cocke County",
    "state_id": "979bc521-c037-4700-8e71-098b979b9f21"
  },
  {
    "id": "ffddcbaa-44b1-4430-8002-c8ab77d33eb7",
    "name": "Coffee County",
    "state_id": "979bc521-c037-4700-8e71-098b979b9f21"
  },
  {
    "id": "3df69eec-273b-4a7a-8e0f-8721e84ffdad",
    "name": "Collegedale",
    "state_id": "979bc521-c037-4700-8e71-098b979b9f21"
  },
  {
    "id": "70a3f6d1-d6f7-45a2-a260-cb2ff4ec5d47",
    "name": "Collierville",
    "state_id": "979bc521-c037-4700-8e71-098b979b9f21"
  },
  {
    "id": "8f243023-56b5-45a2-9bd1-42de27be257a",
    "name": "Colonial Heights",
    "state_id": "979bc521-c037-4700-8e71-098b979b9f21"
  },
  {
    "id": "e606ab1a-f321-4c71-82be-428ab0a94416",
    "name": "Columbia",
    "state_id": "979bc521-c037-4700-8e71-098b979b9f21"
  },
  {
    "id": "f359ba81-eaf6-4a07-b019-d2231ad20382",
    "name": "Condon",
    "state_id": "979bc521-c037-4700-8e71-098b979b9f21"
  },
  {
    "id": "6ccf1be0-d3de-471d-b0e8-4298204667d8",
    "name": "Cookeville",
    "state_id": "979bc521-c037-4700-8e71-098b979b9f21"
  },
  {
    "id": "443e9009-2e07-408d-bd38-83d81513f9c6",
    "name": "Coopertown",
    "state_id": "979bc521-c037-4700-8e71-098b979b9f21"
  },
  {
    "id": "c20a4ff5-b7fa-472b-bed1-c238e221829b",
    "name": "Cornersville",
    "state_id": "979bc521-c037-4700-8e71-098b979b9f21"
  },
  {
    "id": "7fddc8c3-1737-4c17-8fac-46ed25c93fae",
    "name": "Covington",
    "state_id": "979bc521-c037-4700-8e71-098b979b9f21"
  },
  {
    "id": "607145e5-6a08-48e4-b74a-a3e6cc81ee24",
    "name": "Cowan",
    "state_id": "979bc521-c037-4700-8e71-098b979b9f21"
  },
  {
    "id": "5c080435-f001-4da5-b4fa-f8c66b9709b1",
    "name": "Crockett County",
    "state_id": "979bc521-c037-4700-8e71-098b979b9f21"
  },
  {
    "id": "05fb0753-a97d-48b3-912e-ece40ed6060e",
    "name": "Cross Plains",
    "state_id": "979bc521-c037-4700-8e71-098b979b9f21"
  },
  {
    "id": "43b801cd-827e-4f75-be7a-70aa98cc4bab",
    "name": "Crossville",
    "state_id": "979bc521-c037-4700-8e71-098b979b9f21"
  },
  {
    "id": "bed0e930-2752-41a4-9c79-88374f97c2b3",
    "name": "Crump",
    "state_id": "979bc521-c037-4700-8e71-098b979b9f21"
  },
  {
    "id": "3de7c750-5219-4cf3-b31a-4efdcbbe4b10",
    "name": "Cumberland County",
    "state_id": "979bc521-c037-4700-8e71-098b979b9f21"
  },
  {
    "id": "1fc3439e-6b16-4130-bb6b-42d1ad51d8a5",
    "name": "Dandridge",
    "state_id": "979bc521-c037-4700-8e71-098b979b9f21"
  },
  {
    "id": "ee1d5d04-9452-42c2-b492-84c454adb069",
    "name": "Davidson County",
    "state_id": "979bc521-c037-4700-8e71-098b979b9f21"
  },
  {
    "id": "bed71d25-1203-48e7-8a12-c14abb5a0613",
    "name": "Dayton",
    "state_id": "979bc521-c037-4700-8e71-098b979b9f21"
  },
  {
    "id": "9fd719d3-408d-4b35-94f8-3701fa35743c",
    "name": "Decatur",
    "state_id": "979bc521-c037-4700-8e71-098b979b9f21"
  },
  {
    "id": "02489e56-0b91-49ec-a413-da5c3ac676ab",
    "name": "Decatur County",
    "state_id": "979bc521-c037-4700-8e71-098b979b9f21"
  },
  {
    "id": "a1e1ac83-e459-4bcb-a914-b7595966a5eb",
    "name": "Decaturville",
    "state_id": "979bc521-c037-4700-8e71-098b979b9f21"
  },
  {
    "id": "d402393c-4318-4f04-9dbb-3040eebd337d",
    "name": "Decherd",
    "state_id": "979bc521-c037-4700-8e71-098b979b9f21"
  },
  {
    "id": "ce7156c9-e6c6-451b-be71-e7ec0ca60811",
    "name": "DeKalb County",
    "state_id": "979bc521-c037-4700-8e71-098b979b9f21"
  },
  {
    "id": "a1551be7-3434-4992-9008-8f4b28516dc3",
    "name": "Dickson",
    "state_id": "979bc521-c037-4700-8e71-098b979b9f21"
  },
  {
    "id": "d58cbb9d-1044-4826-a0b3-bb464764702f",
    "name": "Dickson County",
    "state_id": "979bc521-c037-4700-8e71-098b979b9f21"
  },
  {
    "id": "a5c22ead-b774-484f-a50f-bb1a98c5e87f",
    "name": "Dodson Branch",
    "state_id": "979bc521-c037-4700-8e71-098b979b9f21"
  },
  {
    "id": "24e6761b-fb9a-4c30-9dde-3a01f37dd227",
    "name": "Dover",
    "state_id": "979bc521-c037-4700-8e71-098b979b9f21"
  },
  {
    "id": "c8a7147e-3f79-407d-933c-695af169d7a8",
    "name": "Dresden",
    "state_id": "979bc521-c037-4700-8e71-098b979b9f21"
  },
  {
    "id": "3b655dd3-3fc8-498b-8894-56dce7e15cdc",
    "name": "Dunlap",
    "state_id": "979bc521-c037-4700-8e71-098b979b9f21"
  },
  {
    "id": "dfc94e1a-221b-4109-a884-6695a85da44d",
    "name": "Dyer",
    "state_id": "979bc521-c037-4700-8e71-098b979b9f21"
  },
  {
    "id": "908f08af-d0bd-443e-b372-318892e64b75",
    "name": "Dyer County",
    "state_id": "979bc521-c037-4700-8e71-098b979b9f21"
  },
  {
    "id": "b162faa7-d9c7-4c32-a3be-8d258cfc1fdb",
    "name": "Dyersburg",
    "state_id": "979bc521-c037-4700-8e71-098b979b9f21"
  },
  {
    "id": "f3b76b5c-de6c-48bf-bf00-623bd39f6c77",
    "name": "Eagleton Village",
    "state_id": "979bc521-c037-4700-8e71-098b979b9f21"
  },
  {
    "id": "4a04b4be-e0c9-4c4a-9b5f-120984f4a03a",
    "name": "East Brainerd",
    "state_id": "979bc521-c037-4700-8e71-098b979b9f21"
  },
  {
    "id": "58984307-0b4e-43b5-9c15-5dc8b28afedd",
    "name": "East Chattanooga",
    "state_id": "979bc521-c037-4700-8e71-098b979b9f21"
  },
  {
    "id": "cae9482f-3f6c-4eb3-a3c3-3ca07459e756",
    "name": "East Cleveland",
    "state_id": "979bc521-c037-4700-8e71-098b979b9f21"
  },
  {
    "id": "d90391be-abe4-4bd7-a1eb-125edeb9a002",
    "name": "East Ridge",
    "state_id": "979bc521-c037-4700-8e71-098b979b9f21"
  },
  {
    "id": "15fa5068-2b11-4074-a56e-dbaebea2bfeb",
    "name": "Elizabethton",
    "state_id": "979bc521-c037-4700-8e71-098b979b9f21"
  },
  {
    "id": "5d577760-3a53-421d-ab5e-183d52178653",
    "name": "Englewood",
    "state_id": "979bc521-c037-4700-8e71-098b979b9f21"
  },
  {
    "id": "45996e50-d530-4c55-99a8-1e7486a723ea",
    "name": "Erin",
    "state_id": "979bc521-c037-4700-8e71-098b979b9f21"
  },
  {
    "id": "81c91555-57c7-4052-a284-422254e680a3",
    "name": "Erwin",
    "state_id": "979bc521-c037-4700-8e71-098b979b9f21"
  },
  {
    "id": "8ffb6a3e-5819-449a-9379-8dc86d90940e",
    "name": "Estill Springs",
    "state_id": "979bc521-c037-4700-8e71-098b979b9f21"
  },
  {
    "id": "b12d940b-0429-4e2e-9698-67124ead51f6",
    "name": "Etowah",
    "state_id": "979bc521-c037-4700-8e71-098b979b9f21"
  },
  {
    "id": "87498b77-fef3-4d58-88ce-d2f3bfb15673",
    "name": "Fairfield Glade",
    "state_id": "979bc521-c037-4700-8e71-098b979b9f21"
  },
  {
    "id": "d3551e95-7e13-4073-9ef4-ea1bbb3c815b",
    "name": "Fairmount",
    "state_id": "979bc521-c037-4700-8e71-098b979b9f21"
  },
  {
    "id": "9753d7b4-9a87-44d2-a0ca-a16f2af44976",
    "name": "Fairview",
    "state_id": "979bc521-c037-4700-8e71-098b979b9f21"
  },
  {
    "id": "db146d6a-9105-4b7f-9f69-41c35c228dc2",
    "name": "Fall Branch",
    "state_id": "979bc521-c037-4700-8e71-098b979b9f21"
  },
  {
    "id": "2e68144d-b585-47d5-b7e9-d643dccee762",
    "name": "Falling Water",
    "state_id": "979bc521-c037-4700-8e71-098b979b9f21"
  },
  {
    "id": "f74542ce-3ca4-47f2-b884-4fa5e8157017",
    "name": "Farragut",
    "state_id": "979bc521-c037-4700-8e71-098b979b9f21"
  },
  {
    "id": "3e406066-b5f8-4eac-b19d-b6807fd7a31e",
    "name": "Fayette County",
    "state_id": "979bc521-c037-4700-8e71-098b979b9f21"
  },
  {
    "id": "2649eedb-1e90-46ec-bea4-7c670488ff21",
    "name": "Fayetteville",
    "state_id": "979bc521-c037-4700-8e71-098b979b9f21"
  },
  {
    "id": "5a3ecf3e-02fb-4d5c-a740-88d16c2a2cd4",
    "name": "Fentress County",
    "state_id": "979bc521-c037-4700-8e71-098b979b9f21"
  },
  {
    "id": "a908ef0c-2e9f-4860-ae1e-34b2465accf3",
    "name": "Fincastle",
    "state_id": "979bc521-c037-4700-8e71-098b979b9f21"
  },
  {
    "id": "69955897-ea25-45f8-a952-bb275c637837",
    "name": "Forest Hills",
    "state_id": "979bc521-c037-4700-8e71-098b979b9f21"
  },
  {
    "id": "e126297f-6f1b-47ba-84a4-cc3581be4385",
    "name": "Franklin",
    "state_id": "979bc521-c037-4700-8e71-098b979b9f21"
  },
  {
    "id": "c5ef4311-39a8-4332-9885-4170d1b17fec",
    "name": "Franklin County",
    "state_id": "979bc521-c037-4700-8e71-098b979b9f21"
  },
  {
    "id": "6bf81542-6f93-4699-9508-cdb60aa0549a",
    "name": "Gainesboro",
    "state_id": "979bc521-c037-4700-8e71-098b979b9f21"
  },
  {
    "id": "f1f7f9fc-1ac0-4d67-8089-11ef0f71eac8",
    "name": "Gallatin",
    "state_id": "979bc521-c037-4700-8e71-098b979b9f21"
  },
  {
    "id": "5d5dcba2-2681-4ef1-914d-095b0c826181",
    "name": "Gatlinburg",
    "state_id": "979bc521-c037-4700-8e71-098b979b9f21"
  },
  {
    "id": "9121c2d9-9290-4953-a0e6-b5a59798c63f",
    "name": "Germantown",
    "state_id": "979bc521-c037-4700-8e71-098b979b9f21"
  },
  {
    "id": "1e1db866-c001-4a6d-a9aa-d35decd7c4cd",
    "name": "Gibson County",
    "state_id": "979bc521-c037-4700-8e71-098b979b9f21"
  },
  {
    "id": "ae499d3e-ae12-4659-999c-8c70dc8820f4",
    "name": "Giles County",
    "state_id": "979bc521-c037-4700-8e71-098b979b9f21"
  },
  {
    "id": "38f1c53f-0f96-4b55-aa6e-f64de2a6da8b",
    "name": "Gleason",
    "state_id": "979bc521-c037-4700-8e71-098b979b9f21"
  },
  {
    "id": "1a5cc0f4-08a0-4e98-8999-b8582f99035d",
    "name": "Goodlettsville",
    "state_id": "979bc521-c037-4700-8e71-098b979b9f21"
  },
  {
    "id": "31900904-ba9f-497b-aa54-32ed1fb8d3c4",
    "name": "Gordonsville",
    "state_id": "979bc521-c037-4700-8e71-098b979b9f21"
  },
  {
    "id": "c09e77f9-2e6b-4729-883b-c90c6b3dcbb3",
    "name": "Grainger County",
    "state_id": "979bc521-c037-4700-8e71-098b979b9f21"
  },
  {
    "id": "35d1a55c-f244-4444-9209-769061a93ea8",
    "name": "Gray",
    "state_id": "979bc521-c037-4700-8e71-098b979b9f21"
  },
  {
    "id": "0c02a141-81d5-4914-923a-650c80007303",
    "name": "Graysville",
    "state_id": "979bc521-c037-4700-8e71-098b979b9f21"
  },
  {
    "id": "c8a425a4-3f1a-49c2-86b8-253e890684cc",
    "name": "Green Hill",
    "state_id": "979bc521-c037-4700-8e71-098b979b9f21"
  },
  {
    "id": "2fdef957-a95e-4d8e-8c5a-edbd20ed069f",
    "name": "Greenback",
    "state_id": "979bc521-c037-4700-8e71-098b979b9f21"
  },
  {
    "id": "47b882c5-03ec-4692-bdb0-45d81649aceb",
    "name": "Greenbrier",
    "state_id": "979bc521-c037-4700-8e71-098b979b9f21"
  },
  {
    "id": "9fdb422f-f88f-404b-b8fa-a806ee38b7b6",
    "name": "Greene County",
    "state_id": "979bc521-c037-4700-8e71-098b979b9f21"
  },
  {
    "id": "e15f6155-cff1-4f65-a85e-2cf35e2b967a",
    "name": "Greeneville",
    "state_id": "979bc521-c037-4700-8e71-098b979b9f21"
  },
  {
    "id": "3ac7ffee-afdb-4b69-ac24-998a43add685",
    "name": "Greenfield",
    "state_id": "979bc521-c037-4700-8e71-098b979b9f21"
  },
  {
    "id": "1f32ba4f-0794-4dd5-9cae-b5e9fd947ee9",
    "name": "Grimsley",
    "state_id": "979bc521-c037-4700-8e71-098b979b9f21"
  },
  {
    "id": "4032c74c-f131-43b4-b517-4d646813c211",
    "name": "Gruetli-Laager",
    "state_id": "979bc521-c037-4700-8e71-098b979b9f21"
  },
  {
    "id": "b5b93deb-0b8e-4bb6-a62e-635358caf855",
    "name": "Grundy County",
    "state_id": "979bc521-c037-4700-8e71-098b979b9f21"
  },
  {
    "id": "21135d0f-8beb-4ee9-aa86-8d1ed0949b4a",
    "name": "Halls",
    "state_id": "979bc521-c037-4700-8e71-098b979b9f21"
  },
  {
    "id": "505985ca-cb2a-4789-bca7-b8f0547a6fc2",
    "name": "Hamblen County",
    "state_id": "979bc521-c037-4700-8e71-098b979b9f21"
  },
  {
    "id": "240d237a-21d3-468a-87b2-d5bb829908e7",
    "name": "Hamilton County",
    "state_id": "979bc521-c037-4700-8e71-098b979b9f21"
  },
  {
    "id": "c0ed1b21-35d2-4d5c-9fea-3ed22efa43ce",
    "name": "Hancock County",
    "state_id": "979bc521-c037-4700-8e71-098b979b9f21"
  },
  {
    "id": "a803359d-1f4d-4244-83fd-466de252fd85",
    "name": "Hardeman County",
    "state_id": "979bc521-c037-4700-8e71-098b979b9f21"
  },
  {
    "id": "095e5190-08e4-4887-904d-63bc55e5e969",
    "name": "Hardin County",
    "state_id": "979bc521-c037-4700-8e71-098b979b9f21"
  },
  {
    "id": "83577ee7-1b25-41df-b190-f4f73e6f9cb9",
    "name": "Harriman",
    "state_id": "979bc521-c037-4700-8e71-098b979b9f21"
  },
  {
    "id": "b0171b12-b0d7-4cdf-8517-d07d8ea5b8aa",
    "name": "Harrison",
    "state_id": "979bc521-c037-4700-8e71-098b979b9f21"
  },
  {
    "id": "b3cb0542-b9ae-4ea3-89ec-2cb64cfd3495",
    "name": "Harrogate",
    "state_id": "979bc521-c037-4700-8e71-098b979b9f21"
  },
  {
    "id": "849995f6-490f-4412-8543-e0b43c32a801",
    "name": "Hartsville",
    "state_id": "979bc521-c037-4700-8e71-098b979b9f21"
  },
  {
    "id": "6ee92ce3-60ec-412e-a87f-5b80616a36a0",
    "name": "Hawkins County",
    "state_id": "979bc521-c037-4700-8e71-098b979b9f21"
  },
  {
    "id": "aefb03ad-d1b0-4543-945e-fa331c5f54e9",
    "name": "Haywood County",
    "state_id": "979bc521-c037-4700-8e71-098b979b9f21"
  },
  {
    "id": "68c121bc-1a47-4838-97a6-2b6eab0833af",
    "name": "Henderson",
    "state_id": "979bc521-c037-4700-8e71-098b979b9f21"
  },
  {
    "id": "f89441d5-017c-4745-8930-edc52f8f9070",
    "name": "Henderson County",
    "state_id": "979bc521-c037-4700-8e71-098b979b9f21"
  },
  {
    "id": "9d773091-90b3-4ebd-8fc3-1b467e530e48",
    "name": "Hendersonville",
    "state_id": "979bc521-c037-4700-8e71-098b979b9f21"
  },
  {
    "id": "52d500b8-1302-4bdd-a0b9-1e560cac7465",
    "name": "Henry County",
    "state_id": "979bc521-c037-4700-8e71-098b979b9f21"
  },
  {
    "id": "78b2b97b-22b5-4d6f-b04a-30fc28f5b857",
    "name": "Hickman County",
    "state_id": "979bc521-c037-4700-8e71-098b979b9f21"
  },
  {
    "id": "14d63bc9-1ff8-4188-92a0-6e27760a53e2",
    "name": "Hickory Withe",
    "state_id": "979bc521-c037-4700-8e71-098b979b9f21"
  },
  {
    "id": "f16645fa-57a4-4e1d-bda5-d3b5be179c2b",
    "name": "Hohenwald",
    "state_id": "979bc521-c037-4700-8e71-098b979b9f21"
  },
  {
    "id": "97ec0574-533e-47d1-bca4-5e801ebf7950",
    "name": "Hopewell",
    "state_id": "979bc521-c037-4700-8e71-098b979b9f21"
  },
  {
    "id": "0e0c1120-fbbb-4ff0-acc1-92ab07e78a19",
    "name": "Houston County",
    "state_id": "979bc521-c037-4700-8e71-098b979b9f21"
  },
  {
    "id": "17c44bd2-8213-4a52-a113-63567da07a4c",
    "name": "Humboldt",
    "state_id": "979bc521-c037-4700-8e71-098b979b9f21"
  },
  {
    "id": "104d4706-7933-443b-975d-9d78fbcd4753",
    "name": "Humphreys County",
    "state_id": "979bc521-c037-4700-8e71-098b979b9f21"
  },
  {
    "id": "4472dafd-478e-4b1a-81fe-675b48279cda",
    "name": "Hunter",
    "state_id": "979bc521-c037-4700-8e71-098b979b9f21"
  },
  {
    "id": "8a3f5d4b-4556-43fe-a419-a50170697041",
    "name": "Huntingdon",
    "state_id": "979bc521-c037-4700-8e71-098b979b9f21"
  },
  {
    "id": "2f968270-af0f-4b31-9a8e-8d16d465abe8",
    "name": "Huntsville",
    "state_id": "979bc521-c037-4700-8e71-098b979b9f21"
  },
  {
    "id": "d9df7d4d-9992-43e8-ae76-c695c1ac7125",
    "name": "Jacksboro",
    "state_id": "979bc521-c037-4700-8e71-098b979b9f21"
  },
  {
    "id": "e510fcba-828c-4c56-a3f2-de89bbfd4165",
    "name": "Jackson",
    "state_id": "979bc521-c037-4700-8e71-098b979b9f21"
  },
  {
    "id": "213a2846-3d52-4270-9b6f-7a5a47335c53",
    "name": "Jackson County",
    "state_id": "979bc521-c037-4700-8e71-098b979b9f21"
  },
  {
    "id": "982d3a09-cd97-492c-be2c-3062fa98575a",
    "name": "Jamestown",
    "state_id": "979bc521-c037-4700-8e71-098b979b9f21"
  },
  {
    "id": "c65ce225-ac95-4b23-8045-a8223226deb6",
    "name": "Jasper",
    "state_id": "979bc521-c037-4700-8e71-098b979b9f21"
  },
  {
    "id": "49d40a19-9574-4802-8ca5-ee1a829b8850",
    "name": "Jefferson City",
    "state_id": "979bc521-c037-4700-8e71-098b979b9f21"
  },
  {
    "id": "6b1c64f7-0bf0-48c5-ab11-a5b9cb1b18fc",
    "name": "Jefferson County",
    "state_id": "979bc521-c037-4700-8e71-098b979b9f21"
  },
  {
    "id": "9194f2aa-d8f5-4d75-a8b0-73ab5085439a",
    "name": "Jellico",
    "state_id": "979bc521-c037-4700-8e71-098b979b9f21"
  },
  {
    "id": "55161cd3-9d98-4d8e-9b27-f0bef7f83be0",
    "name": "Johnson City",
    "state_id": "979bc521-c037-4700-8e71-098b979b9f21"
  },
  {
    "id": "8cee2e27-29fb-4fb3-abd6-4c4a8823206f",
    "name": "Johnson County",
    "state_id": "979bc521-c037-4700-8e71-098b979b9f21"
  },
  {
    "id": "cb7a8d0a-3e90-43b8-8aaa-9b02f50ca8ea",
    "name": "Johnsonville",
    "state_id": "979bc521-c037-4700-8e71-098b979b9f21"
  },
  {
    "id": "1652b729-a6d0-4b05-abfd-3e538cde9d6b",
    "name": "Jonesborough",
    "state_id": "979bc521-c037-4700-8e71-098b979b9f21"
  },
  {
    "id": "728092ca-2f4c-41bf-9898-3a67bf21b7d8",
    "name": "Kenton",
    "state_id": "979bc521-c037-4700-8e71-098b979b9f21"
  },
  {
    "id": "a81a8bf6-11ca-44b2-89f7-f79c7d8bf3f8",
    "name": "Kimball",
    "state_id": "979bc521-c037-4700-8e71-098b979b9f21"
  },
  {
    "id": "b28bcc0d-bb9f-4bb4-8806-04e52eb76208",
    "name": "Kingsport",
    "state_id": "979bc521-c037-4700-8e71-098b979b9f21"
  },
  {
    "id": "942ee0df-a28b-44f4-baa0-ac741604f826",
    "name": "Kingston",
    "state_id": "979bc521-c037-4700-8e71-098b979b9f21"
  },
  {
    "id": "1f8a38be-c33b-4b60-9751-43b998173230",
    "name": "Kingston Springs",
    "state_id": "979bc521-c037-4700-8e71-098b979b9f21"
  },
  {
    "id": "02446c1b-3a35-4bef-95d4-e6b13a0c55d2",
    "name": "Knox County",
    "state_id": "979bc521-c037-4700-8e71-098b979b9f21"
  },
  {
    "id": "5dd0899a-79f1-4b4a-95b7-dd284b00a34b",
    "name": "Knoxville",
    "state_id": "979bc521-c037-4700-8e71-098b979b9f21"
  },
  {
    "id": "592f4014-7769-4c92-ac73-e9caeec49b7e",
    "name": "La Vergne",
    "state_id": "979bc521-c037-4700-8e71-098b979b9f21"
  },
  {
    "id": "8a1687e2-37c2-44ed-9320-7860d607963c",
    "name": "Lafayette",
    "state_id": "979bc521-c037-4700-8e71-098b979b9f21"
  },
  {
    "id": "f08e532f-02bb-4b99-9f89-273aa4df0319",
    "name": "LaFollette",
    "state_id": "979bc521-c037-4700-8e71-098b979b9f21"
  },
  {
    "id": "966ba037-5c34-417e-b08e-01a4f80051a1",
    "name": "Lake County",
    "state_id": "979bc521-c037-4700-8e71-098b979b9f21"
  },
  {
    "id": "1f2e32a7-5c9c-4a9c-a7ed-c54a4fb39741",
    "name": "Lake Tansi",
    "state_id": "979bc521-c037-4700-8e71-098b979b9f21"
  },
  {
    "id": "7b699e29-f871-46a5-b39a-3f855628c3da",
    "name": "Lakeland",
    "state_id": "979bc521-c037-4700-8e71-098b979b9f21"
  },
  {
    "id": "9d44d55f-ca28-481c-8999-7a3df02752d0",
    "name": "Lakesite",
    "state_id": "979bc521-c037-4700-8e71-098b979b9f21"
  },
  {
    "id": "a2c4838b-f48c-49bc-8cf0-a313d94ab506",
    "name": "Lakewood",
    "state_id": "979bc521-c037-4700-8e71-098b979b9f21"
  },
  {
    "id": "296aeeb1-620e-43c6-8bdb-e3111385201a",
    "name": "Lauderdale County",
    "state_id": "979bc521-c037-4700-8e71-098b979b9f21"
  },
  {
    "id": "f42ed8df-a020-4eab-83e6-a03fddba5729",
    "name": "Lawrence County",
    "state_id": "979bc521-c037-4700-8e71-098b979b9f21"
  },
  {
    "id": "fde02f49-96fa-46a5-ad66-00af91f40bb2",
    "name": "Lawrenceburg",
    "state_id": "979bc521-c037-4700-8e71-098b979b9f21"
  },
  {
    "id": "51b2c9af-544a-40a8-bf21-14983287dba6",
    "name": "Lebanon",
    "state_id": "979bc521-c037-4700-8e71-098b979b9f21"
  },
  {
    "id": "05da5bfc-85ca-4981-855a-df0c44fe3e71",
    "name": "Lenoir City",
    "state_id": "979bc521-c037-4700-8e71-098b979b9f21"
  },
  {
    "id": "6ce57dfd-0520-4d60-9b00-3ee3c4f13e2b",
    "name": "Lewis County",
    "state_id": "979bc521-c037-4700-8e71-098b979b9f21"
  },
  {
    "id": "ec6c1c87-f742-4903-b6ed-848bd631037f",
    "name": "Lewisburg",
    "state_id": "979bc521-c037-4700-8e71-098b979b9f21"
  },
  {
    "id": "a1953ea8-f76a-473b-a401-1626613069e2",
    "name": "Lexington",
    "state_id": "979bc521-c037-4700-8e71-098b979b9f21"
  },
  {
    "id": "7418590a-931c-4408-9b91-ec1920b2b34f",
    "name": "Lincoln County",
    "state_id": "979bc521-c037-4700-8e71-098b979b9f21"
  },
  {
    "id": "d41cf792-424f-408e-b160-e0dcff9fc6ea",
    "name": "Linden",
    "state_id": "979bc521-c037-4700-8e71-098b979b9f21"
  },
  {
    "id": "b928e4fb-3b91-439f-9650-96e495260b30",
    "name": "Livingston",
    "state_id": "979bc521-c037-4700-8e71-098b979b9f21"
  },
  {
    "id": "9a939e9d-fe90-4edc-a7d8-8f9328b5f678",
    "name": "Lone Oak",
    "state_id": "979bc521-c037-4700-8e71-098b979b9f21"
  },
  {
    "id": "26ae4f78-e52b-4a10-b696-c035cc43c729",
    "name": "Lookout Mountain",
    "state_id": "979bc521-c037-4700-8e71-098b979b9f21"
  },
  {
    "id": "4e864021-665d-4b6f-a07c-ea3051eb48ba",
    "name": "Loretto",
    "state_id": "979bc521-c037-4700-8e71-098b979b9f21"
  },
  {
    "id": "f223f63f-5cc8-4393-b945-49283d5c39e2",
    "name": "Loudon",
    "state_id": "979bc521-c037-4700-8e71-098b979b9f21"
  },
  {
    "id": "60ea9116-8f7b-4186-b962-e5a3786a4243",
    "name": "Loudon County",
    "state_id": "979bc521-c037-4700-8e71-098b979b9f21"
  },
  {
    "id": "5885121a-ac67-4d33-8550-b097f3636ef1",
    "name": "Louisville",
    "state_id": "979bc521-c037-4700-8e71-098b979b9f21"
  },
  {
    "id": "63f477cb-de42-4635-89fd-e18e62f51e65",
    "name": "Luttrell",
    "state_id": "979bc521-c037-4700-8e71-098b979b9f21"
  },
  {
    "id": "ac541d4d-d01c-4d87-a1b4-b2ac1061c510",
    "name": "Lynchburg",
    "state_id": "979bc521-c037-4700-8e71-098b979b9f21"
  },
  {
    "id": "b7468760-1ea7-45fd-80cc-dac6e33276bc",
    "name": "Macon County",
    "state_id": "979bc521-c037-4700-8e71-098b979b9f21"
  },
  {
    "id": "5d739a8a-2f30-40aa-82ae-5a837d568fce",
    "name": "Madison County",
    "state_id": "979bc521-c037-4700-8e71-098b979b9f21"
  },
  {
    "id": "3ff2353e-5a60-4fa0-9aad-d3dc0bfac43e",
    "name": "Madisonville",
    "state_id": "979bc521-c037-4700-8e71-098b979b9f21"
  },
  {
    "id": "90e91583-da54-4a81-b85b-246fc2235b6d",
    "name": "Manchester",
    "state_id": "979bc521-c037-4700-8e71-098b979b9f21"
  },
  {
    "id": "62109e2e-d548-4786-9184-9d97072f682a",
    "name": "Marion County",
    "state_id": "979bc521-c037-4700-8e71-098b979b9f21"
  },
  {
    "id": "2ec201fb-9f7e-434c-9981-b2540dcd6330",
    "name": "Marshall County",
    "state_id": "979bc521-c037-4700-8e71-098b979b9f21"
  },
  {
    "id": "1924700b-9d12-49ab-8942-96185f4b3844",
    "name": "Martin",
    "state_id": "979bc521-c037-4700-8e71-098b979b9f21"
  },
  {
    "id": "266818c9-d6d4-45b6-8a95-9d5e8a072309",
    "name": "Maryville",
    "state_id": "979bc521-c037-4700-8e71-098b979b9f21"
  },
  {
    "id": "44a4c84c-9eed-49e9-9ecb-c9b4a9cd9817",
    "name": "Mascot",
    "state_id": "979bc521-c037-4700-8e71-098b979b9f21"
  },
  {
    "id": "85c70439-8a8f-44d7-a785-4fa09dcbd12d",
    "name": "Mason",
    "state_id": "979bc521-c037-4700-8e71-098b979b9f21"
  },
  {
    "id": "a2d56b43-7c8c-4288-b5c4-6afe58ccdefa",
    "name": "Maury County",
    "state_id": "979bc521-c037-4700-8e71-098b979b9f21"
  },
  {
    "id": "1a5a05b2-160b-4075-992a-7540b8d140ff",
    "name": "Maynardville",
    "state_id": "979bc521-c037-4700-8e71-098b979b9f21"
  },
  {
    "id": "fdde6705-2d58-473f-b251-b2b4925b447a",
    "name": "McEwen",
    "state_id": "979bc521-c037-4700-8e71-098b979b9f21"
  },
  {
    "id": "5f29f22e-f161-4c83-8797-4c1c0621a3cc",
    "name": "McKenzie",
    "state_id": "979bc521-c037-4700-8e71-098b979b9f21"
  },
  {
    "id": "9bd3d588-fd95-4397-a2d1-8617d922e8fb",
    "name": "McMinn County",
    "state_id": "979bc521-c037-4700-8e71-098b979b9f21"
  },
  {
    "id": "f35c7d88-d642-4f88-b96f-99f1a90bb0d8",
    "name": "McMinnville",
    "state_id": "979bc521-c037-4700-8e71-098b979b9f21"
  },
  {
    "id": "dd21dfc2-e7de-4e90-aeb4-c781f33bf453",
    "name": "McNairy County",
    "state_id": "979bc521-c037-4700-8e71-098b979b9f21"
  },
  {
    "id": "1f01851c-0b61-43ee-906a-da3a4b097fd2",
    "name": "Medina",
    "state_id": "979bc521-c037-4700-8e71-098b979b9f21"
  },
  {
    "id": "ec4a9b86-0335-4dd2-8674-803fc1e6c017",
    "name": "Meigs County",
    "state_id": "979bc521-c037-4700-8e71-098b979b9f21"
  },
  {
    "id": "78bc0e58-0861-4706-959e-868c9e91b875",
    "name": "Memphis",
    "state_id": "979bc521-c037-4700-8e71-098b979b9f21"
  },
  {
    "id": "4ac5b6f2-85f2-4c0d-a8cc-4fd9cc16e01a",
    "name": "Middle Valley",
    "state_id": "979bc521-c037-4700-8e71-098b979b9f21"
  },
  {
    "id": "82021009-27f6-48fe-8b6c-5b484a317718",
    "name": "Midtown",
    "state_id": "979bc521-c037-4700-8e71-098b979b9f21"
  },
  {
    "id": "e9e9e069-afd3-434b-956b-b062255fd3db",
    "name": "Midway",
    "state_id": "979bc521-c037-4700-8e71-098b979b9f21"
  },
  {
    "id": "634c48e7-98be-4d0d-a236-b89cda81b677",
    "name": "Milan",
    "state_id": "979bc521-c037-4700-8e71-098b979b9f21"
  },
  {
    "id": "c0e84da7-8bbb-4bf8-9265-2cb0df5f2996",
    "name": "Millersville",
    "state_id": "979bc521-c037-4700-8e71-098b979b9f21"
  },
  {
    "id": "809145e2-b2a3-4503-b1bd-c8f92c9b9d8a",
    "name": "Millington",
    "state_id": "979bc521-c037-4700-8e71-098b979b9f21"
  },
  {
    "id": "72d6e726-41f5-4fd0-ab64-8e01879b7e00",
    "name": "Monroe County",
    "state_id": "979bc521-c037-4700-8e71-098b979b9f21"
  },
  {
    "id": "8455c3b0-43a0-4ae4-9199-bbb7f6df4eb5",
    "name": "Monteagle",
    "state_id": "979bc521-c037-4700-8e71-098b979b9f21"
  },
  {
    "id": "0c25098a-121d-4595-aa25-28700571eed1",
    "name": "Monterey",
    "state_id": "979bc521-c037-4700-8e71-098b979b9f21"
  },
  {
    "id": "21dfb2b3-0f04-4375-8cc5-1f197c602fd5",
    "name": "Montgomery County",
    "state_id": "979bc521-c037-4700-8e71-098b979b9f21"
  },
  {
    "id": "d5cc2e90-526c-41fa-a633-9f54ced5025a",
    "name": "Moore County",
    "state_id": "979bc521-c037-4700-8e71-098b979b9f21"
  },
  {
    "id": "cdc8e5f0-8723-4098-8faf-1955b3445b25",
    "name": "Morgan County",
    "state_id": "979bc521-c037-4700-8e71-098b979b9f21"
  },
  {
    "id": "c440438a-cb3c-49b8-baa7-bb36be7fb33c",
    "name": "Morristown",
    "state_id": "979bc521-c037-4700-8e71-098b979b9f21"
  },
  {
    "id": "2d59b417-0909-47d5-8b7e-6fead15e6914",
    "name": "Mosheim",
    "state_id": "979bc521-c037-4700-8e71-098b979b9f21"
  },
  {
    "id": "c907bab5-33cd-4459-8d40-5016463b64cb",
    "name": "Mount Carmel",
    "state_id": "979bc521-c037-4700-8e71-098b979b9f21"
  },
  {
    "id": "622d8ae0-0c1f-4c0f-870f-01ad51d3159f",
    "name": "Mount Juliet",
    "state_id": "979bc521-c037-4700-8e71-098b979b9f21"
  },
  {
    "id": "5d01a741-f045-4419-8af3-424579ff8493",
    "name": "Mount Pleasant",
    "state_id": "979bc521-c037-4700-8e71-098b979b9f21"
  },
  {
    "id": "e61334b5-7679-449c-83ed-454682f0a2aa",
    "name": "Mountain City",
    "state_id": "979bc521-c037-4700-8e71-098b979b9f21"
  },
  {
    "id": "b831fba1-c238-4f2a-bcc7-4899c433e356",
    "name": "Mowbray Mountain",
    "state_id": "979bc521-c037-4700-8e71-098b979b9f21"
  },
  {
    "id": "08e70489-c4d8-4d09-a61c-e38056daf512",
    "name": "Munford",
    "state_id": "979bc521-c037-4700-8e71-098b979b9f21"
  },
  {
    "id": "077a1ad9-d9a4-4472-91b6-abfbbe57926a",
    "name": "Murfreesboro",
    "state_id": "979bc521-c037-4700-8e71-098b979b9f21"
  },
  {
    "id": "06576dff-bcc4-4818-869b-616cc2c30f2b",
    "name": "Nashville",
    "state_id": "979bc521-c037-4700-8e71-098b979b9f21"
  },
  {
    "id": "4aef8a55-517f-42a3-a9b5-10c20fdcf260",
    "name": "New Hope",
    "state_id": "979bc521-c037-4700-8e71-098b979b9f21"
  },
  {
    "id": "aa42468d-59ca-48e4-9090-8c37d00048c7",
    "name": "New Johnsonville",
    "state_id": "979bc521-c037-4700-8e71-098b979b9f21"
  },
  {
    "id": "31b1072c-fa91-464d-954a-1cabf0d23295",
    "name": "New Market",
    "state_id": "979bc521-c037-4700-8e71-098b979b9f21"
  },
  {
    "id": "5926e271-d332-45d8-9c9c-d880708c1425",
    "name": "New South Memphis",
    "state_id": "979bc521-c037-4700-8e71-098b979b9f21"
  },
  {
    "id": "f0356f3a-dd8c-4e29-9c9d-39a06be3c334",
    "name": "New Tazewell",
    "state_id": "979bc521-c037-4700-8e71-098b979b9f21"
  },
  {
    "id": "b637860a-2056-4435-864e-881ae528922a",
    "name": "New Union",
    "state_id": "979bc521-c037-4700-8e71-098b979b9f21"
  },
  {
    "id": "7ccd843a-1928-44c7-bc0a-517b44aaf42d",
    "name": "Newbern",
    "state_id": "979bc521-c037-4700-8e71-098b979b9f21"
  },
  {
    "id": "004f7f19-379e-4dc0-b5ee-3a403383edf9",
    "name": "Newport",
    "state_id": "979bc521-c037-4700-8e71-098b979b9f21"
  },
  {
    "id": "e9a1e000-c3a7-42ef-aa38-a38fd7359d6b",
    "name": "Nolensville",
    "state_id": "979bc521-c037-4700-8e71-098b979b9f21"
  },
  {
    "id": "cd34e749-be6e-4bd6-a27a-31c9a1efb242",
    "name": "Norris",
    "state_id": "979bc521-c037-4700-8e71-098b979b9f21"
  },
  {
    "id": "3eff150c-c6a0-4946-80bb-85c7a0077e5e",
    "name": "Oak Grove",
    "state_id": "979bc521-c037-4700-8e71-098b979b9f21"
  },
  {
    "id": "a050ebe7-f33a-45de-a660-0fd6e5a9226b",
    "name": "Oak Hill",
    "state_id": "979bc521-c037-4700-8e71-098b979b9f21"
  },
  {
    "id": "141de073-48c4-4594-9c7a-2f799f12fe01",
    "name": "Oak Ridge",
    "state_id": "979bc521-c037-4700-8e71-098b979b9f21"
  },
  {
    "id": "07c86f86-496e-4ee4-b349-766a043d73eb",
    "name": "Oakland",
    "state_id": "979bc521-c037-4700-8e71-098b979b9f21"
  },
  {
    "id": "e009b381-37d8-41e0-8705-aaec2e3060d4",
    "name": "Obion",
    "state_id": "979bc521-c037-4700-8e71-098b979b9f21"
  },
  {
    "id": "d7837e63-84ba-4f86-b814-816080f7c645",
    "name": "Obion County",
    "state_id": "979bc521-c037-4700-8e71-098b979b9f21"
  },
  {
    "id": "94ea94d4-e4d6-4dd9-b4f1-18c70b5115b2",
    "name": "Oliver Springs",
    "state_id": "979bc521-c037-4700-8e71-098b979b9f21"
  },
  {
    "id": "ab593fd8-a9f7-4827-94f2-a1be853603c8",
    "name": "Olivet",
    "state_id": "979bc521-c037-4700-8e71-098b979b9f21"
  },
  {
    "id": "e73a4305-d808-4f02-b977-3ded8ecebb46",
    "name": "Oneida",
    "state_id": "979bc521-c037-4700-8e71-098b979b9f21"
  },
  {
    "id": "aa698205-a442-45a3-a5f2-074b41311d9e",
    "name": "Overton County",
    "state_id": "979bc521-c037-4700-8e71-098b979b9f21"
  },
  {
    "id": "c3e88e3d-7784-4297-8864-0bd0018f74fb",
    "name": "Paris",
    "state_id": "979bc521-c037-4700-8e71-098b979b9f21"
  },
  {
    "id": "cb224161-5ec8-4411-a394-610c3add0b3d",
    "name": "Park City",
    "state_id": "979bc521-c037-4700-8e71-098b979b9f21"
  },
  {
    "id": "6621d710-bb7d-4d86-a244-bfcf04b84a1b",
    "name": "Parsons",
    "state_id": "979bc521-c037-4700-8e71-098b979b9f21"
  },
  {
    "id": "aa49dc93-1d9b-426f-9c99-91aa9acd26b3",
    "name": "Pegram",
    "state_id": "979bc521-c037-4700-8e71-098b979b9f21"
  },
  {
    "id": "99c85133-e7ec-47f3-9b4d-82f6a358575c",
    "name": "Perry County",
    "state_id": "979bc521-c037-4700-8e71-098b979b9f21"
  },
  {
    "id": "3c74e86e-f19a-4fbb-8160-13913344c0d9",
    "name": "Pickett County",
    "state_id": "979bc521-c037-4700-8e71-098b979b9f21"
  },
  {
    "id": "cda6b4d9-49f9-46e4-9031-471222345f51",
    "name": "Pigeon Forge",
    "state_id": "979bc521-c037-4700-8e71-098b979b9f21"
  },
  {
    "id": "9b26c823-83cc-43e6-9ef7-0aeb643a627e",
    "name": "Pikeville",
    "state_id": "979bc521-c037-4700-8e71-098b979b9f21"
  },
  {
    "id": "4680dda0-1edb-4a3d-a78a-656b7d147ccd",
    "name": "Pine Crest",
    "state_id": "979bc521-c037-4700-8e71-098b979b9f21"
  },
  {
    "id": "43aa3973-3008-4102-94f5-5eacfe38a797",
    "name": "Piperton",
    "state_id": "979bc521-c037-4700-8e71-098b979b9f21"
  },
  {
    "id": "8686abbb-979a-4afb-bbe5-1b6b811c9177",
    "name": "Plainview",
    "state_id": "979bc521-c037-4700-8e71-098b979b9f21"
  },
  {
    "id": "3e9094e2-171b-4340-b6db-f6eb5381f253",
    "name": "Pleasant View",
    "state_id": "979bc521-c037-4700-8e71-098b979b9f21"
  },
  {
    "id": "f5e054df-1298-4f97-b6e9-3df1df345133",
    "name": "Polk County",
    "state_id": "979bc521-c037-4700-8e71-098b979b9f21"
  },
  {
    "id": "88c40960-c3d2-4f1e-9229-91bf66a39643",
    "name": "Portland",
    "state_id": "979bc521-c037-4700-8e71-098b979b9f21"
  },
  {
    "id": "f83ca2a5-186b-450b-88c9-f5cb741cd544",
    "name": "Powells Crossroads",
    "state_id": "979bc521-c037-4700-8e71-098b979b9f21"
  },
  {
    "id": "700ed51e-d242-47c0-a045-5528f85713d4",
    "name": "Pulaski",
    "state_id": "979bc521-c037-4700-8e71-098b979b9f21"
  },
  {
    "id": "87c57d71-f5ef-4b64-b2fc-ebb9f769f028",
    "name": "Putnam County",
    "state_id": "979bc521-c037-4700-8e71-098b979b9f21"
  },
  {
    "id": "267b052b-f26c-4314-8fdc-7da81df3d3cf",
    "name": "Red Bank",
    "state_id": "979bc521-c037-4700-8e71-098b979b9f21"
  },
  {
    "id": "fc725f47-6b4d-4420-81a7-3d80ca0e46ad",
    "name": "Red Boiling Springs",
    "state_id": "979bc521-c037-4700-8e71-098b979b9f21"
  },
  {
    "id": "bef42256-e8c2-4f55-bb7a-cded0cae453f",
    "name": "Rhea County",
    "state_id": "979bc521-c037-4700-8e71-098b979b9f21"
  },
  {
    "id": "cb43bcff-1971-4e2f-ac6b-5c60aa2bb2a3",
    "name": "Ridgely",
    "state_id": "979bc521-c037-4700-8e71-098b979b9f21"
  },
  {
    "id": "e1803542-8f91-4c1a-84e8-a15caf103424",
    "name": "Ridgetop",
    "state_id": "979bc521-c037-4700-8e71-098b979b9f21"
  },
  {
    "id": "7ca61d0b-fc74-435f-b5d6-5d84e019eff6",
    "name": "Ripley",
    "state_id": "979bc521-c037-4700-8e71-098b979b9f21"
  },
  {
    "id": "4b76bec0-a7a6-470a-8437-774bc343344e",
    "name": "Roan Mountain",
    "state_id": "979bc521-c037-4700-8e71-098b979b9f21"
  },
  {
    "id": "3e317798-b6e7-4bf7-9fbc-fb12ad50391d",
    "name": "Roane County",
    "state_id": "979bc521-c037-4700-8e71-098b979b9f21"
  },
  {
    "id": "f7651113-2567-4972-ac82-0f269ca6cc7e",
    "name": "Robertson County",
    "state_id": "979bc521-c037-4700-8e71-098b979b9f21"
  },
  {
    "id": "1d16fffa-1450-4290-b40c-30f676acb2c4",
    "name": "Rockwood",
    "state_id": "979bc521-c037-4700-8e71-098b979b9f21"
  },
  {
    "id": "6ffdd51d-9ae4-4170-a8f3-a9e92b23c898",
    "name": "Rocky Top",
    "state_id": "979bc521-c037-4700-8e71-098b979b9f21"
  },
  {
    "id": "38436ff4-9869-42c8-849e-ac11966c9be5",
    "name": "Rogersville",
    "state_id": "979bc521-c037-4700-8e71-098b979b9f21"
  },
  {
    "id": "8c16ef9c-3c30-460a-ae33-2f0d2794e8e7",
    "name": "Rural Hill",
    "state_id": "979bc521-c037-4700-8e71-098b979b9f21"
  },
  {
    "id": "40606a11-fcfd-479e-9e83-c6ba93cf2e4e",
    "name": "Rutherford",
    "state_id": "979bc521-c037-4700-8e71-098b979b9f21"
  },
  {
    "id": "38f6e732-d56f-4db6-9a43-f1246e1698a6",
    "name": "Rutherford County",
    "state_id": "979bc521-c037-4700-8e71-098b979b9f21"
  },
  {
    "id": "07e4e670-b349-4286-8671-134285c6a2ed",
    "name": "Rutledge",
    "state_id": "979bc521-c037-4700-8e71-098b979b9f21"
  },
  {
    "id": "2557e7bb-b1c9-4444-b227-83bd665eb722",
    "name": "Sale Creek",
    "state_id": "979bc521-c037-4700-8e71-098b979b9f21"
  },
  {
    "id": "24efccff-a76e-40b4-8e2e-60f370982295",
    "name": "Savannah",
    "state_id": "979bc521-c037-4700-8e71-098b979b9f21"
  },
  {
    "id": "8e61357b-bcc9-44e4-aa90-f30d4c402b1b",
    "name": "Scott County",
    "state_id": "979bc521-c037-4700-8e71-098b979b9f21"
  },
  {
    "id": "cfafacf9-9e1a-4132-ab41-1cf97c0c4445",
    "name": "Selmer",
    "state_id": "979bc521-c037-4700-8e71-098b979b9f21"
  },
  {
    "id": "780e0aa5-ee26-4fb3-984d-eee9ecd2b2eb",
    "name": "Sequatchie County",
    "state_id": "979bc521-c037-4700-8e71-098b979b9f21"
  },
  {
    "id": "03e42e30-855f-40ca-8ba2-b7d592804d52",
    "name": "Sevier County",
    "state_id": "979bc521-c037-4700-8e71-098b979b9f21"
  },
  {
    "id": "9563499f-626e-4107-8491-80859b591331",
    "name": "Sevierville",
    "state_id": "979bc521-c037-4700-8e71-098b979b9f21"
  },
  {
    "id": "c286bd7e-89f7-4202-8b5d-b92090ad0acc",
    "name": "Sewanee",
    "state_id": "979bc521-c037-4700-8e71-098b979b9f21"
  },
  {
    "id": "eebe7237-f447-4ac4-8afa-4b5f5891ca64",
    "name": "Seymour",
    "state_id": "979bc521-c037-4700-8e71-098b979b9f21"
  },
  {
    "id": "e103d94f-d5d2-4a6c-b37b-df5e57f12aa4",
    "name": "Shackle Island",
    "state_id": "979bc521-c037-4700-8e71-098b979b9f21"
  },
  {
    "id": "477d7ec8-e1db-4f65-9b26-ce3b1ae67cb2",
    "name": "Shelby County",
    "state_id": "979bc521-c037-4700-8e71-098b979b9f21"
  },
  {
    "id": "9289caad-c41b-4889-b5ff-68596302833a",
    "name": "Shelbyville",
    "state_id": "979bc521-c037-4700-8e71-098b979b9f21"
  },
  {
    "id": "f32b83ef-6bc1-4a55-b6c6-c65bdb1e2a2d",
    "name": "Signal Mountain",
    "state_id": "979bc521-c037-4700-8e71-098b979b9f21"
  },
  {
    "id": "d70cc673-16c4-4b1d-9910-c17fe1b26a45",
    "name": "Smith County",
    "state_id": "979bc521-c037-4700-8e71-098b979b9f21"
  },
  {
    "id": "99f25cb6-81af-4938-84a5-1af3dc7f61da",
    "name": "Smithville",
    "state_id": "979bc521-c037-4700-8e71-098b979b9f21"
  },
  {
    "id": "ea8226bf-21c6-40b1-9ee9-390edb845d4c",
    "name": "Smyrna",
    "state_id": "979bc521-c037-4700-8e71-098b979b9f21"
  },
  {
    "id": "2cb7d50e-e7e8-4cd0-9cc0-b40793dff094",
    "name": "Sneedville",
    "state_id": "979bc521-c037-4700-8e71-098b979b9f21"
  },
  {
    "id": "eb332cf6-2ec8-42f6-af5b-5033bd4f3449",
    "name": "Soddy-Daisy",
    "state_id": "979bc521-c037-4700-8e71-098b979b9f21"
  },
  {
    "id": "49de02c6-6092-4500-9186-9a599ca161b7",
    "name": "Somerville",
    "state_id": "979bc521-c037-4700-8e71-098b979b9f21"
  },
  {
    "id": "d72f261d-f5f1-4ae5-a7cb-73ba040ca1a0",
    "name": "South Carthage",
    "state_id": "979bc521-c037-4700-8e71-098b979b9f21"
  },
  {
    "id": "e573bbe0-d744-4e6e-8c46-92294702633b",
    "name": "South Cleveland",
    "state_id": "979bc521-c037-4700-8e71-098b979b9f21"
  },
  {
    "id": "5307365d-7feb-48fa-b459-21d437675bcb",
    "name": "South Fulton",
    "state_id": "979bc521-c037-4700-8e71-098b979b9f21"
  },
  {
    "id": "474c2591-ef8b-4c14-adbf-2ccf286fdba5",
    "name": "South Pittsburg",
    "state_id": "979bc521-c037-4700-8e71-098b979b9f21"
  },
  {
    "id": "698be7e0-0057-48d0-a2c1-d7098c6b4048",
    "name": "Sparta",
    "state_id": "979bc521-c037-4700-8e71-098b979b9f21"
  },
  {
    "id": "0393bca9-c6fd-4997-8520-fd20be702f58",
    "name": "Spencer",
    "state_id": "979bc521-c037-4700-8e71-098b979b9f21"
  },
  {
    "id": "ab7626cc-f39f-4325-a374-9424592ed0fa",
    "name": "Spring City",
    "state_id": "979bc521-c037-4700-8e71-098b979b9f21"
  },
  {
    "id": "021b2410-fcc0-4585-96b9-9d5cf9c69190",
    "name": "Spring Hill",
    "state_id": "979bc521-c037-4700-8e71-098b979b9f21"
  },
  {
    "id": "0fac3d2a-5203-4806-a36b-c12e8367ad43",
    "name": "Springfield",
    "state_id": "979bc521-c037-4700-8e71-098b979b9f21"
  },
  {
    "id": "0a8dbeda-7fc2-41cd-939e-642a886ad782",
    "name": "Spurgeon",
    "state_id": "979bc521-c037-4700-8e71-098b979b9f21"
  },
  {
    "id": "1f0e1a68-e8a9-4dce-8816-7e4de0f67935",
    "name": "Stewart County",
    "state_id": "979bc521-c037-4700-8e71-098b979b9f21"
  },
  {
    "id": "0b41b7b6-f961-4c5d-9cd2-a6c04c40ba31",
    "name": "Sullivan County",
    "state_id": "979bc521-c037-4700-8e71-098b979b9f21"
  },
  {
    "id": "fcb8236c-55d8-4547-af95-a6245cd31740",
    "name": "Sumner County",
    "state_id": "979bc521-c037-4700-8e71-098b979b9f21"
  },
  {
    "id": "71aa4a4f-6f9d-4893-b0c6-a574bd05c500",
    "name": "Surgoinsville",
    "state_id": "979bc521-c037-4700-8e71-098b979b9f21"
  },
  {
    "id": "bf8cbf6e-f18d-42ee-9fbe-06c391467a2a",
    "name": "Sweetwater",
    "state_id": "979bc521-c037-4700-8e71-098b979b9f21"
  },
  {
    "id": "55d6f6d2-2455-4e28-8b37-28206b4f6588",
    "name": "Tazewell",
    "state_id": "979bc521-c037-4700-8e71-098b979b9f21"
  },
  {
    "id": "8eda9ba1-0462-44e9-b211-854a6825ec22",
    "name": "Tellico Village",
    "state_id": "979bc521-c037-4700-8e71-098b979b9f21"
  },
  {
    "id": "a01ec441-4ddf-4c7c-ac8f-359752dd8ad3",
    "name": "Tennessee Ridge",
    "state_id": "979bc521-c037-4700-8e71-098b979b9f21"
  },
  {
    "id": "af7f085c-53e8-4a52-8b50-e9aba72c6192",
    "name": "Thompson's Station",
    "state_id": "979bc521-c037-4700-8e71-098b979b9f21"
  },
  {
    "id": "564d9536-e6fd-4878-a3c3-d8a5b3121b28",
    "name": "Three Way",
    "state_id": "979bc521-c037-4700-8e71-098b979b9f21"
  },
  {
    "id": "7cd0557a-6071-4d5f-b36f-010c3ecb593c",
    "name": "Tipton County",
    "state_id": "979bc521-c037-4700-8e71-098b979b9f21"
  },
  {
    "id": "8fc00780-7075-4ae2-a7e7-c35f0d3d0306",
    "name": "Tiptonville",
    "state_id": "979bc521-c037-4700-8e71-098b979b9f21"
  },
  {
    "id": "64d0a07f-c1fd-4ea4-b2ee-554815f14666",
    "name": "Tracy City",
    "state_id": "979bc521-c037-4700-8e71-098b979b9f21"
  },
  {
    "id": "ac790436-ed35-4056-9edd-838da3bc1644",
    "name": "Trenton",
    "state_id": "979bc521-c037-4700-8e71-098b979b9f21"
  },
  {
    "id": "cba316bd-655c-4474-8f0d-7cb097e37f8c",
    "name": "Trousdale County",
    "state_id": "979bc521-c037-4700-8e71-098b979b9f21"
  },
  {
    "id": "e4c5d3e9-4a74-427f-bb71-c71e4453008a",
    "name": "Troy",
    "state_id": "979bc521-c037-4700-8e71-098b979b9f21"
  },
  {
    "id": "0a43696c-aa67-4e7d-928f-2fc051e99a7c",
    "name": "Tullahoma",
    "state_id": "979bc521-c037-4700-8e71-098b979b9f21"
  },
  {
    "id": "9d0b3c19-0c19-4997-bb95-2cb1f6b0f0cd",
    "name": "Tusculum",
    "state_id": "979bc521-c037-4700-8e71-098b979b9f21"
  },
  {
    "id": "032d2612-a117-4c2d-b7c2-78d4f7d52681",
    "name": "Unicoi",
    "state_id": "979bc521-c037-4700-8e71-098b979b9f21"
  },
  {
    "id": "5398ca4d-90ff-4b58-b9f9-d61c7775ccd4",
    "name": "Unicoi County",
    "state_id": "979bc521-c037-4700-8e71-098b979b9f21"
  },
  {
    "id": "933a8a30-bd8d-4da9-8d59-220d298b5be4",
    "name": "Union City",
    "state_id": "979bc521-c037-4700-8e71-098b979b9f21"
  },
  {
    "id": "7bc038f8-4165-4ea1-b358-fe10bce011a2",
    "name": "Union County",
    "state_id": "979bc521-c037-4700-8e71-098b979b9f21"
  },
  {
    "id": "bcd3a01d-a13f-4cb9-96eb-ea79320e1872",
    "name": "Unionville",
    "state_id": "979bc521-c037-4700-8e71-098b979b9f21"
  },
  {
    "id": "36846801-dbe1-4a33-84b2-70b7ef71e30e",
    "name": "Van Buren County",
    "state_id": "979bc521-c037-4700-8e71-098b979b9f21"
  },
  {
    "id": "d7b32e36-6010-406f-9f9c-7f6fe410a264",
    "name": "Vonore",
    "state_id": "979bc521-c037-4700-8e71-098b979b9f21"
  },
  {
    "id": "f98bfcbc-00b4-4c71-ba94-07fab7a6e268",
    "name": "Walden",
    "state_id": "979bc521-c037-4700-8e71-098b979b9f21"
  },
  {
    "id": "34943bf6-1e9b-4003-8f10-17c314e1b121",
    "name": "Walnut Hill",
    "state_id": "979bc521-c037-4700-8e71-098b979b9f21"
  },
  {
    "id": "0387ab8e-a432-4e07-941d-79ecfb029ca3",
    "name": "Warren County",
    "state_id": "979bc521-c037-4700-8e71-098b979b9f21"
  },
  {
    "id": "57e105fd-0668-4312-a100-2b8ad4b5d352",
    "name": "Wartburg",
    "state_id": "979bc521-c037-4700-8e71-098b979b9f21"
  },
  {
    "id": "ff9bc8a7-6fe2-4193-917d-cb8469ee8d5f",
    "name": "Washington County",
    "state_id": "979bc521-c037-4700-8e71-098b979b9f21"
  },
  {
    "id": "0008a028-942a-4332-acee-b1cf39424496",
    "name": "Watertown",
    "state_id": "979bc521-c037-4700-8e71-098b979b9f21"
  },
  {
    "id": "bca6efe7-c5f2-4c11-8a42-9edff679f870",
    "name": "Waverly",
    "state_id": "979bc521-c037-4700-8e71-098b979b9f21"
  },
  {
    "id": "deb1a71b-70cc-45fe-90c8-2ad59c95a921",
    "name": "Wayne County",
    "state_id": "979bc521-c037-4700-8e71-098b979b9f21"
  },
  {
    "id": "346d6d26-dd02-4587-ba7f-32327c0c540a",
    "name": "Waynesboro",
    "state_id": "979bc521-c037-4700-8e71-098b979b9f21"
  },
  {
    "id": "bce69ad3-02ff-4ad6-a46c-d10bea371f8a",
    "name": "Weakley County",
    "state_id": "979bc521-c037-4700-8e71-098b979b9f21"
  },
  {
    "id": "1b8d4d75-04b3-41f2-acd1-4e57d3c2a7ee",
    "name": "Westmoreland",
    "state_id": "979bc521-c037-4700-8e71-098b979b9f21"
  },
  {
    "id": "681ab6ea-b1a0-4ee0-a19d-2085b2b2e206",
    "name": "White Bluff",
    "state_id": "979bc521-c037-4700-8e71-098b979b9f21"
  },
  {
    "id": "fb80429e-9539-47f7-b41f-49520fd53d07",
    "name": "White County",
    "state_id": "979bc521-c037-4700-8e71-098b979b9f21"
  },
  {
    "id": "ae50f07a-a2fb-4789-ba5b-6de01a6de559",
    "name": "White House",
    "state_id": "979bc521-c037-4700-8e71-098b979b9f21"
  },
  {
    "id": "a4add655-3b84-488d-8a10-dfbece76c2d7",
    "name": "White Pine",
    "state_id": "979bc521-c037-4700-8e71-098b979b9f21"
  },
  {
    "id": "6a4b70ce-e366-4156-8e41-d77322d45645",
    "name": "Whiteville",
    "state_id": "979bc521-c037-4700-8e71-098b979b9f21"
  },
  {
    "id": "8cba61b3-a86a-4ac4-871e-d36955a681b6",
    "name": "Whitwell",
    "state_id": "979bc521-c037-4700-8e71-098b979b9f21"
  },
  {
    "id": "e56152c2-f334-4fc8-ab37-1cd61b928dce",
    "name": "Wildwood",
    "state_id": "979bc521-c037-4700-8e71-098b979b9f21"
  },
  {
    "id": "7c14506f-0c6f-4c07-a085-d9bb61bfda80",
    "name": "Wildwood Lake",
    "state_id": "979bc521-c037-4700-8e71-098b979b9f21"
  },
  {
    "id": "ac39ca28-eb5a-4f60-917c-16b88af7f657",
    "name": "Williamson County",
    "state_id": "979bc521-c037-4700-8e71-098b979b9f21"
  },
  {
    "id": "35c218df-a553-4141-a9e8-e2142daa06cd",
    "name": "Wilson County",
    "state_id": "979bc521-c037-4700-8e71-098b979b9f21"
  },
  {
    "id": "92dbd672-a956-4496-a49e-5b94739eb6cc",
    "name": "Winchester",
    "state_id": "979bc521-c037-4700-8e71-098b979b9f21"
  },
  {
    "id": "5de3f86d-9db0-44e6-93b8-0257417ebde6",
    "name": "Woodbury",
    "state_id": "979bc521-c037-4700-8e71-098b979b9f21"
  }
]