[
  {
    "id": "6e94f81e-2060-4eeb-bddb-c990ba45cd06",
    "name": "Agua Fria",
    "state_id": "9834adec-e4fa-4b0a-bdd8-1c5e3ce88078"
  },
  {
    "id": "b56ca6e6-ad31-4d6e-85f6-a4bb06eb04c2",
    "name": "Alamo",
    "state_id": "9834adec-e4fa-4b0a-bdd8-1c5e3ce88078"
  },
  {
    "id": "b4bd639f-58fa-4b84-9dbc-686036c4e3fa",
    "name": "Alamogordo",
    "state_id": "9834adec-e4fa-4b0a-bdd8-1c5e3ce88078"
  },
  {
    "id": "3b9e54a3-269f-46eb-84a1-7400b3fa1d0b",
    "name": "Albuquerque",
    "state_id": "9834adec-e4fa-4b0a-bdd8-1c5e3ce88078"
  },
  {
    "id": "290fbd8a-5168-46f5-b147-536a397d5b3f",
    "name": "Angel Fire",
    "state_id": "9834adec-e4fa-4b0a-bdd8-1c5e3ce88078"
  },
  {
    "id": "2319ba51-5f22-44eb-b06f-9b75fdde6d2a",
    "name": "Anthony",
    "state_id": "9834adec-e4fa-4b0a-bdd8-1c5e3ce88078"
  },
  {
    "id": "e7a6b0f4-680e-4598-8f13-2ff4010b40d1",
    "name": "Arenas Valley",
    "state_id": "9834adec-e4fa-4b0a-bdd8-1c5e3ce88078"
  },
  {
    "id": "b8172ab0-adf1-413f-abd5-480eb62267a5",
    "name": "Arroyo Seco",
    "state_id": "9834adec-e4fa-4b0a-bdd8-1c5e3ce88078"
  },
  {
    "id": "71a94ee7-c4f9-4ab8-a4cc-adf1c852a7ff",
    "name": "Artesia",
    "state_id": "9834adec-e4fa-4b0a-bdd8-1c5e3ce88078"
  },
  {
    "id": "4465efbe-149c-4b8a-a35c-ea6764f2aae2",
    "name": "Atoka",
    "state_id": "9834adec-e4fa-4b0a-bdd8-1c5e3ce88078"
  },
  {
    "id": "b94433ae-03d5-4c8b-9e0f-e9121bad7c43",
    "name": "Aztec",
    "state_id": "9834adec-e4fa-4b0a-bdd8-1c5e3ce88078"
  },
  {
    "id": "91ab265e-5c76-4792-8990-71e01f65ce94",
    "name": "Bayard",
    "state_id": "9834adec-e4fa-4b0a-bdd8-1c5e3ce88078"
  },
  {
    "id": "2a485691-d0ed-4fa9-b350-ef00891d5ce1",
    "name": "Belen",
    "state_id": "9834adec-e4fa-4b0a-bdd8-1c5e3ce88078"
  },
  {
    "id": "23420349-4a96-4528-aae6-98afd84d33b7",
    "name": "Berino",
    "state_id": "9834adec-e4fa-4b0a-bdd8-1c5e3ce88078"
  },
  {
    "id": "c76fd3cc-005e-4488-b0ea-ddf141aae29c",
    "name": "Bernalillo",
    "state_id": "9834adec-e4fa-4b0a-bdd8-1c5e3ce88078"
  },
  {
    "id": "13a1cac1-76f0-4417-85b6-8f004534760a",
    "name": "Bernalillo County",
    "state_id": "9834adec-e4fa-4b0a-bdd8-1c5e3ce88078"
  },
  {
    "id": "2d97cac5-58f3-4f5e-8ffd-f9907f29659e",
    "name": "Black Rock",
    "state_id": "9834adec-e4fa-4b0a-bdd8-1c5e3ce88078"
  },
  {
    "id": "76664bad-b6f5-4858-8366-b8e94173a0e1",
    "name": "Bloomfield",
    "state_id": "9834adec-e4fa-4b0a-bdd8-1c5e3ce88078"
  },
  {
    "id": "8137f1c1-5d6e-411d-9ab2-024a2c41f4ae",
    "name": "Boles Acres",
    "state_id": "9834adec-e4fa-4b0a-bdd8-1c5e3ce88078"
  },
  {
    "id": "4aca2edb-3020-4b1e-bcfc-bd9060bf74a7",
    "name": "Bosque Farms",
    "state_id": "9834adec-e4fa-4b0a-bdd8-1c5e3ce88078"
  },
  {
    "id": "3161202e-edd9-4261-a6b7-40e106af1944",
    "name": "Cannon Air Force Base",
    "state_id": "9834adec-e4fa-4b0a-bdd8-1c5e3ce88078"
  },
  {
    "id": "224f5472-e0a0-43e5-b4a0-3f3ef80cb843",
    "name": "Capitan",
    "state_id": "9834adec-e4fa-4b0a-bdd8-1c5e3ce88078"
  },
  {
    "id": "a7316e8e-90cc-414a-a194-fac6bec022c4",
    "name": "Carlsbad",
    "state_id": "9834adec-e4fa-4b0a-bdd8-1c5e3ce88078"
  },
  {
    "id": "7dd362c6-9c1d-4f54-a26c-e9bd6282d47c",
    "name": "Carnuel",
    "state_id": "9834adec-e4fa-4b0a-bdd8-1c5e3ce88078"
  },
  {
    "id": "dd313fb7-4843-42ad-b7f4-aeab447eb3da",
    "name": "Carrizozo",
    "state_id": "9834adec-e4fa-4b0a-bdd8-1c5e3ce88078"
  },
  {
    "id": "0f6e641f-ae52-46ef-bf67-1ab0aaeddf33",
    "name": "Catron County",
    "state_id": "9834adec-e4fa-4b0a-bdd8-1c5e3ce88078"
  },
  {
    "id": "025cad5c-6f1f-48ed-b9c6-f7e26745f3a9",
    "name": "Chama",
    "state_id": "9834adec-e4fa-4b0a-bdd8-1c5e3ce88078"
  },
  {
    "id": "b9b3f233-8691-4154-88a8-c7d0fa1eab60",
    "name": "Chaparral",
    "state_id": "9834adec-e4fa-4b0a-bdd8-1c5e3ce88078"
  },
  {
    "id": "b0a83f67-2637-4452-a127-55abe6005782",
    "name": "Chaves County",
    "state_id": "9834adec-e4fa-4b0a-bdd8-1c5e3ce88078"
  },
  {
    "id": "8bc9e671-0b30-4e19-b856-73be462f7002",
    "name": "Chimayo",
    "state_id": "9834adec-e4fa-4b0a-bdd8-1c5e3ce88078"
  },
  {
    "id": "35ea178f-e084-444c-b90d-78b077e64bc3",
    "name": "Church Rock",
    "state_id": "9834adec-e4fa-4b0a-bdd8-1c5e3ce88078"
  },
  {
    "id": "2ba00745-a982-4904-959f-c72e7619b33e",
    "name": "Cibola County",
    "state_id": "9834adec-e4fa-4b0a-bdd8-1c5e3ce88078"
  },
  {
    "id": "739c4a8f-63d1-4921-9764-ebdc9d559853",
    "name": "Clayton",
    "state_id": "9834adec-e4fa-4b0a-bdd8-1c5e3ce88078"
  },
  {
    "id": "309d7f4e-1aa8-4ae2-a3a4-2d92af18f2f6",
    "name": "Clovis",
    "state_id": "9834adec-e4fa-4b0a-bdd8-1c5e3ce88078"
  },
  {
    "id": "1b9236b7-bd91-4af5-861e-5b6adccfe9bf",
    "name": "Colfax County",
    "state_id": "9834adec-e4fa-4b0a-bdd8-1c5e3ce88078"
  },
  {
    "id": "165d6165-fc25-4c29-a670-b3adbafe684a",
    "name": "Columbus",
    "state_id": "9834adec-e4fa-4b0a-bdd8-1c5e3ce88078"
  },
  {
    "id": "e9dc6af5-33ef-45fb-b244-4b0a1568642d",
    "name": "Corrales",
    "state_id": "9834adec-e4fa-4b0a-bdd8-1c5e3ce88078"
  },
  {
    "id": "b742fbda-afa4-441e-a426-6dae40f9e303",
    "name": "Crownpoint",
    "state_id": "9834adec-e4fa-4b0a-bdd8-1c5e3ce88078"
  },
  {
    "id": "eb397e40-7237-4f5b-a463-4ad7edb1d725",
    "name": "Curry County",
    "state_id": "9834adec-e4fa-4b0a-bdd8-1c5e3ce88078"
  },
  {
    "id": "bf51d46d-85fc-4371-a839-65289c3177e6",
    "name": "De Baca County",
    "state_id": "9834adec-e4fa-4b0a-bdd8-1c5e3ce88078"
  },
  {
    "id": "8abfd789-800e-437e-9b0c-d85483f17a48",
    "name": "Deming",
    "state_id": "9834adec-e4fa-4b0a-bdd8-1c5e3ce88078"
  },
  {
    "id": "205d40bd-1f66-4009-9cbd-ce1a07bde16d",
    "name": "Dexter",
    "state_id": "9834adec-e4fa-4b0a-bdd8-1c5e3ce88078"
  },
  {
    "id": "8b2eb74b-b919-49c2-8d08-f4e332a4d9d2",
    "name": "Doña Ana",
    "state_id": "9834adec-e4fa-4b0a-bdd8-1c5e3ce88078"
  },
  {
    "id": "9c303a04-6e30-46ad-8bd1-2cfbfb9df939",
    "name": "Doña Ana County",
    "state_id": "9834adec-e4fa-4b0a-bdd8-1c5e3ce88078"
  },
  {
    "id": "a090d1ec-b9a9-460d-b6ba-ab80d44c8ffd",
    "name": "Dulce",
    "state_id": "9834adec-e4fa-4b0a-bdd8-1c5e3ce88078"
  },
  {
    "id": "9b8b2071-6c11-4a69-a2a8-9303ab6857cd",
    "name": "Eddy County",
    "state_id": "9834adec-e4fa-4b0a-bdd8-1c5e3ce88078"
  },
  {
    "id": "04d91b40-a2fa-4d34-9f94-dd886113476a",
    "name": "Edgewood",
    "state_id": "9834adec-e4fa-4b0a-bdd8-1c5e3ce88078"
  },
  {
    "id": "715f26cc-fe1e-4f3e-8595-299cdb24ecd1",
    "name": "El Cerro",
    "state_id": "9834adec-e4fa-4b0a-bdd8-1c5e3ce88078"
  },
  {
    "id": "dba4d43f-8895-4b28-835a-1477b9944141",
    "name": "El Cerro Mission",
    "state_id": "9834adec-e4fa-4b0a-bdd8-1c5e3ce88078"
  },
  {
    "id": "9fa12533-bd08-45bc-b2e4-36d59c7ebb32",
    "name": "El Rancho",
    "state_id": "9834adec-e4fa-4b0a-bdd8-1c5e3ce88078"
  },
  {
    "id": "791b15e0-77ff-4ec4-b1f7-5e5b8e8ed181",
    "name": "El Valle de Arroyo Seco",
    "state_id": "9834adec-e4fa-4b0a-bdd8-1c5e3ce88078"
  },
  {
    "id": "4d95a33c-3785-42e5-80c9-23c7628b56f0",
    "name": "Eldorado at Santa Fe",
    "state_id": "9834adec-e4fa-4b0a-bdd8-1c5e3ce88078"
  },
  {
    "id": "b1dd7e74-528a-4da3-a621-749939393888",
    "name": "Elephant Butte",
    "state_id": "9834adec-e4fa-4b0a-bdd8-1c5e3ce88078"
  },
  {
    "id": "52c9bb2a-f3ec-4398-bfbd-d9d91c6fcb2d",
    "name": "Enchanted Hills",
    "state_id": "9834adec-e4fa-4b0a-bdd8-1c5e3ce88078"
  },
  {
    "id": "886d2336-66ae-4d6a-9c62-5a08ee553e7a",
    "name": "Española",
    "state_id": "9834adec-e4fa-4b0a-bdd8-1c5e3ce88078"
  },
  {
    "id": "2c0def93-8a40-4d17-b754-b464fc5f3b9e",
    "name": "Estancia",
    "state_id": "9834adec-e4fa-4b0a-bdd8-1c5e3ce88078"
  },
  {
    "id": "34711cc3-4589-499f-8262-67a2f8b630fb",
    "name": "Eunice",
    "state_id": "9834adec-e4fa-4b0a-bdd8-1c5e3ce88078"
  },
  {
    "id": "7fae2c57-eaf2-4afe-bf9b-914dc34c37b3",
    "name": "Farmington",
    "state_id": "9834adec-e4fa-4b0a-bdd8-1c5e3ce88078"
  },
  {
    "id": "fd93b773-9e9c-4475-915c-3ac77b0f5f58",
    "name": "Flora Vista",
    "state_id": "9834adec-e4fa-4b0a-bdd8-1c5e3ce88078"
  },
  {
    "id": "584360e4-4bfb-4764-827c-32a42711da6c",
    "name": "Fort Sumner",
    "state_id": "9834adec-e4fa-4b0a-bdd8-1c5e3ce88078"
  },
  {
    "id": "a1b3ee2a-2944-4b3b-86ac-9f41b8ff60ae",
    "name": "Gallup",
    "state_id": "9834adec-e4fa-4b0a-bdd8-1c5e3ce88078"
  },
  {
    "id": "e7ad755d-ac62-4730-ad24-94ab981288ae",
    "name": "Grant County",
    "state_id": "9834adec-e4fa-4b0a-bdd8-1c5e3ce88078"
  },
  {
    "id": "d3abbf5a-39a0-4e8e-a12d-50d7c230b21d",
    "name": "Grants",
    "state_id": "9834adec-e4fa-4b0a-bdd8-1c5e3ce88078"
  },
  {
    "id": "4f08bd20-5068-45f8-9644-037b03e1f9fd",
    "name": "Guadalupe County",
    "state_id": "9834adec-e4fa-4b0a-bdd8-1c5e3ce88078"
  },
  {
    "id": "2c33992f-930e-46b7-a1ef-a14669d102a6",
    "name": "Hagerman",
    "state_id": "9834adec-e4fa-4b0a-bdd8-1c5e3ce88078"
  },
  {
    "id": "596d41ad-0c63-4da3-9017-f13e2cdf52fd",
    "name": "Harding County",
    "state_id": "9834adec-e4fa-4b0a-bdd8-1c5e3ce88078"
  },
  {
    "id": "1503e312-bac6-478a-b1ba-a62700a67833",
    "name": "Hatch",
    "state_id": "9834adec-e4fa-4b0a-bdd8-1c5e3ce88078"
  },
  {
    "id": "06a5bcdd-53ac-4cdf-9ce2-8d9490106fa8",
    "name": "Hidalgo County",
    "state_id": "9834adec-e4fa-4b0a-bdd8-1c5e3ce88078"
  },
  {
    "id": "e7e556e7-5459-430c-b3b3-40d21320d5b2",
    "name": "Hobbs",
    "state_id": "9834adec-e4fa-4b0a-bdd8-1c5e3ce88078"
  },
  {
    "id": "290e9b63-dad5-4f23-8fa0-e3a8636f963e",
    "name": "Holloman Air Force Base",
    "state_id": "9834adec-e4fa-4b0a-bdd8-1c5e3ce88078"
  },
  {
    "id": "e2c7f703-ce24-4f0b-ba71-2f490e71c1df",
    "name": "Hurley",
    "state_id": "9834adec-e4fa-4b0a-bdd8-1c5e3ce88078"
  },
  {
    "id": "77ed74d1-e47f-4fad-ba47-e10d04d4677b",
    "name": "Jal",
    "state_id": "9834adec-e4fa-4b0a-bdd8-1c5e3ce88078"
  },
  {
    "id": "ff0d437f-3344-4660-9a2e-3ddb5bf53d14",
    "name": "Jarales",
    "state_id": "9834adec-e4fa-4b0a-bdd8-1c5e3ce88078"
  },
  {
    "id": "1fb3eb8e-d12f-454a-9546-dd8e1ab5749e",
    "name": "Jemez Pueblo",
    "state_id": "9834adec-e4fa-4b0a-bdd8-1c5e3ce88078"
  },
  {
    "id": "7b8fd869-f696-4ea1-bf37-b26f53613737",
    "name": "Keeler Farm",
    "state_id": "9834adec-e4fa-4b0a-bdd8-1c5e3ce88078"
  },
  {
    "id": "5e65ec4d-1ee2-4b0a-86a4-a7d53fced94d",
    "name": "Kirtland",
    "state_id": "9834adec-e4fa-4b0a-bdd8-1c5e3ce88078"
  },
  {
    "id": "2d48052e-821f-473f-8a62-8e11df146ccf",
    "name": "La Cienega",
    "state_id": "9834adec-e4fa-4b0a-bdd8-1c5e3ce88078"
  },
  {
    "id": "fb844651-976b-4971-ad2b-cc7839913bbd",
    "name": "La Huerta",
    "state_id": "9834adec-e4fa-4b0a-bdd8-1c5e3ce88078"
  },
  {
    "id": "c116b5c4-8c1a-4f40-acaf-70c0f6b55a04",
    "name": "La Luz",
    "state_id": "9834adec-e4fa-4b0a-bdd8-1c5e3ce88078"
  },
  {
    "id": "63a5255a-1bb6-4e7c-9aba-f600e85fb2f0",
    "name": "La Mesilla",
    "state_id": "9834adec-e4fa-4b0a-bdd8-1c5e3ce88078"
  },
  {
    "id": "fb0a993d-46e0-4789-9ce1-afabfd3bb10c",
    "name": "La Puebla",
    "state_id": "9834adec-e4fa-4b0a-bdd8-1c5e3ce88078"
  },
  {
    "id": "36915a38-d0c9-4093-9ea9-cd8534bbe0d9",
    "name": "La Union",
    "state_id": "9834adec-e4fa-4b0a-bdd8-1c5e3ce88078"
  },
  {
    "id": "53adc94b-b730-4f6a-a974-d05fcd464f49",
    "name": "Laguna",
    "state_id": "9834adec-e4fa-4b0a-bdd8-1c5e3ce88078"
  },
  {
    "id": "e266109c-6560-4796-8364-006c79fb751a",
    "name": "Las Cruces",
    "state_id": "9834adec-e4fa-4b0a-bdd8-1c5e3ce88078"
  },
  {
    "id": "7b236779-bafe-409d-84ba-93786c2180ee",
    "name": "Las Maravillas",
    "state_id": "9834adec-e4fa-4b0a-bdd8-1c5e3ce88078"
  },
  {
    "id": "57151987-bb35-4c4a-92d0-b58b762c4df0",
    "name": "Las Vegas",
    "state_id": "9834adec-e4fa-4b0a-bdd8-1c5e3ce88078"
  },
  {
    "id": "b80fc32a-f452-42fa-92ea-3408ee9317cd",
    "name": "Lea County",
    "state_id": "9834adec-e4fa-4b0a-bdd8-1c5e3ce88078"
  },
  {
    "id": "7da6a61d-3c2d-47a3-93c1-31adc5503143",
    "name": "Lee Acres",
    "state_id": "9834adec-e4fa-4b0a-bdd8-1c5e3ce88078"
  },
  {
    "id": "0f8add67-2f58-4686-9a0e-e8f4be083710",
    "name": "Lincoln County",
    "state_id": "9834adec-e4fa-4b0a-bdd8-1c5e3ce88078"
  },
  {
    "id": "26896298-c6fa-4cf4-8ced-e03fd60e55eb",
    "name": "Lordsburg",
    "state_id": "9834adec-e4fa-4b0a-bdd8-1c5e3ce88078"
  },
  {
    "id": "a5ba98dc-1506-47bd-a2e6-a7291a85f625",
    "name": "Los Alamos",
    "state_id": "9834adec-e4fa-4b0a-bdd8-1c5e3ce88078"
  },
  {
    "id": "8c6791bd-d217-4248-9634-eab53ef14ccd",
    "name": "Los Alamos County",
    "state_id": "9834adec-e4fa-4b0a-bdd8-1c5e3ce88078"
  },
  {
    "id": "b77600f4-b20d-408a-888c-f8d2abe69f0a",
    "name": "Los Chavez",
    "state_id": "9834adec-e4fa-4b0a-bdd8-1c5e3ce88078"
  },
  {
    "id": "ed539753-4f4c-4bbe-bfaf-af83516f36a2",
    "name": "Los Lunas",
    "state_id": "9834adec-e4fa-4b0a-bdd8-1c5e3ce88078"
  },
  {
    "id": "7d5f0ac3-3536-4fd3-ac49-7b8e476e3363",
    "name": "Los Ranchos de Albuquerque",
    "state_id": "9834adec-e4fa-4b0a-bdd8-1c5e3ce88078"
  },
  {
    "id": "5f7d1fdc-2cc4-4217-9806-dee0c3edc257",
    "name": "Loving",
    "state_id": "9834adec-e4fa-4b0a-bdd8-1c5e3ce88078"
  },
  {
    "id": "57f23b5f-661d-45d7-93da-d9b183916e6d",
    "name": "Lovington",
    "state_id": "9834adec-e4fa-4b0a-bdd8-1c5e3ce88078"
  },
  {
    "id": "1deca941-6103-4c76-a962-997d855e6fef",
    "name": "Luna County",
    "state_id": "9834adec-e4fa-4b0a-bdd8-1c5e3ce88078"
  },
  {
    "id": "1912bdf8-8a86-499c-9dc0-259bcb2c7946",
    "name": "McIntosh",
    "state_id": "9834adec-e4fa-4b0a-bdd8-1c5e3ce88078"
  },
  {
    "id": "5b3231a7-9a71-4f43-874f-7c73f9e21592",
    "name": "McKinley County",
    "state_id": "9834adec-e4fa-4b0a-bdd8-1c5e3ce88078"
  },
  {
    "id": "80489e86-f169-4075-9e57-bd189c33a089",
    "name": "Meadow Lake",
    "state_id": "9834adec-e4fa-4b0a-bdd8-1c5e3ce88078"
  },
  {
    "id": "b0e747ea-f97a-4a39-881b-94d9064d8e6c",
    "name": "Mescalero",
    "state_id": "9834adec-e4fa-4b0a-bdd8-1c5e3ce88078"
  },
  {
    "id": "94c72986-3af4-40ca-b229-8b79f3a6f63f",
    "name": "Mesilla",
    "state_id": "9834adec-e4fa-4b0a-bdd8-1c5e3ce88078"
  },
  {
    "id": "d1d01551-14c3-4bc8-95a1-0fd0c0524b93",
    "name": "Mesquite",
    "state_id": "9834adec-e4fa-4b0a-bdd8-1c5e3ce88078"
  },
  {
    "id": "198c12f4-14f5-4860-8597-5840281b0913",
    "name": "Milan",
    "state_id": "9834adec-e4fa-4b0a-bdd8-1c5e3ce88078"
  },
  {
    "id": "656474f0-775c-467c-9390-96e42337c562",
    "name": "Monterey Park",
    "state_id": "9834adec-e4fa-4b0a-bdd8-1c5e3ce88078"
  },
  {
    "id": "fb09f801-84c5-4361-bee5-12454971c692",
    "name": "Mora",
    "state_id": "9834adec-e4fa-4b0a-bdd8-1c5e3ce88078"
  },
  {
    "id": "617dcf8b-f0a2-40b5-be11-9ae461839935",
    "name": "Mora County",
    "state_id": "9834adec-e4fa-4b0a-bdd8-1c5e3ce88078"
  },
  {
    "id": "1dae6edc-86ab-4b3c-9fb7-cdcfe379314f",
    "name": "Moriarty",
    "state_id": "9834adec-e4fa-4b0a-bdd8-1c5e3ce88078"
  },
  {
    "id": "6a651500-ab06-4919-88e8-09af2b7ec44e",
    "name": "Mosquero",
    "state_id": "9834adec-e4fa-4b0a-bdd8-1c5e3ce88078"
  },
  {
    "id": "6c2de7d6-ed0b-48f4-ab92-9f144b818905",
    "name": "Nambe",
    "state_id": "9834adec-e4fa-4b0a-bdd8-1c5e3ce88078"
  },
  {
    "id": "209f39e7-b361-4648-9056-d3ff620e5894",
    "name": "Navajo",
    "state_id": "9834adec-e4fa-4b0a-bdd8-1c5e3ce88078"
  },
  {
    "id": "91ca000e-93a1-4a82-9507-07d70bc9bed5",
    "name": "North Valley",
    "state_id": "9834adec-e4fa-4b0a-bdd8-1c5e3ce88078"
  },
  {
    "id": "56133ae3-47fb-4cb2-9745-f19d49699a20",
    "name": "Ohkay Owingeh",
    "state_id": "9834adec-e4fa-4b0a-bdd8-1c5e3ce88078"
  },
  {
    "id": "6a2f283b-47d4-453f-a1c3-1073ba2b78c2",
    "name": "Otero County",
    "state_id": "9834adec-e4fa-4b0a-bdd8-1c5e3ce88078"
  },
  {
    "id": "d45f7ab9-d148-4ace-9b5e-d1ebcc271095",
    "name": "Paradise Hills",
    "state_id": "9834adec-e4fa-4b0a-bdd8-1c5e3ce88078"
  },
  {
    "id": "a774783b-1d1b-4506-9320-9e299bd46a74",
    "name": "Pecos",
    "state_id": "9834adec-e4fa-4b0a-bdd8-1c5e3ce88078"
  },
  {
    "id": "10c588a2-b516-4c4a-b5a8-f1ddc0f7498e",
    "name": "Peralta",
    "state_id": "9834adec-e4fa-4b0a-bdd8-1c5e3ce88078"
  },
  {
    "id": "9efda640-8bea-470f-8f04-bdd830f75551",
    "name": "Placitas",
    "state_id": "9834adec-e4fa-4b0a-bdd8-1c5e3ce88078"
  },
  {
    "id": "47e3374b-7868-4c55-88c7-ce1f25b3f091",
    "name": "Pojoaque",
    "state_id": "9834adec-e4fa-4b0a-bdd8-1c5e3ce88078"
  },
  {
    "id": "53247e79-5acf-4b60-8e13-cda258da9b6b",
    "name": "Ponderosa Pine",
    "state_id": "9834adec-e4fa-4b0a-bdd8-1c5e3ce88078"
  },
  {
    "id": "2a79c2f2-88ae-4d74-abd9-fe411f29e6da",
    "name": "Portales",
    "state_id": "9834adec-e4fa-4b0a-bdd8-1c5e3ce88078"
  },
  {
    "id": "9adaa33c-82c5-4071-9a6e-c19c06f08e6c",
    "name": "Quay County",
    "state_id": "9834adec-e4fa-4b0a-bdd8-1c5e3ce88078"
  },
  {
    "id": "ee0c817b-cd83-400a-b749-f11afc5d5672",
    "name": "Questa",
    "state_id": "9834adec-e4fa-4b0a-bdd8-1c5e3ce88078"
  },
  {
    "id": "6ae8a460-f741-42bc-abf0-2bbc4ebeb008",
    "name": "Radium Springs",
    "state_id": "9834adec-e4fa-4b0a-bdd8-1c5e3ce88078"
  },
  {
    "id": "106b15b3-7272-4bb1-bea5-347f495bde2c",
    "name": "Ranchos de Taos",
    "state_id": "9834adec-e4fa-4b0a-bdd8-1c5e3ce88078"
  },
  {
    "id": "bb673c70-9e96-4481-8df6-f61cf4b8f654",
    "name": "Raton",
    "state_id": "9834adec-e4fa-4b0a-bdd8-1c5e3ce88078"
  },
  {
    "id": "ee36ea15-c0ee-4dae-adc2-37dfbb1bc347",
    "name": "Reserve",
    "state_id": "9834adec-e4fa-4b0a-bdd8-1c5e3ce88078"
  },
  {
    "id": "f2738c4c-c359-499d-ac7a-521f21df8dc4",
    "name": "Rio Arriba County",
    "state_id": "9834adec-e4fa-4b0a-bdd8-1c5e3ce88078"
  },
  {
    "id": "2cda2410-441d-4a2c-b407-6727750a6d1d",
    "name": "Rio Communities",
    "state_id": "9834adec-e4fa-4b0a-bdd8-1c5e3ce88078"
  },
  {
    "id": "8650177d-5dcb-4970-bbaf-f59196e9e7fd",
    "name": "Rio Rancho",
    "state_id": "9834adec-e4fa-4b0a-bdd8-1c5e3ce88078"
  },
  {
    "id": "9ab7451a-084c-43d1-8c7c-1cae606675e6",
    "name": "Roosevelt County",
    "state_id": "9834adec-e4fa-4b0a-bdd8-1c5e3ce88078"
  },
  {
    "id": "d9633213-6e0d-4e05-92ec-6d85127814c7",
    "name": "Roswell",
    "state_id": "9834adec-e4fa-4b0a-bdd8-1c5e3ce88078"
  },
  {
    "id": "2f5e3f80-7ec6-4f13-817b-66354155620a",
    "name": "Ruidoso",
    "state_id": "9834adec-e4fa-4b0a-bdd8-1c5e3ce88078"
  },
  {
    "id": "a45a4b04-c38d-4a72-9be3-bf3ff3cea945",
    "name": "Ruidoso Downs",
    "state_id": "9834adec-e4fa-4b0a-bdd8-1c5e3ce88078"
  },
  {
    "id": "c244ce51-c12b-4a13-9cc8-ec1732f15233",
    "name": "San Felipe Pueblo",
    "state_id": "9834adec-e4fa-4b0a-bdd8-1c5e3ce88078"
  },
  {
    "id": "64a95d65-c087-4852-8a14-95fb6053ceb9",
    "name": "San Juan County",
    "state_id": "9834adec-e4fa-4b0a-bdd8-1c5e3ce88078"
  },
  {
    "id": "5ce9ae64-6225-4ca3-8963-123c2cb39668",
    "name": "San Miguel",
    "state_id": "9834adec-e4fa-4b0a-bdd8-1c5e3ce88078"
  },
  {
    "id": "54b94c2c-7e95-4a92-bef1-4ff47280434f",
    "name": "San Miguel County",
    "state_id": "9834adec-e4fa-4b0a-bdd8-1c5e3ce88078"
  },
  {
    "id": "31fc8771-477f-41eb-9ad7-6e3bc082b3c8",
    "name": "San Ysidro",
    "state_id": "9834adec-e4fa-4b0a-bdd8-1c5e3ce88078"
  },
  {
    "id": "97ce7025-68a4-4d54-80d9-0fcc29e1d4a1",
    "name": "Sandia Heights",
    "state_id": "9834adec-e4fa-4b0a-bdd8-1c5e3ce88078"
  },
  {
    "id": "f492ae2d-5c1e-43c1-b638-f0395fa54db3",
    "name": "Sandia Knolls",
    "state_id": "9834adec-e4fa-4b0a-bdd8-1c5e3ce88078"
  },
  {
    "id": "da7fb83d-9ba1-4874-863c-d3ef556e99f4",
    "name": "Sandoval County",
    "state_id": "9834adec-e4fa-4b0a-bdd8-1c5e3ce88078"
  },
  {
    "id": "de8b4d3c-e180-4b51-a16c-c8bfa292d926",
    "name": "Santa Clara",
    "state_id": "9834adec-e4fa-4b0a-bdd8-1c5e3ce88078"
  },
  {
    "id": "b9f04fd6-7088-4f48-ba05-c6cbfc1ecce7",
    "name": "Santa Clara Pueblo",
    "state_id": "9834adec-e4fa-4b0a-bdd8-1c5e3ce88078"
  },
  {
    "id": "5de85a13-3566-4454-99ce-346821001eb5",
    "name": "Santa Fe",
    "state_id": "9834adec-e4fa-4b0a-bdd8-1c5e3ce88078"
  },
  {
    "id": "1516c1d0-7478-4e41-903d-fdbf7f01c9a7",
    "name": "Santa Fe County",
    "state_id": "9834adec-e4fa-4b0a-bdd8-1c5e3ce88078"
  },
  {
    "id": "11f77dcc-df4c-456e-b747-abbdffb40010",
    "name": "Santa Rosa",
    "state_id": "9834adec-e4fa-4b0a-bdd8-1c5e3ce88078"
  },
  {
    "id": "68fe9d86-d4db-4012-b6f4-ac8f20ad215a",
    "name": "Santa Teresa",
    "state_id": "9834adec-e4fa-4b0a-bdd8-1c5e3ce88078"
  },
  {
    "id": "13866505-3e14-4ba7-8bee-3829c03ef740",
    "name": "Santo Domingo Pueblo",
    "state_id": "9834adec-e4fa-4b0a-bdd8-1c5e3ce88078"
  },
  {
    "id": "296187fa-3c31-4b03-81ce-5e736eb4b18e",
    "name": "Shiprock",
    "state_id": "9834adec-e4fa-4b0a-bdd8-1c5e3ce88078"
  },
  {
    "id": "c7cdd36e-ba38-4762-936e-3dc0a5903661",
    "name": "Sierra County",
    "state_id": "9834adec-e4fa-4b0a-bdd8-1c5e3ce88078"
  },
  {
    "id": "75a77c82-13dd-41f7-a6e0-ab549935e326",
    "name": "Silver City",
    "state_id": "9834adec-e4fa-4b0a-bdd8-1c5e3ce88078"
  },
  {
    "id": "e5e11f9c-d052-4c8a-8131-1f06a7b41ea3",
    "name": "Skyline-Ganipa",
    "state_id": "9834adec-e4fa-4b0a-bdd8-1c5e3ce88078"
  },
  {
    "id": "78eb75d7-6542-402b-b332-8d346ae765e6",
    "name": "Socorro",
    "state_id": "9834adec-e4fa-4b0a-bdd8-1c5e3ce88078"
  },
  {
    "id": "2ac90df5-b23c-45f3-8730-be544a8fbc29",
    "name": "Socorro County",
    "state_id": "9834adec-e4fa-4b0a-bdd8-1c5e3ce88078"
  },
  {
    "id": "f37096bf-0c7c-4ede-8c9a-c28f4f463db0",
    "name": "South Valley",
    "state_id": "9834adec-e4fa-4b0a-bdd8-1c5e3ce88078"
  },
  {
    "id": "b3bbe91b-5a01-4cc8-8219-4347155b2d4a",
    "name": "Spencerville",
    "state_id": "9834adec-e4fa-4b0a-bdd8-1c5e3ce88078"
  },
  {
    "id": "ab8570c8-69b9-48b4-9756-bf402e94e87b",
    "name": "Sunland Park",
    "state_id": "9834adec-e4fa-4b0a-bdd8-1c5e3ce88078"
  },
  {
    "id": "39a90ba0-eb41-42a7-bda3-a068eef091bb",
    "name": "Taos",
    "state_id": "9834adec-e4fa-4b0a-bdd8-1c5e3ce88078"
  },
  {
    "id": "14f59b63-150f-4e01-9b20-4ef60bf815f0",
    "name": "Taos County",
    "state_id": "9834adec-e4fa-4b0a-bdd8-1c5e3ce88078"
  },
  {
    "id": "2e9a6e5b-00fb-416c-b38b-970c90c4c258",
    "name": "Taos Pueblo",
    "state_id": "9834adec-e4fa-4b0a-bdd8-1c5e3ce88078"
  },
  {
    "id": "eef8d2fc-c8d9-4f0c-9faa-6aad449e046e",
    "name": "Texico",
    "state_id": "9834adec-e4fa-4b0a-bdd8-1c5e3ce88078"
  },
  {
    "id": "7cb5c387-fe54-4164-b7a1-e6174d79522e",
    "name": "Thoreau",
    "state_id": "9834adec-e4fa-4b0a-bdd8-1c5e3ce88078"
  },
  {
    "id": "a74d0c7a-b77c-4c1c-8c61-270d635553fa",
    "name": "Tierra Amarilla",
    "state_id": "9834adec-e4fa-4b0a-bdd8-1c5e3ce88078"
  },
  {
    "id": "3066a5ce-becf-4434-921c-09ba07e5eca2",
    "name": "Tome",
    "state_id": "9834adec-e4fa-4b0a-bdd8-1c5e3ce88078"
  },
  {
    "id": "2a9c2705-a903-400d-b124-400c51f5844b",
    "name": "Torrance County",
    "state_id": "9834adec-e4fa-4b0a-bdd8-1c5e3ce88078"
  },
  {
    "id": "8f77a8e2-178a-42e7-9f6a-453b36e3a195",
    "name": "Truth or Consequences",
    "state_id": "9834adec-e4fa-4b0a-bdd8-1c5e3ce88078"
  },
  {
    "id": "bae1fd12-c587-4264-9d0f-7ab5b7820209",
    "name": "Tucumcari",
    "state_id": "9834adec-e4fa-4b0a-bdd8-1c5e3ce88078"
  },
  {
    "id": "024964ff-85aa-4256-a024-818751a54d9b",
    "name": "Tularosa",
    "state_id": "9834adec-e4fa-4b0a-bdd8-1c5e3ce88078"
  },
  {
    "id": "f8c232a2-6906-4a04-bc03-8e8ab5edc3b5",
    "name": "Twin Lakes",
    "state_id": "9834adec-e4fa-4b0a-bdd8-1c5e3ce88078"
  },
  {
    "id": "4f4395ad-ed51-4ae8-a986-b44da7c88c26",
    "name": "Union County",
    "state_id": "9834adec-e4fa-4b0a-bdd8-1c5e3ce88078"
  },
  {
    "id": "7c4bee44-c790-4472-a073-066b87672d28",
    "name": "University Park",
    "state_id": "9834adec-e4fa-4b0a-bdd8-1c5e3ce88078"
  },
  {
    "id": "bed77ba2-5985-4fa2-8ed6-55dbfbf9178c",
    "name": "Upper Fruitland",
    "state_id": "9834adec-e4fa-4b0a-bdd8-1c5e3ce88078"
  },
  {
    "id": "aba74186-2e46-4305-886c-e2d56c03447e",
    "name": "Vado",
    "state_id": "9834adec-e4fa-4b0a-bdd8-1c5e3ce88078"
  },
  {
    "id": "4ed078cd-8bcd-44ae-9bec-fd1c87824a69",
    "name": "Valencia",
    "state_id": "9834adec-e4fa-4b0a-bdd8-1c5e3ce88078"
  },
  {
    "id": "d290768d-6155-47e4-b4e6-520f75d11dca",
    "name": "Valencia County",
    "state_id": "9834adec-e4fa-4b0a-bdd8-1c5e3ce88078"
  },
  {
    "id": "6e00cbcd-ad12-4001-b3e4-b765a60fd4c4",
    "name": "Waterflow",
    "state_id": "9834adec-e4fa-4b0a-bdd8-1c5e3ce88078"
  },
  {
    "id": "726d11cd-4ac5-4e38-ba27-f1377d798b04",
    "name": "West Hammond",
    "state_id": "9834adec-e4fa-4b0a-bdd8-1c5e3ce88078"
  },
  {
    "id": "ee63f9c8-93c3-4999-9979-85e9e29e9383",
    "name": "White Rock",
    "state_id": "9834adec-e4fa-4b0a-bdd8-1c5e3ce88078"
  },
  {
    "id": "32ac9cfe-c848-4d3d-8bed-c6737440b9fb",
    "name": "White Sands",
    "state_id": "9834adec-e4fa-4b0a-bdd8-1c5e3ce88078"
  },
  {
    "id": "0dc55f62-3ffc-4a97-977e-d3a3d3d93729",
    "name": "Zuni Pueblo",
    "state_id": "9834adec-e4fa-4b0a-bdd8-1c5e3ce88078"
  }
]