[
  {
    "id": "14d6ce35-a290-44aa-8853-b3106f8782b1",
    "name": "Baniachang",
    "state_id": "993fd940-6769-48d5-8801-3600682b9105"
  },
  {
    "id": "408e40f8-a34b-463b-8dd9-8c88648bb9ee",
    "name": "Chhātak",
    "state_id": "993fd940-6769-48d5-8801-3600682b9105"
  },
  {
    "id": "6611ffed-f8d2-4595-9d69-4caeaf14779b",
    "name": "Habiganj",
    "state_id": "993fd940-6769-48d5-8801-3600682b9105"
  },
  {
    "id": "13a9f792-39ac-4a04-b42a-b44bf53683bc",
    "name": "Jahedpur",
    "state_id": "993fd940-6769-48d5-8801-3600682b9105"
  },
  {
    "id": "13966704-6425-439c-8bd7-7de335c1e1e7",
    "name": "Maulavi Bāzār",
    "state_id": "993fd940-6769-48d5-8801-3600682b9105"
  },
  {
    "id": "cc7f3ae3-4c24-4094-a045-a4b124b3053c",
    "name": "Maulvibazar",
    "state_id": "993fd940-6769-48d5-8801-3600682b9105"
  },
  {
    "id": "2329fcd2-bc0a-4293-b276-7dbca776e649",
    "name": "Sunamganj",
    "state_id": "993fd940-6769-48d5-8801-3600682b9105"
  },
  {
    "id": "4fa7e48f-edcf-4c85-884d-5f2a1dfa9910",
    "name": "Sylhet",
    "state_id": "993fd940-6769-48d5-8801-3600682b9105"
  }
]