[
  {
    "id": "39bdb995-28b2-4d47-b4e1-54a894e0c88c",
    "name": "Gbôklé",
    "state_id": "9a7805c4-e1b5-4ca9-b962-0d9261c3dcf0"
  },
  {
    "id": "13a173cd-2f9b-498a-ab8b-2e9b4f290667",
    "name": "Nawa",
    "state_id": "9a7805c4-e1b5-4ca9-b962-0d9261c3dcf0"
  },
  {
    "id": "f66be5e8-add6-46fc-b73e-3e444fd6b2f3",
    "name": "San-Pédro",
    "state_id": "9a7805c4-e1b5-4ca9-b962-0d9261c3dcf0"
  },
  {
    "id": "7a662f31-5ce8-446f-9105-b989094171f8",
    "name": "Sassandra",
    "state_id": "9a7805c4-e1b5-4ca9-b962-0d9261c3dcf0"
  },
  {
    "id": "91cef649-628c-4d20-bd60-a5978e51707e",
    "name": "Tabou",
    "state_id": "9a7805c4-e1b5-4ca9-b962-0d9261c3dcf0"
  }
]