[
  {
    "id": "0e815e9f-be24-4231-a8ea-291d98203366",
    "name": "Bāmyān",
    "state_id": "9c01ef61-26ad-4a2b-a741-a200b8d81791"
  },
  {
    "id": "678eddbe-7e14-4b30-bdc7-cdfbb405ba4b",
    "name": "Panjāb",
    "state_id": "9c01ef61-26ad-4a2b-a741-a200b8d81791"
  }
]