[
  {
    "id": "6eaa7f3a-08c8-4495-bc0b-99a4e9cc86d7",
    "name": "Agenebode",
    "state_id": "9c2232fb-3a11-4f90-a71d-c902dec0373d"
  },
  {
    "id": "d2ba45c0-819a-4a56-b59d-9c41827c03c7",
    "name": "Auchi",
    "state_id": "9c2232fb-3a11-4f90-a71d-c902dec0373d"
  },
  {
    "id": "76ea5256-59b8-4f41-8fef-6e6099d8a698",
    "name": "Benin City",
    "state_id": "9c2232fb-3a11-4f90-a71d-c902dec0373d"
  },
  {
    "id": "91293374-8db6-4c1b-ad77-9111b5e38f8a",
    "name": "Ekpoma",
    "state_id": "9c2232fb-3a11-4f90-a71d-c902dec0373d"
  },
  {
    "id": "b1f60638-1c10-48e3-84ab-59fa2c7ce15c",
    "name": "Igarra",
    "state_id": "9c2232fb-3a11-4f90-a71d-c902dec0373d"
  },
  {
    "id": "789157eb-f999-432d-80d8-53e66c87fd80",
    "name": "Illushi",
    "state_id": "9c2232fb-3a11-4f90-a71d-c902dec0373d"
  },
  {
    "id": "926e2b01-cde6-4c11-af51-8d1cb29e172e",
    "name": "Siluko",
    "state_id": "9c2232fb-3a11-4f90-a71d-c902dec0373d"
  },
  {
    "id": "8d09b8d7-22d6-4a9e-92a6-606e9c691213",
    "name": "Ubiaja",
    "state_id": "9c2232fb-3a11-4f90-a71d-c902dec0373d"
  },
  {
    "id": "757794ba-cd2d-4148-9a2f-3091e61b0112",
    "name": "Uromi",
    "state_id": "9c2232fb-3a11-4f90-a71d-c902dec0373d"
  }
]