[
  {
    "id": "f6877671-6cc5-40d0-bff4-1e64111fc3bc",
    "name": "Ackley",
    "state_id": "9c8b8c72-ab1f-40ff-9269-a2eea8629c00"
  },
  {
    "id": "83ac584b-152a-48d8-800b-d7d8021e1092",
    "name": "Adair County",
    "state_id": "9c8b8c72-ab1f-40ff-9269-a2eea8629c00"
  },
  {
    "id": "23a6e0c4-ff73-4ee6-9221-92d4d8aa8132",
    "name": "Adams County",
    "state_id": "9c8b8c72-ab1f-40ff-9269-a2eea8629c00"
  },
  {
    "id": "29c9534f-e0a2-4d74-9f81-adb0d2d8e796",
    "name": "Adel",
    "state_id": "9c8b8c72-ab1f-40ff-9269-a2eea8629c00"
  },
  {
    "id": "4a63300a-20e9-41c5-925d-938b4861c3c9",
    "name": "Akron",
    "state_id": "9c8b8c72-ab1f-40ff-9269-a2eea8629c00"
  },
  {
    "id": "ba8ff804-8ab5-40e7-aaaa-f667f7b33939",
    "name": "Albia",
    "state_id": "9c8b8c72-ab1f-40ff-9269-a2eea8629c00"
  },
  {
    "id": "3c5591e6-c485-4cb7-af2a-a8f3a17e06fd",
    "name": "Algona",
    "state_id": "9c8b8c72-ab1f-40ff-9269-a2eea8629c00"
  },
  {
    "id": "f7bd4cc8-8c3a-4789-815b-232a10144f4f",
    "name": "Allamakee County",
    "state_id": "9c8b8c72-ab1f-40ff-9269-a2eea8629c00"
  },
  {
    "id": "dbe54b2e-cc41-41fb-bc74-e93a07f00800",
    "name": "Allison",
    "state_id": "9c8b8c72-ab1f-40ff-9269-a2eea8629c00"
  },
  {
    "id": "65a2c72c-c9db-4039-8b3d-e20995aac9df",
    "name": "Alta",
    "state_id": "9c8b8c72-ab1f-40ff-9269-a2eea8629c00"
  },
  {
    "id": "2c002cdf-47f4-4b1b-9b5c-84f15f2f57cb",
    "name": "Alton",
    "state_id": "9c8b8c72-ab1f-40ff-9269-a2eea8629c00"
  },
  {
    "id": "51b86a27-67d6-4cd0-83c3-b2cd6a4d2a1a",
    "name": "Altoona",
    "state_id": "9c8b8c72-ab1f-40ff-9269-a2eea8629c00"
  },
  {
    "id": "5b405e7d-a70d-4c8c-9de3-86a156b4cf93",
    "name": "Ames",
    "state_id": "9c8b8c72-ab1f-40ff-9269-a2eea8629c00"
  },
  {
    "id": "476d39b9-a15a-4178-b976-cbe4a25dc905",
    "name": "Anamosa",
    "state_id": "9c8b8c72-ab1f-40ff-9269-a2eea8629c00"
  },
  {
    "id": "077741cc-1150-4edd-9ff7-b2b1b3c899b3",
    "name": "Ankeny",
    "state_id": "9c8b8c72-ab1f-40ff-9269-a2eea8629c00"
  },
  {
    "id": "6c679d4b-8f26-408a-9e4c-68fcb0b8161d",
    "name": "Aplington",
    "state_id": "9c8b8c72-ab1f-40ff-9269-a2eea8629c00"
  },
  {
    "id": "b41c621b-b7e7-482f-aa3d-010ac6ffbf83",
    "name": "Appanoose County",
    "state_id": "9c8b8c72-ab1f-40ff-9269-a2eea8629c00"
  },
  {
    "id": "93be3b4e-c086-4cb3-8730-c9240531c018",
    "name": "Arnolds Park",
    "state_id": "9c8b8c72-ab1f-40ff-9269-a2eea8629c00"
  },
  {
    "id": "f0f559a4-401c-41d0-a00d-593be4d66d4b",
    "name": "Asbury",
    "state_id": "9c8b8c72-ab1f-40ff-9269-a2eea8629c00"
  },
  {
    "id": "ad2987db-6c42-4d6f-b148-e3550e7732b5",
    "name": "Atkins",
    "state_id": "9c8b8c72-ab1f-40ff-9269-a2eea8629c00"
  },
  {
    "id": "a385c171-b539-4c6c-980b-bf7310b2d961",
    "name": "Atlantic",
    "state_id": "9c8b8c72-ab1f-40ff-9269-a2eea8629c00"
  },
  {
    "id": "807ca7a4-6083-4abd-b418-39468b292f85",
    "name": "Audubon",
    "state_id": "9c8b8c72-ab1f-40ff-9269-a2eea8629c00"
  },
  {
    "id": "2f61e65b-6cf5-4521-8fa1-f50e3ea5b367",
    "name": "Audubon County",
    "state_id": "9c8b8c72-ab1f-40ff-9269-a2eea8629c00"
  },
  {
    "id": "ff684118-0b10-444d-8102-85d2d7f6f5cf",
    "name": "Avoca",
    "state_id": "9c8b8c72-ab1f-40ff-9269-a2eea8629c00"
  },
  {
    "id": "b33e1b18-8569-46fe-a794-dce52a07ca55",
    "name": "Baxter",
    "state_id": "9c8b8c72-ab1f-40ff-9269-a2eea8629c00"
  },
  {
    "id": "79739d39-0acd-4738-b4fe-f2ad9eec7812",
    "name": "Bedford",
    "state_id": "9c8b8c72-ab1f-40ff-9269-a2eea8629c00"
  },
  {
    "id": "a47dee38-93de-4821-b84e-afe5584548bf",
    "name": "Belle Plaine",
    "state_id": "9c8b8c72-ab1f-40ff-9269-a2eea8629c00"
  },
  {
    "id": "cbce41be-4769-4542-9b21-14f5b6d0c8c8",
    "name": "Bellevue",
    "state_id": "9c8b8c72-ab1f-40ff-9269-a2eea8629c00"
  },
  {
    "id": "a5d84634-d506-4107-b8ed-2277dc1fcde7",
    "name": "Belmond",
    "state_id": "9c8b8c72-ab1f-40ff-9269-a2eea8629c00"
  },
  {
    "id": "1aaeac8f-6f86-439b-bcd2-e11378e40398",
    "name": "Benton County",
    "state_id": "9c8b8c72-ab1f-40ff-9269-a2eea8629c00"
  },
  {
    "id": "e545593c-c0d9-4db8-9642-7e49f38e9cbd",
    "name": "Bettendorf",
    "state_id": "9c8b8c72-ab1f-40ff-9269-a2eea8629c00"
  },
  {
    "id": "be94a06e-c8d8-495a-bf74-e92b32539d68",
    "name": "Black Hawk County",
    "state_id": "9c8b8c72-ab1f-40ff-9269-a2eea8629c00"
  },
  {
    "id": "f3ebd81d-f4d2-45e6-ac17-5936cdfe5fd7",
    "name": "Bloomfield",
    "state_id": "9c8b8c72-ab1f-40ff-9269-a2eea8629c00"
  },
  {
    "id": "ccba67c0-eeaa-4461-b543-6dda9addbd94",
    "name": "Blue Grass",
    "state_id": "9c8b8c72-ab1f-40ff-9269-a2eea8629c00"
  },
  {
    "id": "f2604330-3959-4813-86b0-cb5d0c7333eb",
    "name": "Bondurant",
    "state_id": "9c8b8c72-ab1f-40ff-9269-a2eea8629c00"
  },
  {
    "id": "fccaa82d-3f9b-435d-bd91-6f8babd8dec6",
    "name": "Boone",
    "state_id": "9c8b8c72-ab1f-40ff-9269-a2eea8629c00"
  },
  {
    "id": "3057cc41-4459-4ea5-bdbd-ee6e35e9ad92",
    "name": "Boone County",
    "state_id": "9c8b8c72-ab1f-40ff-9269-a2eea8629c00"
  },
  {
    "id": "82c6f86f-99b8-4f9d-9163-68b5b096da49",
    "name": "Bremer County",
    "state_id": "9c8b8c72-ab1f-40ff-9269-a2eea8629c00"
  },
  {
    "id": "bc6563a2-bbca-43ef-b436-06e55bbef5c8",
    "name": "Britt",
    "state_id": "9c8b8c72-ab1f-40ff-9269-a2eea8629c00"
  },
  {
    "id": "8f92d9a1-8b22-4708-9d52-214fd5b57404",
    "name": "Brooklyn",
    "state_id": "9c8b8c72-ab1f-40ff-9269-a2eea8629c00"
  },
  {
    "id": "501d6863-b859-460f-b111-4f251590a856",
    "name": "Buchanan County",
    "state_id": "9c8b8c72-ab1f-40ff-9269-a2eea8629c00"
  },
  {
    "id": "325a9149-14ea-45b4-be4a-95fbb2b8cd04",
    "name": "Buena Vista County",
    "state_id": "9c8b8c72-ab1f-40ff-9269-a2eea8629c00"
  },
  {
    "id": "2a288421-9b20-4e61-9443-485bd2b9fcea",
    "name": "Buffalo",
    "state_id": "9c8b8c72-ab1f-40ff-9269-a2eea8629c00"
  },
  {
    "id": "7c39af61-fefe-47d5-81b0-d177bdb037c5",
    "name": "Buffalo (historical)",
    "state_id": "9c8b8c72-ab1f-40ff-9269-a2eea8629c00"
  },
  {
    "id": "6a75644c-9691-47dc-9491-64b428ff5e34",
    "name": "Burlington",
    "state_id": "9c8b8c72-ab1f-40ff-9269-a2eea8629c00"
  },
  {
    "id": "2e7bcec6-31fb-4337-8d57-6a899bebc57b",
    "name": "Butler County",
    "state_id": "9c8b8c72-ab1f-40ff-9269-a2eea8629c00"
  },
  {
    "id": "559f49ce-47c8-4a80-b532-23f04a102469",
    "name": "Calhoun County",
    "state_id": "9c8b8c72-ab1f-40ff-9269-a2eea8629c00"
  },
  {
    "id": "52a13dff-45ca-4b9e-bf1a-a15b7b979584",
    "name": "Camanche",
    "state_id": "9c8b8c72-ab1f-40ff-9269-a2eea8629c00"
  },
  {
    "id": "4038c4b1-280b-4bf0-a399-b7ed98d49019",
    "name": "Carlisle",
    "state_id": "9c8b8c72-ab1f-40ff-9269-a2eea8629c00"
  },
  {
    "id": "aac9f081-6d18-4bb7-99f9-9cc17c1cd4e1",
    "name": "Carroll",
    "state_id": "9c8b8c72-ab1f-40ff-9269-a2eea8629c00"
  },
  {
    "id": "4ceb33b2-6487-4f27-b7a0-14c2120e1059",
    "name": "Carroll County",
    "state_id": "9c8b8c72-ab1f-40ff-9269-a2eea8629c00"
  },
  {
    "id": "4dba5f3d-2fb4-42fa-a611-fb18227f9114",
    "name": "Carter Lake",
    "state_id": "9c8b8c72-ab1f-40ff-9269-a2eea8629c00"
  },
  {
    "id": "9f43a0f5-eaa5-4c77-ac23-546cacce5429",
    "name": "Cascade",
    "state_id": "9c8b8c72-ab1f-40ff-9269-a2eea8629c00"
  },
  {
    "id": "55649ce5-6aec-4573-9e42-37239343e478",
    "name": "Cass County",
    "state_id": "9c8b8c72-ab1f-40ff-9269-a2eea8629c00"
  },
  {
    "id": "750a9a53-3d0d-487f-bf0b-d531de6373c3",
    "name": "Cedar County",
    "state_id": "9c8b8c72-ab1f-40ff-9269-a2eea8629c00"
  },
  {
    "id": "4c60bc4d-0adc-4426-971d-7b10c1df2dc4",
    "name": "Cedar Falls",
    "state_id": "9c8b8c72-ab1f-40ff-9269-a2eea8629c00"
  },
  {
    "id": "a0647d8e-c3de-470f-88ac-f940364b282e",
    "name": "Cedar Rapids",
    "state_id": "9c8b8c72-ab1f-40ff-9269-a2eea8629c00"
  },
  {
    "id": "b9d28196-b0d3-4755-b848-cbde1b663cb6",
    "name": "Center Point",
    "state_id": "9c8b8c72-ab1f-40ff-9269-a2eea8629c00"
  },
  {
    "id": "4ebda06e-b197-4733-a79e-94e71dd55524",
    "name": "Centerville",
    "state_id": "9c8b8c72-ab1f-40ff-9269-a2eea8629c00"
  },
  {
    "id": "365a4539-715f-421a-99e6-d23a2eccf5a3",
    "name": "Central City",
    "state_id": "9c8b8c72-ab1f-40ff-9269-a2eea8629c00"
  },
  {
    "id": "d07e4d37-87f3-4dd4-970d-09f94f4ead70",
    "name": "Cerro Gordo County",
    "state_id": "9c8b8c72-ab1f-40ff-9269-a2eea8629c00"
  },
  {
    "id": "d1457d2f-ece2-40de-8fa6-fc8b235dd1cb",
    "name": "Chariton",
    "state_id": "9c8b8c72-ab1f-40ff-9269-a2eea8629c00"
  },
  {
    "id": "4e26b797-ee91-427e-9df4-bf980891099a",
    "name": "Charles City",
    "state_id": "9c8b8c72-ab1f-40ff-9269-a2eea8629c00"
  },
  {
    "id": "a6257896-13cc-4532-9981-a272016a9368",
    "name": "Cherokee",
    "state_id": "9c8b8c72-ab1f-40ff-9269-a2eea8629c00"
  },
  {
    "id": "5e346b5d-5980-4dfe-ac61-a0d989f24c55",
    "name": "Cherokee County",
    "state_id": "9c8b8c72-ab1f-40ff-9269-a2eea8629c00"
  },
  {
    "id": "567bdd3a-ede4-442a-a7b6-b6cc1657a857",
    "name": "Chickasaw County",
    "state_id": "9c8b8c72-ab1f-40ff-9269-a2eea8629c00"
  },
  {
    "id": "142616b9-219a-4d03-b6d3-0c95ebb3d2db",
    "name": "Clarinda",
    "state_id": "9c8b8c72-ab1f-40ff-9269-a2eea8629c00"
  },
  {
    "id": "c55b390a-8294-49a0-8edd-5cbc185b0a58",
    "name": "Clarion",
    "state_id": "9c8b8c72-ab1f-40ff-9269-a2eea8629c00"
  },
  {
    "id": "862a3eb0-9c7d-496c-a8c3-9d5d4ac04ef8",
    "name": "Clarke County",
    "state_id": "9c8b8c72-ab1f-40ff-9269-a2eea8629c00"
  },
  {
    "id": "132f6007-c5c5-4a2f-801d-74c2daf82cb6",
    "name": "Clarksville",
    "state_id": "9c8b8c72-ab1f-40ff-9269-a2eea8629c00"
  },
  {
    "id": "4524b82d-e772-4bf5-973f-b716d5a5f7e6",
    "name": "Clay County",
    "state_id": "9c8b8c72-ab1f-40ff-9269-a2eea8629c00"
  },
  {
    "id": "960bf968-c432-41c0-b66c-43e389a2a175",
    "name": "Clayton County",
    "state_id": "9c8b8c72-ab1f-40ff-9269-a2eea8629c00"
  },
  {
    "id": "31cb1b89-a94e-4728-8e70-c5ce13486987",
    "name": "Clear Lake",
    "state_id": "9c8b8c72-ab1f-40ff-9269-a2eea8629c00"
  },
  {
    "id": "382fbceb-5c7c-4ffb-be44-0def8036f7b8",
    "name": "Clinton",
    "state_id": "9c8b8c72-ab1f-40ff-9269-a2eea8629c00"
  },
  {
    "id": "c6130a2a-b59e-490c-9bab-d54d954ea085",
    "name": "Clinton County",
    "state_id": "9c8b8c72-ab1f-40ff-9269-a2eea8629c00"
  },
  {
    "id": "f5f7255c-f0f4-4e8d-b6b2-d4afd208ac26",
    "name": "Clive",
    "state_id": "9c8b8c72-ab1f-40ff-9269-a2eea8629c00"
  },
  {
    "id": "e683ca5a-9afd-4094-aa6d-c8a2e6444e1b",
    "name": "Colfax",
    "state_id": "9c8b8c72-ab1f-40ff-9269-a2eea8629c00"
  },
  {
    "id": "8491122a-c3ac-49c9-8f20-a87e9628aafb",
    "name": "Columbus Junction",
    "state_id": "9c8b8c72-ab1f-40ff-9269-a2eea8629c00"
  },
  {
    "id": "91b18740-da2a-4d97-b7cf-aa0655ef6867",
    "name": "Conrad",
    "state_id": "9c8b8c72-ab1f-40ff-9269-a2eea8629c00"
  },
  {
    "id": "48a1e8a6-013f-4104-8a94-8e9c0f9f77c1",
    "name": "Coon Rapids",
    "state_id": "9c8b8c72-ab1f-40ff-9269-a2eea8629c00"
  },
  {
    "id": "26d383b3-67e5-4a42-bd04-11ba786cec6e",
    "name": "Coralville",
    "state_id": "9c8b8c72-ab1f-40ff-9269-a2eea8629c00"
  },
  {
    "id": "b175b63b-a019-4787-bceb-d396b2b51a84",
    "name": "Corning",
    "state_id": "9c8b8c72-ab1f-40ff-9269-a2eea8629c00"
  },
  {
    "id": "c3cf647c-ed68-4893-a1f3-c7af112a2c01",
    "name": "Corydon",
    "state_id": "9c8b8c72-ab1f-40ff-9269-a2eea8629c00"
  },
  {
    "id": "0960f47a-4b61-446a-8277-7851195cfc10",
    "name": "Council Bluffs",
    "state_id": "9c8b8c72-ab1f-40ff-9269-a2eea8629c00"
  },
  {
    "id": "b0f51989-4869-4528-a065-a2b42d6c3d86",
    "name": "Crawford County",
    "state_id": "9c8b8c72-ab1f-40ff-9269-a2eea8629c00"
  },
  {
    "id": "d5b5ab79-14dc-47be-a80d-6349eb5ea1f9",
    "name": "Cresco",
    "state_id": "9c8b8c72-ab1f-40ff-9269-a2eea8629c00"
  },
  {
    "id": "2a28c6ec-124f-4a5a-81e7-431b70e86696",
    "name": "Creston",
    "state_id": "9c8b8c72-ab1f-40ff-9269-a2eea8629c00"
  },
  {
    "id": "209b2418-de0e-4ec8-9836-f54aa7a03d9d",
    "name": "Dakota City",
    "state_id": "9c8b8c72-ab1f-40ff-9269-a2eea8629c00"
  },
  {
    "id": "5b4ffb29-7f67-456c-945d-971e6b821447",
    "name": "Dallas Center",
    "state_id": "9c8b8c72-ab1f-40ff-9269-a2eea8629c00"
  },
  {
    "id": "c336b21e-15ee-4af3-bd3f-87e12c74c0ce",
    "name": "Dallas County",
    "state_id": "9c8b8c72-ab1f-40ff-9269-a2eea8629c00"
  },
  {
    "id": "f35ac6ff-229e-4369-8042-a340edf5282e",
    "name": "Davenport",
    "state_id": "9c8b8c72-ab1f-40ff-9269-a2eea8629c00"
  },
  {
    "id": "97c32486-ea88-46ce-aaf5-1983ac43b681",
    "name": "Davis County",
    "state_id": "9c8b8c72-ab1f-40ff-9269-a2eea8629c00"
  },
  {
    "id": "9306de5d-0f88-4027-9a1c-5a532f8eab7a",
    "name": "De Soto",
    "state_id": "9c8b8c72-ab1f-40ff-9269-a2eea8629c00"
  },
  {
    "id": "d4ae5c9b-e27e-4d28-8523-b61f90cff456",
    "name": "De Witt",
    "state_id": "9c8b8c72-ab1f-40ff-9269-a2eea8629c00"
  },
  {
    "id": "6ffd1e58-3cbd-41e2-8280-23832f035f23",
    "name": "Decatur County",
    "state_id": "9c8b8c72-ab1f-40ff-9269-a2eea8629c00"
  },
  {
    "id": "0ba2bde0-6e7f-4284-a80d-bdd88c77153a",
    "name": "Decorah",
    "state_id": "9c8b8c72-ab1f-40ff-9269-a2eea8629c00"
  },
  {
    "id": "52049e5f-647b-44a1-bdaa-67ce70315823",
    "name": "Delaware County",
    "state_id": "9c8b8c72-ab1f-40ff-9269-a2eea8629c00"
  },
  {
    "id": "87d58eb4-2449-42d5-824d-1c1749c37f98",
    "name": "Denison",
    "state_id": "9c8b8c72-ab1f-40ff-9269-a2eea8629c00"
  },
  {
    "id": "8b92d393-f6bd-4f0e-a2fd-fdaa45e0089d",
    "name": "Denver",
    "state_id": "9c8b8c72-ab1f-40ff-9269-a2eea8629c00"
  },
  {
    "id": "d6896607-747f-4809-8d08-b25c9f8e27e0",
    "name": "Des Moines",
    "state_id": "9c8b8c72-ab1f-40ff-9269-a2eea8629c00"
  },
  {
    "id": "dd3f1602-83c5-40a2-ba33-66710c82b8e3",
    "name": "Des Moines County",
    "state_id": "9c8b8c72-ab1f-40ff-9269-a2eea8629c00"
  },
  {
    "id": "8468bab9-4c30-4499-87f4-edfb97b613e0",
    "name": "Dickinson County",
    "state_id": "9c8b8c72-ab1f-40ff-9269-a2eea8629c00"
  },
  {
    "id": "b777ad77-0ea3-4d3e-baf8-632e60992cad",
    "name": "Dike",
    "state_id": "9c8b8c72-ab1f-40ff-9269-a2eea8629c00"
  },
  {
    "id": "a75ba0ea-8d4a-4211-b4dd-910f11066e1d",
    "name": "Dubuque",
    "state_id": "9c8b8c72-ab1f-40ff-9269-a2eea8629c00"
  },
  {
    "id": "25f36f21-8da4-42db-844d-93259da905cf",
    "name": "Dubuque County",
    "state_id": "9c8b8c72-ab1f-40ff-9269-a2eea8629c00"
  },
  {
    "id": "9323d93c-d5ee-4dc1-ac7f-61ebaba9dcc3",
    "name": "Durant",
    "state_id": "9c8b8c72-ab1f-40ff-9269-a2eea8629c00"
  },
  {
    "id": "038b3bb7-6596-4e0a-a89f-db1c22c45fe5",
    "name": "Dyersville",
    "state_id": "9c8b8c72-ab1f-40ff-9269-a2eea8629c00"
  },
  {
    "id": "e4448db9-49e8-4fc3-bdc9-1a35d8afe382",
    "name": "Dysart",
    "state_id": "9c8b8c72-ab1f-40ff-9269-a2eea8629c00"
  },
  {
    "id": "41977aea-cdc8-4978-9801-711a195b6587",
    "name": "Eagle Grove",
    "state_id": "9c8b8c72-ab1f-40ff-9269-a2eea8629c00"
  },
  {
    "id": "8cb91739-b134-4b58-9961-adfed984bebc",
    "name": "Earlham",
    "state_id": "9c8b8c72-ab1f-40ff-9269-a2eea8629c00"
  },
  {
    "id": "3faec35d-906c-45b8-a558-815d754cef33",
    "name": "Eddyville",
    "state_id": "9c8b8c72-ab1f-40ff-9269-a2eea8629c00"
  },
  {
    "id": "dc2a1a2d-ff81-4b5d-9a34-084a6ae90896",
    "name": "Eldora",
    "state_id": "9c8b8c72-ab1f-40ff-9269-a2eea8629c00"
  },
  {
    "id": "754eb183-5177-4a80-8862-47e0020d8a93",
    "name": "Eldridge",
    "state_id": "9c8b8c72-ab1f-40ff-9269-a2eea8629c00"
  },
  {
    "id": "74245940-02d7-4e60-98e3-9eca0df72ef8",
    "name": "Elk Run Heights",
    "state_id": "9c8b8c72-ab1f-40ff-9269-a2eea8629c00"
  },
  {
    "id": "47c695bf-1781-4dc0-b3da-ef3b27e67833",
    "name": "Elkader",
    "state_id": "9c8b8c72-ab1f-40ff-9269-a2eea8629c00"
  },
  {
    "id": "064eb3a7-4e96-4554-b164-12baf40b336f",
    "name": "Ely",
    "state_id": "9c8b8c72-ab1f-40ff-9269-a2eea8629c00"
  },
  {
    "id": "e162d0fe-36d6-40ca-8000-dd53e658963e",
    "name": "Emmet County",
    "state_id": "9c8b8c72-ab1f-40ff-9269-a2eea8629c00"
  },
  {
    "id": "385fcb8b-7f29-484a-ae96-ecb7f26bc115",
    "name": "Emmetsburg",
    "state_id": "9c8b8c72-ab1f-40ff-9269-a2eea8629c00"
  },
  {
    "id": "f67cc233-64fb-4ad4-bfb0-4883eb0d875a",
    "name": "Epworth",
    "state_id": "9c8b8c72-ab1f-40ff-9269-a2eea8629c00"
  },
  {
    "id": "9d2af46f-efc8-4b64-bb1e-4731eda3e0ec",
    "name": "Estherville",
    "state_id": "9c8b8c72-ab1f-40ff-9269-a2eea8629c00"
  },
  {
    "id": "51d70741-7781-4470-97e3-95fcab5cbb7b",
    "name": "Evansdale",
    "state_id": "9c8b8c72-ab1f-40ff-9269-a2eea8629c00"
  },
  {
    "id": "598e4b13-938f-4260-a648-b0f6593b6c9e",
    "name": "Fairbank",
    "state_id": "9c8b8c72-ab1f-40ff-9269-a2eea8629c00"
  },
  {
    "id": "6c33e0ac-27a4-4be0-ad0a-d5d327aa5a5c",
    "name": "Fairfax",
    "state_id": "9c8b8c72-ab1f-40ff-9269-a2eea8629c00"
  },
  {
    "id": "0d422687-c2bf-4e01-9158-bf68e0955858",
    "name": "Fairfield",
    "state_id": "9c8b8c72-ab1f-40ff-9269-a2eea8629c00"
  },
  {
    "id": "69e0d54b-d64d-4d79-822a-74095719b370",
    "name": "Farley",
    "state_id": "9c8b8c72-ab1f-40ff-9269-a2eea8629c00"
  },
  {
    "id": "5c13f8e5-44d3-4c8f-9e04-2ab55f0f4374",
    "name": "Fayette",
    "state_id": "9c8b8c72-ab1f-40ff-9269-a2eea8629c00"
  },
  {
    "id": "f59dae50-3bae-41da-92e9-b2a7b34ac1cc",
    "name": "Fayette County",
    "state_id": "9c8b8c72-ab1f-40ff-9269-a2eea8629c00"
  },
  {
    "id": "f317dd18-2739-457d-af68-2c01551ed237",
    "name": "Floyd County",
    "state_id": "9c8b8c72-ab1f-40ff-9269-a2eea8629c00"
  },
  {
    "id": "64a8b02a-17e3-46cb-9ed7-1c740320ec26",
    "name": "Forest City",
    "state_id": "9c8b8c72-ab1f-40ff-9269-a2eea8629c00"
  },
  {
    "id": "05de097f-5a8e-4580-9a73-cb329173d14b",
    "name": "Fort Dodge",
    "state_id": "9c8b8c72-ab1f-40ff-9269-a2eea8629c00"
  },
  {
    "id": "07881a55-576c-4ebf-982f-c50e4f096f26",
    "name": "Fort Madison",
    "state_id": "9c8b8c72-ab1f-40ff-9269-a2eea8629c00"
  },
  {
    "id": "d02d774e-7c97-411f-9221-4300644bea1a",
    "name": "Franklin County",
    "state_id": "9c8b8c72-ab1f-40ff-9269-a2eea8629c00"
  },
  {
    "id": "f549cdf9-b218-4fb1-ac3e-46ec0b0531f0",
    "name": "Fremont County",
    "state_id": "9c8b8c72-ab1f-40ff-9269-a2eea8629c00"
  },
  {
    "id": "db342c0b-1a70-45ce-a4b6-9eac137cfa25",
    "name": "Garner",
    "state_id": "9c8b8c72-ab1f-40ff-9269-a2eea8629c00"
  },
  {
    "id": "323fccf8-8980-405c-bdd7-309e36816de2",
    "name": "George",
    "state_id": "9c8b8c72-ab1f-40ff-9269-a2eea8629c00"
  },
  {
    "id": "4953ee35-2b9c-41e5-82e7-6f91394e03ba",
    "name": "Gilbert",
    "state_id": "9c8b8c72-ab1f-40ff-9269-a2eea8629c00"
  },
  {
    "id": "b83ae97e-cf6e-46d2-9ba5-253866aae99f",
    "name": "Glenwood",
    "state_id": "9c8b8c72-ab1f-40ff-9269-a2eea8629c00"
  },
  {
    "id": "563c23fb-a76d-45b5-b58c-a413bd0918ec",
    "name": "Glidden",
    "state_id": "9c8b8c72-ab1f-40ff-9269-a2eea8629c00"
  },
  {
    "id": "8dce12e4-2d42-4d73-920b-7e27b7854023",
    "name": "Granger",
    "state_id": "9c8b8c72-ab1f-40ff-9269-a2eea8629c00"
  },
  {
    "id": "1e9f588f-2e70-4cbe-a3d4-659d5f80ea85",
    "name": "Greene",
    "state_id": "9c8b8c72-ab1f-40ff-9269-a2eea8629c00"
  },
  {
    "id": "4071c27e-166a-424c-a341-55cc085cc8cb",
    "name": "Greene County",
    "state_id": "9c8b8c72-ab1f-40ff-9269-a2eea8629c00"
  },
  {
    "id": "5f2536d6-8387-427a-ab37-a8472b289888",
    "name": "Greenfield",
    "state_id": "9c8b8c72-ab1f-40ff-9269-a2eea8629c00"
  },
  {
    "id": "31b5d37f-7188-43f2-ac65-707149a91701",
    "name": "Grimes",
    "state_id": "9c8b8c72-ab1f-40ff-9269-a2eea8629c00"
  },
  {
    "id": "63982cd4-8560-462f-9128-c8c6cb5bc1c2",
    "name": "Grinnell",
    "state_id": "9c8b8c72-ab1f-40ff-9269-a2eea8629c00"
  },
  {
    "id": "4ea5be5c-0e24-497b-a6cc-afccb778a910",
    "name": "Grundy Center",
    "state_id": "9c8b8c72-ab1f-40ff-9269-a2eea8629c00"
  },
  {
    "id": "b8dde88e-bc47-41a9-ad7b-09e5aa7d4fe2",
    "name": "Grundy County",
    "state_id": "9c8b8c72-ab1f-40ff-9269-a2eea8629c00"
  },
  {
    "id": "8b8da9f4-8a89-4201-b862-b9fee41a2720",
    "name": "Guthrie Center",
    "state_id": "9c8b8c72-ab1f-40ff-9269-a2eea8629c00"
  },
  {
    "id": "39a39b1b-83c4-4c52-924a-46f002521e8a",
    "name": "Guthrie County",
    "state_id": "9c8b8c72-ab1f-40ff-9269-a2eea8629c00"
  },
  {
    "id": "aa530d2c-3cd0-44c8-b8b2-f246b956b508",
    "name": "Guttenberg",
    "state_id": "9c8b8c72-ab1f-40ff-9269-a2eea8629c00"
  },
  {
    "id": "db85242d-0c1b-48b8-9c15-541906cb3946",
    "name": "Hamburg",
    "state_id": "9c8b8c72-ab1f-40ff-9269-a2eea8629c00"
  },
  {
    "id": "dd10d40d-0b5e-4b33-af6d-689a7e54894c",
    "name": "Hamilton County",
    "state_id": "9c8b8c72-ab1f-40ff-9269-a2eea8629c00"
  },
  {
    "id": "0dcaeb15-e672-4406-bdd8-70c7b661fdce",
    "name": "Hampton",
    "state_id": "9c8b8c72-ab1f-40ff-9269-a2eea8629c00"
  },
  {
    "id": "c237f8d2-faa7-48c2-90a9-fc2b030161fa",
    "name": "Hancock County",
    "state_id": "9c8b8c72-ab1f-40ff-9269-a2eea8629c00"
  },
  {
    "id": "8c507b92-3db7-4ae5-8def-4260ae131525",
    "name": "Hardin County",
    "state_id": "9c8b8c72-ab1f-40ff-9269-a2eea8629c00"
  },
  {
    "id": "99c28873-590e-4f4f-8a3a-d3b3144974be",
    "name": "Harlan",
    "state_id": "9c8b8c72-ab1f-40ff-9269-a2eea8629c00"
  },
  {
    "id": "6f7c6c03-6988-492f-867a-8f44a70f0095",
    "name": "Harrison County",
    "state_id": "9c8b8c72-ab1f-40ff-9269-a2eea8629c00"
  },
  {
    "id": "979197cb-5612-4bfe-a8f9-d6856bc3307f",
    "name": "Hartley",
    "state_id": "9c8b8c72-ab1f-40ff-9269-a2eea8629c00"
  },
  {
    "id": "3df8e24d-3eb7-4b13-96b2-c291446bfbfb",
    "name": "Hawarden",
    "state_id": "9c8b8c72-ab1f-40ff-9269-a2eea8629c00"
  },
  {
    "id": "a41190d9-b6cb-42c0-ab53-4482f83fa762",
    "name": "Henry County",
    "state_id": "9c8b8c72-ab1f-40ff-9269-a2eea8629c00"
  },
  {
    "id": "a5f84e4b-f9ae-4a66-9adc-57068cfb9d37",
    "name": "Hiawatha",
    "state_id": "9c8b8c72-ab1f-40ff-9269-a2eea8629c00"
  },
  {
    "id": "cc546255-1b48-47eb-bd7b-bb893ee4d2ac",
    "name": "Holstein",
    "state_id": "9c8b8c72-ab1f-40ff-9269-a2eea8629c00"
  },
  {
    "id": "752d4e3d-7f13-4230-8b33-8d51ae2158a6",
    "name": "Howard County",
    "state_id": "9c8b8c72-ab1f-40ff-9269-a2eea8629c00"
  },
  {
    "id": "e96e2033-dcf5-4d98-9730-4d9ab09275f9",
    "name": "Hudson",
    "state_id": "9c8b8c72-ab1f-40ff-9269-a2eea8629c00"
  },
  {
    "id": "779ae71a-6a77-4358-b54a-ff6baa3c696a",
    "name": "Hull",
    "state_id": "9c8b8c72-ab1f-40ff-9269-a2eea8629c00"
  },
  {
    "id": "390f6d5a-8559-4cc4-bf11-24ca15d7c1ef",
    "name": "Humboldt",
    "state_id": "9c8b8c72-ab1f-40ff-9269-a2eea8629c00"
  },
  {
    "id": "14b32750-fb47-4bbf-8a66-6ba5edbcb06b",
    "name": "Humboldt County",
    "state_id": "9c8b8c72-ab1f-40ff-9269-a2eea8629c00"
  },
  {
    "id": "8fe7af6d-6066-4ad8-ada0-8856033216c3",
    "name": "Huxley",
    "state_id": "9c8b8c72-ab1f-40ff-9269-a2eea8629c00"
  },
  {
    "id": "51b94042-22d7-4d5b-9536-fb16b9e5af39",
    "name": "Ida County",
    "state_id": "9c8b8c72-ab1f-40ff-9269-a2eea8629c00"
  },
  {
    "id": "a4f409b8-8a20-4320-99bd-1186c861a23e",
    "name": "Ida Grove",
    "state_id": "9c8b8c72-ab1f-40ff-9269-a2eea8629c00"
  },
  {
    "id": "afab1567-f1ee-4d08-9174-4ef78625d24c",
    "name": "Independence",
    "state_id": "9c8b8c72-ab1f-40ff-9269-a2eea8629c00"
  },
  {
    "id": "488148db-19c9-44b6-a9e1-50c4e837823b",
    "name": "Indianola",
    "state_id": "9c8b8c72-ab1f-40ff-9269-a2eea8629c00"
  },
  {
    "id": "9d442444-4f13-4289-9968-ec4298abc9a0",
    "name": "Iowa City",
    "state_id": "9c8b8c72-ab1f-40ff-9269-a2eea8629c00"
  },
  {
    "id": "ff5531f7-ddaf-4559-bc52-acbd29f58936",
    "name": "Iowa County",
    "state_id": "9c8b8c72-ab1f-40ff-9269-a2eea8629c00"
  },
  {
    "id": "d587a98a-5b93-40b6-b41c-c4bf80881aae",
    "name": "Iowa Falls",
    "state_id": "9c8b8c72-ab1f-40ff-9269-a2eea8629c00"
  },
  {
    "id": "bc7da8ec-31f8-4bd4-a9fc-00e5a451decf",
    "name": "Jackson County",
    "state_id": "9c8b8c72-ab1f-40ff-9269-a2eea8629c00"
  },
  {
    "id": "d42ff18c-ed31-4661-826a-3c2dbf3599f9",
    "name": "Jasper County",
    "state_id": "9c8b8c72-ab1f-40ff-9269-a2eea8629c00"
  },
  {
    "id": "87452b64-4e69-4c7c-b761-11ff3ae1aca7",
    "name": "Jefferson",
    "state_id": "9c8b8c72-ab1f-40ff-9269-a2eea8629c00"
  },
  {
    "id": "d48fe694-db8e-476e-900d-fd877ca0aa59",
    "name": "Jefferson County",
    "state_id": "9c8b8c72-ab1f-40ff-9269-a2eea8629c00"
  },
  {
    "id": "bebc1914-8ec8-4906-9ca8-5cc0b9a33277",
    "name": "Jesup",
    "state_id": "9c8b8c72-ab1f-40ff-9269-a2eea8629c00"
  },
  {
    "id": "90ed7b38-c8fe-460e-bb57-a655e580e6b0",
    "name": "Jewell",
    "state_id": "9c8b8c72-ab1f-40ff-9269-a2eea8629c00"
  },
  {
    "id": "8b4ba5f3-e4ea-4f2e-b045-192d5cea56b3",
    "name": "Johnson County",
    "state_id": "9c8b8c72-ab1f-40ff-9269-a2eea8629c00"
  },
  {
    "id": "ec10f89c-9a44-4e6a-b64b-086c26e613a6",
    "name": "Johnston",
    "state_id": "9c8b8c72-ab1f-40ff-9269-a2eea8629c00"
  },
  {
    "id": "a74f5500-e0f2-4ead-8c01-d90f9be1ffa0",
    "name": "Jones County",
    "state_id": "9c8b8c72-ab1f-40ff-9269-a2eea8629c00"
  },
  {
    "id": "9afb7fe5-1e2a-4611-943b-1a654770a19c",
    "name": "Kalona",
    "state_id": "9c8b8c72-ab1f-40ff-9269-a2eea8629c00"
  },
  {
    "id": "35b2d942-ae05-4529-b27f-c8d0201b0550",
    "name": "Keokuk",
    "state_id": "9c8b8c72-ab1f-40ff-9269-a2eea8629c00"
  },
  {
    "id": "b00df3e9-a173-4bf4-9b29-1de5b74a18c9",
    "name": "Keokuk County",
    "state_id": "9c8b8c72-ab1f-40ff-9269-a2eea8629c00"
  },
  {
    "id": "3c0ca561-0053-4bf9-9676-23e1b8a098a6",
    "name": "Keosauqua",
    "state_id": "9c8b8c72-ab1f-40ff-9269-a2eea8629c00"
  },
  {
    "id": "d3c3e484-59c4-4a7f-96a3-ddb7bdb7c4e7",
    "name": "Kingsley",
    "state_id": "9c8b8c72-ab1f-40ff-9269-a2eea8629c00"
  },
  {
    "id": "f66b8975-abac-4b34-bcc9-2e77661c7703",
    "name": "Knoxville",
    "state_id": "9c8b8c72-ab1f-40ff-9269-a2eea8629c00"
  },
  {
    "id": "ce8cabe2-1061-41f3-8ec7-9c5e390ccc13",
    "name": "Kossuth County",
    "state_id": "9c8b8c72-ab1f-40ff-9269-a2eea8629c00"
  },
  {
    "id": "aec50668-b1cb-4a13-8d29-658bd01cfb24",
    "name": "La Porte City",
    "state_id": "9c8b8c72-ab1f-40ff-9269-a2eea8629c00"
  },
  {
    "id": "76374ce0-fcaf-41ff-baa9-5c37a43c1742",
    "name": "Lake City",
    "state_id": "9c8b8c72-ab1f-40ff-9269-a2eea8629c00"
  },
  {
    "id": "460debef-9686-4fed-84da-9814a172efd5",
    "name": "Lake Mills",
    "state_id": "9c8b8c72-ab1f-40ff-9269-a2eea8629c00"
  },
  {
    "id": "e91dc513-399c-4fde-84de-22b78f72a732",
    "name": "Lake Panorama",
    "state_id": "9c8b8c72-ab1f-40ff-9269-a2eea8629c00"
  },
  {
    "id": "d580ac76-97b8-4752-a02b-57816cc8a2b3",
    "name": "Lake Park",
    "state_id": "9c8b8c72-ab1f-40ff-9269-a2eea8629c00"
  },
  {
    "id": "1ca39c5a-f9b1-4bc0-8b20-d13d28ed16d4",
    "name": "Lake View",
    "state_id": "9c8b8c72-ab1f-40ff-9269-a2eea8629c00"
  },
  {
    "id": "8b056c4b-bb72-4ef3-8b23-c92b55738f88",
    "name": "Lamoni",
    "state_id": "9c8b8c72-ab1f-40ff-9269-a2eea8629c00"
  },
  {
    "id": "33bccc24-d86d-416c-8de3-b3cd5d8f8bfe",
    "name": "Laurens",
    "state_id": "9c8b8c72-ab1f-40ff-9269-a2eea8629c00"
  },
  {
    "id": "fb36ef34-9418-4c25-a91e-0ec38c3201e4",
    "name": "Le Claire",
    "state_id": "9c8b8c72-ab1f-40ff-9269-a2eea8629c00"
  },
  {
    "id": "fd1a0183-a3ad-4a92-b2af-6f81516055e6",
    "name": "Le Mars",
    "state_id": "9c8b8c72-ab1f-40ff-9269-a2eea8629c00"
  },
  {
    "id": "e730b6a5-ab4f-4211-ac30-8c2f5c95ca57",
    "name": "Lee County",
    "state_id": "9c8b8c72-ab1f-40ff-9269-a2eea8629c00"
  },
  {
    "id": "0571e42b-7263-4a6d-a559-7f7e8b68254c",
    "name": "Lenox",
    "state_id": "9c8b8c72-ab1f-40ff-9269-a2eea8629c00"
  },
  {
    "id": "081229f9-b6aa-4684-975d-4857cf812427",
    "name": "Leon",
    "state_id": "9c8b8c72-ab1f-40ff-9269-a2eea8629c00"
  },
  {
    "id": "b7ba18d0-72fe-46d1-8822-e3fcb2581fff",
    "name": "Linn County",
    "state_id": "9c8b8c72-ab1f-40ff-9269-a2eea8629c00"
  },
  {
    "id": "f9262bd8-8eaa-4f03-b217-18a7b812227e",
    "name": "Lisbon",
    "state_id": "9c8b8c72-ab1f-40ff-9269-a2eea8629c00"
  },
  {
    "id": "0533692e-f796-45c9-afc6-75e2a80c10dd",
    "name": "Logan",
    "state_id": "9c8b8c72-ab1f-40ff-9269-a2eea8629c00"
  },
  {
    "id": "c9227096-92a7-4c99-afea-82d4d1f28f32",
    "name": "Lone Tree",
    "state_id": "9c8b8c72-ab1f-40ff-9269-a2eea8629c00"
  },
  {
    "id": "6b209282-ac31-437b-82de-e9995d16e404",
    "name": "Louisa County",
    "state_id": "9c8b8c72-ab1f-40ff-9269-a2eea8629c00"
  },
  {
    "id": "744e77e7-64fb-4d70-a98e-8388e207f44d",
    "name": "Lucas County",
    "state_id": "9c8b8c72-ab1f-40ff-9269-a2eea8629c00"
  },
  {
    "id": "1deaaa9c-cc3c-4005-aa26-c9e0b2afa13a",
    "name": "Lyon County",
    "state_id": "9c8b8c72-ab1f-40ff-9269-a2eea8629c00"
  },
  {
    "id": "760e8ce1-7830-40ce-bd2b-4680bef2ab27",
    "name": "Madison County",
    "state_id": "9c8b8c72-ab1f-40ff-9269-a2eea8629c00"
  },
  {
    "id": "12e0c79c-78dd-48ef-8cf4-32596d911e12",
    "name": "Madrid",
    "state_id": "9c8b8c72-ab1f-40ff-9269-a2eea8629c00"
  },
  {
    "id": "04663872-3ede-4615-a45d-85c7175d05f0",
    "name": "Maharishi Vedic City",
    "state_id": "9c8b8c72-ab1f-40ff-9269-a2eea8629c00"
  },
  {
    "id": "d98057fe-3cc1-425c-9811-f985550963eb",
    "name": "Mahaska County",
    "state_id": "9c8b8c72-ab1f-40ff-9269-a2eea8629c00"
  },
  {
    "id": "3b1239ef-b2dd-4b3f-9377-6ae04414c660",
    "name": "Malvern",
    "state_id": "9c8b8c72-ab1f-40ff-9269-a2eea8629c00"
  },
  {
    "id": "530bcb8b-d5d6-4d1b-8108-1a6017e53d8d",
    "name": "Manchester",
    "state_id": "9c8b8c72-ab1f-40ff-9269-a2eea8629c00"
  },
  {
    "id": "04d69e43-9611-481e-94e1-e7bb9dbbf947",
    "name": "Manly",
    "state_id": "9c8b8c72-ab1f-40ff-9269-a2eea8629c00"
  },
  {
    "id": "4d7664b7-dd9c-49f4-8689-ff47dae599f9",
    "name": "Manning",
    "state_id": "9c8b8c72-ab1f-40ff-9269-a2eea8629c00"
  },
  {
    "id": "c6c06a43-62bb-4fcc-835a-b7545ce45e2a",
    "name": "Manson",
    "state_id": "9c8b8c72-ab1f-40ff-9269-a2eea8629c00"
  },
  {
    "id": "7ef66731-0996-4bb6-b502-580672a91b72",
    "name": "Mapleton",
    "state_id": "9c8b8c72-ab1f-40ff-9269-a2eea8629c00"
  },
  {
    "id": "928c281c-7401-49ad-a119-70d134a0a9ad",
    "name": "Maquoketa",
    "state_id": "9c8b8c72-ab1f-40ff-9269-a2eea8629c00"
  },
  {
    "id": "fb977bb2-9c03-47c6-8841-65a4e43d298c",
    "name": "Marcus",
    "state_id": "9c8b8c72-ab1f-40ff-9269-a2eea8629c00"
  },
  {
    "id": "c1418cf1-f54b-4d8c-b86a-7d871557f232",
    "name": "Marengo",
    "state_id": "9c8b8c72-ab1f-40ff-9269-a2eea8629c00"
  },
  {
    "id": "02a720f0-de45-4ee0-a9d0-f267c72ba3a0",
    "name": "Marion",
    "state_id": "9c8b8c72-ab1f-40ff-9269-a2eea8629c00"
  },
  {
    "id": "5bf5ca81-50d7-438d-846d-8121f2a34a2f",
    "name": "Marion County",
    "state_id": "9c8b8c72-ab1f-40ff-9269-a2eea8629c00"
  },
  {
    "id": "7cf063da-3858-4fa1-a3ec-411bfcce54ab",
    "name": "Marshall County",
    "state_id": "9c8b8c72-ab1f-40ff-9269-a2eea8629c00"
  },
  {
    "id": "403eed59-304e-49fd-9365-76f3420837b7",
    "name": "Marshalltown",
    "state_id": "9c8b8c72-ab1f-40ff-9269-a2eea8629c00"
  },
  {
    "id": "4d00f15a-beb4-4ff3-bdc9-993c1b5a38ef",
    "name": "Mason City",
    "state_id": "9c8b8c72-ab1f-40ff-9269-a2eea8629c00"
  },
  {
    "id": "1ab4ba33-8068-41a5-8855-f91d1fd5cbbf",
    "name": "Mechanicsville",
    "state_id": "9c8b8c72-ab1f-40ff-9269-a2eea8629c00"
  },
  {
    "id": "30c91193-a3a5-4583-9721-2916ac79732e",
    "name": "Mediapolis",
    "state_id": "9c8b8c72-ab1f-40ff-9269-a2eea8629c00"
  },
  {
    "id": "eb9fdadd-6a7a-4956-80db-9453e0aa0146",
    "name": "Melcher-Dallas",
    "state_id": "9c8b8c72-ab1f-40ff-9269-a2eea8629c00"
  },
  {
    "id": "321a2fe7-27f2-4d07-9404-83f77676fe7c",
    "name": "Milford",
    "state_id": "9c8b8c72-ab1f-40ff-9269-a2eea8629c00"
  },
  {
    "id": "8d9eddef-57a3-4dec-abdc-9b5f7c011c8e",
    "name": "Mills County",
    "state_id": "9c8b8c72-ab1f-40ff-9269-a2eea8629c00"
  },
  {
    "id": "a2256db8-2e62-49a3-8ce1-ca636cfb7a6a",
    "name": "Missouri Valley",
    "state_id": "9c8b8c72-ab1f-40ff-9269-a2eea8629c00"
  },
  {
    "id": "00e7ca36-664f-4650-84da-55c7f39930d6",
    "name": "Mitchell County",
    "state_id": "9c8b8c72-ab1f-40ff-9269-a2eea8629c00"
  },
  {
    "id": "4993f4aa-59dc-4723-8907-c3f46e9ec545",
    "name": "Mitchellville",
    "state_id": "9c8b8c72-ab1f-40ff-9269-a2eea8629c00"
  },
  {
    "id": "97d36d7c-c2e3-4485-8921-3b5484df4824",
    "name": "Monona",
    "state_id": "9c8b8c72-ab1f-40ff-9269-a2eea8629c00"
  },
  {
    "id": "fd15fd75-73e0-4cf4-ba9f-3a4ec8588c9c",
    "name": "Monona County",
    "state_id": "9c8b8c72-ab1f-40ff-9269-a2eea8629c00"
  },
  {
    "id": "d3891256-ba9a-41b4-b9d3-540e13d626d7",
    "name": "Monroe",
    "state_id": "9c8b8c72-ab1f-40ff-9269-a2eea8629c00"
  },
  {
    "id": "ce36c14c-cf54-4d76-8ab9-2ab390856067",
    "name": "Monroe County",
    "state_id": "9c8b8c72-ab1f-40ff-9269-a2eea8629c00"
  },
  {
    "id": "4b5c72b9-d1f9-4dad-8938-6b91d803851a",
    "name": "Montezuma",
    "state_id": "9c8b8c72-ab1f-40ff-9269-a2eea8629c00"
  },
  {
    "id": "b80dd165-bcf9-4ac8-b82e-297c68755070",
    "name": "Montgomery County",
    "state_id": "9c8b8c72-ab1f-40ff-9269-a2eea8629c00"
  },
  {
    "id": "40c1032a-b699-42b9-b995-49a2ff28bb94",
    "name": "Monticello",
    "state_id": "9c8b8c72-ab1f-40ff-9269-a2eea8629c00"
  },
  {
    "id": "51d802f3-0724-422e-8afe-bdfa24111865",
    "name": "Mount Ayr",
    "state_id": "9c8b8c72-ab1f-40ff-9269-a2eea8629c00"
  },
  {
    "id": "17176963-2e8b-4702-ba6c-f2f375b94de9",
    "name": "Mount Pleasant",
    "state_id": "9c8b8c72-ab1f-40ff-9269-a2eea8629c00"
  },
  {
    "id": "a8e5f6a6-99d9-42b6-b5d6-682779df659c",
    "name": "Mount Vernon",
    "state_id": "9c8b8c72-ab1f-40ff-9269-a2eea8629c00"
  },
  {
    "id": "9cc3ee26-03de-490f-a46b-78dee5821d52",
    "name": "Moville",
    "state_id": "9c8b8c72-ab1f-40ff-9269-a2eea8629c00"
  },
  {
    "id": "3c91c051-7d18-48d0-aa61-a11ab6d213f8",
    "name": "Muscatine",
    "state_id": "9c8b8c72-ab1f-40ff-9269-a2eea8629c00"
  },
  {
    "id": "b00a7d6c-5679-45cd-9fbc-37e20b898e3a",
    "name": "Muscatine County",
    "state_id": "9c8b8c72-ab1f-40ff-9269-a2eea8629c00"
  },
  {
    "id": "ec17b73a-72f4-445c-b05a-23ef52b585f4",
    "name": "Nashua",
    "state_id": "9c8b8c72-ab1f-40ff-9269-a2eea8629c00"
  },
  {
    "id": "b95817d1-6fa4-4149-a462-62ac5a26a870",
    "name": "Nevada",
    "state_id": "9c8b8c72-ab1f-40ff-9269-a2eea8629c00"
  },
  {
    "id": "8c144a2c-ac01-4059-8adf-32592569117d",
    "name": "New Hampton",
    "state_id": "9c8b8c72-ab1f-40ff-9269-a2eea8629c00"
  },
  {
    "id": "373ab131-bce2-44cf-b9e9-856a27cc5529",
    "name": "New London",
    "state_id": "9c8b8c72-ab1f-40ff-9269-a2eea8629c00"
  },
  {
    "id": "9f809337-a825-4d30-be73-824821196dca",
    "name": "New Sharon",
    "state_id": "9c8b8c72-ab1f-40ff-9269-a2eea8629c00"
  },
  {
    "id": "14b3a12b-fc82-405e-ab30-6733559a0206",
    "name": "Newton",
    "state_id": "9c8b8c72-ab1f-40ff-9269-a2eea8629c00"
  },
  {
    "id": "12afdbfd-09d8-4097-b12f-59856de9e0de",
    "name": "Nora Springs",
    "state_id": "9c8b8c72-ab1f-40ff-9269-a2eea8629c00"
  },
  {
    "id": "1061341f-c352-4333-ae51-f62ec805e353",
    "name": "North English",
    "state_id": "9c8b8c72-ab1f-40ff-9269-a2eea8629c00"
  },
  {
    "id": "94d2d2cd-6c8d-4a1b-9bbf-42c268a0c73f",
    "name": "North Liberty",
    "state_id": "9c8b8c72-ab1f-40ff-9269-a2eea8629c00"
  },
  {
    "id": "7d3f52f2-0535-47a5-ab4f-094913eb6d8d",
    "name": "Northwood",
    "state_id": "9c8b8c72-ab1f-40ff-9269-a2eea8629c00"
  },
  {
    "id": "b9b146a2-2a0f-43ea-bb85-c00660c4e3e2",
    "name": "Norwalk",
    "state_id": "9c8b8c72-ab1f-40ff-9269-a2eea8629c00"
  },
  {
    "id": "3ede60e5-0ff0-40eb-bf74-2149a339b522",
    "name": "O'Brien County",
    "state_id": "9c8b8c72-ab1f-40ff-9269-a2eea8629c00"
  },
  {
    "id": "4524ef03-49c1-41e5-a9d2-48ba1eec8653",
    "name": "Oakland",
    "state_id": "9c8b8c72-ab1f-40ff-9269-a2eea8629c00"
  },
  {
    "id": "c44c3b85-fdad-49f3-8373-9a671b0a8aa2",
    "name": "Oelwein",
    "state_id": "9c8b8c72-ab1f-40ff-9269-a2eea8629c00"
  },
  {
    "id": "aeb6e05e-8a84-4a31-9677-323a6b914371",
    "name": "Ogden",
    "state_id": "9c8b8c72-ab1f-40ff-9269-a2eea8629c00"
  },
  {
    "id": "26d63424-2790-403b-8ebd-0368a5a3d531",
    "name": "Onawa",
    "state_id": "9c8b8c72-ab1f-40ff-9269-a2eea8629c00"
  },
  {
    "id": "9096d95a-68c4-425a-9232-c60fb45884aa",
    "name": "Orange City",
    "state_id": "9c8b8c72-ab1f-40ff-9269-a2eea8629c00"
  },
  {
    "id": "36e22765-e699-4d41-8ef3-79656c95d4f2",
    "name": "Osage",
    "state_id": "9c8b8c72-ab1f-40ff-9269-a2eea8629c00"
  },
  {
    "id": "4fc926e9-d497-4e9c-91f0-c4f31a5ecf6f",
    "name": "Osceola",
    "state_id": "9c8b8c72-ab1f-40ff-9269-a2eea8629c00"
  },
  {
    "id": "c3570d4a-473c-41cd-9dce-8c3c65c77d9d",
    "name": "Osceola County",
    "state_id": "9c8b8c72-ab1f-40ff-9269-a2eea8629c00"
  },
  {
    "id": "0b872bed-e792-4f0f-b0b4-15d9a3fc3e85",
    "name": "Oskaloosa",
    "state_id": "9c8b8c72-ab1f-40ff-9269-a2eea8629c00"
  },
  {
    "id": "693010f6-5252-4925-bc40-2803d273d5c4",
    "name": "Ottumwa",
    "state_id": "9c8b8c72-ab1f-40ff-9269-a2eea8629c00"
  },
  {
    "id": "c256d8d8-06f5-43f3-8886-7709c6c77188",
    "name": "Page County",
    "state_id": "9c8b8c72-ab1f-40ff-9269-a2eea8629c00"
  },
  {
    "id": "cca5e62b-7266-425f-a043-57ca04394947",
    "name": "Palo",
    "state_id": "9c8b8c72-ab1f-40ff-9269-a2eea8629c00"
  },
  {
    "id": "101004fb-5556-42e2-a328-29fd9332c749",
    "name": "Palo Alto County",
    "state_id": "9c8b8c72-ab1f-40ff-9269-a2eea8629c00"
  },
  {
    "id": "94a8790c-8c69-46b3-a044-295f28d3d80a",
    "name": "Panora",
    "state_id": "9c8b8c72-ab1f-40ff-9269-a2eea8629c00"
  },
  {
    "id": "f4f2aa48-f64c-44a4-82d4-35c74c2a876b",
    "name": "Park View",
    "state_id": "9c8b8c72-ab1f-40ff-9269-a2eea8629c00"
  },
  {
    "id": "fbd2e077-4fc6-4a7a-a38b-5966ac241a5e",
    "name": "Parkersburg",
    "state_id": "9c8b8c72-ab1f-40ff-9269-a2eea8629c00"
  },
  {
    "id": "c0e6b63a-4052-4ccb-9947-86804fa68d4d",
    "name": "Paullina",
    "state_id": "9c8b8c72-ab1f-40ff-9269-a2eea8629c00"
  },
  {
    "id": "835156bc-768a-483f-bcca-9042bf7b61cc",
    "name": "Pella",
    "state_id": "9c8b8c72-ab1f-40ff-9269-a2eea8629c00"
  },
  {
    "id": "7c2b5720-5e89-4b5d-b53d-dc4ccf946277",
    "name": "Peosta",
    "state_id": "9c8b8c72-ab1f-40ff-9269-a2eea8629c00"
  },
  {
    "id": "904e84b9-5740-4e42-b11b-d465686f22d9",
    "name": "Perry",
    "state_id": "9c8b8c72-ab1f-40ff-9269-a2eea8629c00"
  },
  {
    "id": "00142e87-f2a5-4dbd-9060-923fe86d6fe2",
    "name": "Pleasant Hill",
    "state_id": "9c8b8c72-ab1f-40ff-9269-a2eea8629c00"
  },
  {
    "id": "1475e426-fb6a-4b07-baee-f06ade1ef242",
    "name": "Pleasantville",
    "state_id": "9c8b8c72-ab1f-40ff-9269-a2eea8629c00"
  },
  {
    "id": "6b155778-3e84-4aee-9793-4b9649a19ddc",
    "name": "Plymouth County",
    "state_id": "9c8b8c72-ab1f-40ff-9269-a2eea8629c00"
  },
  {
    "id": "4a07d158-c5a6-4507-b6e0-689729e1d5ac",
    "name": "Pocahontas",
    "state_id": "9c8b8c72-ab1f-40ff-9269-a2eea8629c00"
  },
  {
    "id": "219ffe2c-8623-461d-a271-4825976a31c6",
    "name": "Pocahontas County",
    "state_id": "9c8b8c72-ab1f-40ff-9269-a2eea8629c00"
  },
  {
    "id": "9b18a3e3-e2ad-4a3c-8fca-fd11bf934d21",
    "name": "Polk City",
    "state_id": "9c8b8c72-ab1f-40ff-9269-a2eea8629c00"
  },
  {
    "id": "46d5ba52-ad71-4cdf-af56-077aeb46dc17",
    "name": "Polk County",
    "state_id": "9c8b8c72-ab1f-40ff-9269-a2eea8629c00"
  },
  {
    "id": "f2940b22-f3ce-4fa1-99ef-c5c227279f63",
    "name": "Postville",
    "state_id": "9c8b8c72-ab1f-40ff-9269-a2eea8629c00"
  },
  {
    "id": "322f53fc-73fd-47a3-adf7-e8961970d0c3",
    "name": "Pottawattamie County",
    "state_id": "9c8b8c72-ab1f-40ff-9269-a2eea8629c00"
  },
  {
    "id": "689ad499-6f50-46b9-9493-e2a4cd8460fd",
    "name": "Poweshiek County",
    "state_id": "9c8b8c72-ab1f-40ff-9269-a2eea8629c00"
  },
  {
    "id": "6c269bd2-0802-4cdd-8092-d95d18e33634",
    "name": "Prairie City",
    "state_id": "9c8b8c72-ab1f-40ff-9269-a2eea8629c00"
  },
  {
    "id": "af76d194-4c1f-4c1e-98b0-7ff33bd8fa27",
    "name": "Preston",
    "state_id": "9c8b8c72-ab1f-40ff-9269-a2eea8629c00"
  },
  {
    "id": "b258ca04-24fb-46f6-9b01-63d916405cc6",
    "name": "Primghar",
    "state_id": "9c8b8c72-ab1f-40ff-9269-a2eea8629c00"
  },
  {
    "id": "76d900ef-7983-480e-aed7-ae7fe03326e3",
    "name": "Red Oak",
    "state_id": "9c8b8c72-ab1f-40ff-9269-a2eea8629c00"
  },
  {
    "id": "6040954a-a978-4f63-96e6-816963c818e1",
    "name": "Reinbeck",
    "state_id": "9c8b8c72-ab1f-40ff-9269-a2eea8629c00"
  },
  {
    "id": "0b0f1299-f052-4d37-9e23-0c0fd6c3a174",
    "name": "Remsen",
    "state_id": "9c8b8c72-ab1f-40ff-9269-a2eea8629c00"
  },
  {
    "id": "5dc9d47a-c660-4d94-8917-2a86bd6b0777",
    "name": "Ringgold County",
    "state_id": "9c8b8c72-ab1f-40ff-9269-a2eea8629c00"
  },
  {
    "id": "fa45cc97-3631-4879-bc66-e3d764579f0a",
    "name": "Riverside",
    "state_id": "9c8b8c72-ab1f-40ff-9269-a2eea8629c00"
  },
  {
    "id": "79f923e2-85fe-4305-98d5-45b9f45693d7",
    "name": "Robins",
    "state_id": "9c8b8c72-ab1f-40ff-9269-a2eea8629c00"
  },
  {
    "id": "323f2a83-dad2-434b-a56d-f67b678168a1",
    "name": "Rock Rapids",
    "state_id": "9c8b8c72-ab1f-40ff-9269-a2eea8629c00"
  },
  {
    "id": "9b92c40f-8c41-49ec-9711-96254c2642f7",
    "name": "Rock Valley",
    "state_id": "9c8b8c72-ab1f-40ff-9269-a2eea8629c00"
  },
  {
    "id": "a9c27c74-28ef-46f9-9e9f-5c96d49c59bf",
    "name": "Rockwell",
    "state_id": "9c8b8c72-ab1f-40ff-9269-a2eea8629c00"
  },
  {
    "id": "a68c89b1-bf34-4832-a7cf-f5127d83fa57",
    "name": "Rockwell City",
    "state_id": "9c8b8c72-ab1f-40ff-9269-a2eea8629c00"
  },
  {
    "id": "1bfcfc92-5184-47e0-8412-246ec7a6d8a0",
    "name": "Roland",
    "state_id": "9c8b8c72-ab1f-40ff-9269-a2eea8629c00"
  },
  {
    "id": "7c1ca7d9-4a20-46df-8a74-7d2940c4faaf",
    "name": "Sac City",
    "state_id": "9c8b8c72-ab1f-40ff-9269-a2eea8629c00"
  },
  {
    "id": "3c7df44b-2153-4044-9b7b-7dcb133943ad",
    "name": "Sac County",
    "state_id": "9c8b8c72-ab1f-40ff-9269-a2eea8629c00"
  },
  {
    "id": "f722bb15-64ca-4f1d-a024-3653428c0362",
    "name": "Saint Ansgar",
    "state_id": "9c8b8c72-ab1f-40ff-9269-a2eea8629c00"
  },
  {
    "id": "644aae9b-fb2b-40f3-9b9a-a849681091ad",
    "name": "Sanborn",
    "state_id": "9c8b8c72-ab1f-40ff-9269-a2eea8629c00"
  },
  {
    "id": "9739a2ff-2ea1-40a1-91ec-35720bd99b8e",
    "name": "Saylorville",
    "state_id": "9c8b8c72-ab1f-40ff-9269-a2eea8629c00"
  },
  {
    "id": "7a80a5f8-6d80-4cc6-89e7-4de5da2bdbe1",
    "name": "Scott County",
    "state_id": "9c8b8c72-ab1f-40ff-9269-a2eea8629c00"
  },
  {
    "id": "ec4e1361-4424-4d30-9256-0657f5bec122",
    "name": "Sergeant Bluff",
    "state_id": "9c8b8c72-ab1f-40ff-9269-a2eea8629c00"
  },
  {
    "id": "4861005b-33dd-4269-a528-837c2a1f356e",
    "name": "Sheffield",
    "state_id": "9c8b8c72-ab1f-40ff-9269-a2eea8629c00"
  },
  {
    "id": "2999518a-3c50-4049-b239-8b47e26f7d3a",
    "name": "Shelby County",
    "state_id": "9c8b8c72-ab1f-40ff-9269-a2eea8629c00"
  },
  {
    "id": "bdbe8183-d197-49c8-839a-cb4b7ffb985a",
    "name": "Sheldon",
    "state_id": "9c8b8c72-ab1f-40ff-9269-a2eea8629c00"
  },
  {
    "id": "298fa2ee-9670-4bd7-98ce-9b2657583153",
    "name": "Shell Rock",
    "state_id": "9c8b8c72-ab1f-40ff-9269-a2eea8629c00"
  },
  {
    "id": "9ea69239-cd6a-4dce-ba02-ac9a87ea2dca",
    "name": "Shenandoah",
    "state_id": "9c8b8c72-ab1f-40ff-9269-a2eea8629c00"
  },
  {
    "id": "220c9226-61f7-4716-8654-606e1df5026e",
    "name": "Sibley",
    "state_id": "9c8b8c72-ab1f-40ff-9269-a2eea8629c00"
  },
  {
    "id": "a4ccf1bf-bc5f-4a48-9b0e-fbda916511ae",
    "name": "Sidney",
    "state_id": "9c8b8c72-ab1f-40ff-9269-a2eea8629c00"
  },
  {
    "id": "286c089e-24fb-4427-b9ae-e2f124dd2315",
    "name": "Sigourney",
    "state_id": "9c8b8c72-ab1f-40ff-9269-a2eea8629c00"
  },
  {
    "id": "6b30f2fc-78a1-47a4-aeb8-2365b6c7d70d",
    "name": "Sioux Center",
    "state_id": "9c8b8c72-ab1f-40ff-9269-a2eea8629c00"
  },
  {
    "id": "ef54b75d-190b-45a4-b9a7-676c86a7316c",
    "name": "Sioux City",
    "state_id": "9c8b8c72-ab1f-40ff-9269-a2eea8629c00"
  },
  {
    "id": "db830589-ae0a-426a-94c2-63a2554ca779",
    "name": "Sioux County",
    "state_id": "9c8b8c72-ab1f-40ff-9269-a2eea8629c00"
  },
  {
    "id": "fea631ab-99e9-465d-b4c0-cbad863b4237",
    "name": "Slater",
    "state_id": "9c8b8c72-ab1f-40ff-9269-a2eea8629c00"
  },
  {
    "id": "6db7bfc0-6129-4730-a66c-bc7608476a4e",
    "name": "Solon",
    "state_id": "9c8b8c72-ab1f-40ff-9269-a2eea8629c00"
  },
  {
    "id": "48914461-8ec5-4448-9a94-9264f41acfd0",
    "name": "Spencer",
    "state_id": "9c8b8c72-ab1f-40ff-9269-a2eea8629c00"
  },
  {
    "id": "e13c45ff-e7da-43ef-9f89-87540f762dd1",
    "name": "Spirit Lake",
    "state_id": "9c8b8c72-ab1f-40ff-9269-a2eea8629c00"
  },
  {
    "id": "1b748829-ac84-46ac-8fe9-38e7ca5ee8b9",
    "name": "Springville",
    "state_id": "9c8b8c72-ab1f-40ff-9269-a2eea8629c00"
  },
  {
    "id": "e86cf94c-be82-4231-9b09-17f18ced6ca3",
    "name": "State Center",
    "state_id": "9c8b8c72-ab1f-40ff-9269-a2eea8629c00"
  },
  {
    "id": "2ca69c01-4384-41df-bd87-475c9fd4a335",
    "name": "Storm Lake",
    "state_id": "9c8b8c72-ab1f-40ff-9269-a2eea8629c00"
  },
  {
    "id": "49dc3b34-80bc-444a-b4f8-2aee40efcbb9",
    "name": "Story City",
    "state_id": "9c8b8c72-ab1f-40ff-9269-a2eea8629c00"
  },
  {
    "id": "e74f45d2-ad1a-4075-8325-2da118147e51",
    "name": "Story County",
    "state_id": "9c8b8c72-ab1f-40ff-9269-a2eea8629c00"
  },
  {
    "id": "ced1dcc3-7864-485b-831e-238eb3bc4c47",
    "name": "Strawberry Point",
    "state_id": "9c8b8c72-ab1f-40ff-9269-a2eea8629c00"
  },
  {
    "id": "afe4de61-ac73-4ce2-adad-81dc1c156724",
    "name": "Stuart",
    "state_id": "9c8b8c72-ab1f-40ff-9269-a2eea8629c00"
  },
  {
    "id": "2bb7c79b-0ded-48df-8446-e35e5feaaf52",
    "name": "Sumner",
    "state_id": "9c8b8c72-ab1f-40ff-9269-a2eea8629c00"
  },
  {
    "id": "3a3db9e7-7ed6-404b-8aab-e0a5bb0a9b22",
    "name": "Tama",
    "state_id": "9c8b8c72-ab1f-40ff-9269-a2eea8629c00"
  },
  {
    "id": "ac6705cd-f5f7-4a41-9a1a-3316e07682bd",
    "name": "Tama County",
    "state_id": "9c8b8c72-ab1f-40ff-9269-a2eea8629c00"
  },
  {
    "id": "e3e3da50-34d5-4987-8946-b310a9fe2ab6",
    "name": "Taylor County",
    "state_id": "9c8b8c72-ab1f-40ff-9269-a2eea8629c00"
  },
  {
    "id": "5e8ba663-a2f1-4b15-9a3e-02fdfaf77d8e",
    "name": "Tiffin",
    "state_id": "9c8b8c72-ab1f-40ff-9269-a2eea8629c00"
  },
  {
    "id": "632a441c-ee8e-4614-be05-1a801473e0ba",
    "name": "Tipton",
    "state_id": "9c8b8c72-ab1f-40ff-9269-a2eea8629c00"
  },
  {
    "id": "20ed6cb6-a255-4b80-8c8d-d1ab590151ca",
    "name": "Toledo",
    "state_id": "9c8b8c72-ab1f-40ff-9269-a2eea8629c00"
  },
  {
    "id": "ecb33805-1586-4bcc-aad7-2e3a22115adf",
    "name": "Traer",
    "state_id": "9c8b8c72-ab1f-40ff-9269-a2eea8629c00"
  },
  {
    "id": "980b9d29-7382-4133-994e-bef1458383fa",
    "name": "Tripoli",
    "state_id": "9c8b8c72-ab1f-40ff-9269-a2eea8629c00"
  },
  {
    "id": "42e5a37d-f133-4fbe-94f8-551bbda9ab34",
    "name": "Union County",
    "state_id": "9c8b8c72-ab1f-40ff-9269-a2eea8629c00"
  },
  {
    "id": "a9336606-d568-46a1-ba66-a7e599e40997",
    "name": "University Heights",
    "state_id": "9c8b8c72-ab1f-40ff-9269-a2eea8629c00"
  },
  {
    "id": "aceda6b1-8e05-4dd9-9ad7-7d17e8c2f347",
    "name": "Urbana",
    "state_id": "9c8b8c72-ab1f-40ff-9269-a2eea8629c00"
  },
  {
    "id": "031940ff-48f4-49f1-ba31-037c495ae540",
    "name": "Urbandale",
    "state_id": "9c8b8c72-ab1f-40ff-9269-a2eea8629c00"
  },
  {
    "id": "c8031c5d-fded-4bd9-9fa3-930dec76dc44",
    "name": "Van Buren County",
    "state_id": "9c8b8c72-ab1f-40ff-9269-a2eea8629c00"
  },
  {
    "id": "3950e839-ac0c-4ae8-9ab5-e86c1083adfa",
    "name": "Van Meter",
    "state_id": "9c8b8c72-ab1f-40ff-9269-a2eea8629c00"
  },
  {
    "id": "6515ba54-757f-443b-9d8b-4b3818c1aaf7",
    "name": "Villisca",
    "state_id": "9c8b8c72-ab1f-40ff-9269-a2eea8629c00"
  },
  {
    "id": "9ec3cf0d-c06b-4e8c-b738-25454226d2fa",
    "name": "Vinton",
    "state_id": "9c8b8c72-ab1f-40ff-9269-a2eea8629c00"
  },
  {
    "id": "45a25e15-e386-4865-b654-e0f30a852a42",
    "name": "Walcott",
    "state_id": "9c8b8c72-ab1f-40ff-9269-a2eea8629c00"
  },
  {
    "id": "caabc2a2-2335-4b2f-9b25-551285841694",
    "name": "Walford",
    "state_id": "9c8b8c72-ab1f-40ff-9269-a2eea8629c00"
  },
  {
    "id": "6f2cd7d7-9d08-4a55-a260-3f00788fd505",
    "name": "Wapello",
    "state_id": "9c8b8c72-ab1f-40ff-9269-a2eea8629c00"
  },
  {
    "id": "d64ee7b7-9fe8-4cea-9f00-ded794a2aa3b",
    "name": "Wapello County",
    "state_id": "9c8b8c72-ab1f-40ff-9269-a2eea8629c00"
  },
  {
    "id": "ee6232c3-e9f7-404d-b9da-d81743859e32",
    "name": "Warren County",
    "state_id": "9c8b8c72-ab1f-40ff-9269-a2eea8629c00"
  },
  {
    "id": "ab728b1d-6574-48d3-9f4a-15b8170e82f1",
    "name": "Washington",
    "state_id": "9c8b8c72-ab1f-40ff-9269-a2eea8629c00"
  },
  {
    "id": "710cb342-07f8-4e39-9e51-a88acaf2a457",
    "name": "Washington County",
    "state_id": "9c8b8c72-ab1f-40ff-9269-a2eea8629c00"
  },
  {
    "id": "3570a134-d35a-47b1-a284-d4e7020515dd",
    "name": "Waterloo",
    "state_id": "9c8b8c72-ab1f-40ff-9269-a2eea8629c00"
  },
  {
    "id": "b1897915-2299-47cd-bce4-14fa61e16a37",
    "name": "Waukee",
    "state_id": "9c8b8c72-ab1f-40ff-9269-a2eea8629c00"
  },
  {
    "id": "42c3580c-c8c9-486e-9d87-b2a51d316f20",
    "name": "Waukon",
    "state_id": "9c8b8c72-ab1f-40ff-9269-a2eea8629c00"
  },
  {
    "id": "6bdbb4fa-281b-412b-9751-8066f9590bb7",
    "name": "Waverly",
    "state_id": "9c8b8c72-ab1f-40ff-9269-a2eea8629c00"
  },
  {
    "id": "183e410c-7ffb-43c0-aad0-7974c1f729bb",
    "name": "Wayne County",
    "state_id": "9c8b8c72-ab1f-40ff-9269-a2eea8629c00"
  },
  {
    "id": "2987b985-8023-4781-8104-09735991ee72",
    "name": "Webster City",
    "state_id": "9c8b8c72-ab1f-40ff-9269-a2eea8629c00"
  },
  {
    "id": "a8db183c-f60a-4d56-95a6-9bca2b2d3a02",
    "name": "Webster County",
    "state_id": "9c8b8c72-ab1f-40ff-9269-a2eea8629c00"
  },
  {
    "id": "5eb63e4f-8e5d-4ece-aec0-978f1dc54083",
    "name": "Wellman",
    "state_id": "9c8b8c72-ab1f-40ff-9269-a2eea8629c00"
  },
  {
    "id": "176b1736-239f-4499-a354-5771efc21a9b",
    "name": "West Branch",
    "state_id": "9c8b8c72-ab1f-40ff-9269-a2eea8629c00"
  },
  {
    "id": "d1c66b33-67db-4acb-ba8a-1b9026328c00",
    "name": "West Burlington",
    "state_id": "9c8b8c72-ab1f-40ff-9269-a2eea8629c00"
  },
  {
    "id": "456c4a30-cc23-4a87-9d8f-066de47b989d",
    "name": "West Des Moines",
    "state_id": "9c8b8c72-ab1f-40ff-9269-a2eea8629c00"
  },
  {
    "id": "1f120790-cad1-4541-8739-e251e0df6735",
    "name": "West Liberty",
    "state_id": "9c8b8c72-ab1f-40ff-9269-a2eea8629c00"
  },
  {
    "id": "23133237-d03d-4b6a-ae4b-cb6f5afba375",
    "name": "West Union",
    "state_id": "9c8b8c72-ab1f-40ff-9269-a2eea8629c00"
  },
  {
    "id": "efabfab3-47df-4065-8364-f0f58ef09b3d",
    "name": "Williamsburg",
    "state_id": "9c8b8c72-ab1f-40ff-9269-a2eea8629c00"
  },
  {
    "id": "46d53e8b-c57c-417c-b553-5f361a9eb0d3",
    "name": "Wilton",
    "state_id": "9c8b8c72-ab1f-40ff-9269-a2eea8629c00"
  },
  {
    "id": "5310e97e-5120-440e-a1d9-eb05169418db",
    "name": "Windsor Heights",
    "state_id": "9c8b8c72-ab1f-40ff-9269-a2eea8629c00"
  },
  {
    "id": "68353ae9-9256-46c3-b5c4-253f89c73a52",
    "name": "Winfield",
    "state_id": "9c8b8c72-ab1f-40ff-9269-a2eea8629c00"
  },
  {
    "id": "e9b35a55-e8c7-4bd4-9582-8f1fbce07827",
    "name": "Winnebago County",
    "state_id": "9c8b8c72-ab1f-40ff-9269-a2eea8629c00"
  },
  {
    "id": "2e90be76-1146-4532-b89c-5e208aad647b",
    "name": "Winneshiek County",
    "state_id": "9c8b8c72-ab1f-40ff-9269-a2eea8629c00"
  },
  {
    "id": "4bfc55c0-dcf2-4ed8-919e-9c82df0f5230",
    "name": "Winterset",
    "state_id": "9c8b8c72-ab1f-40ff-9269-a2eea8629c00"
  },
  {
    "id": "6252e6f9-43a8-4f6d-9661-fd908fd13cfc",
    "name": "Woodbine",
    "state_id": "9c8b8c72-ab1f-40ff-9269-a2eea8629c00"
  },
  {
    "id": "61b00f42-32cf-487e-9f65-22f506d276e0",
    "name": "Woodbury County",
    "state_id": "9c8b8c72-ab1f-40ff-9269-a2eea8629c00"
  },
  {
    "id": "02147644-5c7d-4e3a-9cf7-636d34d7cc68",
    "name": "Woodward",
    "state_id": "9c8b8c72-ab1f-40ff-9269-a2eea8629c00"
  },
  {
    "id": "a3824ffb-a58e-4603-b9f1-036c607dc12b",
    "name": "Worth County",
    "state_id": "9c8b8c72-ab1f-40ff-9269-a2eea8629c00"
  },
  {
    "id": "c8d6db24-e493-41d1-a515-bf52aef7e8f8",
    "name": "Wright County",
    "state_id": "9c8b8c72-ab1f-40ff-9269-a2eea8629c00"
  }
]