[
  {
    "id": "9c97779e-afdb-4549-966a-f7f8514415eb",
    "name": "Afumaţi",
    "state_id": "9d7e6f90-af4f-4633-b589-d8f5ed31eb79"
  },
  {
    "id": "69d5cb5f-4358-4738-821a-f50d1e928f3d",
    "name": "Almăj",
    "state_id": "9d7e6f90-af4f-4633-b589-d8f5ed31eb79"
  },
  {
    "id": "d81e8bcb-4ca2-460b-8677-c54a775ec88b",
    "name": "Amărăştii de Jos",
    "state_id": "9d7e6f90-af4f-4633-b589-d8f5ed31eb79"
  },
  {
    "id": "0012780b-b667-45b5-9344-3b3355cd6143",
    "name": "Amărăştii de Sus",
    "state_id": "9d7e6f90-af4f-4633-b589-d8f5ed31eb79"
  },
  {
    "id": "1dc0cdbf-9cf7-4fbd-835a-6827afe0f449",
    "name": "Apele Vii",
    "state_id": "9d7e6f90-af4f-4633-b589-d8f5ed31eb79"
  },
  {
    "id": "7beec779-d6da-444c-9c14-a3e069e1ae06",
    "name": "Argetoaia",
    "state_id": "9d7e6f90-af4f-4633-b589-d8f5ed31eb79"
  },
  {
    "id": "f986916c-8b49-46d0-a29c-868d7d330ee4",
    "name": "Bădoși",
    "state_id": "9d7e6f90-af4f-4633-b589-d8f5ed31eb79"
  },
  {
    "id": "396dcd0e-21a3-4562-9d37-77715670c2a1",
    "name": "Băileşti",
    "state_id": "9d7e6f90-af4f-4633-b589-d8f5ed31eb79"
  },
  {
    "id": "27b998bb-c37b-4b1a-b420-797840c640e9",
    "name": "Bâlta",
    "state_id": "9d7e6f90-af4f-4633-b589-d8f5ed31eb79"
  },
  {
    "id": "149bcd11-b64f-48c1-b46d-efb96d18ce63",
    "name": "Bârca",
    "state_id": "9d7e6f90-af4f-4633-b589-d8f5ed31eb79"
  },
  {
    "id": "47c7a8d9-f7f0-44d5-bba7-b035c4622660",
    "name": "Basarabi",
    "state_id": "9d7e6f90-af4f-4633-b589-d8f5ed31eb79"
  },
  {
    "id": "b63bb693-12a2-4ace-8cdb-164bc4b9c864",
    "name": "Bechet",
    "state_id": "9d7e6f90-af4f-4633-b589-d8f5ed31eb79"
  },
  {
    "id": "09889e29-9bb2-4c51-bde6-3268d717b3d1",
    "name": "Bistreț",
    "state_id": "9d7e6f90-af4f-4633-b589-d8f5ed31eb79"
  },
  {
    "id": "fd14e4bc-38fb-4d61-a1e5-8ccf864cdb2c",
    "name": "Botoşeşti-Paia",
    "state_id": "9d7e6f90-af4f-4633-b589-d8f5ed31eb79"
  },
  {
    "id": "0950b380-73a5-4c5d-9c5c-8af67508c135",
    "name": "Boureni",
    "state_id": "9d7e6f90-af4f-4633-b589-d8f5ed31eb79"
  },
  {
    "id": "33a0a9d9-c733-4eb9-a8ec-4e1e11412e8f",
    "name": "Brabeți",
    "state_id": "9d7e6f90-af4f-4633-b589-d8f5ed31eb79"
  },
  {
    "id": "2589bf9b-e8ed-4123-a035-a1697d8e8470",
    "name": "Brabova",
    "state_id": "9d7e6f90-af4f-4633-b589-d8f5ed31eb79"
  },
  {
    "id": "31735e4a-8b74-47bc-ad1c-2604d7e8b561",
    "name": "Brădeşti",
    "state_id": "9d7e6f90-af4f-4633-b589-d8f5ed31eb79"
  },
  {
    "id": "17a2df2f-0644-4ad9-a20b-bd8a34d0e4a3",
    "name": "Braloştiţa",
    "state_id": "9d7e6f90-af4f-4633-b589-d8f5ed31eb79"
  },
  {
    "id": "535a4459-aaf2-45ca-9d89-c52037003bee",
    "name": "Bratovoești",
    "state_id": "9d7e6f90-af4f-4633-b589-d8f5ed31eb79"
  },
  {
    "id": "5db3386a-41c1-44fd-b00a-dbd9740b090b",
    "name": "Breasta",
    "state_id": "9d7e6f90-af4f-4633-b589-d8f5ed31eb79"
  },
  {
    "id": "96fc4adc-aa92-4bd6-8a31-0e64d4f83f8a",
    "name": "Bucovăţ",
    "state_id": "9d7e6f90-af4f-4633-b589-d8f5ed31eb79"
  },
  {
    "id": "914356f3-773d-4d46-a989-a6349332a5e4",
    "name": "Bulzeşti",
    "state_id": "9d7e6f90-af4f-4633-b589-d8f5ed31eb79"
  },
  {
    "id": "2ab0ba16-a367-4df7-800a-38a86aee6ca0",
    "name": "Calafat",
    "state_id": "9d7e6f90-af4f-4633-b589-d8f5ed31eb79"
  },
  {
    "id": "3acecc6c-a867-49eb-b7ae-40764dd3ab19",
    "name": "Călăraşi",
    "state_id": "9d7e6f90-af4f-4633-b589-d8f5ed31eb79"
  },
  {
    "id": "1b451d9c-0654-40a5-9b4f-cb4c9893f80d",
    "name": "Calopăr",
    "state_id": "9d7e6f90-af4f-4633-b589-d8f5ed31eb79"
  },
  {
    "id": "b4e36a64-8ab9-43dc-bd22-b6abb630679b",
    "name": "Caraula",
    "state_id": "9d7e6f90-af4f-4633-b589-d8f5ed31eb79"
  },
  {
    "id": "c7123eeb-f954-48e4-b561-2d84f922f123",
    "name": "Cârcea",
    "state_id": "9d7e6f90-af4f-4633-b589-d8f5ed31eb79"
  },
  {
    "id": "962713c4-75a5-4bed-aa34-d38227253d9b",
    "name": "Cârna",
    "state_id": "9d7e6f90-af4f-4633-b589-d8f5ed31eb79"
  },
  {
    "id": "2f9cd71a-af0d-498a-8325-dc10b8a6686e",
    "name": "Carpen",
    "state_id": "9d7e6f90-af4f-4633-b589-d8f5ed31eb79"
  },
  {
    "id": "654e81b6-c907-4f8f-a6c4-ece117fb0dc1",
    "name": "Castranova",
    "state_id": "9d7e6f90-af4f-4633-b589-d8f5ed31eb79"
  },
  {
    "id": "c536cf24-7cb2-4232-a0df-ce51054cf702",
    "name": "Castrele Traiane",
    "state_id": "9d7e6f90-af4f-4633-b589-d8f5ed31eb79"
  },
  {
    "id": "5e4ed60c-a1d4-4d9a-9bd7-d4c1b661a804",
    "name": "Catane",
    "state_id": "9d7e6f90-af4f-4633-b589-d8f5ed31eb79"
  },
  {
    "id": "782fd825-7359-4ddf-8519-a71b48850be5",
    "name": "Celaru",
    "state_id": "9d7e6f90-af4f-4633-b589-d8f5ed31eb79"
  },
  {
    "id": "84522a9d-164c-4e00-a359-9b90f63faf61",
    "name": "Cerăt",
    "state_id": "9d7e6f90-af4f-4633-b589-d8f5ed31eb79"
  },
  {
    "id": "48d3f6a2-1955-4f7c-9ee8-d6ed2bb41873",
    "name": "Cernăteşti",
    "state_id": "9d7e6f90-af4f-4633-b589-d8f5ed31eb79"
  },
  {
    "id": "21af6287-cd35-4147-96f1-24fd5bd56579",
    "name": "Cernele",
    "state_id": "9d7e6f90-af4f-4633-b589-d8f5ed31eb79"
  },
  {
    "id": "8c6110b9-f1d2-47ce-8dfc-626f97361bc9",
    "name": "Cetate",
    "state_id": "9d7e6f90-af4f-4633-b589-d8f5ed31eb79"
  },
  {
    "id": "d5fb86ee-695a-4fb6-8a1c-5ff8be5c96e4",
    "name": "Cioroiași",
    "state_id": "9d7e6f90-af4f-4633-b589-d8f5ed31eb79"
  },
  {
    "id": "50655f98-8916-4cc6-a691-c1ca5491a7d2",
    "name": "Ciupercenii Noi",
    "state_id": "9d7e6f90-af4f-4633-b589-d8f5ed31eb79"
  },
  {
    "id": "016f508d-0995-4a7e-a7ee-0dd366da03b5",
    "name": "Ciupercenii Vechi",
    "state_id": "9d7e6f90-af4f-4633-b589-d8f5ed31eb79"
  },
  {
    "id": "4c846837-f38b-4151-8163-44dbea2d52cc",
    "name": "Cleanov",
    "state_id": "9d7e6f90-af4f-4633-b589-d8f5ed31eb79"
  },
  {
    "id": "cd10a891-6b07-40c5-9610-fd388e8e88ea",
    "name": "Comoșteni",
    "state_id": "9d7e6f90-af4f-4633-b589-d8f5ed31eb79"
  },
  {
    "id": "e1e094df-bdbe-4fdc-baeb-132945a02dc0",
    "name": "Comuna Afumaţi",
    "state_id": "9d7e6f90-af4f-4633-b589-d8f5ed31eb79"
  },
  {
    "id": "b6cdf3b1-cb16-4dca-a8a9-8cec778058a7",
    "name": "Comuna Almãj",
    "state_id": "9d7e6f90-af4f-4633-b589-d8f5ed31eb79"
  },
  {
    "id": "148e02a2-246a-4e95-9e01-ed119d0b629f",
    "name": "Comuna Amărăştii de Jos",
    "state_id": "9d7e6f90-af4f-4633-b589-d8f5ed31eb79"
  },
  {
    "id": "7d8f6fb6-2767-45d3-90d9-ecbdd0095a32",
    "name": "Comuna Amărăştii de Sus",
    "state_id": "9d7e6f90-af4f-4633-b589-d8f5ed31eb79"
  },
  {
    "id": "57e08407-1c74-4ab8-811a-637b3744ab84",
    "name": "Comuna Apele Vii",
    "state_id": "9d7e6f90-af4f-4633-b589-d8f5ed31eb79"
  },
  {
    "id": "dca0b866-7894-4804-812d-c39bf24c4d3a",
    "name": "Comuna Argetoaia",
    "state_id": "9d7e6f90-af4f-4633-b589-d8f5ed31eb79"
  },
  {
    "id": "eb2a0754-d6bc-4885-a2dc-cd01e8777874",
    "name": "Comuna Bârca",
    "state_id": "9d7e6f90-af4f-4633-b589-d8f5ed31eb79"
  },
  {
    "id": "c0dac42d-7d94-4de7-afc1-5aa6d2bf6e1f",
    "name": "Comuna Bistreţ",
    "state_id": "9d7e6f90-af4f-4633-b589-d8f5ed31eb79"
  },
  {
    "id": "09bed05e-4083-48d2-832d-51ab277b883a",
    "name": "Comuna Botoşeşti-Paia",
    "state_id": "9d7e6f90-af4f-4633-b589-d8f5ed31eb79"
  },
  {
    "id": "b3667ca8-4aeb-4d13-a328-fbad0ec92f76",
    "name": "Comuna Brabova",
    "state_id": "9d7e6f90-af4f-4633-b589-d8f5ed31eb79"
  },
  {
    "id": "9ee2e60e-57c3-42ff-b922-0153957276db",
    "name": "Comuna Brădeşti",
    "state_id": "9d7e6f90-af4f-4633-b589-d8f5ed31eb79"
  },
  {
    "id": "9129e2e7-70ef-4440-b209-4d9d360d881e",
    "name": "Comuna Braloştiţa",
    "state_id": "9d7e6f90-af4f-4633-b589-d8f5ed31eb79"
  },
  {
    "id": "274356fe-87c6-40df-8dd4-9ff3981175c8",
    "name": "Comuna Bratovoeşti",
    "state_id": "9d7e6f90-af4f-4633-b589-d8f5ed31eb79"
  },
  {
    "id": "87e2dc14-aace-42fb-a660-fc996402d389",
    "name": "Comuna Breasta",
    "state_id": "9d7e6f90-af4f-4633-b589-d8f5ed31eb79"
  },
  {
    "id": "82c92af8-9ed4-4159-a64e-38e348bbdd39",
    "name": "Comuna Bucovăţ",
    "state_id": "9d7e6f90-af4f-4633-b589-d8f5ed31eb79"
  },
  {
    "id": "2987e8f6-07c2-467d-88ad-023959f61b7e",
    "name": "Comuna Bulzeşti",
    "state_id": "9d7e6f90-af4f-4633-b589-d8f5ed31eb79"
  },
  {
    "id": "b9f966c2-bef7-4c4a-9eb2-f515d2c47dcb",
    "name": "Comuna Călăraşi",
    "state_id": "9d7e6f90-af4f-4633-b589-d8f5ed31eb79"
  },
  {
    "id": "bd1190b2-d130-4a7d-b9ee-0f69740df1e8",
    "name": "Comuna Calopăru",
    "state_id": "9d7e6f90-af4f-4633-b589-d8f5ed31eb79"
  },
  {
    "id": "f3be36ba-bc83-4b89-bc6a-26e1482ee587",
    "name": "Comuna Caraula",
    "state_id": "9d7e6f90-af4f-4633-b589-d8f5ed31eb79"
  },
  {
    "id": "592a5ae9-2af1-459e-b965-2d918f911229",
    "name": "Comuna Cârcea",
    "state_id": "9d7e6f90-af4f-4633-b589-d8f5ed31eb79"
  },
  {
    "id": "7516ee72-f7d6-4642-92ea-631b7525ea1d",
    "name": "Comuna Cârna",
    "state_id": "9d7e6f90-af4f-4633-b589-d8f5ed31eb79"
  },
  {
    "id": "9d0ded2c-91b2-43d7-a5a0-1fe06c6d30a0",
    "name": "Comuna Carpen",
    "state_id": "9d7e6f90-af4f-4633-b589-d8f5ed31eb79"
  },
  {
    "id": "4f9cde09-efa8-49ee-85d2-be2ab4195011",
    "name": "Comuna Castranova",
    "state_id": "9d7e6f90-af4f-4633-b589-d8f5ed31eb79"
  },
  {
    "id": "1087ae71-7f52-49e3-8a1f-4a598b3c4742",
    "name": "Comuna Catane",
    "state_id": "9d7e6f90-af4f-4633-b589-d8f5ed31eb79"
  },
  {
    "id": "9e5820d6-6673-4aff-a31f-11b1409aef56",
    "name": "Comuna Celaru",
    "state_id": "9d7e6f90-af4f-4633-b589-d8f5ed31eb79"
  },
  {
    "id": "7a22f4ac-f5c2-466f-9a79-a7d96c277bca",
    "name": "Comuna Cerãt",
    "state_id": "9d7e6f90-af4f-4633-b589-d8f5ed31eb79"
  },
  {
    "id": "8eda3428-a188-418f-985d-c46ef1d5f910",
    "name": "Comuna Cernăteşti",
    "state_id": "9d7e6f90-af4f-4633-b589-d8f5ed31eb79"
  },
  {
    "id": "7eddf277-4678-4ff3-bc5a-721788c35577",
    "name": "Comuna Cetate",
    "state_id": "9d7e6f90-af4f-4633-b589-d8f5ed31eb79"
  },
  {
    "id": "e07e396e-2f49-4622-a1c6-62997f8337f9",
    "name": "Comuna Cioroiaşi",
    "state_id": "9d7e6f90-af4f-4633-b589-d8f5ed31eb79"
  },
  {
    "id": "2dc985b3-34fd-4b18-b44f-4fdf8b93d5c1",
    "name": "Comuna Ciupercenii Noi",
    "state_id": "9d7e6f90-af4f-4633-b589-d8f5ed31eb79"
  },
  {
    "id": "64a30ab0-152c-4994-8daf-822a32fcb128",
    "name": "Comuna Coşoveni",
    "state_id": "9d7e6f90-af4f-4633-b589-d8f5ed31eb79"
  },
  {
    "id": "faeae617-3526-487b-9cbc-b815e10e3833",
    "name": "Comuna Coţofenii din Dos",
    "state_id": "9d7e6f90-af4f-4633-b589-d8f5ed31eb79"
  },
  {
    "id": "af9e7c55-563a-4370-8b59-f982730aff48",
    "name": "Comuna Coţofenii din Faţă",
    "state_id": "9d7e6f90-af4f-4633-b589-d8f5ed31eb79"
  },
  {
    "id": "215e5a15-cee9-4a83-ba13-d865d74da24c",
    "name": "Comuna Dăneţi",
    "state_id": "9d7e6f90-af4f-4633-b589-d8f5ed31eb79"
  },
  {
    "id": "47ff8bd5-712e-4377-82b9-70b08682f505",
    "name": "Comuna Desa",
    "state_id": "9d7e6f90-af4f-4633-b589-d8f5ed31eb79"
  },
  {
    "id": "db08150c-1f24-4570-9f7d-49989c4a3885",
    "name": "Comuna Dioşti",
    "state_id": "9d7e6f90-af4f-4633-b589-d8f5ed31eb79"
  },
  {
    "id": "28314e07-6940-4bbb-ba67-f120a4ef71fe",
    "name": "Comuna Dobreşti",
    "state_id": "9d7e6f90-af4f-4633-b589-d8f5ed31eb79"
  },
  {
    "id": "79cd6efb-c8b5-44d1-8839-1761148fe16f",
    "name": "Comuna Dobroteşti",
    "state_id": "9d7e6f90-af4f-4633-b589-d8f5ed31eb79"
  },
  {
    "id": "85198927-e8fe-4c18-8048-a45a5e64387a",
    "name": "Comuna Drăgoteşti",
    "state_id": "9d7e6f90-af4f-4633-b589-d8f5ed31eb79"
  },
  {
    "id": "fd16a677-f6c4-48d3-90a7-2dfabf144e93",
    "name": "Comuna Drãnic",
    "state_id": "9d7e6f90-af4f-4633-b589-d8f5ed31eb79"
  },
  {
    "id": "cd4dc038-c3e0-4ebe-8f2c-4b8fbb1e2a21",
    "name": "Comuna Fãrcaş",
    "state_id": "9d7e6f90-af4f-4633-b589-d8f5ed31eb79"
  },
  {
    "id": "4e071036-c248-476c-a4e6-c8eddfe683bf",
    "name": "Comuna Galicea Mare",
    "state_id": "9d7e6f90-af4f-4633-b589-d8f5ed31eb79"
  },
  {
    "id": "8da5f937-c118-4c4d-b1b3-dcc66a47829e",
    "name": "Comuna Galiciuica",
    "state_id": "9d7e6f90-af4f-4633-b589-d8f5ed31eb79"
  },
  {
    "id": "0155d3d4-62e0-4b0f-92ef-080c8edc1294",
    "name": "Comuna Gângiova",
    "state_id": "9d7e6f90-af4f-4633-b589-d8f5ed31eb79"
  },
  {
    "id": "037a1f7b-3919-4b97-a324-efe4800aa6f6",
    "name": "Comuna Gherceşti",
    "state_id": "9d7e6f90-af4f-4633-b589-d8f5ed31eb79"
  },
  {
    "id": "5dceaa09-f08c-470c-bc5c-baf9c66f2c2d",
    "name": "Comuna Ghidici",
    "state_id": "9d7e6f90-af4f-4633-b589-d8f5ed31eb79"
  },
  {
    "id": "a9592e02-5704-4d3a-b567-429edbfaa97e",
    "name": "Comuna Ghindeni",
    "state_id": "9d7e6f90-af4f-4633-b589-d8f5ed31eb79"
  },
  {
    "id": "be047916-9030-4289-b965-76221aededd7",
    "name": "Comuna Gighera",
    "state_id": "9d7e6f90-af4f-4633-b589-d8f5ed31eb79"
  },
  {
    "id": "39355979-3d9d-4838-949d-997c7738dd18",
    "name": "Comuna Giubega",
    "state_id": "9d7e6f90-af4f-4633-b589-d8f5ed31eb79"
  },
  {
    "id": "ec9fe0c4-d8c4-439b-9303-d48da97c10f4",
    "name": "Comuna Giurgiţa",
    "state_id": "9d7e6f90-af4f-4633-b589-d8f5ed31eb79"
  },
  {
    "id": "aa28d1ac-39da-4bfe-94b3-9d3c69d586d5",
    "name": "Comuna Gogoşu",
    "state_id": "9d7e6f90-af4f-4633-b589-d8f5ed31eb79"
  },
  {
    "id": "8fa3b5ca-f734-412c-806e-1c83f3b00c45",
    "name": "Comuna Goicea",
    "state_id": "9d7e6f90-af4f-4633-b589-d8f5ed31eb79"
  },
  {
    "id": "24b9dd15-cc47-4b48-82b6-7bc784629970",
    "name": "Comuna Goieşti",
    "state_id": "9d7e6f90-af4f-4633-b589-d8f5ed31eb79"
  },
  {
    "id": "bb2f6bdf-56d7-41c9-8eef-a8bb2e8102b6",
    "name": "Comuna Greceşti",
    "state_id": "9d7e6f90-af4f-4633-b589-d8f5ed31eb79"
  },
  {
    "id": "0ab698c7-62a8-4259-b9ae-999aaac7db0b",
    "name": "Comuna Întorsura",
    "state_id": "9d7e6f90-af4f-4633-b589-d8f5ed31eb79"
  },
  {
    "id": "68456905-b334-4afa-9852-9d9ef0e4eeb2",
    "name": "Comuna Işalniţa",
    "state_id": "9d7e6f90-af4f-4633-b589-d8f5ed31eb79"
  },
  {
    "id": "0d493400-b153-4bed-b6d0-96dc557bbc67",
    "name": "Comuna Izvoare",
    "state_id": "9d7e6f90-af4f-4633-b589-d8f5ed31eb79"
  },
  {
    "id": "3a71b075-f826-4c7b-ba4d-a6c03f824b64",
    "name": "Comuna Leu",
    "state_id": "9d7e6f90-af4f-4633-b589-d8f5ed31eb79"
  },
  {
    "id": "6590d93b-2e32-4e74-b1ef-fcd1d82f81b8",
    "name": "Comuna Lipovu",
    "state_id": "9d7e6f90-af4f-4633-b589-d8f5ed31eb79"
  },
  {
    "id": "0a715a8e-66aa-43f9-a3f3-bb9a6611d8e2",
    "name": "Comuna Măceşu de Jos",
    "state_id": "9d7e6f90-af4f-4633-b589-d8f5ed31eb79"
  },
  {
    "id": "19952540-f4ce-422a-a3f7-3bea09122f93",
    "name": "Comuna Măceşu de Sus",
    "state_id": "9d7e6f90-af4f-4633-b589-d8f5ed31eb79"
  },
  {
    "id": "40d39591-7266-43dc-b81b-038e40df7778",
    "name": "Comuna Maglavit",
    "state_id": "9d7e6f90-af4f-4633-b589-d8f5ed31eb79"
  },
  {
    "id": "2756d48a-f271-46a7-bdc5-3ae68f292e47",
    "name": "Comuna Malu Mare",
    "state_id": "9d7e6f90-af4f-4633-b589-d8f5ed31eb79"
  },
  {
    "id": "7b87f6ed-70a1-481b-83be-8233ac357e09",
    "name": "Comuna Mârşani",
    "state_id": "9d7e6f90-af4f-4633-b589-d8f5ed31eb79"
  },
  {
    "id": "8e2bf82c-33fa-4552-8dad-276f154dcf3b",
    "name": "Comuna Melineşti",
    "state_id": "9d7e6f90-af4f-4633-b589-d8f5ed31eb79"
  },
  {
    "id": "d69d2e81-831f-4410-b704-6a7586259e2a",
    "name": "Comuna Mischii",
    "state_id": "9d7e6f90-af4f-4633-b589-d8f5ed31eb79"
  },
  {
    "id": "127fb649-6132-40fc-a307-91984204dd48",
    "name": "Comuna Moţăţei",
    "state_id": "9d7e6f90-af4f-4633-b589-d8f5ed31eb79"
  },
  {
    "id": "77defc77-10c6-4dc1-a91c-23690ffbedcf",
    "name": "Comuna Murgaşi",
    "state_id": "9d7e6f90-af4f-4633-b589-d8f5ed31eb79"
  },
  {
    "id": "94d54987-bfbe-4c54-8ad7-7e5211a988e2",
    "name": "Comuna Negoi",
    "state_id": "9d7e6f90-af4f-4633-b589-d8f5ed31eb79"
  },
  {
    "id": "9984149f-452c-48c1-9797-7438cf0ad01e",
    "name": "Comuna Orodel",
    "state_id": "9d7e6f90-af4f-4633-b589-d8f5ed31eb79"
  },
  {
    "id": "39f790ac-6b93-4883-9089-4438c21afc96",
    "name": "Comuna Ostroveni",
    "state_id": "9d7e6f90-af4f-4633-b589-d8f5ed31eb79"
  },
  {
    "id": "cc01af79-dbc8-44b6-9653-6001bd86d7e8",
    "name": "Comuna Perişor",
    "state_id": "9d7e6f90-af4f-4633-b589-d8f5ed31eb79"
  },
  {
    "id": "75bad4c8-ca92-450d-b1af-d0822d01ce77",
    "name": "Comuna Pieleşti",
    "state_id": "9d7e6f90-af4f-4633-b589-d8f5ed31eb79"
  },
  {
    "id": "a248b776-bffd-4750-872b-6f5fd538efda",
    "name": "Comuna Piscu Vechi",
    "state_id": "9d7e6f90-af4f-4633-b589-d8f5ed31eb79"
  },
  {
    "id": "b339a98f-b8b4-4378-94f7-09a2925c9654",
    "name": "Comuna Pleniţa",
    "state_id": "9d7e6f90-af4f-4633-b589-d8f5ed31eb79"
  },
  {
    "id": "db8b75c1-d500-4d06-b62e-c0aaa0fe7679",
    "name": "Comuna Pleşoi",
    "state_id": "9d7e6f90-af4f-4633-b589-d8f5ed31eb79"
  },
  {
    "id": "f9faa398-8ffc-4b54-acd8-2624a89775f7",
    "name": "Comuna Podari",
    "state_id": "9d7e6f90-af4f-4633-b589-d8f5ed31eb79"
  },
  {
    "id": "6ceb69c5-b1d6-4388-a20c-a05ec852acb0",
    "name": "Comuna Poiana Mare",
    "state_id": "9d7e6f90-af4f-4633-b589-d8f5ed31eb79"
  },
  {
    "id": "54c1dc49-7a69-4b94-ae53-260e462d8814",
    "name": "Comuna Predeşti",
    "state_id": "9d7e6f90-af4f-4633-b589-d8f5ed31eb79"
  },
  {
    "id": "3756f53e-389a-4b29-bc12-f6b010041c77",
    "name": "Comuna Radovan",
    "state_id": "9d7e6f90-af4f-4633-b589-d8f5ed31eb79"
  },
  {
    "id": "5a1f59f1-c23d-4f4d-96bf-97fe6d7ec307",
    "name": "Comuna Rast",
    "state_id": "9d7e6f90-af4f-4633-b589-d8f5ed31eb79"
  },
  {
    "id": "f65b38e5-8985-4544-831e-daeb7d1f7b3d",
    "name": "Comuna Robăneşti",
    "state_id": "9d7e6f90-af4f-4633-b589-d8f5ed31eb79"
  },
  {
    "id": "8c4d5b1a-ef8b-453e-937a-8439792d0277",
    "name": "Comuna Rojişte",
    "state_id": "9d7e6f90-af4f-4633-b589-d8f5ed31eb79"
  },
  {
    "id": "d03e9d42-b8b6-4a49-9ead-9ff8b7d7910c",
    "name": "Comuna Sadova",
    "state_id": "9d7e6f90-af4f-4633-b589-d8f5ed31eb79"
  },
  {
    "id": "2f36ec62-9703-46fb-9a39-8784fe72276b",
    "name": "Comuna Sălcuţa",
    "state_id": "9d7e6f90-af4f-4633-b589-d8f5ed31eb79"
  },
  {
    "id": "5f6af1bd-f567-4cc0-9de2-d0568963ea2c",
    "name": "Comuna Scăeşti",
    "state_id": "9d7e6f90-af4f-4633-b589-d8f5ed31eb79"
  },
  {
    "id": "4d6b81aa-8397-4f7d-806b-238e81902ad3",
    "name": "Comuna Seaca de Câmp",
    "state_id": "9d7e6f90-af4f-4633-b589-d8f5ed31eb79"
  },
  {
    "id": "694255fb-65c8-4211-a75f-9c19cb09f88b",
    "name": "Comuna Seaca de Pădure",
    "state_id": "9d7e6f90-af4f-4633-b589-d8f5ed31eb79"
  },
  {
    "id": "8c6d9071-6bc6-4fbb-88eb-5dd188df4434",
    "name": "Comuna Secu",
    "state_id": "9d7e6f90-af4f-4633-b589-d8f5ed31eb79"
  },
  {
    "id": "98002894-c1de-4e69-8e14-3f52262a012b",
    "name": "Comuna Siliştea Crucii",
    "state_id": "9d7e6f90-af4f-4633-b589-d8f5ed31eb79"
  },
  {
    "id": "6a676a13-3f47-455f-8099-a005cf3d5120",
    "name": "Comuna Şimnicu de Sus",
    "state_id": "9d7e6f90-af4f-4633-b589-d8f5ed31eb79"
  },
  {
    "id": "92e62ee0-5d94-4a8c-accd-b2adabd4af78",
    "name": "Comuna Sopot",
    "state_id": "9d7e6f90-af4f-4633-b589-d8f5ed31eb79"
  },
  {
    "id": "06e6ca6a-1020-4a2c-9ef7-2122e3e6c565",
    "name": "Comuna Tãlpaş",
    "state_id": "9d7e6f90-af4f-4633-b589-d8f5ed31eb79"
  },
  {
    "id": "f39fcd53-7860-45f5-b245-5ae3f82c6b46",
    "name": "Comuna Teasc",
    "state_id": "9d7e6f90-af4f-4633-b589-d8f5ed31eb79"
  },
  {
    "id": "1eab422b-e8a1-4f36-9f1f-c075824b8405",
    "name": "Comuna Terpeziţa",
    "state_id": "9d7e6f90-af4f-4633-b589-d8f5ed31eb79"
  },
  {
    "id": "12e59dd5-ac2f-438b-890c-db31162c413f",
    "name": "Comuna Teslui",
    "state_id": "9d7e6f90-af4f-4633-b589-d8f5ed31eb79"
  },
  {
    "id": "3c1e2487-ad34-4d10-b936-7e6d00aebeaf",
    "name": "Comuna Ţuglui",
    "state_id": "9d7e6f90-af4f-4633-b589-d8f5ed31eb79"
  },
  {
    "id": "6fdebac5-cee6-484b-9aac-73275a7ee192",
    "name": "Comuna Unirea",
    "state_id": "9d7e6f90-af4f-4633-b589-d8f5ed31eb79"
  },
  {
    "id": "ee258b03-2f7b-4a59-a512-653e2c7c1782",
    "name": "Comuna Urzicuţa",
    "state_id": "9d7e6f90-af4f-4633-b589-d8f5ed31eb79"
  },
  {
    "id": "77da43e6-37a8-4aac-b54d-ef3f5bbf41d4",
    "name": "Comuna Valea Stanciului",
    "state_id": "9d7e6f90-af4f-4633-b589-d8f5ed31eb79"
  },
  {
    "id": "30a91c72-d467-44c1-9173-a79fa80bd543",
    "name": "Comuna Vârtop",
    "state_id": "9d7e6f90-af4f-4633-b589-d8f5ed31eb79"
  },
  {
    "id": "0c8ea3c6-e749-4f41-b797-febc940f8b80",
    "name": "Comuna Vârvoru de Jos",
    "state_id": "9d7e6f90-af4f-4633-b589-d8f5ed31eb79"
  },
  {
    "id": "82606d85-7fb8-4780-8905-33caa657500c",
    "name": "Comuna Vela",
    "state_id": "9d7e6f90-af4f-4633-b589-d8f5ed31eb79"
  },
  {
    "id": "324da545-2978-4ec5-b93b-9ee5e4cc08ec",
    "name": "Comuna Verbiţa",
    "state_id": "9d7e6f90-af4f-4633-b589-d8f5ed31eb79"
  },
  {
    "id": "9f8f9998-02d7-46c9-8fc2-0d0a65941cc0",
    "name": "Coşoveni",
    "state_id": "9d7e6f90-af4f-4633-b589-d8f5ed31eb79"
  },
  {
    "id": "bff75d3b-0958-4beb-bf62-6dca399d07f5",
    "name": "Coţofenii din Dos",
    "state_id": "9d7e6f90-af4f-4633-b589-d8f5ed31eb79"
  },
  {
    "id": "2f6a6e64-4958-416a-8426-15b38e618697",
    "name": "Coțofenii din Față",
    "state_id": "9d7e6f90-af4f-4633-b589-d8f5ed31eb79"
  },
  {
    "id": "2a030046-29ff-4e28-b4fc-f039c8382faf",
    "name": "Craiova",
    "state_id": "9d7e6f90-af4f-4633-b589-d8f5ed31eb79"
  },
  {
    "id": "8be80336-af3d-4424-9f0d-8d3f41aef93d",
    "name": "Dăbuleni",
    "state_id": "9d7e6f90-af4f-4633-b589-d8f5ed31eb79"
  },
  {
    "id": "a62c48e8-29ae-4379-a1eb-34af6f0f665e",
    "name": "Dăneţi",
    "state_id": "9d7e6f90-af4f-4633-b589-d8f5ed31eb79"
  },
  {
    "id": "7c31fca9-0651-4b89-b125-fa1d5c542a1f",
    "name": "Desa",
    "state_id": "9d7e6f90-af4f-4633-b589-d8f5ed31eb79"
  },
  {
    "id": "891ea980-a949-4b9c-8187-479e9ce2859a",
    "name": "Dioşti",
    "state_id": "9d7e6f90-af4f-4633-b589-d8f5ed31eb79"
  },
  {
    "id": "9d286074-c972-4a45-93bc-840407570cf6",
    "name": "Dobreşti",
    "state_id": "9d7e6f90-af4f-4633-b589-d8f5ed31eb79"
  },
  {
    "id": "fa826528-5c75-4e21-a34e-08b51b9ccaf3",
    "name": "Dobridor",
    "state_id": "9d7e6f90-af4f-4633-b589-d8f5ed31eb79"
  },
  {
    "id": "593f2c93-3cab-447a-a3a4-38a77a9bdf7f",
    "name": "Dobrotești",
    "state_id": "9d7e6f90-af4f-4633-b589-d8f5ed31eb79"
  },
  {
    "id": "678af9f9-84ea-4d01-add8-19ddfba1ee76",
    "name": "Drăgoteşti",
    "state_id": "9d7e6f90-af4f-4633-b589-d8f5ed31eb79"
  },
  {
    "id": "13b6ab51-bc1f-4121-8d70-a27cf5f8b3e8",
    "name": "Drănic",
    "state_id": "9d7e6f90-af4f-4633-b589-d8f5ed31eb79"
  },
  {
    "id": "aeed2b3b-79f5-46ba-a9c0-4eca17329801",
    "name": "Făcăi",
    "state_id": "9d7e6f90-af4f-4633-b589-d8f5ed31eb79"
  },
  {
    "id": "34442cf5-3d21-4fd3-8fd3-64f773a7e3ef",
    "name": "Fărcaș",
    "state_id": "9d7e6f90-af4f-4633-b589-d8f5ed31eb79"
  },
  {
    "id": "6041fcc3-0fd2-41e7-9d3a-a3ce38284d99",
    "name": "Filiaşi",
    "state_id": "9d7e6f90-af4f-4633-b589-d8f5ed31eb79"
  },
  {
    "id": "d2083ed8-b853-4ba5-9d00-2ff98155c772",
    "name": "Fratoștița",
    "state_id": "9d7e6f90-af4f-4633-b589-d8f5ed31eb79"
  },
  {
    "id": "030eb243-8b00-40a9-8eef-ff5389edc90a",
    "name": "Galicea Mare",
    "state_id": "9d7e6f90-af4f-4633-b589-d8f5ed31eb79"
  },
  {
    "id": "9b4bfd42-a31d-4739-a3cf-8d67d9ae8d67",
    "name": "Galiciuica",
    "state_id": "9d7e6f90-af4f-4633-b589-d8f5ed31eb79"
  },
  {
    "id": "fc832644-ad29-428c-a8fe-4dcf157238cb",
    "name": "Gângiova",
    "state_id": "9d7e6f90-af4f-4633-b589-d8f5ed31eb79"
  },
  {
    "id": "1787bdfc-0955-41d3-a45f-a4ea0c974fcb",
    "name": "Ghidici",
    "state_id": "9d7e6f90-af4f-4633-b589-d8f5ed31eb79"
  },
  {
    "id": "686b0050-ebbb-4fe9-806a-b2e8ce9e2c13",
    "name": "Ghindeni",
    "state_id": "9d7e6f90-af4f-4633-b589-d8f5ed31eb79"
  },
  {
    "id": "f6ac7fed-88a8-4a78-91ea-b71fbcaaea58",
    "name": "Ghizdăvești",
    "state_id": "9d7e6f90-af4f-4633-b589-d8f5ed31eb79"
  },
  {
    "id": "e5cc4d75-e1ea-4163-bc67-00c402d7e22c",
    "name": "Gighera",
    "state_id": "9d7e6f90-af4f-4633-b589-d8f5ed31eb79"
  },
  {
    "id": "ffe44212-7666-4b06-84f3-ab171a987c18",
    "name": "Giubega",
    "state_id": "9d7e6f90-af4f-4633-b589-d8f5ed31eb79"
  },
  {
    "id": "eb9ea12c-9524-42a3-8185-585f34d0f702",
    "name": "Giurgiţa",
    "state_id": "9d7e6f90-af4f-4633-b589-d8f5ed31eb79"
  },
  {
    "id": "49afffb7-e05f-499b-9506-385190daf7ae",
    "name": "Gogoşu",
    "state_id": "9d7e6f90-af4f-4633-b589-d8f5ed31eb79"
  },
  {
    "id": "ca58061b-9dd5-4543-a4b0-713dc7bc8187",
    "name": "Goicea",
    "state_id": "9d7e6f90-af4f-4633-b589-d8f5ed31eb79"
  },
  {
    "id": "55266002-d636-41f5-bfeb-b2af54fa8f56",
    "name": "Goiești",
    "state_id": "9d7e6f90-af4f-4633-b589-d8f5ed31eb79"
  },
  {
    "id": "eec69c66-342f-4b3a-9e34-e1221de7c968",
    "name": "Greceşti",
    "state_id": "9d7e6f90-af4f-4633-b589-d8f5ed31eb79"
  },
  {
    "id": "ecdabac9-1492-4622-86ac-a8f64cf05275",
    "name": "Hunia",
    "state_id": "9d7e6f90-af4f-4633-b589-d8f5ed31eb79"
  },
  {
    "id": "d3c1dd4a-6deb-4418-8b65-488eec66a4db",
    "name": "Întorsura",
    "state_id": "9d7e6f90-af4f-4633-b589-d8f5ed31eb79"
  },
  {
    "id": "31373881-dbb1-4ae8-b23f-50a3d63d2eda",
    "name": "Işalniţa",
    "state_id": "9d7e6f90-af4f-4633-b589-d8f5ed31eb79"
  },
  {
    "id": "0da6bc85-0b70-4597-b2fe-428d5780f050",
    "name": "Izvoare",
    "state_id": "9d7e6f90-af4f-4633-b589-d8f5ed31eb79"
  },
  {
    "id": "eecf821c-425c-4a79-ad08-a5ff2e98efab",
    "name": "Leu",
    "state_id": "9d7e6f90-af4f-4633-b589-d8f5ed31eb79"
  },
  {
    "id": "aadef7fb-e442-4f31-a004-65bb62e745db",
    "name": "Lipovu",
    "state_id": "9d7e6f90-af4f-4633-b589-d8f5ed31eb79"
  },
  {
    "id": "4d5ee2e0-56ba-4fbf-a882-04aa519a17ea",
    "name": "Lișteava",
    "state_id": "9d7e6f90-af4f-4633-b589-d8f5ed31eb79"
  },
  {
    "id": "8e8aae0a-0bf0-4a72-ba74-cc20f33e742c",
    "name": "Măceşu de Jos",
    "state_id": "9d7e6f90-af4f-4633-b589-d8f5ed31eb79"
  },
  {
    "id": "b68065a9-c258-4047-8062-3fac61eaa9c0",
    "name": "Măceşu de Sus",
    "state_id": "9d7e6f90-af4f-4633-b589-d8f5ed31eb79"
  },
  {
    "id": "625627a6-be0c-434a-902f-8f42c8f928be",
    "name": "Maglavit",
    "state_id": "9d7e6f90-af4f-4633-b589-d8f5ed31eb79"
  },
  {
    "id": "60233781-5e55-45f0-aa07-12494932d3ab",
    "name": "Malu Mare",
    "state_id": "9d7e6f90-af4f-4633-b589-d8f5ed31eb79"
  },
  {
    "id": "13f4123d-38f6-4679-bcd2-03658432e6fc",
    "name": "Mârşani",
    "state_id": "9d7e6f90-af4f-4633-b589-d8f5ed31eb79"
  },
  {
    "id": "c6cb1e22-9f52-4eb0-8440-8f91909c3ad3",
    "name": "Melineşti",
    "state_id": "9d7e6f90-af4f-4633-b589-d8f5ed31eb79"
  },
  {
    "id": "dafe9826-422f-43f1-a8fa-2956d2867094",
    "name": "Mischii",
    "state_id": "9d7e6f90-af4f-4633-b589-d8f5ed31eb79"
  },
  {
    "id": "7ca357a4-d078-4f00-afd1-a13cd55a426f",
    "name": "Mofleni",
    "state_id": "9d7e6f90-af4f-4633-b589-d8f5ed31eb79"
  },
  {
    "id": "edb1d8f9-7c20-4bc1-92b5-304ea8e745d4",
    "name": "Moţăţei",
    "state_id": "9d7e6f90-af4f-4633-b589-d8f5ed31eb79"
  },
  {
    "id": "ffae7177-1eda-4922-9d34-396f6977df65",
    "name": "Municipiul Bãileşti",
    "state_id": "9d7e6f90-af4f-4633-b589-d8f5ed31eb79"
  },
  {
    "id": "d579e81d-b67e-47cb-95f2-676c92f39acd",
    "name": "Municipiul Calafat",
    "state_id": "9d7e6f90-af4f-4633-b589-d8f5ed31eb79"
  },
  {
    "id": "e7f87d04-218b-4305-a53f-a93ebcbe10cc",
    "name": "Municipiul Craiova",
    "state_id": "9d7e6f90-af4f-4633-b589-d8f5ed31eb79"
  },
  {
    "id": "face4295-5b06-47fa-87dc-b62de1350607",
    "name": "Murgași",
    "state_id": "9d7e6f90-af4f-4633-b589-d8f5ed31eb79"
  },
  {
    "id": "e19472ee-1124-4ec3-89f8-a2af9dbc5219",
    "name": "Nedeia",
    "state_id": "9d7e6f90-af4f-4633-b589-d8f5ed31eb79"
  },
  {
    "id": "8f7549bf-1339-4922-8781-77f3142c2ecd",
    "name": "Negoi",
    "state_id": "9d7e6f90-af4f-4633-b589-d8f5ed31eb79"
  },
  {
    "id": "976cd475-7ce1-42ce-b0a4-3135abafb235",
    "name": "Negoiești",
    "state_id": "9d7e6f90-af4f-4633-b589-d8f5ed31eb79"
  },
  {
    "id": "348e891f-bb2b-4bf2-a971-314b5bc96946",
    "name": "Ocolna",
    "state_id": "9d7e6f90-af4f-4633-b589-d8f5ed31eb79"
  },
  {
    "id": "03ee7493-849c-469a-80e6-7af0866551ba",
    "name": "Oraş Bechet",
    "state_id": "9d7e6f90-af4f-4633-b589-d8f5ed31eb79"
  },
  {
    "id": "749084f8-cd1f-40d0-b42a-48b31969b260",
    "name": "Oraş Dãbuleni",
    "state_id": "9d7e6f90-af4f-4633-b589-d8f5ed31eb79"
  },
  {
    "id": "207349e2-ab53-486d-964b-a0e3ff19f4b6",
    "name": "Oraş Filiaşi",
    "state_id": "9d7e6f90-af4f-4633-b589-d8f5ed31eb79"
  },
  {
    "id": "2784066b-29ed-4fe1-8ec0-4a9c282df749",
    "name": "Oraş Segarcea",
    "state_id": "9d7e6f90-af4f-4633-b589-d8f5ed31eb79"
  },
  {
    "id": "3f8dd32f-ad32-4e31-a1df-71e9a2f975a7",
    "name": "Orodel",
    "state_id": "9d7e6f90-af4f-4633-b589-d8f5ed31eb79"
  },
  {
    "id": "518129cf-f185-443b-9020-658d2928df33",
    "name": "Ostroveni",
    "state_id": "9d7e6f90-af4f-4633-b589-d8f5ed31eb79"
  },
  {
    "id": "4ef9734b-4e8e-4d9e-a8d2-134fae8fe3b2",
    "name": "Padea",
    "state_id": "9d7e6f90-af4f-4633-b589-d8f5ed31eb79"
  },
  {
    "id": "f9f3649b-42db-4f3f-9341-e28037cebcab",
    "name": "Perișor",
    "state_id": "9d7e6f90-af4f-4633-b589-d8f5ed31eb79"
  },
  {
    "id": "99681663-1bb2-4630-91bc-4bdd175bb76b",
    "name": "Pieleştí",
    "state_id": "9d7e6f90-af4f-4633-b589-d8f5ed31eb79"
  },
  {
    "id": "d2dbd845-fb20-42da-83c3-b3ecfec37b9d",
    "name": "Piscu Nou",
    "state_id": "9d7e6f90-af4f-4633-b589-d8f5ed31eb79"
  },
  {
    "id": "3ac44f4c-8365-4db3-a046-5554533b6af3",
    "name": "Piscu Sadovei",
    "state_id": "9d7e6f90-af4f-4633-b589-d8f5ed31eb79"
  },
  {
    "id": "dcc76094-9621-48ea-b9a3-eb59ef677f81",
    "name": "Piscu Vechi",
    "state_id": "9d7e6f90-af4f-4633-b589-d8f5ed31eb79"
  },
  {
    "id": "d593bc8e-623d-4ba0-882d-615cb4f8bded",
    "name": "Pleniţa",
    "state_id": "9d7e6f90-af4f-4633-b589-d8f5ed31eb79"
  },
  {
    "id": "aff76dbf-b112-4a2c-876c-32ea6d6f8686",
    "name": "Pleșoi",
    "state_id": "9d7e6f90-af4f-4633-b589-d8f5ed31eb79"
  },
  {
    "id": "835f166d-0fdf-42b0-8332-5e82e2619438",
    "name": "Podari",
    "state_id": "9d7e6f90-af4f-4633-b589-d8f5ed31eb79"
  },
  {
    "id": "7cbba6d0-71b3-4bf8-8256-01e1cb540954",
    "name": "Poiana Mare",
    "state_id": "9d7e6f90-af4f-4633-b589-d8f5ed31eb79"
  },
  {
    "id": "427ea8a3-63b7-41a1-8227-eaca3a5ae297",
    "name": "Popoveni",
    "state_id": "9d7e6f90-af4f-4633-b589-d8f5ed31eb79"
  },
  {
    "id": "777a58fb-5f4a-445b-9844-208be78ac799",
    "name": "Prapor",
    "state_id": "9d7e6f90-af4f-4633-b589-d8f5ed31eb79"
  },
  {
    "id": "26087de0-e1ae-4c31-825d-c9943266e1e1",
    "name": "Preajba",
    "state_id": "9d7e6f90-af4f-4633-b589-d8f5ed31eb79"
  },
  {
    "id": "fe37b3e9-5db0-4d7c-8c9d-1154e0477aed",
    "name": "Predeşti",
    "state_id": "9d7e6f90-af4f-4633-b589-d8f5ed31eb79"
  },
  {
    "id": "f4e5c027-4b40-4f5b-aad1-c26b94947a2d",
    "name": "Puțuri",
    "state_id": "9d7e6f90-af4f-4633-b589-d8f5ed31eb79"
  },
  {
    "id": "1a216626-e7f5-4e5b-8e72-10eca3e298ee",
    "name": "Răcarii de Sus",
    "state_id": "9d7e6f90-af4f-4633-b589-d8f5ed31eb79"
  },
  {
    "id": "aeea69d1-b6fc-48d2-85a0-edd477e6da2a",
    "name": "Radomir",
    "state_id": "9d7e6f90-af4f-4633-b589-d8f5ed31eb79"
  },
  {
    "id": "faad92d4-3fad-4cf2-a4a2-84b6de903169",
    "name": "Radovan",
    "state_id": "9d7e6f90-af4f-4633-b589-d8f5ed31eb79"
  },
  {
    "id": "af70670f-32b0-4d46-bdd1-87d89786db22",
    "name": "Rast",
    "state_id": "9d7e6f90-af4f-4633-b589-d8f5ed31eb79"
  },
  {
    "id": "ed9f56c1-b57d-4c2a-903a-1984a8c0dccd",
    "name": "Rojiște",
    "state_id": "9d7e6f90-af4f-4633-b589-d8f5ed31eb79"
  },
  {
    "id": "5a68f340-5db2-47d3-b0e6-6db0f6b207f8",
    "name": "Sadova",
    "state_id": "9d7e6f90-af4f-4633-b589-d8f5ed31eb79"
  },
  {
    "id": "60bc352b-63a8-4c58-837e-84791b9d678d",
    "name": "Salcia",
    "state_id": "9d7e6f90-af4f-4633-b589-d8f5ed31eb79"
  },
  {
    "id": "884a99ea-7fb0-4bd7-83ee-22b4dafa5fa4",
    "name": "Sălcuţa",
    "state_id": "9d7e6f90-af4f-4633-b589-d8f5ed31eb79"
  },
  {
    "id": "d22434ab-e5be-4dab-81fb-7a0fd02cf090",
    "name": "Sărata",
    "state_id": "9d7e6f90-af4f-4633-b589-d8f5ed31eb79"
  },
  {
    "id": "e343be2c-fddf-491d-90ed-81b6cd192175",
    "name": "Satu Nou Calopăr",
    "state_id": "9d7e6f90-af4f-4633-b589-d8f5ed31eb79"
  },
  {
    "id": "ccbc7f58-8762-433a-84b2-0f50d7413ba2",
    "name": "Scăeşti",
    "state_id": "9d7e6f90-af4f-4633-b589-d8f5ed31eb79"
  },
  {
    "id": "0db9ab56-db11-4148-8c1c-2f806af1f18e",
    "name": "Seaca de Câmp",
    "state_id": "9d7e6f90-af4f-4633-b589-d8f5ed31eb79"
  },
  {
    "id": "13b3c8cd-26f1-4e61-ae05-31186caf0208",
    "name": "Seaca de Pădure",
    "state_id": "9d7e6f90-af4f-4633-b589-d8f5ed31eb79"
  },
  {
    "id": "4683f478-6fe6-4028-bbe7-a45b47f7c1d8",
    "name": "Secu",
    "state_id": "9d7e6f90-af4f-4633-b589-d8f5ed31eb79"
  },
  {
    "id": "74617a96-d26f-46e8-9af6-635f1bb605fd",
    "name": "Secui",
    "state_id": "9d7e6f90-af4f-4633-b589-d8f5ed31eb79"
  },
  {
    "id": "ebe7758c-24fb-4ae8-9aef-7fe62ab42576",
    "name": "Segarcea",
    "state_id": "9d7e6f90-af4f-4633-b589-d8f5ed31eb79"
  },
  {
    "id": "3b04a3f4-0ea5-41a6-b5d1-268e73ca77fb",
    "name": "Sfârcea",
    "state_id": "9d7e6f90-af4f-4633-b589-d8f5ed31eb79"
  },
  {
    "id": "9b64d451-09d1-483b-940b-a68a9256dd5a",
    "name": "Siliştea Crucii",
    "state_id": "9d7e6f90-af4f-4633-b589-d8f5ed31eb79"
  },
  {
    "id": "4f759a12-e621-4caa-9288-bd0dc6d61cf0",
    "name": "Şimnicu de Sus",
    "state_id": "9d7e6f90-af4f-4633-b589-d8f5ed31eb79"
  },
  {
    "id": "e55b409a-c3cb-43fb-a316-0604d870f444",
    "name": "Smârdan",
    "state_id": "9d7e6f90-af4f-4633-b589-d8f5ed31eb79"
  },
  {
    "id": "41e1e1ce-3378-43a3-983b-7ed68055ff27",
    "name": "Sopot",
    "state_id": "9d7e6f90-af4f-4633-b589-d8f5ed31eb79"
  },
  {
    "id": "187def19-fc4b-4e3b-a7ef-16a6b82804d4",
    "name": "Tălpaș",
    "state_id": "9d7e6f90-af4f-4633-b589-d8f5ed31eb79"
  },
  {
    "id": "4cbed26b-00fb-4de8-92dc-53c81df9fff7",
    "name": "Teasc",
    "state_id": "9d7e6f90-af4f-4633-b589-d8f5ed31eb79"
  },
  {
    "id": "a06759e2-c926-4610-8e0e-3c46a5bbb509",
    "name": "Terpeziţa",
    "state_id": "9d7e6f90-af4f-4633-b589-d8f5ed31eb79"
  },
  {
    "id": "e08a7086-2868-4f8a-8eb3-dab4871db985",
    "name": "Teslui",
    "state_id": "9d7e6f90-af4f-4633-b589-d8f5ed31eb79"
  },
  {
    "id": "d107db4e-f7cb-4908-8b53-05b3fb73ef99",
    "name": "Ţuglui",
    "state_id": "9d7e6f90-af4f-4633-b589-d8f5ed31eb79"
  },
  {
    "id": "0e135cfc-3b39-4415-9acd-65b1968decb1",
    "name": "Unirea",
    "state_id": "9d7e6f90-af4f-4633-b589-d8f5ed31eb79"
  },
  {
    "id": "5a873cc3-0de1-4cd1-b725-5244b96e2358",
    "name": "Urzicuţa",
    "state_id": "9d7e6f90-af4f-4633-b589-d8f5ed31eb79"
  },
  {
    "id": "30f15d26-f219-44ad-bcc0-bcfdaa268afa",
    "name": "Valea Stanciului",
    "state_id": "9d7e6f90-af4f-4633-b589-d8f5ed31eb79"
  },
  {
    "id": "fbc6ca1f-0da1-48a5-b8dc-c922e6410b3a",
    "name": "Vârtop",
    "state_id": "9d7e6f90-af4f-4633-b589-d8f5ed31eb79"
  },
  {
    "id": "723a4d5a-107d-471c-b846-e7eea2dfff36",
    "name": "Vârvoru de Jos",
    "state_id": "9d7e6f90-af4f-4633-b589-d8f5ed31eb79"
  },
  {
    "id": "fe656b48-f7eb-453e-84c3-1734d68f1f1a",
    "name": "Vela",
    "state_id": "9d7e6f90-af4f-4633-b589-d8f5ed31eb79"
  },
  {
    "id": "39ec9d81-8ae9-44b3-b65f-8fd2d5ad306f",
    "name": "Verbiţa",
    "state_id": "9d7e6f90-af4f-4633-b589-d8f5ed31eb79"
  },
  {
    "id": "654214a9-e628-4265-9a0c-fd3aa4686700",
    "name": "Zănoaga",
    "state_id": "9d7e6f90-af4f-4633-b589-d8f5ed31eb79"
  },
  {
    "id": "e7de4fde-3024-45be-8c18-10a56a9b9288",
    "name": "Zăval",
    "state_id": "9d7e6f90-af4f-4633-b589-d8f5ed31eb79"
  }
]