[
  {
    "id": "7693b316-f9ed-47f9-b145-dcafe3dd41af",
    "name": "Aginskoye",
    "state_id": "9e5a8ce0-6d16-410e-823f-80822c4efc91"
  },
  {
    "id": "9e46e0d0-38bb-45a2-9daa-4ff398ad9d04",
    "name": "Aksha",
    "state_id": "9e5a8ce0-6d16-410e-823f-80822c4efc91"
  },
  {
    "id": "45e021be-4339-4298-86c1-34182288c7b2",
    "name": "Akshinskiy Rayon",
    "state_id": "9e5a8ce0-6d16-410e-823f-80822c4efc91"
  },
  {
    "id": "0871e352-3856-4234-a7a7-f57de485be52",
    "name": "Aleksandrovo-Zavodskiy Rayon",
    "state_id": "9e5a8ce0-6d16-410e-823f-80822c4efc91"
  },
  {
    "id": "45d91d5f-227d-48a8-9eeb-769ca51d8aa6",
    "name": "Aleksandrovskiy Zavod",
    "state_id": "9e5a8ce0-6d16-410e-823f-80822c4efc91"
  },
  {
    "id": "e77d5104-27fe-47ff-9799-2847b49f1f82",
    "name": "Amazar",
    "state_id": "9e5a8ce0-6d16-410e-823f-80822c4efc91"
  },
  {
    "id": "ed972df4-fa1d-4505-95f8-bfe8152113ba",
    "name": "Atamanovka",
    "state_id": "9e5a8ce0-6d16-410e-823f-80822c4efc91"
  },
  {
    "id": "fcacf9d3-b0c5-4505-aa4e-df32d896dfde",
    "name": "Bada",
    "state_id": "9e5a8ce0-6d16-410e-823f-80822c4efc91"
  },
  {
    "id": "c38f5418-f998-42f2-938a-49af5b956c5e",
    "name": "Baley",
    "state_id": "9e5a8ce0-6d16-410e-823f-80822c4efc91"
  },
  {
    "id": "987c5b71-9a26-442f-8806-a18f5d34a90c",
    "name": "Baleyskiy Rayon",
    "state_id": "9e5a8ce0-6d16-410e-823f-80822c4efc91"
  },
  {
    "id": "43f44f83-4dcf-4008-b11a-7c517f95a284",
    "name": "Balyaga",
    "state_id": "9e5a8ce0-6d16-410e-823f-80822c4efc91"
  },
  {
    "id": "fb80b209-1ba6-43b1-8deb-cc1a613054ec",
    "name": "Bol’shaya Tura",
    "state_id": "9e5a8ce0-6d16-410e-823f-80822c4efc91"
  },
  {
    "id": "2e154e10-031d-471b-aa18-a84d63bbec50",
    "name": "Borzinskiy Rayon",
    "state_id": "9e5a8ce0-6d16-410e-823f-80822c4efc91"
  },
  {
    "id": "70c4947e-871d-4315-9c53-cfcaa1e7326b",
    "name": "Borzya",
    "state_id": "9e5a8ce0-6d16-410e-823f-80822c4efc91"
  },
  {
    "id": "1f5c52f6-0c90-414a-a7ef-96bf455296bb",
    "name": "Bukachacha",
    "state_id": "9e5a8ce0-6d16-410e-823f-80822c4efc91"
  },
  {
    "id": "339d4a39-5fc4-4292-bf24-82a865fb3b63",
    "name": "Chara",
    "state_id": "9e5a8ce0-6d16-410e-823f-80822c4efc91"
  },
  {
    "id": "5dee3136-3fb0-4d1b-8809-6462286aaec7",
    "name": "Chernyshevsk",
    "state_id": "9e5a8ce0-6d16-410e-823f-80822c4efc91"
  },
  {
    "id": "0ecb0b76-caee-4f51-ad87-b8bddd0e088a",
    "name": "Chita",
    "state_id": "9e5a8ce0-6d16-410e-823f-80822c4efc91"
  },
  {
    "id": "e7604d9c-98d4-4bc3-8575-fd74a6aee0ca",
    "name": "Chitinskiy Rayon",
    "state_id": "9e5a8ce0-6d16-410e-823f-80822c4efc91"
  },
  {
    "id": "db466ade-47e8-4d36-af92-15fcf89ac23d",
    "name": "Darasun",
    "state_id": "9e5a8ce0-6d16-410e-823f-80822c4efc91"
  },
  {
    "id": "cf37585a-f4df-411a-b79c-13472041fc88",
    "name": "Dauriya",
    "state_id": "9e5a8ce0-6d16-410e-823f-80822c4efc91"
  },
  {
    "id": "8f541892-e5b8-4761-83af-d51981361e9d",
    "name": "Domna",
    "state_id": "9e5a8ce0-6d16-410e-823f-80822c4efc91"
  },
  {
    "id": "68eca4a9-978c-412a-968a-f78b981dce8c",
    "name": "Drovyanaya",
    "state_id": "9e5a8ce0-6d16-410e-823f-80822c4efc91"
  },
  {
    "id": "8c836762-240b-492b-8c0b-b3dbb19843c3",
    "name": "Dul’durga",
    "state_id": "9e5a8ce0-6d16-410e-823f-80822c4efc91"
  },
  {
    "id": "ad5462e8-a19a-49e8-add8-9bd1dd1c48f2",
    "name": "Gazimuro-Zavodskiy Rayon",
    "state_id": "9e5a8ce0-6d16-410e-823f-80822c4efc91"
  },
  {
    "id": "995aaa87-a6e1-49a2-9680-140d52705c57",
    "name": "Gazimurskiy Zavod",
    "state_id": "9e5a8ce0-6d16-410e-823f-80822c4efc91"
  },
  {
    "id": "c9615b00-8770-4bfa-8d43-3dc2a65e7627",
    "name": "Kadaya",
    "state_id": "9e5a8ce0-6d16-410e-823f-80822c4efc91"
  },
  {
    "id": "cfe184fb-74a5-43c8-b09b-8edd2e9691f2",
    "name": "Kalanguy",
    "state_id": "9e5a8ce0-6d16-410e-823f-80822c4efc91"
  },
  {
    "id": "6ad09d71-4efb-4874-86c7-11a62ffcb69f",
    "name": "Kalga",
    "state_id": "9e5a8ce0-6d16-410e-823f-80822c4efc91"
  },
  {
    "id": "36a2867c-ee97-4590-a301-99e7c807a8a4",
    "name": "Karymskoye",
    "state_id": "9e5a8ce0-6d16-410e-823f-80822c4efc91"
  },
  {
    "id": "724191ec-fda7-4e90-b10c-f1e488cc4082",
    "name": "Khilok",
    "state_id": "9e5a8ce0-6d16-410e-823f-80822c4efc91"
  },
  {
    "id": "9b87fe7e-7095-4d71-8a2f-3060d7b21c7d",
    "name": "Kholbon",
    "state_id": "9e5a8ce0-6d16-410e-823f-80822c4efc91"
  },
  {
    "id": "4cf4f96f-93bf-4875-9a69-ba4a01754571",
    "name": "Klichka",
    "state_id": "9e5a8ce0-6d16-410e-823f-80822c4efc91"
  },
  {
    "id": "fc3ee005-123e-4154-b4cc-3d196e79db46",
    "name": "Klyuchevskiy",
    "state_id": "9e5a8ce0-6d16-410e-823f-80822c4efc91"
  },
  {
    "id": "85f40c56-dff9-4dbf-929a-e8427b70dec4",
    "name": "Kokuy",
    "state_id": "9e5a8ce0-6d16-410e-823f-80822c4efc91"
  },
  {
    "id": "1411248c-a935-405c-bf12-50aeadb8ffb0",
    "name": "Krasnokamensk",
    "state_id": "9e5a8ce0-6d16-410e-823f-80822c4efc91"
  },
  {
    "id": "5019afc0-d1b3-4f77-92d1-e5902ffff420",
    "name": "Krasnyy Chikoy",
    "state_id": "9e5a8ce0-6d16-410e-823f-80822c4efc91"
  },
  {
    "id": "2cb54a67-e744-43f7-a80f-e471ff1d52ca",
    "name": "Kuanda",
    "state_id": "9e5a8ce0-6d16-410e-823f-80822c4efc91"
  },
  {
    "id": "a3698dfd-4c62-453e-8867-7175e48eaa6f",
    "name": "Kurort-Darasun",
    "state_id": "9e5a8ce0-6d16-410e-823f-80822c4efc91"
  },
  {
    "id": "e6cbfd81-0489-4c25-ad8e-e3a1a3622cf7",
    "name": "Kyra",
    "state_id": "9e5a8ce0-6d16-410e-823f-80822c4efc91"
  },
  {
    "id": "4130dc1a-8bbf-4a55-9d97-d9b283280512",
    "name": "Makkaveyevo",
    "state_id": "9e5a8ce0-6d16-410e-823f-80822c4efc91"
  },
  {
    "id": "ff37aa34-a030-49da-8204-61d9d342a98f",
    "name": "Mogocha",
    "state_id": "9e5a8ce0-6d16-410e-823f-80822c4efc91"
  },
  {
    "id": "cbfa24a4-9a91-4dc8-8b3b-90fa561ed898",
    "name": "Mogoytuy",
    "state_id": "9e5a8ce0-6d16-410e-823f-80822c4efc91"
  },
  {
    "id": "b3558a66-e0fb-458f-b315-838af2ce0c2e",
    "name": "Mogzon",
    "state_id": "9e5a8ce0-6d16-410e-823f-80822c4efc91"
  },
  {
    "id": "f2d6e601-18ea-4517-8468-a1368af8e95a",
    "name": "Nerchinsk",
    "state_id": "9e5a8ce0-6d16-410e-823f-80822c4efc91"
  },
  {
    "id": "f1693011-35d1-434b-bd44-1433ae059f53",
    "name": "Nerchinskiy Zavod",
    "state_id": "9e5a8ce0-6d16-410e-823f-80822c4efc91"
  },
  {
    "id": "a76bba31-8e43-463c-8948-78de5fbf367e",
    "name": "Nerchinsko-Zavodskiy Rayon",
    "state_id": "9e5a8ce0-6d16-410e-823f-80822c4efc91"
  },
  {
    "id": "c081200d-10cd-493a-8c20-96a0376522de",
    "name": "Nizhniy Tsasuchey",
    "state_id": "9e5a8ce0-6d16-410e-823f-80822c4efc91"
  },
  {
    "id": "1dcc7c91-9ffa-4984-9ec5-9f2a677d8015",
    "name": "Novaya Chara",
    "state_id": "9e5a8ce0-6d16-410e-823f-80822c4efc91"
  },
  {
    "id": "fe6dffa3-cdcb-4161-becb-de6f0c02a10c",
    "name": "Novokruchininskiy",
    "state_id": "9e5a8ce0-6d16-410e-823f-80822c4efc91"
  },
  {
    "id": "2881acd8-b57f-4a5b-ad2b-e5aad8e18195",
    "name": "Novoorlovsk",
    "state_id": "9e5a8ce0-6d16-410e-823f-80822c4efc91"
  },
  {
    "id": "3d66bb3a-e506-4a14-988f-aae9fcc0920e",
    "name": "Novopavlovka",
    "state_id": "9e5a8ce0-6d16-410e-823f-80822c4efc91"
  },
  {
    "id": "f33a1546-362a-4b3a-a5ee-9d6cad8c6fb1",
    "name": "Olovyannaya",
    "state_id": "9e5a8ce0-6d16-410e-823f-80822c4efc91"
  },
  {
    "id": "aa4361d5-9a90-46e2-95c7-3981edf8a5f5",
    "name": "Olovyanninskiy Rayon",
    "state_id": "9e5a8ce0-6d16-410e-823f-80822c4efc91"
  },
  {
    "id": "44ee4b99-a744-482d-abf2-1f3b97dafc7b",
    "name": "Orlovskiy",
    "state_id": "9e5a8ce0-6d16-410e-823f-80822c4efc91"
  },
  {
    "id": "a27cb2e3-85d1-47fc-aff2-c073bfe80ff6",
    "name": "Pervomayskiy",
    "state_id": "9e5a8ce0-6d16-410e-823f-80822c4efc91"
  },
  {
    "id": "2a5dc776-1667-4bae-a3ac-d29471da2d62",
    "name": "Petrovsk-Zabaykal’skiy",
    "state_id": "9e5a8ce0-6d16-410e-823f-80822c4efc91"
  },
  {
    "id": "8f8960a9-8bdb-4a7f-a3e4-65388468f334",
    "name": "Priargunsk",
    "state_id": "9e5a8ce0-6d16-410e-823f-80822c4efc91"
  },
  {
    "id": "8d2318f3-06f3-4072-b60e-b0f6c1ee8eb3",
    "name": "Priargunskiy Rayon",
    "state_id": "9e5a8ce0-6d16-410e-823f-80822c4efc91"
  },
  {
    "id": "9949bacd-eb76-4485-8bac-c8f298e330fa",
    "name": "Priiskovyy",
    "state_id": "9e5a8ce0-6d16-410e-823f-80822c4efc91"
  },
  {
    "id": "4f601238-7a53-481b-9764-895e22bd8d99",
    "name": "Shelopugino",
    "state_id": "9e5a8ce0-6d16-410e-823f-80822c4efc91"
  },
  {
    "id": "9dda4682-0d2a-4330-9ede-df02922959ff",
    "name": "Shilka",
    "state_id": "9e5a8ce0-6d16-410e-823f-80822c4efc91"
  },
  {
    "id": "6c4778a5-b14b-4082-8ea4-7ba452cebd15",
    "name": "Shilkinskiy Rayon",
    "state_id": "9e5a8ce0-6d16-410e-823f-80822c4efc91"
  },
  {
    "id": "f6c8cdba-b4a1-4054-8e24-ca667a38decb",
    "name": "Smolenka",
    "state_id": "9e5a8ce0-6d16-410e-823f-80822c4efc91"
  },
  {
    "id": "12cc309b-dd21-4128-a71f-79c4d1f74e0c",
    "name": "Sretensk",
    "state_id": "9e5a8ce0-6d16-410e-823f-80822c4efc91"
  },
  {
    "id": "7c2d504a-46f3-4f07-bbaf-7ee7dbe00e0b",
    "name": "Sretenskiy Rayon",
    "state_id": "9e5a8ce0-6d16-410e-823f-80822c4efc91"
  },
  {
    "id": "92b78a9c-f5f2-467b-ba47-fe58332b8f69",
    "name": "Tarbagatay",
    "state_id": "9e5a8ce0-6d16-410e-823f-80822c4efc91"
  },
  {
    "id": "d97fc4ab-16c0-4756-a6d6-1dc445bfef52",
    "name": "Uletovskiy Rayon",
    "state_id": "9e5a8ce0-6d16-410e-823f-80822c4efc91"
  },
  {
    "id": "2f2f355d-9300-41b3-ab3e-f934926ff23c",
    "name": "Ulety",
    "state_id": "9e5a8ce0-6d16-410e-823f-80822c4efc91"
  },
  {
    "id": "33db6996-233c-4bde-bbf7-1dda8cdb3fc8",
    "name": "Ust’-Karsk",
    "state_id": "9e5a8ce0-6d16-410e-823f-80822c4efc91"
  },
  {
    "id": "1213d86f-758a-4442-8a01-c823c70bdacc",
    "name": "Verkh-Usugli",
    "state_id": "9e5a8ce0-6d16-410e-823f-80822c4efc91"
  },
  {
    "id": "95d86794-a3ea-433d-9eb5-e30ee792d764",
    "name": "Vershino-Darasunskiy",
    "state_id": "9e5a8ce0-6d16-410e-823f-80822c4efc91"
  },
  {
    "id": "5c7f108a-b043-416c-9ccf-b620033b0e53",
    "name": "Vershino-Shakhtaminskiy",
    "state_id": "9e5a8ce0-6d16-410e-823f-80822c4efc91"
  },
  {
    "id": "786b10a8-4c56-474a-920b-3e6895c9c8f3",
    "name": "Zabaykal’sk",
    "state_id": "9e5a8ce0-6d16-410e-823f-80822c4efc91"
  },
  {
    "id": "91b5fd3c-0be8-4324-85c2-549341aac719",
    "name": "Zhireken",
    "state_id": "9e5a8ce0-6d16-410e-823f-80822c4efc91"
  }
]