[
  {
    "id": "5f18dab0-1d52-4266-8845-b10d100c90ac",
    "name": "Banyliv",
    "state_id": "9e75543f-1a87-41c2-842b-e22144c9ad3f"
  },
  {
    "id": "aed44bd1-b4f7-4dec-8558-7b6fb361c10a",
    "name": "Berehomet",
    "state_id": "9e75543f-1a87-41c2-842b-e22144c9ad3f"
  },
  {
    "id": "b9f06459-549d-4d4c-8a3c-f1866cf601a4",
    "name": "Boyany",
    "state_id": "9e75543f-1a87-41c2-842b-e22144c9ad3f"
  },
  {
    "id": "189dbf59-133e-4610-b2bd-e65ee40124be",
    "name": "Chernivtsi",
    "state_id": "9e75543f-1a87-41c2-842b-e22144c9ad3f"
  },
  {
    "id": "0bb651cf-0dba-4907-bafd-fbc493cd242f",
    "name": "Chernivtsi Municipality",
    "state_id": "9e75543f-1a87-41c2-842b-e22144c9ad3f"
  },
  {
    "id": "5be97b7f-1f10-40fb-aaad-f396f82144db",
    "name": "Chudey",
    "state_id": "9e75543f-1a87-41c2-842b-e22144c9ad3f"
  },
  {
    "id": "52b53de6-b2e0-4f08-89c6-32eed4eda485",
    "name": "Davydivka",
    "state_id": "9e75543f-1a87-41c2-842b-e22144c9ad3f"
  },
  {
    "id": "56e9848f-e4dc-444b-b08a-fd27249fe10d",
    "name": "Hlyboka",
    "state_id": "9e75543f-1a87-41c2-842b-e22144c9ad3f"
  },
  {
    "id": "ea75c639-5d55-4200-851a-7f562dcb217e",
    "name": "Ispas",
    "state_id": "9e75543f-1a87-41c2-842b-e22144c9ad3f"
  },
  {
    "id": "8411acd8-faf6-4967-a25d-06cf58a73a3c",
    "name": "Kadubivtsi",
    "state_id": "9e75543f-1a87-41c2-842b-e22144c9ad3f"
  },
  {
    "id": "1e156992-48b2-4d76-b471-af04337ba22b",
    "name": "Khotyn",
    "state_id": "9e75543f-1a87-41c2-842b-e22144c9ad3f"
  },
  {
    "id": "893587e9-ca55-4ad8-b853-ce8073c7c9da",
    "name": "Klishkivtsi",
    "state_id": "9e75543f-1a87-41c2-842b-e22144c9ad3f"
  },
  {
    "id": "c876c57f-e3dc-4929-87e3-4a674033eea5",
    "name": "Kostryzhivka",
    "state_id": "9e75543f-1a87-41c2-842b-e22144c9ad3f"
  },
  {
    "id": "488a577a-e52e-465c-aa79-bee34caff585",
    "name": "Luzhany",
    "state_id": "9e75543f-1a87-41c2-842b-e22144c9ad3f"
  },
  {
    "id": "039194ef-9ac4-44c7-aaa3-31cb59c0b45c",
    "name": "Marshintsy",
    "state_id": "9e75543f-1a87-41c2-842b-e22144c9ad3f"
  },
  {
    "id": "ff5338ac-238b-4048-8ebe-7d840441b60d",
    "name": "Molodiya",
    "state_id": "9e75543f-1a87-41c2-842b-e22144c9ad3f"
  },
  {
    "id": "b794497c-55b6-48c4-b372-744b0d987875",
    "name": "Myhove",
    "state_id": "9e75543f-1a87-41c2-842b-e22144c9ad3f"
  },
  {
    "id": "2a027974-9e9f-45b8-b168-a40c3fbe86dd",
    "name": "Novodnistrovs’k",
    "state_id": "9e75543f-1a87-41c2-842b-e22144c9ad3f"
  },
  {
    "id": "5620cd30-be24-485a-974b-e72416ff77a7",
    "name": "Novoselytsya",
    "state_id": "9e75543f-1a87-41c2-842b-e22144c9ad3f"
  },
  {
    "id": "9bcc0a0f-dd25-41f7-b85d-ae6e31e121be",
    "name": "Nyzhni Petrivtsi",
    "state_id": "9e75543f-1a87-41c2-842b-e22144c9ad3f"
  },
  {
    "id": "be38eecb-b260-4ecb-831d-929d0a0d4ec9",
    "name": "Putyla Raion",
    "state_id": "9e75543f-1a87-41c2-842b-e22144c9ad3f"
  },
  {
    "id": "4c201601-b729-49b3-aa4c-73100ecaf285",
    "name": "Ropcha",
    "state_id": "9e75543f-1a87-41c2-842b-e22144c9ad3f"
  },
  {
    "id": "4dadd40a-5568-4e43-b32b-0f04323a510b",
    "name": "Shypyntsi",
    "state_id": "9e75543f-1a87-41c2-842b-e22144c9ad3f"
  },
  {
    "id": "f97c582f-c9e0-4d96-affc-068fbe52d492",
    "name": "Sokyryany",
    "state_id": "9e75543f-1a87-41c2-842b-e22144c9ad3f"
  },
  {
    "id": "1a85077c-2825-4a3a-a456-f62432a2f6d2",
    "name": "Vashkivtsi",
    "state_id": "9e75543f-1a87-41c2-842b-e22144c9ad3f"
  },
  {
    "id": "58a941f1-8e1b-45c2-8b4f-fa0cf7b29042",
    "name": "Verenchanka",
    "state_id": "9e75543f-1a87-41c2-842b-e22144c9ad3f"
  },
  {
    "id": "2e4a91b1-1250-4f0d-8e87-cc056d9f2cf3",
    "name": "Voloka",
    "state_id": "9e75543f-1a87-41c2-842b-e22144c9ad3f"
  },
  {
    "id": "6e7ad217-1a3c-4e32-8bcd-3a936c3861e3",
    "name": "Vyzhnytsya",
    "state_id": "9e75543f-1a87-41c2-842b-e22144c9ad3f"
  },
  {
    "id": "a78754b4-825e-41ca-a9d3-e368e59e5427",
    "name": "Yizhivtsi",
    "state_id": "9e75543f-1a87-41c2-842b-e22144c9ad3f"
  },
  {
    "id": "8bc5305b-49a5-49d3-a5a3-666c6e6be1f0",
    "name": "Zastavna",
    "state_id": "9e75543f-1a87-41c2-842b-e22144c9ad3f"
  }
]