[
  {
    "id": "19d30bdd-3ec2-42b9-9b28-d62beb6e4c34",
    "name": "Abapó",
    "state_id": "9eb3824e-bac6-4a1c-8374-a61992285530"
  },
  {
    "id": "d6aaa5bb-7ef2-49e5-8173-2a3a57565f4c",
    "name": "Ascención de Guarayos",
    "state_id": "9eb3824e-bac6-4a1c-8374-a61992285530"
  },
  {
    "id": "9ffdbb77-c024-4077-928c-4c82a4f6928e",
    "name": "Ascensión",
    "state_id": "9eb3824e-bac6-4a1c-8374-a61992285530"
  },
  {
    "id": "bbf026dd-9cee-4fcc-bd4a-3c7b933cf456",
    "name": "Boyuibe",
    "state_id": "9eb3824e-bac6-4a1c-8374-a61992285530"
  },
  {
    "id": "2850bc86-60d2-4937-b025-f40ef6507d5b",
    "name": "Buena Vista",
    "state_id": "9eb3824e-bac6-4a1c-8374-a61992285530"
  },
  {
    "id": "486e47a5-809f-43e3-a2d2-89f26b55cac1",
    "name": "Camiri",
    "state_id": "9eb3824e-bac6-4a1c-8374-a61992285530"
  },
  {
    "id": "ac229171-f4f9-4ce5-b22e-b6201fb82893",
    "name": "Charagua",
    "state_id": "9eb3824e-bac6-4a1c-8374-a61992285530"
  },
  {
    "id": "adf3e99b-5643-4871-be26-7e8fb7d9760f",
    "name": "Comarapa",
    "state_id": "9eb3824e-bac6-4a1c-8374-a61992285530"
  },
  {
    "id": "15457dcb-86d7-48e7-92f8-01275f27641a",
    "name": "Concepción",
    "state_id": "9eb3824e-bac6-4a1c-8374-a61992285530"
  },
  {
    "id": "51736a63-e586-4f5d-8964-d30a9a6bcaf7",
    "name": "Cotoca",
    "state_id": "9eb3824e-bac6-4a1c-8374-a61992285530"
  },
  {
    "id": "53677af7-e48a-4412-87d4-14a18389c58e",
    "name": "German Busch",
    "state_id": "9eb3824e-bac6-4a1c-8374-a61992285530"
  },
  {
    "id": "2a81d91e-2a3e-4b27-9f91-618d87612342",
    "name": "Guarayos",
    "state_id": "9eb3824e-bac6-4a1c-8374-a61992285530"
  },
  {
    "id": "9802cec8-d070-4761-8971-1dcea679bfcc",
    "name": "Jorochito",
    "state_id": "9eb3824e-bac6-4a1c-8374-a61992285530"
  },
  {
    "id": "53a1fc96-6ecb-4832-833f-16f1fc772df5",
    "name": "La Bélgica",
    "state_id": "9eb3824e-bac6-4a1c-8374-a61992285530"
  },
  {
    "id": "9d6407c0-5b32-4839-931c-79294544fc76",
    "name": "Limoncito",
    "state_id": "9eb3824e-bac6-4a1c-8374-a61992285530"
  },
  {
    "id": "76610fcd-7c4f-4bb9-aa89-885160b3af80",
    "name": "Los Negros",
    "state_id": "9eb3824e-bac6-4a1c-8374-a61992285530"
  },
  {
    "id": "66069293-e016-4306-83e5-ae110e4031dc",
    "name": "Mairana",
    "state_id": "9eb3824e-bac6-4a1c-8374-a61992285530"
  },
  {
    "id": "451ceb22-57ab-4450-96ac-e8844c54a3d1",
    "name": "Mineros",
    "state_id": "9eb3824e-bac6-4a1c-8374-a61992285530"
  },
  {
    "id": "477a90cb-d299-4443-b774-b9ab63908f97",
    "name": "Montero",
    "state_id": "9eb3824e-bac6-4a1c-8374-a61992285530"
  },
  {
    "id": "1c41de84-82a4-434d-b2e0-94a090c5b0e9",
    "name": "Okinawa Número Uno",
    "state_id": "9eb3824e-bac6-4a1c-8374-a61992285530"
  },
  {
    "id": "0dadfab1-459c-4334-b209-9bc7b5aeff02",
    "name": "Pailón",
    "state_id": "9eb3824e-bac6-4a1c-8374-a61992285530"
  },
  {
    "id": "16eb1687-3012-4a46-a26a-788a0d78ad15",
    "name": "Paurito",
    "state_id": "9eb3824e-bac6-4a1c-8374-a61992285530"
  },
  {
    "id": "e195c91e-017e-402d-9cf5-25569559233f",
    "name": "Portachuelo",
    "state_id": "9eb3824e-bac6-4a1c-8374-a61992285530"
  },
  {
    "id": "f6d0a5cf-3ec8-4e5b-a7b3-10bea002af64",
    "name": "Provincia Andrés Ibáñez",
    "state_id": "9eb3824e-bac6-4a1c-8374-a61992285530"
  },
  {
    "id": "6800871f-070e-490b-ace7-77e3ae0df80c",
    "name": "Provincia Ángel Sandoval",
    "state_id": "9eb3824e-bac6-4a1c-8374-a61992285530"
  },
  {
    "id": "849145f9-a511-4ac3-b7c9-d439bc5c6c23",
    "name": "Provincia Chiquitos",
    "state_id": "9eb3824e-bac6-4a1c-8374-a61992285530"
  },
  {
    "id": "400bd7ac-d113-40a0-9fd8-5710a46a31a6",
    "name": "Provincia Cordillera",
    "state_id": "9eb3824e-bac6-4a1c-8374-a61992285530"
  },
  {
    "id": "e10e5a5a-08f8-4bc8-a77e-09c1853eccc9",
    "name": "Provincia Florida",
    "state_id": "9eb3824e-bac6-4a1c-8374-a61992285530"
  },
  {
    "id": "9352e72c-e0b2-4087-bc58-8ddf546811f5",
    "name": "Provincia Ichilo",
    "state_id": "9eb3824e-bac6-4a1c-8374-a61992285530"
  },
  {
    "id": "373b8802-59ca-4377-9635-ea726b178b2d",
    "name": "Provincia Manuel María Caballero",
    "state_id": "9eb3824e-bac6-4a1c-8374-a61992285530"
  },
  {
    "id": "fc346084-1fe3-4998-a5c1-ab70d2c69570",
    "name": "Provincia Ñuflo de Chávez",
    "state_id": "9eb3824e-bac6-4a1c-8374-a61992285530"
  },
  {
    "id": "43413955-dbbe-4b31-96e4-bc8e314e1055",
    "name": "Provincia Santiesteban",
    "state_id": "9eb3824e-bac6-4a1c-8374-a61992285530"
  },
  {
    "id": "e0f1e19a-c721-41c9-906c-18e27ba6ec3b",
    "name": "Provincia Sara",
    "state_id": "9eb3824e-bac6-4a1c-8374-a61992285530"
  },
  {
    "id": "dc52de19-58f3-4049-976f-bf9e7ec7832c",
    "name": "Provincia Vallegrande",
    "state_id": "9eb3824e-bac6-4a1c-8374-a61992285530"
  },
  {
    "id": "36b67450-0db6-4d03-8ac8-ddf301903411",
    "name": "Provincia Velasco",
    "state_id": "9eb3824e-bac6-4a1c-8374-a61992285530"
  },
  {
    "id": "076b38e8-61a2-42cf-b594-0ebb86cf8816",
    "name": "Provincia Warnes",
    "state_id": "9eb3824e-bac6-4a1c-8374-a61992285530"
  },
  {
    "id": "ad36ff26-7213-4447-b236-c85509a4c7c7",
    "name": "Puerto Quijarro",
    "state_id": "9eb3824e-bac6-4a1c-8374-a61992285530"
  },
  {
    "id": "10ac1a1c-5f7f-4621-bd96-d4481ff8ff17",
    "name": "Puesto de Pailas",
    "state_id": "9eb3824e-bac6-4a1c-8374-a61992285530"
  },
  {
    "id": "3422a7cb-b9ed-4001-ac18-b664b6902fab",
    "name": "Roboré",
    "state_id": "9eb3824e-bac6-4a1c-8374-a61992285530"
  },
  {
    "id": "f5cbc08b-6ab8-4a76-9c98-a43926ed22c1",
    "name": "Samaipata",
    "state_id": "9eb3824e-bac6-4a1c-8374-a61992285530"
  },
  {
    "id": "592461e6-4fb7-4c11-a878-380ffd655c4d",
    "name": "San Carlos",
    "state_id": "9eb3824e-bac6-4a1c-8374-a61992285530"
  },
  {
    "id": "c4a30b2c-ec8f-42cc-99e8-5d0d7a6784f0",
    "name": "San Ignacio de Velasco",
    "state_id": "9eb3824e-bac6-4a1c-8374-a61992285530"
  },
  {
    "id": "1d4153c4-8df6-44b9-aec5-2a2475d2cc56",
    "name": "San Juan del Surutú",
    "state_id": "9eb3824e-bac6-4a1c-8374-a61992285530"
  },
  {
    "id": "c1e815cf-d0c3-4d4f-8832-c2610092492b",
    "name": "San Julian",
    "state_id": "9eb3824e-bac6-4a1c-8374-a61992285530"
  },
  {
    "id": "1ac9f144-e1a6-447a-b9c9-46fbdf5298dc",
    "name": "San Matías",
    "state_id": "9eb3824e-bac6-4a1c-8374-a61992285530"
  },
  {
    "id": "8738e036-94e2-411e-b2e5-ff5f03f1fb9b",
    "name": "San Pedro",
    "state_id": "9eb3824e-bac6-4a1c-8374-a61992285530"
  },
  {
    "id": "442afe64-dcbb-4b52-a164-10bb329a8ece",
    "name": "Santa Cruz de la Sierra",
    "state_id": "9eb3824e-bac6-4a1c-8374-a61992285530"
  },
  {
    "id": "eaea46b1-b45e-4d89-91e2-ebde1c9c2fb9",
    "name": "Santa Rita",
    "state_id": "9eb3824e-bac6-4a1c-8374-a61992285530"
  },
  {
    "id": "e32dec3e-ca97-47ed-b572-a67187abfc5a",
    "name": "Santa Rosa del Sara",
    "state_id": "9eb3824e-bac6-4a1c-8374-a61992285530"
  },
  {
    "id": "ee42cb7f-5f45-4a9f-b470-e09585746ce2",
    "name": "Santiago del Torno",
    "state_id": "9eb3824e-bac6-4a1c-8374-a61992285530"
  },
  {
    "id": "c70af51e-b0f2-4174-85ac-b8df6a7a71b2",
    "name": "Urubichá",
    "state_id": "9eb3824e-bac6-4a1c-8374-a61992285530"
  },
  {
    "id": "1b209deb-5738-4752-ad80-91964d2e495a",
    "name": "Vallegrande",
    "state_id": "9eb3824e-bac6-4a1c-8374-a61992285530"
  },
  {
    "id": "7ee79c79-aeaa-47d0-88a4-f5a1ab6c9816",
    "name": "Villa Yapacaní",
    "state_id": "9eb3824e-bac6-4a1c-8374-a61992285530"
  },
  {
    "id": "d078fbac-a713-4a42-a7ed-ee25f7c043ec",
    "name": "Warnes",
    "state_id": "9eb3824e-bac6-4a1c-8374-a61992285530"
  }
]