[
  {
    "id": "dcbcd34f-4183-4504-be9b-a1f2f5b816c5",
    "name": "Choibalsan",
    "state_id": "9f6b5ff0-8f00-4636-918b-a89ee7f4bf3b"
  },
  {
    "id": "1498df12-710a-4303-9e4d-ddc1e7cbcb74",
    "name": "Ereencav",
    "state_id": "9f6b5ff0-8f00-4636-918b-a89ee7f4bf3b"
  }
]