[
  {
    "id": "b51db53a-84fd-4b4d-8052-edb2417f0df9",
    "name": "1ra. Sección de Izapa",
    "state_id": "9fcf35a9-7d34-404f-a7bf-d0f55af11a12"
  },
  {
    "id": "c0b4e5fa-9601-46b7-9a55-04bdc23b3c7b",
    "name": "2da. Sección de Medio Monte",
    "state_id": "9fcf35a9-7d34-404f-a7bf-d0f55af11a12"
  },
  {
    "id": "b73ea5f6-eb55-4849-90a0-54b61e38a241",
    "name": "Abasolo",
    "state_id": "9fcf35a9-7d34-404f-a7bf-d0f55af11a12"
  },
  {
    "id": "a203a0f3-2c90-43f0-beb0-1f56c45cb133",
    "name": "Acacoyagua",
    "state_id": "9fcf35a9-7d34-404f-a7bf-d0f55af11a12"
  },
  {
    "id": "eb7a290e-c457-4e9a-a1d6-04120c33ea2d",
    "name": "Acala",
    "state_id": "9fcf35a9-7d34-404f-a7bf-d0f55af11a12"
  },
  {
    "id": "43ab9a4c-b755-4b8b-a5cc-28a2f1f95681",
    "name": "Acapetahua",
    "state_id": "9fcf35a9-7d34-404f-a7bf-d0f55af11a12"
  },
  {
    "id": "e1cc8c20-bfa1-4b6f-b430-817522464e6a",
    "name": "Adolfo López Mateos",
    "state_id": "9fcf35a9-7d34-404f-a7bf-d0f55af11a12"
  },
  {
    "id": "7de22d6e-5537-4d4e-9cdf-8ef2aacbf1cb",
    "name": "Agrónomos Mexicanos",
    "state_id": "9fcf35a9-7d34-404f-a7bf-d0f55af11a12"
  },
  {
    "id": "d43ae5b3-98bf-4f17-8650-14cb6cfa2bdc",
    "name": "Agua Azul",
    "state_id": "9fcf35a9-7d34-404f-a7bf-d0f55af11a12"
  },
  {
    "id": "281d6592-c0e6-4d74-9c81-87fddc653df3",
    "name": "Agua Blanca Serranía",
    "state_id": "9fcf35a9-7d34-404f-a7bf-d0f55af11a12"
  },
  {
    "id": "3c931b4a-a2d3-450d-955b-3c9834fe1851",
    "name": "Agua Zarca",
    "state_id": "9fcf35a9-7d34-404f-a7bf-d0f55af11a12"
  },
  {
    "id": "2c58230a-9b03-4bac-99d5-e699dcf2f7b2",
    "name": "Aguacatenango",
    "state_id": "9fcf35a9-7d34-404f-a7bf-d0f55af11a12"
  },
  {
    "id": "53da5909-c599-4b82-89f8-1f9b7d8318ab",
    "name": "Agustín de Iturbide",
    "state_id": "9fcf35a9-7d34-404f-a7bf-d0f55af11a12"
  },
  {
    "id": "d784c8fa-14a5-478e-85c5-a1702851c1e0",
    "name": "Ahuacatlán",
    "state_id": "9fcf35a9-7d34-404f-a7bf-d0f55af11a12"
  },
  {
    "id": "73352d30-e545-4863-94d8-9b48d2cfd87b",
    "name": "Ajilhó",
    "state_id": "9fcf35a9-7d34-404f-a7bf-d0f55af11a12"
  },
  {
    "id": "bacb3d24-add5-46f0-bdf9-e4977a8b4bbc",
    "name": "Aldama",
    "state_id": "9fcf35a9-7d34-404f-a7bf-d0f55af11a12"
  },
  {
    "id": "a47c66f4-729c-41a2-8f72-a63f05975f9d",
    "name": "Alfonso Moguel",
    "state_id": "9fcf35a9-7d34-404f-a7bf-d0f55af11a12"
  },
  {
    "id": "cb246aff-7a5f-4e94-afd3-4e339b05840c",
    "name": "Altamirano",
    "state_id": "9fcf35a9-7d34-404f-a7bf-d0f55af11a12"
  },
  {
    "id": "e91fcce8-d74d-4850-970e-c7a706891d3c",
    "name": "Álvaro Obregón",
    "state_id": "9fcf35a9-7d34-404f-a7bf-d0f55af11a12"
  },
  {
    "id": "93c06f3e-c2b3-4435-adb4-9bb1ae1f44d9",
    "name": "Amado Nervo",
    "state_id": "9fcf35a9-7d34-404f-a7bf-d0f55af11a12"
  },
  {
    "id": "1f6d7e07-d9c2-4e6d-a969-ddc72705f557",
    "name": "Amatán",
    "state_id": "9fcf35a9-7d34-404f-a7bf-d0f55af11a12"
  },
  {
    "id": "3b38b738-79c4-4d7d-b8cd-85830cb01569",
    "name": "Amatenango de la Frontera",
    "state_id": "9fcf35a9-7d34-404f-a7bf-d0f55af11a12"
  },
  {
    "id": "ca1314b5-e123-497c-8ef7-7829dab23f65",
    "name": "Amatenango del Valle",
    "state_id": "9fcf35a9-7d34-404f-a7bf-d0f55af11a12"
  },
  {
    "id": "a65165f9-29f1-445b-9420-7e237b36584e",
    "name": "América Libre",
    "state_id": "9fcf35a9-7d34-404f-a7bf-d0f55af11a12"
  },
  {
    "id": "5888a7f8-f21c-436d-a7af-4184d6a3cdbe",
    "name": "Ángel Albino Corzo",
    "state_id": "9fcf35a9-7d34-404f-a7bf-d0f55af11a12"
  },
  {
    "id": "aa270447-b856-4fdf-818d-f9b8b64b1af5",
    "name": "Ángel Albino Corzo (Guadalupe)",
    "state_id": "9fcf35a9-7d34-404f-a7bf-d0f55af11a12"
  },
  {
    "id": "f8cd53e8-d6a5-4948-8280-87f42314321e",
    "name": "Apas",
    "state_id": "9fcf35a9-7d34-404f-a7bf-d0f55af11a12"
  },
  {
    "id": "b34dcd5b-ebb0-4819-9d20-80d013b9ba18",
    "name": "Aquiles Serdán",
    "state_id": "9fcf35a9-7d34-404f-a7bf-d0f55af11a12"
  },
  {
    "id": "a4741b28-bb2a-4f2e-9d47-b2e03d339ea9",
    "name": "Arimatea",
    "state_id": "9fcf35a9-7d34-404f-a7bf-d0f55af11a12"
  },
  {
    "id": "b5c18b2b-4ba9-4a8d-acaa-65f5fe4de4e9",
    "name": "Arriaga",
    "state_id": "9fcf35a9-7d34-404f-a7bf-d0f55af11a12"
  },
  {
    "id": "2154eb13-01a9-48c2-9a67-dc8458bfc6bf",
    "name": "Arroyo Grande",
    "state_id": "9fcf35a9-7d34-404f-a7bf-d0f55af11a12"
  },
  {
    "id": "c3fe4d64-cb6f-45fd-a011-20874c02c5ee",
    "name": "Arroyo Granizo",
    "state_id": "9fcf35a9-7d34-404f-a7bf-d0f55af11a12"
  },
  {
    "id": "b2a472c7-0181-43c6-bcb4-d631a611121d",
    "name": "Arroyo Palenque",
    "state_id": "9fcf35a9-7d34-404f-a7bf-d0f55af11a12"
  },
  {
    "id": "4de8326e-f5f7-4f2c-a8ec-03cd39444dc2",
    "name": "Arvenza Uno",
    "state_id": "9fcf35a9-7d34-404f-a7bf-d0f55af11a12"
  },
  {
    "id": "0a31f4a3-c8be-4936-9e6e-1f3fb96b40d5",
    "name": "Aurora Ermita",
    "state_id": "9fcf35a9-7d34-404f-a7bf-d0f55af11a12"
  },
  {
    "id": "e3eb37d7-69c7-4f09-9052-9584a9da44bc",
    "name": "Aurora Esquipulas",
    "state_id": "9fcf35a9-7d34-404f-a7bf-d0f55af11a12"
  },
  {
    "id": "ea5596db-8c6b-4914-a318-eba969c6ebaf",
    "name": "Azteca",
    "state_id": "9fcf35a9-7d34-404f-a7bf-d0f55af11a12"
  },
  {
    "id": "00bba336-3db7-4153-bfc1-747b33487e58",
    "name": "Aztlán",
    "state_id": "9fcf35a9-7d34-404f-a7bf-d0f55af11a12"
  },
  {
    "id": "6c21cfe8-e969-48c2-8787-4c51770ab236",
    "name": "Bachajón",
    "state_id": "9fcf35a9-7d34-404f-a7bf-d0f55af11a12"
  },
  {
    "id": "9efba088-90bd-4389-8b0f-9a12ab933ffe",
    "name": "Bajucu",
    "state_id": "9fcf35a9-7d34-404f-a7bf-d0f55af11a12"
  },
  {
    "id": "b5bdaf4e-c74c-4c31-828c-df96c686a523",
    "name": "Bautista Chico",
    "state_id": "9fcf35a9-7d34-404f-a7bf-d0f55af11a12"
  },
  {
    "id": "0f19bda5-4a75-43ad-89b7-a031c614eb42",
    "name": "Bejucal de Ocampo",
    "state_id": "9fcf35a9-7d34-404f-a7bf-d0f55af11a12"
  },
  {
    "id": "b3f6d238-933b-43d3-87df-ec43aa7e79c5",
    "name": "Belisario Domínguez",
    "state_id": "9fcf35a9-7d34-404f-a7bf-d0f55af11a12"
  },
  {
    "id": "8bc3f7eb-2d28-4e4f-a9b2-c338981a9365",
    "name": "Bella Vista",
    "state_id": "9fcf35a9-7d34-404f-a7bf-d0f55af11a12"
  },
  {
    "id": "eab80449-ba34-4eb9-a7d0-815edaffb651",
    "name": "Benemérito de las Américas",
    "state_id": "9fcf35a9-7d34-404f-a7bf-d0f55af11a12"
  },
  {
    "id": "fb53d6e5-a586-4550-ba51-fc079c191afb",
    "name": "Benito Juárez",
    "state_id": "9fcf35a9-7d34-404f-a7bf-d0f55af11a12"
  },
  {
    "id": "808b0b32-cd8f-452a-922a-a578414d0f49",
    "name": "Berriozábal",
    "state_id": "9fcf35a9-7d34-404f-a7bf-d0f55af11a12"
  },
  {
    "id": "0b22ce7a-ba15-457a-b0f8-8d6220bdaed0",
    "name": "Betania",
    "state_id": "9fcf35a9-7d34-404f-a7bf-d0f55af11a12"
  },
  {
    "id": "a0bf40f8-4253-4fe7-8a4e-95af1c1f5435",
    "name": "Bochil",
    "state_id": "9fcf35a9-7d34-404f-a7bf-d0f55af11a12"
  },
  {
    "id": "048a18ba-712a-4452-a0a3-94963a619e2f",
    "name": "Bochojbo Alto",
    "state_id": "9fcf35a9-7d34-404f-a7bf-d0f55af11a12"
  },
  {
    "id": "d86f907e-3401-4a17-85c3-7859eb98bb1b",
    "name": "Brisas Barra de Suchiate",
    "state_id": "9fcf35a9-7d34-404f-a7bf-d0f55af11a12"
  },
  {
    "id": "971de09c-9230-4678-936d-227e6db18874",
    "name": "Buenavista",
    "state_id": "9fcf35a9-7d34-404f-a7bf-d0f55af11a12"
  },
  {
    "id": "dc75dee8-c951-4496-bd5e-8b266974b76d",
    "name": "Buenavista (Matasanos)",
    "state_id": "9fcf35a9-7d34-404f-a7bf-d0f55af11a12"
  },
  {
    "id": "9162bd23-4acc-4227-b5c6-5286a1acfe84",
    "name": "Buenos Aires",
    "state_id": "9fcf35a9-7d34-404f-a7bf-d0f55af11a12"
  },
  {
    "id": "11081a1f-693b-4fee-a6e8-631f1b07abc6",
    "name": "Cabeza de Toro",
    "state_id": "9fcf35a9-7d34-404f-a7bf-d0f55af11a12"
  },
  {
    "id": "d32fa6f4-337d-4c36-b8f2-88c89fd5faaa",
    "name": "Cacahoatán",
    "state_id": "9fcf35a9-7d34-404f-a7bf-d0f55af11a12"
  },
  {
    "id": "746de4ef-735a-4298-b7c8-4d05a6848267",
    "name": "Cacaté",
    "state_id": "9fcf35a9-7d34-404f-a7bf-d0f55af11a12"
  },
  {
    "id": "ed920934-c852-4b2d-8546-a991f0be00e6",
    "name": "Cálido",
    "state_id": "9fcf35a9-7d34-404f-a7bf-d0f55af11a12"
  },
  {
    "id": "3d6491e1-f0c8-4cd0-87e1-497eb9bc696d",
    "name": "Calzada Larga",
    "state_id": "9fcf35a9-7d34-404f-a7bf-d0f55af11a12"
  },
  {
    "id": "1130cca9-ef9d-4c48-b6e8-6ffc3e2d91e6",
    "name": "Cancuc",
    "state_id": "9fcf35a9-7d34-404f-a7bf-d0f55af11a12"
  },
  {
    "id": "2557054a-26ab-41a5-9f30-025a55fd0391",
    "name": "Cantioc",
    "state_id": "9fcf35a9-7d34-404f-a7bf-d0f55af11a12"
  },
  {
    "id": "8d6c5dc4-3588-4337-97bc-baa6a890ce9a",
    "name": "Cantón las Delicias",
    "state_id": "9fcf35a9-7d34-404f-a7bf-d0f55af11a12"
  },
  {
    "id": "06845c5a-40d6-4231-82cb-83febabad91d",
    "name": "Cantón Rancho Nuevo",
    "state_id": "9fcf35a9-7d34-404f-a7bf-d0f55af11a12"
  },
  {
    "id": "925b8333-c17a-4f4c-8116-2c6a3657baf2",
    "name": "Cantón Villaflor",
    "state_id": "9fcf35a9-7d34-404f-a7bf-d0f55af11a12"
  },
  {
    "id": "7ac463dd-7345-4b09-b249-a052ecb1245f",
    "name": "Carmen Yalchuch",
    "state_id": "9fcf35a9-7d34-404f-a7bf-d0f55af11a12"
  },
  {
    "id": "25c94380-b07e-4ce3-a47d-e0ff764288af",
    "name": "Carmen Zacatal",
    "state_id": "9fcf35a9-7d34-404f-a7bf-d0f55af11a12"
  },
  {
    "id": "93c60ea6-cccb-4a44-b2f2-b090f1e8d9a0",
    "name": "Carrillo Puerto",
    "state_id": "9fcf35a9-7d34-404f-a7bf-d0f55af11a12"
  },
  {
    "id": "a17f481c-9791-42c0-81a8-e95530716a92",
    "name": "Cash",
    "state_id": "9fcf35a9-7d34-404f-a7bf-d0f55af11a12"
  },
  {
    "id": "68a03216-7fd9-4d58-b564-40d63f17d232",
    "name": "Catazajá",
    "state_id": "9fcf35a9-7d34-404f-a7bf-d0f55af11a12"
  },
  {
    "id": "848fe356-bcb9-4053-9f4e-cf8784d59b4d",
    "name": "Catishtic",
    "state_id": "9fcf35a9-7d34-404f-a7bf-d0f55af11a12"
  },
  {
    "id": "050394e4-510d-456c-a157-e223b9b94f85",
    "name": "Cebadilla 1ra. Sección",
    "state_id": "9fcf35a9-7d34-404f-a7bf-d0f55af11a12"
  },
  {
    "id": "53569211-675e-42b3-96d4-7a5cc3b18bd4",
    "name": "Cenobio Aguilar (La Trinidad)",
    "state_id": "9fcf35a9-7d34-404f-a7bf-d0f55af11a12"
  },
  {
    "id": "72c5952b-5dc0-470b-8ec5-7d29754b5388",
    "name": "Cereso 14 (El Amate)",
    "state_id": "9fcf35a9-7d34-404f-a7bf-d0f55af11a12"
  },
  {
    "id": "3ca5de32-3b12-425c-b928-328d21809802",
    "name": "Chacaljocóm",
    "state_id": "9fcf35a9-7d34-404f-a7bf-d0f55af11a12"
  },
  {
    "id": "972bc076-6ef4-45e5-a616-b2ff074a941e",
    "name": "Chacoma",
    "state_id": "9fcf35a9-7d34-404f-a7bf-d0f55af11a12"
  },
  {
    "id": "e9934b8c-2d54-4378-810d-35f367764375",
    "name": "Chalam",
    "state_id": "9fcf35a9-7d34-404f-a7bf-d0f55af11a12"
  },
  {
    "id": "e2db3efa-c82a-4977-83f0-c2e2f7dbd80e",
    "name": "Chalchihuitán",
    "state_id": "9fcf35a9-7d34-404f-a7bf-d0f55af11a12"
  },
  {
    "id": "c824c370-a12b-49d7-9c4f-412aaeb20649",
    "name": "Chamula",
    "state_id": "9fcf35a9-7d34-404f-a7bf-d0f55af11a12"
  },
  {
    "id": "8e8dafd1-f4bd-4488-b06c-89ff79ce7238",
    "name": "Chamulapita",
    "state_id": "9fcf35a9-7d34-404f-a7bf-d0f55af11a12"
  },
  {
    "id": "3cb459d3-f2cb-4eda-a0eb-cbfdf9709882",
    "name": "Chanal",
    "state_id": "9fcf35a9-7d34-404f-a7bf-d0f55af11a12"
  },
  {
    "id": "a6af5a18-ea16-4caf-9e14-bafdc8d512e7",
    "name": "Chapallal Grande",
    "state_id": "9fcf35a9-7d34-404f-a7bf-d0f55af11a12"
  },
  {
    "id": "3a0fe995-5c82-4ad3-bc55-c9d22ed9feb4",
    "name": "Chapultenango",
    "state_id": "9fcf35a9-7d34-404f-a7bf-d0f55af11a12"
  },
  {
    "id": "d1bf8f0b-2d93-414e-9369-2c403ee2539e",
    "name": "Chiapa de Corzo",
    "state_id": "9fcf35a9-7d34-404f-a7bf-d0f55af11a12"
  },
  {
    "id": "213ccae5-26c0-4f5a-9069-d72fb3be8d6f",
    "name": "Chiapilla",
    "state_id": "9fcf35a9-7d34-404f-a7bf-d0f55af11a12"
  },
  {
    "id": "7882e77f-fa3a-4bb3-ad85-7f63af94f588",
    "name": "Chicoasén",
    "state_id": "9fcf35a9-7d34-404f-a7bf-d0f55af11a12"
  },
  {
    "id": "d64c6279-ac75-40ae-b10f-02405f42c24e",
    "name": "Chicomuselo",
    "state_id": "9fcf35a9-7d34-404f-a7bf-d0f55af11a12"
  },
  {
    "id": "73950c89-c4b2-439a-8bb3-a1014f6ee2ec",
    "name": "Chicumtantic",
    "state_id": "9fcf35a9-7d34-404f-a7bf-d0f55af11a12"
  },
  {
    "id": "f596a5c7-82a4-4e56-bf75-2ad7853fbdf1",
    "name": "Chihuahua",
    "state_id": "9fcf35a9-7d34-404f-a7bf-d0f55af11a12"
  },
  {
    "id": "56f354ab-c670-4e1d-bf43-699b660c3e2d",
    "name": "Chiloljá",
    "state_id": "9fcf35a9-7d34-404f-a7bf-d0f55af11a12"
  },
  {
    "id": "8981af17-437f-4ba9-85ef-d98c5900e848",
    "name": "Chilón",
    "state_id": "9fcf35a9-7d34-404f-a7bf-d0f55af11a12"
  },
  {
    "id": "82aea40c-749e-4434-a9c9-3577bef005fe",
    "name": "Chimhucum",
    "state_id": "9fcf35a9-7d34-404f-a7bf-d0f55af11a12"
  },
  {
    "id": "7e206319-2e34-41c7-a7be-6378816a2288",
    "name": "Chiquinival",
    "state_id": "9fcf35a9-7d34-404f-a7bf-d0f55af11a12"
  },
  {
    "id": "d89c20a5-8053-4a1f-98e5-740b35b7c50c",
    "name": "Chiquinshulum",
    "state_id": "9fcf35a9-7d34-404f-a7bf-d0f55af11a12"
  },
  {
    "id": "20cca35d-b9bd-4b98-bc51-7e97fca012b9",
    "name": "Chixtontic",
    "state_id": "9fcf35a9-7d34-404f-a7bf-d0f55af11a12"
  },
  {
    "id": "ff7a59e0-eba5-46cb-8c5e-e1300752f7b4",
    "name": "Chulum Cárdenas",
    "state_id": "9fcf35a9-7d34-404f-a7bf-d0f55af11a12"
  },
  {
    "id": "836a9c8d-d4f9-4107-b342-86c003500c4f",
    "name": "Chulum Juárez",
    "state_id": "9fcf35a9-7d34-404f-a7bf-d0f55af11a12"
  },
  {
    "id": "83a66d68-19f8-41a7-a3ca-ed6efe01f1af",
    "name": "Cintalapa",
    "state_id": "9fcf35a9-7d34-404f-a7bf-d0f55af11a12"
  },
  {
    "id": "4717f6c8-1ed3-412c-9816-dddce2721b7a",
    "name": "Cintalapa de Figueroa",
    "state_id": "9fcf35a9-7d34-404f-a7bf-d0f55af11a12"
  },
  {
    "id": "96d24690-dd2a-4d9b-98ba-35657a24d521",
    "name": "Ciudad Cuauhtémoc",
    "state_id": "9fcf35a9-7d34-404f-a7bf-d0f55af11a12"
  },
  {
    "id": "87e51456-219f-486c-b5f9-11bf753aaf92",
    "name": "Ciudad Hidalgo",
    "state_id": "9fcf35a9-7d34-404f-a7bf-d0f55af11a12"
  },
  {
    "id": "d9b14329-5a3e-48fe-8f93-ae1d8c84c800",
    "name": "Coapilla",
    "state_id": "9fcf35a9-7d34-404f-a7bf-d0f55af11a12"
  },
  {
    "id": "a1cd3c41-ab41-42fa-bd95-719474a97b00",
    "name": "Colonia Obrera",
    "state_id": "9fcf35a9-7d34-404f-a7bf-d0f55af11a12"
  },
  {
    "id": "5042dcbb-a6b6-4386-aa19-1a5a18d9a2ef",
    "name": "Comalapa",
    "state_id": "9fcf35a9-7d34-404f-a7bf-d0f55af11a12"
  },
  {
    "id": "7eccd7d6-fa3e-4483-9c9c-0a78778c3c21",
    "name": "Comitán",
    "state_id": "9fcf35a9-7d34-404f-a7bf-d0f55af11a12"
  },
  {
    "id": "a896cbc1-f197-4d63-a66c-976207f5abf0",
    "name": "Concepción",
    "state_id": "9fcf35a9-7d34-404f-a7bf-d0f55af11a12"
  },
  {
    "id": "2de4e4b7-da8a-4fc1-8594-16095a0d041c",
    "name": "Congregación Reforma",
    "state_id": "9fcf35a9-7d34-404f-a7bf-d0f55af11a12"
  },
  {
    "id": "b2dc676b-9fda-4d96-9b31-7cfa6a5f02a9",
    "name": "Constitución",
    "state_id": "9fcf35a9-7d34-404f-a7bf-d0f55af11a12"
  },
  {
    "id": "993815b6-d0ef-4a93-a9ef-5e895dae5ee9",
    "name": "Copainalá",
    "state_id": "9fcf35a9-7d34-404f-a7bf-d0f55af11a12"
  },
  {
    "id": "0624a580-74b6-4551-88fb-f0f277ba8276",
    "name": "Copoya",
    "state_id": "9fcf35a9-7d34-404f-a7bf-d0f55af11a12"
  },
  {
    "id": "4c49c0e0-f06c-47ad-8b55-d0a05bd85d7d",
    "name": "Cristóbal Colón",
    "state_id": "9fcf35a9-7d34-404f-a7bf-d0f55af11a12"
  },
  {
    "id": "b0b8eb77-2066-4c42-8186-67429d99cbb3",
    "name": "Cristóbal Obregón",
    "state_id": "9fcf35a9-7d34-404f-a7bf-d0f55af11a12"
  },
  {
    "id": "5c61f03c-446b-4384-9b61-d7861ecde062",
    "name": "Cruztón",
    "state_id": "9fcf35a9-7d34-404f-a7bf-d0f55af11a12"
  },
  {
    "id": "6837b0e4-e366-475b-9572-0da159e183e4",
    "name": "Cuauhtémoc",
    "state_id": "9fcf35a9-7d34-404f-a7bf-d0f55af11a12"
  },
  {
    "id": "b5042a84-aa7d-42ef-9aeb-2a923ca0e0e9",
    "name": "Cuchulumtic",
    "state_id": "9fcf35a9-7d34-404f-a7bf-d0f55af11a12"
  },
  {
    "id": "739b52ab-f2ea-4c0c-9578-48a28abad655",
    "name": "Damasco",
    "state_id": "9fcf35a9-7d34-404f-a7bf-d0f55af11a12"
  },
  {
    "id": "578ef93b-a101-4441-8d65-3d8cf2c69c06",
    "name": "Diamante de Echeverría",
    "state_id": "9fcf35a9-7d34-404f-a7bf-d0f55af11a12"
  },
  {
    "id": "9479d835-9f43-429b-90c9-47ec06e0bb6d",
    "name": "Dieciséis de Septiembre",
    "state_id": "9fcf35a9-7d34-404f-a7bf-d0f55af11a12"
  },
  {
    "id": "8798f96e-fa51-42aa-8bff-90b7c053902a",
    "name": "Doctor Belisario Domínguez (La Barra)",
    "state_id": "9fcf35a9-7d34-404f-a7bf-d0f55af11a12"
  },
  {
    "id": "9e15ce8f-44a3-4358-899f-2f842d20e7b0",
    "name": "Doctor Domingo Chanona",
    "state_id": "9fcf35a9-7d34-404f-a7bf-d0f55af11a12"
  },
  {
    "id": "86aebd7a-0ed3-4b95-90c3-1fc011874f2d",
    "name": "Doctor Rodulfo Figueroa (Tierra Blanca)",
    "state_id": "9fcf35a9-7d34-404f-a7bf-d0f55af11a12"
  },
  {
    "id": "c4508ed7-c36b-4b71-818d-236f9a0c091c",
    "name": "Doctor Samuel León Brindis",
    "state_id": "9fcf35a9-7d34-404f-a7bf-d0f55af11a12"
  },
  {
    "id": "7662cf29-5b67-4a98-b161-fb916561ccef",
    "name": "Dolores Jaltenango",
    "state_id": "9fcf35a9-7d34-404f-a7bf-d0f55af11a12"
  },
  {
    "id": "fe05f00c-8f12-43a6-8e49-d31c756a8e74",
    "name": "Efraín A. Gutiérrez",
    "state_id": "9fcf35a9-7d34-404f-a7bf-d0f55af11a12"
  },
  {
    "id": "6f14f8a3-7133-4c34-91c9-d6c9b7952688",
    "name": "Egipto",
    "state_id": "9fcf35a9-7d34-404f-a7bf-d0f55af11a12"
  },
  {
    "id": "7f78a84f-c80d-47bf-bca1-6afcc4e40735",
    "name": "El Águila",
    "state_id": "9fcf35a9-7d34-404f-a7bf-d0f55af11a12"
  },
  {
    "id": "a8b8fd42-bdca-4d4c-836c-0abed9e35477",
    "name": "El Ámbar",
    "state_id": "9fcf35a9-7d34-404f-a7bf-d0f55af11a12"
  },
  {
    "id": "6f9adf22-99d6-4f4a-8bb0-662c1df32665",
    "name": "El Ámbar (El Ámbar de Echeverría)",
    "state_id": "9fcf35a9-7d34-404f-a7bf-d0f55af11a12"
  },
  {
    "id": "12068912-8ab2-4fe5-8948-7b2c907250f2",
    "name": "El Arenal",
    "state_id": "9fcf35a9-7d34-404f-a7bf-d0f55af11a12"
  },
  {
    "id": "6908a640-5e15-41a0-966f-9f78fd67d266",
    "name": "El Bosque",
    "state_id": "9fcf35a9-7d34-404f-a7bf-d0f55af11a12"
  },
  {
    "id": "62ee44ac-daf4-4365-a2db-03bc46de855b",
    "name": "El Calvario",
    "state_id": "9fcf35a9-7d34-404f-a7bf-d0f55af11a12"
  },
  {
    "id": "6516040a-9ae5-4270-bb59-90c952389f21",
    "name": "El Carmen",
    "state_id": "9fcf35a9-7d34-404f-a7bf-d0f55af11a12"
  },
  {
    "id": "687fa5be-8057-4614-aba4-94c4fdf7b470",
    "name": "El Carmen (El Limón)",
    "state_id": "9fcf35a9-7d34-404f-a7bf-d0f55af11a12"
  },
  {
    "id": "d839246b-bdee-489b-82de-b0a64a40c534",
    "name": "El Censo",
    "state_id": "9fcf35a9-7d34-404f-a7bf-d0f55af11a12"
  },
  {
    "id": "b86bb47b-9287-48b2-9b36-79f18af75e0d",
    "name": "El Consuelo Ulapa",
    "state_id": "9fcf35a9-7d34-404f-a7bf-d0f55af11a12"
  },
  {
    "id": "175242cc-ae0c-4cbe-a0ea-a645b941309e",
    "name": "El Copal",
    "state_id": "9fcf35a9-7d34-404f-a7bf-d0f55af11a12"
  },
  {
    "id": "ea85ebf7-77e1-4ea9-bf6a-c0935833daaa",
    "name": "El Copalar",
    "state_id": "9fcf35a9-7d34-404f-a7bf-d0f55af11a12"
  },
  {
    "id": "9426e7cd-4540-47e5-827c-25a692c6a024",
    "name": "El Edén",
    "state_id": "9fcf35a9-7d34-404f-a7bf-d0f55af11a12"
  },
  {
    "id": "cc6f526c-d75e-44c0-a0b9-926f384a323c",
    "name": "El Encanto",
    "state_id": "9fcf35a9-7d34-404f-a7bf-d0f55af11a12"
  },
  {
    "id": "caad1b74-7646-423f-86bb-94ddfc197b4b",
    "name": "El Espinal",
    "state_id": "9fcf35a9-7d34-404f-a7bf-d0f55af11a12"
  },
  {
    "id": "0cf36677-ed06-4277-8825-72c5b9554092",
    "name": "El Jardín",
    "state_id": "9fcf35a9-7d34-404f-a7bf-d0f55af11a12"
  },
  {
    "id": "bc0754c4-326d-4933-a102-4d1f71baf4fc",
    "name": "El Jobo",
    "state_id": "9fcf35a9-7d34-404f-a7bf-d0f55af11a12"
  },
  {
    "id": "488f15d2-f77a-4beb-96e2-1915437da5c6",
    "name": "El Limar",
    "state_id": "9fcf35a9-7d34-404f-a7bf-d0f55af11a12"
  },
  {
    "id": "c936f445-2eb8-4553-98fb-089723a2a7e6",
    "name": "El Limonar",
    "state_id": "9fcf35a9-7d34-404f-a7bf-d0f55af11a12"
  },
  {
    "id": "cbbb7f42-faa9-4fa8-92de-8c07bafcd656",
    "name": "El Mango",
    "state_id": "9fcf35a9-7d34-404f-a7bf-d0f55af11a12"
  },
  {
    "id": "ff523494-8050-43d2-bd6f-35e8074eb65f",
    "name": "El Nopal",
    "state_id": "9fcf35a9-7d34-404f-a7bf-d0f55af11a12"
  },
  {
    "id": "e220e5b0-6257-4edb-9908-84bba6998c3b",
    "name": "El Pacayal",
    "state_id": "9fcf35a9-7d34-404f-a7bf-d0f55af11a12"
  },
  {
    "id": "425c2c57-4589-4dcf-b104-72a514d65069",
    "name": "El Palmar (San Gabriel)",
    "state_id": "9fcf35a9-7d34-404f-a7bf-d0f55af11a12"
  },
  {
    "id": "d2f192aa-b6c6-4c10-ac33-f5c808a9b004",
    "name": "El Palmar Grande",
    "state_id": "9fcf35a9-7d34-404f-a7bf-d0f55af11a12"
  },
  {
    "id": "189a7327-c718-43a9-8dd5-dc80e86116a2",
    "name": "El Palmarcito",
    "state_id": "9fcf35a9-7d34-404f-a7bf-d0f55af11a12"
  },
  {
    "id": "f895a1be-11ba-49aa-b21f-95a9d89b0aa6",
    "name": "El Paraíso",
    "state_id": "9fcf35a9-7d34-404f-a7bf-d0f55af11a12"
  },
  {
    "id": "fcae2e28-38f2-409f-bfdd-e6c523aad93d",
    "name": "El Parral",
    "state_id": "9fcf35a9-7d34-404f-a7bf-d0f55af11a12"
  },
  {
    "id": "927438a5-3cce-41b1-964b-991d72e8198f",
    "name": "El Portal",
    "state_id": "9fcf35a9-7d34-404f-a7bf-d0f55af11a12"
  },
  {
    "id": "ae090941-a932-4887-a7f1-ccff5049e3ff",
    "name": "El Porvenir",
    "state_id": "9fcf35a9-7d34-404f-a7bf-d0f55af11a12"
  },
  {
    "id": "e8ed67ea-61c9-43d6-ac2d-7e5d9c60daf8",
    "name": "El Porvenir Agrarista",
    "state_id": "9fcf35a9-7d34-404f-a7bf-d0f55af11a12"
  },
  {
    "id": "e5938798-3770-4610-ade9-1dce32c4f00e",
    "name": "El Porvenir de Velasco Suárez",
    "state_id": "9fcf35a9-7d34-404f-a7bf-d0f55af11a12"
  },
  {
    "id": "3cb43aba-8c09-4660-a9f1-b10a72e872db",
    "name": "El Pozo",
    "state_id": "9fcf35a9-7d34-404f-a7bf-d0f55af11a12"
  },
  {
    "id": "a6addb05-7f1b-459b-bcd1-f8786015e4fa",
    "name": "El Progreso",
    "state_id": "9fcf35a9-7d34-404f-a7bf-d0f55af11a12"
  },
  {
    "id": "b8f6d77d-c36e-4656-a461-1a8f4b9c21fe",
    "name": "El Puerto",
    "state_id": "9fcf35a9-7d34-404f-a7bf-d0f55af11a12"
  },
  {
    "id": "f8d3f552-9287-4fd8-bff3-1f10c32526b6",
    "name": "El Ramal (Porvenir)",
    "state_id": "9fcf35a9-7d34-404f-a7bf-d0f55af11a12"
  },
  {
    "id": "9990e495-917c-465a-a772-9d37a0431424",
    "name": "El Sacrificio",
    "state_id": "9fcf35a9-7d34-404f-a7bf-d0f55af11a12"
  },
  {
    "id": "29a14b46-0b98-43b6-87b3-327cc3531b68",
    "name": "El Sibal",
    "state_id": "9fcf35a9-7d34-404f-a7bf-d0f55af11a12"
  },
  {
    "id": "df095c86-fb0c-4f8b-9043-529e20fba072",
    "name": "El Triunfo",
    "state_id": "9fcf35a9-7d34-404f-a7bf-d0f55af11a12"
  },
  {
    "id": "9c8a86a9-5254-4c63-80b9-86e544b8ec09",
    "name": "El Triunfo 1ra. Sección (Cardona)",
    "state_id": "9fcf35a9-7d34-404f-a7bf-d0f55af11a12"
  },
  {
    "id": "50326f50-d765-4878-a6c7-38eab6b9f819",
    "name": "El Triunfo de las Tres Maravillas",
    "state_id": "9fcf35a9-7d34-404f-a7bf-d0f55af11a12"
  },
  {
    "id": "265dca6a-4e01-4345-832b-4e8922896e65",
    "name": "El Tumbo",
    "state_id": "9fcf35a9-7d34-404f-a7bf-d0f55af11a12"
  },
  {
    "id": "c020f447-07b7-4422-b15f-8dafb296f879",
    "name": "El Tzay",
    "state_id": "9fcf35a9-7d34-404f-a7bf-d0f55af11a12"
  },
  {
    "id": "0ca3ddd9-b556-449e-8e0a-c26e31560db1",
    "name": "El Vergel",
    "state_id": "9fcf35a9-7d34-404f-a7bf-d0f55af11a12"
  },
  {
    "id": "c4ffacee-9a9b-4e8b-b3b9-83e8d7e5c01c",
    "name": "El Zapotal",
    "state_id": "9fcf35a9-7d34-404f-a7bf-d0f55af11a12"
  },
  {
    "id": "5336d78c-f8b6-4253-981f-4abf7acf90cf",
    "name": "El Zapotillo",
    "state_id": "9fcf35a9-7d34-404f-a7bf-d0f55af11a12"
  },
  {
    "id": "28e2e34f-91ba-447c-9f60-37617819d198",
    "name": "Emiliano Zapata",
    "state_id": "9fcf35a9-7d34-404f-a7bf-d0f55af11a12"
  },
  {
    "id": "d379e098-fe7d-48a8-a635-43e9023dcc3f",
    "name": "Escuintla",
    "state_id": "9fcf35a9-7d34-404f-a7bf-d0f55af11a12"
  },
  {
    "id": "ded8c425-2c01-48e7-9c29-384792c14f7b",
    "name": "Estación Huehuetán",
    "state_id": "9fcf35a9-7d34-404f-a7bf-d0f55af11a12"
  },
  {
    "id": "2991dd91-2b85-472b-b82e-a4125c0a73d4",
    "name": "Estación San Manuel",
    "state_id": "9fcf35a9-7d34-404f-a7bf-d0f55af11a12"
  },
  {
    "id": "e9e532f8-72b1-4efd-a24a-461f214c9bd2",
    "name": "Estación Tuzantán",
    "state_id": "9fcf35a9-7d34-404f-a7bf-d0f55af11a12"
  },
  {
    "id": "c7dc3f35-1ec2-4a99-991e-61bfe2f0c8ae",
    "name": "Estrella de Belén",
    "state_id": "9fcf35a9-7d34-404f-a7bf-d0f55af11a12"
  },
  {
    "id": "df47d9dd-c881-4c95-9b85-c72b5d21d732",
    "name": "Faja de Oro",
    "state_id": "9fcf35a9-7d34-404f-a7bf-d0f55af11a12"
  },
  {
    "id": "bd4192c5-b32f-43bf-bdee-9502109de29a",
    "name": "Flor de Cacao",
    "state_id": "9fcf35a9-7d34-404f-a7bf-d0f55af11a12"
  },
  {
    "id": "dd4fc638-ba99-465e-b319-e1c295281742",
    "name": "Francisco I. Madero",
    "state_id": "9fcf35a9-7d34-404f-a7bf-d0f55af11a12"
  },
  {
    "id": "6ccec5c7-64a0-46bf-a446-11f3d0eb2116",
    "name": "Francisco León",
    "state_id": "9fcf35a9-7d34-404f-a7bf-d0f55af11a12"
  },
  {
    "id": "a7f6b48b-8ca6-45ff-a35f-fe8a91d55d79",
    "name": "Francisco Sarabia",
    "state_id": "9fcf35a9-7d34-404f-a7bf-d0f55af11a12"
  },
  {
    "id": "cac08ae7-64db-42f6-82c4-34a22e40b733",
    "name": "Francisco Villa",
    "state_id": "9fcf35a9-7d34-404f-a7bf-d0f55af11a12"
  },
  {
    "id": "e297ea4e-316e-4325-86e2-126232920fdb",
    "name": "Frontera Corozal",
    "state_id": "9fcf35a9-7d34-404f-a7bf-d0f55af11a12"
  },
  {
    "id": "37c0571e-8e7c-4472-812e-5db0d13e294e",
    "name": "Frontera Hidalgo",
    "state_id": "9fcf35a9-7d34-404f-a7bf-d0f55af11a12"
  },
  {
    "id": "18f1f8e5-824c-428a-ba2b-e1d1c33f1fb4",
    "name": "Gabriel Esquinca",
    "state_id": "9fcf35a9-7d34-404f-a7bf-d0f55af11a12"
  },
  {
    "id": "fe71576c-a770-424e-8aac-8250fd327271",
    "name": "Galecio Narcia",
    "state_id": "9fcf35a9-7d34-404f-a7bf-d0f55af11a12"
  },
  {
    "id": "e6c43591-746f-42dd-b069-69d29babd8bf",
    "name": "Guadalupe",
    "state_id": "9fcf35a9-7d34-404f-a7bf-d0f55af11a12"
  },
  {
    "id": "d4e7329a-eea2-493a-b35e-b06edd895e8f",
    "name": "Guadalupe Grijalva",
    "state_id": "9fcf35a9-7d34-404f-a7bf-d0f55af11a12"
  },
  {
    "id": "339b09ce-8fa5-4a51-bc00-ddecf1d52d1d",
    "name": "Guadalupe Victoria",
    "state_id": "9fcf35a9-7d34-404f-a7bf-d0f55af11a12"
  },
  {
    "id": "e4f05bb9-f710-4415-a5b7-dce7e999893d",
    "name": "Guaquitepec",
    "state_id": "9fcf35a9-7d34-404f-a7bf-d0f55af11a12"
  },
  {
    "id": "6c7f6947-9e73-4d4a-88bc-07869793b318",
    "name": "Hermenegildo Galeana",
    "state_id": "9fcf35a9-7d34-404f-a7bf-d0f55af11a12"
  },
  {
    "id": "7a57e946-1249-40f2-ad00-596c035bdfd1",
    "name": "Héroes de Chapultepec",
    "state_id": "9fcf35a9-7d34-404f-a7bf-d0f55af11a12"
  },
  {
    "id": "b30b2582-d532-46be-beef-d9cd3aa728f3",
    "name": "Hidalgo",
    "state_id": "9fcf35a9-7d34-404f-a7bf-d0f55af11a12"
  },
  {
    "id": "9b69aa51-4c70-4000-bdfc-80ef25407f68",
    "name": "Hidalgo Joshil",
    "state_id": "9fcf35a9-7d34-404f-a7bf-d0f55af11a12"
  },
  {
    "id": "7d1492dc-bac7-49ee-96c6-f550e4080c36",
    "name": "Huehuetán",
    "state_id": "9fcf35a9-7d34-404f-a7bf-d0f55af11a12"
  },
  {
    "id": "69264d17-3741-43a1-abe7-61a1c525e0e1",
    "name": "Huitiupán",
    "state_id": "9fcf35a9-7d34-404f-a7bf-d0f55af11a12"
  },
  {
    "id": "b0ef4fc2-43fa-41db-9413-8bb03ddd8722",
    "name": "Huixtla",
    "state_id": "9fcf35a9-7d34-404f-a7bf-d0f55af11a12"
  },
  {
    "id": "711d3333-2419-46c9-bad1-49d45e342777",
    "name": "Huizachal",
    "state_id": "9fcf35a9-7d34-404f-a7bf-d0f55af11a12"
  },
  {
    "id": "35ec6a9f-2169-4ee1-929c-bc7536531a7f",
    "name": "Ignacio Allende",
    "state_id": "9fcf35a9-7d34-404f-a7bf-d0f55af11a12"
  },
  {
    "id": "60efe07a-1e34-402f-8637-18ceb7b59ed2",
    "name": "Ignacio López Rayón",
    "state_id": "9fcf35a9-7d34-404f-a7bf-d0f55af11a12"
  },
  {
    "id": "d38bcb19-68d2-4c21-923d-d16918c01a14",
    "name": "Ignacio Ramírez",
    "state_id": "9fcf35a9-7d34-404f-a7bf-d0f55af11a12"
  },
  {
    "id": "fd611cca-2bde-4006-9b5c-1cac72dbc29f",
    "name": "Ignacio Zaragoza",
    "state_id": "9fcf35a9-7d34-404f-a7bf-d0f55af11a12"
  },
  {
    "id": "0fec4608-4da3-4ffc-b5e5-974c71eb660e",
    "name": "Ignacio Zaragoza (El Morro)",
    "state_id": "9fcf35a9-7d34-404f-a7bf-d0f55af11a12"
  },
  {
    "id": "b82d0885-43ef-4485-b03f-363e1df86a7a",
    "name": "Independencia",
    "state_id": "9fcf35a9-7d34-404f-a7bf-d0f55af11a12"
  },
  {
    "id": "9e049c50-8437-492f-9e47-5a34d6fead87",
    "name": "Ixhuatán",
    "state_id": "9fcf35a9-7d34-404f-a7bf-d0f55af11a12"
  },
  {
    "id": "f27c69fc-bfa6-4e7d-92dd-95d03171f354",
    "name": "Ixtacomitán",
    "state_id": "9fcf35a9-7d34-404f-a7bf-d0f55af11a12"
  },
  {
    "id": "3489f008-3de4-4974-9a3c-86cf89f3c425",
    "name": "Ixtapa",
    "state_id": "9fcf35a9-7d34-404f-a7bf-d0f55af11a12"
  },
  {
    "id": "d8df2412-183b-4f31-9bcd-d3371528d597",
    "name": "Ixtapangajoya",
    "state_id": "9fcf35a9-7d34-404f-a7bf-d0f55af11a12"
  },
  {
    "id": "4bce6188-4d8f-4d8e-9348-3212691be89d",
    "name": "Jalisco",
    "state_id": "9fcf35a9-7d34-404f-a7bf-d0f55af11a12"
  },
  {
    "id": "b53ccd4d-3225-4368-8138-f539aa3ab0c4",
    "name": "Jaltenango de la Paz",
    "state_id": "9fcf35a9-7d34-404f-a7bf-d0f55af11a12"
  },
  {
    "id": "3701cc5e-d93b-47d3-9c4c-c3ac96c35bd7",
    "name": "Jardínes del Grijalva",
    "state_id": "9fcf35a9-7d34-404f-a7bf-d0f55af11a12"
  },
  {
    "id": "2f30f669-aac7-4e3d-a24e-d31ef293f222",
    "name": "Jericó",
    "state_id": "9fcf35a9-7d34-404f-a7bf-d0f55af11a12"
  },
  {
    "id": "0745e30c-7005-467b-95bc-b8edf144b7fa",
    "name": "Jerusalén",
    "state_id": "9fcf35a9-7d34-404f-a7bf-d0f55af11a12"
  },
  {
    "id": "357caec5-2bbb-4e30-900c-7ace89794fb7",
    "name": "Jesús María Garza",
    "state_id": "9fcf35a9-7d34-404f-a7bf-d0f55af11a12"
  },
  {
    "id": "991043c2-46d1-4c9d-b7ea-e96df3d9d333",
    "name": "Jiquilpan (Estación Bonanza)",
    "state_id": "9fcf35a9-7d34-404f-a7bf-d0f55af11a12"
  },
  {
    "id": "1e0e542f-8fc3-4924-a79e-1ed283803e98",
    "name": "Jiquipilas",
    "state_id": "9fcf35a9-7d34-404f-a7bf-d0f55af11a12"
  },
  {
    "id": "feddb5ad-b04e-4540-9039-fffb8aeadcdc",
    "name": "Jitotol",
    "state_id": "9fcf35a9-7d34-404f-a7bf-d0f55af11a12"
  },
  {
    "id": "5127b752-a408-4ec6-b193-268e10c3a90b",
    "name": "Joaquín Miguel Gutiérrez",
    "state_id": "9fcf35a9-7d34-404f-a7bf-d0f55af11a12"
  },
  {
    "id": "42802863-7be9-4a20-ba77-4d57da855482",
    "name": "Joaquín Miguel Gutiérrez (Margaritas)",
    "state_id": "9fcf35a9-7d34-404f-a7bf-d0f55af11a12"
  },
  {
    "id": "f9613e78-f3c2-408d-b230-2dc4bff7a023",
    "name": "Joljá",
    "state_id": "9fcf35a9-7d34-404f-a7bf-d0f55af11a12"
  },
  {
    "id": "9c17e415-d3e2-46be-8f94-1642afe3ed1b",
    "name": "Jolsibaquil",
    "state_id": "9fcf35a9-7d34-404f-a7bf-d0f55af11a12"
  },
  {
    "id": "ae4218d3-6a6c-4f5e-b55e-27666afd34ff",
    "name": "Joltealal",
    "state_id": "9fcf35a9-7d34-404f-a7bf-d0f55af11a12"
  },
  {
    "id": "22107e04-0e5b-45e1-aa8d-1a3af49158fb",
    "name": "Jomanichim",
    "state_id": "9fcf35a9-7d34-404f-a7bf-d0f55af11a12"
  },
  {
    "id": "6e85baa4-6319-4d2b-946e-736a46ee53da",
    "name": "José María Morelos",
    "state_id": "9fcf35a9-7d34-404f-a7bf-d0f55af11a12"
  },
  {
    "id": "70822b27-3929-4d1a-acf5-aa288ffcc224",
    "name": "José María Morelos y Pavón",
    "state_id": "9fcf35a9-7d34-404f-a7bf-d0f55af11a12"
  },
  {
    "id": "6f9bab15-72d1-44e3-a2d8-07b71e80e076",
    "name": "José María Pino Suárez",
    "state_id": "9fcf35a9-7d34-404f-a7bf-d0f55af11a12"
  },
  {
    "id": "0a4a4831-baf5-42ac-b683-ea8d95cd5018",
    "name": "Joshil",
    "state_id": "9fcf35a9-7d34-404f-a7bf-d0f55af11a12"
  },
  {
    "id": "1069aa11-3bbd-44bb-b12d-0d9ba7824531",
    "name": "Juan Aldama",
    "state_id": "9fcf35a9-7d34-404f-a7bf-d0f55af11a12"
  },
  {
    "id": "8b1d0a32-6c39-4762-9908-257586223bdd",
    "name": "Juan del Grijalva",
    "state_id": "9fcf35a9-7d34-404f-a7bf-d0f55af11a12"
  },
  {
    "id": "16080616-704f-42c2-bb75-c1e14d2deb69",
    "name": "Juárez",
    "state_id": "9fcf35a9-7d34-404f-a7bf-d0f55af11a12"
  },
  {
    "id": "825da680-a29d-494e-8a55-074ba0a78a86",
    "name": "Julián Grajales",
    "state_id": "9fcf35a9-7d34-404f-a7bf-d0f55af11a12"
  },
  {
    "id": "27da8c17-e306-4c47-98f5-9e8c3989413e",
    "name": "Justo Sierra",
    "state_id": "9fcf35a9-7d34-404f-a7bf-d0f55af11a12"
  },
  {
    "id": "76314ad9-b860-4fed-8228-190e57517986",
    "name": "Kotolte",
    "state_id": "9fcf35a9-7d34-404f-a7bf-d0f55af11a12"
  },
  {
    "id": "ed2552c2-fe6c-460f-8100-5ecd41910654",
    "name": "La Candelaria",
    "state_id": "9fcf35a9-7d34-404f-a7bf-d0f55af11a12"
  },
  {
    "id": "e83a60df-3b65-437a-b18f-cb510f08d6c1",
    "name": "La Ceiba",
    "state_id": "9fcf35a9-7d34-404f-a7bf-d0f55af11a12"
  },
  {
    "id": "b437a027-9304-4a9a-8825-b143bca3ed7d",
    "name": "La Competencia",
    "state_id": "9fcf35a9-7d34-404f-a7bf-d0f55af11a12"
  },
  {
    "id": "eaa72b92-876e-4f41-af65-78b3b12608cd",
    "name": "La Concordia",
    "state_id": "9fcf35a9-7d34-404f-a7bf-d0f55af11a12"
  },
  {
    "id": "2385174d-6343-4f8c-9b0d-8d910eab49f7",
    "name": "La Esperanza",
    "state_id": "9fcf35a9-7d34-404f-a7bf-d0f55af11a12"
  },
  {
    "id": "20b00571-6c6e-48c5-a2f1-9f61df0f4779",
    "name": "La Esperanza (El Zapotal)",
    "state_id": "9fcf35a9-7d34-404f-a7bf-d0f55af11a12"
  },
  {
    "id": "33dd51de-7c45-45bb-8241-ccb96eb50ea3",
    "name": "La Floresta",
    "state_id": "9fcf35a9-7d34-404f-a7bf-d0f55af11a12"
  },
  {
    "id": "7c9f6087-881f-4424-a9f9-153b9fce5cf1",
    "name": "La Gloria",
    "state_id": "9fcf35a9-7d34-404f-a7bf-d0f55af11a12"
  },
  {
    "id": "f0199b11-2914-45bd-9bc4-f59fa8bf1edc",
    "name": "La Grandeza",
    "state_id": "9fcf35a9-7d34-404f-a7bf-d0f55af11a12"
  },
  {
    "id": "9bcffb65-7395-48c5-903f-ac98bd0e8aeb",
    "name": "La Independencia",
    "state_id": "9fcf35a9-7d34-404f-a7bf-d0f55af11a12"
  },
  {
    "id": "08a6135f-3853-400b-8632-edf34abeccee",
    "name": "La Independencia (Las Pilas)",
    "state_id": "9fcf35a9-7d34-404f-a7bf-d0f55af11a12"
  },
  {
    "id": "561f1978-0813-46f1-aff5-490f53cc5e6b",
    "name": "La Laguna",
    "state_id": "9fcf35a9-7d34-404f-a7bf-d0f55af11a12"
  },
  {
    "id": "130c65d5-0c88-405e-8721-cec23091fd1b",
    "name": "La Libertad",
    "state_id": "9fcf35a9-7d34-404f-a7bf-d0f55af11a12"
  },
  {
    "id": "29e2b44d-4582-4313-a9f6-c2db5f3a9078",
    "name": "La Línea",
    "state_id": "9fcf35a9-7d34-404f-a7bf-d0f55af11a12"
  },
  {
    "id": "c5ded847-7270-48b9-b641-2cf08cee5781",
    "name": "La Patria",
    "state_id": "9fcf35a9-7d34-404f-a7bf-d0f55af11a12"
  },
  {
    "id": "a9ab4406-ef63-4ac1-b702-a338979e5dfd",
    "name": "La Pimienta",
    "state_id": "9fcf35a9-7d34-404f-a7bf-d0f55af11a12"
  },
  {
    "id": "f2dfe0c4-efe0-4142-bc0a-907327906a14",
    "name": "La Rinconada",
    "state_id": "9fcf35a9-7d34-404f-a7bf-d0f55af11a12"
  },
  {
    "id": "74134243-0f3c-426a-8127-cc91900e62ce",
    "name": "La Tigrilla",
    "state_id": "9fcf35a9-7d34-404f-a7bf-d0f55af11a12"
  },
  {
    "id": "d0c179ed-7198-41e7-89e6-ff1744d85e96",
    "name": "La Trinitaria",
    "state_id": "9fcf35a9-7d34-404f-a7bf-d0f55af11a12"
  },
  {
    "id": "24db40e3-341f-4c19-ae86-8284800b0fd0",
    "name": "Lacandón",
    "state_id": "9fcf35a9-7d34-404f-a7bf-d0f55af11a12"
  },
  {
    "id": "4dc21e27-accf-4793-9f18-9164cfb406b2",
    "name": "Laguna del Cofre",
    "state_id": "9fcf35a9-7d34-404f-a7bf-d0f55af11a12"
  },
  {
    "id": "5477c804-475d-4712-ad38-d990fa9c70cc",
    "name": "Larráinzar",
    "state_id": "9fcf35a9-7d34-404f-a7bf-d0f55af11a12"
  },
  {
    "id": "6eef440e-327f-40d7-bbc9-188a81ca8789",
    "name": "Las Brisas",
    "state_id": "9fcf35a9-7d34-404f-a7bf-d0f55af11a12"
  },
  {
    "id": "7fdbdb32-76bc-4b09-aeb2-1d75a881280a",
    "name": "Las Chicharras",
    "state_id": "9fcf35a9-7d34-404f-a7bf-d0f55af11a12"
  },
  {
    "id": "3db3d9c2-092a-4944-ab39-a576c8b3a005",
    "name": "Las Delicias",
    "state_id": "9fcf35a9-7d34-404f-a7bf-d0f55af11a12"
  },
  {
    "id": "a0a35de6-cdfc-4920-8ea2-dda0864b5c99",
    "name": "Las Flechas",
    "state_id": "9fcf35a9-7d34-404f-a7bf-d0f55af11a12"
  },
  {
    "id": "aa39cbcb-8646-4c1e-a8ca-36a50abd55cb",
    "name": "Las Maravillas",
    "state_id": "9fcf35a9-7d34-404f-a7bf-d0f55af11a12"
  },
  {
    "id": "06174b40-f4c8-4af0-b8e1-cf648f914575",
    "name": "Las Margaritas",
    "state_id": "9fcf35a9-7d34-404f-a7bf-d0f55af11a12"
  },
  {
    "id": "5ef1f3de-cf0c-43bc-8c54-35e0590bbfbe",
    "name": "Las Ollas",
    "state_id": "9fcf35a9-7d34-404f-a7bf-d0f55af11a12"
  },
  {
    "id": "1a29f070-3000-48d4-9690-e8b950948af5",
    "name": "Las Rosas",
    "state_id": "9fcf35a9-7d34-404f-a7bf-d0f55af11a12"
  },
  {
    "id": "d120f430-be8d-480a-88c5-58b032e67d1e",
    "name": "Las Tazas",
    "state_id": "9fcf35a9-7d34-404f-a7bf-d0f55af11a12"
  },
  {
    "id": "d129cdc4-c24b-4eaf-9879-8cd38c289d4d",
    "name": "Lázaro Cárdenas",
    "state_id": "9fcf35a9-7d34-404f-a7bf-d0f55af11a12"
  },
  {
    "id": "306375d7-20c6-4821-b445-ea7b24142669",
    "name": "Lázaro Cárdenas (Chilil)",
    "state_id": "9fcf35a9-7d34-404f-a7bf-d0f55af11a12"
  },
  {
    "id": "5c08303e-e3a4-4db9-933c-e68b504ff334",
    "name": "Libertad Melchor Ocampo",
    "state_id": "9fcf35a9-7d34-404f-a7bf-d0f55af11a12"
  },
  {
    "id": "54b780dd-d81a-4fc1-ad1c-7c48c93ce81c",
    "name": "Libertad Ventanas",
    "state_id": "9fcf35a9-7d34-404f-a7bf-d0f55af11a12"
  },
  {
    "id": "21ab9783-9793-43be-891d-c12ad4b186f5",
    "name": "Llano de la Lima",
    "state_id": "9fcf35a9-7d34-404f-a7bf-d0f55af11a12"
  },
  {
    "id": "928299d1-df86-4fa7-972e-6b95a8250c4d",
    "name": "Loma Bonita",
    "state_id": "9fcf35a9-7d34-404f-a7bf-d0f55af11a12"
  },
  {
    "id": "c3347c47-16f4-4841-9907-b7bdcd7e2529",
    "name": "Lomantán",
    "state_id": "9fcf35a9-7d34-404f-a7bf-d0f55af11a12"
  },
  {
    "id": "8d54c7b0-fe0c-44f0-a0af-31ec9098c5f3",
    "name": "Los Cafetales",
    "state_id": "9fcf35a9-7d34-404f-a7bf-d0f55af11a12"
  },
  {
    "id": "0e03105a-d5ef-4ced-85e6-f9d871ef49d7",
    "name": "Los Corazones",
    "state_id": "9fcf35a9-7d34-404f-a7bf-d0f55af11a12"
  },
  {
    "id": "0daaf5b8-e347-4f17-a9b4-74f7fe8407dc",
    "name": "Los Naranjos",
    "state_id": "9fcf35a9-7d34-404f-a7bf-d0f55af11a12"
  },
  {
    "id": "a89ce343-c974-4506-bda8-227f472245a6",
    "name": "Los Palacios",
    "state_id": "9fcf35a9-7d34-404f-a7bf-d0f55af11a12"
  },
  {
    "id": "1b8b2976-62b6-4e4f-9a29-7db8b9159a4c",
    "name": "Los Pinos",
    "state_id": "9fcf35a9-7d34-404f-a7bf-d0f55af11a12"
  },
  {
    "id": "f627a6cb-0cb7-419f-99b2-dd360c462fb7",
    "name": "Los Plátanos",
    "state_id": "9fcf35a9-7d34-404f-a7bf-d0f55af11a12"
  },
  {
    "id": "da75c45f-0b88-44b9-94dc-a603ba20d6c6",
    "name": "Los Pozos",
    "state_id": "9fcf35a9-7d34-404f-a7bf-d0f55af11a12"
  },
  {
    "id": "9a871084-92a3-42e5-aeb4-519c074b9831",
    "name": "Los Riegos",
    "state_id": "9fcf35a9-7d34-404f-a7bf-d0f55af11a12"
  },
  {
    "id": "ffcca045-177a-4f0f-afab-908b4b0ee5ef",
    "name": "Luis Espinoza",
    "state_id": "9fcf35a9-7d34-404f-a7bf-d0f55af11a12"
  },
  {
    "id": "c31a45af-e28d-4c64-8d7b-8c05cd0206a4",
    "name": "Macvilhó",
    "state_id": "9fcf35a9-7d34-404f-a7bf-d0f55af11a12"
  },
  {
    "id": "7b05b32e-0891-4799-9bf5-78c38cbbb24f",
    "name": "Majastic",
    "state_id": "9fcf35a9-7d34-404f-a7bf-d0f55af11a12"
  },
  {
    "id": "933efc8c-0146-420e-8217-5b3fcbcc0ec8",
    "name": "Majomut",
    "state_id": "9fcf35a9-7d34-404f-a7bf-d0f55af11a12"
  },
  {
    "id": "2319b795-1e22-4c3c-9fb6-34365112896f",
    "name": "Manuel Ávila Camacho",
    "state_id": "9fcf35a9-7d34-404f-a7bf-d0f55af11a12"
  },
  {
    "id": "21414e1c-230e-4457-8b9c-a56bfc4828cf",
    "name": "Manuel Ávila Camacho (Ponte Duro)",
    "state_id": "9fcf35a9-7d34-404f-a7bf-d0f55af11a12"
  },
  {
    "id": "b3ad3eb7-0eeb-4459-96e2-366f7510830c",
    "name": "Manuel Lazos",
    "state_id": "9fcf35a9-7d34-404f-a7bf-d0f55af11a12"
  },
  {
    "id": "7be735e5-b27b-4095-b179-6ef517b13f9a",
    "name": "Mapastepec",
    "state_id": "9fcf35a9-7d34-404f-a7bf-d0f55af11a12"
  },
  {
    "id": "d9bc37d8-4075-4457-8daf-5ecf4ba86f27",
    "name": "Maravilla Tenejapa",
    "state_id": "9fcf35a9-7d34-404f-a7bf-d0f55af11a12"
  },
  {
    "id": "3eed846e-563a-4b55-b6e5-cb8fcae5f828",
    "name": "Maravillas",
    "state_id": "9fcf35a9-7d34-404f-a7bf-d0f55af11a12"
  },
  {
    "id": "a30bf556-f198-4db4-a9b2-d3be92a6a142",
    "name": "Mariano Matamoros",
    "state_id": "9fcf35a9-7d34-404f-a7bf-d0f55af11a12"
  },
  {
    "id": "4ec9ec7b-53cb-46fb-97bf-b9ab2b044402",
    "name": "Mariscal Subikuski",
    "state_id": "9fcf35a9-7d34-404f-a7bf-d0f55af11a12"
  },
  {
    "id": "04a83c1b-28a0-499c-9ee0-104c058f9b3e",
    "name": "Marqués de Comillas",
    "state_id": "9fcf35a9-7d34-404f-a7bf-d0f55af11a12"
  },
  {
    "id": "c9162fb7-7d08-4518-855c-5efcd8850dd8",
    "name": "Marte R. Gómez",
    "state_id": "9fcf35a9-7d34-404f-a7bf-d0f55af11a12"
  },
  {
    "id": "3beb9357-6f88-4b37-8ca1-84aff4e0d95c",
    "name": "Matzam",
    "state_id": "9fcf35a9-7d34-404f-a7bf-d0f55af11a12"
  },
  {
    "id": "63a5e7a8-0d30-46fb-80b6-0c525320a7ff",
    "name": "Mazapa",
    "state_id": "9fcf35a9-7d34-404f-a7bf-d0f55af11a12"
  },
  {
    "id": "a4d0f688-fe27-45b9-a829-57ff8db7e828",
    "name": "Mazapa de Madero",
    "state_id": "9fcf35a9-7d34-404f-a7bf-d0f55af11a12"
  },
  {
    "id": "176caaf7-2c14-4118-b4f3-d0a702789075",
    "name": "Mazatán",
    "state_id": "9fcf35a9-7d34-404f-a7bf-d0f55af11a12"
  },
  {
    "id": "7b2912e2-28a1-4e27-9558-272c196eef74",
    "name": "Mérida",
    "state_id": "9fcf35a9-7d34-404f-a7bf-d0f55af11a12"
  },
  {
    "id": "30885b6f-fc8d-4216-8ba6-58e74c8cdf6b",
    "name": "Metapa",
    "state_id": "9fcf35a9-7d34-404f-a7bf-d0f55af11a12"
  },
  {
    "id": "d3d32d9a-d228-4fc0-9df0-c9e7400b606d",
    "name": "Miguel Hidalgo",
    "state_id": "9fcf35a9-7d34-404f-a7bf-d0f55af11a12"
  },
  {
    "id": "4e447f14-8a9a-4256-9a83-d47d7516d67f",
    "name": "Miguel Utrilla (Los Chorros)",
    "state_id": "9fcf35a9-7d34-404f-a7bf-d0f55af11a12"
  },
  {
    "id": "ab10cf2b-4f30-4088-901e-fde8f67d69c1",
    "name": "Misija",
    "state_id": "9fcf35a9-7d34-404f-a7bf-d0f55af11a12"
  },
  {
    "id": "8736c530-13d4-4900-aeeb-8da2760c87d8",
    "name": "Mitontic",
    "state_id": "9fcf35a9-7d34-404f-a7bf-d0f55af11a12"
  },
  {
    "id": "15ab8241-7194-4038-aff7-676eeab213e5",
    "name": "Mitzitón",
    "state_id": "9fcf35a9-7d34-404f-a7bf-d0f55af11a12"
  },
  {
    "id": "c02e25d0-63a3-4e2a-a3ef-77799326899f",
    "name": "Mixcum",
    "state_id": "9fcf35a9-7d34-404f-a7bf-d0f55af11a12"
  },
  {
    "id": "05f5abff-dbc1-457f-acb4-280d378d4daf",
    "name": "Monte Redondo",
    "state_id": "9fcf35a9-7d34-404f-a7bf-d0f55af11a12"
  },
  {
    "id": "c18e07a4-03d3-4a7c-a83f-196e1b627d69",
    "name": "Montecristo",
    "state_id": "9fcf35a9-7d34-404f-a7bf-d0f55af11a12"
  },
  {
    "id": "4369dbdd-d061-4aee-961c-a68913ad042b",
    "name": "Montecristo de Guerrero",
    "state_id": "9fcf35a9-7d34-404f-a7bf-d0f55af11a12"
  },
  {
    "id": "350e979d-3d61-4f4c-ba97-6d4abb304d1f",
    "name": "Monterrey",
    "state_id": "9fcf35a9-7d34-404f-a7bf-d0f55af11a12"
  },
  {
    "id": "967a2c22-ab56-4f35-8a19-9489e1da64bb",
    "name": "Morelia (Victórico Rodolfo Grajales)",
    "state_id": "9fcf35a9-7d34-404f-a7bf-d0f55af11a12"
  },
  {
    "id": "5c32aa6d-bf88-41f2-8ef5-0e042c239125",
    "name": "Motozintla",
    "state_id": "9fcf35a9-7d34-404f-a7bf-d0f55af11a12"
  },
  {
    "id": "3496153f-abd6-4e58-95fe-67328db33801",
    "name": "Moyos",
    "state_id": "9fcf35a9-7d34-404f-a7bf-d0f55af11a12"
  },
  {
    "id": "31f45d29-2b01-4da2-a1e9-f056c5e5b95d",
    "name": "Muquén",
    "state_id": "9fcf35a9-7d34-404f-a7bf-d0f55af11a12"
  },
  {
    "id": "56d12c68-f788-4070-9a22-7098f409dc4f",
    "name": "Nachig",
    "state_id": "9fcf35a9-7d34-404f-a7bf-d0f55af11a12"
  },
  {
    "id": "efec7437-7aa3-447b-8b86-3076d761459d",
    "name": "Narciso Mendoza",
    "state_id": "9fcf35a9-7d34-404f-a7bf-d0f55af11a12"
  },
  {
    "id": "8bb88245-9c8d-49e4-8661-f662fae9242f",
    "name": "Navenchauc",
    "state_id": "9fcf35a9-7d34-404f-a7bf-d0f55af11a12"
  },
  {
    "id": "a7dd2907-9c63-4853-96b8-e3163e9b1bcf",
    "name": "Nicolás Bravo",
    "state_id": "9fcf35a9-7d34-404f-a7bf-d0f55af11a12"
  },
  {
    "id": "f4bdb71d-f938-4519-9733-596d0dce8168",
    "name": "Nicolás Ruiz",
    "state_id": "9fcf35a9-7d34-404f-a7bf-d0f55af11a12"
  },
  {
    "id": "437d365d-dfd4-46ad-bfad-703b1314d39c",
    "name": "Nueva América",
    "state_id": "9fcf35a9-7d34-404f-a7bf-d0f55af11a12"
  },
  {
    "id": "76b705d9-c897-4443-9340-a8ad1b0fe645",
    "name": "Nueva Colombia",
    "state_id": "9fcf35a9-7d34-404f-a7bf-d0f55af11a12"
  },
  {
    "id": "ffa15d69-0cab-4b7b-86e9-446c58943c61",
    "name": "Nueva Esperanza",
    "state_id": "9fcf35a9-7d34-404f-a7bf-d0f55af11a12"
  },
  {
    "id": "49a30a09-a223-421b-8db6-de8b8159f77f",
    "name": "Nueva Independencia",
    "state_id": "9fcf35a9-7d34-404f-a7bf-d0f55af11a12"
  },
  {
    "id": "288971d7-639c-41b5-aad0-6f87be3f20a5",
    "name": "Nueva Libertad",
    "state_id": "9fcf35a9-7d34-404f-a7bf-d0f55af11a12"
  },
  {
    "id": "d9618638-a2a3-4d9a-b490-2b3ea6d56410",
    "name": "Nueva Libertad (El Colorado)",
    "state_id": "9fcf35a9-7d34-404f-a7bf-d0f55af11a12"
  },
  {
    "id": "edd1ab5e-0704-4472-927a-f4187aacf094",
    "name": "Nueva Morelia",
    "state_id": "9fcf35a9-7d34-404f-a7bf-d0f55af11a12"
  },
  {
    "id": "2adcb229-417c-4b50-b5b7-e37f3f40482a",
    "name": "Nueva Palestina",
    "state_id": "9fcf35a9-7d34-404f-a7bf-d0f55af11a12"
  },
  {
    "id": "e1d8c9d3-ff8a-477a-9036-f11afa62912d",
    "name": "Nueva Sesecapa",
    "state_id": "9fcf35a9-7d34-404f-a7bf-d0f55af11a12"
  },
  {
    "id": "99f65f7b-dd23-482e-82f0-ce1929e598be",
    "name": "Nueva Tenochtitlán (Rizo de Oro)",
    "state_id": "9fcf35a9-7d34-404f-a7bf-d0f55af11a12"
  },
  {
    "id": "90c9c577-610d-4d9a-9785-3569f1d102ba",
    "name": "Nuevo Amatenango",
    "state_id": "9fcf35a9-7d34-404f-a7bf-d0f55af11a12"
  },
  {
    "id": "889064a6-99c8-48e5-95e7-4055fd9f2603",
    "name": "Nuevo Carmen Tonapac",
    "state_id": "9fcf35a9-7d34-404f-a7bf-d0f55af11a12"
  },
  {
    "id": "426bb057-210f-4e65-b260-80e7cb9e43f4",
    "name": "Nuevo Francisco León",
    "state_id": "9fcf35a9-7d34-404f-a7bf-d0f55af11a12"
  },
  {
    "id": "ece0561e-f24a-4d4f-9998-31e6b6d37b5f",
    "name": "Nuevo Juan del Grijalva",
    "state_id": "9fcf35a9-7d34-404f-a7bf-d0f55af11a12"
  },
  {
    "id": "b6a52f20-5162-408f-b40d-2df55a595285",
    "name": "Nuevo León",
    "state_id": "9fcf35a9-7d34-404f-a7bf-d0f55af11a12"
  },
  {
    "id": "45371cde-3773-4e54-ac11-b72467ed68ff",
    "name": "Nuevo Limar",
    "state_id": "9fcf35a9-7d34-404f-a7bf-d0f55af11a12"
  },
  {
    "id": "00677bb6-76f0-4648-9b79-7e1143dc6ef0",
    "name": "Nuevo México",
    "state_id": "9fcf35a9-7d34-404f-a7bf-d0f55af11a12"
  },
  {
    "id": "44e59dcc-de09-4db0-99d6-b406c5d13c1d",
    "name": "Nuevo Milenio Valdivia",
    "state_id": "9fcf35a9-7d34-404f-a7bf-d0f55af11a12"
  },
  {
    "id": "45d5aaf1-bd23-49fa-8a97-640ea34fc08f",
    "name": "Nuevo Naranjo",
    "state_id": "9fcf35a9-7d34-404f-a7bf-d0f55af11a12"
  },
  {
    "id": "3a2b7b13-8387-41ae-a3c1-5b24d0f22093",
    "name": "Nuevo Nicapa",
    "state_id": "9fcf35a9-7d34-404f-a7bf-d0f55af11a12"
  },
  {
    "id": "102f0395-6c1c-4bfb-9667-83d3a48be5d9",
    "name": "Nuevo Pacayal",
    "state_id": "9fcf35a9-7d34-404f-a7bf-d0f55af11a12"
  },
  {
    "id": "19ec4bc6-a132-45b8-be2e-c9c83b5083d4",
    "name": "Nuevo Pumpuapa (Cereso)",
    "state_id": "9fcf35a9-7d34-404f-a7bf-d0f55af11a12"
  },
  {
    "id": "22ddbf1b-0595-4abd-b263-f4e0dcf07191",
    "name": "Nuevo San Juan Chamula",
    "state_id": "9fcf35a9-7d34-404f-a7bf-d0f55af11a12"
  },
  {
    "id": "47628470-74b1-42e1-9d9c-959af20d53d6",
    "name": "Nuevo Sitalá",
    "state_id": "9fcf35a9-7d34-404f-a7bf-d0f55af11a12"
  },
  {
    "id": "701bf331-7b7d-46cf-a2da-9f9ac0de967b",
    "name": "Nuevo Vicente Guerrero",
    "state_id": "9fcf35a9-7d34-404f-a7bf-d0f55af11a12"
  },
  {
    "id": "e60aaff6-d4b6-4e05-9b7f-9cca08e2ed82",
    "name": "Nuevo Vicente Guerrero (El Chichonal)",
    "state_id": "9fcf35a9-7d34-404f-a7bf-d0f55af11a12"
  },
  {
    "id": "3e1ebd52-494a-4336-97b4-ce623a90de82",
    "name": "Nuevo Volcán Chichonal",
    "state_id": "9fcf35a9-7d34-404f-a7bf-d0f55af11a12"
  },
  {
    "id": "494075bb-e5ea-4289-99ed-ae82040cac89",
    "name": "Nuevo Xochimilco",
    "state_id": "9fcf35a9-7d34-404f-a7bf-d0f55af11a12"
  },
  {
    "id": "ba9b5a49-dd29-4074-831b-79d520000578",
    "name": "Ochusjob",
    "state_id": "9fcf35a9-7d34-404f-a7bf-d0f55af11a12"
  },
  {
    "id": "0cf19dbc-b917-43b2-8684-511ce25a6603",
    "name": "Ococh",
    "state_id": "9fcf35a9-7d34-404f-a7bf-d0f55af11a12"
  },
  {
    "id": "ebd49b2d-4913-4107-935c-158e8eb0a894",
    "name": "Ocosingo",
    "state_id": "9fcf35a9-7d34-404f-a7bf-d0f55af11a12"
  },
  {
    "id": "48f7e283-40cd-4ea0-a328-17610a8a276f",
    "name": "Ocotepec",
    "state_id": "9fcf35a9-7d34-404f-a7bf-d0f55af11a12"
  },
  {
    "id": "e52e49af-ff33-4743-9b36-98ddc4422be1",
    "name": "Ocozocoautla de Espinosa",
    "state_id": "9fcf35a9-7d34-404f-a7bf-d0f55af11a12"
  },
  {
    "id": "3ec537e0-5f32-42bd-856d-090cff194ccd",
    "name": "Octavio Paz",
    "state_id": "9fcf35a9-7d34-404f-a7bf-d0f55af11a12"
  },
  {
    "id": "70e4b126-a00c-46fa-a45b-8dde44e93e9f",
    "name": "Ojo de Agua",
    "state_id": "9fcf35a9-7d34-404f-a7bf-d0f55af11a12"
  },
  {
    "id": "f06410dd-2d85-4c8d-9da5-4f0c9eb413c4",
    "name": "Omoa",
    "state_id": "9fcf35a9-7d34-404f-a7bf-d0f55af11a12"
  },
  {
    "id": "5420d0b1-471b-45a0-95ba-6f6c1e113e70",
    "name": "Once de Abril",
    "state_id": "9fcf35a9-7d34-404f-a7bf-d0f55af11a12"
  },
  {
    "id": "0ae3051d-c46f-4555-a3af-9dd6af4b94f6",
    "name": "Ostuacán",
    "state_id": "9fcf35a9-7d34-404f-a7bf-d0f55af11a12"
  },
  {
    "id": "d2c84246-6c4b-46aa-a156-12b629837e5d",
    "name": "Osumacinta",
    "state_id": "9fcf35a9-7d34-404f-a7bf-d0f55af11a12"
  },
  {
    "id": "bde3d127-34af-4ce4-a395-5aa34987ccc2",
    "name": "Oxchuc",
    "state_id": "9fcf35a9-7d34-404f-a7bf-d0f55af11a12"
  },
  {
    "id": "9faa880d-0902-4589-bad1-d7a3e358de9b",
    "name": "Oxinam",
    "state_id": "9fcf35a9-7d34-404f-a7bf-d0f55af11a12"
  },
  {
    "id": "ed335394-f1ee-4a95-91e2-be311ad1e727",
    "name": "Pablo L. Sidar",
    "state_id": "9fcf35a9-7d34-404f-a7bf-d0f55af11a12"
  },
  {
    "id": "9606827c-a6f3-4485-9d91-df79c5ca2dd7",
    "name": "Pacú",
    "state_id": "9fcf35a9-7d34-404f-a7bf-d0f55af11a12"
  },
  {
    "id": "98396384-3a47-4bcc-8556-96a93ea87eb8",
    "name": "Palenque",
    "state_id": "9fcf35a9-7d34-404f-a7bf-d0f55af11a12"
  },
  {
    "id": "6df12cb8-85aa-479d-8866-d2d79b14661d",
    "name": "Pantelhó",
    "state_id": "9fcf35a9-7d34-404f-a7bf-d0f55af11a12"
  },
  {
    "id": "d0090db7-e16b-4a12-9d6d-a591e0e6b31a",
    "name": "Pantepec",
    "state_id": "9fcf35a9-7d34-404f-a7bf-d0f55af11a12"
  },
  {
    "id": "af35a116-337a-4a39-b513-81417ef057e1",
    "name": "Paraíso del Grijalva",
    "state_id": "9fcf35a9-7d34-404f-a7bf-d0f55af11a12"
  },
  {
    "id": "a47449f2-c7a8-43b0-9d0e-e076573b672b",
    "name": "Paredón",
    "state_id": "9fcf35a9-7d34-404f-a7bf-d0f55af11a12"
  },
  {
    "id": "4583e2bf-5447-4fa2-91a8-c66555bc6891",
    "name": "Paso Hondo",
    "state_id": "9fcf35a9-7d34-404f-a7bf-d0f55af11a12"
  },
  {
    "id": "f1b02f6c-f3a1-47c1-9bfa-c558dfae4d60",
    "name": "Pasté",
    "state_id": "9fcf35a9-7d34-404f-a7bf-d0f55af11a12"
  },
  {
    "id": "6cac6471-2839-4b97-8e38-4eeb78d1d543",
    "name": "Patosil",
    "state_id": "9fcf35a9-7d34-404f-a7bf-d0f55af11a12"
  },
  {
    "id": "d725380a-f9bd-457f-a079-ec730c040e44",
    "name": "Patria Nueva (San José el Contento)",
    "state_id": "9fcf35a9-7d34-404f-a7bf-d0f55af11a12"
  },
  {
    "id": "41a4c013-4cc8-4c4e-b318-f080fffacddf",
    "name": "Pavencul",
    "state_id": "9fcf35a9-7d34-404f-a7bf-d0f55af11a12"
  },
  {
    "id": "8dd68a4c-5ad4-4093-ab3d-4f82143a0a8a",
    "name": "Perla de Acapulco",
    "state_id": "9fcf35a9-7d34-404f-a7bf-d0f55af11a12"
  },
  {
    "id": "cefa7fb3-9d47-4d24-955f-947f825655a7",
    "name": "Petalcingo",
    "state_id": "9fcf35a9-7d34-404f-a7bf-d0f55af11a12"
  },
  {
    "id": "fccac324-24e6-4c54-9d02-9390bb104ec3",
    "name": "Pichucalco",
    "state_id": "9fcf35a9-7d34-404f-a7bf-d0f55af11a12"
  },
  {
    "id": "25875fe9-c91c-43ba-9daa-514da97ad7f3",
    "name": "Piedra Labrada",
    "state_id": "9fcf35a9-7d34-404f-a7bf-d0f55af11a12"
  },
  {
    "id": "6abf0596-581d-415e-8758-3c53b29e9284",
    "name": "Pijijiapan",
    "state_id": "9fcf35a9-7d34-404f-a7bf-d0f55af11a12"
  },
  {
    "id": "2af3099d-f4b4-4c70-bede-443c2ede4c46",
    "name": "Plan de Agua Prieta",
    "state_id": "9fcf35a9-7d34-404f-a7bf-d0f55af11a12"
  },
  {
    "id": "4a2527cc-fbd4-4fc7-8f34-666b5afb7667",
    "name": "Plan de Ayala",
    "state_id": "9fcf35a9-7d34-404f-a7bf-d0f55af11a12"
  },
  {
    "id": "2309ba30-e7cc-44be-b032-bc050672492a",
    "name": "Pomposo Castellanos",
    "state_id": "9fcf35a9-7d34-404f-a7bf-d0f55af11a12"
  },
  {
    "id": "8fb8605c-d34b-4b0e-a06d-f93bc46f60c0",
    "name": "Potrerillo",
    "state_id": "9fcf35a9-7d34-404f-a7bf-d0f55af11a12"
  },
  {
    "id": "00262c5b-e8c0-4066-a605-13bcbca07336",
    "name": "Presidente Echeverría (Laja Tendida)",
    "state_id": "9fcf35a9-7d34-404f-a7bf-d0f55af11a12"
  },
  {
    "id": "3fd450ac-c094-41fc-a132-0d6b45410fc8",
    "name": "Primer Cantón",
    "state_id": "9fcf35a9-7d34-404f-a7bf-d0f55af11a12"
  },
  {
    "id": "9fa3a9b3-167d-4086-9198-4c3fc1f17bf6",
    "name": "Profresor Roberto Barrios",
    "state_id": "9fcf35a9-7d34-404f-a7bf-d0f55af11a12"
  },
  {
    "id": "6a639ba3-c4ff-4c59-b308-6725db8baf4d",
    "name": "Puebla",
    "state_id": "9fcf35a9-7d34-404f-a7bf-d0f55af11a12"
  },
  {
    "id": "01b6635d-1905-4d02-ad92-ff8a6eef73e0",
    "name": "Pueblo Nuevo",
    "state_id": "9fcf35a9-7d34-404f-a7bf-d0f55af11a12"
  },
  {
    "id": "a69a4cf0-6511-4950-9027-ed636f3adf60",
    "name": "Puerto Madero",
    "state_id": "9fcf35a9-7d34-404f-a7bf-d0f55af11a12"
  },
  {
    "id": "27ede546-47f1-454e-8567-4ec98ec80239",
    "name": "Pugchén Mumuntic",
    "state_id": "9fcf35a9-7d34-404f-a7bf-d0f55af11a12"
  },
  {
    "id": "ed3f505a-25ee-46c1-bd45-d8a6ba2c9b7b",
    "name": "Punta Arena",
    "state_id": "9fcf35a9-7d34-404f-a7bf-d0f55af11a12"
  },
  {
    "id": "6d585f39-eb6c-4364-8318-d1e749286c07",
    "name": "Querétaro",
    "state_id": "9fcf35a9-7d34-404f-a7bf-d0f55af11a12"
  },
  {
    "id": "313b2b01-34bf-446b-b6bf-d09e8118a846",
    "name": "Quintana Roo",
    "state_id": "9fcf35a9-7d34-404f-a7bf-d0f55af11a12"
  },
  {
    "id": "1ab3e657-a081-4cd4-afe4-21b8b21ddfd1",
    "name": "Rafael Pascacio Gamboa",
    "state_id": "9fcf35a9-7d34-404f-a7bf-d0f55af11a12"
  },
  {
    "id": "496db2f3-c31b-45c5-b067-52cd5dc52533",
    "name": "Rafael Ramírez",
    "state_id": "9fcf35a9-7d34-404f-a7bf-d0f55af11a12"
  },
  {
    "id": "cd832479-1e5c-4861-aaf9-e58515915444",
    "name": "Ramón F. Balboa",
    "state_id": "9fcf35a9-7d34-404f-a7bf-d0f55af11a12"
  },
  {
    "id": "6ba564c0-5726-403c-b8ac-0a7a20fa35e3",
    "name": "Raudales Malpaso",
    "state_id": "9fcf35a9-7d34-404f-a7bf-d0f55af11a12"
  },
  {
    "id": "9b40d8fe-5ebf-41d2-be03-f7db7dde0686",
    "name": "Raymundo Enríquez",
    "state_id": "9fcf35a9-7d34-404f-a7bf-d0f55af11a12"
  },
  {
    "id": "753b29e0-e5ed-416b-8bbc-744165fae41a",
    "name": "Rayón",
    "state_id": "9fcf35a9-7d34-404f-a7bf-d0f55af11a12"
  },
  {
    "id": "0869d4b0-b624-47e6-9b48-8fd6772768a8",
    "name": "Reforma",
    "state_id": "9fcf35a9-7d34-404f-a7bf-d0f55af11a12"
  },
  {
    "id": "9934479c-65f9-49af-b133-e3fd76fc4d29",
    "name": "Reforma y Planada",
    "state_id": "9fcf35a9-7d34-404f-a7bf-d0f55af11a12"
  },
  {
    "id": "5eddf8b8-d54d-4e85-bafc-b05e8aec2a61",
    "name": "Revolución Mexicana",
    "state_id": "9fcf35a9-7d34-404f-a7bf-d0f55af11a12"
  },
  {
    "id": "b2c1d2d3-6e74-4dfa-b0f5-267bd649ab65",
    "name": "Ricardo Flores Magón",
    "state_id": "9fcf35a9-7d34-404f-a7bf-d0f55af11a12"
  },
  {
    "id": "04ab4d2a-11e0-4be4-8ff0-05d6cec85ade",
    "name": "Rincón Chamula",
    "state_id": "9fcf35a9-7d34-404f-a7bf-d0f55af11a12"
  },
  {
    "id": "c4fff668-1894-4717-9ac1-85ffcaa30842",
    "name": "Río Blanco",
    "state_id": "9fcf35a9-7d34-404f-a7bf-d0f55af11a12"
  },
  {
    "id": "7a0b4fe6-f49e-4ffc-ae76-cee9b4daca7a",
    "name": "Río Chancalá",
    "state_id": "9fcf35a9-7d34-404f-a7bf-d0f55af11a12"
  },
  {
    "id": "c6c35775-f4fe-4cb0-824e-9964337b548e",
    "name": "Río Jordán",
    "state_id": "9fcf35a9-7d34-404f-a7bf-d0f55af11a12"
  },
  {
    "id": "a7422ff4-99ca-4828-922f-c2afe6f7f8a5",
    "name": "Rizo de Oro",
    "state_id": "9fcf35a9-7d34-404f-a7bf-d0f55af11a12"
  },
  {
    "id": "36d61703-18e4-4658-9754-75fda8c3ce8e",
    "name": "Roblada Grande",
    "state_id": "9fcf35a9-7d34-404f-a7bf-d0f55af11a12"
  },
  {
    "id": "9ea1ab28-e56f-402f-9914-089bd1df354f",
    "name": "Rodulfo Figueroa",
    "state_id": "9fcf35a9-7d34-404f-a7bf-d0f55af11a12"
  },
  {
    "id": "1fe768dd-93e8-4780-b974-d0673fc2de83",
    "name": "Romerillo",
    "state_id": "9fcf35a9-7d34-404f-a7bf-d0f55af11a12"
  },
  {
    "id": "a255c5b3-bcc9-4479-80d9-334403dcf367",
    "name": "Sabanilla",
    "state_id": "9fcf35a9-7d34-404f-a7bf-d0f55af11a12"
  },
  {
    "id": "538dacf6-a293-4184-b9ce-de4c7320448d",
    "name": "Sabinalito",
    "state_id": "9fcf35a9-7d34-404f-a7bf-d0f55af11a12"
  },
  {
    "id": "b3de1714-ee72-4457-908b-f4810b1452f9",
    "name": "Saclamantón",
    "state_id": "9fcf35a9-7d34-404f-a7bf-d0f55af11a12"
  },
  {
    "id": "deb73885-ded8-4bfc-b6d3-272542c1059e",
    "name": "Saltillo",
    "state_id": "9fcf35a9-7d34-404f-a7bf-d0f55af11a12"
  },
  {
    "id": "a548a25c-127b-4b85-adc5-07f72f1ffb72",
    "name": "Salto de Agua",
    "state_id": "9fcf35a9-7d34-404f-a7bf-d0f55af11a12"
  },
  {
    "id": "3f647eb5-4d7a-495d-94ea-b604808ddb0b",
    "name": "Salvador Urbina",
    "state_id": "9fcf35a9-7d34-404f-a7bf-d0f55af11a12"
  },
  {
    "id": "abf01ec6-d565-4ad5-a1ca-460baa192754",
    "name": "San Andrés Duraznal",
    "state_id": "9fcf35a9-7d34-404f-a7bf-d0f55af11a12"
  },
  {
    "id": "803238e8-7568-49a3-8469-1c1a290deba4",
    "name": "San Antonio Buenavista",
    "state_id": "9fcf35a9-7d34-404f-a7bf-d0f55af11a12"
  },
  {
    "id": "d5def7d5-d51f-4353-80e7-ff03244936c1",
    "name": "San Antonio Bulujib",
    "state_id": "9fcf35a9-7d34-404f-a7bf-d0f55af11a12"
  },
  {
    "id": "ae8d0bef-37eb-4f69-a7e4-b6167933d5ec",
    "name": "San Antonio del Monte",
    "state_id": "9fcf35a9-7d34-404f-a7bf-d0f55af11a12"
  },
  {
    "id": "72e40821-9dee-4d2d-8041-d66c519f5cb0",
    "name": "San Caralampio",
    "state_id": "9fcf35a9-7d34-404f-a7bf-d0f55af11a12"
  },
  {
    "id": "7be149e3-8f71-4b7c-ad5b-582b80a2f5f1",
    "name": "San Cayetano",
    "state_id": "9fcf35a9-7d34-404f-a7bf-d0f55af11a12"
  },
  {
    "id": "2a0e949d-75d4-4001-84e0-20edb0e083fa",
    "name": "San Cristóbal de las Casas",
    "state_id": "9fcf35a9-7d34-404f-a7bf-d0f55af11a12"
  },
  {
    "id": "42657ae6-8cd8-4484-9df6-f6da97dd1516",
    "name": "San Felipe Tizapa",
    "state_id": "9fcf35a9-7d34-404f-a7bf-d0f55af11a12"
  },
  {
    "id": "69ab8dff-aa81-4e48-a7a1-173609c68d37",
    "name": "San Fernando",
    "state_id": "9fcf35a9-7d34-404f-a7bf-d0f55af11a12"
  },
  {
    "id": "d9a07fa1-d92e-40f8-b1e0-6d82496d9731",
    "name": "San Francisco (El Calvito)",
    "state_id": "9fcf35a9-7d34-404f-a7bf-d0f55af11a12"
  },
  {
    "id": "cebd8ccc-d504-44cb-8d3e-4d088af45ac2",
    "name": "San Francisco Jaconá",
    "state_id": "9fcf35a9-7d34-404f-a7bf-d0f55af11a12"
  },
  {
    "id": "358f100b-fd4d-4b76-a671-efa55c2177cd",
    "name": "San Francisco Pujiltic",
    "state_id": "9fcf35a9-7d34-404f-a7bf-d0f55af11a12"
  },
  {
    "id": "24d11500-a058-4f2b-acab-ea1977017280",
    "name": "San Isidro",
    "state_id": "9fcf35a9-7d34-404f-a7bf-d0f55af11a12"
  },
  {
    "id": "2c6baa76-8da8-4320-a1cb-e54c4480d21e",
    "name": "San Isidro las Banderas",
    "state_id": "9fcf35a9-7d34-404f-a7bf-d0f55af11a12"
  },
  {
    "id": "269513cd-710e-452d-a94f-a3310cffa807",
    "name": "San Jerónimo Tulijá",
    "state_id": "9fcf35a9-7d34-404f-a7bf-d0f55af11a12"
  },
  {
    "id": "50dd0170-3645-415f-8aec-18b589f70d89",
    "name": "San José Chapayal",
    "state_id": "9fcf35a9-7d34-404f-a7bf-d0f55af11a12"
  },
  {
    "id": "ed3a5c49-a22b-4e84-9762-07daafe6bf76",
    "name": "San José las Chicharras",
    "state_id": "9fcf35a9-7d34-404f-a7bf-d0f55af11a12"
  },
  {
    "id": "fb58f188-66dc-4572-a5ea-145adc196316",
    "name": "San José Yashitinín",
    "state_id": "9fcf35a9-7d34-404f-a7bf-d0f55af11a12"
  },
  {
    "id": "73c20077-ecaa-47c2-aa53-9dd374aeed12",
    "name": "San José Yocnajab",
    "state_id": "9fcf35a9-7d34-404f-a7bf-d0f55af11a12"
  },
  {
    "id": "fd1b538b-b946-4500-9a8e-9e7085329f2a",
    "name": "San Lucas",
    "state_id": "9fcf35a9-7d34-404f-a7bf-d0f55af11a12"
  },
  {
    "id": "972ed83b-f131-4b2a-9b8d-8cec49cb45d8",
    "name": "San Luqueño",
    "state_id": "9fcf35a9-7d34-404f-a7bf-d0f55af11a12"
  },
  {
    "id": "25306822-3744-45ba-a748-c161d1c6d345",
    "name": "San Miguel",
    "state_id": "9fcf35a9-7d34-404f-a7bf-d0f55af11a12"
  },
  {
    "id": "095d75de-1fa4-4927-95c7-50eb0a8bd1c3",
    "name": "San Miguel la Sardina",
    "state_id": "9fcf35a9-7d34-404f-a7bf-d0f55af11a12"
  },
  {
    "id": "5f74252f-d614-40f0-b1a0-f9f457dc4a1f",
    "name": "San Pablo Huacano",
    "state_id": "9fcf35a9-7d34-404f-a7bf-d0f55af11a12"
  },
  {
    "id": "3dfc6599-3e64-42e0-a4b1-658653f472a5",
    "name": "San Pedro Buenavista",
    "state_id": "9fcf35a9-7d34-404f-a7bf-d0f55af11a12"
  },
  {
    "id": "729dc1f2-b964-49ca-a0df-1ff5e9410209",
    "name": "San Pedro Nichtalucum",
    "state_id": "9fcf35a9-7d34-404f-a7bf-d0f55af11a12"
  },
  {
    "id": "472cbf29-8bf3-4f7d-b506-60389b6f7335",
    "name": "San Quintín",
    "state_id": "9fcf35a9-7d34-404f-a7bf-d0f55af11a12"
  },
  {
    "id": "de05b0b3-8083-46a9-8199-949f73966091",
    "name": "San Vicente la Mesilla",
    "state_id": "9fcf35a9-7d34-404f-a7bf-d0f55af11a12"
  },
  {
    "id": "7223777f-86e8-4156-b37e-4f396c1010d4",
    "name": "Santa Elena",
    "state_id": "9fcf35a9-7d34-404f-a7bf-d0f55af11a12"
  },
  {
    "id": "4549560f-6351-413c-b776-619438145fea",
    "name": "Santa María",
    "state_id": "9fcf35a9-7d34-404f-a7bf-d0f55af11a12"
  },
  {
    "id": "d7f331c6-13be-49cc-b15f-c826cc12e4ce",
    "name": "Santa Rita",
    "state_id": "9fcf35a9-7d34-404f-a7bf-d0f55af11a12"
  },
  {
    "id": "2636476a-6a5e-4246-91da-b6b0fcf36eba",
    "name": "Santiago el Pinar",
    "state_id": "9fcf35a9-7d34-404f-a7bf-d0f55af11a12"
  },
  {
    "id": "b04f9646-308c-4e98-bf06-aa4af0c393e2",
    "name": "Santiago Pojcol",
    "state_id": "9fcf35a9-7d34-404f-a7bf-d0f55af11a12"
  },
  {
    "id": "bdeb48ea-fbae-4e88-9945-08d97b7997de",
    "name": "Santo Domingo",
    "state_id": "9fcf35a9-7d34-404f-a7bf-d0f55af11a12"
  },
  {
    "id": "6a2c4e33-a409-435d-bf8e-1bede46206ca",
    "name": "Santo Domingo de las Palmas",
    "state_id": "9fcf35a9-7d34-404f-a7bf-d0f55af11a12"
  },
  {
    "id": "a9d0bd0a-1f2b-4f81-98bc-578b35805bfb",
    "name": "Señor del Pozo",
    "state_id": "9fcf35a9-7d34-404f-a7bf-d0f55af11a12"
  },
  {
    "id": "4ffc30f0-b8de-40b0-b2d0-e3e556edb188",
    "name": "Shoctic",
    "state_id": "9fcf35a9-7d34-404f-a7bf-d0f55af11a12"
  },
  {
    "id": "2addecdd-f13a-42d6-a6e3-b2d985800487",
    "name": "Sibacá",
    "state_id": "9fcf35a9-7d34-404f-a7bf-d0f55af11a12"
  },
  {
    "id": "857b81b9-3495-4f35-8c85-c9eb754d545b",
    "name": "Sibaniljá Pocolum",
    "state_id": "9fcf35a9-7d34-404f-a7bf-d0f55af11a12"
  },
  {
    "id": "7a149120-75e5-438b-9024-8319d9e93048",
    "name": "Siltepec",
    "state_id": "9fcf35a9-7d34-404f-a7bf-d0f55af11a12"
  },
  {
    "id": "0dfb6648-9339-4512-956d-3c6a9103caea",
    "name": "Simojovel",
    "state_id": "9fcf35a9-7d34-404f-a7bf-d0f55af11a12"
  },
  {
    "id": "23dad617-8d7d-4aaa-8859-2ce4aba8b4ef",
    "name": "Simojovel de Allende",
    "state_id": "9fcf35a9-7d34-404f-a7bf-d0f55af11a12"
  },
  {
    "id": "8a6f8a86-8edd-458e-9672-23077f590499",
    "name": "Sinaloa",
    "state_id": "9fcf35a9-7d34-404f-a7bf-d0f55af11a12"
  },
  {
    "id": "55aed0fc-8efb-430e-bc64-0a99307dfa23",
    "name": "Sitalá",
    "state_id": "9fcf35a9-7d34-404f-a7bf-d0f55af11a12"
  },
  {
    "id": "680e1926-a7bd-4e56-8ce4-c65c7ffff907",
    "name": "Socoltenango",
    "state_id": "9fcf35a9-7d34-404f-a7bf-d0f55af11a12"
  },
  {
    "id": "4baa8f8b-ba39-4c84-8345-c1ff11cb9079",
    "name": "Soconusco",
    "state_id": "9fcf35a9-7d34-404f-a7bf-d0f55af11a12"
  },
  {
    "id": "e966c8e2-d481-4c4d-9a21-e0ab7741fe0a",
    "name": "Solosuchiapa",
    "state_id": "9fcf35a9-7d34-404f-a7bf-d0f55af11a12"
  },
  {
    "id": "a9f4ff34-be78-4306-9eaf-da9a24f177c9",
    "name": "Soyaló",
    "state_id": "9fcf35a9-7d34-404f-a7bf-d0f55af11a12"
  },
  {
    "id": "cc75a2be-fd4a-4057-a544-869cf11aeb0a",
    "name": "Soyatitán",
    "state_id": "9fcf35a9-7d34-404f-a7bf-d0f55af11a12"
  },
  {
    "id": "26bad912-748b-4ecb-82c7-b08c5f89bd33",
    "name": "Suchiapa",
    "state_id": "9fcf35a9-7d34-404f-a7bf-d0f55af11a12"
  },
  {
    "id": "b5bea981-be50-4002-a114-0f58134a71f9",
    "name": "Suchiate",
    "state_id": "9fcf35a9-7d34-404f-a7bf-d0f55af11a12"
  },
  {
    "id": "8abcdfe1-9bd9-4460-8f83-92564fcab308",
    "name": "Tacuba Nueva",
    "state_id": "9fcf35a9-7d34-404f-a7bf-d0f55af11a12"
  },
  {
    "id": "dac6128f-8465-41d7-ad5c-d4e827ae5831",
    "name": "Talismán",
    "state_id": "9fcf35a9-7d34-404f-a7bf-d0f55af11a12"
  },
  {
    "id": "cd4a560a-4672-4263-9561-b38cd80292a9",
    "name": "Tamaulipas",
    "state_id": "9fcf35a9-7d34-404f-a7bf-d0f55af11a12"
  },
  {
    "id": "50bd4135-127a-4be6-857e-929b95e25c7a",
    "name": "Taniperla",
    "state_id": "9fcf35a9-7d34-404f-a7bf-d0f55af11a12"
  },
  {
    "id": "63797d23-c848-4e93-a925-522c9ced9010",
    "name": "Tapachula",
    "state_id": "9fcf35a9-7d34-404f-a7bf-d0f55af11a12"
  },
  {
    "id": "b7aa7648-bc97-4b82-a798-39089ff6fbbe",
    "name": "Tapalapa",
    "state_id": "9fcf35a9-7d34-404f-a7bf-d0f55af11a12"
  },
  {
    "id": "85e5f6b3-10cd-4d8d-9072-321f34224db0",
    "name": "Tapilula",
    "state_id": "9fcf35a9-7d34-404f-a7bf-d0f55af11a12"
  },
  {
    "id": "45295db0-f8fd-457a-9c0d-e7c57a82b25b",
    "name": "Tecpatán",
    "state_id": "9fcf35a9-7d34-404f-a7bf-d0f55af11a12"
  },
  {
    "id": "86daeba8-7cc4-4d4f-8aff-9ab7747e13ce",
    "name": "Tenango",
    "state_id": "9fcf35a9-7d34-404f-a7bf-d0f55af11a12"
  },
  {
    "id": "e309efa8-a9ca-4a67-b936-ac4cd861b916",
    "name": "Tentic",
    "state_id": "9fcf35a9-7d34-404f-a7bf-d0f55af11a12"
  },
  {
    "id": "4ca20329-2656-4451-8de7-a61059aed9d7",
    "name": "Teopisca",
    "state_id": "9fcf35a9-7d34-404f-a7bf-d0f55af11a12"
  },
  {
    "id": "b34d2837-23d1-4877-907c-ad7971309283",
    "name": "Texcaltic",
    "state_id": "9fcf35a9-7d34-404f-a7bf-d0f55af11a12"
  },
  {
    "id": "8dd6d0a6-938b-4ef1-b929-fa7de2d919e2",
    "name": "Tierra y Libertad",
    "state_id": "9fcf35a9-7d34-404f-a7bf-d0f55af11a12"
  },
  {
    "id": "dde5c448-19d0-4d2d-b200-b447a64de12a",
    "name": "Tila",
    "state_id": "9fcf35a9-7d34-404f-a7bf-d0f55af11a12"
  },
  {
    "id": "c040418f-2c5d-45b4-adc2-b7a2cd733020",
    "name": "Tiltepec",
    "state_id": "9fcf35a9-7d34-404f-a7bf-d0f55af11a12"
  },
  {
    "id": "2bc2ae64-e53d-4ef6-993b-a171cd9067b9",
    "name": "Tinajas 1ra. Sección",
    "state_id": "9fcf35a9-7d34-404f-a7bf-d0f55af11a12"
  },
  {
    "id": "083e60ee-aac1-4308-969e-7e4f84f38fdf",
    "name": "Tocob Leglemal",
    "state_id": "9fcf35a9-7d34-404f-a7bf-d0f55af11a12"
  },
  {
    "id": "adddf8f8-c792-4d66-897c-0c876f8665c6",
    "name": "Tonalá",
    "state_id": "9fcf35a9-7d34-404f-a7bf-d0f55af11a12"
  },
  {
    "id": "82c17744-977e-4ed4-8f22-2e159863f505",
    "name": "Totolapa",
    "state_id": "9fcf35a9-7d34-404f-a7bf-d0f55af11a12"
  },
  {
    "id": "2dc27d16-152d-4fcf-8365-155f3adb5ccf",
    "name": "Tres Cerros",
    "state_id": "9fcf35a9-7d34-404f-a7bf-d0f55af11a12"
  },
  {
    "id": "e4808ed6-2b94-4f9f-a736-29e3425602d3",
    "name": "Tres Picos",
    "state_id": "9fcf35a9-7d34-404f-a7bf-d0f55af11a12"
  },
  {
    "id": "37d1863e-a839-4237-8f69-c09d99d7d718",
    "name": "Tumbala",
    "state_id": "9fcf35a9-7d34-404f-a7bf-d0f55af11a12"
  },
  {
    "id": "cf972f3a-ba98-4f5e-abe3-8e5717b9f938",
    "name": "Tuxtla",
    "state_id": "9fcf35a9-7d34-404f-a7bf-d0f55af11a12"
  },
  {
    "id": "5ec59946-9f13-4b6e-a451-d78d4c76e506",
    "name": "Tuxtla Chico",
    "state_id": "9fcf35a9-7d34-404f-a7bf-d0f55af11a12"
  },
  {
    "id": "6bf68195-9d06-4755-9e31-0333878b234d",
    "name": "Tuzantán",
    "state_id": "9fcf35a9-7d34-404f-a7bf-d0f55af11a12"
  },
  {
    "id": "b05fd801-eacd-4204-9db1-5764fa7820e7",
    "name": "Tz'Aquiviljok",
    "state_id": "9fcf35a9-7d34-404f-a7bf-d0f55af11a12"
  },
  {
    "id": "6a2ee1b8-ee44-43ef-aa33-1a79c18a9b85",
    "name": "Tzajalá",
    "state_id": "9fcf35a9-7d34-404f-a7bf-d0f55af11a12"
  },
  {
    "id": "abefb7a4-553a-4871-92b8-d3402b918ca9",
    "name": "Tzajalchén",
    "state_id": "9fcf35a9-7d34-404f-a7bf-d0f55af11a12"
  },
  {
    "id": "d0484d40-66cb-4e0b-b7ad-8743ee7fb099",
    "name": "Tzeltal",
    "state_id": "9fcf35a9-7d34-404f-a7bf-d0f55af11a12"
  },
  {
    "id": "c1670ef5-3702-417a-b11e-c7f18271fb6f",
    "name": "Tzimol",
    "state_id": "9fcf35a9-7d34-404f-a7bf-d0f55af11a12"
  },
  {
    "id": "a1ace16f-839a-4363-98e7-762dd6548e6d",
    "name": "Tzinil",
    "state_id": "9fcf35a9-7d34-404f-a7bf-d0f55af11a12"
  },
  {
    "id": "a528dbae-5580-443b-984a-6814967b80ad",
    "name": "Tziscao",
    "state_id": "9fcf35a9-7d34-404f-a7bf-d0f55af11a12"
  },
  {
    "id": "684dcb36-61b6-456e-9afd-571522d1d448",
    "name": "Tzoeptic",
    "state_id": "9fcf35a9-7d34-404f-a7bf-d0f55af11a12"
  },
  {
    "id": "bcf6d10e-48b7-45c6-994e-214c2d746200",
    "name": "Tzontehuitz",
    "state_id": "9fcf35a9-7d34-404f-a7bf-d0f55af11a12"
  },
  {
    "id": "97fc3539-8e42-49bf-bf2f-e03b36421d77",
    "name": "Tzopilja",
    "state_id": "9fcf35a9-7d34-404f-a7bf-d0f55af11a12"
  },
  {
    "id": "6dcbeb46-dff8-4a97-98b6-401eda0d9efd",
    "name": "Ubilio García",
    "state_id": "9fcf35a9-7d34-404f-a7bf-d0f55af11a12"
  },
  {
    "id": "36678d95-439d-4e7f-9017-5000c2394dc9",
    "name": "Unión Buena Vista",
    "state_id": "9fcf35a9-7d34-404f-a7bf-d0f55af11a12"
  },
  {
    "id": "52df3b2b-a232-426c-a6ce-b4aac9df0bc7",
    "name": "Unión Buenavista",
    "state_id": "9fcf35a9-7d34-404f-a7bf-d0f55af11a12"
  },
  {
    "id": "3879b312-81d2-42b7-8c20-d2f48321be07",
    "name": "Unión Juárez",
    "state_id": "9fcf35a9-7d34-404f-a7bf-d0f55af11a12"
  },
  {
    "id": "19dbbb4f-247c-48ec-a0ee-f27ccab0835c",
    "name": "Unión Roja",
    "state_id": "9fcf35a9-7d34-404f-a7bf-d0f55af11a12"
  },
  {
    "id": "8bf8eef3-fea1-44cd-a078-9e9cfcb9708b",
    "name": "Usipa",
    "state_id": "9fcf35a9-7d34-404f-a7bf-d0f55af11a12"
  },
  {
    "id": "893e6512-2113-4318-a081-c2c602566d38",
    "name": "Vega del Rosario",
    "state_id": "9fcf35a9-7d34-404f-a7bf-d0f55af11a12"
  },
  {
    "id": "c02675c1-a636-42e7-acf7-e5f80860c1ff",
    "name": "Veinte de Noviembre",
    "state_id": "9fcf35a9-7d34-404f-a7bf-d0f55af11a12"
  },
  {
    "id": "510f0d45-97c4-451c-975d-92af14f5755d",
    "name": "Venustiano Carranza",
    "state_id": "9fcf35a9-7d34-404f-a7bf-d0f55af11a12"
  },
  {
    "id": "e09a1b51-04ad-46a2-9e2c-8db5f9f6ff8f",
    "name": "Veracruz",
    "state_id": "9fcf35a9-7d34-404f-a7bf-d0f55af11a12"
  },
  {
    "id": "f6e1b4f3-0a58-44c2-97fe-02481aa3f067",
    "name": "Verapaz",
    "state_id": "9fcf35a9-7d34-404f-a7bf-d0f55af11a12"
  },
  {
    "id": "b9e4dc55-0c87-4c56-840c-7581440418ca",
    "name": "Vicente Guerrero",
    "state_id": "9fcf35a9-7d34-404f-a7bf-d0f55af11a12"
  },
  {
    "id": "ecf1442d-b484-4e16-90fb-8c7c4dd079ee",
    "name": "Vida Mejor I",
    "state_id": "9fcf35a9-7d34-404f-a7bf-d0f55af11a12"
  },
  {
    "id": "cd14027b-a049-4a41-a3fa-0807ba4a7c77",
    "name": "Villa Comaltitlán",
    "state_id": "9fcf35a9-7d34-404f-a7bf-d0f55af11a12"
  },
  {
    "id": "ff9c6a77-71f3-4adf-a9e6-0318d430707a",
    "name": "Villa Corzo",
    "state_id": "9fcf35a9-7d34-404f-a7bf-d0f55af11a12"
  },
  {
    "id": "09470482-caf9-4dbb-9ab2-bddb5366ad26",
    "name": "Villa Hidalgo",
    "state_id": "9fcf35a9-7d34-404f-a7bf-d0f55af11a12"
  },
  {
    "id": "dd265369-6c0a-41bf-9407-f224e9a33351",
    "name": "Villaflores",
    "state_id": "9fcf35a9-7d34-404f-a7bf-d0f55af11a12"
  },
  {
    "id": "00635765-fa5c-4d06-b37d-3aaa97dc0946",
    "name": "Villahermosa Yaluma",
    "state_id": "9fcf35a9-7d34-404f-a7bf-d0f55af11a12"
  },
  {
    "id": "d648da94-b4fc-4259-8938-73b02877272f",
    "name": "Villamorelos",
    "state_id": "9fcf35a9-7d34-404f-a7bf-d0f55af11a12"
  },
  {
    "id": "8c14b3b7-7d47-4b72-b5a5-73c18aa79ca0",
    "name": "Viva Cárdenas",
    "state_id": "9fcf35a9-7d34-404f-a7bf-d0f55af11a12"
  },
  {
    "id": "31a954e9-e85c-4b24-897a-bd538681ab14",
    "name": "Viva México",
    "state_id": "9fcf35a9-7d34-404f-a7bf-d0f55af11a12"
  },
  {
    "id": "36881a07-db75-4193-bf17-b840a78e6e9d",
    "name": "Xochiltepec",
    "state_id": "9fcf35a9-7d34-404f-a7bf-d0f55af11a12"
  },
  {
    "id": "daa8a533-4839-4709-bcc2-a5ed900063db",
    "name": "Yajalón",
    "state_id": "9fcf35a9-7d34-404f-a7bf-d0f55af11a12"
  },
  {
    "id": "635e6665-94ae-46b8-8a25-9ed64f0ffc11",
    "name": "Yaltem",
    "state_id": "9fcf35a9-7d34-404f-a7bf-d0f55af11a12"
  },
  {
    "id": "cb1c43d7-b7b0-4cbe-ac4b-ab6d6cfddbae",
    "name": "Yasha",
    "state_id": "9fcf35a9-7d34-404f-a7bf-d0f55af11a12"
  },
  {
    "id": "994350d0-d483-48c5-bfb2-3cedf97c13dc",
    "name": "Yashanal",
    "state_id": "9fcf35a9-7d34-404f-a7bf-d0f55af11a12"
  },
  {
    "id": "9f7790d4-650c-4df0-aaac-1ac645588e7d",
    "name": "Yibeljoj",
    "state_id": "9fcf35a9-7d34-404f-a7bf-d0f55af11a12"
  },
  {
    "id": "ad41f7fc-6302-4cc6-8c62-e3d7f603bb91",
    "name": "Yoshib",
    "state_id": "9fcf35a9-7d34-404f-a7bf-d0f55af11a12"
  },
  {
    "id": "b751ddec-5a15-456e-9691-576469d7655d",
    "name": "Zacatonal de Juárez",
    "state_id": "9fcf35a9-7d34-404f-a7bf-d0f55af11a12"
  },
  {
    "id": "babf18ce-a018-41db-9ee7-08a23f7ef6d1",
    "name": "Zacualpa",
    "state_id": "9fcf35a9-7d34-404f-a7bf-d0f55af11a12"
  },
  {
    "id": "8235505c-b6c1-49ec-bc28-cddd240b94a3",
    "name": "Zamora Pico de Oro",
    "state_id": "9fcf35a9-7d34-404f-a7bf-d0f55af11a12"
  },
  {
    "id": "841f926e-6911-4a52-9890-d80877a77205",
    "name": "Zaragoza",
    "state_id": "9fcf35a9-7d34-404f-a7bf-d0f55af11a12"
  },
  {
    "id": "daddc439-10a2-4bf2-9252-fcc103e0e9cb",
    "name": "Zaragoza la Montaña",
    "state_id": "9fcf35a9-7d34-404f-a7bf-d0f55af11a12"
  },
  {
    "id": "fffea92a-5988-4abc-aa39-66ebfb2e9317",
    "name": "Zequentic",
    "state_id": "9fcf35a9-7d34-404f-a7bf-d0f55af11a12"
  },
  {
    "id": "f95d0f76-bb52-4bf9-a10b-d4b92d2d4bc9",
    "name": "Zinacantán",
    "state_id": "9fcf35a9-7d34-404f-a7bf-d0f55af11a12"
  }
]