[
  {
    "id": "0d05900c-8be2-4b6c-a365-0b6bc96b13ae",
    "name": "Gelgaudiškis",
    "state_id": "a11fdd78-c2df-4aef-b78d-bbe1327d1983"
  },
  {
    "id": "12d1c0be-a34b-42a1-a831-3b08b9bddd29",
    "name": "Kalvarija",
    "state_id": "a11fdd78-c2df-4aef-b78d-bbe1327d1983"
  },
  {
    "id": "beed3b4b-ca5a-4d37-bd34-d3656bc9fc29",
    "name": "Kalvarija Municipality",
    "state_id": "a11fdd78-c2df-4aef-b78d-bbe1327d1983"
  },
  {
    "id": "13adb1a2-2664-43ac-a9f3-b5359369d455",
    "name": "Kazlų Rūda",
    "state_id": "a11fdd78-c2df-4aef-b78d-bbe1327d1983"
  },
  {
    "id": "de8401d2-b4cd-4852-9b46-d183a55af639",
    "name": "Kazlų Rūda Municipality",
    "state_id": "a11fdd78-c2df-4aef-b78d-bbe1327d1983"
  },
  {
    "id": "4351a8fa-f79d-43c1-8a7f-ce2050bcf048",
    "name": "Kudirkos Naumiestis",
    "state_id": "a11fdd78-c2df-4aef-b78d-bbe1327d1983"
  },
  {
    "id": "cdb10524-2428-4fec-bd93-ff8423a533dd",
    "name": "Kybartai",
    "state_id": "a11fdd78-c2df-4aef-b78d-bbe1327d1983"
  },
  {
    "id": "46eac0a4-1c8f-4f5b-9407-1a2fcca0ddea",
    "name": "Marijampolė",
    "state_id": "a11fdd78-c2df-4aef-b78d-bbe1327d1983"
  },
  {
    "id": "0548b1c8-8ed9-4741-93b0-c5838c47d050",
    "name": "Marijampolė Municipality",
    "state_id": "a11fdd78-c2df-4aef-b78d-bbe1327d1983"
  },
  {
    "id": "dab0e90b-d974-46ab-9018-fe8454040a65",
    "name": "Sakiai",
    "state_id": "a11fdd78-c2df-4aef-b78d-bbe1327d1983"
  },
  {
    "id": "969fbccc-b758-47ed-a513-70cda7a5ffb4",
    "name": "Vilkaviskis",
    "state_id": "a11fdd78-c2df-4aef-b78d-bbe1327d1983"
  },
  {
    "id": "cc0951da-be64-43f9-9aa3-36b28b0e476f",
    "name": "Vilkaviškis District Municipality",
    "state_id": "a11fdd78-c2df-4aef-b78d-bbe1327d1983"
  },
  {
    "id": "7a273575-3173-46a4-82d6-bdf31b44144f",
    "name": "Virbalis",
    "state_id": "a11fdd78-c2df-4aef-b78d-bbe1327d1983"
  }
]