[
  {
    "id": "00336826-1a0b-40c6-b0b3-36c6c839d757",
    "name": "Amphoe Chiang Kham",
    "state_id": "a2202d52-d551-4a4d-8035-33be42b3faa7"
  },
  {
    "id": "e21f928c-6fde-40ee-ab1e-e04ed012ae24",
    "name": "Amphoe Chiang Muan",
    "state_id": "a2202d52-d551-4a4d-8035-33be42b3faa7"
  },
  {
    "id": "158ae387-ab03-425a-acf5-3ae20eff8e2c",
    "name": "Amphoe Chun",
    "state_id": "a2202d52-d551-4a4d-8035-33be42b3faa7"
  },
  {
    "id": "e5d9d5f0-9626-4686-b5f5-96335a2cf622",
    "name": "Amphoe Dok Kham Tai",
    "state_id": "a2202d52-d551-4a4d-8035-33be42b3faa7"
  },
  {
    "id": "22eb9fee-9453-4229-8e82-2f2c5a0e4fe9",
    "name": "Amphoe Mae Chai",
    "state_id": "a2202d52-d551-4a4d-8035-33be42b3faa7"
  },
  {
    "id": "64fa40a6-0c93-46e6-8a68-fe69e76123f9",
    "name": "Amphoe Mueang Phayao",
    "state_id": "a2202d52-d551-4a4d-8035-33be42b3faa7"
  },
  {
    "id": "6bd0e1dd-8385-4d4b-9b20-52e9e1224f39",
    "name": "Amphoe Phu Kam Yao",
    "state_id": "a2202d52-d551-4a4d-8035-33be42b3faa7"
  },
  {
    "id": "1ac1248f-5a5c-4973-b536-c9b0ff3223c5",
    "name": "Amphoe Phu Sang",
    "state_id": "a2202d52-d551-4a4d-8035-33be42b3faa7"
  },
  {
    "id": "112759e5-f5e8-4094-a845-6d0830864d5c",
    "name": "Amphoe Pong",
    "state_id": "a2202d52-d551-4a4d-8035-33be42b3faa7"
  },
  {
    "id": "bf2c6262-105f-4b96-b28c-613d738f17a8",
    "name": "Chiang Kham",
    "state_id": "a2202d52-d551-4a4d-8035-33be42b3faa7"
  },
  {
    "id": "0541a464-36e5-4183-bb6b-7938a4e2f98f",
    "name": "Dok Kham Tai",
    "state_id": "a2202d52-d551-4a4d-8035-33be42b3faa7"
  },
  {
    "id": "1aa66d35-dfa1-44cc-96d7-d79fd3030a88",
    "name": "Mae Chai",
    "state_id": "a2202d52-d551-4a4d-8035-33be42b3faa7"
  },
  {
    "id": "2bafdcaa-87c2-4206-a37f-4da5bd142b38",
    "name": "Phayao",
    "state_id": "a2202d52-d551-4a4d-8035-33be42b3faa7"
  },
  {
    "id": "7a0c58b7-3e01-4470-bbcd-dfad28397cea",
    "name": "Pong",
    "state_id": "a2202d52-d551-4a4d-8035-33be42b3faa7"
  }
]