[
  {
    "id": "c47f528b-a97d-4670-9117-a1b23f6dee22",
    "name": "Gwangju",
    "state_id": "a2ba1871-25b2-42ae-9f73-7e474bf8305c"
  },
  {
    "id": "c9b7338a-5863-4fb9-90d3-ac073c093e13",
    "name": "Gwangsan-gu",
    "state_id": "a2ba1871-25b2-42ae-9f73-7e474bf8305c"
  },
  {
    "id": "29d83a25-541b-4619-bf32-0a909e52c24c",
    "name": "Masan",
    "state_id": "a2ba1871-25b2-42ae-9f73-7e474bf8305c"
  }
]