[
  {
    "id": "1cf6b9f6-fd41-4669-995c-b0f59119f51d",
    "name": "Bonanza",
    "state_id": "a42574dd-8775-4d04-a33a-453a9c58b05c"
  },
  {
    "id": "5848956f-f456-4c6d-aeb9-8c3d0438e1a2",
    "name": "Prinzapolka",
    "state_id": "a42574dd-8775-4d04-a33a-453a9c58b05c"
  },
  {
    "id": "4eeeb107-39af-440d-a9dc-e3a72681dd1e",
    "name": "Puerto Cabezas",
    "state_id": "a42574dd-8775-4d04-a33a-453a9c58b05c"
  },
  {
    "id": "cf1f5718-78e4-492f-bf40-36f55a56843b",
    "name": "Siuna",
    "state_id": "a42574dd-8775-4d04-a33a-453a9c58b05c"
  },
  {
    "id": "8b337f76-b98c-472a-afb2-3ae941c757d9",
    "name": "Waslala",
    "state_id": "a42574dd-8775-4d04-a33a-453a9c58b05c"
  },
  {
    "id": "07e826d0-f98c-4f8d-8727-5dbe48e101f3",
    "name": "Waspán",
    "state_id": "a42574dd-8775-4d04-a33a-453a9c58b05c"
  }
]