[
  {
    "id": "c4297556-2195-4fd8-956f-6f95db509751",
    "name": "Abaca",
    "state_id": "a56a1140-45d1-44c4-ae9b-2c5ac7c1d6b6"
  },
  {
    "id": "d4ba4bc0-b27a-430e-90c4-8b5e08566d4a",
    "name": "Abangay",
    "state_id": "a56a1140-45d1-44c4-ae9b-2c5ac7c1d6b6"
  },
  {
    "id": "8b7fc6b6-3ae3-4d50-bdb8-9c5494de0e5e",
    "name": "Abiera",
    "state_id": "a56a1140-45d1-44c4-ae9b-2c5ac7c1d6b6"
  },
  {
    "id": "d50b9605-987a-4ddb-bf2c-c53f9c34d6f2",
    "name": "Abilay",
    "state_id": "a56a1140-45d1-44c4-ae9b-2c5ac7c1d6b6"
  },
  {
    "id": "c7331a5a-08d0-4001-8de3-18c7b6a37f8f",
    "name": "Ag-ambulong",
    "state_id": "a56a1140-45d1-44c4-ae9b-2c5ac7c1d6b6"
  },
  {
    "id": "382e7979-781b-4752-bb5d-28c16f0b39bb",
    "name": "Aganan",
    "state_id": "a56a1140-45d1-44c4-ae9b-2c5ac7c1d6b6"
  },
  {
    "id": "ff654bcf-a41d-486f-891a-4251835de6ba",
    "name": "Aglalana",
    "state_id": "a56a1140-45d1-44c4-ae9b-2c5ac7c1d6b6"
  },
  {
    "id": "a8a090b1-14c0-44b3-8a0c-cdc4ccf5a9a7",
    "name": "Agpangi",
    "state_id": "a56a1140-45d1-44c4-ae9b-2c5ac7c1d6b6"
  },
  {
    "id": "5a2424b6-2178-49b4-b0d5-ad91bc300126",
    "name": "Aguisan",
    "state_id": "a56a1140-45d1-44c4-ae9b-2c5ac7c1d6b6"
  },
  {
    "id": "9482d67c-9f73-4903-8a76-d8cccfbbd228",
    "name": "Ajuy",
    "state_id": "a56a1140-45d1-44c4-ae9b-2c5ac7c1d6b6"
  },
  {
    "id": "a60604f1-302d-4827-88ed-e9323870fc8e",
    "name": "Alacaygan",
    "state_id": "a56a1140-45d1-44c4-ae9b-2c5ac7c1d6b6"
  },
  {
    "id": "0a7318e9-2732-4f99-a53a-d0d051cfb75c",
    "name": "Alegria",
    "state_id": "a56a1140-45d1-44c4-ae9b-2c5ac7c1d6b6"
  },
  {
    "id": "11487aff-7d4e-431b-aea6-a5d74f4aa2f7",
    "name": "Alibunan",
    "state_id": "a56a1140-45d1-44c4-ae9b-2c5ac7c1d6b6"
  },
  {
    "id": "59d6e4bb-6f73-4e44-8709-85090971b74a",
    "name": "Alicante",
    "state_id": "a56a1140-45d1-44c4-ae9b-2c5ac7c1d6b6"
  },
  {
    "id": "c2dc3f25-421d-43c8-981f-06d0b7cc91fe",
    "name": "Alijis",
    "state_id": "a56a1140-45d1-44c4-ae9b-2c5ac7c1d6b6"
  },
  {
    "id": "4b871f5a-7fe9-4677-98f4-bf342c1f57b4",
    "name": "Alim",
    "state_id": "a56a1140-45d1-44c4-ae9b-2c5ac7c1d6b6"
  },
  {
    "id": "ecedfa2b-93f8-4552-a789-c8dd746d36b7",
    "name": "Alimodian",
    "state_id": "a56a1140-45d1-44c4-ae9b-2c5ac7c1d6b6"
  },
  {
    "id": "f7e319f0-b1b9-44ca-82f9-4e691a38460c",
    "name": "Alimono",
    "state_id": "a56a1140-45d1-44c4-ae9b-2c5ac7c1d6b6"
  },
  {
    "id": "7f7f4bb5-ad0d-436f-b60c-9a96c80435d7",
    "name": "Altavas",
    "state_id": "a56a1140-45d1-44c4-ae9b-2c5ac7c1d6b6"
  },
  {
    "id": "856b7659-76fe-42d7-b23b-8b89fccb890c",
    "name": "Ambulong",
    "state_id": "a56a1140-45d1-44c4-ae9b-2c5ac7c1d6b6"
  },
  {
    "id": "c6abedae-48a2-484e-a07a-304ce023aa31",
    "name": "Andres Bonifacio",
    "state_id": "a56a1140-45d1-44c4-ae9b-2c5ac7c1d6b6"
  },
  {
    "id": "70c9d7b4-e1ff-46e6-a360-888d91198084",
    "name": "Anini-y",
    "state_id": "a56a1140-45d1-44c4-ae9b-2c5ac7c1d6b6"
  },
  {
    "id": "095419d2-f935-4041-a5a1-0678839c00b5",
    "name": "Anoring",
    "state_id": "a56a1140-45d1-44c4-ae9b-2c5ac7c1d6b6"
  },
  {
    "id": "527a5fa4-67e3-4973-a040-dac6a59e4c4b",
    "name": "Antipolo",
    "state_id": "a56a1140-45d1-44c4-ae9b-2c5ac7c1d6b6"
  },
  {
    "id": "447933b7-b046-4ee4-850f-99caa2c04ea5",
    "name": "Aquino",
    "state_id": "a56a1140-45d1-44c4-ae9b-2c5ac7c1d6b6"
  },
  {
    "id": "dca061d8-4f26-4926-b6a2-759b8b084f1e",
    "name": "Araal",
    "state_id": "a56a1140-45d1-44c4-ae9b-2c5ac7c1d6b6"
  },
  {
    "id": "1fe04384-e98d-495b-8dae-7d80b73dacc7",
    "name": "Aranas Sur",
    "state_id": "a56a1140-45d1-44c4-ae9b-2c5ac7c1d6b6"
  },
  {
    "id": "35686c1b-25cf-4912-b008-84757b8b6516",
    "name": "Aranda",
    "state_id": "a56a1140-45d1-44c4-ae9b-2c5ac7c1d6b6"
  },
  {
    "id": "a4ab71f0-f59f-4ce7-be20-e37176f73998",
    "name": "Arcangel",
    "state_id": "a56a1140-45d1-44c4-ae9b-2c5ac7c1d6b6"
  },
  {
    "id": "da6bd39a-ad5d-4b04-80eb-4d795bdf04b2",
    "name": "Asia",
    "state_id": "a56a1140-45d1-44c4-ae9b-2c5ac7c1d6b6"
  },
  {
    "id": "98b455e8-6f8f-48a4-a241-a3cb63eaa2cd",
    "name": "Asturga",
    "state_id": "a56a1140-45d1-44c4-ae9b-2c5ac7c1d6b6"
  },
  {
    "id": "23058871-73c0-48d7-b3ac-e1e49fecf9e8",
    "name": "Atabayan",
    "state_id": "a56a1140-45d1-44c4-ae9b-2c5ac7c1d6b6"
  },
  {
    "id": "1d31d4e7-ec4b-4902-99c4-2affaf7b6c3a",
    "name": "Atipuluhan",
    "state_id": "a56a1140-45d1-44c4-ae9b-2c5ac7c1d6b6"
  },
  {
    "id": "a8823501-a1b8-4af4-96cc-fffbe1d14540",
    "name": "Aurelliana",
    "state_id": "a56a1140-45d1-44c4-ae9b-2c5ac7c1d6b6"
  },
  {
    "id": "f98b8bdf-8104-4628-b522-b97dc243c072",
    "name": "Avila",
    "state_id": "a56a1140-45d1-44c4-ae9b-2c5ac7c1d6b6"
  },
  {
    "id": "375e6406-e82e-4f62-b5a3-bf7a9a664831",
    "name": "Bacalan",
    "state_id": "a56a1140-45d1-44c4-ae9b-2c5ac7c1d6b6"
  },
  {
    "id": "ca235bf0-0884-477b-aa19-fa143755f19f",
    "name": "Bacolod City",
    "state_id": "a56a1140-45d1-44c4-ae9b-2c5ac7c1d6b6"
  },
  {
    "id": "e316e735-980c-4c2e-8e2e-4fd3f6d03a4f",
    "name": "Bacuyangan",
    "state_id": "a56a1140-45d1-44c4-ae9b-2c5ac7c1d6b6"
  },
  {
    "id": "b3b002f5-1146-4207-99dd-c11986f43515",
    "name": "Badiangan",
    "state_id": "a56a1140-45d1-44c4-ae9b-2c5ac7c1d6b6"
  },
  {
    "id": "51dbc976-721e-412c-a691-bc762d2850fe",
    "name": "Badlan",
    "state_id": "a56a1140-45d1-44c4-ae9b-2c5ac7c1d6b6"
  },
  {
    "id": "a77cc65b-3fb8-4ed8-8523-60d8b3e0ae80",
    "name": "Bago City",
    "state_id": "a56a1140-45d1-44c4-ae9b-2c5ac7c1d6b6"
  },
  {
    "id": "7b8e579b-de16-4148-80ad-9f5f134d86fe",
    "name": "Bagroy",
    "state_id": "a56a1140-45d1-44c4-ae9b-2c5ac7c1d6b6"
  },
  {
    "id": "cc493485-38d3-4dbf-9b6d-ed4d31334aaa",
    "name": "Bagumbayan",
    "state_id": "a56a1140-45d1-44c4-ae9b-2c5ac7c1d6b6"
  },
  {
    "id": "e2f53cc1-b182-46c9-81f1-6d284ce82c93",
    "name": "Bailan",
    "state_id": "a56a1140-45d1-44c4-ae9b-2c5ac7c1d6b6"
  },
  {
    "id": "d3556f18-2ba1-4b45-894f-104ea763aed2",
    "name": "Balabag",
    "state_id": "a56a1140-45d1-44c4-ae9b-2c5ac7c1d6b6"
  },
  {
    "id": "c6ec1f6f-fab2-4f69-85a0-85d33947ed86",
    "name": "Balasan",
    "state_id": "a56a1140-45d1-44c4-ae9b-2c5ac7c1d6b6"
  },
  {
    "id": "1548d876-a541-4c6c-bf57-9ca1c9f10604",
    "name": "Balete",
    "state_id": "a56a1140-45d1-44c4-ae9b-2c5ac7c1d6b6"
  },
  {
    "id": "c9a8ab95-86b6-4263-933f-efdf370d883b",
    "name": "Balibagan Oeste",
    "state_id": "a56a1140-45d1-44c4-ae9b-2c5ac7c1d6b6"
  },
  {
    "id": "61dd733d-5e3d-436d-81f5-f8e795f2695c",
    "name": "Baliwagan",
    "state_id": "a56a1140-45d1-44c4-ae9b-2c5ac7c1d6b6"
  },
  {
    "id": "24f02850-c1d3-4064-a8c2-da220e962ad0",
    "name": "Bancal",
    "state_id": "a56a1140-45d1-44c4-ae9b-2c5ac7c1d6b6"
  },
  {
    "id": "1164c301-831a-48cb-bc42-f8e6a7b1f314",
    "name": "Banga",
    "state_id": "a56a1140-45d1-44c4-ae9b-2c5ac7c1d6b6"
  },
  {
    "id": "05dc3b18-ea66-4797-9ca7-89b735c3ac70",
    "name": "Barbaza",
    "state_id": "a56a1140-45d1-44c4-ae9b-2c5ac7c1d6b6"
  },
  {
    "id": "7a5b0dbd-28ec-4383-842e-87f53c1cdeb1",
    "name": "Barotac Nuevo",
    "state_id": "a56a1140-45d1-44c4-ae9b-2c5ac7c1d6b6"
  },
  {
    "id": "d4a08c25-c944-4c3c-b114-ba90ca6afa79",
    "name": "Barotac Viejo",
    "state_id": "a56a1140-45d1-44c4-ae9b-2c5ac7c1d6b6"
  },
  {
    "id": "2edadaa2-e2ca-4dc7-99b3-ff7365b8f1cc",
    "name": "Basiao",
    "state_id": "a56a1140-45d1-44c4-ae9b-2c5ac7c1d6b6"
  },
  {
    "id": "b1520f2f-90d6-441d-83dc-c2f96376c688",
    "name": "Batad",
    "state_id": "a56a1140-45d1-44c4-ae9b-2c5ac7c1d6b6"
  },
  {
    "id": "822b9a56-a4a3-42e6-89d1-c22b479f3e76",
    "name": "Batan",
    "state_id": "a56a1140-45d1-44c4-ae9b-2c5ac7c1d6b6"
  },
  {
    "id": "aba331e0-1cb4-4ad1-b01e-b9a19eae27c6",
    "name": "Bato",
    "state_id": "a56a1140-45d1-44c4-ae9b-2c5ac7c1d6b6"
  },
  {
    "id": "849543cc-6aac-4705-aca4-fa8680850aaa",
    "name": "Bay-ang",
    "state_id": "a56a1140-45d1-44c4-ae9b-2c5ac7c1d6b6"
  },
  {
    "id": "ce2c4e25-7def-40c8-b979-5f37056dc38e",
    "name": "Bayas",
    "state_id": "a56a1140-45d1-44c4-ae9b-2c5ac7c1d6b6"
  },
  {
    "id": "2c364c55-0d17-4196-b43d-36d5644486af",
    "name": "Belison",
    "state_id": "a56a1140-45d1-44c4-ae9b-2c5ac7c1d6b6"
  },
  {
    "id": "f7af7738-ad5a-4c43-a418-5207797ebdfc",
    "name": "Biao",
    "state_id": "a56a1140-45d1-44c4-ae9b-2c5ac7c1d6b6"
  },
  {
    "id": "4e6005b3-6ca8-4bc9-9d0e-c2b50c21f10d",
    "name": "Bilao",
    "state_id": "a56a1140-45d1-44c4-ae9b-2c5ac7c1d6b6"
  },
  {
    "id": "0fb212fd-d4e2-461b-ac66-243c99691357",
    "name": "Binabaan",
    "state_id": "a56a1140-45d1-44c4-ae9b-2c5ac7c1d6b6"
  },
  {
    "id": "bda8c9a9-9155-4432-b83a-710ca5a62df7",
    "name": "Binalbagan",
    "state_id": "a56a1140-45d1-44c4-ae9b-2c5ac7c1d6b6"
  },
  {
    "id": "f2398668-76ee-4b5b-ab9a-08217862ff02",
    "name": "Binantocan",
    "state_id": "a56a1140-45d1-44c4-ae9b-2c5ac7c1d6b6"
  },
  {
    "id": "31867172-c3ed-417d-a84f-76dd31bc680a",
    "name": "Bingawan",
    "state_id": "a56a1140-45d1-44c4-ae9b-2c5ac7c1d6b6"
  },
  {
    "id": "a4413d6a-36f9-4397-9c31-acc3f4a7f700",
    "name": "Binon-an",
    "state_id": "a56a1140-45d1-44c4-ae9b-2c5ac7c1d6b6"
  },
  {
    "id": "fb32baee-2a9a-4c10-9ece-32856bade834",
    "name": "Binonga",
    "state_id": "a56a1140-45d1-44c4-ae9b-2c5ac7c1d6b6"
  },
  {
    "id": "782f4381-2e23-4eff-855d-a4b225611e7b",
    "name": "Bitadtun",
    "state_id": "a56a1140-45d1-44c4-ae9b-2c5ac7c1d6b6"
  },
  {
    "id": "299f03e8-558b-452c-a981-8dea1c3fb395",
    "name": "Bocana",
    "state_id": "a56a1140-45d1-44c4-ae9b-2c5ac7c1d6b6"
  },
  {
    "id": "b143cdc4-fde2-4020-a2f3-d9c9de1761b5",
    "name": "Bolanon",
    "state_id": "a56a1140-45d1-44c4-ae9b-2c5ac7c1d6b6"
  },
  {
    "id": "e9f70279-2771-425d-8011-fd7736549d21",
    "name": "Bolilao",
    "state_id": "a56a1140-45d1-44c4-ae9b-2c5ac7c1d6b6"
  },
  {
    "id": "946c85f4-4af6-4fd1-b5bd-c24161324822",
    "name": "Bolo",
    "state_id": "a56a1140-45d1-44c4-ae9b-2c5ac7c1d6b6"
  },
  {
    "id": "aae55e2a-033d-4222-aef8-d762ebf7c360",
    "name": "Bolong",
    "state_id": "a56a1140-45d1-44c4-ae9b-2c5ac7c1d6b6"
  },
  {
    "id": "153a02a0-0de9-4e0e-8615-696f3ea73567",
    "name": "Brgy. Bachaw Norte, Kalibo",
    "state_id": "a56a1140-45d1-44c4-ae9b-2c5ac7c1d6b6"
  },
  {
    "id": "22c0644e-6a2e-4070-a60a-c5248526ec00",
    "name": "Brgy. Bulwang, Numancia",
    "state_id": "a56a1140-45d1-44c4-ae9b-2c5ac7c1d6b6"
  },
  {
    "id": "b89ea2d6-a101-4b35-acac-52eaf9938be1",
    "name": "Brgy. Mabilo, New Washington",
    "state_id": "a56a1140-45d1-44c4-ae9b-2c5ac7c1d6b6"
  },
  {
    "id": "7bd7abbf-42ee-4f0a-ac3a-fc1476f14081",
    "name": "Brgy. Nalook, kalibo",
    "state_id": "a56a1140-45d1-44c4-ae9b-2c5ac7c1d6b6"
  },
  {
    "id": "e07c56e5-a6ca-45e5-aaed-75c48bd6489e",
    "name": "Brgy. New Buswang, Kalibo",
    "state_id": "a56a1140-45d1-44c4-ae9b-2c5ac7c1d6b6"
  },
  {
    "id": "9e741d39-46b6-47c6-9d85-f9759d26fb9d",
    "name": "Brgy. Tinigao, Kalibo",
    "state_id": "a56a1140-45d1-44c4-ae9b-2c5ac7c1d6b6"
  },
  {
    "id": "64f99b9a-724c-4cc9-b028-0712efe2090f",
    "name": "Buenavista",
    "state_id": "a56a1140-45d1-44c4-ae9b-2c5ac7c1d6b6"
  },
  {
    "id": "8c142fb8-3ced-4322-a87d-4062b2f140d9",
    "name": "Buga",
    "state_id": "a56a1140-45d1-44c4-ae9b-2c5ac7c1d6b6"
  },
  {
    "id": "ff82beee-376b-4a64-87ad-56a0b63bc10a",
    "name": "Bugang",
    "state_id": "a56a1140-45d1-44c4-ae9b-2c5ac7c1d6b6"
  },
  {
    "id": "11582a37-b00d-4cb5-be35-8c533023fe71",
    "name": "Bugasong",
    "state_id": "a56a1140-45d1-44c4-ae9b-2c5ac7c1d6b6"
  },
  {
    "id": "a9b6f40a-fac7-49b8-af3b-d5f19ad91627",
    "name": "Bula",
    "state_id": "a56a1140-45d1-44c4-ae9b-2c5ac7c1d6b6"
  },
  {
    "id": "e942337c-b864-4912-9a9a-0c3bc2620022",
    "name": "Bulad",
    "state_id": "a56a1140-45d1-44c4-ae9b-2c5ac7c1d6b6"
  },
  {
    "id": "2a9e12fe-7f37-46fa-9db3-752ba3721756",
    "name": "Bulata",
    "state_id": "a56a1140-45d1-44c4-ae9b-2c5ac7c1d6b6"
  },
  {
    "id": "f7ed9eab-9926-4ea1-b70c-c53652cb1b03",
    "name": "Buluangan",
    "state_id": "a56a1140-45d1-44c4-ae9b-2c5ac7c1d6b6"
  },
  {
    "id": "457d8b99-82d9-4132-9280-2335b775bb4c",
    "name": "Bungsuan",
    "state_id": "a56a1140-45d1-44c4-ae9b-2c5ac7c1d6b6"
  },
  {
    "id": "ce64a58c-392f-44fc-9e57-91e8a0dbddd3",
    "name": "Buray",
    "state_id": "a56a1140-45d1-44c4-ae9b-2c5ac7c1d6b6"
  },
  {
    "id": "8f41ca9f-d77f-48d8-aae1-eb996ae58607",
    "name": "Burias",
    "state_id": "a56a1140-45d1-44c4-ae9b-2c5ac7c1d6b6"
  },
  {
    "id": "2651202d-6b6b-45ea-9556-b54fb8fb9e55",
    "name": "Buruanga",
    "state_id": "a56a1140-45d1-44c4-ae9b-2c5ac7c1d6b6"
  },
  {
    "id": "bfbb1fa4-4a43-4109-8e14-f90ece94f3b3",
    "name": "Busay",
    "state_id": "a56a1140-45d1-44c4-ae9b-2c5ac7c1d6b6"
  },
  {
    "id": "87508d1a-4ee7-488d-948f-57ee708cf1c8",
    "name": "Buyuan",
    "state_id": "a56a1140-45d1-44c4-ae9b-2c5ac7c1d6b6"
  },
  {
    "id": "0287ec95-75c8-4adb-84e7-9ef4f0d6a5df",
    "name": "Cabacungan",
    "state_id": "a56a1140-45d1-44c4-ae9b-2c5ac7c1d6b6"
  },
  {
    "id": "bec06dca-3117-4b0a-b209-8624b640fff9",
    "name": "Cabadiangan",
    "state_id": "a56a1140-45d1-44c4-ae9b-2c5ac7c1d6b6"
  },
  {
    "id": "567f48af-3777-4b99-a3e7-aec8e1164ead",
    "name": "Cabanbanan",
    "state_id": "a56a1140-45d1-44c4-ae9b-2c5ac7c1d6b6"
  },
  {
    "id": "fbb598d8-1869-4f7c-b142-3018bda19083",
    "name": "Cabano",
    "state_id": "a56a1140-45d1-44c4-ae9b-2c5ac7c1d6b6"
  },
  {
    "id": "f6cc8df2-8296-4a44-8d5e-09f155209f66",
    "name": "Cabatuan",
    "state_id": "a56a1140-45d1-44c4-ae9b-2c5ac7c1d6b6"
  },
  {
    "id": "54466878-14c6-422c-bda0-212337558ede",
    "name": "Cabilao",
    "state_id": "a56a1140-45d1-44c4-ae9b-2c5ac7c1d6b6"
  },
  {
    "id": "d7473a00-0d83-4adc-9b0d-a33ead7da031",
    "name": "Cabilauan",
    "state_id": "a56a1140-45d1-44c4-ae9b-2c5ac7c1d6b6"
  },
  {
    "id": "4ca3d0e9-2143-40e4-b8cb-0986faad5e39",
    "name": "Cabugao",
    "state_id": "a56a1140-45d1-44c4-ae9b-2c5ac7c1d6b6"
  },
  {
    "id": "33ff1a69-cc9f-4270-8271-a0eb18dd338d",
    "name": "Cadagmayan Norte",
    "state_id": "a56a1140-45d1-44c4-ae9b-2c5ac7c1d6b6"
  },
  {
    "id": "4b1fb238-40c4-4080-96aa-248e52457234",
    "name": "Cadiz",
    "state_id": "a56a1140-45d1-44c4-ae9b-2c5ac7c1d6b6"
  },
  {
    "id": "52f6f078-49df-4212-9620-6d74f19279db",
    "name": "Cagbang",
    "state_id": "a56a1140-45d1-44c4-ae9b-2c5ac7c1d6b6"
  },
  {
    "id": "d8cbf4bc-304f-4c70-8482-2df4f5cd39ee",
    "name": "Calampisauan",
    "state_id": "a56a1140-45d1-44c4-ae9b-2c5ac7c1d6b6"
  },
  {
    "id": "1b44a0df-870e-4df3-95aa-7539e4b9ccb7",
    "name": "Calape",
    "state_id": "a56a1140-45d1-44c4-ae9b-2c5ac7c1d6b6"
  },
  {
    "id": "dd2ca005-d710-4ea9-859c-8020f6a7f65e",
    "name": "Calatrava",
    "state_id": "a56a1140-45d1-44c4-ae9b-2c5ac7c1d6b6"
  },
  {
    "id": "2ee697c8-b786-4bdb-a412-a980797c8683",
    "name": "Calaya",
    "state_id": "a56a1140-45d1-44c4-ae9b-2c5ac7c1d6b6"
  },
  {
    "id": "2541fed6-b738-4e78-9888-0c54df8a7999",
    "name": "Calinog",
    "state_id": "a56a1140-45d1-44c4-ae9b-2c5ac7c1d6b6"
  },
  {
    "id": "7d05f226-65dc-41c1-ad34-a616fedc4b2d",
    "name": "Calizo",
    "state_id": "a56a1140-45d1-44c4-ae9b-2c5ac7c1d6b6"
  },
  {
    "id": "ba8720b4-a18d-4bd5-9a1c-7c7598307426",
    "name": "Caluya",
    "state_id": "a56a1140-45d1-44c4-ae9b-2c5ac7c1d6b6"
  },
  {
    "id": "091f5698-995f-4967-83fe-ecc6b456f890",
    "name": "Camalobalo",
    "state_id": "a56a1140-45d1-44c4-ae9b-2c5ac7c1d6b6"
  },
  {
    "id": "d0e8fb58-008b-400b-9cac-61e0a1cd52ad",
    "name": "Camandag",
    "state_id": "a56a1140-45d1-44c4-ae9b-2c5ac7c1d6b6"
  },
  {
    "id": "ae79ebee-8e38-49a4-89f0-4e51c6cc5abc",
    "name": "Camangcamang",
    "state_id": "a56a1140-45d1-44c4-ae9b-2c5ac7c1d6b6"
  },
  {
    "id": "f81b0654-9294-407b-a5e2-934a485bc229",
    "name": "Camindangan",
    "state_id": "a56a1140-45d1-44c4-ae9b-2c5ac7c1d6b6"
  },
  {
    "id": "4a98d07c-7052-4bdb-b549-90df975f45dd",
    "name": "Camingawan",
    "state_id": "a56a1140-45d1-44c4-ae9b-2c5ac7c1d6b6"
  },
  {
    "id": "4aea80f4-2912-467a-82d8-95c3f6982bd6",
    "name": "Candelaria",
    "state_id": "a56a1140-45d1-44c4-ae9b-2c5ac7c1d6b6"
  },
  {
    "id": "f4d3faf1-0bb8-4776-93ea-2aad9e338a28",
    "name": "Candoni",
    "state_id": "a56a1140-45d1-44c4-ae9b-2c5ac7c1d6b6"
  },
  {
    "id": "c26a6ab1-88fa-4804-b890-22000ca9a587",
    "name": "Caningay",
    "state_id": "a56a1140-45d1-44c4-ae9b-2c5ac7c1d6b6"
  },
  {
    "id": "350a51f4-31de-4b4f-a46a-6e54a1971229",
    "name": "Canroma",
    "state_id": "a56a1140-45d1-44c4-ae9b-2c5ac7c1d6b6"
  },
  {
    "id": "01b7801e-9754-44a6-9257-5887c8015d6a",
    "name": "Cansilayan",
    "state_id": "a56a1140-45d1-44c4-ae9b-2c5ac7c1d6b6"
  },
  {
    "id": "4ab44e90-a434-4874-b2e4-4850a1aae64e",
    "name": "Cansolungon",
    "state_id": "a56a1140-45d1-44c4-ae9b-2c5ac7c1d6b6"
  },
  {
    "id": "2f689b78-3f8d-4c58-b83e-36eb3cd7b4b0",
    "name": "Canturay",
    "state_id": "a56a1140-45d1-44c4-ae9b-2c5ac7c1d6b6"
  },
  {
    "id": "9414e867-36ba-4359-b9fc-438be99b1c27",
    "name": "Capaga",
    "state_id": "a56a1140-45d1-44c4-ae9b-2c5ac7c1d6b6"
  },
  {
    "id": "496037c1-03ba-49fb-a9e6-e4172d12e8d9",
    "name": "Capitan Ramon",
    "state_id": "a56a1140-45d1-44c4-ae9b-2c5ac7c1d6b6"
  },
  {
    "id": "4875c792-ec4d-4fde-a92a-f372c11c3ee4",
    "name": "Carabalan",
    "state_id": "a56a1140-45d1-44c4-ae9b-2c5ac7c1d6b6"
  },
  {
    "id": "7370dce4-2a9d-42ac-9484-733676576cd2",
    "name": "Caridad",
    "state_id": "a56a1140-45d1-44c4-ae9b-2c5ac7c1d6b6"
  },
  {
    "id": "8d2223e4-df8b-4611-ab04-fd47ab3bafe4",
    "name": "Carles",
    "state_id": "a56a1140-45d1-44c4-ae9b-2c5ac7c1d6b6"
  },
  {
    "id": "35c02d7a-4559-4e6e-88ba-8139ab5b30f6",
    "name": "Carmelo",
    "state_id": "a56a1140-45d1-44c4-ae9b-2c5ac7c1d6b6"
  },
  {
    "id": "e36be8ea-42b8-4364-8586-5f8779b70358",
    "name": "Carmen Grande",
    "state_id": "a56a1140-45d1-44c4-ae9b-2c5ac7c1d6b6"
  },
  {
    "id": "f6f9f3a7-b909-4c2a-bceb-ffff7547b491",
    "name": "Cartagena",
    "state_id": "a56a1140-45d1-44c4-ae9b-2c5ac7c1d6b6"
  },
  {
    "id": "663f2df0-d5d7-4da5-92fc-672fd15d53e6",
    "name": "Cassanayan",
    "state_id": "a56a1140-45d1-44c4-ae9b-2c5ac7c1d6b6"
  },
  {
    "id": "3b79a950-5f51-4d4a-8a72-50276775d259",
    "name": "Caticlan",
    "state_id": "a56a1140-45d1-44c4-ae9b-2c5ac7c1d6b6"
  },
  {
    "id": "3cca7b16-c6f0-4ea8-a45c-374ceed9add3",
    "name": "Catungan",
    "state_id": "a56a1140-45d1-44c4-ae9b-2c5ac7c1d6b6"
  },
  {
    "id": "bf028747-dc37-4491-bc1e-e5ba0f7acfc5",
    "name": "Cawayan",
    "state_id": "a56a1140-45d1-44c4-ae9b-2c5ac7c1d6b6"
  },
  {
    "id": "b8f954a0-574c-42b5-a133-62c67ac74b6f",
    "name": "Cayanguan",
    "state_id": "a56a1140-45d1-44c4-ae9b-2c5ac7c1d6b6"
  },
  {
    "id": "b8c04717-5c85-4b6e-b8a4-3927ca6f0721",
    "name": "Cayhagan",
    "state_id": "a56a1140-45d1-44c4-ae9b-2c5ac7c1d6b6"
  },
  {
    "id": "c9afd5d7-e0a7-4279-a9db-c80dac7fd8c7",
    "name": "Cervantes",
    "state_id": "a56a1140-45d1-44c4-ae9b-2c5ac7c1d6b6"
  },
  {
    "id": "03f1b393-3625-467c-b703-a578a2f26e33",
    "name": "Chambrey",
    "state_id": "a56a1140-45d1-44c4-ae9b-2c5ac7c1d6b6"
  },
  {
    "id": "7a4d2d8a-ea52-49ea-8728-f072c0614a6a",
    "name": "Codcod",
    "state_id": "a56a1140-45d1-44c4-ae9b-2c5ac7c1d6b6"
  },
  {
    "id": "01efd777-20f7-41b8-aedb-71446d5b814c",
    "name": "Cogon",
    "state_id": "a56a1140-45d1-44c4-ae9b-2c5ac7c1d6b6"
  },
  {
    "id": "d165f3aa-482c-4c84-b48a-ea0d5bcef473",
    "name": "Colipapa",
    "state_id": "a56a1140-45d1-44c4-ae9b-2c5ac7c1d6b6"
  },
  {
    "id": "92ce3b8a-715e-452b-b7c9-d4af930d07c5",
    "name": "Concepcion",
    "state_id": "a56a1140-45d1-44c4-ae9b-2c5ac7c1d6b6"
  },
  {
    "id": "6b53c5fc-f295-4003-8bcd-5c1c830f02da",
    "name": "Concordia",
    "state_id": "a56a1140-45d1-44c4-ae9b-2c5ac7c1d6b6"
  },
  {
    "id": "9cae4f69-d812-47a8-aaac-95aa315230b6",
    "name": "Consolacion",
    "state_id": "a56a1140-45d1-44c4-ae9b-2c5ac7c1d6b6"
  },
  {
    "id": "cb320cbb-c196-4fb1-a371-de6a9b8835c0",
    "name": "Constancia",
    "state_id": "a56a1140-45d1-44c4-ae9b-2c5ac7c1d6b6"
  },
  {
    "id": "79f23cf1-fa49-4d2f-8a8a-942de04e403b",
    "name": "Consuelo",
    "state_id": "a56a1140-45d1-44c4-ae9b-2c5ac7c1d6b6"
  },
  {
    "id": "d832d5c1-b6de-4392-9743-3aad912e2c75",
    "name": "Cordova",
    "state_id": "a56a1140-45d1-44c4-ae9b-2c5ac7c1d6b6"
  },
  {
    "id": "d3f43f46-6dd1-49a7-8f3d-8442a8669c3a",
    "name": "Cortez",
    "state_id": "a56a1140-45d1-44c4-ae9b-2c5ac7c1d6b6"
  },
  {
    "id": "2929829e-d290-4cb2-a762-b97380ff3138",
    "name": "Cuartero",
    "state_id": "a56a1140-45d1-44c4-ae9b-2c5ac7c1d6b6"
  },
  {
    "id": "44d8a9ff-0139-4b25-b3cc-c680fff73c27",
    "name": "Culasi",
    "state_id": "a56a1140-45d1-44c4-ae9b-2c5ac7c1d6b6"
  },
  {
    "id": "05799bc3-0834-41a3-a41f-fa0f404ad469",
    "name": "Da-an Sur",
    "state_id": "a56a1140-45d1-44c4-ae9b-2c5ac7c1d6b6"
  },
  {
    "id": "a46c4936-7628-4b3c-8bf3-b04ce5f3dc70",
    "name": "Daliciasao",
    "state_id": "a56a1140-45d1-44c4-ae9b-2c5ac7c1d6b6"
  },
  {
    "id": "a46b66fb-5d17-4f93-a041-8f856e220b8e",
    "name": "Damayan",
    "state_id": "a56a1140-45d1-44c4-ae9b-2c5ac7c1d6b6"
  },
  {
    "id": "08b68263-5681-40ab-b045-efaf86a82209",
    "name": "Dancalan",
    "state_id": "a56a1140-45d1-44c4-ae9b-2c5ac7c1d6b6"
  },
  {
    "id": "d74af49f-3ee0-4ac0-b03a-e6f8f683a335",
    "name": "Dao",
    "state_id": "a56a1140-45d1-44c4-ae9b-2c5ac7c1d6b6"
  },
  {
    "id": "53b0edac-5d42-4293-ba8f-343a56801fea",
    "name": "Dapdapan",
    "state_id": "a56a1140-45d1-44c4-ae9b-2c5ac7c1d6b6"
  },
  {
    "id": "14f4925c-b286-494d-b73f-0c7adf09ad4d",
    "name": "De la Paz",
    "state_id": "a56a1140-45d1-44c4-ae9b-2c5ac7c1d6b6"
  },
  {
    "id": "13e38b8d-43b2-44a1-a3a9-a57d83394fec",
    "name": "Dian-ay",
    "state_id": "a56a1140-45d1-44c4-ae9b-2c5ac7c1d6b6"
  },
  {
    "id": "bd3042ee-c4a7-46d1-98db-86ed3a376d94",
    "name": "Dingle",
    "state_id": "a56a1140-45d1-44c4-ae9b-2c5ac7c1d6b6"
  },
  {
    "id": "b9068bad-77ef-4405-9575-99ca0f22cf86",
    "name": "Dos Hermanas",
    "state_id": "a56a1140-45d1-44c4-ae9b-2c5ac7c1d6b6"
  },
  {
    "id": "258469cc-daef-4e43-a07a-44e3d01a2537",
    "name": "Dueñas",
    "state_id": "a56a1140-45d1-44c4-ae9b-2c5ac7c1d6b6"
  },
  {
    "id": "2cf159fd-bbea-45f7-8fd4-9a7bd9a0f4e2",
    "name": "Dulangan",
    "state_id": "a56a1140-45d1-44c4-ae9b-2c5ac7c1d6b6"
  },
  {
    "id": "d11dff2f-e793-44ed-81d5-36ea683ed8e6",
    "name": "Dulao",
    "state_id": "a56a1140-45d1-44c4-ae9b-2c5ac7c1d6b6"
  },
  {
    "id": "af087fb5-d2f4-4af1-9da1-81e11e7bcac8",
    "name": "Dumalag",
    "state_id": "a56a1140-45d1-44c4-ae9b-2c5ac7c1d6b6"
  },
  {
    "id": "e9ad0aa8-c9e0-4a77-874e-467403443766",
    "name": "Dumangas",
    "state_id": "a56a1140-45d1-44c4-ae9b-2c5ac7c1d6b6"
  },
  {
    "id": "808cff1d-2e85-432a-a291-054ff6a406ec",
    "name": "Dumarao",
    "state_id": "a56a1140-45d1-44c4-ae9b-2c5ac7c1d6b6"
  },
  {
    "id": "3f298ae4-86e3-4f26-8666-1fb20b37c61e",
    "name": "Dungon",
    "state_id": "a56a1140-45d1-44c4-ae9b-2c5ac7c1d6b6"
  },
  {
    "id": "22105173-8b9e-4b84-a99d-98690fbf691b",
    "name": "Duran",
    "state_id": "a56a1140-45d1-44c4-ae9b-2c5ac7c1d6b6"
  },
  {
    "id": "db803805-a36a-4329-8a64-c61ddf6e0821",
    "name": "East Valencia",
    "state_id": "a56a1140-45d1-44c4-ae9b-2c5ac7c1d6b6"
  },
  {
    "id": "d7b8fed4-2a2b-4352-a061-8126f67d5d3e",
    "name": "Egaña",
    "state_id": "a56a1140-45d1-44c4-ae9b-2c5ac7c1d6b6"
  },
  {
    "id": "2000f0c2-d99a-4118-91b1-25fded960ee0",
    "name": "Ermita",
    "state_id": "a56a1140-45d1-44c4-ae9b-2c5ac7c1d6b6"
  },
  {
    "id": "7d9c4a8f-c117-4ac9-b517-b8c82083dbca",
    "name": "Escalante",
    "state_id": "a56a1140-45d1-44c4-ae9b-2c5ac7c1d6b6"
  },
  {
    "id": "5060863c-383c-4083-ab63-e54cb7fba732",
    "name": "Estancia",
    "state_id": "a56a1140-45d1-44c4-ae9b-2c5ac7c1d6b6"
  },
  {
    "id": "c3444d0b-10a0-4d6f-88d2-8b7bf29714ed",
    "name": "Eustaquio Lopez",
    "state_id": "a56a1140-45d1-44c4-ae9b-2c5ac7c1d6b6"
  },
  {
    "id": "0c6348c4-d754-40cc-904c-42e793fa5346",
    "name": "Feliciano",
    "state_id": "a56a1140-45d1-44c4-ae9b-2c5ac7c1d6b6"
  },
  {
    "id": "92ce58a7-6b17-445e-81d8-9c13d2a0fca2",
    "name": "Gabi",
    "state_id": "a56a1140-45d1-44c4-ae9b-2c5ac7c1d6b6"
  },
  {
    "id": "5be64afe-9b9a-49be-87ca-29e87ae3d10c",
    "name": "Getulio",
    "state_id": "a56a1140-45d1-44c4-ae9b-2c5ac7c1d6b6"
  },
  {
    "id": "4051df70-32c1-471b-8b3d-7e0b63772818",
    "name": "Gibato",
    "state_id": "a56a1140-45d1-44c4-ae9b-2c5ac7c1d6b6"
  },
  {
    "id": "5524933a-765c-400f-9eef-f632e095434c",
    "name": "Gibong",
    "state_id": "a56a1140-45d1-44c4-ae9b-2c5ac7c1d6b6"
  },
  {
    "id": "2a972966-9c23-4d09-ad28-dc818704b57c",
    "name": "Gines-Patay",
    "state_id": "a56a1140-45d1-44c4-ae9b-2c5ac7c1d6b6"
  },
  {
    "id": "a43892b4-a07b-4075-b4bf-19d7526db55f",
    "name": "Granada",
    "state_id": "a56a1140-45d1-44c4-ae9b-2c5ac7c1d6b6"
  },
  {
    "id": "6d180209-af13-469c-b843-1a832cc5dce6",
    "name": "Guadalupe",
    "state_id": "a56a1140-45d1-44c4-ae9b-2c5ac7c1d6b6"
  },
  {
    "id": "ca8784e6-27d9-41ba-9382-03775b30fd38",
    "name": "Guiljungan",
    "state_id": "a56a1140-45d1-44c4-ae9b-2c5ac7c1d6b6"
  },
  {
    "id": "75077076-29e0-4962-8cac-71b0a309b0df",
    "name": "Guimbal",
    "state_id": "a56a1140-45d1-44c4-ae9b-2c5ac7c1d6b6"
  },
  {
    "id": "e723bd5f-520b-4228-badd-6e349d0bc1b6",
    "name": "Guinoaliuan",
    "state_id": "a56a1140-45d1-44c4-ae9b-2c5ac7c1d6b6"
  },
  {
    "id": "de0d6b2b-bbde-4153-8211-33605a0da06c",
    "name": "Guinticgan",
    "state_id": "a56a1140-45d1-44c4-ae9b-2c5ac7c1d6b6"
  },
  {
    "id": "91536b77-d607-4eb0-bb1e-8af3c658b20d",
    "name": "Guintubhan",
    "state_id": "a56a1140-45d1-44c4-ae9b-2c5ac7c1d6b6"
  },
  {
    "id": "d75eaad7-8a79-4f54-ac76-291cb6bfa56b",
    "name": "Guisijan",
    "state_id": "a56a1140-45d1-44c4-ae9b-2c5ac7c1d6b6"
  },
  {
    "id": "8f6e905c-5d00-45ea-8237-dd89695cca03",
    "name": "Hacienda Refugio",
    "state_id": "a56a1140-45d1-44c4-ae9b-2c5ac7c1d6b6"
  },
  {
    "id": "9f609bef-92a8-4e5a-8cfb-f7de147d1935",
    "name": "Hacienda Santa Rosa",
    "state_id": "a56a1140-45d1-44c4-ae9b-2c5ac7c1d6b6"
  },
  {
    "id": "defdfefc-c970-4898-92f8-00a043c1d8c6",
    "name": "Haguimit",
    "state_id": "a56a1140-45d1-44c4-ae9b-2c5ac7c1d6b6"
  },
  {
    "id": "292e2b78-03b5-428e-b86e-4287af5dd704",
    "name": "Hamtic",
    "state_id": "a56a1140-45d1-44c4-ae9b-2c5ac7c1d6b6"
  },
  {
    "id": "03c7eef9-8cec-4bf2-bd29-afda5b8efc84",
    "name": "Himamaylan",
    "state_id": "a56a1140-45d1-44c4-ae9b-2c5ac7c1d6b6"
  },
  {
    "id": "f7d41110-bdc3-4dbb-b361-f36ec1c745ac",
    "name": "Himaya",
    "state_id": "a56a1140-45d1-44c4-ae9b-2c5ac7c1d6b6"
  },
  {
    "id": "0215ce62-44d3-4095-aadc-d590e5370ee0",
    "name": "Hinigaran",
    "state_id": "a56a1140-45d1-44c4-ae9b-2c5ac7c1d6b6"
  },
  {
    "id": "6bca75f5-ace7-4843-accf-98bc9a6746aa",
    "name": "Hipona",
    "state_id": "a56a1140-45d1-44c4-ae9b-2c5ac7c1d6b6"
  },
  {
    "id": "5fb8f0bb-63c7-4415-ae52-fd570c7980c2",
    "name": "Ibajay",
    "state_id": "a56a1140-45d1-44c4-ae9b-2c5ac7c1d6b6"
  },
  {
    "id": "4f66dba7-264c-4b0c-81d6-66e5e5109593",
    "name": "Idio",
    "state_id": "a56a1140-45d1-44c4-ae9b-2c5ac7c1d6b6"
  },
  {
    "id": "a8e0e6b6-e8ad-479a-9f27-269311cebe80",
    "name": "Igang",
    "state_id": "a56a1140-45d1-44c4-ae9b-2c5ac7c1d6b6"
  },
  {
    "id": "c88edf97-c908-4139-8a3e-3d8a470ed3c9",
    "name": "Igbaras",
    "state_id": "a56a1140-45d1-44c4-ae9b-2c5ac7c1d6b6"
  },
  {
    "id": "40322aca-c823-4613-9cbe-4fc5bdc4b9a7",
    "name": "Igbon",
    "state_id": "a56a1140-45d1-44c4-ae9b-2c5ac7c1d6b6"
  },
  {
    "id": "15dc106e-93d6-4d80-8fd5-7c7277f95d95",
    "name": "Igcocolo",
    "state_id": "a56a1140-45d1-44c4-ae9b-2c5ac7c1d6b6"
  },
  {
    "id": "846754b6-2a4f-4f99-8690-9bd370c4e312",
    "name": "Igmaya-an",
    "state_id": "a56a1140-45d1-44c4-ae9b-2c5ac7c1d6b6"
  },
  {
    "id": "c8862716-a84a-43a4-a80d-9e8d2d1717da",
    "name": "Ilog",
    "state_id": "a56a1140-45d1-44c4-ae9b-2c5ac7c1d6b6"
  },
  {
    "id": "676444be-d35d-4595-97ab-d7d6cd1a8fec",
    "name": "Iloilo",
    "state_id": "a56a1140-45d1-44c4-ae9b-2c5ac7c1d6b6"
  },
  {
    "id": "29dab856-56e7-4300-bccd-01b3fa9d06cb",
    "name": "Imbang",
    "state_id": "a56a1140-45d1-44c4-ae9b-2c5ac7c1d6b6"
  },
  {
    "id": "0f3b249d-28d0-4f53-ac97-5067047128fc",
    "name": "Inayauan",
    "state_id": "a56a1140-45d1-44c4-ae9b-2c5ac7c1d6b6"
  },
  {
    "id": "bc7a76de-fc7b-4e26-848f-0413c9e90541",
    "name": "Intampilan",
    "state_id": "a56a1140-45d1-44c4-ae9b-2c5ac7c1d6b6"
  },
  {
    "id": "be699346-fb5f-4359-be91-be3b0dde7b54",
    "name": "Isabela",
    "state_id": "a56a1140-45d1-44c4-ae9b-2c5ac7c1d6b6"
  },
  {
    "id": "c0a06820-82a8-4bca-9780-7fecd1955396",
    "name": "Ivisan",
    "state_id": "a56a1140-45d1-44c4-ae9b-2c5ac7c1d6b6"
  },
  {
    "id": "e158bca2-6b5b-4ba3-9190-082a66c06bfe",
    "name": "Jaena",
    "state_id": "a56a1140-45d1-44c4-ae9b-2c5ac7c1d6b6"
  },
  {
    "id": "faacad17-a355-442d-8f3c-cf2b42f36e87",
    "name": "Jaguimitan",
    "state_id": "a56a1140-45d1-44c4-ae9b-2c5ac7c1d6b6"
  },
  {
    "id": "5e3596a0-22cc-4265-973a-e96ef80e34e5",
    "name": "Jalaud",
    "state_id": "a56a1140-45d1-44c4-ae9b-2c5ac7c1d6b6"
  },
  {
    "id": "ba574f3c-36cd-4cf0-9342-bf95b5033cb1",
    "name": "Jamabalod",
    "state_id": "a56a1140-45d1-44c4-ae9b-2c5ac7c1d6b6"
  },
  {
    "id": "29400e6e-8b44-416e-80b7-6cdbebdeb76a",
    "name": "Jamindan",
    "state_id": "a56a1140-45d1-44c4-ae9b-2c5ac7c1d6b6"
  },
  {
    "id": "537bad20-8dc0-4fe5-bd11-0babfd9f3b7e",
    "name": "Janiuay",
    "state_id": "a56a1140-45d1-44c4-ae9b-2c5ac7c1d6b6"
  },
  {
    "id": "654d4637-921a-48e0-85b6-bf87844a73f3",
    "name": "Japitan",
    "state_id": "a56a1140-45d1-44c4-ae9b-2c5ac7c1d6b6"
  },
  {
    "id": "bbae9b42-d819-41d4-acfd-2b9857d729de",
    "name": "Jarigue",
    "state_id": "a56a1140-45d1-44c4-ae9b-2c5ac7c1d6b6"
  },
  {
    "id": "9c44816b-ce43-4360-98fa-8a2b41c128d0",
    "name": "Jayubó",
    "state_id": "a56a1140-45d1-44c4-ae9b-2c5ac7c1d6b6"
  },
  {
    "id": "0d052999-705b-4dc5-820a-b4eb7aa2c1ed",
    "name": "Jibao-an",
    "state_id": "a56a1140-45d1-44c4-ae9b-2c5ac7c1d6b6"
  },
  {
    "id": "259b1fe0-500d-4cd5-900e-2ff406d6ae96",
    "name": "Jordan",
    "state_id": "a56a1140-45d1-44c4-ae9b-2c5ac7c1d6b6"
  },
  {
    "id": "6401ac17-578e-489f-9a56-e09ec24ea857",
    "name": "Kabankalan",
    "state_id": "a56a1140-45d1-44c4-ae9b-2c5ac7c1d6b6"
  },
  {
    "id": "5ad6e941-58c2-4f3a-94f3-603c8cd54972",
    "name": "Kabilauan",
    "state_id": "a56a1140-45d1-44c4-ae9b-2c5ac7c1d6b6"
  },
  {
    "id": "dfe3b789-7a4e-4248-956d-5cca7a4132f8",
    "name": "Kalibo (poblacion)",
    "state_id": "a56a1140-45d1-44c4-ae9b-2c5ac7c1d6b6"
  },
  {
    "id": "678497be-a5e2-4d71-9d1c-5925d2e0b15a",
    "name": "Kaliling",
    "state_id": "a56a1140-45d1-44c4-ae9b-2c5ac7c1d6b6"
  },
  {
    "id": "e4ebf3a4-52df-42f8-8044-6e5ac5c10f88",
    "name": "Kumalisquis",
    "state_id": "a56a1140-45d1-44c4-ae9b-2c5ac7c1d6b6"
  },
  {
    "id": "05468e45-2bac-4279-bec2-081ab6782afc",
    "name": "La Carlota",
    "state_id": "a56a1140-45d1-44c4-ae9b-2c5ac7c1d6b6"
  },
  {
    "id": "c5843701-46bf-4d07-be3e-6b0cb03d5571",
    "name": "La Castellana",
    "state_id": "a56a1140-45d1-44c4-ae9b-2c5ac7c1d6b6"
  },
  {
    "id": "f51649b8-f736-4c03-b5a9-bfc382bdb15f",
    "name": "La Granja",
    "state_id": "a56a1140-45d1-44c4-ae9b-2c5ac7c1d6b6"
  },
  {
    "id": "8dd25942-931d-4fd0-9d3d-b2a656fe0673",
    "name": "La Paz",
    "state_id": "a56a1140-45d1-44c4-ae9b-2c5ac7c1d6b6"
  },
  {
    "id": "f19acc8d-0a7a-46e3-8229-08ad0a71a95d",
    "name": "Lacaron",
    "state_id": "a56a1140-45d1-44c4-ae9b-2c5ac7c1d6b6"
  },
  {
    "id": "d5997e00-cc48-4c39-8d3a-98c2e4a63389",
    "name": "Lalab",
    "state_id": "a56a1140-45d1-44c4-ae9b-2c5ac7c1d6b6"
  },
  {
    "id": "a3fdce1d-1b9e-4320-90a5-a6c10fc89587",
    "name": "Lalagsan",
    "state_id": "a56a1140-45d1-44c4-ae9b-2c5ac7c1d6b6"
  },
  {
    "id": "59d3ba28-7aa7-4e5a-be15-9b1c3a193824",
    "name": "Lambunao",
    "state_id": "a56a1140-45d1-44c4-ae9b-2c5ac7c1d6b6"
  },
  {
    "id": "6780fef3-8dab-410e-811a-6ac8c7770aed",
    "name": "Lañgub",
    "state_id": "a56a1140-45d1-44c4-ae9b-2c5ac7c1d6b6"
  },
  {
    "id": "6021104c-1c8c-476f-8866-1639f8546e04",
    "name": "Lanot",
    "state_id": "a56a1140-45d1-44c4-ae9b-2c5ac7c1d6b6"
  },
  {
    "id": "25ae6945-3056-4a70-8377-1a8b2bce0023",
    "name": "Lantangan",
    "state_id": "a56a1140-45d1-44c4-ae9b-2c5ac7c1d6b6"
  },
  {
    "id": "77ab8a69-58c2-4a6f-9ae9-c72706dfd4ab",
    "name": "Lawigan",
    "state_id": "a56a1140-45d1-44c4-ae9b-2c5ac7c1d6b6"
  },
  {
    "id": "c71f2c6b-b931-4f2a-bac0-a8cb9f6adcde",
    "name": "Leganes",
    "state_id": "a56a1140-45d1-44c4-ae9b-2c5ac7c1d6b6"
  },
  {
    "id": "59065074-f784-4ee0-97c0-38f7f1c7a964",
    "name": "Lemery",
    "state_id": "a56a1140-45d1-44c4-ae9b-2c5ac7c1d6b6"
  },
  {
    "id": "ba79f58b-3173-46f1-a1c4-d63438b17d80",
    "name": "Leon",
    "state_id": "a56a1140-45d1-44c4-ae9b-2c5ac7c1d6b6"
  },
  {
    "id": "f80a7222-40e4-45a1-b879-0e4046d66755",
    "name": "Libacao",
    "state_id": "a56a1140-45d1-44c4-ae9b-2c5ac7c1d6b6"
  },
  {
    "id": "cee528e5-f392-4eb8-adb6-20507b0f31cc",
    "name": "Libertad",
    "state_id": "a56a1140-45d1-44c4-ae9b-2c5ac7c1d6b6"
  },
  {
    "id": "81ede08c-b811-417f-9ea3-12f49682768e",
    "name": "Linabuan",
    "state_id": "a56a1140-45d1-44c4-ae9b-2c5ac7c1d6b6"
  },
  {
    "id": "e87c29b5-7e90-4368-8444-42f5917a45b8",
    "name": "Linabuan Sur",
    "state_id": "a56a1140-45d1-44c4-ae9b-2c5ac7c1d6b6"
  },
  {
    "id": "4985935a-de2a-46e1-a219-fe1c1ee83182",
    "name": "Linaon",
    "state_id": "a56a1140-45d1-44c4-ae9b-2c5ac7c1d6b6"
  },
  {
    "id": "efa8fdb3-b9b3-4076-a647-547c417c9e33",
    "name": "Locmayan",
    "state_id": "a56a1140-45d1-44c4-ae9b-2c5ac7c1d6b6"
  },
  {
    "id": "4f9d617d-8d76-4d56-91f8-a33a2dd8e616",
    "name": "Lono",
    "state_id": "a56a1140-45d1-44c4-ae9b-2c5ac7c1d6b6"
  },
  {
    "id": "896de85a-b1f6-40fc-ba3a-dd27968a6464",
    "name": "Lonoy",
    "state_id": "a56a1140-45d1-44c4-ae9b-2c5ac7c1d6b6"
  },
  {
    "id": "ff8bcdb9-97e0-4bb2-aa93-ba59afdcb5fc",
    "name": "Lopez Jaena",
    "state_id": "a56a1140-45d1-44c4-ae9b-2c5ac7c1d6b6"
  },
  {
    "id": "86f0b931-7d84-49c3-9ff9-7f9be68b511c",
    "name": "Lucena",
    "state_id": "a56a1140-45d1-44c4-ae9b-2c5ac7c1d6b6"
  },
  {
    "id": "80caddf5-9feb-401c-a0a6-9e6c3e7cbd87",
    "name": "Lucero",
    "state_id": "a56a1140-45d1-44c4-ae9b-2c5ac7c1d6b6"
  },
  {
    "id": "747827e3-260d-487e-9971-a3e46043c20c",
    "name": "Luna",
    "state_id": "a56a1140-45d1-44c4-ae9b-2c5ac7c1d6b6"
  },
  {
    "id": "8d8ecac1-d3cc-4bfc-898f-c835ddfa6bca",
    "name": "Lupo",
    "state_id": "a56a1140-45d1-44c4-ae9b-2c5ac7c1d6b6"
  },
  {
    "id": "542c7f3b-683a-4ffd-8671-d6b06c7e9ae6",
    "name": "Maao",
    "state_id": "a56a1140-45d1-44c4-ae9b-2c5ac7c1d6b6"
  },
  {
    "id": "aa58cc2f-3b41-4465-9bcc-c4aac19d3720",
    "name": "Maasin",
    "state_id": "a56a1140-45d1-44c4-ae9b-2c5ac7c1d6b6"
  },
  {
    "id": "1d0e6a7e-b25c-4313-93e8-f2dbb7a401b1",
    "name": "Maayon",
    "state_id": "a56a1140-45d1-44c4-ae9b-2c5ac7c1d6b6"
  },
  {
    "id": "d9a5eac4-f49e-4c09-80ff-e074e5fbab4d",
    "name": "Mabini",
    "state_id": "a56a1140-45d1-44c4-ae9b-2c5ac7c1d6b6"
  },
  {
    "id": "eead309e-ca02-42fa-a736-e20b1f57fdb4",
    "name": "Madalag",
    "state_id": "a56a1140-45d1-44c4-ae9b-2c5ac7c1d6b6"
  },
  {
    "id": "07e5c380-54a5-4065-b5fa-4b96452a8d03",
    "name": "Magallon Cadre",
    "state_id": "a56a1140-45d1-44c4-ae9b-2c5ac7c1d6b6"
  },
  {
    "id": "50469ead-680f-41b0-a551-825debeda20c",
    "name": "Magdalena",
    "state_id": "a56a1140-45d1-44c4-ae9b-2c5ac7c1d6b6"
  },
  {
    "id": "6e53ed7d-8b8a-4e36-8dd3-3bb75fd30ae4",
    "name": "Makato",
    "state_id": "a56a1140-45d1-44c4-ae9b-2c5ac7c1d6b6"
  },
  {
    "id": "bc4c9b39-2878-4a83-9467-01c49d5b5e79",
    "name": "Malabonot",
    "state_id": "a56a1140-45d1-44c4-ae9b-2c5ac7c1d6b6"
  },
  {
    "id": "8f3f9f6f-8a5a-4c90-9906-a950b856518c",
    "name": "Malabor",
    "state_id": "a56a1140-45d1-44c4-ae9b-2c5ac7c1d6b6"
  },
  {
    "id": "a835849c-dd4d-401d-a721-eb042277d2e5",
    "name": "Malangabang",
    "state_id": "a56a1140-45d1-44c4-ae9b-2c5ac7c1d6b6"
  },
  {
    "id": "8d13f9a4-24d2-46df-ba48-5c207d579c92",
    "name": "Malay",
    "state_id": "a56a1140-45d1-44c4-ae9b-2c5ac7c1d6b6"
  },
  {
    "id": "07a380eb-6cc8-456f-a8a0-730a76668ee1",
    "name": "Malayo-an",
    "state_id": "a56a1140-45d1-44c4-ae9b-2c5ac7c1d6b6"
  },
  {
    "id": "0d9f907b-be1e-4115-9af7-9556046e90f5",
    "name": "Malinao",
    "state_id": "a56a1140-45d1-44c4-ae9b-2c5ac7c1d6b6"
  },
  {
    "id": "db0ad799-561d-4ddd-9f13-ca6f65d98756",
    "name": "Malocloc",
    "state_id": "a56a1140-45d1-44c4-ae9b-2c5ac7c1d6b6"
  },
  {
    "id": "93c62e0a-b05e-4a7f-827f-9296d8997d3b",
    "name": "Maloco",
    "state_id": "a56a1140-45d1-44c4-ae9b-2c5ac7c1d6b6"
  },
  {
    "id": "ab09e330-52cb-4945-9ddd-91ff7a84c0c1",
    "name": "Mambagatan",
    "state_id": "a56a1140-45d1-44c4-ae9b-2c5ac7c1d6b6"
  },
  {
    "id": "c6bbec43-040a-4682-ae68-af4d1de64b26",
    "name": "Mambusao",
    "state_id": "a56a1140-45d1-44c4-ae9b-2c5ac7c1d6b6"
  },
  {
    "id": "1f3d6c16-0882-4fa9-9ba7-b2b46fde8091",
    "name": "Manalad",
    "state_id": "a56a1140-45d1-44c4-ae9b-2c5ac7c1d6b6"
  },
  {
    "id": "6a85c222-266f-42c9-be13-bc83e55159f2",
    "name": "Manapla",
    "state_id": "a56a1140-45d1-44c4-ae9b-2c5ac7c1d6b6"
  },
  {
    "id": "632efad2-c1c8-40a6-b08b-7a8856cb2dfc",
    "name": "Mangoso",
    "state_id": "a56a1140-45d1-44c4-ae9b-2c5ac7c1d6b6"
  },
  {
    "id": "00299c30-234c-41c9-8ae5-a3440206a279",
    "name": "Manika",
    "state_id": "a56a1140-45d1-44c4-ae9b-2c5ac7c1d6b6"
  },
  {
    "id": "ccf15d93-1885-4c70-8a1e-8731b048e701",
    "name": "Manjoy",
    "state_id": "a56a1140-45d1-44c4-ae9b-2c5ac7c1d6b6"
  },
  {
    "id": "3b4ca3a2-d91b-441b-aeb6-ed5e3cbd2ffe",
    "name": "Manlucahoc",
    "state_id": "a56a1140-45d1-44c4-ae9b-2c5ac7c1d6b6"
  },
  {
    "id": "bfdec7b7-4537-48e0-9df4-8660f5008003",
    "name": "Manoc-Manoc",
    "state_id": "a56a1140-45d1-44c4-ae9b-2c5ac7c1d6b6"
  },
  {
    "id": "fee74b4b-2bdc-4306-9dcf-14da579fac5f",
    "name": "Mansilingan",
    "state_id": "a56a1140-45d1-44c4-ae9b-2c5ac7c1d6b6"
  },
  {
    "id": "13f73bad-e8aa-481b-a9ca-710697ddd5ef",
    "name": "Manup",
    "state_id": "a56a1140-45d1-44c4-ae9b-2c5ac7c1d6b6"
  },
  {
    "id": "9dcda200-e4ca-4393-8238-cfbd1fbe6e2f",
    "name": "Mapili",
    "state_id": "a56a1140-45d1-44c4-ae9b-2c5ac7c1d6b6"
  },
  {
    "id": "32d60ebb-9392-4385-9009-30ff579792e9",
    "name": "Maquiling",
    "state_id": "a56a1140-45d1-44c4-ae9b-2c5ac7c1d6b6"
  },
  {
    "id": "ad2c60b1-a687-4e23-b999-859df4deeee4",
    "name": "Marawis",
    "state_id": "a56a1140-45d1-44c4-ae9b-2c5ac7c1d6b6"
  },
  {
    "id": "beb5a572-9bb1-40e3-95dd-fd350f1e98d2",
    "name": "Maribong",
    "state_id": "a56a1140-45d1-44c4-ae9b-2c5ac7c1d6b6"
  },
  {
    "id": "e526bdd9-f22e-485b-8358-e2b36061cc57",
    "name": "Maricalom",
    "state_id": "a56a1140-45d1-44c4-ae9b-2c5ac7c1d6b6"
  },
  {
    "id": "18c74478-73dc-44c7-966c-ebe777667292",
    "name": "Masaling",
    "state_id": "a56a1140-45d1-44c4-ae9b-2c5ac7c1d6b6"
  },
  {
    "id": "249775ba-7c9c-49a4-aa8e-5899cef4d1c7",
    "name": "Masonogan",
    "state_id": "a56a1140-45d1-44c4-ae9b-2c5ac7c1d6b6"
  },
  {
    "id": "85275e94-a494-4ba1-bfe5-a04fcbfed6e1",
    "name": "Miagao",
    "state_id": "a56a1140-45d1-44c4-ae9b-2c5ac7c1d6b6"
  },
  {
    "id": "6443092e-d25a-4d70-b3a2-8d12490e346d",
    "name": "Mianay",
    "state_id": "a56a1140-45d1-44c4-ae9b-2c5ac7c1d6b6"
  },
  {
    "id": "d61f7b74-4d4e-4de6-94cb-b17173d5b781",
    "name": "Mina",
    "state_id": "a56a1140-45d1-44c4-ae9b-2c5ac7c1d6b6"
  },
  {
    "id": "baf738db-61d6-4621-b928-9a48d8928c53",
    "name": "Minapasoc",
    "state_id": "a56a1140-45d1-44c4-ae9b-2c5ac7c1d6b6"
  },
  {
    "id": "15cb884d-9241-4fd1-9e5b-6c2b9a3fe021",
    "name": "Minuyan",
    "state_id": "a56a1140-45d1-44c4-ae9b-2c5ac7c1d6b6"
  },
  {
    "id": "fce0a317-2098-4d03-b30e-ceb4396f9455",
    "name": "Miranda",
    "state_id": "a56a1140-45d1-44c4-ae9b-2c5ac7c1d6b6"
  },
  {
    "id": "ca5a4010-b4c1-436a-ae55-db6c29e65ce9",
    "name": "Moises Padilla",
    "state_id": "a56a1140-45d1-44c4-ae9b-2c5ac7c1d6b6"
  },
  {
    "id": "3a94d6f4-0414-4001-9795-2880fffc594b",
    "name": "Monpon",
    "state_id": "a56a1140-45d1-44c4-ae9b-2c5ac7c1d6b6"
  },
  {
    "id": "8ad7fb87-7a4e-4c61-a6af-a7f30128e5d6",
    "name": "Montilla",
    "state_id": "a56a1140-45d1-44c4-ae9b-2c5ac7c1d6b6"
  },
  {
    "id": "6d2d4535-0155-4455-984d-0744e76954a9",
    "name": "Morales",
    "state_id": "a56a1140-45d1-44c4-ae9b-2c5ac7c1d6b6"
  },
  {
    "id": "e4336527-b037-46cf-ac48-e6eba64eaec8",
    "name": "Morobuan",
    "state_id": "a56a1140-45d1-44c4-ae9b-2c5ac7c1d6b6"
  },
  {
    "id": "32c70ca8-145b-469a-ac4b-78e7a069f1f8",
    "name": "Murcia",
    "state_id": "a56a1140-45d1-44c4-ae9b-2c5ac7c1d6b6"
  },
  {
    "id": "dc3d5870-3b19-4e8d-9830-e821dfd1d987",
    "name": "Nabas",
    "state_id": "a56a1140-45d1-44c4-ae9b-2c5ac7c1d6b6"
  },
  {
    "id": "1814ed5c-887f-4ec8-96c4-f9309a190f91",
    "name": "Nabulao",
    "state_id": "a56a1140-45d1-44c4-ae9b-2c5ac7c1d6b6"
  },
  {
    "id": "2c8e0e30-f6d5-4307-baf9-af076a4bb04a",
    "name": "Naili",
    "state_id": "a56a1140-45d1-44c4-ae9b-2c5ac7c1d6b6"
  },
  {
    "id": "f4c79c48-e70f-4786-847d-aed3558b8e97",
    "name": "Naisud",
    "state_id": "a56a1140-45d1-44c4-ae9b-2c5ac7c1d6b6"
  },
  {
    "id": "d03859f0-3e48-41c6-b778-e709e76b0143",
    "name": "Nangka",
    "state_id": "a56a1140-45d1-44c4-ae9b-2c5ac7c1d6b6"
  },
  {
    "id": "f624502e-5e9e-43a2-9e4b-88b4f13568e4",
    "name": "Napnapan",
    "state_id": "a56a1140-45d1-44c4-ae9b-2c5ac7c1d6b6"
  },
  {
    "id": "952fb005-140c-4443-9d21-003302979ab9",
    "name": "Napoles",
    "state_id": "a56a1140-45d1-44c4-ae9b-2c5ac7c1d6b6"
  },
  {
    "id": "1b4c5a01-1a9e-44ba-a884-c3cd8a50af53",
    "name": "Nato",
    "state_id": "a56a1140-45d1-44c4-ae9b-2c5ac7c1d6b6"
  },
  {
    "id": "73dceedb-6f9d-4b08-8efb-f9249689f8f3",
    "name": "New Pandanon",
    "state_id": "a56a1140-45d1-44c4-ae9b-2c5ac7c1d6b6"
  },
  {
    "id": "ca2b171f-108e-4749-a282-fc116ce92247",
    "name": "New Washington",
    "state_id": "a56a1140-45d1-44c4-ae9b-2c5ac7c1d6b6"
  },
  {
    "id": "6648835f-11cc-436c-96be-600284feefe8",
    "name": "Nueva Valencia",
    "state_id": "a56a1140-45d1-44c4-ae9b-2c5ac7c1d6b6"
  },
  {
    "id": "7f5d38ca-d57a-4123-a330-269fa7ec2619",
    "name": "Numancia",
    "state_id": "a56a1140-45d1-44c4-ae9b-2c5ac7c1d6b6"
  },
  {
    "id": "ee7b77dd-841c-49f9-a3fa-9bf57c481509",
    "name": "Ochanado",
    "state_id": "a56a1140-45d1-44c4-ae9b-2c5ac7c1d6b6"
  },
  {
    "id": "5c1b6de7-bf4e-45bd-8866-1d1cbfec34ba",
    "name": "Odiong",
    "state_id": "a56a1140-45d1-44c4-ae9b-2c5ac7c1d6b6"
  },
  {
    "id": "25723c9d-76e9-41d7-ab29-c60faf421d0d",
    "name": "Ogtongon",
    "state_id": "a56a1140-45d1-44c4-ae9b-2c5ac7c1d6b6"
  },
  {
    "id": "8202690d-ce46-471e-9e75-3da1d0e20197",
    "name": "Ondoy",
    "state_id": "a56a1140-45d1-44c4-ae9b-2c5ac7c1d6b6"
  },
  {
    "id": "6e751d14-b6ce-4127-82e8-6e89e8db76f2",
    "name": "Oracon",
    "state_id": "a56a1140-45d1-44c4-ae9b-2c5ac7c1d6b6"
  },
  {
    "id": "90b14da8-2841-4879-88ab-2300e6eb4b05",
    "name": "Orong",
    "state_id": "a56a1140-45d1-44c4-ae9b-2c5ac7c1d6b6"
  },
  {
    "id": "b65246ee-ab5e-4130-ace3-542079ee94cd",
    "name": "Oton",
    "state_id": "a56a1140-45d1-44c4-ae9b-2c5ac7c1d6b6"
  },
  {
    "id": "62c5016c-1007-490b-bfb1-23f28dcf3744",
    "name": "Pacol",
    "state_id": "a56a1140-45d1-44c4-ae9b-2c5ac7c1d6b6"
  },
  {
    "id": "e9da9f20-a24a-4b72-a02e-ce30ad4f5f52",
    "name": "Pakiad",
    "state_id": "a56a1140-45d1-44c4-ae9b-2c5ac7c1d6b6"
  },
  {
    "id": "f4eb516e-f454-4365-9139-62d109c64529",
    "name": "Palampas",
    "state_id": "a56a1140-45d1-44c4-ae9b-2c5ac7c1d6b6"
  },
  {
    "id": "05ca5136-0c36-43ac-bdaf-cdcaea4a53ba",
    "name": "Panay",
    "state_id": "a56a1140-45d1-44c4-ae9b-2c5ac7c1d6b6"
  },
  {
    "id": "b35189fa-8abc-4394-a29d-906a9a1ebfd9",
    "name": "Panayacan",
    "state_id": "a56a1140-45d1-44c4-ae9b-2c5ac7c1d6b6"
  },
  {
    "id": "15756206-d343-47bd-98c1-00af5826f5a1",
    "name": "Pandan",
    "state_id": "a56a1140-45d1-44c4-ae9b-2c5ac7c1d6b6"
  },
  {
    "id": "e6e7aed9-edd7-4720-87b3-636a24350a06",
    "name": "Panitan",
    "state_id": "a56a1140-45d1-44c4-ae9b-2c5ac7c1d6b6"
  },
  {
    "id": "0197d992-a8f9-4784-b372-17f31fe6cb63",
    "name": "Paraiso",
    "state_id": "a56a1140-45d1-44c4-ae9b-2c5ac7c1d6b6"
  },
  {
    "id": "c0e86fa2-6eb6-4b7b-b2b1-dc18885eee74",
    "name": "Parion",
    "state_id": "a56a1140-45d1-44c4-ae9b-2c5ac7c1d6b6"
  },
  {
    "id": "68685104-5c98-45d2-9c29-d8e7412f1bb8",
    "name": "Pasil",
    "state_id": "a56a1140-45d1-44c4-ae9b-2c5ac7c1d6b6"
  },
  {
    "id": "71affe57-a0c4-434c-94d7-03defb93d994",
    "name": "Passi",
    "state_id": "a56a1140-45d1-44c4-ae9b-2c5ac7c1d6b6"
  },
  {
    "id": "c663524e-8b23-4a7e-a6e8-9508c5ce0cb2",
    "name": "Patique",
    "state_id": "a56a1140-45d1-44c4-ae9b-2c5ac7c1d6b6"
  },
  {
    "id": "dde4f47b-c4ac-4213-90ae-e51a85d7b66d",
    "name": "Patnongon",
    "state_id": "a56a1140-45d1-44c4-ae9b-2c5ac7c1d6b6"
  },
  {
    "id": "3f2e5c6c-264e-4102-a8b4-f47f4fc17475",
    "name": "Patonan",
    "state_id": "a56a1140-45d1-44c4-ae9b-2c5ac7c1d6b6"
  },
  {
    "id": "16765f10-eb94-4fdf-8540-36b48ff08000",
    "name": "Patria",
    "state_id": "a56a1140-45d1-44c4-ae9b-2c5ac7c1d6b6"
  },
  {
    "id": "353172a5-6094-4c43-a92f-5866f383bf20",
    "name": "Pavia",
    "state_id": "a56a1140-45d1-44c4-ae9b-2c5ac7c1d6b6"
  },
  {
    "id": "35564b25-64d0-48b4-a5fc-d94d3ac23885",
    "name": "Pawa",
    "state_id": "a56a1140-45d1-44c4-ae9b-2c5ac7c1d6b6"
  },
  {
    "id": "d667469d-157c-4e87-a660-3fa18ba857b9",
    "name": "Payao",
    "state_id": "a56a1140-45d1-44c4-ae9b-2c5ac7c1d6b6"
  },
  {
    "id": "9e425dfb-1fdd-4f59-b86f-e6a445fa44f9",
    "name": "Piape I",
    "state_id": "a56a1140-45d1-44c4-ae9b-2c5ac7c1d6b6"
  },
  {
    "id": "e9b83cea-9013-45be-b9a3-b4c75bcbe6e4",
    "name": "Pilar",
    "state_id": "a56a1140-45d1-44c4-ae9b-2c5ac7c1d6b6"
  },
  {
    "id": "4911075a-ff2a-4b93-b783-99da189e1926",
    "name": "Pili",
    "state_id": "a56a1140-45d1-44c4-ae9b-2c5ac7c1d6b6"
  },
  {
    "id": "e15bbe3f-43dc-4a2f-9018-cbeec98c3d51",
    "name": "Piña",
    "state_id": "a56a1140-45d1-44c4-ae9b-2c5ac7c1d6b6"
  },
  {
    "id": "7be0677b-f44a-4ebb-8cee-b0c3ba1a0aa2",
    "name": "Plaridel",
    "state_id": "a56a1140-45d1-44c4-ae9b-2c5ac7c1d6b6"
  },
  {
    "id": "11955a5c-f78e-41b6-8d53-efed7eb5fac3",
    "name": "Platagata",
    "state_id": "a56a1140-45d1-44c4-ae9b-2c5ac7c1d6b6"
  },
  {
    "id": "510b2ab2-4b5b-4c8a-b1df-b3af481870d5",
    "name": "Polo",
    "state_id": "a56a1140-45d1-44c4-ae9b-2c5ac7c1d6b6"
  },
  {
    "id": "98dfdddc-8176-4f1b-bdee-f0e69d4087a4",
    "name": "Polopina",
    "state_id": "a56a1140-45d1-44c4-ae9b-2c5ac7c1d6b6"
  },
  {
    "id": "b196294c-331e-4c48-8a1c-cd320351fe00",
    "name": "Ponong",
    "state_id": "a56a1140-45d1-44c4-ae9b-2c5ac7c1d6b6"
  },
  {
    "id": "05e929f4-b3dc-4fa9-9c61-58dde32efcb8",
    "name": "Pontevedra",
    "state_id": "a56a1140-45d1-44c4-ae9b-2c5ac7c1d6b6"
  },
  {
    "id": "22d07c44-e83f-433d-a287-80ac362fb93a",
    "name": "Pototan",
    "state_id": "a56a1140-45d1-44c4-ae9b-2c5ac7c1d6b6"
  },
  {
    "id": "9325526e-0df3-4b97-9106-a9ef5e04455c",
    "name": "President Roxas",
    "state_id": "a56a1140-45d1-44c4-ae9b-2c5ac7c1d6b6"
  },
  {
    "id": "988e5621-7425-4ea0-b590-9607e2f861dc",
    "name": "Prosperidad",
    "state_id": "a56a1140-45d1-44c4-ae9b-2c5ac7c1d6b6"
  },
  {
    "id": "9f96f38c-381d-4524-852f-e5022d84f6dd",
    "name": "Province of Aklan",
    "state_id": "a56a1140-45d1-44c4-ae9b-2c5ac7c1d6b6"
  },
  {
    "id": "2021450f-ebb5-4c06-beba-ba4d0ca09e52",
    "name": "Province of Antique",
    "state_id": "a56a1140-45d1-44c4-ae9b-2c5ac7c1d6b6"
  },
  {
    "id": "0dd7e943-9bde-4cbe-88fb-02c8e07ae837",
    "name": "Province of Capiz",
    "state_id": "a56a1140-45d1-44c4-ae9b-2c5ac7c1d6b6"
  },
  {
    "id": "9d63fad1-66fd-4548-8046-77ae933bd8ea",
    "name": "Province of Guimaras",
    "state_id": "a56a1140-45d1-44c4-ae9b-2c5ac7c1d6b6"
  },
  {
    "id": "01171ad4-af79-4767-b63f-3ac0cb35a198",
    "name": "Province of Iloilo",
    "state_id": "a56a1140-45d1-44c4-ae9b-2c5ac7c1d6b6"
  },
  {
    "id": "c522b30b-d6d0-4196-89df-f53762408619",
    "name": "Province of Negros Occidental",
    "state_id": "a56a1140-45d1-44c4-ae9b-2c5ac7c1d6b6"
  },
  {
    "id": "f3fe307e-95d1-421a-8915-a6edb538f7dd",
    "name": "Pulupandan",
    "state_id": "a56a1140-45d1-44c4-ae9b-2c5ac7c1d6b6"
  },
  {
    "id": "7c0bbdd4-aa9c-43f5-b12f-ddedc73986be",
    "name": "Punao",
    "state_id": "a56a1140-45d1-44c4-ae9b-2c5ac7c1d6b6"
  },
  {
    "id": "b828395b-1820-46f2-b4ad-56927846d84d",
    "name": "Quezon",
    "state_id": "a56a1140-45d1-44c4-ae9b-2c5ac7c1d6b6"
  },
  {
    "id": "afb9e62a-99c9-4f30-8372-010bda1cc315",
    "name": "Quinagaringan",
    "state_id": "a56a1140-45d1-44c4-ae9b-2c5ac7c1d6b6"
  },
  {
    "id": "5c130770-3e27-44d8-b57d-81e6c8e88bfc",
    "name": "Quipot",
    "state_id": "a56a1140-45d1-44c4-ae9b-2c5ac7c1d6b6"
  },
  {
    "id": "e1a4b369-e3c0-43e3-86aa-030a804561a2",
    "name": "Rizal",
    "state_id": "a56a1140-45d1-44c4-ae9b-2c5ac7c1d6b6"
  },
  {
    "id": "a5d7f68c-919a-47cc-bb9b-c5a116b82523",
    "name": "Rosario",
    "state_id": "a56a1140-45d1-44c4-ae9b-2c5ac7c1d6b6"
  },
  {
    "id": "673e8b15-5a6b-4dc8-9449-4acd23156c75",
    "name": "Roxas City",
    "state_id": "a56a1140-45d1-44c4-ae9b-2c5ac7c1d6b6"
  },
  {
    "id": "a4928da1-c76e-4f9d-9dea-f887a111c876",
    "name": "Sagang",
    "state_id": "a56a1140-45d1-44c4-ae9b-2c5ac7c1d6b6"
  },
  {
    "id": "8a80593e-87ea-4137-9501-df0c2a1be0d8",
    "name": "Sagasa",
    "state_id": "a56a1140-45d1-44c4-ae9b-2c5ac7c1d6b6"
  },
  {
    "id": "fad8bc41-ec53-45e1-8de0-c007e3b0c0a6",
    "name": "Sagay",
    "state_id": "a56a1140-45d1-44c4-ae9b-2c5ac7c1d6b6"
  },
  {
    "id": "11feb6ac-bf3e-46a9-9440-4f1e1cb257f3",
    "name": "Salamanca",
    "state_id": "a56a1140-45d1-44c4-ae9b-2c5ac7c1d6b6"
  },
  {
    "id": "905ce4fc-dbbb-45ae-8bc1-e0e92538826b",
    "name": "Salvacion",
    "state_id": "a56a1140-45d1-44c4-ae9b-2c5ac7c1d6b6"
  },
  {
    "id": "c43984f2-4b37-45e6-ad9a-1c7a8a0276cf",
    "name": "San Antonio",
    "state_id": "a56a1140-45d1-44c4-ae9b-2c5ac7c1d6b6"
  },
  {
    "id": "888bac6f-6b34-4760-846f-839148a3eac7",
    "name": "San Dionisio",
    "state_id": "a56a1140-45d1-44c4-ae9b-2c5ac7c1d6b6"
  },
  {
    "id": "a2250a98-df36-46e7-8498-5bff651095b0",
    "name": "San Enrique",
    "state_id": "a56a1140-45d1-44c4-ae9b-2c5ac7c1d6b6"
  },
  {
    "id": "9b93c1bd-8add-4712-b2e9-85b282d8bb4e",
    "name": "San Fernando",
    "state_id": "a56a1140-45d1-44c4-ae9b-2c5ac7c1d6b6"
  },
  {
    "id": "8665c7ff-1374-4fed-8708-4ac7154db612",
    "name": "San Francisco",
    "state_id": "a56a1140-45d1-44c4-ae9b-2c5ac7c1d6b6"
  },
  {
    "id": "4e283ecc-811a-4a5a-8acf-b8c58aa661d6",
    "name": "San Joaquin",
    "state_id": "a56a1140-45d1-44c4-ae9b-2c5ac7c1d6b6"
  },
  {
    "id": "41060dea-abdd-4169-a9bd-e647650f5711",
    "name": "San Jose",
    "state_id": "a56a1140-45d1-44c4-ae9b-2c5ac7c1d6b6"
  },
  {
    "id": "a00587f2-6455-4aec-8cfd-75ac3b4e5a95",
    "name": "San Juan",
    "state_id": "a56a1140-45d1-44c4-ae9b-2c5ac7c1d6b6"
  },
  {
    "id": "c699df2f-d468-4ba4-8b26-bebf3ce22441",
    "name": "San Miguel",
    "state_id": "a56a1140-45d1-44c4-ae9b-2c5ac7c1d6b6"
  },
  {
    "id": "0c56189f-5c82-463d-9335-4e5f958e0be7",
    "name": "San Nicolas",
    "state_id": "a56a1140-45d1-44c4-ae9b-2c5ac7c1d6b6"
  },
  {
    "id": "ec4e1199-11c0-4a0e-8f8c-79eff5e3072c",
    "name": "San Pablo",
    "state_id": "a56a1140-45d1-44c4-ae9b-2c5ac7c1d6b6"
  },
  {
    "id": "6fb9c5af-5f21-48d8-8283-1f3867f9f905",
    "name": "San Pedro",
    "state_id": "a56a1140-45d1-44c4-ae9b-2c5ac7c1d6b6"
  },
  {
    "id": "f361c64d-cada-4f17-a0ab-2281e7d8a3f4",
    "name": "San Rafael",
    "state_id": "a56a1140-45d1-44c4-ae9b-2c5ac7c1d6b6"
  },
  {
    "id": "d7ee031b-b910-4af3-a145-2d090a342618",
    "name": "San Remigio",
    "state_id": "a56a1140-45d1-44c4-ae9b-2c5ac7c1d6b6"
  },
  {
    "id": "4be48ed6-847f-4f1f-a90c-0de1ec50bf4c",
    "name": "San Salvador",
    "state_id": "a56a1140-45d1-44c4-ae9b-2c5ac7c1d6b6"
  },
  {
    "id": "06fbda7a-a51d-4168-80e8-850de9493dde",
    "name": "Santa Angel",
    "state_id": "a56a1140-45d1-44c4-ae9b-2c5ac7c1d6b6"
  },
  {
    "id": "c2b1503d-df17-4f7f-8198-9431576d7630",
    "name": "Santa Barbara",
    "state_id": "a56a1140-45d1-44c4-ae9b-2c5ac7c1d6b6"
  },
  {
    "id": "3cc3c5d5-ea4b-48c2-8486-329108ea5309",
    "name": "Santa Cruz",
    "state_id": "a56a1140-45d1-44c4-ae9b-2c5ac7c1d6b6"
  },
  {
    "id": "9ff4b925-2c2b-44ef-a616-df942b616d64",
    "name": "Santa Monica",
    "state_id": "a56a1140-45d1-44c4-ae9b-2c5ac7c1d6b6"
  },
  {
    "id": "efe5e4d9-d9ca-48e7-959b-0064e2311ca7",
    "name": "Santa Teresa",
    "state_id": "a56a1140-45d1-44c4-ae9b-2c5ac7c1d6b6"
  },
  {
    "id": "d1e861e0-cc8e-4086-b4b3-2ffa2597fa6a",
    "name": "Santiago",
    "state_id": "a56a1140-45d1-44c4-ae9b-2c5ac7c1d6b6"
  },
  {
    "id": "b1de4db1-dca3-4ea5-9367-18bc226a9a49",
    "name": "Santol",
    "state_id": "a56a1140-45d1-44c4-ae9b-2c5ac7c1d6b6"
  },
  {
    "id": "d4c10730-3ae2-46d2-bf9a-1ba282b50a27",
    "name": "Sapian",
    "state_id": "a56a1140-45d1-44c4-ae9b-2c5ac7c1d6b6"
  },
  {
    "id": "2ff822f4-8232-4cae-b2b4-0e3fb04e8ece",
    "name": "Sara",
    "state_id": "a56a1140-45d1-44c4-ae9b-2c5ac7c1d6b6"
  },
  {
    "id": "9310dd79-1533-4775-869f-931f09268d65",
    "name": "Saravia",
    "state_id": "a56a1140-45d1-44c4-ae9b-2c5ac7c1d6b6"
  },
  {
    "id": "dac8a37a-53c8-4e4e-acee-22ad08988011",
    "name": "Sebaste",
    "state_id": "a56a1140-45d1-44c4-ae9b-2c5ac7c1d6b6"
  },
  {
    "id": "03125e8e-a77a-4342-8e3a-38df41d9e3e0",
    "name": "Semirara",
    "state_id": "a56a1140-45d1-44c4-ae9b-2c5ac7c1d6b6"
  },
  {
    "id": "a4b4da6c-14f3-464d-817e-33e20a69912a",
    "name": "Sibaguan",
    "state_id": "a56a1140-45d1-44c4-ae9b-2c5ac7c1d6b6"
  },
  {
    "id": "9a453737-da4e-4f37-b9e5-0bf14afda9f7",
    "name": "Sibalom",
    "state_id": "a56a1140-45d1-44c4-ae9b-2c5ac7c1d6b6"
  },
  {
    "id": "c4ec7385-51ad-4569-95ed-c3d6d6c989a6",
    "name": "Sibucao",
    "state_id": "a56a1140-45d1-44c4-ae9b-2c5ac7c1d6b6"
  },
  {
    "id": "abb1ed4c-0414-4825-bad2-39b9d120b45f",
    "name": "Sigma",
    "state_id": "a56a1140-45d1-44c4-ae9b-2c5ac7c1d6b6"
  },
  {
    "id": "8906fabe-2536-43df-aca1-5cf1d50989c6",
    "name": "Sipalay",
    "state_id": "a56a1140-45d1-44c4-ae9b-2c5ac7c1d6b6"
  },
  {
    "id": "27af0b0d-63bb-4154-8f9e-c7cae80b5235",
    "name": "Suay",
    "state_id": "a56a1140-45d1-44c4-ae9b-2c5ac7c1d6b6"
  },
  {
    "id": "a83e5165-bf63-46b2-a210-4ff6d7a96834",
    "name": "Sulangan",
    "state_id": "a56a1140-45d1-44c4-ae9b-2c5ac7c1d6b6"
  },
  {
    "id": "7240af28-f5e1-45ca-8a14-3f54441d5167",
    "name": "Sumag",
    "state_id": "a56a1140-45d1-44c4-ae9b-2c5ac7c1d6b6"
  },
  {
    "id": "c2f2fac8-697f-49cf-9d09-17c559cb51a8",
    "name": "Tabu",
    "state_id": "a56a1140-45d1-44c4-ae9b-2c5ac7c1d6b6"
  },
  {
    "id": "de70da32-121a-4863-aa6c-8f497aab536f",
    "name": "Tabuc Pontevedra",
    "state_id": "a56a1140-45d1-44c4-ae9b-2c5ac7c1d6b6"
  },
  {
    "id": "cd830773-1d00-4a71-95b4-300933345b77",
    "name": "Talaban",
    "state_id": "a56a1140-45d1-44c4-ae9b-2c5ac7c1d6b6"
  },
  {
    "id": "486ec9d8-153b-4fee-b0ed-3ffadb88b48f",
    "name": "Talisay",
    "state_id": "a56a1140-45d1-44c4-ae9b-2c5ac7c1d6b6"
  },
  {
    "id": "eb5d4c12-807f-4349-b6e2-1a0a289bc5fc",
    "name": "Taloc",
    "state_id": "a56a1140-45d1-44c4-ae9b-2c5ac7c1d6b6"
  },
  {
    "id": "22ddd1f5-d53c-4d64-92db-6d21bf43f040",
    "name": "Talokgañgan",
    "state_id": "a56a1140-45d1-44c4-ae9b-2c5ac7c1d6b6"
  },
  {
    "id": "d841a6e3-1e38-4738-bc0c-c1b8085d3bef",
    "name": "Talon",
    "state_id": "a56a1140-45d1-44c4-ae9b-2c5ac7c1d6b6"
  },
  {
    "id": "538dbe6f-7597-4842-b3c0-efbe12ae9af6",
    "name": "Tambac",
    "state_id": "a56a1140-45d1-44c4-ae9b-2c5ac7c1d6b6"
  },
  {
    "id": "9636f8be-afd4-4140-894d-942750594b0d",
    "name": "Tambalisa",
    "state_id": "a56a1140-45d1-44c4-ae9b-2c5ac7c1d6b6"
  },
  {
    "id": "f0450a61-55df-4041-8683-88b60caf8018",
    "name": "Tamlang",
    "state_id": "a56a1140-45d1-44c4-ae9b-2c5ac7c1d6b6"
  },
  {
    "id": "991cdf8a-9e61-422f-9335-1c82849efe4d",
    "name": "Tangalan",
    "state_id": "a56a1140-45d1-44c4-ae9b-2c5ac7c1d6b6"
  },
  {
    "id": "3518d83b-5dcb-4dc7-bc94-303b2c5eb407",
    "name": "Tanza",
    "state_id": "a56a1140-45d1-44c4-ae9b-2c5ac7c1d6b6"
  },
  {
    "id": "99b9dd4c-86fb-4689-b422-b4aeff6ecc0f",
    "name": "Tapas",
    "state_id": "a56a1140-45d1-44c4-ae9b-2c5ac7c1d6b6"
  },
  {
    "id": "5297ecf7-bd43-476a-9673-d6178541665c",
    "name": "Tarong",
    "state_id": "a56a1140-45d1-44c4-ae9b-2c5ac7c1d6b6"
  },
  {
    "id": "bb63165f-6ed9-4db7-83b1-6810d1b58110",
    "name": "Tibiao",
    "state_id": "a56a1140-45d1-44c4-ae9b-2c5ac7c1d6b6"
  },
  {
    "id": "80abbddc-a96c-4f05-ae0c-0a8024bd7a79",
    "name": "Tigbauan",
    "state_id": "a56a1140-45d1-44c4-ae9b-2c5ac7c1d6b6"
  },
  {
    "id": "b4ee157c-db29-482d-9046-8e166730dc40",
    "name": "Tiglauigan",
    "state_id": "a56a1140-45d1-44c4-ae9b-2c5ac7c1d6b6"
  },
  {
    "id": "5215a02e-7f67-45fe-a3ca-2103f05ecb6b",
    "name": "Tigum",
    "state_id": "a56a1140-45d1-44c4-ae9b-2c5ac7c1d6b6"
  },
  {
    "id": "77b7f492-2bd1-44b0-9fd6-079e2a2227b6",
    "name": "Tiling",
    "state_id": "a56a1140-45d1-44c4-ae9b-2c5ac7c1d6b6"
  },
  {
    "id": "b1192437-2162-4a4c-b144-6ae3149db862",
    "name": "Timpas",
    "state_id": "a56a1140-45d1-44c4-ae9b-2c5ac7c1d6b6"
  },
  {
    "id": "0c132590-5482-410e-b8fd-284b68b49bd1",
    "name": "Tinogboc",
    "state_id": "a56a1140-45d1-44c4-ae9b-2c5ac7c1d6b6"
  },
  {
    "id": "c1c06e16-cb2c-4eee-9d36-b81d5b095b97",
    "name": "Tinongan",
    "state_id": "a56a1140-45d1-44c4-ae9b-2c5ac7c1d6b6"
  },
  {
    "id": "30fd20a2-fdad-492c-a129-7cbbab15fe87",
    "name": "Tiring",
    "state_id": "a56a1140-45d1-44c4-ae9b-2c5ac7c1d6b6"
  },
  {
    "id": "48b44cc7-fea7-48c4-a2d5-a466c402f733",
    "name": "Tiwi",
    "state_id": "a56a1140-45d1-44c4-ae9b-2c5ac7c1d6b6"
  },
  {
    "id": "c164a9e1-bf64-4e46-a280-5b13b94010cc",
    "name": "Tobias Fornier",
    "state_id": "a56a1140-45d1-44c4-ae9b-2c5ac7c1d6b6"
  },
  {
    "id": "1235ef6b-3864-41c0-9c00-76e2200b50d5",
    "name": "Toboso",
    "state_id": "a56a1140-45d1-44c4-ae9b-2c5ac7c1d6b6"
  },
  {
    "id": "12a6acca-2d3e-4109-b903-ba565ece3f53",
    "name": "Tortosa",
    "state_id": "a56a1140-45d1-44c4-ae9b-2c5ac7c1d6b6"
  },
  {
    "id": "40b986a5-1b88-4d26-938e-4332b3ff79b1",
    "name": "Trapiche",
    "state_id": "a56a1140-45d1-44c4-ae9b-2c5ac7c1d6b6"
  },
  {
    "id": "879fde6d-b414-41d2-ac00-4da08e467efd",
    "name": "Tugas",
    "state_id": "a56a1140-45d1-44c4-ae9b-2c5ac7c1d6b6"
  },
  {
    "id": "4b3bf647-6de9-40ca-ac06-c03b6cfa327d",
    "name": "Tumcon Ilawod",
    "state_id": "a56a1140-45d1-44c4-ae9b-2c5ac7c1d6b6"
  },
  {
    "id": "a0e62d5c-2dde-447c-8d29-a48b08c21241",
    "name": "Tuyum",
    "state_id": "a56a1140-45d1-44c4-ae9b-2c5ac7c1d6b6"
  },
  {
    "id": "0f098737-72e4-4049-adc4-6242644e192f",
    "name": "Ualog",
    "state_id": "a56a1140-45d1-44c4-ae9b-2c5ac7c1d6b6"
  },
  {
    "id": "821e82d6-ce74-491b-a5de-d5372b38ce27",
    "name": "Ungca",
    "state_id": "a56a1140-45d1-44c4-ae9b-2c5ac7c1d6b6"
  },
  {
    "id": "d5c7c034-c835-4ebb-a2d2-0afb142d863b",
    "name": "Unidos",
    "state_id": "a56a1140-45d1-44c4-ae9b-2c5ac7c1d6b6"
  },
  {
    "id": "938fc22c-982f-4f2c-bf54-5fbc9ca0f53c",
    "name": "Union",
    "state_id": "a56a1140-45d1-44c4-ae9b-2c5ac7c1d6b6"
  },
  {
    "id": "526f46ba-81bc-4160-8f84-42e66e473a75",
    "name": "Valderrama",
    "state_id": "a56a1140-45d1-44c4-ae9b-2c5ac7c1d6b6"
  },
  {
    "id": "19813749-4ffe-4ab6-8bef-15964cb085ab",
    "name": "Valladolid",
    "state_id": "a56a1140-45d1-44c4-ae9b-2c5ac7c1d6b6"
  },
  {
    "id": "38d55ecc-1402-4e26-8eef-7ba81facc653",
    "name": "Victorias",
    "state_id": "a56a1140-45d1-44c4-ae9b-2c5ac7c1d6b6"
  },
  {
    "id": "889c0393-7506-493b-87d3-94029204b175",
    "name": "Viejo Daan Banua",
    "state_id": "a56a1140-45d1-44c4-ae9b-2c5ac7c1d6b6"
  },
  {
    "id": "53d575f0-15c6-4a33-9387-6fd7970ef524",
    "name": "Vista Alegre",
    "state_id": "a56a1140-45d1-44c4-ae9b-2c5ac7c1d6b6"
  },
  {
    "id": "57828109-625a-4f6a-843a-92835df62a0c",
    "name": "Vito",
    "state_id": "a56a1140-45d1-44c4-ae9b-2c5ac7c1d6b6"
  },
  {
    "id": "d30787b8-0f7c-4967-9ece-64505a644d10",
    "name": "Yapak",
    "state_id": "a56a1140-45d1-44c4-ae9b-2c5ac7c1d6b6"
  },
  {
    "id": "64063dbf-7751-49ec-b4f5-b7bc8a2455cc",
    "name": "Yubo",
    "state_id": "a56a1140-45d1-44c4-ae9b-2c5ac7c1d6b6"
  },
  {
    "id": "cc8ac478-4f31-4551-b919-3e1486d5107d",
    "name": "Zarraga",
    "state_id": "a56a1140-45d1-44c4-ae9b-2c5ac7c1d6b6"
  }
]