[
  {
    "id": "ae3c5cc6-c537-4b62-a918-388d21d9049b",
    "name": "Afşin",
    "state_id": "a607627a-ab97-4c1c-9171-e11dfde43c26"
  },
  {
    "id": "a3b13be7-bf3f-4c0d-89fe-6df0dd305f86",
    "name": "Andırın",
    "state_id": "a607627a-ab97-4c1c-9171-e11dfde43c26"
  },
  {
    "id": "4d897f2e-409e-4789-a24b-53bbc2335f0d",
    "name": "Çağlayancerit",
    "state_id": "a607627a-ab97-4c1c-9171-e11dfde43c26"
  },
  {
    "id": "7a3960f6-5817-46ca-855e-4b56e63a26dc",
    "name": "Celeyke",
    "state_id": "a607627a-ab97-4c1c-9171-e11dfde43c26"
  },
  {
    "id": "84af7d26-4333-4c84-9710-b32cfe0ee410",
    "name": "Dulkadiroğlu",
    "state_id": "a607627a-ab97-4c1c-9171-e11dfde43c26"
  },
  {
    "id": "3f4379b3-8f9c-4e06-99d0-888e7768e0cd",
    "name": "Ekinözü İlçesi",
    "state_id": "a607627a-ab97-4c1c-9171-e11dfde43c26"
  },
  {
    "id": "92211d0e-4ae3-4ec9-b8a9-ae39a0f2d840",
    "name": "Elbistan",
    "state_id": "a607627a-ab97-4c1c-9171-e11dfde43c26"
  },
  {
    "id": "d6de3946-eca4-430f-b142-67643e74bbd1",
    "name": "Göksun",
    "state_id": "a607627a-ab97-4c1c-9171-e11dfde43c26"
  },
  {
    "id": "cd726134-f115-4703-abab-73cc4b94ed52",
    "name": "Kahramanmaraş",
    "state_id": "a607627a-ab97-4c1c-9171-e11dfde43c26"
  },
  {
    "id": "6cf480cc-d363-4b4f-b402-8d795c2a12c4",
    "name": "Nurhak",
    "state_id": "a607627a-ab97-4c1c-9171-e11dfde43c26"
  },
  {
    "id": "c86b4df1-e5b3-41bb-8155-bfcb4b144d82",
    "name": "Onikişubat",
    "state_id": "a607627a-ab97-4c1c-9171-e11dfde43c26"
  },
  {
    "id": "be4ec58e-09cc-47c1-b148-c1babb969146",
    "name": "Pazarcık",
    "state_id": "a607627a-ab97-4c1c-9171-e11dfde43c26"
  },
  {
    "id": "c2727269-c1cd-4457-92a8-82a8ac2e1fea",
    "name": "Süleymanlı",
    "state_id": "a607627a-ab97-4c1c-9171-e11dfde43c26"
  },
  {
    "id": "e188e622-d013-4116-9525-f8215d6f88e7",
    "name": "Türkoğlu İlçesi",
    "state_id": "a607627a-ab97-4c1c-9171-e11dfde43c26"
  }
]