[
  {
    "id": "bebffd99-892a-4950-96f2-5ff11c110a13",
    "name": "Abra Pampa",
    "state_id": "a682f29e-663b-443b-8eda-7239d4418853"
  },
  {
    "id": "65644dcb-1eae-4513-8491-00db8778d1c7",
    "name": "Caimancito",
    "state_id": "a682f29e-663b-443b-8eda-7239d4418853"
  },
  {
    "id": "731e4cf7-a535-494c-b789-94d1d397d725",
    "name": "Calilegua",
    "state_id": "a682f29e-663b-443b-8eda-7239d4418853"
  },
  {
    "id": "2d420833-b642-41fc-ba67-4a556f5b810b",
    "name": "Departamento de Cochinoca",
    "state_id": "a682f29e-663b-443b-8eda-7239d4418853"
  },
  {
    "id": "e988360f-d71e-4817-8146-622911c39dea",
    "name": "Departamento de Rinconada",
    "state_id": "a682f29e-663b-443b-8eda-7239d4418853"
  },
  {
    "id": "ea4e13e9-d102-4ecb-b502-71fac46fba30",
    "name": "Departamento de Tumbaya",
    "state_id": "a682f29e-663b-443b-8eda-7239d4418853"
  },
  {
    "id": "203a21f1-6177-4edc-9a27-a969b88fb5db",
    "name": "El Aguilar",
    "state_id": "a682f29e-663b-443b-8eda-7239d4418853"
  },
  {
    "id": "d95e8f4b-fc3b-4b49-8f90-cd42e6476893",
    "name": "Fraile Pintado",
    "state_id": "a682f29e-663b-443b-8eda-7239d4418853"
  },
  {
    "id": "070133c6-5112-4e84-90b2-ef4ca33f3a44",
    "name": "Humahuaca",
    "state_id": "a682f29e-663b-443b-8eda-7239d4418853"
  },
  {
    "id": "b3cc9c7e-83da-4426-9c88-aa71ad6b3e49",
    "name": "Ingenio La Esperanza",
    "state_id": "a682f29e-663b-443b-8eda-7239d4418853"
  },
  {
    "id": "9c43339f-c988-47e4-8977-b6da646152f9",
    "name": "La Mendieta",
    "state_id": "a682f29e-663b-443b-8eda-7239d4418853"
  },
  {
    "id": "5f0a36b9-acf4-4a25-ae54-030ac46d5942",
    "name": "La Quiaca",
    "state_id": "a682f29e-663b-443b-8eda-7239d4418853"
  },
  {
    "id": "2136502e-9f41-443b-a786-511a6e3ed4a7",
    "name": "Libertador General San Martín",
    "state_id": "a682f29e-663b-443b-8eda-7239d4418853"
  },
  {
    "id": "7361b382-641b-420b-a10f-15a922bf9e1d",
    "name": "Maimará",
    "state_id": "a682f29e-663b-443b-8eda-7239d4418853"
  },
  {
    "id": "a09fc0c1-3ac5-40d1-98b7-a4c0e0e8c854",
    "name": "Palma Sola",
    "state_id": "a682f29e-663b-443b-8eda-7239d4418853"
  },
  {
    "id": "f30e1766-74f5-4c35-b0e2-15be112aefe4",
    "name": "Palpalá",
    "state_id": "a682f29e-663b-443b-8eda-7239d4418853"
  },
  {
    "id": "521faf9f-884c-4e95-a047-8108295354af",
    "name": "San Pedro de Jujuy",
    "state_id": "a682f29e-663b-443b-8eda-7239d4418853"
  },
  {
    "id": "e35d6bd2-5518-4788-aeba-f9637d757ece",
    "name": "San Salvador de Jujuy",
    "state_id": "a682f29e-663b-443b-8eda-7239d4418853"
  },
  {
    "id": "9a6f3a57-a3dc-4236-b64e-be64d645ca2a",
    "name": "Santa Clara",
    "state_id": "a682f29e-663b-443b-8eda-7239d4418853"
  },
  {
    "id": "e5746f20-3f95-4b3b-8679-804dd98a5fb5",
    "name": "Tilcara",
    "state_id": "a682f29e-663b-443b-8eda-7239d4418853"
  },
  {
    "id": "99e95266-6fad-4c4d-b336-72827a2f9c97",
    "name": "Yuto",
    "state_id": "a682f29e-663b-443b-8eda-7239d4418853"
  }
]