[
  {
    "id": "b69132d3-0efc-4686-ab88-0516a64b3b4f",
    "name": "Aïn Beïda",
    "state_id": "a878d44b-8f42-4888-b412-40a288c99928"
  },
  {
    "id": "bd58a90f-afb7-4792-b33b-1207acc66f28",
    "name": "Aïn Fakroun",
    "state_id": "a878d44b-8f42-4888-b412-40a288c99928"
  },
  {
    "id": "e6705aea-0b7e-4212-99e9-9754e3521857",
    "name": "Aïn Kercha",
    "state_id": "a878d44b-8f42-4888-b412-40a288c99928"
  },
  {
    "id": "f64a2f4b-7b57-4625-8fcb-e03f46dfaeef",
    "name": "El Aouinet",
    "state_id": "a878d44b-8f42-4888-b412-40a288c99928"
  },
  {
    "id": "fe6db59c-bffa-43e3-a627-9ef7ae42f3fe",
    "name": "Meskiana",
    "state_id": "a878d44b-8f42-4888-b412-40a288c99928"
  },
  {
    "id": "a7b529d9-c41a-4d84-844a-1a7329ce5962",
    "name": "Oum el Bouaghi",
    "state_id": "a878d44b-8f42-4888-b412-40a288c99928"
  }
]