[
  {
    "id": "3bd0350f-ff13-4d8f-8525-27830f465a4b",
    "name": "Aguilares",
    "state_id": "a933eeaf-2525-4295-90fa-2b5b17632277"
  },
  {
    "id": "91ceaf02-bd13-4508-9c5f-611586f09b27",
    "name": "Apopa",
    "state_id": "a933eeaf-2525-4295-90fa-2b5b17632277"
  },
  {
    "id": "d03353d7-2dab-4e80-b22d-9925238ad411",
    "name": "Ayutuxtepeque",
    "state_id": "a933eeaf-2525-4295-90fa-2b5b17632277"
  },
  {
    "id": "cce16bc4-b74b-4fb2-a435-12ae6bcc73c7",
    "name": "Cuscatancingo",
    "state_id": "a933eeaf-2525-4295-90fa-2b5b17632277"
  },
  {
    "id": "88df40d3-2758-462c-bc19-82e058706092",
    "name": "Delgado",
    "state_id": "a933eeaf-2525-4295-90fa-2b5b17632277"
  },
  {
    "id": "0e512bed-4c73-4abd-b0d8-f9fdf1da3143",
    "name": "El Paisnal",
    "state_id": "a933eeaf-2525-4295-90fa-2b5b17632277"
  },
  {
    "id": "693573ec-5b10-454c-aaed-473827e76265",
    "name": "Guazapa",
    "state_id": "a933eeaf-2525-4295-90fa-2b5b17632277"
  },
  {
    "id": "4cdde60b-1f71-4dcb-a14d-3ba54a553dc0",
    "name": "Ilopango",
    "state_id": "a933eeaf-2525-4295-90fa-2b5b17632277"
  },
  {
    "id": "9d7ef9d1-dc8f-4df4-9fe7-fd3450826f1b",
    "name": "Mejicanos",
    "state_id": "a933eeaf-2525-4295-90fa-2b5b17632277"
  },
  {
    "id": "f5e0e6d5-db70-4a9c-bfd0-8bdb49afa515",
    "name": "Panchimalco",
    "state_id": "a933eeaf-2525-4295-90fa-2b5b17632277"
  },
  {
    "id": "7633f5b8-f5b5-462b-a17b-d07e732e01ab",
    "name": "Rosario de Mora",
    "state_id": "a933eeaf-2525-4295-90fa-2b5b17632277"
  },
  {
    "id": "98e58ee6-8a52-49c2-ad66-cfc0418bf3a0",
    "name": "San Marcos",
    "state_id": "a933eeaf-2525-4295-90fa-2b5b17632277"
  },
  {
    "id": "a6ea909c-ea6c-4df3-b60c-933a8fdf6dea",
    "name": "San Salvador",
    "state_id": "a933eeaf-2525-4295-90fa-2b5b17632277"
  },
  {
    "id": "72b14a09-bef6-4eb1-bca3-a3a7d932407d",
    "name": "Santo Tomás",
    "state_id": "a933eeaf-2525-4295-90fa-2b5b17632277"
  },
  {
    "id": "ce4b6f3e-67bf-4378-9d5f-061e4296942c",
    "name": "Soyapango",
    "state_id": "a933eeaf-2525-4295-90fa-2b5b17632277"
  },
  {
    "id": "6e62b11e-b428-4b85-9393-1850955e6ac0",
    "name": "Tonacatepeque",
    "state_id": "a933eeaf-2525-4295-90fa-2b5b17632277"
  }
]