[
  {
    "id": "9a691431-c269-4103-ac28-a4da87af92dd",
    "name": "Kyaukse",
    "state_id": "a94be234-21a5-4d98-862f-f9094396d2ca"
  },
  {
    "id": "8d7d6976-3254-4d6c-85b5-5584b3599f65",
    "name": "Mandalay",
    "state_id": "a94be234-21a5-4d98-862f-f9094396d2ca"
  },
  {
    "id": "d819c0d1-5beb-44ae-82a2-c2ec675d160a",
    "name": "Meiktila",
    "state_id": "a94be234-21a5-4d98-862f-f9094396d2ca"
  },
  {
    "id": "11cc91b1-39f3-40d3-b15e-f43c83980166",
    "name": "Mogok",
    "state_id": "a94be234-21a5-4d98-862f-f9094396d2ca"
  },
  {
    "id": "1f2027f2-ada6-4492-934a-7a3610ccf495",
    "name": "Myingyan",
    "state_id": "a94be234-21a5-4d98-862f-f9094396d2ca"
  },
  {
    "id": "078ccfc2-1497-4f2b-98da-670bcc0f6730",
    "name": "Nyaungshwe",
    "state_id": "a94be234-21a5-4d98-862f-f9094396d2ca"
  },
  {
    "id": "ac622eaf-8139-4314-b088-007878909970",
    "name": "Pyin Oo Lwin",
    "state_id": "a94be234-21a5-4d98-862f-f9094396d2ca"
  },
  {
    "id": "776d49fc-23db-42c3-a310-6afbf9148402",
    "name": "Yamethin",
    "state_id": "a94be234-21a5-4d98-862f-f9094396d2ca"
  }
]