[
  {
    "id": "4d85b65d-c8a3-43ff-8db2-06b044ffdebd",
    "name": "Ålesund",
    "state_id": "aa257923-a1c1-40ed-9c27-6e69c8fbe87e"
  },
  {
    "id": "bee40bfa-02f1-40c4-9620-36444524f4cf",
    "name": "Åndalsnes",
    "state_id": "aa257923-a1c1-40ed-9c27-6e69c8fbe87e"
  },
  {
    "id": "f1212a52-190f-49e9-8721-802d9d155c4e",
    "name": "Aukra",
    "state_id": "aa257923-a1c1-40ed-9c27-6e69c8fbe87e"
  },
  {
    "id": "b329f5c2-6c94-4f59-90ac-3cc3b2aa0603",
    "name": "Aure",
    "state_id": "aa257923-a1c1-40ed-9c27-6e69c8fbe87e"
  },
  {
    "id": "03e10351-88c1-4e5a-85ac-99a4bac0214a",
    "name": "Averøy",
    "state_id": "aa257923-a1c1-40ed-9c27-6e69c8fbe87e"
  },
  {
    "id": "97eee277-3532-433f-852b-5b79df498e22",
    "name": "Batnfjordsøra",
    "state_id": "aa257923-a1c1-40ed-9c27-6e69c8fbe87e"
  },
  {
    "id": "20abd996-17a7-4d97-b1fe-2a1bb5877445",
    "name": "Brattvåg",
    "state_id": "aa257923-a1c1-40ed-9c27-6e69c8fbe87e"
  },
  {
    "id": "c9626f28-2b98-43e1-bca9-f83209463836",
    "name": "Eide",
    "state_id": "aa257923-a1c1-40ed-9c27-6e69c8fbe87e"
  },
  {
    "id": "ad0f575e-abfc-4f8b-8b9d-ab50edf000e8",
    "name": "Eidsvåg",
    "state_id": "aa257923-a1c1-40ed-9c27-6e69c8fbe87e"
  },
  {
    "id": "f768c222-2c37-4601-88cb-7daabc7c64ad",
    "name": "Elnesvågen",
    "state_id": "aa257923-a1c1-40ed-9c27-6e69c8fbe87e"
  },
  {
    "id": "95d3d331-1043-4b6e-a1be-c9108c5f1c0c",
    "name": "Fræna",
    "state_id": "aa257923-a1c1-40ed-9c27-6e69c8fbe87e"
  },
  {
    "id": "3789addf-e966-486f-8ada-6e2d9bed6062",
    "name": "Giske",
    "state_id": "aa257923-a1c1-40ed-9c27-6e69c8fbe87e"
  },
  {
    "id": "94a9f9fd-f2bc-47b0-9f28-a5594e5229d0",
    "name": "Gjemnes",
    "state_id": "aa257923-a1c1-40ed-9c27-6e69c8fbe87e"
  },
  {
    "id": "f894ab44-ce68-4d27-8336-a0a971e86771",
    "name": "Halsa",
    "state_id": "aa257923-a1c1-40ed-9c27-6e69c8fbe87e"
  },
  {
    "id": "965f81c7-3dea-4110-bb90-2705362f50df",
    "name": "Haram",
    "state_id": "aa257923-a1c1-40ed-9c27-6e69c8fbe87e"
  },
  {
    "id": "73d810be-b870-4b46-b0f9-3f1c5afaaedd",
    "name": "Hareid",
    "state_id": "aa257923-a1c1-40ed-9c27-6e69c8fbe87e"
  },
  {
    "id": "de7acaa5-3194-4d18-acaa-69a30ef5a1ff",
    "name": "Herøy",
    "state_id": "aa257923-a1c1-40ed-9c27-6e69c8fbe87e"
  },
  {
    "id": "732555cd-cb1c-48c3-a23e-a71e77924dfa",
    "name": "Hjelset",
    "state_id": "aa257923-a1c1-40ed-9c27-6e69c8fbe87e"
  },
  {
    "id": "a9bbe15b-4251-41af-a9b7-e8f9174e3046",
    "name": "Hopen",
    "state_id": "aa257923-a1c1-40ed-9c27-6e69c8fbe87e"
  },
  {
    "id": "6e542f27-acaa-4de1-a7d4-afa22291aae8",
    "name": "Kristiansund",
    "state_id": "aa257923-a1c1-40ed-9c27-6e69c8fbe87e"
  },
  {
    "id": "bfcd38f4-795d-4a23-8357-7d4f3ceaa409",
    "name": "Larsnes",
    "state_id": "aa257923-a1c1-40ed-9c27-6e69c8fbe87e"
  },
  {
    "id": "ecf11354-4b61-439f-a77c-cc85237d6c4e",
    "name": "Midsund",
    "state_id": "aa257923-a1c1-40ed-9c27-6e69c8fbe87e"
  },
  {
    "id": "f17c60b5-044b-49e9-9def-04f2fca3c854",
    "name": "Molde",
    "state_id": "aa257923-a1c1-40ed-9c27-6e69c8fbe87e"
  },
  {
    "id": "371ceb1e-3f49-455c-a4c6-91c4337fd486",
    "name": "Nesset",
    "state_id": "aa257923-a1c1-40ed-9c27-6e69c8fbe87e"
  },
  {
    "id": "2493548d-970b-461a-bd3b-dcd7ca93b170",
    "name": "Norddal",
    "state_id": "aa257923-a1c1-40ed-9c27-6e69c8fbe87e"
  },
  {
    "id": "0bcc2e19-e3cb-48e2-8600-b3e8a4f8fb85",
    "name": "Nordstranda",
    "state_id": "aa257923-a1c1-40ed-9c27-6e69c8fbe87e"
  },
  {
    "id": "1cff3974-fd7c-43b0-b5a1-c6ecdf4f5c56",
    "name": "Ørskog",
    "state_id": "aa257923-a1c1-40ed-9c27-6e69c8fbe87e"
  },
  {
    "id": "ce46c8e6-9e8c-4871-ac52-0a6efc418e45",
    "name": "Ørsta",
    "state_id": "aa257923-a1c1-40ed-9c27-6e69c8fbe87e"
  },
  {
    "id": "dffb28a5-d183-46cd-aaf0-62cb50103952",
    "name": "Rauma",
    "state_id": "aa257923-a1c1-40ed-9c27-6e69c8fbe87e"
  },
  {
    "id": "6bb12b93-c625-401e-a0bd-ec32fd0f4bc0",
    "name": "Rensvik",
    "state_id": "aa257923-a1c1-40ed-9c27-6e69c8fbe87e"
  },
  {
    "id": "00757d7d-ec0f-4ff9-beff-f4550fb8e179",
    "name": "Sande",
    "state_id": "aa257923-a1c1-40ed-9c27-6e69c8fbe87e"
  },
  {
    "id": "d4a05b10-181c-44ed-a35c-d227cd28e9d1",
    "name": "Sandøy",
    "state_id": "aa257923-a1c1-40ed-9c27-6e69c8fbe87e"
  },
  {
    "id": "f18ac3ac-cf7b-47d3-9ade-30815d0d90a9",
    "name": "Sjøholt",
    "state_id": "aa257923-a1c1-40ed-9c27-6e69c8fbe87e"
  },
  {
    "id": "d40e8847-20f0-4046-a4a7-95692b35a5af",
    "name": "Skodje",
    "state_id": "aa257923-a1c1-40ed-9c27-6e69c8fbe87e"
  },
  {
    "id": "8e5fb580-743d-448e-b98d-c2cfbdfb156f",
    "name": "Smøla",
    "state_id": "aa257923-a1c1-40ed-9c27-6e69c8fbe87e"
  },
  {
    "id": "f8871689-f919-4942-af54-395f1b26890c",
    "name": "Steinshamn",
    "state_id": "aa257923-a1c1-40ed-9c27-6e69c8fbe87e"
  },
  {
    "id": "6bc207e9-5fff-4e24-b6bc-1ab6d2149911",
    "name": "Stordal",
    "state_id": "aa257923-a1c1-40ed-9c27-6e69c8fbe87e"
  },
  {
    "id": "5a3d5c3e-542b-4717-a89f-ac234f1e9d32",
    "name": "Stranda",
    "state_id": "aa257923-a1c1-40ed-9c27-6e69c8fbe87e"
  },
  {
    "id": "eb516273-ab04-46b1-b8ce-cd1a7de8fcc7",
    "name": "Sula",
    "state_id": "aa257923-a1c1-40ed-9c27-6e69c8fbe87e"
  },
  {
    "id": "c4049124-3311-4d67-b74d-3979357657f3",
    "name": "Sunndal",
    "state_id": "aa257923-a1c1-40ed-9c27-6e69c8fbe87e"
  },
  {
    "id": "7e09b02e-f485-421e-964d-a140b9a3ad1f",
    "name": "Sunndalsøra",
    "state_id": "aa257923-a1c1-40ed-9c27-6e69c8fbe87e"
  },
  {
    "id": "ac473fb4-3c92-4688-abc8-03a798a48b20",
    "name": "Surnadal",
    "state_id": "aa257923-a1c1-40ed-9c27-6e69c8fbe87e"
  },
  {
    "id": "bd7b810a-18b4-4e97-a75b-08ef2113c0b2",
    "name": "Sykkylven",
    "state_id": "aa257923-a1c1-40ed-9c27-6e69c8fbe87e"
  },
  {
    "id": "5e40f294-a282-4eed-859d-d8fd36e8b8b6",
    "name": "Tingvoll",
    "state_id": "aa257923-a1c1-40ed-9c27-6e69c8fbe87e"
  },
  {
    "id": "6dfd5c0d-7946-4273-9604-2dfa0ddbc006",
    "name": "Tomra",
    "state_id": "aa257923-a1c1-40ed-9c27-6e69c8fbe87e"
  },
  {
    "id": "31fe797e-c2fd-4d05-8095-91292f8680dc",
    "name": "Ulstein",
    "state_id": "aa257923-a1c1-40ed-9c27-6e69c8fbe87e"
  },
  {
    "id": "fc178d8e-4a1b-43ac-94c9-d5d59cb82916",
    "name": "Ulsteinvik",
    "state_id": "aa257923-a1c1-40ed-9c27-6e69c8fbe87e"
  },
  {
    "id": "51b26eab-5916-4727-a6af-5fd2b95f3f13",
    "name": "Ulsteinvik weather pws station",
    "state_id": "aa257923-a1c1-40ed-9c27-6e69c8fbe87e"
  },
  {
    "id": "ba6a4f7f-c0e3-4195-93f1-ff98409c7fe4",
    "name": "Vanylven",
    "state_id": "aa257923-a1c1-40ed-9c27-6e69c8fbe87e"
  },
  {
    "id": "05cfb362-bc13-41d2-b293-8f630fce66b1",
    "name": "Vatne",
    "state_id": "aa257923-a1c1-40ed-9c27-6e69c8fbe87e"
  },
  {
    "id": "09c42549-6c85-47ce-be22-01dd709d74a6",
    "name": "Vestnes",
    "state_id": "aa257923-a1c1-40ed-9c27-6e69c8fbe87e"
  },
  {
    "id": "789cd7ad-5730-4b73-81b9-283583ad321d",
    "name": "Volda",
    "state_id": "aa257923-a1c1-40ed-9c27-6e69c8fbe87e"
  }
]