[
  {
    "id": "027affd8-3b9c-46b8-abd9-267a31e8d721",
    "name": "Chelghoum el Aïd",
    "state_id": "aa448c7b-b07e-4873-8cc4-509694db8fe2"
  },
  {
    "id": "35aa459b-e1f9-43b5-ba0d-99dec927340a",
    "name": "Mila",
    "state_id": "aa448c7b-b07e-4873-8cc4-509694db8fe2"
  },
  {
    "id": "f130a07b-6e56-4419-ade0-ad1df883cee4",
    "name": "Rouached",
    "state_id": "aa448c7b-b07e-4873-8cc4-509694db8fe2"
  },
  {
    "id": "56d207e8-7adf-445a-8e68-246b8858e62e",
    "name": "Sidi Mérouane",
    "state_id": "aa448c7b-b07e-4873-8cc4-509694db8fe2"
  },
  {
    "id": "3e94c863-c553-4b0c-8c3b-2787e7ba3261",
    "name": "Telerghma",
    "state_id": "aa448c7b-b07e-4873-8cc4-509694db8fe2"
  }
]