[
  {
    "id": "0cfb9f76-b220-435e-bae4-8e9531c634e8",
    "name": "Gobojango",
    "state_id": "abe36012-75c0-4c9d-83fd-48ba9aed423d"
  },
  {
    "id": "09b76310-74cc-47b5-8fdc-d1526abd8cb9",
    "name": "Gweta",
    "state_id": "abe36012-75c0-4c9d-83fd-48ba9aed423d"
  },
  {
    "id": "04e3bec2-7df0-451d-8e74-405a012cecd1",
    "name": "Kalamare",
    "state_id": "abe36012-75c0-4c9d-83fd-48ba9aed423d"
  },
  {
    "id": "ff86543c-7e6e-462d-a35c-33d6096e8da1",
    "name": "Letlhakane",
    "state_id": "abe36012-75c0-4c9d-83fd-48ba9aed423d"
  },
  {
    "id": "93735c6e-697a-4b1e-a21f-8b448ae15b0a",
    "name": "Letsheng",
    "state_id": "abe36012-75c0-4c9d-83fd-48ba9aed423d"
  },
  {
    "id": "16a0269c-b3bd-4f42-9915-6fd99e98a6d3",
    "name": "Maapi",
    "state_id": "abe36012-75c0-4c9d-83fd-48ba9aed423d"
  },
  {
    "id": "e1f11d8e-8d47-4500-bfd8-384f7868361f",
    "name": "Machaneng",
    "state_id": "abe36012-75c0-4c9d-83fd-48ba9aed423d"
  },
  {
    "id": "e5059cee-f6cf-4f72-a19f-6255445a6b09",
    "name": "Mahalapye",
    "state_id": "abe36012-75c0-4c9d-83fd-48ba9aed423d"
  },
  {
    "id": "7f8c1025-3790-45e7-8258-859190c8b96e",
    "name": "Makobeng",
    "state_id": "abe36012-75c0-4c9d-83fd-48ba9aed423d"
  },
  {
    "id": "1abb352e-dd4e-406e-bbc2-1a7ade2c4253",
    "name": "Makwata",
    "state_id": "abe36012-75c0-4c9d-83fd-48ba9aed423d"
  },
  {
    "id": "124c46f8-ecce-4182-8f6b-349ee902501e",
    "name": "Mathakola",
    "state_id": "abe36012-75c0-4c9d-83fd-48ba9aed423d"
  },
  {
    "id": "9921be97-699d-4f91-a44b-ed2a45c49087",
    "name": "Mathambgwane",
    "state_id": "abe36012-75c0-4c9d-83fd-48ba9aed423d"
  },
  {
    "id": "621a589e-238e-459f-9d49-4dd02d349d50",
    "name": "Mathathane",
    "state_id": "abe36012-75c0-4c9d-83fd-48ba9aed423d"
  },
  {
    "id": "97fb0580-8172-46d6-826f-1688ad635469",
    "name": "Maunatlala",
    "state_id": "abe36012-75c0-4c9d-83fd-48ba9aed423d"
  },
  {
    "id": "dced8645-5e7f-4837-ab95-c5094a3114be",
    "name": "Mogapi",
    "state_id": "abe36012-75c0-4c9d-83fd-48ba9aed423d"
  },
  {
    "id": "606e1b24-1f3d-4b9a-8044-54a088991667",
    "name": "Moijabana",
    "state_id": "abe36012-75c0-4c9d-83fd-48ba9aed423d"
  },
  {
    "id": "b063ec7a-b86a-4e35-b543-b8b05b7ecc95",
    "name": "Mookane",
    "state_id": "abe36012-75c0-4c9d-83fd-48ba9aed423d"
  },
  {
    "id": "fdaa89c2-0f02-455f-aa53-4914780b530f",
    "name": "Mopipi",
    "state_id": "abe36012-75c0-4c9d-83fd-48ba9aed423d"
  },
  {
    "id": "6c6a248e-47f0-467b-a6e4-93a5b7ca0e5d",
    "name": "Mosetse",
    "state_id": "abe36012-75c0-4c9d-83fd-48ba9aed423d"
  },
  {
    "id": "a0a14342-bb56-45c2-8271-ea8a007c5843",
    "name": "Nata",
    "state_id": "abe36012-75c0-4c9d-83fd-48ba9aed423d"
  },
  {
    "id": "1bcfbc9f-5c44-4601-88c4-49b5d423807f",
    "name": "Orapa",
    "state_id": "abe36012-75c0-4c9d-83fd-48ba9aed423d"
  },
  {
    "id": "6983d9fa-4bfe-4619-88c5-f6c72bc31f12",
    "name": "Palapye",
    "state_id": "abe36012-75c0-4c9d-83fd-48ba9aed423d"
  },
  {
    "id": "96ad6a9e-6193-4d47-bdc2-616e4fde1928",
    "name": "Pilikwe",
    "state_id": "abe36012-75c0-4c9d-83fd-48ba9aed423d"
  },
  {
    "id": "47a8be1a-5f0e-44b8-ad98-eff1ff740c83",
    "name": "Rakops",
    "state_id": "abe36012-75c0-4c9d-83fd-48ba9aed423d"
  },
  {
    "id": "ca8b8f80-af88-4cbe-ba16-725528bfea25",
    "name": "Ramokgonami",
    "state_id": "abe36012-75c0-4c9d-83fd-48ba9aed423d"
  },
  {
    "id": "74f20bfb-b33a-4824-a38b-df5d0490af91",
    "name": "Ratholo",
    "state_id": "abe36012-75c0-4c9d-83fd-48ba9aed423d"
  },
  {
    "id": "75e7d182-980b-4eda-a05e-c65b4c714fba",
    "name": "Sefophe",
    "state_id": "abe36012-75c0-4c9d-83fd-48ba9aed423d"
  },
  {
    "id": "cc658ba0-726e-406d-9438-937d7671a055",
    "name": "Serowe",
    "state_id": "abe36012-75c0-4c9d-83fd-48ba9aed423d"
  },
  {
    "id": "52a5ac1f-1f43-4f09-845f-8b1b303920b0",
    "name": "Sua",
    "state_id": "abe36012-75c0-4c9d-83fd-48ba9aed423d"
  },
  {
    "id": "439f2ea8-8748-465f-bbf7-89b222c74dd6",
    "name": "Tamasane",
    "state_id": "abe36012-75c0-4c9d-83fd-48ba9aed423d"
  },
  {
    "id": "0d54f308-a247-4653-82a3-61f141124652",
    "name": "Tobane",
    "state_id": "abe36012-75c0-4c9d-83fd-48ba9aed423d"
  },
  {
    "id": "194f28a8-ca4b-47c0-8df0-140249fc369b",
    "name": "Tonota",
    "state_id": "abe36012-75c0-4c9d-83fd-48ba9aed423d"
  }
]