[
  {
    "id": "d36f2b3e-5caf-4c02-8d9d-509b9b8fdbbc",
    "name": "Kadavu Province",
    "state_id": "ac07055f-4304-4dea-b23f-bbb54a993407"
  },
  {
    "id": "b160a56c-882f-4adb-9abf-90759320bcb3",
    "name": "Lau Province",
    "state_id": "ac07055f-4304-4dea-b23f-bbb54a993407"
  },
  {
    "id": "eafd1284-41b0-43be-b0d7-b2c13e9f440b",
    "name": "Levuka",
    "state_id": "ac07055f-4304-4dea-b23f-bbb54a993407"
  },
  {
    "id": "38508322-5368-4e18-8b25-3b7e215f26d7",
    "name": "Lomaiviti Province",
    "state_id": "ac07055f-4304-4dea-b23f-bbb54a993407"
  }
]