[
  {
    "id": "6fc8c457-3e8f-4c9e-9870-3bd056519c40",
    "name": "Encamp",
    "state_id": "ac498216-1234-477e-9c6f-d470c0ac1fd7"
  },
  {
    "id": "4296f894-e606-4783-a9f9-6337b5339045",
    "name": "Pas de la Casa",
    "state_id": "ac498216-1234-477e-9c6f-d470c0ac1fd7"
  }
]