[
  {
    "id": "ae6a09e8-fca5-4b96-8e73-005efb98bb7e",
    "name": "Iho",
    "state_id": "ac661df2-33b0-4b92-96d2-abdff242b206"
  },
  {
    "id": "55edb97c-c5d8-4517-91e9-1f16d63ac360",
    "name": "Oguta",
    "state_id": "ac661df2-33b0-4b92-96d2-abdff242b206"
  },
  {
    "id": "a4413957-4848-424d-88d9-16669d6b2c24",
    "name": "Okigwe",
    "state_id": "ac661df2-33b0-4b92-96d2-abdff242b206"
  },
  {
    "id": "bbe8b06e-afb3-4ae3-b4ae-472dc0757ad7",
    "name": "Orlu",
    "state_id": "ac661df2-33b0-4b92-96d2-abdff242b206"
  },
  {
    "id": "c5b8c80c-1722-4a22-b8f0-1a88068a4546",
    "name": "Orodo",
    "state_id": "ac661df2-33b0-4b92-96d2-abdff242b206"
  },
  {
    "id": "88b72b33-94bf-49d1-a299-87fcfc7adbb0",
    "name": "Owerri",
    "state_id": "ac661df2-33b0-4b92-96d2-abdff242b206"
  }
]