[
  {
    "id": "2e574ca3-86e6-4170-88bf-b5d32e391906",
    "name": "Agbannawag",
    "state_id": "ac7a24f5-52dd-406a-9429-e2474aedcb13"
  },
  {
    "id": "8e1da79b-a830-4081-b847-b33827714122",
    "name": "Ambuclao",
    "state_id": "ac7a24f5-52dd-406a-9429-e2474aedcb13"
  },
  {
    "id": "79770f3c-32ca-48cf-bfb2-15dcf38c16cb",
    "name": "Amlimay",
    "state_id": "ac7a24f5-52dd-406a-9429-e2474aedcb13"
  },
  {
    "id": "3a8c208f-70ba-42b0-ab7a-10e9fcd53c4d",
    "name": "Ampusungan",
    "state_id": "ac7a24f5-52dd-406a-9429-e2474aedcb13"
  },
  {
    "id": "b989ad0a-3523-408d-adc4-01ae1e82e5ef",
    "name": "Angad",
    "state_id": "ac7a24f5-52dd-406a-9429-e2474aedcb13"
  },
  {
    "id": "ca824f19-c9d8-43de-bfbf-46c9b8240b8c",
    "name": "Apayao",
    "state_id": "ac7a24f5-52dd-406a-9429-e2474aedcb13"
  },
  {
    "id": "e8422730-83ff-4f87-8520-e6dad900667b",
    "name": "Atok",
    "state_id": "ac7a24f5-52dd-406a-9429-e2474aedcb13"
  },
  {
    "id": "d5014040-c132-4925-b069-c45fad5a6201",
    "name": "Baculongan",
    "state_id": "ac7a24f5-52dd-406a-9429-e2474aedcb13"
  },
  {
    "id": "49cf8242-f282-4e9e-bf58-e9eca73e0387",
    "name": "Baguinge",
    "state_id": "ac7a24f5-52dd-406a-9429-e2474aedcb13"
  },
  {
    "id": "d84a18af-6cba-4925-911b-fd46fbcc90a3",
    "name": "Baguio",
    "state_id": "ac7a24f5-52dd-406a-9429-e2474aedcb13"
  },
  {
    "id": "8e11896d-7b40-4e9f-b762-5178aa7d691e",
    "name": "Bakun",
    "state_id": "ac7a24f5-52dd-406a-9429-e2474aedcb13"
  },
  {
    "id": "f355ccb7-b9a1-4e47-9a73-272be207f0d2",
    "name": "Balbalan",
    "state_id": "ac7a24f5-52dd-406a-9429-e2474aedcb13"
  },
  {
    "id": "b80bfe3f-a348-4f0a-ba36-8eb6fc6057ac",
    "name": "Banaue",
    "state_id": "ac7a24f5-52dd-406a-9429-e2474aedcb13"
  },
  {
    "id": "a5b3d47b-1ec2-4035-b720-8d6a1386f147",
    "name": "Bangao",
    "state_id": "ac7a24f5-52dd-406a-9429-e2474aedcb13"
  },
  {
    "id": "595ceb0b-e9b0-47eb-9378-c48e62ad6f2f",
    "name": "Bangued",
    "state_id": "ac7a24f5-52dd-406a-9429-e2474aedcb13"
  },
  {
    "id": "ce867c29-3bdc-47c2-a75d-f03c606e8b11",
    "name": "Bantay",
    "state_id": "ac7a24f5-52dd-406a-9429-e2474aedcb13"
  },
  {
    "id": "4d945e4b-2dc3-4cbe-866f-f9d3ecb829ce",
    "name": "Barlig",
    "state_id": "ac7a24f5-52dd-406a-9429-e2474aedcb13"
  },
  {
    "id": "ce575945-602f-49b9-8a1a-6e99c9d3d56b",
    "name": "Bauko",
    "state_id": "ac7a24f5-52dd-406a-9429-e2474aedcb13"
  },
  {
    "id": "a0e46eb5-4e4b-4398-b0a7-f8641ba2dc70",
    "name": "Bayabas",
    "state_id": "ac7a24f5-52dd-406a-9429-e2474aedcb13"
  },
  {
    "id": "65196690-0137-4c71-8b8b-4ae1afdec86e",
    "name": "Besao",
    "state_id": "ac7a24f5-52dd-406a-9429-e2474aedcb13"
  },
  {
    "id": "06f5359f-b86a-41db-a01c-db45f804bbe2",
    "name": "Betwagan",
    "state_id": "ac7a24f5-52dd-406a-9429-e2474aedcb13"
  },
  {
    "id": "3c84bbfd-53ba-4fb1-b040-ac718f89c406",
    "name": "Bocos",
    "state_id": "ac7a24f5-52dd-406a-9429-e2474aedcb13"
  },
  {
    "id": "6eef6573-b8e0-49b5-b11c-de67f7f86577",
    "name": "Bokod",
    "state_id": "ac7a24f5-52dd-406a-9429-e2474aedcb13"
  },
  {
    "id": "e4621caa-4c6a-454d-96cf-012a98ca9977",
    "name": "Boliney",
    "state_id": "ac7a24f5-52dd-406a-9429-e2474aedcb13"
  },
  {
    "id": "b82d3e71-571b-41e7-a85a-1d965e5660ff",
    "name": "Bontoc",
    "state_id": "ac7a24f5-52dd-406a-9429-e2474aedcb13"
  },
  {
    "id": "b2818c88-5ddf-4a61-90d1-f3d0db611b1c",
    "name": "Bucay",
    "state_id": "ac7a24f5-52dd-406a-9429-e2474aedcb13"
  },
  {
    "id": "f4126d47-4649-4b6a-b93b-8d651dbb811b",
    "name": "Buguias",
    "state_id": "ac7a24f5-52dd-406a-9429-e2474aedcb13"
  },
  {
    "id": "69bc763c-9d02-49b2-b6a7-2b94f903ba24",
    "name": "Bulalacao",
    "state_id": "ac7a24f5-52dd-406a-9429-e2474aedcb13"
  },
  {
    "id": "e6cbb10c-effe-4dcb-9efc-070c2c84b8bd",
    "name": "Butigui",
    "state_id": "ac7a24f5-52dd-406a-9429-e2474aedcb13"
  },
  {
    "id": "2cdabb3f-94a3-4ebb-b23b-fad82107a73d",
    "name": "Calaba",
    "state_id": "ac7a24f5-52dd-406a-9429-e2474aedcb13"
  },
  {
    "id": "81eaf591-3667-4d05-bf45-a150bc870eda",
    "name": "Calanasan",
    "state_id": "ac7a24f5-52dd-406a-9429-e2474aedcb13"
  },
  {
    "id": "f636cfc4-24b2-4797-abfa-d69db970fb33",
    "name": "Conner",
    "state_id": "ac7a24f5-52dd-406a-9429-e2474aedcb13"
  },
  {
    "id": "de924ae8-ae0b-4373-80ec-7b5d31b99531",
    "name": "Daguioman",
    "state_id": "ac7a24f5-52dd-406a-9429-e2474aedcb13"
  },
  {
    "id": "d3e066c2-c2e1-4f19-8dc7-6e0b29798279",
    "name": "Dalipey",
    "state_id": "ac7a24f5-52dd-406a-9429-e2474aedcb13"
  },
  {
    "id": "62ad67a3-85ab-4243-bf31-35ecec3dedfb",
    "name": "Dalupirip",
    "state_id": "ac7a24f5-52dd-406a-9429-e2474aedcb13"
  },
  {
    "id": "aa15025f-e4b3-48ce-8505-08fd34368a04",
    "name": "Danglas",
    "state_id": "ac7a24f5-52dd-406a-9429-e2474aedcb13"
  },
  {
    "id": "44bb8003-a0e0-43e9-869c-530062b4bc2c",
    "name": "Dolores",
    "state_id": "ac7a24f5-52dd-406a-9429-e2474aedcb13"
  },
  {
    "id": "40a3d5c1-1553-4046-82ae-997ad280a2b0",
    "name": "Flora",
    "state_id": "ac7a24f5-52dd-406a-9429-e2474aedcb13"
  },
  {
    "id": "43ff294a-47d5-4eba-b8d9-90db51d0221c",
    "name": "Gambang",
    "state_id": "ac7a24f5-52dd-406a-9429-e2474aedcb13"
  },
  {
    "id": "ef35e2d9-0713-4fe2-9d41-c8b012500cb6",
    "name": "Guinsadan",
    "state_id": "ac7a24f5-52dd-406a-9429-e2474aedcb13"
  },
  {
    "id": "ac351199-b874-4c15-ba80-c8a541306e93",
    "name": "Hapao",
    "state_id": "ac7a24f5-52dd-406a-9429-e2474aedcb13"
  },
  {
    "id": "61b789ad-f2c7-46f5-91b9-ad066d7ed99d",
    "name": "Itogon",
    "state_id": "ac7a24f5-52dd-406a-9429-e2474aedcb13"
  },
  {
    "id": "300c30ed-441c-4081-ab7a-0ef8e74e3d05",
    "name": "Kabugao",
    "state_id": "ac7a24f5-52dd-406a-9429-e2474aedcb13"
  },
  {
    "id": "fd6918e6-334d-402e-8ca0-432df16be6f0",
    "name": "Kalinga",
    "state_id": "ac7a24f5-52dd-406a-9429-e2474aedcb13"
  },
  {
    "id": "20d17722-aea8-4c3b-9d9f-de454ea00213",
    "name": "Kapangan",
    "state_id": "ac7a24f5-52dd-406a-9429-e2474aedcb13"
  },
  {
    "id": "76cee0c9-5c49-40c3-8e90-395b8dbcfdc3",
    "name": "Kiangan",
    "state_id": "ac7a24f5-52dd-406a-9429-e2474aedcb13"
  },
  {
    "id": "69d1c18c-8e06-4167-9576-2081e350d67c",
    "name": "Kibungan",
    "state_id": "ac7a24f5-52dd-406a-9429-e2474aedcb13"
  },
  {
    "id": "9dd735c5-47f3-449b-b92d-e21441f1f6ce",
    "name": "La Paz",
    "state_id": "ac7a24f5-52dd-406a-9429-e2474aedcb13"
  },
  {
    "id": "bc74af8b-843f-4b97-9576-f0edc9f5287a",
    "name": "La Trinidad",
    "state_id": "ac7a24f5-52dd-406a-9429-e2474aedcb13"
  },
  {
    "id": "771953b0-8ec4-4b84-995b-8e8853b2c76e",
    "name": "Lagangilang",
    "state_id": "ac7a24f5-52dd-406a-9429-e2474aedcb13"
  },
  {
    "id": "cadc4eae-cbb9-4075-b375-54f5e2222fd3",
    "name": "Lagawe",
    "state_id": "ac7a24f5-52dd-406a-9429-e2474aedcb13"
  },
  {
    "id": "8f6d03f8-bf2c-4ba6-8dad-fe6806dfbbdb",
    "name": "Lagayan",
    "state_id": "ac7a24f5-52dd-406a-9429-e2474aedcb13"
  },
  {
    "id": "0c21b29a-3901-47b6-a1eb-c216b54129ec",
    "name": "Lamut",
    "state_id": "ac7a24f5-52dd-406a-9429-e2474aedcb13"
  },
  {
    "id": "8bfceb65-90a1-4487-b7e3-d1dccac5a7b4",
    "name": "Laya",
    "state_id": "ac7a24f5-52dd-406a-9429-e2474aedcb13"
  },
  {
    "id": "e79b2d66-c665-4375-939f-e35512f7a898",
    "name": "Licuan",
    "state_id": "ac7a24f5-52dd-406a-9429-e2474aedcb13"
  },
  {
    "id": "2a9ad438-42b5-4208-a1ce-1293f99168b7",
    "name": "Liwan",
    "state_id": "ac7a24f5-52dd-406a-9429-e2474aedcb13"
  },
  {
    "id": "eff3eeb3-7c05-47a6-934d-322c4ab60a0e",
    "name": "Loacan",
    "state_id": "ac7a24f5-52dd-406a-9429-e2474aedcb13"
  },
  {
    "id": "c96c605a-5cc6-4663-b533-01b5c9eb1f74",
    "name": "Luba",
    "state_id": "ac7a24f5-52dd-406a-9429-e2474aedcb13"
  },
  {
    "id": "bfe0ad49-98ac-4a8f-9225-70dbb7c0c29a",
    "name": "Lubuagan",
    "state_id": "ac7a24f5-52dd-406a-9429-e2474aedcb13"
  },
  {
    "id": "450c299f-9bf1-460c-bcbf-acf73224dbce",
    "name": "Luna",
    "state_id": "ac7a24f5-52dd-406a-9429-e2474aedcb13"
  },
  {
    "id": "343f8174-8c6c-4b85-9f9a-8d8e1f585f33",
    "name": "Manabo",
    "state_id": "ac7a24f5-52dd-406a-9429-e2474aedcb13"
  },
  {
    "id": "ec3d0ebe-2e60-4445-a04a-5e4a2198550d",
    "name": "Mankayan",
    "state_id": "ac7a24f5-52dd-406a-9429-e2474aedcb13"
  },
  {
    "id": "015653a4-4241-4861-a1d0-82ac8aac2461",
    "name": "Monamon",
    "state_id": "ac7a24f5-52dd-406a-9429-e2474aedcb13"
  },
  {
    "id": "30d5fa14-a5ba-4ec7-9510-ef2c8fd2d47e",
    "name": "Mountain Province",
    "state_id": "ac7a24f5-52dd-406a-9429-e2474aedcb13"
  },
  {
    "id": "144ddc9f-4f47-4627-be27-ced29b19e12c",
    "name": "Nangalisan",
    "state_id": "ac7a24f5-52dd-406a-9429-e2474aedcb13"
  },
  {
    "id": "500b7a6f-e531-4216-a4e8-6db1deb8856a",
    "name": "Natonin",
    "state_id": "ac7a24f5-52dd-406a-9429-e2474aedcb13"
  },
  {
    "id": "9fb5eea4-ed30-40b0-82ca-fc345e2cfa7e",
    "name": "Natubleng",
    "state_id": "ac7a24f5-52dd-406a-9429-e2474aedcb13"
  },
  {
    "id": "a107c996-d181-4244-85f1-83bb754935b7",
    "name": "Paracelis",
    "state_id": "ac7a24f5-52dd-406a-9429-e2474aedcb13"
  },
  {
    "id": "8d9b50d6-6151-41a9-ba5a-368972b4cd88",
    "name": "Pasil",
    "state_id": "ac7a24f5-52dd-406a-9429-e2474aedcb13"
  },
  {
    "id": "6347027d-4fb9-44e0-89c9-48ab75350217",
    "name": "Peñarrubia",
    "state_id": "ac7a24f5-52dd-406a-9429-e2474aedcb13"
  },
  {
    "id": "371a4e9d-2f78-48c6-b551-c1c52e4e7a78",
    "name": "Pidigan",
    "state_id": "ac7a24f5-52dd-406a-9429-e2474aedcb13"
  },
  {
    "id": "273b5b63-785d-4767-babc-e2544a124de9",
    "name": "Pilar",
    "state_id": "ac7a24f5-52dd-406a-9429-e2474aedcb13"
  },
  {
    "id": "a52611a6-b18f-4049-80ef-719810ce06c1",
    "name": "Pinukpuk",
    "state_id": "ac7a24f5-52dd-406a-9429-e2474aedcb13"
  },
  {
    "id": "c926b538-7bc4-432f-b49b-ff8523bfcbcd",
    "name": "Province of Abra",
    "state_id": "ac7a24f5-52dd-406a-9429-e2474aedcb13"
  },
  {
    "id": "d6ff2755-02bc-4a8e-9c96-abd0c53bff7f",
    "name": "Province of Benguet",
    "state_id": "ac7a24f5-52dd-406a-9429-e2474aedcb13"
  },
  {
    "id": "109a651d-2549-4d25-a204-c3af5a9f697d",
    "name": "Province of Ifugao",
    "state_id": "ac7a24f5-52dd-406a-9429-e2474aedcb13"
  },
  {
    "id": "3ccc424e-1071-4348-91fd-1a472b1eb743",
    "name": "Sablan",
    "state_id": "ac7a24f5-52dd-406a-9429-e2474aedcb13"
  },
  {
    "id": "03107c29-d3f0-4d98-92b1-de7fede78007",
    "name": "Sadanga",
    "state_id": "ac7a24f5-52dd-406a-9429-e2474aedcb13"
  },
  {
    "id": "69807dff-80dc-4753-8dfb-4930ddc00f4f",
    "name": "Sadsadan",
    "state_id": "ac7a24f5-52dd-406a-9429-e2474aedcb13"
  },
  {
    "id": "938de2a3-4c6f-4805-baf8-7112c857eea4",
    "name": "Sagada",
    "state_id": "ac7a24f5-52dd-406a-9429-e2474aedcb13"
  },
  {
    "id": "7f14afbe-f8f5-4217-906c-05128594a157",
    "name": "San Juan",
    "state_id": "ac7a24f5-52dd-406a-9429-e2474aedcb13"
  },
  {
    "id": "229ff481-83d9-4f55-bb75-cb658f872c9b",
    "name": "San Ramon",
    "state_id": "ac7a24f5-52dd-406a-9429-e2474aedcb13"
  },
  {
    "id": "2a3215da-9bc2-496b-8947-f396c7f77c66",
    "name": "Santa Marcela",
    "state_id": "ac7a24f5-52dd-406a-9429-e2474aedcb13"
  },
  {
    "id": "01ea75d3-db34-4c35-a374-d275a2433939",
    "name": "Tabaan",
    "state_id": "ac7a24f5-52dd-406a-9429-e2474aedcb13"
  },
  {
    "id": "aed129dc-beff-4198-b093-08cdb5563350",
    "name": "Tabio",
    "state_id": "ac7a24f5-52dd-406a-9429-e2474aedcb13"
  },
  {
    "id": "a8d111c0-5f31-4ba2-9cfa-d60ea2222b38",
    "name": "Tabuk",
    "state_id": "ac7a24f5-52dd-406a-9429-e2474aedcb13"
  },
  {
    "id": "d15281ca-9cc9-487f-969e-26d4a3350fb3",
    "name": "Tacadang",
    "state_id": "ac7a24f5-52dd-406a-9429-e2474aedcb13"
  },
  {
    "id": "63b59f6b-74e8-4118-a774-3f488c1e4261",
    "name": "Tadian",
    "state_id": "ac7a24f5-52dd-406a-9429-e2474aedcb13"
  },
  {
    "id": "30903b17-2d86-485d-ac9e-bdf44dbad211",
    "name": "Taloy",
    "state_id": "ac7a24f5-52dd-406a-9429-e2474aedcb13"
  },
  {
    "id": "8e557370-e171-4993-9687-692943715f74",
    "name": "Tanudan",
    "state_id": "ac7a24f5-52dd-406a-9429-e2474aedcb13"
  },
  {
    "id": "aa05a442-f8b9-4ec4-9a6a-e0f9ba1c1a69",
    "name": "Tayum",
    "state_id": "ac7a24f5-52dd-406a-9429-e2474aedcb13"
  },
  {
    "id": "196b9dc3-52af-4a40-be9e-09af4da7c1ef",
    "name": "Tinglayan",
    "state_id": "ac7a24f5-52dd-406a-9429-e2474aedcb13"
  },
  {
    "id": "e376c872-305d-4d7e-ac27-1a2acb62d120",
    "name": "Topdac",
    "state_id": "ac7a24f5-52dd-406a-9429-e2474aedcb13"
  },
  {
    "id": "6ed03e02-f9d4-42b2-a66f-a3d1861aab71",
    "name": "Tublay",
    "state_id": "ac7a24f5-52dd-406a-9429-e2474aedcb13"
  },
  {
    "id": "e5209276-93cf-4790-90a0-307af11bea51",
    "name": "Tuding",
    "state_id": "ac7a24f5-52dd-406a-9429-e2474aedcb13"
  },
  {
    "id": "6f76350c-050e-493b-aaaf-77a98c07104d",
    "name": "Villarosa",
    "state_id": "ac7a24f5-52dd-406a-9429-e2474aedcb13"
  },
  {
    "id": "a3b35300-ab10-44d0-ad79-79fd8c2fb5a9",
    "name": "Villaviciosa",
    "state_id": "ac7a24f5-52dd-406a-9429-e2474aedcb13"
  }
]