[
  {
    "id": "9d5e4271-92b0-49de-90f4-0cede780f276",
    "name": "Camenca",
    "state_id": "acd48dde-3a2a-4a01-918e-4e31e7eed254"
  },
  {
    "id": "8b4a3365-27b7-4399-b5b3-8275999669c8",
    "name": "Crasnoe",
    "state_id": "acd48dde-3a2a-4a01-918e-4e31e7eed254"
  },
  {
    "id": "40282e18-7695-424e-bcec-37e5a47a92d2",
    "name": "Dnestrovsc",
    "state_id": "acd48dde-3a2a-4a01-918e-4e31e7eed254"
  },
  {
    "id": "620de560-20a9-40cd-b1d6-1082a44283bb",
    "name": "Dubăsari",
    "state_id": "acd48dde-3a2a-4a01-918e-4e31e7eed254"
  },
  {
    "id": "6dda57c6-6fd9-46c3-8428-1ac391b1b75d",
    "name": "Hryhoriopol",
    "state_id": "acd48dde-3a2a-4a01-918e-4e31e7eed254"
  },
  {
    "id": "3d5e5943-7a46-4004-adb7-f075a1bf350a",
    "name": "Maiac",
    "state_id": "acd48dde-3a2a-4a01-918e-4e31e7eed254"
  },
  {
    "id": "84bf9a50-7290-432f-a30f-3aeb2a92f7b3",
    "name": "Pervomaisc",
    "state_id": "acd48dde-3a2a-4a01-918e-4e31e7eed254"
  },
  {
    "id": "fcca715f-53ac-4939-90a2-7fc5bae937a1",
    "name": "Rîbniţa",
    "state_id": "acd48dde-3a2a-4a01-918e-4e31e7eed254"
  },
  {
    "id": "a4d6b4bb-d6c8-441c-861b-61ed406d7b83",
    "name": "Slobozia",
    "state_id": "acd48dde-3a2a-4a01-918e-4e31e7eed254"
  },
  {
    "id": "f4061a42-e6fd-4378-ae7a-c10fa8df7c48",
    "name": "Tiraspol",
    "state_id": "acd48dde-3a2a-4a01-918e-4e31e7eed254"
  },
  {
    "id": "0e9e01bd-e6e7-41f9-82f4-a5b6545b2942",
    "name": "Tiraspolul Nou",
    "state_id": "acd48dde-3a2a-4a01-918e-4e31e7eed254"
  }
]