[
  {
    "id": "2640aa48-2249-4873-87a2-4cfefc0aa652",
    "name": "Abakaliki",
    "state_id": "acdca636-c94b-4cbb-9e82-eea7fd1d0759"
  },
  {
    "id": "cdd90290-e02c-49c4-ad68-d52238119979",
    "name": "Afikpo",
    "state_id": "acdca636-c94b-4cbb-9e82-eea7fd1d0759"
  },
  {
    "id": "622ba72c-1328-4f3c-a5ec-5ef2d5a445f6",
    "name": "Effium",
    "state_id": "acdca636-c94b-4cbb-9e82-eea7fd1d0759"
  },
  {
    "id": "e077f9e4-feaf-4950-a01c-ae705a73f125",
    "name": "Ezza-Ohu",
    "state_id": "acdca636-c94b-4cbb-9e82-eea7fd1d0759"
  },
  {
    "id": "66f4fcad-411d-4883-95bf-dfd49b754366",
    "name": "Isieke",
    "state_id": "acdca636-c94b-4cbb-9e82-eea7fd1d0759"
  }
]