[
  {
    "id": "6359618c-d81e-4b85-a01c-284806453046",
    "name": "Bandiagara",
    "state_id": "ad91aa5e-1287-4ddd-96d6-cd3a94a5d1f8"
  },
  {
    "id": "4cff7a03-4129-40b0-a3e3-d31fbee7eda9",
    "name": "Djénné",
    "state_id": "ad91aa5e-1287-4ddd-96d6-cd3a94a5d1f8"
  },
  {
    "id": "3eb28b45-703a-498a-af84-48ff1d47a7a9",
    "name": "Douentza",
    "state_id": "ad91aa5e-1287-4ddd-96d6-cd3a94a5d1f8"
  },
  {
    "id": "850af6b6-d5da-423a-b277-daec0bda54c4",
    "name": "Douentza Cercle",
    "state_id": "ad91aa5e-1287-4ddd-96d6-cd3a94a5d1f8"
  },
  {
    "id": "33e08ff6-7834-413b-8eea-037ef83b0a53",
    "name": "Mopti",
    "state_id": "ad91aa5e-1287-4ddd-96d6-cd3a94a5d1f8"
  },
  {
    "id": "45566da4-2f32-408e-935a-76e70ef7e43f",
    "name": "Ténenkou",
    "state_id": "ad91aa5e-1287-4ddd-96d6-cd3a94a5d1f8"
  }
]