[
  {
    "id": "79fefe08-a049-47f1-b376-41c799055934",
    "name": "Sihanoukville",
    "state_id": "af9920e7-b498-46d7-8b29-9ba35efc7892"
  },
  {
    "id": "e492004d-1fea-43a3-ae54-4b3ece36fbd4",
    "name": "Srok Stueng Hav",
    "state_id": "af9920e7-b498-46d7-8b29-9ba35efc7892"
  }
]