[
  {
    "id": "3d8e9ad7-19fd-44eb-b2a0-116bc37cee54",
    "name": "Alaçatı",
    "state_id": "b0455660-251e-4a65-bd57-be6d6056ea11"
  },
  {
    "id": "fadd8a96-0fd9-4e70-9727-60af7da014b7",
    "name": "Aliağa",
    "state_id": "b0455660-251e-4a65-bd57-be6d6056ea11"
  },
  {
    "id": "4c887c10-949d-4698-b9b9-b287c29a5a05",
    "name": "Bademli",
    "state_id": "b0455660-251e-4a65-bd57-be6d6056ea11"
  },
  {
    "id": "6feb85a1-bdfb-451b-a7fc-7809421bc4e9",
    "name": "Balçova",
    "state_id": "b0455660-251e-4a65-bd57-be6d6056ea11"
  },
  {
    "id": "b4ef7881-dfe3-4787-8e49-4aa463838352",
    "name": "Bayındır",
    "state_id": "b0455660-251e-4a65-bd57-be6d6056ea11"
  },
  {
    "id": "ef970329-b92c-4377-9d1c-3c8da614fe8b",
    "name": "Bayraklı",
    "state_id": "b0455660-251e-4a65-bd57-be6d6056ea11"
  },
  {
    "id": "d26c0d3d-509e-4926-8177-820129a1bf99",
    "name": "Belevi",
    "state_id": "b0455660-251e-4a65-bd57-be6d6056ea11"
  },
  {
    "id": "829b37da-09d9-41a2-b482-2b6857519245",
    "name": "Bergama",
    "state_id": "b0455660-251e-4a65-bd57-be6d6056ea11"
  },
  {
    "id": "41ea176c-0773-4bb0-b27f-54289b15a1b2",
    "name": "Beydağ",
    "state_id": "b0455660-251e-4a65-bd57-be6d6056ea11"
  },
  {
    "id": "c480d815-cfca-42f6-a0e4-43c0b23bf5af",
    "name": "Bornova",
    "state_id": "b0455660-251e-4a65-bd57-be6d6056ea11"
  },
  {
    "id": "bd0fdf0f-bbeb-4982-bafc-bcb0c00ddc45",
    "name": "Buca",
    "state_id": "b0455660-251e-4a65-bd57-be6d6056ea11"
  },
  {
    "id": "8592bff6-9022-4ba5-81db-3b2d05e203da",
    "name": "Çandarlı",
    "state_id": "b0455660-251e-4a65-bd57-be6d6056ea11"
  },
  {
    "id": "85aa6d19-6bc9-4f5e-946a-3ca67b512396",
    "name": "Çaylı",
    "state_id": "b0455660-251e-4a65-bd57-be6d6056ea11"
  },
  {
    "id": "c01392a1-2690-496a-82a0-2a999125ceb7",
    "name": "Çeşme",
    "state_id": "b0455660-251e-4a65-bd57-be6d6056ea11"
  },
  {
    "id": "3973821e-a839-4c62-ad20-f677f79657ec",
    "name": "Çiğli",
    "state_id": "b0455660-251e-4a65-bd57-be6d6056ea11"
  },
  {
    "id": "79eebc07-cccd-49de-b1ca-e8124d6b8a4c",
    "name": "Dikili",
    "state_id": "b0455660-251e-4a65-bd57-be6d6056ea11"
  },
  {
    "id": "10c13582-1981-46de-beff-adf135d335be",
    "name": "Foça",
    "state_id": "b0455660-251e-4a65-bd57-be6d6056ea11"
  },
  {
    "id": "90ac2d49-05fa-4822-8328-4d24a227e3ff",
    "name": "Gaziemir",
    "state_id": "b0455660-251e-4a65-bd57-be6d6056ea11"
  },
  {
    "id": "a18a6ece-5cc1-47d9-967e-150dc97d851d",
    "name": "Gökçen",
    "state_id": "b0455660-251e-4a65-bd57-be6d6056ea11"
  },
  {
    "id": "33456239-b551-4d02-a856-58efd44feb74",
    "name": "Güzelbahçe",
    "state_id": "b0455660-251e-4a65-bd57-be6d6056ea11"
  },
  {
    "id": "5a65f3fc-742b-4efb-80fa-7b5c8e5cfe38",
    "name": "İzmir",
    "state_id": "b0455660-251e-4a65-bd57-be6d6056ea11"
  },
  {
    "id": "e329c747-a4db-4e0f-a258-bd2b95eaaea0",
    "name": "Karabağlar",
    "state_id": "b0455660-251e-4a65-bd57-be6d6056ea11"
  },
  {
    "id": "a9d1368c-b1be-493a-8df5-c754c7d1aa7c",
    "name": "Karaburun",
    "state_id": "b0455660-251e-4a65-bd57-be6d6056ea11"
  },
  {
    "id": "2a0c344a-5457-4d5a-a512-ddda433fdc9e",
    "name": "Karşıyaka İlçesi",
    "state_id": "b0455660-251e-4a65-bd57-be6d6056ea11"
  },
  {
    "id": "fb846834-cd8e-43de-8f91-f2194e492926",
    "name": "Kaymakçı",
    "state_id": "b0455660-251e-4a65-bd57-be6d6056ea11"
  },
  {
    "id": "f8af3010-8a74-45bc-842b-a42339a0d6ce",
    "name": "Kemalpaşa",
    "state_id": "b0455660-251e-4a65-bd57-be6d6056ea11"
  },
  {
    "id": "2a1b01fc-4458-4af1-9e8d-7515f51ea368",
    "name": "Kiraz",
    "state_id": "b0455660-251e-4a65-bd57-be6d6056ea11"
  },
  {
    "id": "4e7016a2-4147-4fde-a7fe-9cd1463f3bdb",
    "name": "Kınık",
    "state_id": "b0455660-251e-4a65-bd57-be6d6056ea11"
  },
  {
    "id": "17d6724c-d2ec-4e7e-a3fd-b538360ce55b",
    "name": "Konak",
    "state_id": "b0455660-251e-4a65-bd57-be6d6056ea11"
  },
  {
    "id": "b5f625f2-1b5d-4090-9e41-e8222857463d",
    "name": "Konaklı",
    "state_id": "b0455660-251e-4a65-bd57-be6d6056ea11"
  },
  {
    "id": "40d3813c-c4eb-4507-9479-789ccc14e205",
    "name": "Menderes",
    "state_id": "b0455660-251e-4a65-bd57-be6d6056ea11"
  },
  {
    "id": "a6ad5ec0-0a6e-48ed-9e5c-6853614f4a08",
    "name": "Menemen",
    "state_id": "b0455660-251e-4a65-bd57-be6d6056ea11"
  },
  {
    "id": "a8ab809b-f597-4f1f-a0e0-fa11ffd704f0",
    "name": "Narlıdere",
    "state_id": "b0455660-251e-4a65-bd57-be6d6056ea11"
  },
  {
    "id": "e70db152-b01c-492e-87a3-c6894fcaaa58",
    "name": "Ödemiş",
    "state_id": "b0455660-251e-4a65-bd57-be6d6056ea11"
  },
  {
    "id": "18bb0a54-c341-4d8b-875f-775210029d00",
    "name": "Özdere",
    "state_id": "b0455660-251e-4a65-bd57-be6d6056ea11"
  },
  {
    "id": "a7f6314e-e0e0-44ae-9527-a6f3454e2837",
    "name": "Seferihisar",
    "state_id": "b0455660-251e-4a65-bd57-be6d6056ea11"
  },
  {
    "id": "1c30ddce-d68a-4484-8915-5c1dbedd9353",
    "name": "Selçuk",
    "state_id": "b0455660-251e-4a65-bd57-be6d6056ea11"
  },
  {
    "id": "5ae515f7-1d88-49de-8cdf-09ed55690c9c",
    "name": "Tire",
    "state_id": "b0455660-251e-4a65-bd57-be6d6056ea11"
  },
  {
    "id": "307d4085-47a6-44c7-b5a5-7f466c413186",
    "name": "Torbalı",
    "state_id": "b0455660-251e-4a65-bd57-be6d6056ea11"
  },
  {
    "id": "2c82992d-e692-4d29-850f-d53da33cfd3f",
    "name": "Urla",
    "state_id": "b0455660-251e-4a65-bd57-be6d6056ea11"
  },
  {
    "id": "9e65f21d-3e3f-4d83-a409-c8240a3987f3",
    "name": "Yenifoça",
    "state_id": "b0455660-251e-4a65-bd57-be6d6056ea11"
  },
  {
    "id": "7927a1d6-5bcf-4340-a924-91294f2dd617",
    "name": "Yenişakran",
    "state_id": "b0455660-251e-4a65-bd57-be6d6056ea11"
  },
  {
    "id": "4a7792e8-1b0b-46a1-ada8-33bc47b915a5",
    "name": "Zeytindağ",
    "state_id": "b0455660-251e-4a65-bd57-be6d6056ea11"
  }
]