[
  {
    "id": "b76954aa-062e-46ee-8c1a-3da2762e4fe4",
    "name": "Huyện Bến Cầu",
    "state_id": "b05096cf-b1b2-4ebd-baeb-9ed5d9186935"
  },
  {
    "id": "d4df5b46-863f-41cb-ad64-608ff25780d8",
    "name": "Huyện Dương Minh Châu",
    "state_id": "b05096cf-b1b2-4ebd-baeb-9ed5d9186935"
  },
  {
    "id": "6b301e0a-691b-471b-a764-89ba16009133",
    "name": "Huyện Gò Dầu",
    "state_id": "b05096cf-b1b2-4ebd-baeb-9ed5d9186935"
  },
  {
    "id": "b5b80689-eb98-4893-a597-1e4274a93dee",
    "name": "Huyện Hòa Thành",
    "state_id": "b05096cf-b1b2-4ebd-baeb-9ed5d9186935"
  },
  {
    "id": "ef3ed8f9-46d6-46c7-a76b-533e2b7e5487",
    "name": "Huyện Tân Châu",
    "state_id": "b05096cf-b1b2-4ebd-baeb-9ed5d9186935"
  },
  {
    "id": "b07d0dbc-127e-4101-992e-3342815db4a8",
    "name": "Huyện Trảng Bàng",
    "state_id": "b05096cf-b1b2-4ebd-baeb-9ed5d9186935"
  },
  {
    "id": "f37f3495-343b-4e93-84df-29d6b6471df0",
    "name": "Phú Khương",
    "state_id": "b05096cf-b1b2-4ebd-baeb-9ed5d9186935"
  },
  {
    "id": "8a8e0611-cb40-4c0c-aaa2-b2bd9d2d35e9",
    "name": "Tây Ninh",
    "state_id": "b05096cf-b1b2-4ebd-baeb-9ed5d9186935"
  }
]