[
  {
    "id": "9fe83ce9-ca29-44ad-be29-b0226bfbfd15",
    "name": "Asan",
    "state_id": "b0c1c588-3c3e-4e41-a23e-be5067dad4f0"
  },
  {
    "id": "d615ad4e-dd82-406d-8344-474c8297bf99",
    "name": "Asan-si",
    "state_id": "b0c1c588-3c3e-4e41-a23e-be5067dad4f0"
  },
  {
    "id": "d8c59d57-a7f9-4fb0-ac11-9029952e9ccc",
    "name": "Boryeong",
    "state_id": "b0c1c588-3c3e-4e41-a23e-be5067dad4f0"
  },
  {
    "id": "75087a81-021e-48f1-9c8b-6a58e6ca38bf",
    "name": "Boryeong-si",
    "state_id": "b0c1c588-3c3e-4e41-a23e-be5067dad4f0"
  },
  {
    "id": "28790014-4a1f-460d-b3e1-138e609c80a1",
    "name": "Buyeo",
    "state_id": "b0c1c588-3c3e-4e41-a23e-be5067dad4f0"
  },
  {
    "id": "5f4b1bc6-b3c5-404e-9fcf-003e47046e2c",
    "name": "Buyeo-gun",
    "state_id": "b0c1c588-3c3e-4e41-a23e-be5067dad4f0"
  },
  {
    "id": "430b6072-2882-4302-a334-1cf94c9d81ab",
    "name": "Cheonan",
    "state_id": "b0c1c588-3c3e-4e41-a23e-be5067dad4f0"
  },
  {
    "id": "4410784a-0a21-4425-8138-46fe8b8810e4",
    "name": "Cheonan-si",
    "state_id": "b0c1c588-3c3e-4e41-a23e-be5067dad4f0"
  },
  {
    "id": "d0a846be-3b26-43b5-93cf-aeed49e478a8",
    "name": "Cheongyang-gun",
    "state_id": "b0c1c588-3c3e-4e41-a23e-be5067dad4f0"
  },
  {
    "id": "7982fcec-06da-4518-be1d-c9186dd86524",
    "name": "Geumsan-gun",
    "state_id": "b0c1c588-3c3e-4e41-a23e-be5067dad4f0"
  },
  {
    "id": "c3e6ce6e-79ab-4d91-b51e-40d64a1fa077",
    "name": "Gongju",
    "state_id": "b0c1c588-3c3e-4e41-a23e-be5067dad4f0"
  },
  {
    "id": "0f479b96-cf53-4679-879f-2bc263cabdb4",
    "name": "Gongju-si",
    "state_id": "b0c1c588-3c3e-4e41-a23e-be5067dad4f0"
  },
  {
    "id": "cf81c56d-9086-4952-bac8-8bd8f71fb9bb",
    "name": "Gyeryong-si",
    "state_id": "b0c1c588-3c3e-4e41-a23e-be5067dad4f0"
  },
  {
    "id": "76c4818f-c971-40a7-b666-a278b8506d30",
    "name": "Hongseong",
    "state_id": "b0c1c588-3c3e-4e41-a23e-be5067dad4f0"
  },
  {
    "id": "18a86782-a8f6-4ac2-9bfe-9176e306e685",
    "name": "Hongseong-gun",
    "state_id": "b0c1c588-3c3e-4e41-a23e-be5067dad4f0"
  },
  {
    "id": "345dad65-489c-43f6-a3f2-cdf0b9e883b4",
    "name": "Kinzan",
    "state_id": "b0c1c588-3c3e-4e41-a23e-be5067dad4f0"
  },
  {
    "id": "c84e9855-2fc9-4508-b5e8-5e2e0bf83828",
    "name": "Nonsan",
    "state_id": "b0c1c588-3c3e-4e41-a23e-be5067dad4f0"
  },
  {
    "id": "269612de-97a1-4e31-bb22-7901e8d21a8f",
    "name": "Nonsan-si",
    "state_id": "b0c1c588-3c3e-4e41-a23e-be5067dad4f0"
  },
  {
    "id": "951da767-5866-4dde-926e-bb42fdec706f",
    "name": "Seocheon-gun",
    "state_id": "b0c1c588-3c3e-4e41-a23e-be5067dad4f0"
  },
  {
    "id": "febda65e-632e-4b2e-a817-f666804fe167",
    "name": "Seonghwan",
    "state_id": "b0c1c588-3c3e-4e41-a23e-be5067dad4f0"
  },
  {
    "id": "327a8587-4f69-4132-aaa2-5a2b26d18651",
    "name": "Seosan",
    "state_id": "b0c1c588-3c3e-4e41-a23e-be5067dad4f0"
  },
  {
    "id": "03aea45f-73e2-47ab-98dc-71ddb9c562b4",
    "name": "Seosan-si",
    "state_id": "b0c1c588-3c3e-4e41-a23e-be5067dad4f0"
  },
  {
    "id": "4e39ebc0-8a53-4fbb-8f68-45aefd1bcb23",
    "name": "Taean-gun",
    "state_id": "b0c1c588-3c3e-4e41-a23e-be5067dad4f0"
  },
  {
    "id": "4192c37f-d8c1-4e81-bad9-e0ea3d3e24a8",
    "name": "Taesal-li",
    "state_id": "b0c1c588-3c3e-4e41-a23e-be5067dad4f0"
  },
  {
    "id": "8bcc9caa-f2e2-4dff-8c41-838e1c70f87c",
    "name": "Tangjin",
    "state_id": "b0c1c588-3c3e-4e41-a23e-be5067dad4f0"
  },
  {
    "id": "ec9f91a4-b5ef-4adf-ae5c-f273c3147223",
    "name": "Yesan",
    "state_id": "b0c1c588-3c3e-4e41-a23e-be5067dad4f0"
  },
  {
    "id": "3aca3d3b-58cb-4972-b298-9d0cd21d5c94",
    "name": "Yesan-gun",
    "state_id": "b0c1c588-3c3e-4e41-a23e-be5067dad4f0"
  },
  {
    "id": "87dffd84-4492-41ac-bc21-c7a133b4d46f",
    "name": "Yŏnmu",
    "state_id": "b0c1c588-3c3e-4e41-a23e-be5067dad4f0"
  }
]