[
  {
    "id": "e3a71519-b378-4847-9368-d00c852d9472",
    "name": "Aberdeen",
    "state_id": "b0f513c8-9389-4c32-82ed-a32ceb80a84a"
  },
  {
    "id": "7509799b-40e8-4e07-b9a8-751d70d9e529",
    "name": "Aberdeen Proving Ground",
    "state_id": "b0f513c8-9389-4c32-82ed-a32ceb80a84a"
  },
  {
    "id": "3dd40ea3-ec6f-4477-bd53-5c30433adbe4",
    "name": "Accokeek",
    "state_id": "b0f513c8-9389-4c32-82ed-a32ceb80a84a"
  },
  {
    "id": "9adb316c-41b4-4322-bf08-bcbd747b8840",
    "name": "Adamstown",
    "state_id": "b0f513c8-9389-4c32-82ed-a32ceb80a84a"
  },
  {
    "id": "30a90519-4fbd-43a7-900f-b471d4e54610",
    "name": "Adelphi",
    "state_id": "b0f513c8-9389-4c32-82ed-a32ceb80a84a"
  },
  {
    "id": "43a75c4e-51b5-469a-82a3-0329efa3c392",
    "name": "Algonquin",
    "state_id": "b0f513c8-9389-4c32-82ed-a32ceb80a84a"
  },
  {
    "id": "81471e4f-e1f7-4cd8-ab98-5585b0c9d100",
    "name": "Allegany County",
    "state_id": "b0f513c8-9389-4c32-82ed-a32ceb80a84a"
  },
  {
    "id": "2dcdf50c-1202-47e1-af04-e8162d39bed1",
    "name": "Andrews AFB",
    "state_id": "b0f513c8-9389-4c32-82ed-a32ceb80a84a"
  },
  {
    "id": "c7b83ce0-f8f7-45be-9330-70ef7bc9dc67",
    "name": "Annapolis",
    "state_id": "b0f513c8-9389-4c32-82ed-a32ceb80a84a"
  },
  {
    "id": "807f1810-4011-4b29-9d6a-15a60915db06",
    "name": "Anne Arundel County",
    "state_id": "b0f513c8-9389-4c32-82ed-a32ceb80a84a"
  },
  {
    "id": "38c1a507-ceda-4601-85e6-57cdc4014e2b",
    "name": "Arbutus",
    "state_id": "b0f513c8-9389-4c32-82ed-a32ceb80a84a"
  },
  {
    "id": "1743a9b7-c64e-4dfa-bfd9-86685776bfb5",
    "name": "Arden on the Severn",
    "state_id": "b0f513c8-9389-4c32-82ed-a32ceb80a84a"
  },
  {
    "id": "a9fce23f-7750-4978-a212-506cb3deb602",
    "name": "Arlington",
    "state_id": "b0f513c8-9389-4c32-82ed-a32ceb80a84a"
  },
  {
    "id": "3110ba38-ba11-4870-8f01-95f49cdfc1ed",
    "name": "Arnold",
    "state_id": "b0f513c8-9389-4c32-82ed-a32ceb80a84a"
  },
  {
    "id": "d8ce3ccc-a743-4f60-a4f1-8e9d662093f4",
    "name": "Ashton-Sandy Spring",
    "state_id": "b0f513c8-9389-4c32-82ed-a32ceb80a84a"
  },
  {
    "id": "88812c84-40c8-4632-9ca7-8d104190335c",
    "name": "Aspen Hill",
    "state_id": "b0f513c8-9389-4c32-82ed-a32ceb80a84a"
  },
  {
    "id": "399adf50-ac45-49e4-ac7b-67575d18fe80",
    "name": "Baden",
    "state_id": "b0f513c8-9389-4c32-82ed-a32ceb80a84a"
  },
  {
    "id": "88ea08a0-08d8-4a8e-a3ce-864a014347fd",
    "name": "Ballenger Creek",
    "state_id": "b0f513c8-9389-4c32-82ed-a32ceb80a84a"
  },
  {
    "id": "0ac49d7e-4212-4ca2-8f76-acc23a8284c9",
    "name": "Baltimore",
    "state_id": "b0f513c8-9389-4c32-82ed-a32ceb80a84a"
  },
  {
    "id": "b90404fb-825b-4642-a003-d332067e8b48",
    "name": "Baltimore County",
    "state_id": "b0f513c8-9389-4c32-82ed-a32ceb80a84a"
  },
  {
    "id": "39fb789f-f4c6-459a-a2b7-d7e196307db5",
    "name": "Baltimore Highlands",
    "state_id": "b0f513c8-9389-4c32-82ed-a32ceb80a84a"
  },
  {
    "id": "0166641d-7e35-4a14-8edf-ff23789be81b",
    "name": "Bartonsville",
    "state_id": "b0f513c8-9389-4c32-82ed-a32ceb80a84a"
  },
  {
    "id": "aa223037-082a-4cb4-a80e-36c168c7b0ce",
    "name": "Bel Air",
    "state_id": "b0f513c8-9389-4c32-82ed-a32ceb80a84a"
  },
  {
    "id": "523f6a20-f530-467e-8c0c-6902a88e2cd6",
    "name": "Bel Air North",
    "state_id": "b0f513c8-9389-4c32-82ed-a32ceb80a84a"
  },
  {
    "id": "b21b8b2d-f963-4671-b366-d1c23ccc1e54",
    "name": "Bel Air South",
    "state_id": "b0f513c8-9389-4c32-82ed-a32ceb80a84a"
  },
  {
    "id": "3d3bf86c-d5db-4ef8-adb2-a446bb8214ed",
    "name": "Beltsville",
    "state_id": "b0f513c8-9389-4c32-82ed-a32ceb80a84a"
  },
  {
    "id": "6e87ea21-836c-42d4-bc51-c5a748944d2a",
    "name": "Bennsville",
    "state_id": "b0f513c8-9389-4c32-82ed-a32ceb80a84a"
  },
  {
    "id": "fc263f99-144d-4719-870b-d880e963dc42",
    "name": "Berlin",
    "state_id": "b0f513c8-9389-4c32-82ed-a32ceb80a84a"
  },
  {
    "id": "742c6c2b-61ea-4705-b7a2-60e2f551d729",
    "name": "Berwyn Heights",
    "state_id": "b0f513c8-9389-4c32-82ed-a32ceb80a84a"
  },
  {
    "id": "26a4c2d1-0c4b-4206-95bd-12838b74f6ed",
    "name": "Bethesda",
    "state_id": "b0f513c8-9389-4c32-82ed-a32ceb80a84a"
  },
  {
    "id": "3252562b-311c-4c3c-b9ea-9149004f2051",
    "name": "Bladensburg",
    "state_id": "b0f513c8-9389-4c32-82ed-a32ceb80a84a"
  },
  {
    "id": "fa4be952-81e0-46de-b31f-72d47bb1d1f9",
    "name": "Boonsboro",
    "state_id": "b0f513c8-9389-4c32-82ed-a32ceb80a84a"
  },
  {
    "id": "bfc4f554-705a-4b97-8229-39ad6093d992",
    "name": "Bowie",
    "state_id": "b0f513c8-9389-4c32-82ed-a32ceb80a84a"
  },
  {
    "id": "814c6899-35c7-44aa-b072-7f66f62b112f",
    "name": "Bowleys Quarters",
    "state_id": "b0f513c8-9389-4c32-82ed-a32ceb80a84a"
  },
  {
    "id": "6b31f67b-dfe5-4927-bfb8-3c99ad097d9b",
    "name": "Bowling Green",
    "state_id": "b0f513c8-9389-4c32-82ed-a32ceb80a84a"
  },
  {
    "id": "a11da69f-852b-4498-b464-d06a2b9bfec8",
    "name": "Braddock Heights",
    "state_id": "b0f513c8-9389-4c32-82ed-a32ceb80a84a"
  },
  {
    "id": "96dd0dc8-ba06-4951-9c21-4fdec7753a8e",
    "name": "Brandywine",
    "state_id": "b0f513c8-9389-4c32-82ed-a32ceb80a84a"
  },
  {
    "id": "c3571c69-d664-4b33-8779-0c6a8f817d9c",
    "name": "Brentwood",
    "state_id": "b0f513c8-9389-4c32-82ed-a32ceb80a84a"
  },
  {
    "id": "0d135b94-5596-4db2-9d28-2ad1da7215cb",
    "name": "Brock Hall",
    "state_id": "b0f513c8-9389-4c32-82ed-a32ceb80a84a"
  },
  {
    "id": "bd76228b-ebeb-4e0d-bfe5-799595ec12e4",
    "name": "Brooklyn Park",
    "state_id": "b0f513c8-9389-4c32-82ed-a32ceb80a84a"
  },
  {
    "id": "77b5a495-ff51-41c1-a3cc-3c7b3edfe5a7",
    "name": "Brookmont",
    "state_id": "b0f513c8-9389-4c32-82ed-a32ceb80a84a"
  },
  {
    "id": "9c8a2cea-9d33-4fe7-a852-39396d34ee29",
    "name": "Brunswick",
    "state_id": "b0f513c8-9389-4c32-82ed-a32ceb80a84a"
  },
  {
    "id": "90ee1e8e-6c83-429a-9c6f-8e684a5dcee0",
    "name": "Bryans Road",
    "state_id": "b0f513c8-9389-4c32-82ed-a32ceb80a84a"
  },
  {
    "id": "7251288c-2232-4e32-9bba-f9479c3109fc",
    "name": "Buckeystown",
    "state_id": "b0f513c8-9389-4c32-82ed-a32ceb80a84a"
  },
  {
    "id": "5f5dd885-8508-4f92-a6f1-1c7216423186",
    "name": "Burtonsville",
    "state_id": "b0f513c8-9389-4c32-82ed-a32ceb80a84a"
  },
  {
    "id": "e33aacbd-b605-4c71-9aaf-9690b02e3bf4",
    "name": "Butcher's Hill",
    "state_id": "b0f513c8-9389-4c32-82ed-a32ceb80a84a"
  },
  {
    "id": "ee84f2c8-d9e1-4217-8872-31f993c7b9b5",
    "name": "Cabin John",
    "state_id": "b0f513c8-9389-4c32-82ed-a32ceb80a84a"
  },
  {
    "id": "1680167c-b1d1-4d0b-9416-c4490d535d44",
    "name": "California",
    "state_id": "b0f513c8-9389-4c32-82ed-a32ceb80a84a"
  },
  {
    "id": "382edc5e-b7d4-495d-a7c1-0ca59ef82623",
    "name": "Calvert County",
    "state_id": "b0f513c8-9389-4c32-82ed-a32ceb80a84a"
  },
  {
    "id": "e9743206-1fd5-4e3c-8df8-7336c51966a1",
    "name": "Calverton",
    "state_id": "b0f513c8-9389-4c32-82ed-a32ceb80a84a"
  },
  {
    "id": "88a504b2-f34c-4ca5-99d6-aa7ceb6a49ea",
    "name": "Cambridge",
    "state_id": "b0f513c8-9389-4c32-82ed-a32ceb80a84a"
  },
  {
    "id": "9d411685-53aa-425a-ba08-e26943d023b5",
    "name": "Camp Springs",
    "state_id": "b0f513c8-9389-4c32-82ed-a32ceb80a84a"
  },
  {
    "id": "f318a2ad-5419-4777-b59f-7c3190a28ab3",
    "name": "Cape Saint Claire",
    "state_id": "b0f513c8-9389-4c32-82ed-a32ceb80a84a"
  },
  {
    "id": "5cdbf650-eff9-479d-b711-4359523a8658",
    "name": "Capitol Heights",
    "state_id": "b0f513c8-9389-4c32-82ed-a32ceb80a84a"
  },
  {
    "id": "ea5379b8-cbbb-4ac1-b21a-2cce8390165a",
    "name": "Carney",
    "state_id": "b0f513c8-9389-4c32-82ed-a32ceb80a84a"
  },
  {
    "id": "c52c31d7-1ac5-4d54-8d9d-f0724da9eed6",
    "name": "Caroline County",
    "state_id": "b0f513c8-9389-4c32-82ed-a32ceb80a84a"
  },
  {
    "id": "e1bd22ed-ea74-4a7f-89f4-076340420a77",
    "name": "Carroll County",
    "state_id": "b0f513c8-9389-4c32-82ed-a32ceb80a84a"
  },
  {
    "id": "d94c74fa-35fb-4ecc-8949-17141198fee2",
    "name": "Catonsville",
    "state_id": "b0f513c8-9389-4c32-82ed-a32ceb80a84a"
  },
  {
    "id": "3e227aea-9492-4ca8-a51c-c86f16535b5e",
    "name": "Cavetown",
    "state_id": "b0f513c8-9389-4c32-82ed-a32ceb80a84a"
  },
  {
    "id": "dff6bc96-6435-4fc8-9001-528bd513d32d",
    "name": "Cecil County",
    "state_id": "b0f513c8-9389-4c32-82ed-a32ceb80a84a"
  },
  {
    "id": "ad68f217-38ab-42bb-a613-623e98eef28f",
    "name": "Centreville",
    "state_id": "b0f513c8-9389-4c32-82ed-a32ceb80a84a"
  },
  {
    "id": "1fd723b6-f3da-430e-9ed2-d61902cecbf9",
    "name": "Charles County",
    "state_id": "b0f513c8-9389-4c32-82ed-a32ceb80a84a"
  },
  {
    "id": "dc97d7ec-438c-4181-95a3-559a9c0c774f",
    "name": "Charles Village",
    "state_id": "b0f513c8-9389-4c32-82ed-a32ceb80a84a"
  },
  {
    "id": "130a419c-35ea-4281-86bb-e41186060dab",
    "name": "Charlestown",
    "state_id": "b0f513c8-9389-4c32-82ed-a32ceb80a84a"
  },
  {
    "id": "32a7c813-1012-4d5c-9297-f749ff5fd15f",
    "name": "Charlotte Hall",
    "state_id": "b0f513c8-9389-4c32-82ed-a32ceb80a84a"
  },
  {
    "id": "28d17195-857b-4acd-a544-6fb331b010d8",
    "name": "Chesapeake Beach",
    "state_id": "b0f513c8-9389-4c32-82ed-a32ceb80a84a"
  },
  {
    "id": "d04d0099-dd90-4032-912e-ca4544d75af7",
    "name": "Chesapeake Ranch Estates",
    "state_id": "b0f513c8-9389-4c32-82ed-a32ceb80a84a"
  },
  {
    "id": "50e5cca9-f48e-4d28-b873-d51245188840",
    "name": "Chester",
    "state_id": "b0f513c8-9389-4c32-82ed-a32ceb80a84a"
  },
  {
    "id": "83f349bd-039b-464c-ab83-d328bd6e7a96",
    "name": "Chestertown",
    "state_id": "b0f513c8-9389-4c32-82ed-a32ceb80a84a"
  },
  {
    "id": "b01ecddf-9f42-4dd2-9b07-79eda475ef19",
    "name": "Cheverly",
    "state_id": "b0f513c8-9389-4c32-82ed-a32ceb80a84a"
  },
  {
    "id": "8e027add-98e3-43ce-aa0b-56dfadf829bc",
    "name": "Chevy Chase",
    "state_id": "b0f513c8-9389-4c32-82ed-a32ceb80a84a"
  },
  {
    "id": "2dc8e97b-ef08-4360-93b6-da1b9df376ed",
    "name": "Chevy Chase Village",
    "state_id": "b0f513c8-9389-4c32-82ed-a32ceb80a84a"
  },
  {
    "id": "bbcc11eb-a398-4e81-aafb-21986d4b7ba2",
    "name": "Chillum",
    "state_id": "b0f513c8-9389-4c32-82ed-a32ceb80a84a"
  },
  {
    "id": "0305d116-3c28-4bb9-a4ba-723fe9c4b4a7",
    "name": "City of Baltimore",
    "state_id": "b0f513c8-9389-4c32-82ed-a32ceb80a84a"
  },
  {
    "id": "2dc4e2d5-f420-4df7-be84-c1dda716ec93",
    "name": "Clarksburg",
    "state_id": "b0f513c8-9389-4c32-82ed-a32ceb80a84a"
  },
  {
    "id": "3188415c-56e5-4efe-b422-e44505033220",
    "name": "Clinton",
    "state_id": "b0f513c8-9389-4c32-82ed-a32ceb80a84a"
  },
  {
    "id": "2fa673c6-eaff-4cc1-9542-e1b591fdb02d",
    "name": "Clover Hill",
    "state_id": "b0f513c8-9389-4c32-82ed-a32ceb80a84a"
  },
  {
    "id": "8bd22e17-3c8f-4c6f-820b-382027de6cb9",
    "name": "Cloverly",
    "state_id": "b0f513c8-9389-4c32-82ed-a32ceb80a84a"
  },
  {
    "id": "b2d4dee4-cca8-4b5a-b958-abcf7d2ac151",
    "name": "Cobb Island",
    "state_id": "b0f513c8-9389-4c32-82ed-a32ceb80a84a"
  },
  {
    "id": "950f0ddf-4435-4bea-977b-47e4f5d83f4b",
    "name": "Cockeysville",
    "state_id": "b0f513c8-9389-4c32-82ed-a32ceb80a84a"
  },
  {
    "id": "a74bf2f5-4041-4800-9404-0f2718bb4e77",
    "name": "Colesville",
    "state_id": "b0f513c8-9389-4c32-82ed-a32ceb80a84a"
  },
  {
    "id": "d13dca58-9143-4981-82dd-feb226539eae",
    "name": "College Park",
    "state_id": "b0f513c8-9389-4c32-82ed-a32ceb80a84a"
  },
  {
    "id": "a9f479f4-0cb9-4d1f-8616-fa3e76ce5c72",
    "name": "Colmar Manor",
    "state_id": "b0f513c8-9389-4c32-82ed-a32ceb80a84a"
  },
  {
    "id": "c49d9325-0eda-40c5-bd60-f14d2315d25e",
    "name": "Columbia",
    "state_id": "b0f513c8-9389-4c32-82ed-a32ceb80a84a"
  },
  {
    "id": "8c3d72d5-d6da-4492-935e-a1923d147ce7",
    "name": "Coral Hills",
    "state_id": "b0f513c8-9389-4c32-82ed-a32ceb80a84a"
  },
  {
    "id": "589d8bd0-89fb-43a7-a852-48c922fb692e",
    "name": "Cottage City",
    "state_id": "b0f513c8-9389-4c32-82ed-a32ceb80a84a"
  },
  {
    "id": "a834f713-6b7e-4ce6-95b3-33f5c6eba3ab",
    "name": "Cresaptown",
    "state_id": "b0f513c8-9389-4c32-82ed-a32ceb80a84a"
  },
  {
    "id": "47873f12-fc57-4474-86b2-5eb7933ed70b",
    "name": "Crisfield",
    "state_id": "b0f513c8-9389-4c32-82ed-a32ceb80a84a"
  },
  {
    "id": "100b7fd1-1348-4ff4-8e55-acf83fd06056",
    "name": "Crofton",
    "state_id": "b0f513c8-9389-4c32-82ed-a32ceb80a84a"
  },
  {
    "id": "ffba9550-88a2-43f1-845a-38ff31c3e845",
    "name": "Croom",
    "state_id": "b0f513c8-9389-4c32-82ed-a32ceb80a84a"
  },
  {
    "id": "e5524353-1edb-4f46-a3e6-e8eb1985702f",
    "name": "Crownsville",
    "state_id": "b0f513c8-9389-4c32-82ed-a32ceb80a84a"
  },
  {
    "id": "6c3b2577-a3a0-48e9-8a35-478972743301",
    "name": "Cumberland",
    "state_id": "b0f513c8-9389-4c32-82ed-a32ceb80a84a"
  },
  {
    "id": "52766178-cb75-48a8-9834-485f26aa8814",
    "name": "Damascus",
    "state_id": "b0f513c8-9389-4c32-82ed-a32ceb80a84a"
  },
  {
    "id": "8e88d629-96d9-4d51-a8ad-931274e26f8e",
    "name": "Darnestown",
    "state_id": "b0f513c8-9389-4c32-82ed-a32ceb80a84a"
  },
  {
    "id": "b47b1632-da24-4eef-a78a-561c06ef4e31",
    "name": "Davidsonville",
    "state_id": "b0f513c8-9389-4c32-82ed-a32ceb80a84a"
  },
  {
    "id": "dd37546d-2138-48f2-9e71-6a359057edc1",
    "name": "Deale",
    "state_id": "b0f513c8-9389-4c32-82ed-a32ceb80a84a"
  },
  {
    "id": "0d72fc4e-2347-47fd-b078-5d4e5c922511",
    "name": "Denton",
    "state_id": "b0f513c8-9389-4c32-82ed-a32ceb80a84a"
  },
  {
    "id": "51a51e96-2ccd-4fda-90da-13fa995cb777",
    "name": "Derwood",
    "state_id": "b0f513c8-9389-4c32-82ed-a32ceb80a84a"
  },
  {
    "id": "382f31eb-ef4e-41e6-8f3b-756891c110d0",
    "name": "District Heights",
    "state_id": "b0f513c8-9389-4c32-82ed-a32ceb80a84a"
  },
  {
    "id": "eda48411-3871-4b00-b474-fd328d667ace",
    "name": "Dorchester County",
    "state_id": "b0f513c8-9389-4c32-82ed-a32ceb80a84a"
  },
  {
    "id": "d833e901-d6ea-4fb5-bd36-f89d7ed762ed",
    "name": "Drum Point",
    "state_id": "b0f513c8-9389-4c32-82ed-a32ceb80a84a"
  },
  {
    "id": "c7202194-93cc-4947-bd58-5aa413826388",
    "name": "Dundalk",
    "state_id": "b0f513c8-9389-4c32-82ed-a32ceb80a84a"
  },
  {
    "id": "2539cf22-d692-42d8-9036-19668312dea3",
    "name": "Dunkirk",
    "state_id": "b0f513c8-9389-4c32-82ed-a32ceb80a84a"
  },
  {
    "id": "0504e343-a863-4ea5-b95d-3501fa3132e5",
    "name": "Dunkirk Town Center",
    "state_id": "b0f513c8-9389-4c32-82ed-a32ceb80a84a"
  },
  {
    "id": "0b9a492c-399c-44ca-80ab-072d7ab33330",
    "name": "East Riverdale",
    "state_id": "b0f513c8-9389-4c32-82ed-a32ceb80a84a"
  },
  {
    "id": "89596ef4-5cd7-4e3b-b47f-57923b65ec14",
    "name": "Easton",
    "state_id": "b0f513c8-9389-4c32-82ed-a32ceb80a84a"
  },
  {
    "id": "43fb6db9-053a-4b29-af26-a88052e0f203",
    "name": "Edgemere",
    "state_id": "b0f513c8-9389-4c32-82ed-a32ceb80a84a"
  },
  {
    "id": "665ba2c7-3ad2-4b14-8fcf-9ca76f7d762d",
    "name": "Edgewater",
    "state_id": "b0f513c8-9389-4c32-82ed-a32ceb80a84a"
  },
  {
    "id": "0063e96e-a0a2-43f8-acc0-22465e352a0f",
    "name": "Edgewood",
    "state_id": "b0f513c8-9389-4c32-82ed-a32ceb80a84a"
  },
  {
    "id": "2da56db2-ad65-4397-b106-318cae0913a0",
    "name": "Edmonston",
    "state_id": "b0f513c8-9389-4c32-82ed-a32ceb80a84a"
  },
  {
    "id": "a6fde768-b670-40d7-8ead-8d060ae22910",
    "name": "Eldersburg",
    "state_id": "b0f513c8-9389-4c32-82ed-a32ceb80a84a"
  },
  {
    "id": "118747f1-0eab-4d06-a675-4cba758960dd",
    "name": "Elkridge",
    "state_id": "b0f513c8-9389-4c32-82ed-a32ceb80a84a"
  },
  {
    "id": "74d0e11a-81fd-4f66-9c6d-dcff2c953611",
    "name": "Elkton",
    "state_id": "b0f513c8-9389-4c32-82ed-a32ceb80a84a"
  },
  {
    "id": "e5b595e3-887b-4231-902e-3092d4a5cfaa",
    "name": "Ellicott City",
    "state_id": "b0f513c8-9389-4c32-82ed-a32ceb80a84a"
  },
  {
    "id": "29216a62-a2dd-44dc-8c1f-29e247ef94d2",
    "name": "Emmitsburg",
    "state_id": "b0f513c8-9389-4c32-82ed-a32ceb80a84a"
  },
  {
    "id": "17ad303a-87f9-4a1b-a4e0-66e9ff43f2e9",
    "name": "Essex",
    "state_id": "b0f513c8-9389-4c32-82ed-a32ceb80a84a"
  },
  {
    "id": "b9f5624d-a58c-4e40-bd1f-cb19572cc6f0",
    "name": "Fairland",
    "state_id": "b0f513c8-9389-4c32-82ed-a32ceb80a84a"
  },
  {
    "id": "86251f9a-29f8-4d4b-95a3-a85bc354faf5",
    "name": "Fairmount Heights",
    "state_id": "b0f513c8-9389-4c32-82ed-a32ceb80a84a"
  },
  {
    "id": "ab480480-a3f5-4d11-981f-d8e4ff7a76c7",
    "name": "Fairwood",
    "state_id": "b0f513c8-9389-4c32-82ed-a32ceb80a84a"
  },
  {
    "id": "a2bc63c3-3fdb-4b65-aa0c-7550eda1fea2",
    "name": "Fallston",
    "state_id": "b0f513c8-9389-4c32-82ed-a32ceb80a84a"
  },
  {
    "id": "63c3e4f1-421a-45f6-9b4c-00dea7e4048d",
    "name": "Federalsburg",
    "state_id": "b0f513c8-9389-4c32-82ed-a32ceb80a84a"
  },
  {
    "id": "3a004421-6565-4e2b-bc2c-6bae2f573e01",
    "name": "Ferndale",
    "state_id": "b0f513c8-9389-4c32-82ed-a32ceb80a84a"
  },
  {
    "id": "7e4cf936-8848-484b-b371-47c680203240",
    "name": "Forest Glen",
    "state_id": "b0f513c8-9389-4c32-82ed-a32ceb80a84a"
  },
  {
    "id": "8472c4f8-f463-49ce-bc59-5b4bfde7f60f",
    "name": "Forest Heights",
    "state_id": "b0f513c8-9389-4c32-82ed-a32ceb80a84a"
  },
  {
    "id": "2aff9ec4-efc3-44f8-938c-1c07b355f911",
    "name": "Forestville",
    "state_id": "b0f513c8-9389-4c32-82ed-a32ceb80a84a"
  },
  {
    "id": "2cba3c6d-32c3-4e23-92fa-f2b1b23c7508",
    "name": "Fort George G Mead Junction",
    "state_id": "b0f513c8-9389-4c32-82ed-a32ceb80a84a"
  },
  {
    "id": "5616d581-4bad-44a9-8f2a-c2a6895b72e5",
    "name": "Fort Meade",
    "state_id": "b0f513c8-9389-4c32-82ed-a32ceb80a84a"
  },
  {
    "id": "c666801d-985a-4377-b2a7-1c9e539a618e",
    "name": "Fort Washington",
    "state_id": "b0f513c8-9389-4c32-82ed-a32ceb80a84a"
  },
  {
    "id": "3946e10f-8c1b-4e4d-b052-df5b6b6421d1",
    "name": "Fountainhead-Orchard Hills",
    "state_id": "b0f513c8-9389-4c32-82ed-a32ceb80a84a"
  },
  {
    "id": "e9d7a52c-9d36-4b01-b70c-3af6fe327739",
    "name": "Four Corners",
    "state_id": "b0f513c8-9389-4c32-82ed-a32ceb80a84a"
  },
  {
    "id": "40b52349-04bc-4616-86c1-5ef25f4f2d5b",
    "name": "Frederick",
    "state_id": "b0f513c8-9389-4c32-82ed-a32ceb80a84a"
  },
  {
    "id": "b8f43fc6-f499-477c-baca-76b748afc91b",
    "name": "Frederick County",
    "state_id": "b0f513c8-9389-4c32-82ed-a32ceb80a84a"
  },
  {
    "id": "3c5dd5cf-9d2c-412c-b45c-0be5630c7bb3",
    "name": "Friendly",
    "state_id": "b0f513c8-9389-4c32-82ed-a32ceb80a84a"
  },
  {
    "id": "e524d24f-cb09-473d-8b23-663789a02179",
    "name": "Friendship Village",
    "state_id": "b0f513c8-9389-4c32-82ed-a32ceb80a84a"
  },
  {
    "id": "dad20b95-a7bd-4b1a-8847-eb0399f31667",
    "name": "Frostburg",
    "state_id": "b0f513c8-9389-4c32-82ed-a32ceb80a84a"
  },
  {
    "id": "b8813d48-cc8d-4e72-9e47-8067eb7f6763",
    "name": "Fruitland",
    "state_id": "b0f513c8-9389-4c32-82ed-a32ceb80a84a"
  },
  {
    "id": "eabf2f4c-c71b-4dbc-b797-9d33ddaae354",
    "name": "Fulton",
    "state_id": "b0f513c8-9389-4c32-82ed-a32ceb80a84a"
  },
  {
    "id": "a5aa9f78-7245-444c-8762-4e022386c7b1",
    "name": "Gaithersburg",
    "state_id": "b0f513c8-9389-4c32-82ed-a32ceb80a84a"
  },
  {
    "id": "f0db4822-79c2-4183-89fb-cc7d4ca2ad81",
    "name": "Gambrills",
    "state_id": "b0f513c8-9389-4c32-82ed-a32ceb80a84a"
  },
  {
    "id": "c0df36a0-29a7-4aab-b9c8-e27c682de3bb",
    "name": "Garrett County",
    "state_id": "b0f513c8-9389-4c32-82ed-a32ceb80a84a"
  },
  {
    "id": "7209f3c4-82ca-40c8-90f2-5c436d03cfeb",
    "name": "Garrett Park",
    "state_id": "b0f513c8-9389-4c32-82ed-a32ceb80a84a"
  },
  {
    "id": "7b4b7887-cf84-4d38-83c0-60107aa3ebb1",
    "name": "Garrison",
    "state_id": "b0f513c8-9389-4c32-82ed-a32ceb80a84a"
  },
  {
    "id": "5165746e-86f9-41e3-b5cf-d95c485aa26f",
    "name": "Germantown",
    "state_id": "b0f513c8-9389-4c32-82ed-a32ceb80a84a"
  },
  {
    "id": "10c150ff-d730-4b36-a543-feb87aeae156",
    "name": "Glassmanor",
    "state_id": "b0f513c8-9389-4c32-82ed-a32ceb80a84a"
  },
  {
    "id": "82c36cd3-3949-44ac-af5d-ca7af74de13d",
    "name": "Glen Burnie",
    "state_id": "b0f513c8-9389-4c32-82ed-a32ceb80a84a"
  },
  {
    "id": "f711c4ab-48a6-4f9f-985f-0990a878a0dd",
    "name": "Glenarden",
    "state_id": "b0f513c8-9389-4c32-82ed-a32ceb80a84a"
  },
  {
    "id": "854050f2-5061-4fc7-9b3f-e4c9aeca81c2",
    "name": "Glenmont",
    "state_id": "b0f513c8-9389-4c32-82ed-a32ceb80a84a"
  },
  {
    "id": "b472118e-69ee-4bbc-93a0-349c0cf3b03b",
    "name": "Glenn Dale",
    "state_id": "b0f513c8-9389-4c32-82ed-a32ceb80a84a"
  },
  {
    "id": "9f56e2dd-78d0-4e33-adeb-705cc283a04b",
    "name": "Goddard",
    "state_id": "b0f513c8-9389-4c32-82ed-a32ceb80a84a"
  },
  {
    "id": "58a129fd-ece8-4f29-b4d7-6071f8f7a72a",
    "name": "Golden Beach",
    "state_id": "b0f513c8-9389-4c32-82ed-a32ceb80a84a"
  },
  {
    "id": "1db7074d-459f-4bab-b007-54b59b4a0e9b",
    "name": "Grasonville",
    "state_id": "b0f513c8-9389-4c32-82ed-a32ceb80a84a"
  },
  {
    "id": "85fac02f-82bc-430d-808a-86e4af1518eb",
    "name": "Greater Upper Marlboro",
    "state_id": "b0f513c8-9389-4c32-82ed-a32ceb80a84a"
  },
  {
    "id": "05101513-df2c-46f6-9c02-b1314f9e892e",
    "name": "Green Haven",
    "state_id": "b0f513c8-9389-4c32-82ed-a32ceb80a84a"
  },
  {
    "id": "588430d0-7d25-4068-9c2e-fd13f08b524d",
    "name": "Green Valley",
    "state_id": "b0f513c8-9389-4c32-82ed-a32ceb80a84a"
  },
  {
    "id": "90690d7a-bb8a-4407-a282-6ecd49e5a4ff",
    "name": "Greenbelt",
    "state_id": "b0f513c8-9389-4c32-82ed-a32ceb80a84a"
  },
  {
    "id": "732ee163-850a-498d-aa32-8528e972cc3d",
    "name": "Greensboro",
    "state_id": "b0f513c8-9389-4c32-82ed-a32ceb80a84a"
  },
  {
    "id": "3be5846a-c732-407b-ac0b-484435ca4cd6",
    "name": "Hagerstown",
    "state_id": "b0f513c8-9389-4c32-82ed-a32ceb80a84a"
  },
  {
    "id": "ba7fb04a-7730-42d7-be13-a45077396cd5",
    "name": "Halfway",
    "state_id": "b0f513c8-9389-4c32-82ed-a32ceb80a84a"
  },
  {
    "id": "92e246ac-a55c-41da-8171-3086b5fe1898",
    "name": "Hampstead",
    "state_id": "b0f513c8-9389-4c32-82ed-a32ceb80a84a"
  },
  {
    "id": "6b581e0d-f721-4e34-875f-a9918d1f8934",
    "name": "Hampton",
    "state_id": "b0f513c8-9389-4c32-82ed-a32ceb80a84a"
  },
  {
    "id": "238155a6-6ff5-4497-a0b3-dbcdce58a11c",
    "name": "Hancock",
    "state_id": "b0f513c8-9389-4c32-82ed-a32ceb80a84a"
  },
  {
    "id": "9f841278-af49-4344-949f-c03c829e57d0",
    "name": "Hanover",
    "state_id": "b0f513c8-9389-4c32-82ed-a32ceb80a84a"
  },
  {
    "id": "1c00f883-de55-4913-aec4-fba7aaf2330a",
    "name": "Harford County",
    "state_id": "b0f513c8-9389-4c32-82ed-a32ceb80a84a"
  },
  {
    "id": "d723bb46-aff3-43f1-859b-2321810654d8",
    "name": "Havre de Grace",
    "state_id": "b0f513c8-9389-4c32-82ed-a32ceb80a84a"
  },
  {
    "id": "955c1585-8f67-4518-adea-28ae6c517fbe",
    "name": "Hebron",
    "state_id": "b0f513c8-9389-4c32-82ed-a32ceb80a84a"
  },
  {
    "id": "11e70ff6-1452-491f-a9a2-5c615fac3f97",
    "name": "Herald Harbor",
    "state_id": "b0f513c8-9389-4c32-82ed-a32ceb80a84a"
  },
  {
    "id": "53b0f653-4ffa-4bde-91fc-27d64bacee5f",
    "name": "Highfield-Cascade",
    "state_id": "b0f513c8-9389-4c32-82ed-a32ceb80a84a"
  },
  {
    "id": "768e6fef-8043-4d8e-b7d5-8954a03c1e9a",
    "name": "Highland",
    "state_id": "b0f513c8-9389-4c32-82ed-a32ceb80a84a"
  },
  {
    "id": "e571db17-8d28-4dcf-b323-c657d8b68b62",
    "name": "Hillandale",
    "state_id": "b0f513c8-9389-4c32-82ed-a32ceb80a84a"
  },
  {
    "id": "36c53cc4-0296-4406-abe2-186cb245501c",
    "name": "Hillcrest Heights",
    "state_id": "b0f513c8-9389-4c32-82ed-a32ceb80a84a"
  },
  {
    "id": "bc04bbfa-03a8-4d30-a5d5-5cfd4b785dcf",
    "name": "Hillsmere Shores",
    "state_id": "b0f513c8-9389-4c32-82ed-a32ceb80a84a"
  },
  {
    "id": "3449240c-14e4-4f43-bcba-a70b09600ad1",
    "name": "Howard County",
    "state_id": "b0f513c8-9389-4c32-82ed-a32ceb80a84a"
  },
  {
    "id": "6e7ed406-da08-4550-a442-a0b3dff1e113",
    "name": "Hughesville",
    "state_id": "b0f513c8-9389-4c32-82ed-a32ceb80a84a"
  },
  {
    "id": "fc1327b0-ccf6-4615-a4be-f793ad2274ef",
    "name": "Hunt Valley",
    "state_id": "b0f513c8-9389-4c32-82ed-a32ceb80a84a"
  },
  {
    "id": "dc84fe1e-5346-43f5-9eae-cab4202fab77",
    "name": "Huntingtown",
    "state_id": "b0f513c8-9389-4c32-82ed-a32ceb80a84a"
  },
  {
    "id": "a6cc1b0b-911b-4051-a0cf-109015d1c06d",
    "name": "Huntingtown Town Center",
    "state_id": "b0f513c8-9389-4c32-82ed-a32ceb80a84a"
  },
  {
    "id": "7d261ed8-a96d-49e6-b06f-d091b3ba0e97",
    "name": "Hurlock",
    "state_id": "b0f513c8-9389-4c32-82ed-a32ceb80a84a"
  },
  {
    "id": "df09d4b2-2f98-42ef-a8d9-6611d5f9b655",
    "name": "Hyattsville",
    "state_id": "b0f513c8-9389-4c32-82ed-a32ceb80a84a"
  },
  {
    "id": "7db90bc6-a700-4bfb-af9d-262f85deadd7",
    "name": "Ilchester",
    "state_id": "b0f513c8-9389-4c32-82ed-a32ceb80a84a"
  },
  {
    "id": "7eb19d6f-3d1b-43a3-ae06-80313da6a1d5",
    "name": "Indian Head",
    "state_id": "b0f513c8-9389-4c32-82ed-a32ceb80a84a"
  },
  {
    "id": "e005959b-98eb-412c-8c6d-7305b8dab0f6",
    "name": "Irvington",
    "state_id": "b0f513c8-9389-4c32-82ed-a32ceb80a84a"
  },
  {
    "id": "7cdc8255-65a5-40a8-900c-059b48238a9b",
    "name": "Jarrettsville",
    "state_id": "b0f513c8-9389-4c32-82ed-a32ceb80a84a"
  },
  {
    "id": "05e53e25-0a10-4a9c-89ab-a2e783de6727",
    "name": "Jefferson",
    "state_id": "b0f513c8-9389-4c32-82ed-a32ceb80a84a"
  },
  {
    "id": "2f9e12a2-3297-4aab-8c8d-4b590b230eb5",
    "name": "Jessup",
    "state_id": "b0f513c8-9389-4c32-82ed-a32ceb80a84a"
  },
  {
    "id": "cb0934be-ea97-4c9b-a20c-1d5a292c1983",
    "name": "Joppatowne",
    "state_id": "b0f513c8-9389-4c32-82ed-a32ceb80a84a"
  },
  {
    "id": "a7e3a2db-821f-40dc-ae72-c3ef95273f57",
    "name": "Keedysville",
    "state_id": "b0f513c8-9389-4c32-82ed-a32ceb80a84a"
  },
  {
    "id": "110235c7-55eb-4030-a649-a0cf4a628555",
    "name": "Kemp Mill",
    "state_id": "b0f513c8-9389-4c32-82ed-a32ceb80a84a"
  },
  {
    "id": "445c4259-8f75-4d1e-b5b4-0de2365226b3",
    "name": "Kensington",
    "state_id": "b0f513c8-9389-4c32-82ed-a32ceb80a84a"
  },
  {
    "id": "9285b5b0-3449-4450-bea4-59f9d2227bf8",
    "name": "Kent County",
    "state_id": "b0f513c8-9389-4c32-82ed-a32ceb80a84a"
  },
  {
    "id": "4665763a-14b6-4c7c-8fcd-f9f358adeee9",
    "name": "Kettering",
    "state_id": "b0f513c8-9389-4c32-82ed-a32ceb80a84a"
  },
  {
    "id": "a837e64e-51fe-4c56-a505-a0488dfae463",
    "name": "Kingstown",
    "state_id": "b0f513c8-9389-4c32-82ed-a32ceb80a84a"
  },
  {
    "id": "a7cce6b0-c7ae-453f-87c2-ff3b0c1743f4",
    "name": "Kingsville",
    "state_id": "b0f513c8-9389-4c32-82ed-a32ceb80a84a"
  },
  {
    "id": "6b2c9172-5a65-471c-934d-13eb0066751d",
    "name": "La Plata",
    "state_id": "b0f513c8-9389-4c32-82ed-a32ceb80a84a"
  },
  {
    "id": "8f1f59a6-8db4-4499-ac7e-ffc8b1c9bc6f",
    "name": "La Vale",
    "state_id": "b0f513c8-9389-4c32-82ed-a32ceb80a84a"
  },
  {
    "id": "e0134663-672b-419b-a0bc-440ecb427249",
    "name": "Lake Arbor",
    "state_id": "b0f513c8-9389-4c32-82ed-a32ceb80a84a"
  },
  {
    "id": "e91a9c70-1ee3-4fa8-b5ff-139907b94765",
    "name": "Lake Shore",
    "state_id": "b0f513c8-9389-4c32-82ed-a32ceb80a84a"
  },
  {
    "id": "9cb716cf-85d0-4b9e-b458-8122c4a8daf4",
    "name": "Landover",
    "state_id": "b0f513c8-9389-4c32-82ed-a32ceb80a84a"
  },
  {
    "id": "84543fa6-5152-4291-bdc9-157ba4febf0f",
    "name": "Landover Hills",
    "state_id": "b0f513c8-9389-4c32-82ed-a32ceb80a84a"
  },
  {
    "id": "20c8d60a-debe-42cc-9d84-4c664b2b1703",
    "name": "Langley Park",
    "state_id": "b0f513c8-9389-4c32-82ed-a32ceb80a84a"
  },
  {
    "id": "7eab466e-452c-4fc9-b525-60210a1e54bc",
    "name": "Lanham",
    "state_id": "b0f513c8-9389-4c32-82ed-a32ceb80a84a"
  },
  {
    "id": "59dd9336-5bc4-4dba-9aae-f72b19769a26",
    "name": "Lanham-Seabrook",
    "state_id": "b0f513c8-9389-4c32-82ed-a32ceb80a84a"
  },
  {
    "id": "731b01f6-7f47-4b0b-9325-46d5e69fe95d",
    "name": "Lansdowne",
    "state_id": "b0f513c8-9389-4c32-82ed-a32ceb80a84a"
  },
  {
    "id": "1d5fa0e5-03fd-4802-8733-3b1e9a5416cb",
    "name": "Largo",
    "state_id": "b0f513c8-9389-4c32-82ed-a32ceb80a84a"
  },
  {
    "id": "7546ccea-9122-46d3-85e2-3a2298283233",
    "name": "Laurel",
    "state_id": "b0f513c8-9389-4c32-82ed-a32ceb80a84a"
  },
  {
    "id": "771380e0-76ee-4e8f-bb60-66c0ea4b593d",
    "name": "Layhill",
    "state_id": "b0f513c8-9389-4c32-82ed-a32ceb80a84a"
  },
  {
    "id": "930227f3-4467-48f1-9660-89eb383878f1",
    "name": "Leisure World",
    "state_id": "b0f513c8-9389-4c32-82ed-a32ceb80a84a"
  },
  {
    "id": "b973c597-0602-4976-a345-3af5628ef00a",
    "name": "Leonardtown",
    "state_id": "b0f513c8-9389-4c32-82ed-a32ceb80a84a"
  },
  {
    "id": "b069167d-a009-4eaf-91b4-538b36fb5fa7",
    "name": "Lexington Park",
    "state_id": "b0f513c8-9389-4c32-82ed-a32ceb80a84a"
  },
  {
    "id": "1d541bbf-3886-4590-bc96-2c60656808f2",
    "name": "Linganore",
    "state_id": "b0f513c8-9389-4c32-82ed-a32ceb80a84a"
  },
  {
    "id": "d4df8637-6a96-4e24-aa8d-23284d8dd9a2",
    "name": "Linthicum",
    "state_id": "b0f513c8-9389-4c32-82ed-a32ceb80a84a"
  },
  {
    "id": "1f0857b8-e449-4487-97c4-0b8e9f0b1ca4",
    "name": "Lochearn",
    "state_id": "b0f513c8-9389-4c32-82ed-a32ceb80a84a"
  },
  {
    "id": "2c9c7aa8-470e-4fe8-a6f0-94605b3444bd",
    "name": "Lonaconing",
    "state_id": "b0f513c8-9389-4c32-82ed-a32ceb80a84a"
  },
  {
    "id": "a2a71601-0e46-489a-8d04-eb5f10aa81bc",
    "name": "Londontowne",
    "state_id": "b0f513c8-9389-4c32-82ed-a32ceb80a84a"
  },
  {
    "id": "ff0078a6-fd2a-4e5d-b072-e45bcf7a0b14",
    "name": "Long Beach",
    "state_id": "b0f513c8-9389-4c32-82ed-a32ceb80a84a"
  },
  {
    "id": "85c07d54-4e22-40b9-b6fa-44c2c8a9ee6d",
    "name": "Lusby",
    "state_id": "b0f513c8-9389-4c32-82ed-a32ceb80a84a"
  },
  {
    "id": "d894e9fe-8a8f-4573-8591-d13bfa193265",
    "name": "Lutherville",
    "state_id": "b0f513c8-9389-4c32-82ed-a32ceb80a84a"
  },
  {
    "id": "8155dca1-51bd-439d-be65-ee439c5ac8cb",
    "name": "Lutherville-Timonium",
    "state_id": "b0f513c8-9389-4c32-82ed-a32ceb80a84a"
  },
  {
    "id": "2699e095-658a-4f67-aece-4396b523e41e",
    "name": "Manchester",
    "state_id": "b0f513c8-9389-4c32-82ed-a32ceb80a84a"
  },
  {
    "id": "ec073ef6-fe3f-4d32-bf26-2aaaa4eff128",
    "name": "Marlboro Meadows",
    "state_id": "b0f513c8-9389-4c32-82ed-a32ceb80a84a"
  },
  {
    "id": "9c02fdb4-f8c7-4da5-9dc5-c2f4e30ee79f",
    "name": "Marlboro Village",
    "state_id": "b0f513c8-9389-4c32-82ed-a32ceb80a84a"
  },
  {
    "id": "5535771a-e1b7-4030-823f-cf2c9d80bb98",
    "name": "Marlow Heights",
    "state_id": "b0f513c8-9389-4c32-82ed-a32ceb80a84a"
  },
  {
    "id": "78a9c11a-c02a-419a-992e-f9f71ba89cf3",
    "name": "Marlton",
    "state_id": "b0f513c8-9389-4c32-82ed-a32ceb80a84a"
  },
  {
    "id": "a183f4eb-b905-4cac-9da2-9c5fe1e1f918",
    "name": "Maryland City",
    "state_id": "b0f513c8-9389-4c32-82ed-a32ceb80a84a"
  },
  {
    "id": "3f818a86-1f30-4ab4-9008-f48dd5736b6b",
    "name": "Maugansville",
    "state_id": "b0f513c8-9389-4c32-82ed-a32ceb80a84a"
  },
  {
    "id": "075702bf-472b-4ee0-a65c-8e265b42219b",
    "name": "Mayo",
    "state_id": "b0f513c8-9389-4c32-82ed-a32ceb80a84a"
  },
  {
    "id": "d2440a95-864c-4503-bf77-c0f1f1606abd",
    "name": "Mays Chapel",
    "state_id": "b0f513c8-9389-4c32-82ed-a32ceb80a84a"
  },
  {
    "id": "6a1ecd4c-a571-4f4e-be05-82f373c755cf",
    "name": "Mechanicsville",
    "state_id": "b0f513c8-9389-4c32-82ed-a32ceb80a84a"
  },
  {
    "id": "66ecfab6-27d1-42cf-8703-933816e33726",
    "name": "Mellwood",
    "state_id": "b0f513c8-9389-4c32-82ed-a32ceb80a84a"
  },
  {
    "id": "95a36067-e1ae-499e-b808-31d03d18a62d",
    "name": "Middle River",
    "state_id": "b0f513c8-9389-4c32-82ed-a32ceb80a84a"
  },
  {
    "id": "a83d6e44-8bc9-4065-9243-4fa6966349d9",
    "name": "Middletown",
    "state_id": "b0f513c8-9389-4c32-82ed-a32ceb80a84a"
  },
  {
    "id": "17844665-1d0f-45e9-a515-e1f0ceb410b3",
    "name": "Milford Mill",
    "state_id": "b0f513c8-9389-4c32-82ed-a32ceb80a84a"
  },
  {
    "id": "ec209e67-88da-49c9-9634-d962ea257c13",
    "name": "Mitchellville",
    "state_id": "b0f513c8-9389-4c32-82ed-a32ceb80a84a"
  },
  {
    "id": "437f3fa8-985a-425c-9424-af506d412abe",
    "name": "Montgomery County",
    "state_id": "b0f513c8-9389-4c32-82ed-a32ceb80a84a"
  },
  {
    "id": "584e18ab-fd44-405c-8173-01cdb3416710",
    "name": "Montgomery Village",
    "state_id": "b0f513c8-9389-4c32-82ed-a32ceb80a84a"
  },
  {
    "id": "dec4fd98-cc1b-496d-bd21-d2beb565b29f",
    "name": "Morningside",
    "state_id": "b0f513c8-9389-4c32-82ed-a32ceb80a84a"
  },
  {
    "id": "6dfca15c-fb73-49ad-aaa2-3027ebb7d09d",
    "name": "Mount Airy",
    "state_id": "b0f513c8-9389-4c32-82ed-a32ceb80a84a"
  },
  {
    "id": "048d7b88-951b-470e-b9c5-70e17e15a999",
    "name": "Mount Rainier",
    "state_id": "b0f513c8-9389-4c32-82ed-a32ceb80a84a"
  },
  {
    "id": "13e22c45-af65-43fe-9809-5a854c779ada",
    "name": "Mountain Lake Park",
    "state_id": "b0f513c8-9389-4c32-82ed-a32ceb80a84a"
  },
  {
    "id": "1e61ba1f-7758-4498-ab04-599792793950",
    "name": "Myersville",
    "state_id": "b0f513c8-9389-4c32-82ed-a32ceb80a84a"
  },
  {
    "id": "3a8ed6cc-8696-483e-ba19-535cdde38374",
    "name": "National Harbor",
    "state_id": "b0f513c8-9389-4c32-82ed-a32ceb80a84a"
  },
  {
    "id": "be00463a-3d16-49cd-8d12-1ef482db9e8e",
    "name": "Naval Academy",
    "state_id": "b0f513c8-9389-4c32-82ed-a32ceb80a84a"
  },
  {
    "id": "f2ab0ee8-caf8-4a9d-a5ea-3073f5c6efb7",
    "name": "New Carrollton",
    "state_id": "b0f513c8-9389-4c32-82ed-a32ceb80a84a"
  },
  {
    "id": "66999b14-0c97-4295-a83c-d0f8e1756650",
    "name": "New Windsor",
    "state_id": "b0f513c8-9389-4c32-82ed-a32ceb80a84a"
  },
  {
    "id": "765b8a26-a841-4ac9-932b-b6717b2b71e7",
    "name": "North Beach",
    "state_id": "b0f513c8-9389-4c32-82ed-a32ceb80a84a"
  },
  {
    "id": "afb4c188-bf6a-4e88-8391-6c83e4d1ff6e",
    "name": "North Bel Air",
    "state_id": "b0f513c8-9389-4c32-82ed-a32ceb80a84a"
  },
  {
    "id": "e1dceb17-d2f3-40ca-8d4a-ead88cd4282d",
    "name": "North Bethesda",
    "state_id": "b0f513c8-9389-4c32-82ed-a32ceb80a84a"
  },
  {
    "id": "1efdcdc1-bb71-4b80-b062-ae0711414a5e",
    "name": "North East",
    "state_id": "b0f513c8-9389-4c32-82ed-a32ceb80a84a"
  },
  {
    "id": "4a9f8cbf-c24f-4a50-90f1-601c060b85bf",
    "name": "North Kensington",
    "state_id": "b0f513c8-9389-4c32-82ed-a32ceb80a84a"
  },
  {
    "id": "63c3706d-5f3f-4fd7-801c-45fcc732262f",
    "name": "North Laurel",
    "state_id": "b0f513c8-9389-4c32-82ed-a32ceb80a84a"
  },
  {
    "id": "25df9e55-7994-4607-bc96-9c3d68c1f466",
    "name": "North Potomac",
    "state_id": "b0f513c8-9389-4c32-82ed-a32ceb80a84a"
  },
  {
    "id": "3fd7410f-b33c-4849-9210-7bfe6145b764",
    "name": "Oakland",
    "state_id": "b0f513c8-9389-4c32-82ed-a32ceb80a84a"
  },
  {
    "id": "9c8b407a-f263-4047-ab23-344865cc66e3",
    "name": "Ocean City",
    "state_id": "b0f513c8-9389-4c32-82ed-a32ceb80a84a"
  },
  {
    "id": "80788983-dedd-4d02-aa87-c35b0fd14b67",
    "name": "Ocean Pines",
    "state_id": "b0f513c8-9389-4c32-82ed-a32ceb80a84a"
  },
  {
    "id": "b821dc24-0991-4c00-afa4-ebb1f6b1bab7",
    "name": "Odenton",
    "state_id": "b0f513c8-9389-4c32-82ed-a32ceb80a84a"
  },
  {
    "id": "509e3648-0adc-4fcf-af56-2a8deae728a7",
    "name": "Olney",
    "state_id": "b0f513c8-9389-4c32-82ed-a32ceb80a84a"
  },
  {
    "id": "0f33675a-e0ec-4391-bdeb-a10f85df5dbd",
    "name": "Overlea",
    "state_id": "b0f513c8-9389-4c32-82ed-a32ceb80a84a"
  },
  {
    "id": "5dacb60b-e433-412d-a863-ae17cbfb0012",
    "name": "Owings",
    "state_id": "b0f513c8-9389-4c32-82ed-a32ceb80a84a"
  },
  {
    "id": "f74a82de-5645-451f-ad7f-e0b0a2385cb1",
    "name": "Owings Mills",
    "state_id": "b0f513c8-9389-4c32-82ed-a32ceb80a84a"
  },
  {
    "id": "9c4e914c-1ca9-435b-b8e3-48e9b6db56b9",
    "name": "Oxon Hill",
    "state_id": "b0f513c8-9389-4c32-82ed-a32ceb80a84a"
  },
  {
    "id": "94fbb4f5-6982-48c1-9f35-039fc850ac19",
    "name": "Oxon Hill-Glassmanor",
    "state_id": "b0f513c8-9389-4c32-82ed-a32ceb80a84a"
  },
  {
    "id": "12352fd3-ec18-4312-894e-4cbc47539df6",
    "name": "Paramount-Long Meadow",
    "state_id": "b0f513c8-9389-4c32-82ed-a32ceb80a84a"
  },
  {
    "id": "bd5ae384-9730-443e-b2f2-56329315a795",
    "name": "Parkville",
    "state_id": "b0f513c8-9389-4c32-82ed-a32ceb80a84a"
  },
  {
    "id": "8835f214-f9aa-46de-818e-2e10ba8dfd21",
    "name": "Parole",
    "state_id": "b0f513c8-9389-4c32-82ed-a32ceb80a84a"
  },
  {
    "id": "84fd11e2-b915-4c79-817e-041ba932c46e",
    "name": "Pasadena",
    "state_id": "b0f513c8-9389-4c32-82ed-a32ceb80a84a"
  },
  {
    "id": "e3aa1f7f-3545-405f-91ff-4f12704c718d",
    "name": "Peppermill Village",
    "state_id": "b0f513c8-9389-4c32-82ed-a32ceb80a84a"
  },
  {
    "id": "85400300-0281-47b0-99dc-baca12fd1c1b",
    "name": "Perry Hall",
    "state_id": "b0f513c8-9389-4c32-82ed-a32ceb80a84a"
  },
  {
    "id": "f3c848e1-f807-48e1-ae36-20a360e49d10",
    "name": "Perryman",
    "state_id": "b0f513c8-9389-4c32-82ed-a32ceb80a84a"
  },
  {
    "id": "933a94a5-4eda-4316-b821-2d676689d9d1",
    "name": "Perryville",
    "state_id": "b0f513c8-9389-4c32-82ed-a32ceb80a84a"
  },
  {
    "id": "add180dd-08ec-44ec-99f9-a061eaafcb28",
    "name": "Pikesville",
    "state_id": "b0f513c8-9389-4c32-82ed-a32ceb80a84a"
  },
  {
    "id": "f77322a1-e33b-45fa-a6c1-ae5f52be9f89",
    "name": "Pittsville",
    "state_id": "b0f513c8-9389-4c32-82ed-a32ceb80a84a"
  },
  {
    "id": "8b03c141-394f-4929-b400-3e421b55ca12",
    "name": "Pleasant Hills",
    "state_id": "b0f513c8-9389-4c32-82ed-a32ceb80a84a"
  },
  {
    "id": "334a61f8-da44-4838-b0da-0b9b59fcfb7d",
    "name": "Pocomoke City",
    "state_id": "b0f513c8-9389-4c32-82ed-a32ceb80a84a"
  },
  {
    "id": "0c2cf9e8-0dcd-45fa-b0e3-4a3a6aa2b4d4",
    "name": "Point of Rocks",
    "state_id": "b0f513c8-9389-4c32-82ed-a32ceb80a84a"
  },
  {
    "id": "022400f9-ab14-44da-b1c5-355fdc9e0d4e",
    "name": "Poolesville",
    "state_id": "b0f513c8-9389-4c32-82ed-a32ceb80a84a"
  },
  {
    "id": "ba96a60d-f46e-4edb-85b1-b20df708edc6",
    "name": "Potomac",
    "state_id": "b0f513c8-9389-4c32-82ed-a32ceb80a84a"
  },
  {
    "id": "f8b2b18a-e68a-442f-9177-66e373b9b79e",
    "name": "Potomac Heights",
    "state_id": "b0f513c8-9389-4c32-82ed-a32ceb80a84a"
  },
  {
    "id": "3e71c459-52a4-43a1-abf2-6c188ca2cb25",
    "name": "Potomac Park",
    "state_id": "b0f513c8-9389-4c32-82ed-a32ceb80a84a"
  },
  {
    "id": "4c684d70-f38d-4763-8a6a-5ce0045fb8bc",
    "name": "Prince Frederick",
    "state_id": "b0f513c8-9389-4c32-82ed-a32ceb80a84a"
  },
  {
    "id": "26b1b53b-8f62-4006-a8d5-0b6c7e8b8e1a",
    "name": "Prince George's County",
    "state_id": "b0f513c8-9389-4c32-82ed-a32ceb80a84a"
  },
  {
    "id": "4df6dda6-525d-4725-b798-14a7c38761ea",
    "name": "Princess Anne",
    "state_id": "b0f513c8-9389-4c32-82ed-a32ceb80a84a"
  },
  {
    "id": "bb8e4817-bfde-4f9a-a595-200a401ced28",
    "name": "Pumphrey",
    "state_id": "b0f513c8-9389-4c32-82ed-a32ceb80a84a"
  },
  {
    "id": "6486a262-d30d-4292-b9bf-f8f6e9f502fb",
    "name": "Queen Anne",
    "state_id": "b0f513c8-9389-4c32-82ed-a32ceb80a84a"
  },
  {
    "id": "31a8bebd-af5a-46c9-a021-db332eaa9c22",
    "name": "Queen Anne's County",
    "state_id": "b0f513c8-9389-4c32-82ed-a32ceb80a84a"
  },
  {
    "id": "2a37c51a-8916-40e4-8347-a9a53c1512fd",
    "name": "Queenland",
    "state_id": "b0f513c8-9389-4c32-82ed-a32ceb80a84a"
  },
  {
    "id": "47741cac-f41a-4ec2-9aa8-6464b96c7891",
    "name": "Randallstown",
    "state_id": "b0f513c8-9389-4c32-82ed-a32ceb80a84a"
  },
  {
    "id": "8f8914a7-ff5e-49e0-928f-6371300f2829",
    "name": "Redland",
    "state_id": "b0f513c8-9389-4c32-82ed-a32ceb80a84a"
  },
  {
    "id": "9f97accb-05c0-4669-9742-5e2c9717b96b",
    "name": "Reisterstown",
    "state_id": "b0f513c8-9389-4c32-82ed-a32ceb80a84a"
  },
  {
    "id": "fc1698cf-58bd-4f29-b5ea-cf236335fc15",
    "name": "Ridgely",
    "state_id": "b0f513c8-9389-4c32-82ed-a32ceb80a84a"
  },
  {
    "id": "416a45c7-f6b3-4021-8a13-901639473f69",
    "name": "Rising Sun",
    "state_id": "b0f513c8-9389-4c32-82ed-a32ceb80a84a"
  },
  {
    "id": "f1a9eb58-87bc-4313-91ba-4f6fedf005b8",
    "name": "Riva",
    "state_id": "b0f513c8-9389-4c32-82ed-a32ceb80a84a"
  },
  {
    "id": "56107e4b-1932-4ee7-a567-8ad55088f0d4",
    "name": "Riverdale Park",
    "state_id": "b0f513c8-9389-4c32-82ed-a32ceb80a84a"
  },
  {
    "id": "5b134007-dc0a-4cc3-96f0-694729736c83",
    "name": "Riverside",
    "state_id": "b0f513c8-9389-4c32-82ed-a32ceb80a84a"
  },
  {
    "id": "89e2b0fd-45a9-45b3-b3f7-af37eafc4d5a",
    "name": "Riviera Beach",
    "state_id": "b0f513c8-9389-4c32-82ed-a32ceb80a84a"
  },
  {
    "id": "be877b93-3e05-4793-ba40-34757dcd6f6d",
    "name": "Robinwood",
    "state_id": "b0f513c8-9389-4c32-82ed-a32ceb80a84a"
  },
  {
    "id": "de01cfb5-236a-4d9d-8f3c-203fbd9fd9f5",
    "name": "Rock Hall",
    "state_id": "b0f513c8-9389-4c32-82ed-a32ceb80a84a"
  },
  {
    "id": "edcdc303-efe7-4043-a60f-05672695f6b6",
    "name": "Rockville",
    "state_id": "b0f513c8-9389-4c32-82ed-a32ceb80a84a"
  },
  {
    "id": "daf2a8fb-4372-4980-b71c-41afb7841f89",
    "name": "Rosaryville",
    "state_id": "b0f513c8-9389-4c32-82ed-a32ceb80a84a"
  },
  {
    "id": "7bc71d29-eb63-4a3f-a802-29302d6545c5",
    "name": "Rosedale",
    "state_id": "b0f513c8-9389-4c32-82ed-a32ceb80a84a"
  },
  {
    "id": "3b06dca2-9079-4c03-a6d5-24d93a608e01",
    "name": "Rossmoor",
    "state_id": "b0f513c8-9389-4c32-82ed-a32ceb80a84a"
  },
  {
    "id": "ce8e7d1a-38c5-4d30-97df-631403e8c5c9",
    "name": "Rossville",
    "state_id": "b0f513c8-9389-4c32-82ed-a32ceb80a84a"
  },
  {
    "id": "93dac678-0627-4dfe-b8a1-ce108e61c702",
    "name": "Saint Charles",
    "state_id": "b0f513c8-9389-4c32-82ed-a32ceb80a84a"
  },
  {
    "id": "6c96a65f-f250-45fc-b986-3cc209bc56ff",
    "name": "Saint James",
    "state_id": "b0f513c8-9389-4c32-82ed-a32ceb80a84a"
  },
  {
    "id": "5826ff87-43b2-4576-aceb-b456ff662437",
    "name": "Saint Mary's County",
    "state_id": "b0f513c8-9389-4c32-82ed-a32ceb80a84a"
  },
  {
    "id": "d53c7884-2fee-4492-93a7-e70df113e7ba",
    "name": "Saint Michaels",
    "state_id": "b0f513c8-9389-4c32-82ed-a32ceb80a84a"
  },
  {
    "id": "b8c6331d-722b-4dd6-b6dc-ea641cbe556c",
    "name": "Salisbury",
    "state_id": "b0f513c8-9389-4c32-82ed-a32ceb80a84a"
  },
  {
    "id": "89b98fcd-d83e-4cbc-819e-f40e552ac61f",
    "name": "Savage",
    "state_id": "b0f513c8-9389-4c32-82ed-a32ceb80a84a"
  },
  {
    "id": "9134e560-47aa-4030-839c-fa631928cf11",
    "name": "Scaggsville",
    "state_id": "b0f513c8-9389-4c32-82ed-a32ceb80a84a"
  },
  {
    "id": "1ecb5f02-6df4-4074-8bd2-4c93dcb09a51",
    "name": "Seabrook",
    "state_id": "b0f513c8-9389-4c32-82ed-a32ceb80a84a"
  },
  {
    "id": "60db7544-8718-4576-8e42-314363b55279",
    "name": "Seat Pleasant",
    "state_id": "b0f513c8-9389-4c32-82ed-a32ceb80a84a"
  },
  {
    "id": "5f686c97-a595-4244-8173-5a51bcdf3f27",
    "name": "Selby-on-the-Bay",
    "state_id": "b0f513c8-9389-4c32-82ed-a32ceb80a84a"
  },
  {
    "id": "c13319ec-8506-41fa-a20f-ede55f4c3f19",
    "name": "Severn",
    "state_id": "b0f513c8-9389-4c32-82ed-a32ceb80a84a"
  },
  {
    "id": "ee017f37-968c-49ca-9193-cc3c532fea6e",
    "name": "Severna Park",
    "state_id": "b0f513c8-9389-4c32-82ed-a32ceb80a84a"
  },
  {
    "id": "cdec7beb-ba5f-4a82-8d5e-8ddd52f1e7d5",
    "name": "Shady Side",
    "state_id": "b0f513c8-9389-4c32-82ed-a32ceb80a84a"
  },
  {
    "id": "79de390e-b25e-4316-b936-bc8e70e574af",
    "name": "Silver Hill",
    "state_id": "b0f513c8-9389-4c32-82ed-a32ceb80a84a"
  },
  {
    "id": "bdbcb918-7d97-47cf-885a-00c6b160d1ab",
    "name": "Silver Spring",
    "state_id": "b0f513c8-9389-4c32-82ed-a32ceb80a84a"
  },
  {
    "id": "1d756cdf-b585-40b1-8e38-b483c610ab76",
    "name": "Smithsburg",
    "state_id": "b0f513c8-9389-4c32-82ed-a32ceb80a84a"
  },
  {
    "id": "50e143a2-fd1c-43eb-aa51-b8037029d4cb",
    "name": "Snow Hill",
    "state_id": "b0f513c8-9389-4c32-82ed-a32ceb80a84a"
  },
  {
    "id": "08b65e99-3f09-49f0-a6c3-bca45352616b",
    "name": "Solomons",
    "state_id": "b0f513c8-9389-4c32-82ed-a32ceb80a84a"
  },
  {
    "id": "a9d936ea-a763-40a3-9ede-6a41d9aa2990",
    "name": "Somerset",
    "state_id": "b0f513c8-9389-4c32-82ed-a32ceb80a84a"
  },
  {
    "id": "a892db57-5c7e-407b-9a1c-bf23bdd34df0",
    "name": "Somerset County",
    "state_id": "b0f513c8-9389-4c32-82ed-a32ceb80a84a"
  },
  {
    "id": "d5b4848a-e52c-43d5-a3b1-48fa7ccc5cbf",
    "name": "South Bel Air",
    "state_id": "b0f513c8-9389-4c32-82ed-a32ceb80a84a"
  },
  {
    "id": "5b003c1b-1972-439b-8dc9-85650f0dd149",
    "name": "South Gate",
    "state_id": "b0f513c8-9389-4c32-82ed-a32ceb80a84a"
  },
  {
    "id": "9065b66d-171f-4056-b44e-fc3c26f95e2d",
    "name": "South Kensington",
    "state_id": "b0f513c8-9389-4c32-82ed-a32ceb80a84a"
  },
  {
    "id": "3354e85d-c261-4edf-af5c-5594f2275bff",
    "name": "South Laurel",
    "state_id": "b0f513c8-9389-4c32-82ed-a32ceb80a84a"
  },
  {
    "id": "a484d5a7-9068-4cdb-b674-9c93c89151ba",
    "name": "Spencerville",
    "state_id": "b0f513c8-9389-4c32-82ed-a32ceb80a84a"
  },
  {
    "id": "05c72e7a-6ddf-4566-92f0-99ad7dac1859",
    "name": "Spring Ridge",
    "state_id": "b0f513c8-9389-4c32-82ed-a32ceb80a84a"
  },
  {
    "id": "35916dc7-0373-4e76-b7ae-bd377cd91e7a",
    "name": "Springdale",
    "state_id": "b0f513c8-9389-4c32-82ed-a32ceb80a84a"
  },
  {
    "id": "f3716994-64d2-42e7-b6b8-54debfe3c8c0",
    "name": "Stevensville",
    "state_id": "b0f513c8-9389-4c32-82ed-a32ceb80a84a"
  },
  {
    "id": "b3c8f93c-d674-4d33-b1f9-471337ab3e0c",
    "name": "Suitland",
    "state_id": "b0f513c8-9389-4c32-82ed-a32ceb80a84a"
  },
  {
    "id": "1a661d48-b0e7-4c02-bf7b-437de0515da4",
    "name": "Suitland-Silver Hill",
    "state_id": "b0f513c8-9389-4c32-82ed-a32ceb80a84a"
  },
  {
    "id": "df657594-bc73-4f4d-acb8-8266d89362f9",
    "name": "Summerfield",
    "state_id": "b0f513c8-9389-4c32-82ed-a32ceb80a84a"
  },
  {
    "id": "50b33e34-1e96-456e-ac71-8d1fce61eb12",
    "name": "Sykesville",
    "state_id": "b0f513c8-9389-4c32-82ed-a32ceb80a84a"
  },
  {
    "id": "4792cf61-6984-4915-9f04-be5d4ad35a4c",
    "name": "Takoma Park",
    "state_id": "b0f513c8-9389-4c32-82ed-a32ceb80a84a"
  },
  {
    "id": "21aad7ae-f585-4e05-9381-a94414aa5382",
    "name": "Talbot County",
    "state_id": "b0f513c8-9389-4c32-82ed-a32ceb80a84a"
  },
  {
    "id": "02f0b5f8-2a3b-40c5-9a96-d500cf279c87",
    "name": "Taneytown",
    "state_id": "b0f513c8-9389-4c32-82ed-a32ceb80a84a"
  },
  {
    "id": "288bdf4b-1649-4794-94d8-5090bb73e2e4",
    "name": "Temple Hills",
    "state_id": "b0f513c8-9389-4c32-82ed-a32ceb80a84a"
  },
  {
    "id": "c563f9e1-d6cd-4273-a9aa-975d73f0a2a1",
    "name": "Thurmont",
    "state_id": "b0f513c8-9389-4c32-82ed-a32ceb80a84a"
  },
  {
    "id": "36a6d88a-076d-4591-a03c-42bb681ab363",
    "name": "Timonium",
    "state_id": "b0f513c8-9389-4c32-82ed-a32ceb80a84a"
  },
  {
    "id": "b778e418-f5cb-4950-8083-de6a9cb69932",
    "name": "Towson",
    "state_id": "b0f513c8-9389-4c32-82ed-a32ceb80a84a"
  },
  {
    "id": "15d9bb46-f4de-4efa-a69d-6ccecaca3481",
    "name": "Trappe",
    "state_id": "b0f513c8-9389-4c32-82ed-a32ceb80a84a"
  },
  {
    "id": "1e9da1ee-5c3b-49b7-83f6-9b797f4cef9a",
    "name": "Travilah",
    "state_id": "b0f513c8-9389-4c32-82ed-a32ceb80a84a"
  },
  {
    "id": "7eeaba2b-59f9-41ee-b82c-79ef2678167e",
    "name": "University Park",
    "state_id": "b0f513c8-9389-4c32-82ed-a32ceb80a84a"
  },
  {
    "id": "10ecc8d4-411e-4b11-bdbe-bd8349e4be0d",
    "name": "Upper Marlboro",
    "state_id": "b0f513c8-9389-4c32-82ed-a32ceb80a84a"
  },
  {
    "id": "a600d62e-5293-40ad-8ff7-df7d57327d97",
    "name": "Urbana",
    "state_id": "b0f513c8-9389-4c32-82ed-a32ceb80a84a"
  },
  {
    "id": "661cd70c-9c81-4504-a84a-9241941d0de9",
    "name": "Waldorf",
    "state_id": "b0f513c8-9389-4c32-82ed-a32ceb80a84a"
  },
  {
    "id": "3f561053-947d-45cd-81ae-536e15dadf52",
    "name": "Walker Mill",
    "state_id": "b0f513c8-9389-4c32-82ed-a32ceb80a84a"
  },
  {
    "id": "acc9447f-41d8-4e2d-969c-58c0ac2dcfe6",
    "name": "Walkersville",
    "state_id": "b0f513c8-9389-4c32-82ed-a32ceb80a84a"
  },
  {
    "id": "2f77fcf6-cb1a-4ac3-8d7d-218a09dc3962",
    "name": "Washington County",
    "state_id": "b0f513c8-9389-4c32-82ed-a32ceb80a84a"
  },
  {
    "id": "ba574643-f0a7-489c-ac89-96fcd59d8a7b",
    "name": "West Elkridge",
    "state_id": "b0f513c8-9389-4c32-82ed-a32ceb80a84a"
  },
  {
    "id": "ecd6209a-cda5-47bd-b8ff-6bbc29859225",
    "name": "West Laurel",
    "state_id": "b0f513c8-9389-4c32-82ed-a32ceb80a84a"
  },
  {
    "id": "6d0e4733-40d6-4d6e-8ae3-13e51743cdac",
    "name": "West Ocean City",
    "state_id": "b0f513c8-9389-4c32-82ed-a32ceb80a84a"
  },
  {
    "id": "27f2c7cb-7241-440f-8957-757b9d912722",
    "name": "Westernport",
    "state_id": "b0f513c8-9389-4c32-82ed-a32ceb80a84a"
  },
  {
    "id": "e6d5102b-e42b-4aed-b805-07f6568ffd69",
    "name": "Westminster",
    "state_id": "b0f513c8-9389-4c32-82ed-a32ceb80a84a"
  },
  {
    "id": "0c5c52cd-2f2e-4d8e-b6ad-d3a8f6b74844",
    "name": "Westphalia",
    "state_id": "b0f513c8-9389-4c32-82ed-a32ceb80a84a"
  },
  {
    "id": "491b9a07-597a-4d5c-acdc-2547157c5038",
    "name": "Wheaton",
    "state_id": "b0f513c8-9389-4c32-82ed-a32ceb80a84a"
  },
  {
    "id": "c6610af6-4495-4a23-900d-2b4b3a081278",
    "name": "White Marsh",
    "state_id": "b0f513c8-9389-4c32-82ed-a32ceb80a84a"
  },
  {
    "id": "7a8ee01d-cdbc-49b9-ba91-becb5f70212a",
    "name": "White Oak",
    "state_id": "b0f513c8-9389-4c32-82ed-a32ceb80a84a"
  },
  {
    "id": "fe8fc295-08aa-4c87-bce6-a46fb5df2517",
    "name": "Wicomico County",
    "state_id": "b0f513c8-9389-4c32-82ed-a32ceb80a84a"
  },
  {
    "id": "cfb626d4-1bc0-4a6c-9d11-46baffdb8928",
    "name": "Williamsport",
    "state_id": "b0f513c8-9389-4c32-82ed-a32ceb80a84a"
  },
  {
    "id": "c9a6075d-22dc-44b3-a9f0-8ea8ebcf40f7",
    "name": "Wilson-Conococheague",
    "state_id": "b0f513c8-9389-4c32-82ed-a32ceb80a84a"
  },
  {
    "id": "40a7fb3d-de12-48c6-9e77-08bcb06023c8",
    "name": "Woodlawn",
    "state_id": "b0f513c8-9389-4c32-82ed-a32ceb80a84a"
  },
  {
    "id": "934de311-7d6e-4a72-833b-2654ed9ab8b8",
    "name": "Woodmore",
    "state_id": "b0f513c8-9389-4c32-82ed-a32ceb80a84a"
  },
  {
    "id": "5ff914a2-d3ef-4bee-aca2-fd230888de68",
    "name": "Woodsboro",
    "state_id": "b0f513c8-9389-4c32-82ed-a32ceb80a84a"
  },
  {
    "id": "1a94a5dd-ea44-495c-884d-6873f36460b5",
    "name": "Worcester County",
    "state_id": "b0f513c8-9389-4c32-82ed-a32ceb80a84a"
  }
]