[
  {
    "id": "bf4e6655-ed30-4966-bd6b-2a3d19e2df01",
    "name": "Izvor",
    "state_id": "b107298b-7b30-4ec6-8939-355602d33617"
  },
  {
    "id": "363b8978-2247-4770-94a4-9ed29b8ab2ce",
    "name": "Lipkovo",
    "state_id": "b107298b-7b30-4ec6-8939-355602d33617"
  },
  {
    "id": "715a1d37-9a2c-4f1a-9654-85c299d1644a",
    "name": "Lojane",
    "state_id": "b107298b-7b30-4ec6-8939-355602d33617"
  },
  {
    "id": "17cd061d-daa4-4def-afea-dc8b263570c6",
    "name": "Matejce",
    "state_id": "b107298b-7b30-4ec6-8939-355602d33617"
  },
  {
    "id": "81409c2f-76a7-4e29-afbf-63628527ab24",
    "name": "Otlja",
    "state_id": "b107298b-7b30-4ec6-8939-355602d33617"
  },
  {
    "id": "e1a35058-4081-442f-bd65-954de04493d5",
    "name": "Vaksince",
    "state_id": "b107298b-7b30-4ec6-8939-355602d33617"
  },
  {
    "id": "d25b480d-1e96-4200-ab50-a065afd7bd58",
    "name": "Слупчане",
    "state_id": "b107298b-7b30-4ec6-8939-355602d33617"
  }
]