[
  {
    "id": "de2728e6-bc27-42c0-a52c-58f7cf2bf482",
    "name": "Xaçmaz",
    "state_id": "b10a8c0f-299a-42e3-b636-fc018ae58518"
  },
  {
    "id": "176dc154-df95-4c2d-af2f-9bc094da074a",
    "name": "Xudat",
    "state_id": "b10a8c0f-299a-42e3-b636-fc018ae58518"
  }
]