[
  {
    "id": "870559bb-34d2-4d78-89ed-5bc5ca66d623",
    "name": "Afonso Cláudio",
    "state_id": "b120d0a8-79c3-4d1b-a4cf-48d47e343e80"
  },
  {
    "id": "34275d9e-b38e-4c5c-874b-438715a89206",
    "name": "Água Doce do Norte",
    "state_id": "b120d0a8-79c3-4d1b-a4cf-48d47e343e80"
  },
  {
    "id": "7d6083ad-963e-46ed-86cb-87cb7f7e1920",
    "name": "Águia Branca",
    "state_id": "b120d0a8-79c3-4d1b-a4cf-48d47e343e80"
  },
  {
    "id": "523b5b32-81ba-4672-b4aa-3390515783f9",
    "name": "Alegre",
    "state_id": "b120d0a8-79c3-4d1b-a4cf-48d47e343e80"
  },
  {
    "id": "56c00419-452a-450e-8db9-8d0228497835",
    "name": "Alfredo Chaves",
    "state_id": "b120d0a8-79c3-4d1b-a4cf-48d47e343e80"
  },
  {
    "id": "8bc33aa1-dce9-4ab9-b87c-46cc5929f374",
    "name": "Alto Rio Novo",
    "state_id": "b120d0a8-79c3-4d1b-a4cf-48d47e343e80"
  },
  {
    "id": "daed553d-504c-421a-85d9-432586db3463",
    "name": "Anchieta",
    "state_id": "b120d0a8-79c3-4d1b-a4cf-48d47e343e80"
  },
  {
    "id": "d493d2c8-b4b5-4ba3-8771-070b37a73bf0",
    "name": "Apiacá",
    "state_id": "b120d0a8-79c3-4d1b-a4cf-48d47e343e80"
  },
  {
    "id": "6301ccdf-b6d7-440e-8de7-c4717b8a2b8b",
    "name": "Aracruz",
    "state_id": "b120d0a8-79c3-4d1b-a4cf-48d47e343e80"
  },
  {
    "id": "c1eced2b-b5f7-4cb7-883c-0abfd28abb9d",
    "name": "Atílio Vivacqua",
    "state_id": "b120d0a8-79c3-4d1b-a4cf-48d47e343e80"
  },
  {
    "id": "b7d8dde3-baf2-47de-997e-8b8cf75425cd",
    "name": "Baixo Guandu",
    "state_id": "b120d0a8-79c3-4d1b-a4cf-48d47e343e80"
  },
  {
    "id": "d66acf96-2cde-429d-99d3-edbe09ad0679",
    "name": "Barra de São Francisco",
    "state_id": "b120d0a8-79c3-4d1b-a4cf-48d47e343e80"
  },
  {
    "id": "2a7694e3-1291-45c4-9fdb-4c7919638ed0",
    "name": "Boa Esperança",
    "state_id": "b120d0a8-79c3-4d1b-a4cf-48d47e343e80"
  },
  {
    "id": "5af02703-6641-4455-b24e-ca620810a200",
    "name": "Bom Jesus do Norte",
    "state_id": "b120d0a8-79c3-4d1b-a4cf-48d47e343e80"
  },
  {
    "id": "f79b5e96-6eee-43b7-b2e1-744db00de6d2",
    "name": "Brejetuba",
    "state_id": "b120d0a8-79c3-4d1b-a4cf-48d47e343e80"
  },
  {
    "id": "10b41576-1e0c-4524-bd93-4dc69b321961",
    "name": "Cachoeiro de Itapemirim",
    "state_id": "b120d0a8-79c3-4d1b-a4cf-48d47e343e80"
  },
  {
    "id": "17fc17d4-bbaf-4f10-8c4a-a76297efb8c0",
    "name": "Cariacica",
    "state_id": "b120d0a8-79c3-4d1b-a4cf-48d47e343e80"
  },
  {
    "id": "88c6f83d-ff5c-4d55-9c93-bca75d33f4b8",
    "name": "Castelo",
    "state_id": "b120d0a8-79c3-4d1b-a4cf-48d47e343e80"
  },
  {
    "id": "bc8aa5b7-3b58-43da-9301-2ec13e02e270",
    "name": "Colatina",
    "state_id": "b120d0a8-79c3-4d1b-a4cf-48d47e343e80"
  },
  {
    "id": "3e858f85-2059-40ce-8152-9333ff04b60d",
    "name": "Conceição da Barra",
    "state_id": "b120d0a8-79c3-4d1b-a4cf-48d47e343e80"
  },
  {
    "id": "f126c005-5577-4a1c-a330-2e451e52680e",
    "name": "Conceição do Castelo",
    "state_id": "b120d0a8-79c3-4d1b-a4cf-48d47e343e80"
  },
  {
    "id": "aa682530-11a3-44e2-9069-78a7f17aab82",
    "name": "Divino de São Lourenço",
    "state_id": "b120d0a8-79c3-4d1b-a4cf-48d47e343e80"
  },
  {
    "id": "5731b085-5e2b-45c8-97e4-31f70e260aa9",
    "name": "Domingos Martins",
    "state_id": "b120d0a8-79c3-4d1b-a4cf-48d47e343e80"
  },
  {
    "id": "7cbd6d9b-5d51-49fc-ae3c-462ace5520db",
    "name": "Dores do Rio Preto",
    "state_id": "b120d0a8-79c3-4d1b-a4cf-48d47e343e80"
  },
  {
    "id": "1f9be860-6f1f-42aa-8129-77785cc3ffc9",
    "name": "Ecoporanga",
    "state_id": "b120d0a8-79c3-4d1b-a4cf-48d47e343e80"
  },
  {
    "id": "d7889128-c513-45a0-974a-254aa3e7f40c",
    "name": "Fundão",
    "state_id": "b120d0a8-79c3-4d1b-a4cf-48d47e343e80"
  },
  {
    "id": "8cd37a8d-b550-40d9-bca4-6f293ad293f2",
    "name": "Governador Lindenberg",
    "state_id": "b120d0a8-79c3-4d1b-a4cf-48d47e343e80"
  },
  {
    "id": "13bf819f-05ab-4be7-861b-7241329708cf",
    "name": "Guaçuí",
    "state_id": "b120d0a8-79c3-4d1b-a4cf-48d47e343e80"
  },
  {
    "id": "f8ab698b-43ee-435d-ac06-204713902146",
    "name": "Guarapari",
    "state_id": "b120d0a8-79c3-4d1b-a4cf-48d47e343e80"
  },
  {
    "id": "ee81b5de-3fe7-47b2-8e2b-522fd73b7c22",
    "name": "Ibatiba",
    "state_id": "b120d0a8-79c3-4d1b-a4cf-48d47e343e80"
  },
  {
    "id": "d0f02ec2-0bb0-4a2e-a85a-d535c490c001",
    "name": "Ibiraçu",
    "state_id": "b120d0a8-79c3-4d1b-a4cf-48d47e343e80"
  },
  {
    "id": "94f24f62-03be-4a08-adc8-4e7035684d61",
    "name": "Ibitirama",
    "state_id": "b120d0a8-79c3-4d1b-a4cf-48d47e343e80"
  },
  {
    "id": "54e1e9fd-55f5-485a-bfec-6ea2d2ae2eeb",
    "name": "Iconha",
    "state_id": "b120d0a8-79c3-4d1b-a4cf-48d47e343e80"
  },
  {
    "id": "8de03bf2-bd95-4bae-80e3-cb1e91c61c3e",
    "name": "Irupi",
    "state_id": "b120d0a8-79c3-4d1b-a4cf-48d47e343e80"
  },
  {
    "id": "f8f3b482-cc95-46d9-8718-b288ac12b968",
    "name": "Itaguaçu",
    "state_id": "b120d0a8-79c3-4d1b-a4cf-48d47e343e80"
  },
  {
    "id": "91475a23-09c3-4609-9bb5-0bc78a4d8cc3",
    "name": "Itapemirim",
    "state_id": "b120d0a8-79c3-4d1b-a4cf-48d47e343e80"
  },
  {
    "id": "1eb111fb-c427-4c0b-9d5b-33e8e0349f07",
    "name": "Itarana",
    "state_id": "b120d0a8-79c3-4d1b-a4cf-48d47e343e80"
  },
  {
    "id": "8b4be909-6827-4907-b0a3-06050c12fc1d",
    "name": "Iúna",
    "state_id": "b120d0a8-79c3-4d1b-a4cf-48d47e343e80"
  },
  {
    "id": "ffe82b57-5569-4c11-964c-5a25fcdb2252",
    "name": "Jaguaré",
    "state_id": "b120d0a8-79c3-4d1b-a4cf-48d47e343e80"
  },
  {
    "id": "6ef7f196-e2fb-488a-815c-79090e16f1b6",
    "name": "Jerônimo Monteiro",
    "state_id": "b120d0a8-79c3-4d1b-a4cf-48d47e343e80"
  },
  {
    "id": "f7eb762e-25ec-4d52-a492-ad286e502542",
    "name": "Jetibá",
    "state_id": "b120d0a8-79c3-4d1b-a4cf-48d47e343e80"
  },
  {
    "id": "d734f883-1bbd-4152-969e-ad19383b2ee6",
    "name": "João Neiva",
    "state_id": "b120d0a8-79c3-4d1b-a4cf-48d47e343e80"
  },
  {
    "id": "f66c0876-674d-4f24-bc0a-c6fa0d4cabe0",
    "name": "Laranja da Terra",
    "state_id": "b120d0a8-79c3-4d1b-a4cf-48d47e343e80"
  },
  {
    "id": "97933e39-d3cd-4ea5-a4e0-81ab974a7363",
    "name": "Linhares",
    "state_id": "b120d0a8-79c3-4d1b-a4cf-48d47e343e80"
  },
  {
    "id": "bf117c8c-2dc6-49a7-bc8a-af1da443d4aa",
    "name": "Mantenópolis",
    "state_id": "b120d0a8-79c3-4d1b-a4cf-48d47e343e80"
  },
  {
    "id": "f9d09608-a911-40f8-a96d-a8de8365309a",
    "name": "Marataizes",
    "state_id": "b120d0a8-79c3-4d1b-a4cf-48d47e343e80"
  },
  {
    "id": "5cad595f-8a5b-41d3-a740-076d4eb1af8c",
    "name": "Marechal Floriano",
    "state_id": "b120d0a8-79c3-4d1b-a4cf-48d47e343e80"
  },
  {
    "id": "b2d10155-574b-4956-9125-8931faee2010",
    "name": "Marilândia",
    "state_id": "b120d0a8-79c3-4d1b-a4cf-48d47e343e80"
  },
  {
    "id": "e4880acc-15b9-4efd-a153-582d2be07748",
    "name": "Mimoso do Sul",
    "state_id": "b120d0a8-79c3-4d1b-a4cf-48d47e343e80"
  },
  {
    "id": "e63f099c-9632-445f-b658-1ce90c3b4176",
    "name": "Montanha",
    "state_id": "b120d0a8-79c3-4d1b-a4cf-48d47e343e80"
  },
  {
    "id": "d36af804-3032-4b57-bb59-69037560c2df",
    "name": "Mucurici",
    "state_id": "b120d0a8-79c3-4d1b-a4cf-48d47e343e80"
  },
  {
    "id": "c78e7e33-14ba-4206-befd-a17d418b8074",
    "name": "Muniz Freire",
    "state_id": "b120d0a8-79c3-4d1b-a4cf-48d47e343e80"
  },
  {
    "id": "26633c85-c9ef-4638-841d-b8631c48c5fa",
    "name": "Muqui",
    "state_id": "b120d0a8-79c3-4d1b-a4cf-48d47e343e80"
  },
  {
    "id": "6dd402b4-27a1-4edc-aacd-a569d58905d4",
    "name": "Nova Venécia",
    "state_id": "b120d0a8-79c3-4d1b-a4cf-48d47e343e80"
  },
  {
    "id": "3f4fc2c9-cb00-4504-a1cb-0866ab7d3b18",
    "name": "Pancas",
    "state_id": "b120d0a8-79c3-4d1b-a4cf-48d47e343e80"
  },
  {
    "id": "9d934368-1faa-4a88-acc4-4952c4fadcdd",
    "name": "Pedro Canário",
    "state_id": "b120d0a8-79c3-4d1b-a4cf-48d47e343e80"
  },
  {
    "id": "0c183980-a629-4b32-bb1b-7798d02bf77f",
    "name": "Pinheiros",
    "state_id": "b120d0a8-79c3-4d1b-a4cf-48d47e343e80"
  },
  {
    "id": "c30bd842-0901-46ea-9754-0a2361dd3ece",
    "name": "Piúma",
    "state_id": "b120d0a8-79c3-4d1b-a4cf-48d47e343e80"
  },
  {
    "id": "53db8060-b6cf-47a0-a019-654f9e73858d",
    "name": "Ponto Belo",
    "state_id": "b120d0a8-79c3-4d1b-a4cf-48d47e343e80"
  },
  {
    "id": "8f42620f-5b19-4b5c-be2c-09eb241ab9b2",
    "name": "Presidente Kennedy",
    "state_id": "b120d0a8-79c3-4d1b-a4cf-48d47e343e80"
  },
  {
    "id": "426a9f3d-61ed-41fd-87bd-4ca7ea5c5036",
    "name": "Rio Bananal",
    "state_id": "b120d0a8-79c3-4d1b-a4cf-48d47e343e80"
  },
  {
    "id": "b8c2540c-659f-4699-b9af-fc6d76b46c98",
    "name": "Rio Novo do Sul",
    "state_id": "b120d0a8-79c3-4d1b-a4cf-48d47e343e80"
  },
  {
    "id": "2d025141-114d-4f81-879c-b50f4bae5479",
    "name": "Santa Leopoldina",
    "state_id": "b120d0a8-79c3-4d1b-a4cf-48d47e343e80"
  },
  {
    "id": "bbab746f-498f-4fde-bc0c-437e08d0d5df",
    "name": "Santa Maria de Jetibá",
    "state_id": "b120d0a8-79c3-4d1b-a4cf-48d47e343e80"
  },
  {
    "id": "2dcb6a9c-1bfc-4e14-95de-71aedbb46e7d",
    "name": "Santa Teresa",
    "state_id": "b120d0a8-79c3-4d1b-a4cf-48d47e343e80"
  },
  {
    "id": "c50b8408-d0dc-476e-a876-644b6d96f6e9",
    "name": "São Domingos do Norte",
    "state_id": "b120d0a8-79c3-4d1b-a4cf-48d47e343e80"
  },
  {
    "id": "d7c6c15d-9981-4f70-b57d-d9fd337e64d2",
    "name": "São Gabriel da Palha",
    "state_id": "b120d0a8-79c3-4d1b-a4cf-48d47e343e80"
  },
  {
    "id": "d8090224-0a14-4209-9347-3549d6991873",
    "name": "São José do Calçado",
    "state_id": "b120d0a8-79c3-4d1b-a4cf-48d47e343e80"
  },
  {
    "id": "e7abebbf-a83f-485f-84d5-749651636686",
    "name": "São Mateus",
    "state_id": "b120d0a8-79c3-4d1b-a4cf-48d47e343e80"
  },
  {
    "id": "1c8439a4-269b-4e8f-a484-bf018760f2e9",
    "name": "São Roque do Canaã",
    "state_id": "b120d0a8-79c3-4d1b-a4cf-48d47e343e80"
  },
  {
    "id": "667fec3d-7345-4b73-b0ad-0cb784c40994",
    "name": "Serra",
    "state_id": "b120d0a8-79c3-4d1b-a4cf-48d47e343e80"
  },
  {
    "id": "8c396329-5a86-422a-b9da-edbdb8085d13",
    "name": "Sooretama",
    "state_id": "b120d0a8-79c3-4d1b-a4cf-48d47e343e80"
  },
  {
    "id": "58949ae1-8a64-49d3-aa32-41618c40d223",
    "name": "Vargem Alta",
    "state_id": "b120d0a8-79c3-4d1b-a4cf-48d47e343e80"
  },
  {
    "id": "bc72fc61-bf91-4385-9076-3b7945d71627",
    "name": "Venda Nova do Imigrante",
    "state_id": "b120d0a8-79c3-4d1b-a4cf-48d47e343e80"
  },
  {
    "id": "8f666217-794e-40c4-8e61-b60b93e79cc1",
    "name": "Viana",
    "state_id": "b120d0a8-79c3-4d1b-a4cf-48d47e343e80"
  },
  {
    "id": "6f93a291-c361-49e6-bb5f-f7e9ddd03075",
    "name": "Vila Pavão",
    "state_id": "b120d0a8-79c3-4d1b-a4cf-48d47e343e80"
  },
  {
    "id": "98e92b84-838f-47e9-8a3a-7c7d85de7bcf",
    "name": "Vila Valério",
    "state_id": "b120d0a8-79c3-4d1b-a4cf-48d47e343e80"
  },
  {
    "id": "24f2cdf5-da19-42a9-9d72-8570cb225b85",
    "name": "Vila Velha",
    "state_id": "b120d0a8-79c3-4d1b-a4cf-48d47e343e80"
  },
  {
    "id": "94a4122a-7fc7-4a71-9a36-5e4e8d39f8f3",
    "name": "Vitória",
    "state_id": "b120d0a8-79c3-4d1b-a4cf-48d47e343e80"
  }
]