[
  {
    "id": "4345ffb2-ae8b-4a1e-9242-8fe237c9db35",
    "name": "Lisičani",
    "state_id": "b1366219-cb16-4492-b0ef-3f3e75497912"
  },
  {
    "id": "c283b278-d2e2-481b-9532-e131c6b7f733",
    "name": "Plasnica",
    "state_id": "b1366219-cb16-4492-b0ef-3f3e75497912"
  }
]