[
  {
    "id": "c478c0c1-9374-4071-894e-873072c26931",
    "name": "’Aïn el Bell",
    "state_id": "b202a5b6-5c7f-4fbc-87bb-a1f089469936"
  },
  {
    "id": "0f0656be-b997-46a0-a5a9-7873b2b4cae8",
    "name": "Aïn Oussera",
    "state_id": "b202a5b6-5c7f-4fbc-87bb-a1f089469936"
  },
  {
    "id": "58ee8b02-f80b-4893-8868-32e462a465fd",
    "name": "Birine",
    "state_id": "b202a5b6-5c7f-4fbc-87bb-a1f089469936"
  },
  {
    "id": "ef7b2e57-1e98-40c7-ac8b-57e34ca2d527",
    "name": "Charef",
    "state_id": "b202a5b6-5c7f-4fbc-87bb-a1f089469936"
  },
  {
    "id": "93ce8ca5-9936-4ada-8b57-51e5bf829565",
    "name": "Dar Chioukh",
    "state_id": "b202a5b6-5c7f-4fbc-87bb-a1f089469936"
  },
  {
    "id": "3d29bf02-96fc-4e18-bf9a-40f671544191",
    "name": "Djelfa",
    "state_id": "b202a5b6-5c7f-4fbc-87bb-a1f089469936"
  },
  {
    "id": "7e9cacbd-11ee-46e5-8a8f-4a463745b0db",
    "name": "El Idrissia",
    "state_id": "b202a5b6-5c7f-4fbc-87bb-a1f089469936"
  },
  {
    "id": "8dddf8cb-0cbb-4d83-978a-86b7a000b49c",
    "name": "Messaad",
    "state_id": "b202a5b6-5c7f-4fbc-87bb-a1f089469936"
  }
]