[
  {
    "id": "64e33d93-69d2-47bc-b297-912af67805e4",
    "name": "Amphoe Bo Phloi",
    "state_id": "b22a2be2-45b7-4f60-bfca-5abf02481504"
  },
  {
    "id": "21516cd9-11c7-4285-9d2c-3ef931f99d43",
    "name": "Amphoe Dan Makham Tia",
    "state_id": "b22a2be2-45b7-4f60-bfca-5abf02481504"
  },
  {
    "id": "c1122425-b67f-4cf2-83d9-df90e15ebf91",
    "name": "Amphoe Huai Krachao",
    "state_id": "b22a2be2-45b7-4f60-bfca-5abf02481504"
  },
  {
    "id": "e2e6bec3-cc2b-4619-9ff3-b6a4b866df8f",
    "name": "Amphoe Lao Khwan",
    "state_id": "b22a2be2-45b7-4f60-bfca-5abf02481504"
  },
  {
    "id": "028699fc-8ae3-4b64-9bc8-259982542aa9",
    "name": "Amphoe Mueang Kanchanaburi",
    "state_id": "b22a2be2-45b7-4f60-bfca-5abf02481504"
  },
  {
    "id": "3c5a185a-fc18-4efa-b7a6-bcdb782dcc47",
    "name": "Amphoe Nong Prue",
    "state_id": "b22a2be2-45b7-4f60-bfca-5abf02481504"
  },
  {
    "id": "85f2b2b3-0d98-42a6-8140-61fddeb865c4",
    "name": "Amphoe Phanom Thuan",
    "state_id": "b22a2be2-45b7-4f60-bfca-5abf02481504"
  },
  {
    "id": "20ea40cd-aad7-42b5-a25e-534202f88806",
    "name": "Amphoe Sai Yok",
    "state_id": "b22a2be2-45b7-4f60-bfca-5abf02481504"
  },
  {
    "id": "883f8926-066e-4fa3-9ddd-d10dda3b9eda",
    "name": "Amphoe Sangkhla Buri",
    "state_id": "b22a2be2-45b7-4f60-bfca-5abf02481504"
  },
  {
    "id": "933b3e77-2843-4b9e-8882-7688a843ad9d",
    "name": "Amphoe Si Sawat",
    "state_id": "b22a2be2-45b7-4f60-bfca-5abf02481504"
  },
  {
    "id": "e5436370-e278-4ace-8beb-175eb9d567e9",
    "name": "Amphoe Tha Maka",
    "state_id": "b22a2be2-45b7-4f60-bfca-5abf02481504"
  },
  {
    "id": "5653cd66-a1b0-40aa-b3e0-ade92ba61dc9",
    "name": "Amphoe Tha Muang",
    "state_id": "b22a2be2-45b7-4f60-bfca-5abf02481504"
  },
  {
    "id": "e2a3e423-26d6-435b-8dcc-0031378b8390",
    "name": "Amphoe Thong Pha Phum",
    "state_id": "b22a2be2-45b7-4f60-bfca-5abf02481504"
  },
  {
    "id": "8f897681-9764-4f6e-b406-9746d9f46d85",
    "name": "Bo Phloi",
    "state_id": "b22a2be2-45b7-4f60-bfca-5abf02481504"
  },
  {
    "id": "42172cd9-ccf7-4d17-87c2-8ba704767758",
    "name": "Kanchanaburi",
    "state_id": "b22a2be2-45b7-4f60-bfca-5abf02481504"
  },
  {
    "id": "152ffdbc-5dc7-4932-914b-8df80cb0aed3",
    "name": "Phanom Thuan",
    "state_id": "b22a2be2-45b7-4f60-bfca-5abf02481504"
  },
  {
    "id": "d83f1f35-1c39-4400-bba8-0131ce89c167",
    "name": "Sangkhla Buri",
    "state_id": "b22a2be2-45b7-4f60-bfca-5abf02481504"
  },
  {
    "id": "3fef0a99-5b20-47e2-9874-c0b875ec4d23",
    "name": "Tha Maka",
    "state_id": "b22a2be2-45b7-4f60-bfca-5abf02481504"
  },
  {
    "id": "3b0b35e8-db8b-4944-9c0a-b08af652e4d3",
    "name": "Tha Muang",
    "state_id": "b22a2be2-45b7-4f60-bfca-5abf02481504"
  }
]