[
  {
    "id": "b4f04bf6-9663-4f59-8090-b9a8c4c4d4c5",
    "name": "Alexandria",
    "state_id": "b2ca039b-d75b-44f2-8fb2-b93f3fe870e5"
  },
  {
    "id": "ec2d5782-d415-45ea-9dad-b35c4b986ea3",
    "name": "Alstead",
    "state_id": "b2ca039b-d75b-44f2-8fb2-b93f3fe870e5"
  },
  {
    "id": "13a06e12-2789-4709-b375-a4f84ccf5ed3",
    "name": "Andover",
    "state_id": "b2ca039b-d75b-44f2-8fb2-b93f3fe870e5"
  },
  {
    "id": "58eb15ff-2561-4ee0-bc6b-fd51f9a620fe",
    "name": "Antrim",
    "state_id": "b2ca039b-d75b-44f2-8fb2-b93f3fe870e5"
  },
  {
    "id": "14eb3439-f0c2-4f4e-aac4-9ad7f0d6108d",
    "name": "Ashland",
    "state_id": "b2ca039b-d75b-44f2-8fb2-b93f3fe870e5"
  },
  {
    "id": "fe568efe-3389-45fa-ad9c-e53869ea6d10",
    "name": "Atkinson",
    "state_id": "b2ca039b-d75b-44f2-8fb2-b93f3fe870e5"
  },
  {
    "id": "dc28e938-079e-4062-91d8-4d1b154bca67",
    "name": "Auburn",
    "state_id": "b2ca039b-d75b-44f2-8fb2-b93f3fe870e5"
  },
  {
    "id": "fe80bd82-eec2-4f1a-9834-49e339dcfdff",
    "name": "Barnstead",
    "state_id": "b2ca039b-d75b-44f2-8fb2-b93f3fe870e5"
  },
  {
    "id": "ea36155c-36ae-4681-86d1-76287161d5c0",
    "name": "Barrington",
    "state_id": "b2ca039b-d75b-44f2-8fb2-b93f3fe870e5"
  },
  {
    "id": "4d007b53-d54a-4762-976c-6632bb6ebd4a",
    "name": "Bedford",
    "state_id": "b2ca039b-d75b-44f2-8fb2-b93f3fe870e5"
  },
  {
    "id": "29489595-62e0-46b9-9261-09d67a04f885",
    "name": "Belknap County",
    "state_id": "b2ca039b-d75b-44f2-8fb2-b93f3fe870e5"
  },
  {
    "id": "33b2e952-6c26-4d26-963d-e2acd0790e15",
    "name": "Belmont",
    "state_id": "b2ca039b-d75b-44f2-8fb2-b93f3fe870e5"
  },
  {
    "id": "dfe70673-d3ba-4669-9e1a-0c7e4b183ea7",
    "name": "Berlin",
    "state_id": "b2ca039b-d75b-44f2-8fb2-b93f3fe870e5"
  },
  {
    "id": "11903c71-b9e0-4f51-8ea3-88c8407559cc",
    "name": "Boscawen",
    "state_id": "b2ca039b-d75b-44f2-8fb2-b93f3fe870e5"
  },
  {
    "id": "def1b530-531d-4b7a-a1d6-5c09615e3ee5",
    "name": "Bow Bog",
    "state_id": "b2ca039b-d75b-44f2-8fb2-b93f3fe870e5"
  },
  {
    "id": "edea8daa-80fe-4b7e-b138-74c35ad6c95f",
    "name": "Brentwood",
    "state_id": "b2ca039b-d75b-44f2-8fb2-b93f3fe870e5"
  },
  {
    "id": "4391d2cd-726b-45d8-91af-841d98760219",
    "name": "Bridgewater",
    "state_id": "b2ca039b-d75b-44f2-8fb2-b93f3fe870e5"
  },
  {
    "id": "86931380-d255-4661-ae79-1ab7bd6bce4a",
    "name": "Bristol",
    "state_id": "b2ca039b-d75b-44f2-8fb2-b93f3fe870e5"
  },
  {
    "id": "6d282930-5a80-495e-ba5a-41e92ec9829b",
    "name": "Brookline",
    "state_id": "b2ca039b-d75b-44f2-8fb2-b93f3fe870e5"
  },
  {
    "id": "077101ea-8d5f-4907-9d32-16568ffa3f0a",
    "name": "Candia",
    "state_id": "b2ca039b-d75b-44f2-8fb2-b93f3fe870e5"
  },
  {
    "id": "9be9fc74-8836-42d9-945e-fe92e4e0c031",
    "name": "Canterbury",
    "state_id": "b2ca039b-d75b-44f2-8fb2-b93f3fe870e5"
  },
  {
    "id": "17ddf4a7-7403-4bc2-a5d6-9ff588c4b1e8",
    "name": "Carroll County",
    "state_id": "b2ca039b-d75b-44f2-8fb2-b93f3fe870e5"
  },
  {
    "id": "d0cc3870-b130-426f-88d4-de895cb17353",
    "name": "Center Harbor",
    "state_id": "b2ca039b-d75b-44f2-8fb2-b93f3fe870e5"
  },
  {
    "id": "c3b8979c-0c34-4cef-81dd-b28dc60b324b",
    "name": "Charlestown",
    "state_id": "b2ca039b-d75b-44f2-8fb2-b93f3fe870e5"
  },
  {
    "id": "06c6807e-6aa9-4721-b8bb-ee4dfddb75d6",
    "name": "Cheshire County",
    "state_id": "b2ca039b-d75b-44f2-8fb2-b93f3fe870e5"
  },
  {
    "id": "0ef42fa6-18ef-490d-84a3-5a2b662c8581",
    "name": "Chester",
    "state_id": "b2ca039b-d75b-44f2-8fb2-b93f3fe870e5"
  },
  {
    "id": "d221d8d7-e1ba-4c80-a45f-a458110fa596",
    "name": "Chesterfield",
    "state_id": "b2ca039b-d75b-44f2-8fb2-b93f3fe870e5"
  },
  {
    "id": "ff6177e4-1c1d-4e84-835b-7241c1abcec7",
    "name": "Chichester",
    "state_id": "b2ca039b-d75b-44f2-8fb2-b93f3fe870e5"
  },
  {
    "id": "1be13ef4-737a-43d5-9343-7b24935f0ba8",
    "name": "Claremont",
    "state_id": "b2ca039b-d75b-44f2-8fb2-b93f3fe870e5"
  },
  {
    "id": "5a300e90-dd59-4c5a-9a57-bdb1ec3a2643",
    "name": "Colebrook",
    "state_id": "b2ca039b-d75b-44f2-8fb2-b93f3fe870e5"
  },
  {
    "id": "4816029e-97b2-417e-a2ed-6e0d8c166e52",
    "name": "Concord",
    "state_id": "b2ca039b-d75b-44f2-8fb2-b93f3fe870e5"
  },
  {
    "id": "c0f374da-3152-456b-97fe-15c4be21dbb7",
    "name": "Contoocook",
    "state_id": "b2ca039b-d75b-44f2-8fb2-b93f3fe870e5"
  },
  {
    "id": "af18f4eb-46de-4f2b-946c-16750a595584",
    "name": "Conway",
    "state_id": "b2ca039b-d75b-44f2-8fb2-b93f3fe870e5"
  },
  {
    "id": "5bc9794c-f4c3-4568-9c15-5fd91d8cb5de",
    "name": "Coos County",
    "state_id": "b2ca039b-d75b-44f2-8fb2-b93f3fe870e5"
  },
  {
    "id": "54198507-1119-4d9b-8366-7e64f31d3703",
    "name": "Danbury",
    "state_id": "b2ca039b-d75b-44f2-8fb2-b93f3fe870e5"
  },
  {
    "id": "aa5a8891-0a3d-4b71-bfd9-6eac5bd30d87",
    "name": "Danville",
    "state_id": "b2ca039b-d75b-44f2-8fb2-b93f3fe870e5"
  },
  {
    "id": "e77e4cf5-e08b-4836-936c-807e99c21b2d",
    "name": "Deerfield",
    "state_id": "b2ca039b-d75b-44f2-8fb2-b93f3fe870e5"
  },
  {
    "id": "9850c239-a329-4b06-8487-8efd10d01461",
    "name": "Deering",
    "state_id": "b2ca039b-d75b-44f2-8fb2-b93f3fe870e5"
  },
  {
    "id": "7cd26247-e0f1-49c8-9ad2-85e782c67c2d",
    "name": "Derry",
    "state_id": "b2ca039b-d75b-44f2-8fb2-b93f3fe870e5"
  },
  {
    "id": "f9501d8d-85f8-4426-a9af-f5a81911cee2",
    "name": "Derry Village",
    "state_id": "b2ca039b-d75b-44f2-8fb2-b93f3fe870e5"
  },
  {
    "id": "c7d26109-a49d-4ae7-81d8-cc300620cfe8",
    "name": "Dover",
    "state_id": "b2ca039b-d75b-44f2-8fb2-b93f3fe870e5"
  },
  {
    "id": "aaead2b6-24ee-42f6-af70-c27821e06b9d",
    "name": "Dublin",
    "state_id": "b2ca039b-d75b-44f2-8fb2-b93f3fe870e5"
  },
  {
    "id": "9c29b480-51f7-4644-ba03-61cfca7a9902",
    "name": "Durham",
    "state_id": "b2ca039b-d75b-44f2-8fb2-b93f3fe870e5"
  },
  {
    "id": "c8130ce9-1a65-40cb-9cbc-2f45a7a2078c",
    "name": "East Concord",
    "state_id": "b2ca039b-d75b-44f2-8fb2-b93f3fe870e5"
  },
  {
    "id": "d9a57a16-5a28-4350-a961-f32b06251f41",
    "name": "East Kingston",
    "state_id": "b2ca039b-d75b-44f2-8fb2-b93f3fe870e5"
  },
  {
    "id": "906f3142-b158-4537-82eb-ccda72f209c2",
    "name": "East Merrimack",
    "state_id": "b2ca039b-d75b-44f2-8fb2-b93f3fe870e5"
  },
  {
    "id": "d1a29fb4-d922-4659-9265-e02e8078cf3c",
    "name": "Effingham",
    "state_id": "b2ca039b-d75b-44f2-8fb2-b93f3fe870e5"
  },
  {
    "id": "6959a494-2ef2-46f7-8055-5a50975db789",
    "name": "Enfield",
    "state_id": "b2ca039b-d75b-44f2-8fb2-b93f3fe870e5"
  },
  {
    "id": "1f459981-64a2-4605-9c71-fa9b8ec2bb5f",
    "name": "Epping",
    "state_id": "b2ca039b-d75b-44f2-8fb2-b93f3fe870e5"
  },
  {
    "id": "09cf9324-cc20-4871-b957-3af8ee36b319",
    "name": "Epsom",
    "state_id": "b2ca039b-d75b-44f2-8fb2-b93f3fe870e5"
  },
  {
    "id": "70cb5cd4-0986-4374-9d84-897148c1b77e",
    "name": "Exeter",
    "state_id": "b2ca039b-d75b-44f2-8fb2-b93f3fe870e5"
  },
  {
    "id": "bafef0ee-b0cd-416d-bc8f-a3ded8778a37",
    "name": "Farmington",
    "state_id": "b2ca039b-d75b-44f2-8fb2-b93f3fe870e5"
  },
  {
    "id": "01cfe07e-989d-4742-98c0-bf0c8b8d11b1",
    "name": "Fitzwilliam",
    "state_id": "b2ca039b-d75b-44f2-8fb2-b93f3fe870e5"
  },
  {
    "id": "162552ab-2aff-494b-b8da-b1da7a847ea8",
    "name": "Francestown",
    "state_id": "b2ca039b-d75b-44f2-8fb2-b93f3fe870e5"
  },
  {
    "id": "631690a4-f7d7-4a14-a999-e14c8d751c68",
    "name": "Franklin",
    "state_id": "b2ca039b-d75b-44f2-8fb2-b93f3fe870e5"
  },
  {
    "id": "8067265b-5ea2-499f-b4c3-09ba96929c20",
    "name": "Freedom",
    "state_id": "b2ca039b-d75b-44f2-8fb2-b93f3fe870e5"
  },
  {
    "id": "1ed258ec-5d9e-4605-bd7c-c6505d3268b5",
    "name": "Fremont",
    "state_id": "b2ca039b-d75b-44f2-8fb2-b93f3fe870e5"
  },
  {
    "id": "6e767642-6e35-4032-8f5b-01ee2cdef5d9",
    "name": "Gilford",
    "state_id": "b2ca039b-d75b-44f2-8fb2-b93f3fe870e5"
  },
  {
    "id": "160d4b51-0b97-4f64-b87c-da588e497e09",
    "name": "Gilmanton",
    "state_id": "b2ca039b-d75b-44f2-8fb2-b93f3fe870e5"
  },
  {
    "id": "a841f4d9-7ac7-49e4-88e1-8f626b9ed0c6",
    "name": "Goffstown",
    "state_id": "b2ca039b-d75b-44f2-8fb2-b93f3fe870e5"
  },
  {
    "id": "13d813e8-560a-44c2-836f-53a43167afa2",
    "name": "Gorham",
    "state_id": "b2ca039b-d75b-44f2-8fb2-b93f3fe870e5"
  },
  {
    "id": "de7c7199-bea0-4b12-87f6-496d5bc738a3",
    "name": "Grafton",
    "state_id": "b2ca039b-d75b-44f2-8fb2-b93f3fe870e5"
  },
  {
    "id": "aee5804d-ee1f-4cb3-8688-dccbdfb046ec",
    "name": "Grafton County",
    "state_id": "b2ca039b-d75b-44f2-8fb2-b93f3fe870e5"
  },
  {
    "id": "e551b5f3-1349-447e-b769-11877bbeec83",
    "name": "Grantham",
    "state_id": "b2ca039b-d75b-44f2-8fb2-b93f3fe870e5"
  },
  {
    "id": "51ee9833-2c35-4c21-9357-6643c782555f",
    "name": "Greenfield",
    "state_id": "b2ca039b-d75b-44f2-8fb2-b93f3fe870e5"
  },
  {
    "id": "16f4d109-2e75-42ec-a631-0c2382829cc5",
    "name": "Greenland",
    "state_id": "b2ca039b-d75b-44f2-8fb2-b93f3fe870e5"
  },
  {
    "id": "c72dba14-3282-4a02-9bf0-b9f894ea5cbf",
    "name": "Greenville",
    "state_id": "b2ca039b-d75b-44f2-8fb2-b93f3fe870e5"
  },
  {
    "id": "49925527-ad41-44dc-9e60-85286ce3a5b2",
    "name": "Groveton",
    "state_id": "b2ca039b-d75b-44f2-8fb2-b93f3fe870e5"
  },
  {
    "id": "cd2eaf17-a87c-4cfe-9103-ac2cb1841567",
    "name": "Hampstead",
    "state_id": "b2ca039b-d75b-44f2-8fb2-b93f3fe870e5"
  },
  {
    "id": "dbde77d9-ad9c-48fa-802b-42288ddfd940",
    "name": "Hampton",
    "state_id": "b2ca039b-d75b-44f2-8fb2-b93f3fe870e5"
  },
  {
    "id": "f84fbbfa-b5bb-4c64-a0a5-561cdfe47778",
    "name": "Hampton Beach",
    "state_id": "b2ca039b-d75b-44f2-8fb2-b93f3fe870e5"
  },
  {
    "id": "b42ca2c6-dae4-4e58-b7a9-1c95cee9a484",
    "name": "Hampton Falls",
    "state_id": "b2ca039b-d75b-44f2-8fb2-b93f3fe870e5"
  },
  {
    "id": "87218d8a-0637-4e70-8e95-3bf9d6d1a4b0",
    "name": "Hanover",
    "state_id": "b2ca039b-d75b-44f2-8fb2-b93f3fe870e5"
  },
  {
    "id": "b834ab1b-6482-40a6-92d1-21afe67cc359",
    "name": "Harrisville",
    "state_id": "b2ca039b-d75b-44f2-8fb2-b93f3fe870e5"
  },
  {
    "id": "5811756b-0504-4c92-8504-bb0d46b2762f",
    "name": "Haverhill",
    "state_id": "b2ca039b-d75b-44f2-8fb2-b93f3fe870e5"
  },
  {
    "id": "cc4377ad-f933-4632-a33b-1d55a237d3d8",
    "name": "Henniker",
    "state_id": "b2ca039b-d75b-44f2-8fb2-b93f3fe870e5"
  },
  {
    "id": "cd9de037-83a4-4193-bcdd-fb438eece998",
    "name": "Hill",
    "state_id": "b2ca039b-d75b-44f2-8fb2-b93f3fe870e5"
  },
  {
    "id": "236e2e7c-799b-4e38-927f-0c41e32aaeeb",
    "name": "Hillsborough",
    "state_id": "b2ca039b-d75b-44f2-8fb2-b93f3fe870e5"
  },
  {
    "id": "5fc78365-afab-42fa-b26a-cccc5b65057f",
    "name": "Hillsborough County",
    "state_id": "b2ca039b-d75b-44f2-8fb2-b93f3fe870e5"
  },
  {
    "id": "2a7c260a-3ac5-4bd0-bdd0-22f56bb3666f",
    "name": "Hinsdale",
    "state_id": "b2ca039b-d75b-44f2-8fb2-b93f3fe870e5"
  },
  {
    "id": "a71c32da-b46a-4d83-8be7-e6b3f866b013",
    "name": "Holderness",
    "state_id": "b2ca039b-d75b-44f2-8fb2-b93f3fe870e5"
  },
  {
    "id": "efdd54ba-2df7-46ec-9783-2938f30bed52",
    "name": "Hollis",
    "state_id": "b2ca039b-d75b-44f2-8fb2-b93f3fe870e5"
  },
  {
    "id": "9a1a138c-77d4-4a44-b01a-32d034a304ca",
    "name": "Hooksett",
    "state_id": "b2ca039b-d75b-44f2-8fb2-b93f3fe870e5"
  },
  {
    "id": "cd96031f-46ba-40c4-b518-940b789b9bcf",
    "name": "Hopkinton",
    "state_id": "b2ca039b-d75b-44f2-8fb2-b93f3fe870e5"
  },
  {
    "id": "2a6ac792-b453-4400-ad87-b52ff1b55690",
    "name": "Hudson",
    "state_id": "b2ca039b-d75b-44f2-8fb2-b93f3fe870e5"
  },
  {
    "id": "07c9fc6e-58c3-4b5d-bb85-094c48eb61cb",
    "name": "Jaffrey",
    "state_id": "b2ca039b-d75b-44f2-8fb2-b93f3fe870e5"
  },
  {
    "id": "d7d3d8e2-e362-4890-85e5-f800bb34d104",
    "name": "Jefferson",
    "state_id": "b2ca039b-d75b-44f2-8fb2-b93f3fe870e5"
  },
  {
    "id": "15978444-32b7-49fc-aa41-456e2219bbc8",
    "name": "Keene",
    "state_id": "b2ca039b-d75b-44f2-8fb2-b93f3fe870e5"
  },
  {
    "id": "69bb82fa-217f-437e-b7d6-a6d82b542455",
    "name": "Kensington",
    "state_id": "b2ca039b-d75b-44f2-8fb2-b93f3fe870e5"
  },
  {
    "id": "d2c90559-90db-431a-8bd3-5340ff503cea",
    "name": "Kingston",
    "state_id": "b2ca039b-d75b-44f2-8fb2-b93f3fe870e5"
  },
  {
    "id": "cd4eff2f-515b-44ca-9123-712aaa031445",
    "name": "Laconia",
    "state_id": "b2ca039b-d75b-44f2-8fb2-b93f3fe870e5"
  },
  {
    "id": "fe401333-3d97-40be-bb98-f75af2b50749",
    "name": "Lancaster",
    "state_id": "b2ca039b-d75b-44f2-8fb2-b93f3fe870e5"
  },
  {
    "id": "1dde6d1f-0a55-4166-9bc2-401a8ba7a65b",
    "name": "Lebanon",
    "state_id": "b2ca039b-d75b-44f2-8fb2-b93f3fe870e5"
  },
  {
    "id": "5bc23e05-dfc0-41e3-a9ca-ce9200104c9d",
    "name": "Lee",
    "state_id": "b2ca039b-d75b-44f2-8fb2-b93f3fe870e5"
  },
  {
    "id": "fb950c1d-1c9d-46e3-805e-c28310688299",
    "name": "Lempster",
    "state_id": "b2ca039b-d75b-44f2-8fb2-b93f3fe870e5"
  },
  {
    "id": "dfffc73d-2b3d-4da4-a1b3-fbcb039a3cbd",
    "name": "Litchfield",
    "state_id": "b2ca039b-d75b-44f2-8fb2-b93f3fe870e5"
  },
  {
    "id": "f3a872ba-66ff-4e46-b4c9-7aa6dd86594c",
    "name": "Littleton",
    "state_id": "b2ca039b-d75b-44f2-8fb2-b93f3fe870e5"
  },
  {
    "id": "9447f56e-b86b-43e0-ba84-979fceb9755e",
    "name": "Londonderry",
    "state_id": "b2ca039b-d75b-44f2-8fb2-b93f3fe870e5"
  },
  {
    "id": "534cc836-6cd8-4cdb-83da-c8d6bc9b84f3",
    "name": "Lyme",
    "state_id": "b2ca039b-d75b-44f2-8fb2-b93f3fe870e5"
  },
  {
    "id": "339e8b36-f13a-4e3b-ba1e-57f2dea3e77f",
    "name": "Lyndeborough",
    "state_id": "b2ca039b-d75b-44f2-8fb2-b93f3fe870e5"
  },
  {
    "id": "add5f41b-4cb4-4c12-9f5b-ba5d71883223",
    "name": "Madbury",
    "state_id": "b2ca039b-d75b-44f2-8fb2-b93f3fe870e5"
  },
  {
    "id": "0dcfb954-8126-4564-b558-ee1efc02522c",
    "name": "Madison",
    "state_id": "b2ca039b-d75b-44f2-8fb2-b93f3fe870e5"
  },
  {
    "id": "f8b3fbe9-bf65-4cbe-a953-0b5e15fed53d",
    "name": "Manchester",
    "state_id": "b2ca039b-d75b-44f2-8fb2-b93f3fe870e5"
  },
  {
    "id": "5be735a4-b21a-4aa9-a8e2-33ef6e30f1ef",
    "name": "Marlborough",
    "state_id": "b2ca039b-d75b-44f2-8fb2-b93f3fe870e5"
  },
  {
    "id": "77e7a8cd-c4b2-43d8-b2aa-4031006352c3",
    "name": "Mason",
    "state_id": "b2ca039b-d75b-44f2-8fb2-b93f3fe870e5"
  },
  {
    "id": "41424364-afee-47a0-9780-0db0ca931750",
    "name": "Meredith",
    "state_id": "b2ca039b-d75b-44f2-8fb2-b93f3fe870e5"
  },
  {
    "id": "04cde28f-d989-473d-89fb-fd4cf901f142",
    "name": "Merrimack",
    "state_id": "b2ca039b-d75b-44f2-8fb2-b93f3fe870e5"
  },
  {
    "id": "fe194dc8-8046-4d69-b357-e978b691702e",
    "name": "Merrimack County",
    "state_id": "b2ca039b-d75b-44f2-8fb2-b93f3fe870e5"
  },
  {
    "id": "8d2c3118-7ea3-40e8-9fa6-14255c43ccff",
    "name": "Milan",
    "state_id": "b2ca039b-d75b-44f2-8fb2-b93f3fe870e5"
  },
  {
    "id": "8bac457c-1aa4-41bd-afeb-dffa44de30e5",
    "name": "Milford",
    "state_id": "b2ca039b-d75b-44f2-8fb2-b93f3fe870e5"
  },
  {
    "id": "3157702c-0218-4732-8126-08f56132c500",
    "name": "Mont Vernon",
    "state_id": "b2ca039b-d75b-44f2-8fb2-b93f3fe870e5"
  },
  {
    "id": "bcf55b0d-8edb-4c59-a629-26201b559e6d",
    "name": "Moultonborough",
    "state_id": "b2ca039b-d75b-44f2-8fb2-b93f3fe870e5"
  },
  {
    "id": "8c9417c6-51b4-4c52-bfda-227a1b5f425c",
    "name": "Nashua",
    "state_id": "b2ca039b-d75b-44f2-8fb2-b93f3fe870e5"
  },
  {
    "id": "fdb26787-c1f3-444c-928a-3ce131bdec0b",
    "name": "New Boston",
    "state_id": "b2ca039b-d75b-44f2-8fb2-b93f3fe870e5"
  },
  {
    "id": "504a32c5-3c25-4b51-8a4b-01cad75c2d22",
    "name": "New Castle",
    "state_id": "b2ca039b-d75b-44f2-8fb2-b93f3fe870e5"
  },
  {
    "id": "3876fbe0-085c-430b-b848-cc4d0b5ec37f",
    "name": "New Durham",
    "state_id": "b2ca039b-d75b-44f2-8fb2-b93f3fe870e5"
  },
  {
    "id": "b32546d0-0cba-47d1-a45f-94792db8f782",
    "name": "New Ipswich",
    "state_id": "b2ca039b-d75b-44f2-8fb2-b93f3fe870e5"
  },
  {
    "id": "21b32723-099b-4942-89c9-7d503053d631",
    "name": "New London",
    "state_id": "b2ca039b-d75b-44f2-8fb2-b93f3fe870e5"
  },
  {
    "id": "4b4c42f2-62ed-4965-bd6d-354d1685c679",
    "name": "Newbury",
    "state_id": "b2ca039b-d75b-44f2-8fb2-b93f3fe870e5"
  },
  {
    "id": "008ee8e6-6091-479c-a0a8-e44374e8a85e",
    "name": "Newmarket",
    "state_id": "b2ca039b-d75b-44f2-8fb2-b93f3fe870e5"
  },
  {
    "id": "8c243024-49c6-46fa-b739-9dfa963205d5",
    "name": "Newport",
    "state_id": "b2ca039b-d75b-44f2-8fb2-b93f3fe870e5"
  },
  {
    "id": "97b3efcd-06bc-4f5e-b38c-a7df13fe7b91",
    "name": "Newton",
    "state_id": "b2ca039b-d75b-44f2-8fb2-b93f3fe870e5"
  },
  {
    "id": "aec4f039-848b-4e9e-9c14-7478dfd830f8",
    "name": "North Conway",
    "state_id": "b2ca039b-d75b-44f2-8fb2-b93f3fe870e5"
  },
  {
    "id": "e8f3d2e8-9100-4c4a-ab84-81ba076b18f9",
    "name": "North Hampton",
    "state_id": "b2ca039b-d75b-44f2-8fb2-b93f3fe870e5"
  },
  {
    "id": "f7d9fe37-b2de-4afe-858b-fa4b39f4716b",
    "name": "Northfield",
    "state_id": "b2ca039b-d75b-44f2-8fb2-b93f3fe870e5"
  },
  {
    "id": "f4b750cd-9c29-484e-9a41-ed81be1959a9",
    "name": "Northumberland",
    "state_id": "b2ca039b-d75b-44f2-8fb2-b93f3fe870e5"
  },
  {
    "id": "9c57f1d1-4b42-4589-99d1-7c7333cfc1bf",
    "name": "Northwood",
    "state_id": "b2ca039b-d75b-44f2-8fb2-b93f3fe870e5"
  },
  {
    "id": "4d372f87-c056-4642-a7ee-610c9f657e37",
    "name": "Nottingham",
    "state_id": "b2ca039b-d75b-44f2-8fb2-b93f3fe870e5"
  },
  {
    "id": "2b6e8b94-ac5c-433e-9350-66365c30e01e",
    "name": "Orford",
    "state_id": "b2ca039b-d75b-44f2-8fb2-b93f3fe870e5"
  },
  {
    "id": "ff0e8cd0-b87c-4ad5-98ee-c9efdff47994",
    "name": "Ossipee",
    "state_id": "b2ca039b-d75b-44f2-8fb2-b93f3fe870e5"
  },
  {
    "id": "c0239234-6827-4a7f-b23c-5d990b26b716",
    "name": "Pelham",
    "state_id": "b2ca039b-d75b-44f2-8fb2-b93f3fe870e5"
  },
  {
    "id": "f5455d31-ecfc-4e8a-bc44-a10fec61639c",
    "name": "Pembroke",
    "state_id": "b2ca039b-d75b-44f2-8fb2-b93f3fe870e5"
  },
  {
    "id": "7c7936eb-9495-4446-b70d-90e1e01d203b",
    "name": "Peterborough",
    "state_id": "b2ca039b-d75b-44f2-8fb2-b93f3fe870e5"
  },
  {
    "id": "7495a805-ce46-4c06-a2df-f91bee6f9980",
    "name": "Pinardville",
    "state_id": "b2ca039b-d75b-44f2-8fb2-b93f3fe870e5"
  },
  {
    "id": "b50152a5-f3f7-4774-9561-62a1b7b5b25b",
    "name": "Pittsfield",
    "state_id": "b2ca039b-d75b-44f2-8fb2-b93f3fe870e5"
  },
  {
    "id": "09529c7e-f9da-4796-b589-086dc8acdf65",
    "name": "Plaistow",
    "state_id": "b2ca039b-d75b-44f2-8fb2-b93f3fe870e5"
  },
  {
    "id": "52cec218-64d7-428e-b876-e0ad0f573e85",
    "name": "Plymouth",
    "state_id": "b2ca039b-d75b-44f2-8fb2-b93f3fe870e5"
  },
  {
    "id": "c59d4716-b909-446e-895a-0125544f20d6",
    "name": "Portsmouth",
    "state_id": "b2ca039b-d75b-44f2-8fb2-b93f3fe870e5"
  },
  {
    "id": "4574ca3b-eb6f-4651-b172-c2d7735422c4",
    "name": "Raymond",
    "state_id": "b2ca039b-d75b-44f2-8fb2-b93f3fe870e5"
  },
  {
    "id": "8023a17c-9f2f-4470-b383-4ff5e497814e",
    "name": "Richmond",
    "state_id": "b2ca039b-d75b-44f2-8fb2-b93f3fe870e5"
  },
  {
    "id": "98be8e5a-4da6-46e3-9e73-7430971aefbb",
    "name": "Rindge",
    "state_id": "b2ca039b-d75b-44f2-8fb2-b93f3fe870e5"
  },
  {
    "id": "bb544e20-ebac-46c4-aff5-43b7fd9631cd",
    "name": "Rochester",
    "state_id": "b2ca039b-d75b-44f2-8fb2-b93f3fe870e5"
  },
  {
    "id": "df2d027e-a4a4-4f50-b80e-e978d63aee79",
    "name": "Rockingham County",
    "state_id": "b2ca039b-d75b-44f2-8fb2-b93f3fe870e5"
  },
  {
    "id": "443cfae3-a10b-4faa-b72f-dbec87046d4e",
    "name": "Rollinsford",
    "state_id": "b2ca039b-d75b-44f2-8fb2-b93f3fe870e5"
  },
  {
    "id": "fbf50759-9f10-4f9c-ba2e-09f21cc140a9",
    "name": "Rumney",
    "state_id": "b2ca039b-d75b-44f2-8fb2-b93f3fe870e5"
  },
  {
    "id": "9732e45e-50e0-4386-a46a-5acbfb6246ab",
    "name": "Rye",
    "state_id": "b2ca039b-d75b-44f2-8fb2-b93f3fe870e5"
  },
  {
    "id": "e9438f62-6516-4271-a0ed-91acf4b6bc88",
    "name": "Salem",
    "state_id": "b2ca039b-d75b-44f2-8fb2-b93f3fe870e5"
  },
  {
    "id": "36c0561f-dc6a-4333-aeaa-3ccafc6971bb",
    "name": "Salisbury",
    "state_id": "b2ca039b-d75b-44f2-8fb2-b93f3fe870e5"
  },
  {
    "id": "3dc2fad7-c472-4702-a49f-2cabb1c83eee",
    "name": "Sanbornton",
    "state_id": "b2ca039b-d75b-44f2-8fb2-b93f3fe870e5"
  },
  {
    "id": "cccd0db8-043d-4402-947f-910f78b3460d",
    "name": "Sanbornville",
    "state_id": "b2ca039b-d75b-44f2-8fb2-b93f3fe870e5"
  },
  {
    "id": "79d82137-df4e-4c7b-b10f-414959a7e01f",
    "name": "Sandown",
    "state_id": "b2ca039b-d75b-44f2-8fb2-b93f3fe870e5"
  },
  {
    "id": "0a5830ee-1c72-482c-b606-522dafe34cb0",
    "name": "Sandwich",
    "state_id": "b2ca039b-d75b-44f2-8fb2-b93f3fe870e5"
  },
  {
    "id": "d5b4aa23-532c-4c32-93ed-33a27ba83826",
    "name": "Seabrook",
    "state_id": "b2ca039b-d75b-44f2-8fb2-b93f3fe870e5"
  },
  {
    "id": "85aba5a1-8e9a-42a0-ada1-576547dee71c",
    "name": "Somersworth",
    "state_id": "b2ca039b-d75b-44f2-8fb2-b93f3fe870e5"
  },
  {
    "id": "a071174b-5840-4f8c-b6f1-e77762b4fcc1",
    "name": "South Hooksett",
    "state_id": "b2ca039b-d75b-44f2-8fb2-b93f3fe870e5"
  },
  {
    "id": "c5c56846-5d4b-4617-b0fc-b65d1f4714a7",
    "name": "Springfield",
    "state_id": "b2ca039b-d75b-44f2-8fb2-b93f3fe870e5"
  },
  {
    "id": "8aad3262-8deb-46fa-99bf-caee9c46ec2a",
    "name": "Strafford",
    "state_id": "b2ca039b-d75b-44f2-8fb2-b93f3fe870e5"
  },
  {
    "id": "50a0a55b-e9de-498f-8998-7419a8e80068",
    "name": "Strafford County",
    "state_id": "b2ca039b-d75b-44f2-8fb2-b93f3fe870e5"
  },
  {
    "id": "1f16cbf2-ef20-4ee3-9405-9193ec948a55",
    "name": "Stratford",
    "state_id": "b2ca039b-d75b-44f2-8fb2-b93f3fe870e5"
  },
  {
    "id": "385afa20-0a3b-4202-b96e-a8f140330f35",
    "name": "Stratham Station",
    "state_id": "b2ca039b-d75b-44f2-8fb2-b93f3fe870e5"
  },
  {
    "id": "2a1b11c8-164b-45ad-9f70-ded7e9bce8fd",
    "name": "Sullivan County",
    "state_id": "b2ca039b-d75b-44f2-8fb2-b93f3fe870e5"
  },
  {
    "id": "3280ac49-0148-4941-8fab-bef763118b5d",
    "name": "Sunapee",
    "state_id": "b2ca039b-d75b-44f2-8fb2-b93f3fe870e5"
  },
  {
    "id": "ce8aec9f-ea54-4f78-bfa6-4f6330633d1f",
    "name": "Suncook",
    "state_id": "b2ca039b-d75b-44f2-8fb2-b93f3fe870e5"
  },
  {
    "id": "2b95aa07-d0fe-4851-b2c6-11354a088498",
    "name": "Sutton",
    "state_id": "b2ca039b-d75b-44f2-8fb2-b93f3fe870e5"
  },
  {
    "id": "4217cdf2-be13-4c06-b407-a03946fd65db",
    "name": "Swanzey",
    "state_id": "b2ca039b-d75b-44f2-8fb2-b93f3fe870e5"
  },
  {
    "id": "b9b33f69-9f58-42f7-b4fa-a5786f161b9f",
    "name": "Tamworth",
    "state_id": "b2ca039b-d75b-44f2-8fb2-b93f3fe870e5"
  },
  {
    "id": "f3abe4e9-9375-4eb2-81b3-8b4a3638032c",
    "name": "Temple",
    "state_id": "b2ca039b-d75b-44f2-8fb2-b93f3fe870e5"
  },
  {
    "id": "b6fe5b5c-6ba5-4a90-ab32-5d7af848157e",
    "name": "Thornton",
    "state_id": "b2ca039b-d75b-44f2-8fb2-b93f3fe870e5"
  },
  {
    "id": "32c00e41-5b44-4e85-b462-a63d24afb010",
    "name": "Tilton",
    "state_id": "b2ca039b-d75b-44f2-8fb2-b93f3fe870e5"
  },
  {
    "id": "f49ddb18-534b-48b8-933b-b50768bf0be7",
    "name": "Tilton-Northfield",
    "state_id": "b2ca039b-d75b-44f2-8fb2-b93f3fe870e5"
  },
  {
    "id": "d76ca3bd-eed7-4aaf-a37c-5c48e15c07e4",
    "name": "Troy",
    "state_id": "b2ca039b-d75b-44f2-8fb2-b93f3fe870e5"
  },
  {
    "id": "2c40e711-46e7-42b9-84f2-01cd6854e172",
    "name": "Tuftonboro",
    "state_id": "b2ca039b-d75b-44f2-8fb2-b93f3fe870e5"
  },
  {
    "id": "bf699a39-d5a3-4088-b71b-449644c90242",
    "name": "Unity",
    "state_id": "b2ca039b-d75b-44f2-8fb2-b93f3fe870e5"
  },
  {
    "id": "c6542267-3776-44f5-9cb4-3b9f52e30d3b",
    "name": "Wakefield",
    "state_id": "b2ca039b-d75b-44f2-8fb2-b93f3fe870e5"
  },
  {
    "id": "e144c27e-4e19-420d-ada8-451e426fbf9b",
    "name": "Weare",
    "state_id": "b2ca039b-d75b-44f2-8fb2-b93f3fe870e5"
  },
  {
    "id": "64ce1b5b-d399-4e21-be0d-0042f6549c6c",
    "name": "Webster",
    "state_id": "b2ca039b-d75b-44f2-8fb2-b93f3fe870e5"
  },
  {
    "id": "0e2587f8-975a-417f-a9ff-4dd035c93bae",
    "name": "West Swanzey",
    "state_id": "b2ca039b-d75b-44f2-8fb2-b93f3fe870e5"
  },
  {
    "id": "767e77b8-96d8-4d1d-b0b3-1f0320ae8412",
    "name": "Westmoreland",
    "state_id": "b2ca039b-d75b-44f2-8fb2-b93f3fe870e5"
  },
  {
    "id": "10aeb4a6-4bd5-448f-ac38-e94dc9508460",
    "name": "Whitefield",
    "state_id": "b2ca039b-d75b-44f2-8fb2-b93f3fe870e5"
  },
  {
    "id": "e04394fb-72fb-43f8-a3cd-b3958ae929d7",
    "name": "Wilmot",
    "state_id": "b2ca039b-d75b-44f2-8fb2-b93f3fe870e5"
  },
  {
    "id": "354fb82c-3556-447c-9e31-989caaee39e8",
    "name": "Wilton",
    "state_id": "b2ca039b-d75b-44f2-8fb2-b93f3fe870e5"
  },
  {
    "id": "238b5c9c-5bf9-47ad-963f-622ed576d418",
    "name": "Winchester",
    "state_id": "b2ca039b-d75b-44f2-8fb2-b93f3fe870e5"
  },
  {
    "id": "fbc4c4ea-5fa1-4a3f-bb3e-4d459dd45825",
    "name": "Windham",
    "state_id": "b2ca039b-d75b-44f2-8fb2-b93f3fe870e5"
  },
  {
    "id": "19e608ae-778e-4c31-a1a5-b03940f2fdf3",
    "name": "Wolfeboro",
    "state_id": "b2ca039b-d75b-44f2-8fb2-b93f3fe870e5"
  },
  {
    "id": "109ed529-6773-4064-99c9-da5c2eba3c38",
    "name": "Woodstock",
    "state_id": "b2ca039b-d75b-44f2-8fb2-b93f3fe870e5"
  },
  {
    "id": "a3bcb5a1-2228-4bd0-afb2-502913fcd729",
    "name": "Woodsville",
    "state_id": "b2ca039b-d75b-44f2-8fb2-b93f3fe870e5"
  }
]