[
  {
    "id": "bb3f8b4d-dca8-4d4b-9fd4-60a06478dd96",
    "name": "Barysh",
    "state_id": "b368da7f-064d-4a29-b0a9-90dcbccf808f"
  },
  {
    "id": "91c98faa-0a29-4da0-ba48-7ee05f9b951d",
    "name": "Bazarnyy Syzgan",
    "state_id": "b368da7f-064d-4a29-b0a9-90dcbccf808f"
  },
  {
    "id": "0bc235c7-ee9b-4367-990a-8c8e1ae5a589",
    "name": "Cherdaklinskiy Rayon",
    "state_id": "b368da7f-064d-4a29-b0a9-90dcbccf808f"
  },
  {
    "id": "60173c97-de41-4d76-997e-940620aa1dbf",
    "name": "Cherdakly",
    "state_id": "b368da7f-064d-4a29-b0a9-90dcbccf808f"
  },
  {
    "id": "40ab4d61-7850-46d5-8ade-d6c2f0da8fa1",
    "name": "Chufarovo",
    "state_id": "b368da7f-064d-4a29-b0a9-90dcbccf808f"
  },
  {
    "id": "f9326b94-76c0-4556-830e-abb26ca314c8",
    "name": "Dimitrovgrad",
    "state_id": "b368da7f-064d-4a29-b0a9-90dcbccf808f"
  },
  {
    "id": "dad1328e-ac8c-484e-aa40-dc14aebd9395",
    "name": "Glotovka",
    "state_id": "b368da7f-064d-4a29-b0a9-90dcbccf808f"
  },
  {
    "id": "d4dc0d81-f7a6-4a21-b303-bd297d34dee6",
    "name": "Ignatovka",
    "state_id": "b368da7f-064d-4a29-b0a9-90dcbccf808f"
  },
  {
    "id": "0746973d-c75d-4cb7-ac33-96c0df5013b8",
    "name": "Imeni Vladimira Il’icha Lenina",
    "state_id": "b368da7f-064d-4a29-b0a9-90dcbccf808f"
  },
  {
    "id": "09faa6f1-6bcb-4be0-9cbd-ec3b26e544b8",
    "name": "Inza",
    "state_id": "b368da7f-064d-4a29-b0a9-90dcbccf808f"
  },
  {
    "id": "7f0d712c-3f24-47ed-9391-2db398449d66",
    "name": "Isheyevka",
    "state_id": "b368da7f-064d-4a29-b0a9-90dcbccf808f"
  },
  {
    "id": "33d295f4-5368-407b-a2a9-75d5557e99fb",
    "name": "Izmaylovo",
    "state_id": "b368da7f-064d-4a29-b0a9-90dcbccf808f"
  },
  {
    "id": "3e7576da-1c16-46c7-a7c8-688619a93503",
    "name": "Kanadey",
    "state_id": "b368da7f-064d-4a29-b0a9-90dcbccf808f"
  },
  {
    "id": "4e44ebd9-f7a7-461a-bfc7-d3288a781422",
    "name": "Karsun",
    "state_id": "b368da7f-064d-4a29-b0a9-90dcbccf808f"
  },
  {
    "id": "b968e8d9-05f2-4ce0-9bcf-dee9837e79a8",
    "name": "Krasnyy Gulyay",
    "state_id": "b368da7f-064d-4a29-b0a9-90dcbccf808f"
  },
  {
    "id": "8d1a4410-5ab7-4661-b3b0-53d17aad63c2",
    "name": "Kuzovatovo",
    "state_id": "b368da7f-064d-4a29-b0a9-90dcbccf808f"
  },
  {
    "id": "d987a455-2980-4a98-a3c8-33bb1ca0e656",
    "name": "Mayna",
    "state_id": "b368da7f-064d-4a29-b0a9-90dcbccf808f"
  },
  {
    "id": "7f960273-3d91-49cc-95ef-e6fba4da8226",
    "name": "Maynskiy Rayon",
    "state_id": "b368da7f-064d-4a29-b0a9-90dcbccf808f"
  },
  {
    "id": "98f5a2fd-0b3c-4f8c-8e2d-9e01814ec970",
    "name": "Mirnyy",
    "state_id": "b368da7f-064d-4a29-b0a9-90dcbccf808f"
  },
  {
    "id": "d72ceaa1-da49-4b00-bd35-9b27ec37ffb5",
    "name": "Mullovka",
    "state_id": "b368da7f-064d-4a29-b0a9-90dcbccf808f"
  },
  {
    "id": "4247ab10-b7f9-49bd-8a12-7822cd99ea00",
    "name": "Nikolayevka",
    "state_id": "b368da7f-064d-4a29-b0a9-90dcbccf808f"
  },
  {
    "id": "8361661a-ffa2-42ba-9dd7-d9d3bc9e2b23",
    "name": "Novaya Malykla",
    "state_id": "b368da7f-064d-4a29-b0a9-90dcbccf808f"
  },
  {
    "id": "ca13b66e-4b7c-4533-b4ca-a9d639a73607",
    "name": "Novaya Mayna",
    "state_id": "b368da7f-064d-4a29-b0a9-90dcbccf808f"
  },
  {
    "id": "c8ff162a-e8c7-4c4d-a32b-a03160fc7845",
    "name": "Novocheremshansk",
    "state_id": "b368da7f-064d-4a29-b0a9-90dcbccf808f"
  },
  {
    "id": "58ce23e9-1541-4f2f-940f-b19ddcb5113a",
    "name": "Novospasskoye",
    "state_id": "b368da7f-064d-4a29-b0a9-90dcbccf808f"
  },
  {
    "id": "ff3fe6c1-95e3-4821-81dd-fef191ed55ec",
    "name": "Novoul’yanovsk",
    "state_id": "b368da7f-064d-4a29-b0a9-90dcbccf808f"
  },
  {
    "id": "5a9c166a-b36e-4d2d-b6bc-6c856a8d9250",
    "name": "Pavlovka",
    "state_id": "b368da7f-064d-4a29-b0a9-90dcbccf808f"
  },
  {
    "id": "9eecc6e6-aa06-4a6d-beb1-81cbc3e522b1",
    "name": "Pavlovskiy Rayon",
    "state_id": "b368da7f-064d-4a29-b0a9-90dcbccf808f"
  },
  {
    "id": "fe0ba128-0c62-4751-8b63-c0a68ff24a57",
    "name": "Radishchevo",
    "state_id": "b368da7f-064d-4a29-b0a9-90dcbccf808f"
  },
  {
    "id": "8ac803b5-d616-4cf3-9172-dbd4bb65734c",
    "name": "Sengiley",
    "state_id": "b368da7f-064d-4a29-b0a9-90dcbccf808f"
  },
  {
    "id": "1515b1ab-d6b8-4c51-9aa1-9df60d6824d3",
    "name": "Silikatnyy",
    "state_id": "b368da7f-064d-4a29-b0a9-90dcbccf808f"
  },
  {
    "id": "54b4f3b6-7af5-44a4-a65a-1940e1cffe5a",
    "name": "Staraya Kulatka",
    "state_id": "b368da7f-064d-4a29-b0a9-90dcbccf808f"
  },
  {
    "id": "7eb61040-6298-4ca3-9234-46e142bf98b1",
    "name": "Staraya Mayna",
    "state_id": "b368da7f-064d-4a29-b0a9-90dcbccf808f"
  },
  {
    "id": "2bc8132e-7c89-4801-b947-d8a60810f730",
    "name": "Starokulatkinskiy Rayon",
    "state_id": "b368da7f-064d-4a29-b0a9-90dcbccf808f"
  },
  {
    "id": "6720311e-fe14-490e-a10d-6f7fcf8e519a",
    "name": "Starotimoshkino",
    "state_id": "b368da7f-064d-4a29-b0a9-90dcbccf808f"
  },
  {
    "id": "a0b18dd6-be23-4369-b792-4c7504859931",
    "name": "Surskoye",
    "state_id": "b368da7f-064d-4a29-b0a9-90dcbccf808f"
  },
  {
    "id": "61ada8ac-66dc-4e73-b4b4-f734d666a974",
    "name": "Teren’gul’skiy Rayon",
    "state_id": "b368da7f-064d-4a29-b0a9-90dcbccf808f"
  },
  {
    "id": "f7f5dd02-2388-470c-b4ac-0ece5192c2af",
    "name": "Tsil’na",
    "state_id": "b368da7f-064d-4a29-b0a9-90dcbccf808f"
  },
  {
    "id": "3ece4d6c-62dd-47f1-ab37-51ba81f9bf3f",
    "name": "Tsil’ninskiy Rayon",
    "state_id": "b368da7f-064d-4a29-b0a9-90dcbccf808f"
  },
  {
    "id": "5cbe71c9-38e1-4e5c-9538-d9f153768524",
    "name": "Ulyanovsk",
    "state_id": "b368da7f-064d-4a29-b0a9-90dcbccf808f"
  },
  {
    "id": "cd5a507c-4340-4dcb-a60a-0873edef0b38",
    "name": "Ulyanovskiy Rayon",
    "state_id": "b368da7f-064d-4a29-b0a9-90dcbccf808f"
  },
  {
    "id": "b3b82bb0-3346-4834-bb4a-fdcab7d82a13",
    "name": "Undory",
    "state_id": "b368da7f-064d-4a29-b0a9-90dcbccf808f"
  },
  {
    "id": "bb2c3f56-34f7-4f1d-85cc-de9aec8376b3",
    "name": "Veshkayma",
    "state_id": "b368da7f-064d-4a29-b0a9-90dcbccf808f"
  },
  {
    "id": "dcf3f5f6-531e-4b2e-a8a0-754950b13030",
    "name": "Yazykovo",
    "state_id": "b368da7f-064d-4a29-b0a9-90dcbccf808f"
  },
  {
    "id": "d7fcfdda-0071-4ced-bd12-dd4c84f341b6",
    "name": "Zhadovka",
    "state_id": "b368da7f-064d-4a29-b0a9-90dcbccf808f"
  }
]