[
  {
    "id": "4ec6f9e7-19a1-4873-a82f-e5b66ce8c50f",
    "name": "Auna",
    "state_id": "b3aa43ca-081c-458e-ae88-909250f498c9"
  },
  {
    "id": "cc90a7a9-0c5b-4543-9131-b169779e12be",
    "name": "Babana",
    "state_id": "b3aa43ca-081c-458e-ae88-909250f498c9"
  },
  {
    "id": "50f7873e-021f-41bd-a316-f61876e08a4a",
    "name": "Badeggi",
    "state_id": "b3aa43ca-081c-458e-ae88-909250f498c9"
  },
  {
    "id": "7e65720e-4630-4b94-8b42-263f2759a6ab",
    "name": "Baro",
    "state_id": "b3aa43ca-081c-458e-ae88-909250f498c9"
  },
  {
    "id": "577189a3-285b-4bb8-9bfd-13100162f1ef",
    "name": "Bokani",
    "state_id": "b3aa43ca-081c-458e-ae88-909250f498c9"
  },
  {
    "id": "fbcf480e-1ba8-4adf-9cba-7049414dfb04",
    "name": "Duku",
    "state_id": "b3aa43ca-081c-458e-ae88-909250f498c9"
  },
  {
    "id": "5e1284ff-5af4-4245-bd3e-f6ccc0c1a350",
    "name": "Ibeto",
    "state_id": "b3aa43ca-081c-458e-ae88-909250f498c9"
  },
  {
    "id": "4e679936-9dad-43b5-90ef-3c12ec4a57ad",
    "name": "Konkwesso",
    "state_id": "b3aa43ca-081c-458e-ae88-909250f498c9"
  },
  {
    "id": "e1451143-9a41-4108-b8be-2121763feeb7",
    "name": "Kontagora",
    "state_id": "b3aa43ca-081c-458e-ae88-909250f498c9"
  },
  {
    "id": "261d27b7-d8ea-4372-8f08-a41fda81b204",
    "name": "Kusheriki",
    "state_id": "b3aa43ca-081c-458e-ae88-909250f498c9"
  },
  {
    "id": "427cc723-2eaa-49b3-adb0-b038654741c2",
    "name": "Kuta",
    "state_id": "b3aa43ca-081c-458e-ae88-909250f498c9"
  },
  {
    "id": "c23f23de-dd96-41bd-8dd4-cb2677b5e760",
    "name": "Lapai",
    "state_id": "b3aa43ca-081c-458e-ae88-909250f498c9"
  },
  {
    "id": "68038ccc-df3b-4a2e-8a95-388f4f06af40",
    "name": "Minna",
    "state_id": "b3aa43ca-081c-458e-ae88-909250f498c9"
  },
  {
    "id": "961121df-831c-4571-848b-e7eab03c6744",
    "name": "New Shagunnu",
    "state_id": "b3aa43ca-081c-458e-ae88-909250f498c9"
  },
  {
    "id": "1cb6e4bb-927d-4d20-a624-4df517345461",
    "name": "Suleja",
    "state_id": "b3aa43ca-081c-458e-ae88-909250f498c9"
  },
  {
    "id": "fee7a8ea-9968-4f34-bdad-8ef7ffec187c",
    "name": "Tegina",
    "state_id": "b3aa43ca-081c-458e-ae88-909250f498c9"
  },
  {
    "id": "0f93b9a9-5c67-4b9d-a7de-0633e5513016",
    "name": "Ukata",
    "state_id": "b3aa43ca-081c-458e-ae88-909250f498c9"
  },
  {
    "id": "144b3fc3-cacf-42cf-b528-fdba9d4b5b7f",
    "name": "Wawa",
    "state_id": "b3aa43ca-081c-458e-ae88-909250f498c9"
  },
  {
    "id": "80bb7697-4d0b-4676-8a7c-ae877e104d95",
    "name": "Zungeru",
    "state_id": "b3aa43ca-081c-458e-ae88-909250f498c9"
  }
]