[
  {
    "id": "8ccc8916-e02c-4899-9d36-b2adb10f3367",
    "name": "Bahía de Caráquez",
    "state_id": "b3cd62a9-0152-4405-bb2a-63b3b85fd235"
  },
  {
    "id": "649e3c7c-7e52-4bf2-b255-2464024d093b",
    "name": "Calceta",
    "state_id": "b3cd62a9-0152-4405-bb2a-63b3b85fd235"
  },
  {
    "id": "339898a6-060f-4968-91bc-953b2443f238",
    "name": "Cantón Portoviejo",
    "state_id": "b3cd62a9-0152-4405-bb2a-63b3b85fd235"
  },
  {
    "id": "31a65bf0-928b-41d0-a67f-b49708827c68",
    "name": "Chone",
    "state_id": "b3cd62a9-0152-4405-bb2a-63b3b85fd235"
  },
  {
    "id": "63214686-7f72-47a5-93c6-a7b7d1657adf",
    "name": "Jipijapa",
    "state_id": "b3cd62a9-0152-4405-bb2a-63b3b85fd235"
  },
  {
    "id": "854946bb-9722-4b2f-8be7-e13c510b6123",
    "name": "Junín",
    "state_id": "b3cd62a9-0152-4405-bb2a-63b3b85fd235"
  },
  {
    "id": "9e3e229a-6a45-440c-b1bb-eb20035bb3dc",
    "name": "Manta",
    "state_id": "b3cd62a9-0152-4405-bb2a-63b3b85fd235"
  },
  {
    "id": "cf9a681c-557d-4805-8b31-3c268154ac75",
    "name": "Montecristi",
    "state_id": "b3cd62a9-0152-4405-bb2a-63b3b85fd235"
  },
  {
    "id": "ba43a345-a058-4a2f-983e-1cd283916564",
    "name": "Paján",
    "state_id": "b3cd62a9-0152-4405-bb2a-63b3b85fd235"
  },
  {
    "id": "260ae275-271e-4701-b955-a0d4ebee75c7",
    "name": "Pedernales",
    "state_id": "b3cd62a9-0152-4405-bb2a-63b3b85fd235"
  },
  {
    "id": "393894bd-5ce3-410a-ba92-fe1e49a6d440",
    "name": "Portoviejo",
    "state_id": "b3cd62a9-0152-4405-bb2a-63b3b85fd235"
  },
  {
    "id": "1f78e01d-874a-461b-adb1-e0a476355013",
    "name": "Rocafuerte",
    "state_id": "b3cd62a9-0152-4405-bb2a-63b3b85fd235"
  },
  {
    "id": "d96a722c-f3d0-40b1-b194-7ffce64de5a8",
    "name": "San Vicente",
    "state_id": "b3cd62a9-0152-4405-bb2a-63b3b85fd235"
  },
  {
    "id": "c6a21255-1661-49cc-b64a-e866b211c4c7",
    "name": "Santa Ana",
    "state_id": "b3cd62a9-0152-4405-bb2a-63b3b85fd235"
  },
  {
    "id": "3d1dfa3f-48ec-4c52-be44-a9d8a5d9975e",
    "name": "Sucre",
    "state_id": "b3cd62a9-0152-4405-bb2a-63b3b85fd235"
  },
  {
    "id": "68f54ba3-5f7a-4615-b813-806bb1b31f11",
    "name": "Tosagua",
    "state_id": "b3cd62a9-0152-4405-bb2a-63b3b85fd235"
  }
]