[
  {
    "id": "048ec5ce-0483-4247-b61c-4636731c758f",
    "name": "Batié",
    "state_id": "b3e4a144-204f-4455-a5cd-399dd4b80f5e"
  },
  {
    "id": "bda5f735-47e1-4107-9cc0-d007bf2e61ef",
    "name": "Dano",
    "state_id": "b3e4a144-204f-4455-a5cd-399dd4b80f5e"
  },
  {
    "id": "20ceee00-23c0-4a34-969f-79c6223b5775",
    "name": "Diébougou",
    "state_id": "b3e4a144-204f-4455-a5cd-399dd4b80f5e"
  },
  {
    "id": "d5843f7e-9136-40c0-b40b-f2c6ac106096",
    "name": "Province de la Bougouriba",
    "state_id": "b3e4a144-204f-4455-a5cd-399dd4b80f5e"
  },
  {
    "id": "5ceb93ca-c1b4-4be9-9e13-38e4d6002934",
    "name": "Province du Ioba",
    "state_id": "b3e4a144-204f-4455-a5cd-399dd4b80f5e"
  },
  {
    "id": "fe96aadc-ee96-4ee3-a3ba-6922ebd5995e",
    "name": "Province du Noumbièl",
    "state_id": "b3e4a144-204f-4455-a5cd-399dd4b80f5e"
  },
  {
    "id": "bb80dbe1-0d21-4c05-a781-4cb81ff757f1",
    "name": "Province du Poni",
    "state_id": "b3e4a144-204f-4455-a5cd-399dd4b80f5e"
  }
]