[
  {
    "id": "b0c19530-3b4b-4a97-9ff0-f4caeb7a8f1d",
    "name": "Atamyrat",
    "state_id": "b59e4de1-f746-40cd-bf1d-47a7788f9d79"
  },
  {
    "id": "05684580-60f1-4f6c-92ae-c1e6fc81c454",
    "name": "Farap",
    "state_id": "b59e4de1-f746-40cd-bf1d-47a7788f9d79"
  },
  {
    "id": "029877e6-3766-42c7-b386-33f5216b9514",
    "name": "Gazojak",
    "state_id": "b59e4de1-f746-40cd-bf1d-47a7788f9d79"
  },
  {
    "id": "7784408e-9d14-4472-aab9-63d4ad0bf4be",
    "name": "Gowurdak",
    "state_id": "b59e4de1-f746-40cd-bf1d-47a7788f9d79"
  },
  {
    "id": "6e7ab818-01bf-44e9-9596-a949edf8e90c",
    "name": "Saýat",
    "state_id": "b59e4de1-f746-40cd-bf1d-47a7788f9d79"
  },
  {
    "id": "f4237363-2e3c-43bf-9ed0-b1663fbf69cb",
    "name": "Türkmenabat",
    "state_id": "b59e4de1-f746-40cd-bf1d-47a7788f9d79"
  }
]