[
  {
    "id": "ec486a0c-0687-4307-bf32-c6603d0854aa",
    "name": "Boane District",
    "state_id": "b5d6aaaa-b022-4a63-9076-ddf0122fd280"
  },
  {
    "id": "f17e8ec5-eabf-4e37-9283-b630b4e2223c",
    "name": "Concelho de Matola",
    "state_id": "b5d6aaaa-b022-4a63-9076-ddf0122fd280"
  },
  {
    "id": "4d978e60-12b8-488a-895f-aa7ad851f069",
    "name": "Magude District",
    "state_id": "b5d6aaaa-b022-4a63-9076-ddf0122fd280"
  },
  {
    "id": "ff8e3869-3a2b-4f1c-91aa-eca645fd8983",
    "name": "Manhica",
    "state_id": "b5d6aaaa-b022-4a63-9076-ddf0122fd280"
  },
  {
    "id": "a968f09f-45bf-4b9d-bda7-75b1886fb961",
    "name": "Marracuene District",
    "state_id": "b5d6aaaa-b022-4a63-9076-ddf0122fd280"
  },
  {
    "id": "cc0e2092-d52e-4a29-b211-02d5d27c3888",
    "name": "Matola",
    "state_id": "b5d6aaaa-b022-4a63-9076-ddf0122fd280"
  },
  {
    "id": "81215901-42fc-4310-99ba-4327cb0e0a51",
    "name": "Matutiune District",
    "state_id": "b5d6aaaa-b022-4a63-9076-ddf0122fd280"
  },
  {
    "id": "962608ad-03c0-4fc6-be5f-93c2343e7f71",
    "name": "Moamba District",
    "state_id": "b5d6aaaa-b022-4a63-9076-ddf0122fd280"
  },
  {
    "id": "b884074f-8ce6-47b1-b59e-d373bb3210e2",
    "name": "Namaacha District",
    "state_id": "b5d6aaaa-b022-4a63-9076-ddf0122fd280"
  },
  {
    "id": "84d2487d-6467-4554-967b-90ce3b86b861",
    "name": "Ressano Garcia",
    "state_id": "b5d6aaaa-b022-4a63-9076-ddf0122fd280"
  }
]