[
  {
    "id": "59f0376f-6bb3-4c8e-88ed-0e5cf5c2466b",
    "name": "Abrigada",
    "state_id": "b6605095-adfa-4f63-a287-645f9ac9856a"
  },
  {
    "id": "50e64565-e9e3-4ef3-abe8-349440b3e601",
    "name": "Açores",
    "state_id": "b6605095-adfa-4f63-a287-645f9ac9856a"
  },
  {
    "id": "61a53663-e49c-4040-ace7-5b89ee7b0ea9",
    "name": "Adão",
    "state_id": "b6605095-adfa-4f63-a287-645f9ac9856a"
  },
  {
    "id": "faf73d8e-60d3-4253-ae81-4a2257da4071",
    "name": "Agualva",
    "state_id": "b6605095-adfa-4f63-a287-645f9ac9856a"
  },
  {
    "id": "4df531d9-410f-4b1d-929f-683a90621e83",
    "name": "Águas Belas",
    "state_id": "b6605095-adfa-4f63-a287-645f9ac9856a"
  },
  {
    "id": "5a80dc73-4293-4e12-914f-bec8a9e6f8d7",
    "name": "Aguiar da Beira",
    "state_id": "b6605095-adfa-4f63-a287-645f9ac9856a"
  },
  {
    "id": "6c220fd5-79d9-42af-981a-295a21466649",
    "name": "Ajuda",
    "state_id": "b6605095-adfa-4f63-a287-645f9ac9856a"
  },
  {
    "id": "1aed8b21-c552-4f04-98a1-4d3cf1c0c940",
    "name": "Albardo",
    "state_id": "b6605095-adfa-4f63-a287-645f9ac9856a"
  },
  {
    "id": "d3eeb915-9df4-4dfa-a3e5-4ff2f4ec968c",
    "name": "Alcabideche",
    "state_id": "b6605095-adfa-4f63-a287-645f9ac9856a"
  },
  {
    "id": "240cbdb6-6fb6-4678-b880-7e516fb04b93",
    "name": "Alcains",
    "state_id": "b6605095-adfa-4f63-a287-645f9ac9856a"
  },
  {
    "id": "e58f8401-6c6a-4483-8cfd-74917e302fa5",
    "name": "Alcântara",
    "state_id": "b6605095-adfa-4f63-a287-645f9ac9856a"
  },
  {
    "id": "a81742f4-27b1-498f-9cc1-761cc85f102f",
    "name": "Alcoentre",
    "state_id": "b6605095-adfa-4f63-a287-645f9ac9856a"
  },
  {
    "id": "2c299ee9-fa33-45aa-802c-2fc28ca4c30c",
    "name": "Aldeia da Ponte",
    "state_id": "b6605095-adfa-4f63-a287-645f9ac9856a"
  },
  {
    "id": "d4808274-9b3e-44ce-b6ed-21f53add4617",
    "name": "Aldeia da Ribeira",
    "state_id": "b6605095-adfa-4f63-a287-645f9ac9856a"
  },
  {
    "id": "029eaedc-10ba-4634-a76d-f92902ec2554",
    "name": "Aldeia de Santo António",
    "state_id": "b6605095-adfa-4f63-a287-645f9ac9856a"
  },
  {
    "id": "b1b391a9-d0b7-4886-903a-a022cf688509",
    "name": "Aldeia do Bispo",
    "state_id": "b6605095-adfa-4f63-a287-645f9ac9856a"
  },
  {
    "id": "76822372-0418-41fc-bc57-cf39d2ebea80",
    "name": "Aldeia Galega da Merceana",
    "state_id": "b6605095-adfa-4f63-a287-645f9ac9856a"
  },
  {
    "id": "51b2dd17-0af6-4f4c-a17c-0f8fc0f6b67f",
    "name": "Aldeia Gavinha",
    "state_id": "b6605095-adfa-4f63-a287-645f9ac9856a"
  },
  {
    "id": "099fc830-8442-4242-b15c-a65ebfcccfe7",
    "name": "Aldeia Nova, Miranda do Douro",
    "state_id": "b6605095-adfa-4f63-a287-645f9ac9856a"
  },
  {
    "id": "5cc38f1f-fbed-4a30-bd9f-e8f380e82c16",
    "name": "Aldeia Velha",
    "state_id": "b6605095-adfa-4f63-a287-645f9ac9856a"
  },
  {
    "id": "da996358-b2d8-4fc8-9072-8b6bf27616cf",
    "name": "Aldeia Viçosa",
    "state_id": "b6605095-adfa-4f63-a287-645f9ac9856a"
  },
  {
    "id": "23cb63a5-d04a-4b15-93ee-72ade2f09695",
    "name": "Aldeias",
    "state_id": "b6605095-adfa-4f63-a287-645f9ac9856a"
  },
  {
    "id": "c6b41486-163c-469a-8abd-cc9390a5ab87",
    "name": "Alenquer",
    "state_id": "b6605095-adfa-4f63-a287-645f9ac9856a"
  },
  {
    "id": "cc9b72fd-2a65-4a77-81f6-2aa5f98f0e18",
    "name": "Alfaiates",
    "state_id": "b6605095-adfa-4f63-a287-645f9ac9856a"
  },
  {
    "id": "f5a36c56-aca5-4d92-9b59-013579bfbb4d",
    "name": "Alfornelos",
    "state_id": "b6605095-adfa-4f63-a287-645f9ac9856a"
  },
  {
    "id": "990daef6-1ed6-4539-b655-b7671c651a8d",
    "name": "Alfragide",
    "state_id": "b6605095-adfa-4f63-a287-645f9ac9856a"
  },
  {
    "id": "a4845a83-0e9e-4994-a63e-80a1e38b72ac",
    "name": "Algés",
    "state_id": "b6605095-adfa-4f63-a287-645f9ac9856a"
  },
  {
    "id": "f8070b50-9692-4d6e-bba9-a42d26980be2",
    "name": "Algodres",
    "state_id": "b6605095-adfa-4f63-a287-645f9ac9856a"
  },
  {
    "id": "2c106251-711c-41be-af96-45fd86f3d291",
    "name": "Alguber",
    "state_id": "b6605095-adfa-4f63-a287-645f9ac9856a"
  },
  {
    "id": "eada023f-2255-4ee5-b3c0-ea1c962e2f92",
    "name": "Algueirão",
    "state_id": "b6605095-adfa-4f63-a287-645f9ac9856a"
  },
  {
    "id": "4624c64b-e1e1-4fbd-9f7e-c96c29740ae7",
    "name": "Algueirão–Mem Martins",
    "state_id": "b6605095-adfa-4f63-a287-645f9ac9856a"
  },
  {
    "id": "a9d13428-e22e-4d2b-8ea6-25f4108cbf6d",
    "name": "Alhandra",
    "state_id": "b6605095-adfa-4f63-a287-645f9ac9856a"
  },
  {
    "id": "1d97477b-4e5e-4213-a4d2-2313d91a9f48",
    "name": "Almargem",
    "state_id": "b6605095-adfa-4f63-a287-645f9ac9856a"
  },
  {
    "id": "a42c532a-4e4c-4f17-8f94-86bbe8c80a44",
    "name": "Almargem do Bispo",
    "state_id": "b6605095-adfa-4f63-a287-645f9ac9856a"
  },
  {
    "id": "d742a65c-9985-4507-ae2c-5799d249b5b4",
    "name": "Almeida",
    "state_id": "b6605095-adfa-4f63-a287-645f9ac9856a"
  },
  {
    "id": "1982d8da-6a8e-4d30-abdd-a5cfd05b9cc0",
    "name": "Almendra",
    "state_id": "b6605095-adfa-4f63-a287-645f9ac9856a"
  },
  {
    "id": "fdc2e78d-0e7d-49c5-9f94-72902a77e3d6",
    "name": "Almofala",
    "state_id": "b6605095-adfa-4f63-a287-645f9ac9856a"
  },
  {
    "id": "9b00efcb-78f8-4048-b748-163dd1eb0325",
    "name": "Alto do Pina",
    "state_id": "b6605095-adfa-4f63-a287-645f9ac9856a"
  },
  {
    "id": "3e894edc-e80c-4228-b48a-58cedc219ed7",
    "name": "Alvalade",
    "state_id": "b6605095-adfa-4f63-a287-645f9ac9856a"
  },
  {
    "id": "d2599761-18df-44b3-9219-54bf2337ff37",
    "name": "Alvendre",
    "state_id": "b6605095-adfa-4f63-a287-645f9ac9856a"
  },
  {
    "id": "4d24220a-f56c-4a92-a985-087d4cb8705c",
    "name": "Alverca da Beira",
    "state_id": "b6605095-adfa-4f63-a287-645f9ac9856a"
  },
  {
    "id": "f5d5bcc4-0635-4b53-97cd-56cf803de698",
    "name": "Alverca do Ribatejo",
    "state_id": "b6605095-adfa-4f63-a287-645f9ac9856a"
  },
  {
    "id": "fd00e5ca-36d4-45c2-8899-9c738f900d45",
    "name": "Alvoco da Serra",
    "state_id": "b6605095-adfa-4f63-a287-645f9ac9856a"
  },
  {
    "id": "f3d6311e-3807-4077-9ce8-3968b26a95d3",
    "name": "Amadora",
    "state_id": "b6605095-adfa-4f63-a287-645f9ac9856a"
  },
  {
    "id": "13bc51ea-65cf-4da5-a989-10c0f58dd5c1",
    "name": "Ameixoeira",
    "state_id": "b6605095-adfa-4f63-a287-645f9ac9856a"
  },
  {
    "id": "b0c79a5d-c666-41a3-8c34-53ef4c6ce0d8",
    "name": "Amoreira",
    "state_id": "b6605095-adfa-4f63-a287-645f9ac9856a"
  },
  {
    "id": "c06e46e8-9d27-4522-8439-d4f128decfe6",
    "name": "Anjos",
    "state_id": "b6605095-adfa-4f63-a287-645f9ac9856a"
  },
  {
    "id": "bce4851b-e9cd-486b-a410-4cb0e1cdc6b2",
    "name": "Apelação",
    "state_id": "b6605095-adfa-4f63-a287-645f9ac9856a"
  },
  {
    "id": "f298f856-b5bc-4ed0-86bd-1aa4be85e9af",
    "name": "Arcozelo",
    "state_id": "b6605095-adfa-4f63-a287-645f9ac9856a"
  },
  {
    "id": "f6ff51b8-f491-4cef-ba3c-3bc8ae39381c",
    "name": "Arranhó",
    "state_id": "b6605095-adfa-4f63-a287-645f9ac9856a"
  },
  {
    "id": "1cb1740f-b4eb-447a-b7f3-1dd24af4f8c4",
    "name": "Arrifana",
    "state_id": "b6605095-adfa-4f63-a287-645f9ac9856a"
  },
  {
    "id": "6c4eb891-adfe-4519-94c8-2ae575b4b9cc",
    "name": "Arruda Dos Vinhos",
    "state_id": "b6605095-adfa-4f63-a287-645f9ac9856a"
  },
  {
    "id": "78854200-c37d-41e3-8308-764a4138ac12",
    "name": "Atalaia",
    "state_id": "b6605095-adfa-4f63-a287-645f9ac9856a"
  },
  {
    "id": "e2727ffa-2405-4cac-b6fc-c7d3efc5cee7",
    "name": "Aveiras de Baixo",
    "state_id": "b6605095-adfa-4f63-a287-645f9ac9856a"
  },
  {
    "id": "95bf3a3e-5be3-4f10-b616-a7e1c87bf325",
    "name": "Aveiras de Cima",
    "state_id": "b6605095-adfa-4f63-a287-645f9ac9856a"
  },
  {
    "id": "5d7248ab-6888-4a09-98b3-d0ee68cb2db6",
    "name": "Avelãs da Ribeira",
    "state_id": "b6605095-adfa-4f63-a287-645f9ac9856a"
  },
  {
    "id": "497217bc-d60a-4d07-865a-4860a254568c",
    "name": "Aveloso",
    "state_id": "b6605095-adfa-4f63-a287-645f9ac9856a"
  },
  {
    "id": "99e8fe9b-9eee-4abf-bea5-dcad08291ee4",
    "name": "Azambuja",
    "state_id": "b6605095-adfa-4f63-a287-645f9ac9856a"
  },
  {
    "id": "46e71086-2ff1-48d8-b713-343081e7d008",
    "name": "Azambuja (town)",
    "state_id": "b6605095-adfa-4f63-a287-645f9ac9856a"
  },
  {
    "id": "e8cb4715-0cc8-4a66-8803-039a3cd5b2e0",
    "name": "Azenhas do Mar",
    "state_id": "b6605095-adfa-4f63-a287-645f9ac9856a"
  },
  {
    "id": "afaee905-ac49-4752-bcda-b50d2e51c730",
    "name": "Azevo",
    "state_id": "b6605095-adfa-4f63-a287-645f9ac9856a"
  },
  {
    "id": "141e0307-bbb3-4fd6-88de-477eb80be12b",
    "name": "Azueira",
    "state_id": "b6605095-adfa-4f63-a287-645f9ac9856a"
  },
  {
    "id": "ab395b15-f115-41b9-98e4-d9fa5ff07c7d",
    "name": "Baraçal",
    "state_id": "b6605095-adfa-4f63-a287-645f9ac9856a"
  },
  {
    "id": "4ed03b44-a832-4dad-9056-162fe35328d9",
    "name": "Barcarena",
    "state_id": "b6605095-adfa-4f63-a287-645f9ac9856a"
  },
  {
    "id": "4f032023-5a77-49d1-976f-dc047ef5435e",
    "name": "Barreira",
    "state_id": "b6605095-adfa-4f63-a287-645f9ac9856a"
  },
  {
    "id": "3a7ba08b-36a0-46a6-a364-382bcb153fac",
    "name": "Beato",
    "state_id": "b6605095-adfa-4f63-a287-645f9ac9856a"
  },
  {
    "id": "34733633-7130-4eb4-93c8-223fb0c8141d",
    "name": "Belas",
    "state_id": "b6605095-adfa-4f63-a287-645f9ac9856a"
  },
  {
    "id": "10bb5b61-d010-423d-9b3c-77baf447325e",
    "name": "Bendada",
    "state_id": "b6605095-adfa-4f63-a287-645f9ac9856a"
  },
  {
    "id": "4ab43ebb-cb67-4dc5-8633-3bbeedb56bfa",
    "name": "Benespera",
    "state_id": "b6605095-adfa-4f63-a287-645f9ac9856a"
  },
  {
    "id": "64185941-68aa-4dc3-a7cc-47a0bc63ba03",
    "name": "Benfica",
    "state_id": "b6605095-adfa-4f63-a287-645f9ac9856a"
  },
  {
    "id": "a1625c34-1916-4782-b6ec-734a3b776c47",
    "name": "Bismula",
    "state_id": "b6605095-adfa-4f63-a287-645f9ac9856a"
  },
  {
    "id": "c92b4979-ed4d-4617-a87d-f80ee8cb2d1b",
    "name": "Bobadela",
    "state_id": "b6605095-adfa-4f63-a287-645f9ac9856a"
  },
  {
    "id": "106602ff-b124-46ec-a47a-300196a14565",
    "name": "Bouça Cova",
    "state_id": "b6605095-adfa-4f63-a287-645f9ac9856a"
  },
  {
    "id": "48a51faa-1738-4923-91c0-07c9ca18a07c",
    "name": "Brandoa",
    "state_id": "b6605095-adfa-4f63-a287-645f9ac9856a"
  },
  {
    "id": "a17d6a3f-0e04-4812-993b-962c022e05e9",
    "name": "Bucelas",
    "state_id": "b6605095-adfa-4f63-a287-645f9ac9856a"
  },
  {
    "id": "93e7a9af-eb8b-4000-9af5-f67b2262d4a7",
    "name": "Buraca",
    "state_id": "b6605095-adfa-4f63-a287-645f9ac9856a"
  },
  {
    "id": "c04b0d3d-3906-4414-a3c1-966baaef3001",
    "name": "Cabanas de Torres",
    "state_id": "b6605095-adfa-4f63-a287-645f9ac9856a"
  },
  {
    "id": "4563a1a7-0579-4234-920d-1d0bde67a48c",
    "name": "Cabeça",
    "state_id": "b6605095-adfa-4f63-a287-645f9ac9856a"
  },
  {
    "id": "5cb60dda-458e-4bfc-9b30-2b920ecfe093",
    "name": "Cacem",
    "state_id": "b6605095-adfa-4f63-a287-645f9ac9856a"
  },
  {
    "id": "0b959e22-8bf7-485a-965d-27d241352c8b",
    "name": "Cachoeiras",
    "state_id": "b6605095-adfa-4f63-a287-645f9ac9856a"
  },
  {
    "id": "e67d7b12-4888-44f3-8642-d115352b8bda",
    "name": "Cadafais",
    "state_id": "b6605095-adfa-4f63-a287-645f9ac9856a"
  },
  {
    "id": "db1c7d3a-ffd0-4d80-b5e9-60f302e4848e",
    "name": "Cadafaz",
    "state_id": "b6605095-adfa-4f63-a287-645f9ac9856a"
  },
  {
    "id": "88dd3f38-aea5-4d10-a025-a8dbd7fc5057",
    "name": "Cadaval",
    "state_id": "b6605095-adfa-4f63-a287-645f9ac9856a"
  },
  {
    "id": "1222db06-e0d7-43f3-b664-383446ff88cc",
    "name": "Calhandriz",
    "state_id": "b6605095-adfa-4f63-a287-645f9ac9856a"
  },
  {
    "id": "de534d09-080a-4ad8-9b0e-a6580f67bd22",
    "name": "Camarate",
    "state_id": "b6605095-adfa-4f63-a287-645f9ac9856a"
  },
  {
    "id": "f4f72466-af9e-4864-b9f1-dc392f2c5a70",
    "name": "Campelos",
    "state_id": "b6605095-adfa-4f63-a287-645f9ac9856a"
  },
  {
    "id": "44312865-9671-4505-929d-1b23c805b965",
    "name": "Campo Grande",
    "state_id": "b6605095-adfa-4f63-a287-645f9ac9856a"
  },
  {
    "id": "38b77f67-d1df-4a3c-8981-60dccfd7f070",
    "name": "Campolide",
    "state_id": "b6605095-adfa-4f63-a287-645f9ac9856a"
  },
  {
    "id": "bbe8073d-34f1-4892-956b-a47d07e5ba7a",
    "name": "Caneças",
    "state_id": "b6605095-adfa-4f63-a287-645f9ac9856a"
  },
  {
    "id": "1d7e466f-d7e3-4a8b-80fb-d4c13c62e8cd",
    "name": "Carapito",
    "state_id": "b6605095-adfa-4f63-a287-645f9ac9856a"
  },
  {
    "id": "6ed327cf-9d55-434d-8f90-1fa3cc675682",
    "name": "Carcavelos",
    "state_id": "b6605095-adfa-4f63-a287-645f9ac9856a"
  },
  {
    "id": "321ac8c8-43c9-49d3-9f75-883455a0c82f",
    "name": "Cardosas",
    "state_id": "b6605095-adfa-4f63-a287-645f9ac9856a"
  },
  {
    "id": "25a784b8-c368-4455-86ab-d18dc8afe334",
    "name": "Carmões",
    "state_id": "b6605095-adfa-4f63-a287-645f9ac9856a"
  },
  {
    "id": "4441bc8b-e360-4f1f-b657-7ad98a943f7e",
    "name": "Carnaxide",
    "state_id": "b6605095-adfa-4f63-a287-645f9ac9856a"
  },
  {
    "id": "f29b6f69-858a-448c-b43c-d2c05ea31a1d",
    "name": "Carnicães",
    "state_id": "b6605095-adfa-4f63-a287-645f9ac9856a"
  },
  {
    "id": "f0802251-1e39-4e60-b009-560aa46f81a0",
    "name": "Carnide",
    "state_id": "b6605095-adfa-4f63-a287-645f9ac9856a"
  },
  {
    "id": "e46a7e17-0b43-4e41-90a9-943bef299927",
    "name": "Carnota",
    "state_id": "b6605095-adfa-4f63-a287-645f9ac9856a"
  },
  {
    "id": "609cd8c4-df57-48c1-8514-312637f2bc3e",
    "name": "Carragozela",
    "state_id": "b6605095-adfa-4f63-a287-645f9ac9856a"
  },
  {
    "id": "71c3dc7e-5304-41f3-8c90-590748e0b1f6",
    "name": "Carrapichana",
    "state_id": "b6605095-adfa-4f63-a287-645f9ac9856a"
  },
  {
    "id": "ebb9de00-6910-48f5-80a4-fcb08240481c",
    "name": "Carregado",
    "state_id": "b6605095-adfa-4f63-a287-645f9ac9856a"
  },
  {
    "id": "ddb8e8e9-98e7-4c85-ad23-7d7aebf9a3cc",
    "name": "Carvalhal",
    "state_id": "b6605095-adfa-4f63-a287-645f9ac9856a"
  },
  {
    "id": "b3b20586-1a66-4d4a-b4cc-fd43645825fd",
    "name": "Carvoeira",
    "state_id": "b6605095-adfa-4f63-a287-645f9ac9856a"
  },
  {
    "id": "fc8f91ad-6057-461c-a9fb-1ff4ecddf430",
    "name": "Casal de Cambra",
    "state_id": "b6605095-adfa-4f63-a287-645f9ac9856a"
  },
  {
    "id": "39e292ce-7cb9-47d8-829a-36ea52229450",
    "name": "Casal de Cinza",
    "state_id": "b6605095-adfa-4f63-a287-645f9ac9856a"
  },
  {
    "id": "3b152278-0952-4350-9ea9-1b248d901eb8",
    "name": "Casal Vasco",
    "state_id": "b6605095-adfa-4f63-a287-645f9ac9856a"
  },
  {
    "id": "e14d9f98-f534-4e92-86b2-5293c9dc5f45",
    "name": "Casas do Soeiro",
    "state_id": "b6605095-adfa-4f63-a287-645f9ac9856a"
  },
  {
    "id": "dd7bd33a-4f75-4dbe-9df3-dae67c76e6df",
    "name": "Cascais",
    "state_id": "b6605095-adfa-4f63-a287-645f9ac9856a"
  },
  {
    "id": "eb68d383-dfd1-4351-9723-56ec1dbcef8d",
    "name": "Castanheira",
    "state_id": "b6605095-adfa-4f63-a287-645f9ac9856a"
  },
  {
    "id": "86fb940f-0bed-4aea-9014-18f66e5ac571",
    "name": "Castanheira do Ribatejo",
    "state_id": "b6605095-adfa-4f63-a287-645f9ac9856a"
  },
  {
    "id": "13f3f86a-831f-4492-b23e-eb158a06d3b8",
    "name": "Casteição",
    "state_id": "b6605095-adfa-4f63-a287-645f9ac9856a"
  },
  {
    "id": "5cba9670-57fc-49ad-ad33-5ee9966160c7",
    "name": "Casteleiro",
    "state_id": "b6605095-adfa-4f63-a287-645f9ac9856a"
  },
  {
    "id": "a21e367e-3f94-4e3a-83e7-46f9bd8d8a14",
    "name": "Castelo (Lisbon)",
    "state_id": "b6605095-adfa-4f63-a287-645f9ac9856a"
  },
  {
    "id": "99c61dc9-341f-4411-a319-96102bacd5e2",
    "name": "Castelo Bom",
    "state_id": "b6605095-adfa-4f63-a287-645f9ac9856a"
  },
  {
    "id": "12fbefe2-e0bf-4ed2-bc4a-7956e13fa7a7",
    "name": "Castelo Melhor",
    "state_id": "b6605095-adfa-4f63-a287-645f9ac9856a"
  },
  {
    "id": "f122c65a-4786-4876-a0b4-15a608084693",
    "name": "Castelo Rodrigo",
    "state_id": "b6605095-adfa-4f63-a287-645f9ac9856a"
  },
  {
    "id": "03e865e2-5a7b-4090-83e9-a7c69db456f9",
    "name": "Cativelos",
    "state_id": "b6605095-adfa-4f63-a287-645f9ac9856a"
  },
  {
    "id": "ac1ddc06-fa33-4997-b7b6-bbd9b7ee5788",
    "name": "Cavadoude",
    "state_id": "b6605095-adfa-4f63-a287-645f9ac9856a"
  },
  {
    "id": "0cfa9d63-859a-4d98-b5f3-ef67fcfc6daa",
    "name": "Caxias",
    "state_id": "b6605095-adfa-4f63-a287-645f9ac9856a"
  },
  {
    "id": "c57aca73-510c-4506-b8ed-78b3f53bae01",
    "name": "Cedovim",
    "state_id": "b6605095-adfa-4f63-a287-645f9ac9856a"
  },
  {
    "id": "92bda136-7e46-4fc5-9177-60a0972b0567",
    "name": "Celorico da Beira",
    "state_id": "b6605095-adfa-4f63-a287-645f9ac9856a"
  },
  {
    "id": "b6a3c7b7-5802-4c0b-a9b7-b5e8c4f48f4b",
    "name": "Cercal",
    "state_id": "b6605095-adfa-4f63-a287-645f9ac9856a"
  },
  {
    "id": "ac14eff6-6f9c-4ce6-86f8-250ef61f8560",
    "name": "Cerdeira",
    "state_id": "b6605095-adfa-4f63-a287-645f9ac9856a"
  },
  {
    "id": "13bddcdd-5db5-4b9a-976b-f4967fe9e585",
    "name": "Cerejo",
    "state_id": "b6605095-adfa-4f63-a287-645f9ac9856a"
  },
  {
    "id": "2f7e0f8d-1190-4fca-b051-c09dab1140c2",
    "name": "Charneca",
    "state_id": "b6605095-adfa-4f63-a287-645f9ac9856a"
  },
  {
    "id": "df4d639c-51f8-4ce3-b71e-b3f27fa3d3c8",
    "name": "Chãs",
    "state_id": "b6605095-adfa-4f63-a287-645f9ac9856a"
  },
  {
    "id": "7edec79f-d967-4e27-ac5f-c124ce4e5762",
    "name": "Cheleiros",
    "state_id": "b6605095-adfa-4f63-a287-645f9ac9856a"
  },
  {
    "id": "992ada32-be64-4308-9431-4e39cc54a392",
    "name": "Codesseiro",
    "state_id": "b6605095-adfa-4f63-a287-645f9ac9856a"
  },
  {
    "id": "f71c2ae8-e054-4bb5-8a1b-80f206c0b4f8",
    "name": "Cogula",
    "state_id": "b6605095-adfa-4f63-a287-645f9ac9856a"
  },
  {
    "id": "2c637b64-fb6e-4d02-91cc-24420bb99ff7",
    "name": "Colares",
    "state_id": "b6605095-adfa-4f63-a287-645f9ac9856a"
  },
  {
    "id": "3a4a0c7a-a08f-43ca-8a30-1f13f67c5f2f",
    "name": "Coração de Jesus",
    "state_id": "b6605095-adfa-4f63-a287-645f9ac9856a"
  },
  {
    "id": "b133dc68-aec4-488c-85ac-c7bbd12ffeac",
    "name": "Coriscada",
    "state_id": "b6605095-adfa-4f63-a287-645f9ac9856a"
  },
  {
    "id": "cfb0e8b0-53d0-4374-a13f-5c499c36fa05",
    "name": "Cortiçada",
    "state_id": "b6605095-adfa-4f63-a287-645f9ac9856a"
  },
  {
    "id": "e69ff7c5-888b-4a20-b391-c7caa4884f35",
    "name": "Cortiçô",
    "state_id": "b6605095-adfa-4f63-a287-645f9ac9856a"
  },
  {
    "id": "36ab6f49-6497-4b20-ae63-e74fc918cadb",
    "name": "Cortiçô da Serra",
    "state_id": "b6605095-adfa-4f63-a287-645f9ac9856a"
  },
  {
    "id": "a7c4d04b-cbae-4370-ae67-b514e3e9096c",
    "name": "Coruche",
    "state_id": "b6605095-adfa-4f63-a287-645f9ac9856a"
  },
  {
    "id": "9aea3b73-2e61-41f7-9b92-d91444dcb8ab",
    "name": "Corujeira",
    "state_id": "b6605095-adfa-4f63-a287-645f9ac9856a"
  },
  {
    "id": "75aeacf2-77cc-4a0a-bfc6-d01476c4efea",
    "name": "Cótimos",
    "state_id": "b6605095-adfa-4f63-a287-645f9ac9856a"
  },
  {
    "id": "69687f6a-610d-423b-836d-b0f56da135e2",
    "name": "Cruz Quebrada - Dafundo",
    "state_id": "b6605095-adfa-4f63-a287-645f9ac9856a"
  },
  {
    "id": "fa7483f0-8739-412d-83c4-d31dbbc4c72c",
    "name": "Custoias",
    "state_id": "b6605095-adfa-4f63-a287-645f9ac9856a"
  },
  {
    "id": "034ce53c-17d3-4b9f-a03e-80d39b51a991",
    "name": "Damaia",
    "state_id": "b6605095-adfa-4f63-a287-645f9ac9856a"
  },
  {
    "id": "880ba87b-61f8-4357-a42b-d99794a194cd",
    "name": "Dois Portos",
    "state_id": "b6605095-adfa-4f63-a287-645f9ac9856a"
  },
  {
    "id": "4e82461f-250c-4eb2-bf6a-822b7be5bf6c",
    "name": "Dornelas",
    "state_id": "b6605095-adfa-4f63-a287-645f9ac9856a"
  },
  {
    "id": "fa28bbd7-4cfb-4a30-a1d8-4ea74f25d178",
    "name": "Eirado",
    "state_id": "b6605095-adfa-4f63-a287-645f9ac9856a"
  },
  {
    "id": "9d051e18-a41b-426a-8462-e97d46acf4e9",
    "name": "Encarnação",
    "state_id": "b6605095-adfa-4f63-a287-645f9ac9856a"
  },
  {
    "id": "5c4d55f2-aefa-432f-8937-6f6acb644f2f",
    "name": "Enxara do Bispo",
    "state_id": "b6605095-adfa-4f63-a287-645f9ac9856a"
  },
  {
    "id": "0cf925dd-8962-4e1a-9573-8eb796dcf657",
    "name": "Ericeira",
    "state_id": "b6605095-adfa-4f63-a287-645f9ac9856a"
  },
  {
    "id": "9eea40ba-0ed8-42cc-b986-a0041fe22a6d",
    "name": "Ervas Tenras",
    "state_id": "b6605095-adfa-4f63-a287-645f9ac9856a"
  },
  {
    "id": "58d182a2-7f11-495e-908d-72bebfb16641",
    "name": "Ervedosa",
    "state_id": "b6605095-adfa-4f63-a287-645f9ac9856a"
  },
  {
    "id": "5be10793-8003-4c95-b0d9-94b1d11a7208",
    "name": "Escalhão",
    "state_id": "b6605095-adfa-4f63-a287-645f9ac9856a"
  },
  {
    "id": "6c886156-2dd8-40db-87d8-6bb3edf73ce3",
    "name": "Estoril",
    "state_id": "b6605095-adfa-4f63-a287-645f9ac9856a"
  },
  {
    "id": "85d47467-f30e-4337-bc46-19cfa8ebee1a",
    "name": "Faia",
    "state_id": "b6605095-adfa-4f63-a287-645f9ac9856a"
  },
  {
    "id": "c628cdc0-7a54-4363-b8af-5c97ddcc6cdb",
    "name": "Falagueira",
    "state_id": "b6605095-adfa-4f63-a287-645f9ac9856a"
  },
  {
    "id": "abb0a5be-356d-4d6b-b753-4428e0e12e9c",
    "name": "Famalicão",
    "state_id": "b6605095-adfa-4f63-a287-645f9ac9856a"
  },
  {
    "id": "78580838-037f-4757-990f-a691cd9403c4",
    "name": "Famões",
    "state_id": "b6605095-adfa-4f63-a287-645f9ac9856a"
  },
  {
    "id": "8345d92d-3dc6-486d-b91e-10d3f53cf32c",
    "name": "Fanhões",
    "state_id": "b6605095-adfa-4f63-a287-645f9ac9856a"
  },
  {
    "id": "599a1f69-f13a-4ef2-8ddb-029189b88bf1",
    "name": "Fernão Joanes",
    "state_id": "b6605095-adfa-4f63-a287-645f9ac9856a"
  },
  {
    "id": "afcc4a8f-241f-4855-bf5a-5e880352aefb",
    "name": "Fiães",
    "state_id": "b6605095-adfa-4f63-a287-645f9ac9856a"
  },
  {
    "id": "e8905c43-859c-4cf1-a2fc-17f7903ecd89",
    "name": "Figueira de Castelo Rodrigo",
    "state_id": "b6605095-adfa-4f63-a287-645f9ac9856a"
  },
  {
    "id": "88e403ad-580a-4395-9b95-6b57d903c7f5",
    "name": "Figueira do Guincho",
    "state_id": "b6605095-adfa-4f63-a287-645f9ac9856a"
  },
  {
    "id": "6aef3cfa-dfd4-4500-8610-3d87ad1dfcdb",
    "name": "Figueiró da Granja",
    "state_id": "b6605095-adfa-4f63-a287-645f9ac9856a"
  },
  {
    "id": "8a72d014-9433-47bc-bc5b-03fa24503216",
    "name": "Figueiró da Serra",
    "state_id": "b6605095-adfa-4f63-a287-645f9ac9856a"
  },
  {
    "id": "cc96ce23-c752-481e-9a33-f0544591b041",
    "name": "Figueiros",
    "state_id": "b6605095-adfa-4f63-a287-645f9ac9856a"
  },
  {
    "id": "fbcdc023-0544-4baf-b3df-b496cf31f5e5",
    "name": "Fóios",
    "state_id": "b6605095-adfa-4f63-a287-645f9ac9856a"
  },
  {
    "id": "302853b9-f8e4-443c-a048-40fe4de3d4c5",
    "name": "Folgosinho",
    "state_id": "b6605095-adfa-4f63-a287-645f9ac9856a"
  },
  {
    "id": "bbaaf6e9-f394-40c9-86ff-0653552d693d",
    "name": "Folhadosa",
    "state_id": "b6605095-adfa-4f63-a287-645f9ac9856a"
  },
  {
    "id": "76d6e842-bc40-4d93-9dca-3fdb7fea92a0",
    "name": "Fontanelas",
    "state_id": "b6605095-adfa-4f63-a287-645f9ac9856a"
  },
  {
    "id": "9263b431-2f76-46da-9665-d81830c03a70",
    "name": "Fonte Longa",
    "state_id": "b6605095-adfa-4f63-a287-645f9ac9856a"
  },
  {
    "id": "844b080b-01c4-49db-8fd1-66c02d1fc145",
    "name": "Forninhos",
    "state_id": "b6605095-adfa-4f63-a287-645f9ac9856a"
  },
  {
    "id": "d5837068-47a5-4024-b021-7c8e9b726da8",
    "name": "Forno Telheiro",
    "state_id": "b6605095-adfa-4f63-a287-645f9ac9856a"
  },
  {
    "id": "8a9f8c26-b027-482d-82de-619b7271312d",
    "name": "Fornos de Algodres",
    "state_id": "b6605095-adfa-4f63-a287-645f9ac9856a"
  },
  {
    "id": "49d33229-5f5d-420b-812e-2f776e6af08a",
    "name": "Forte da Casa",
    "state_id": "b6605095-adfa-4f63-a287-645f9ac9856a"
  },
  {
    "id": "065b6dbf-6a57-4bd7-8980-6ecb568fe473",
    "name": "Freches",
    "state_id": "b6605095-adfa-4f63-a287-645f9ac9856a"
  },
  {
    "id": "b8248580-b85c-4799-af29-a2737dad31a0",
    "name": "Freineda",
    "state_id": "b6605095-adfa-4f63-a287-645f9ac9856a"
  },
  {
    "id": "9ca4d7f5-ef7a-4714-b928-77c6ad19d913",
    "name": "Freiria",
    "state_id": "b6605095-adfa-4f63-a287-645f9ac9856a"
  },
  {
    "id": "a73e4e65-c8cb-419a-b19b-e800f14dfab4",
    "name": "Freixeda do Torrão",
    "state_id": "b6605095-adfa-4f63-a287-645f9ac9856a"
  },
  {
    "id": "766ea196-7a87-4119-813e-ffa5fcacce62",
    "name": "Freixedas",
    "state_id": "b6605095-adfa-4f63-a287-645f9ac9856a"
  },
  {
    "id": "d97f055a-fdf9-438c-9500-887c42ea7c64",
    "name": "Freixo",
    "state_id": "b6605095-adfa-4f63-a287-645f9ac9856a"
  },
  {
    "id": "0e3f0bf0-25d4-4435-b0c7-931ededac9f1",
    "name": "Freixo de Numão",
    "state_id": "b6605095-adfa-4f63-a287-645f9ac9856a"
  },
  {
    "id": "519687e0-fd59-42a3-8d6b-85d5200d474a",
    "name": "Frielas",
    "state_id": "b6605095-adfa-4f63-a287-645f9ac9856a"
  },
  {
    "id": "2044a88c-656b-4f25-9ac7-a2961b9c254b",
    "name": "Gagos",
    "state_id": "b6605095-adfa-4f63-a287-645f9ac9856a"
  },
  {
    "id": "33cc59d9-2a48-411c-b5b7-f7d89863fa52",
    "name": "Girabolhos",
    "state_id": "b6605095-adfa-4f63-a287-645f9ac9856a"
  },
  {
    "id": "4c0898a6-1486-4a52-b2fe-6cc76c4c3171",
    "name": "Gonçalo",
    "state_id": "b6605095-adfa-4f63-a287-645f9ac9856a"
  },
  {
    "id": "7ef2c9cb-8970-46ce-96df-be15e1d2ee8e",
    "name": "Gonçalo Bocas",
    "state_id": "b6605095-adfa-4f63-a287-645f9ac9856a"
  },
  {
    "id": "8a904356-09d9-4c71-8072-c76d81eb5e09",
    "name": "Gouveia",
    "state_id": "b6605095-adfa-4f63-a287-645f9ac9856a"
  },
  {
    "id": "545c59fc-ffb6-455f-9895-29a33c9e78ac",
    "name": "Graça",
    "state_id": "b6605095-adfa-4f63-a287-645f9ac9856a"
  },
  {
    "id": "de0af2b0-a75b-42c6-8639-3e774928ae3a",
    "name": "Gradil",
    "state_id": "b6605095-adfa-4f63-a287-645f9ac9856a"
  },
  {
    "id": "f0823b0b-1e4e-4cad-94bf-b2351bcd8943",
    "name": "Gradiz",
    "state_id": "b6605095-adfa-4f63-a287-645f9ac9856a"
  },
  {
    "id": "a4b3bd09-ce02-44a0-be56-e7525c38ba5f",
    "name": "Granja",
    "state_id": "b6605095-adfa-4f63-a287-645f9ac9856a"
  },
  {
    "id": "0415415f-f857-48a5-9877-d75c206df43c",
    "name": "Guarda",
    "state_id": "b6605095-adfa-4f63-a287-645f9ac9856a"
  },
  {
    "id": "e36861e9-2e6e-4d8e-9b2b-63497dce0c8e",
    "name": "Guilheiro",
    "state_id": "b6605095-adfa-4f63-a287-645f9ac9856a"
  },
  {
    "id": "cccbaf69-6f11-4aa3-9013-3df3f31b1d59",
    "name": "Horta",
    "state_id": "b6605095-adfa-4f63-a287-645f9ac9856a"
  },
  {
    "id": "3bee5327-795a-4ea6-8217-f6a62c5d39de",
    "name": "Igreja Nova",
    "state_id": "b6605095-adfa-4f63-a287-645f9ac9856a"
  },
  {
    "id": "68a25f89-8df8-4952-8090-a638ec675957",
    "name": "Infias",
    "state_id": "b6605095-adfa-4f63-a287-645f9ac9856a"
  },
  {
    "id": "76a412b7-b56c-47b4-a620-8c5897c2ceef",
    "name": "Jarmelo São Miguel",
    "state_id": "b6605095-adfa-4f63-a287-645f9ac9856a"
  },
  {
    "id": "3c277801-c223-4953-8b66-005d5aebac3a",
    "name": "Jarmelo São Pedro",
    "state_id": "b6605095-adfa-4f63-a287-645f9ac9856a"
  },
  {
    "id": "1db5065d-9963-443b-ba7a-3811ee1fcb7a",
    "name": "João Antão",
    "state_id": "b6605095-adfa-4f63-a287-645f9ac9856a"
  },
  {
    "id": "1a70e447-7ed3-45ed-9221-7c4e4ad2c1af",
    "name": "Junça",
    "state_id": "b6605095-adfa-4f63-a287-645f9ac9856a"
  },
  {
    "id": "1cfac54f-40be-42cc-8c4f-a5d628ff4da0",
    "name": "Juncais",
    "state_id": "b6605095-adfa-4f63-a287-645f9ac9856a"
  },
  {
    "id": "33d08897-7dd4-4f45-9b18-2805aa0fa8f9",
    "name": "Lagarinhos",
    "state_id": "b6605095-adfa-4f63-a287-645f9ac9856a"
  },
  {
    "id": "fefa0be1-d039-44de-9215-73fcd4410e2b",
    "name": "Lajeosa",
    "state_id": "b6605095-adfa-4f63-a287-645f9ac9856a"
  },
  {
    "id": "d21e4987-14ad-4641-b808-60be729a23c6",
    "name": "Lajeosa do Mondego",
    "state_id": "b6605095-adfa-4f63-a287-645f9ac9856a"
  },
  {
    "id": "44cbcf02-f7c9-48db-9ca5-b2e315cba984",
    "name": "Lajes",
    "state_id": "b6605095-adfa-4f63-a287-645f9ac9856a"
  },
  {
    "id": "14b9d000-e783-4b26-b499-019050d17d83",
    "name": "Lamas",
    "state_id": "b6605095-adfa-4f63-a287-645f9ac9856a"
  },
  {
    "id": "a1803203-971d-4597-a186-2ef15c659acc",
    "name": "Lamegal",
    "state_id": "b6605095-adfa-4f63-a287-645f9ac9856a"
  },
  {
    "id": "92d0a81f-ab5b-45d4-bad9-9a213ba9a51e",
    "name": "Lameiras",
    "state_id": "b6605095-adfa-4f63-a287-645f9ac9856a"
  },
  {
    "id": "8581f819-8d7b-4e41-8d74-bbad26aa9b34",
    "name": "Lapa",
    "state_id": "b6605095-adfa-4f63-a287-645f9ac9856a"
  },
  {
    "id": "150bc44d-b285-4fbb-aae9-8e05d108478d",
    "name": "Lapa Dos Dinheiros",
    "state_id": "b6605095-adfa-4f63-a287-645f9ac9856a"
  },
  {
    "id": "12571982-6260-431c-bbfe-84335ae4f099",
    "name": "Leomil",
    "state_id": "b6605095-adfa-4f63-a287-645f9ac9856a"
  },
  {
    "id": "4fd6037b-df3d-4b50-a253-66d4efddc979",
    "name": "Linda-a-Velha",
    "state_id": "b6605095-adfa-4f63-a287-645f9ac9856a"
  },
  {
    "id": "33c61d00-4945-4b38-8a8f-1e648090cc53",
    "name": "Linhares (Celorico da Beira)",
    "state_id": "b6605095-adfa-4f63-a287-645f9ac9856a"
  },
  {
    "id": "67175d95-10de-4154-8072-5abc0407b5ee",
    "name": "Lisbon",
    "state_id": "b6605095-adfa-4f63-a287-645f9ac9856a"
  },
  {
    "id": "73518dfa-5026-4dc9-870b-c196648e0644",
    "name": "Longroiva",
    "state_id": "b6605095-adfa-4f63-a287-645f9ac9856a"
  },
  {
    "id": "9f30ed1c-e2f7-494c-a7cc-2b46b83048d3",
    "name": "Loriga",
    "state_id": "b6605095-adfa-4f63-a287-645f9ac9856a"
  },
  {
    "id": "48ff3eff-3fdf-4867-a50c-2ab03800efb5",
    "name": "Loures",
    "state_id": "b6605095-adfa-4f63-a287-645f9ac9856a"
  },
  {
    "id": "5bcaf39b-be51-48dc-b2b2-742198f08295",
    "name": "Lourinhã",
    "state_id": "b6605095-adfa-4f63-a287-645f9ac9856a"
  },
  {
    "id": "374a929d-523e-4fc3-9fd2-8eb7e4eab6cd",
    "name": "Lousa",
    "state_id": "b6605095-adfa-4f63-a287-645f9ac9856a"
  },
  {
    "id": "0855ed2d-963b-47c1-92f8-930933def059",
    "name": "Lumiar",
    "state_id": "b6605095-adfa-4f63-a287-645f9ac9856a"
  },
  {
    "id": "8e108559-31f2-44ce-a4bc-c224abbb622c",
    "name": "Maçainhas",
    "state_id": "b6605095-adfa-4f63-a287-645f9ac9856a"
  },
  {
    "id": "e3568252-5b24-474e-a803-88cdd98dbe5c",
    "name": "Maçal do Chão",
    "state_id": "b6605095-adfa-4f63-a287-645f9ac9856a"
  },
  {
    "id": "6347db32-3043-4670-a3ad-fd3977882043",
    "name": "Maceira",
    "state_id": "b6605095-adfa-4f63-a287-645f9ac9856a"
  },
  {
    "id": "1593c5ff-1144-4d1a-a7d4-9d102c1ec142",
    "name": "Maçussa",
    "state_id": "b6605095-adfa-4f63-a287-645f9ac9856a"
  },
  {
    "id": "c5da4eba-b3a5-47c7-b169-de1bbfa4f15f",
    "name": "Madalena",
    "state_id": "b6605095-adfa-4f63-a287-645f9ac9856a"
  },
  {
    "id": "cfb4f82e-149c-4bea-8626-381b690b8d3b",
    "name": "Mafra",
    "state_id": "b6605095-adfa-4f63-a287-645f9ac9856a"
  },
  {
    "id": "9f36de40-17ef-4905-acc7-4f6f04e50057",
    "name": "Malcata",
    "state_id": "b6605095-adfa-4f63-a287-645f9ac9856a"
  },
  {
    "id": "d0f2f790-6527-4ada-be1d-497005b6b9bc",
    "name": "Malhada Sorda",
    "state_id": "b6605095-adfa-4f63-a287-645f9ac9856a"
  },
  {
    "id": "cd0902c8-f23f-4c27-bec5-d4f69d7d0bcd",
    "name": "Malpartida",
    "state_id": "b6605095-adfa-4f63-a287-645f9ac9856a"
  },
  {
    "id": "1d0c193a-eac2-401d-97a7-5cbee5321be0",
    "name": "Malveira",
    "state_id": "b6605095-adfa-4f63-a287-645f9ac9856a"
  },
  {
    "id": "0ed762e1-3d20-4403-bbc4-758e0e6734c5",
    "name": "Mangualde da Serra",
    "state_id": "b6605095-adfa-4f63-a287-645f9ac9856a"
  },
  {
    "id": "33b899b3-d469-4dc3-880b-106305a85f70",
    "name": "Manigoto",
    "state_id": "b6605095-adfa-4f63-a287-645f9ac9856a"
  },
  {
    "id": "6c7be220-b0a1-4c16-b9ea-0015af2eaa12",
    "name": "Manique do Intendente",
    "state_id": "b6605095-adfa-4f63-a287-645f9ac9856a"
  },
  {
    "id": "7da64dc0-9534-4286-abb8-74e698edb833",
    "name": "Manteigas",
    "state_id": "b6605095-adfa-4f63-a287-645f9ac9856a"
  },
  {
    "id": "c5f84efc-430d-403d-a1b4-d44cd3dc4bf8",
    "name": "Manteigas (São Pedro)",
    "state_id": "b6605095-adfa-4f63-a287-645f9ac9856a"
  },
  {
    "id": "0326dc56-f153-4222-b181-c38e6636ce40",
    "name": "Marialva",
    "state_id": "b6605095-adfa-4f63-a287-645f9ac9856a"
  },
  {
    "id": "e2bc5a6d-60ac-493a-9742-8544b412e917",
    "name": "Marmeleiro",
    "state_id": "b6605095-adfa-4f63-a287-645f9ac9856a"
  },
  {
    "id": "af03f004-9e16-4f2b-9c64-7a090bca3ca1",
    "name": "Marteleira",
    "state_id": "b6605095-adfa-4f63-a287-645f9ac9856a"
  },
  {
    "id": "664409b9-3d0d-4ecf-ac7b-e9fc7d57d0e0",
    "name": "Mártires",
    "state_id": "b6605095-adfa-4f63-a287-645f9ac9856a"
  },
  {
    "id": "2c57e5d6-949a-43e7-90c0-9e2b893815b4",
    "name": "Marvila",
    "state_id": "b6605095-adfa-4f63-a287-645f9ac9856a"
  },
  {
    "id": "6175675f-baeb-4409-b3ee-5036f5844218",
    "name": "Massamá",
    "state_id": "b6605095-adfa-4f63-a287-645f9ac9856a"
  },
  {
    "id": "b6eb03b3-4f8f-4fac-a9f4-4baf736608de",
    "name": "Mata de Lobos",
    "state_id": "b6605095-adfa-4f63-a287-645f9ac9856a"
  },
  {
    "id": "62a9e8da-cf4b-4c42-9be6-2ebab1c97786",
    "name": "Matacães",
    "state_id": "b6605095-adfa-4f63-a287-645f9ac9856a"
  },
  {
    "id": "99e0fb5d-5951-467e-a091-1df05ee603d0",
    "name": "Matança",
    "state_id": "b6605095-adfa-4f63-a287-645f9ac9856a"
  },
  {
    "id": "72796b8c-5c1f-4083-9832-92759feac8be",
    "name": "Maxial",
    "state_id": "b6605095-adfa-4f63-a287-645f9ac9856a"
  },
  {
    "id": "8fc4c751-d3b7-4125-a748-d10df71c1909",
    "name": "Meca",
    "state_id": "b6605095-adfa-4f63-a287-645f9ac9856a"
  },
  {
    "id": "143690e7-aa8e-4068-a66b-7af4cb34de1d",
    "name": "Mêda",
    "state_id": "b6605095-adfa-4f63-a287-645f9ac9856a"
  },
  {
    "id": "ffa5b8ce-d7ba-4727-96b3-2a388a0aed4c",
    "name": "Meios",
    "state_id": "b6605095-adfa-4f63-a287-645f9ac9856a"
  },
  {
    "id": "492a7a44-8b4f-4db9-8c59-aa7102eb4863",
    "name": "Melo",
    "state_id": "b6605095-adfa-4f63-a287-645f9ac9856a"
  },
  {
    "id": "61b387d8-bc4f-4653-9d78-41af54290285",
    "name": "Mem Martins",
    "state_id": "b6605095-adfa-4f63-a287-645f9ac9856a"
  },
  {
    "id": "016fb665-59b2-47b1-984a-246c5f982193",
    "name": "Mercês",
    "state_id": "b6605095-adfa-4f63-a287-645f9ac9856a"
  },
  {
    "id": "9e8d652a-1618-47e2-b1ce-9565b25f25a5",
    "name": "Mesquitela",
    "state_id": "b6605095-adfa-4f63-a287-645f9ac9856a"
  },
  {
    "id": "b9896152-932d-4066-ab90-36ef76f49a51",
    "name": "Milharado",
    "state_id": "b6605095-adfa-4f63-a287-645f9ac9856a"
  },
  {
    "id": "d7f56795-fd64-4b9e-8728-232668da28e9",
    "name": "Mina",
    "state_id": "b6605095-adfa-4f63-a287-645f9ac9856a"
  },
  {
    "id": "b3f427c9-f335-4c19-86cf-c87224faa420",
    "name": "Minhocal",
    "state_id": "b6605095-adfa-4f63-a287-645f9ac9856a"
  },
  {
    "id": "5f887175-827e-43cc-8c09-f39e72e87181",
    "name": "Mira-Sintra",
    "state_id": "b6605095-adfa-4f63-a287-645f9ac9856a"
  },
  {
    "id": "84800d78-378e-468a-8bb9-5cbe16611b01",
    "name": "Miragaia",
    "state_id": "b6605095-adfa-4f63-a287-645f9ac9856a"
  },
  {
    "id": "3f0b1195-ad8a-44d2-a3eb-bac8429a2066",
    "name": "Miuzela",
    "state_id": "b6605095-adfa-4f63-a287-645f9ac9856a"
  },
  {
    "id": "2b6df34a-db7c-4412-8254-5fa623ef0571",
    "name": "Mizarela",
    "state_id": "b6605095-adfa-4f63-a287-645f9ac9856a"
  },
  {
    "id": "67862c48-ae91-4da3-afb5-0aa1f20a867d",
    "name": "Moimenta da Serra",
    "state_id": "b6605095-adfa-4f63-a287-645f9ac9856a"
  },
  {
    "id": "13f1d35b-7214-43bd-8ace-2e28ee4d4a53",
    "name": "Moimentinha",
    "state_id": "b6605095-adfa-4f63-a287-645f9ac9856a"
  },
  {
    "id": "22191577-1568-417b-8a96-91012014dc2f",
    "name": "Moita",
    "state_id": "b6605095-adfa-4f63-a287-645f9ac9856a"
  },
  {
    "id": "45ce7008-6d95-48fe-916c-400936e07444",
    "name": "Moita dos Ferreiros",
    "state_id": "b6605095-adfa-4f63-a287-645f9ac9856a"
  },
  {
    "id": "79c64566-5006-44ee-b4f7-c69e44180e5d",
    "name": "Moledo",
    "state_id": "b6605095-adfa-4f63-a287-645f9ac9856a"
  },
  {
    "id": "b8f11ee7-d91d-4a9e-a703-36e0ab232d22",
    "name": "Monte Abraão",
    "state_id": "b6605095-adfa-4f63-a287-645f9ac9856a"
  },
  {
    "id": "4f4b4bd9-6d3b-4fe4-9cb6-e2dd1ec2707b",
    "name": "Monte Estoril",
    "state_id": "b6605095-adfa-4f63-a287-645f9ac9856a"
  },
  {
    "id": "aeb1eb70-af6f-4f8a-9471-18864419cd76",
    "name": "Monte Redondo",
    "state_id": "b6605095-adfa-4f63-a287-645f9ac9856a"
  },
  {
    "id": "b50af7b7-1cfa-4fa2-808d-490c52d737d3",
    "name": "Montelavar",
    "state_id": "b6605095-adfa-4f63-a287-645f9ac9856a"
  },
  {
    "id": "a91b1311-de0d-4e19-85cf-670d1833c02d",
    "name": "Moreira de Rei",
    "state_id": "b6605095-adfa-4f63-a287-645f9ac9856a"
  },
  {
    "id": "f821e320-5eae-446a-bfa0-ae574d91235f",
    "name": "Mós",
    "state_id": "b6605095-adfa-4f63-a287-645f9ac9856a"
  },
  {
    "id": "b075775c-1df3-4c89-845b-4332b433f1c7",
    "name": "Moscavide",
    "state_id": "b6605095-adfa-4f63-a287-645f9ac9856a"
  },
  {
    "id": "3b45ee94-f089-45a6-83fe-b30803c7d176",
    "name": "Murça",
    "state_id": "b6605095-adfa-4f63-a287-645f9ac9856a"
  },
  {
    "id": "180e6d89-ec5e-4c02-a3d8-896c23592566",
    "name": "Muxagata",
    "state_id": "b6605095-adfa-4f63-a287-645f9ac9856a"
  },
  {
    "id": "72ad8988-3ac1-4859-ab0b-ee24b0d04dbf",
    "name": "Nabais",
    "state_id": "b6605095-adfa-4f63-a287-645f9ac9856a"
  },
  {
    "id": "a1e79f06-0073-4e05-8669-9f7c7cd73c6e",
    "name": "Nave",
    "state_id": "b6605095-adfa-4f63-a287-645f9ac9856a"
  },
  {
    "id": "966af10c-2404-4b1e-a7fc-06f3bef717bd",
    "name": "Nave de Haver",
    "state_id": "b6605095-adfa-4f63-a287-645f9ac9856a"
  },
  {
    "id": "9d83353e-1cf0-40b4-8e5e-2d2195d8dfe0",
    "name": "Nespereira",
    "state_id": "b6605095-adfa-4f63-a287-645f9ac9856a"
  },
  {
    "id": "a4ae8df4-7efc-40fd-8578-87dfc6248eda",
    "name": "Nossa Senhora de Fátima",
    "state_id": "b6605095-adfa-4f63-a287-645f9ac9856a"
  },
  {
    "id": "f760feed-6e86-44df-8d7f-2cfb6b4c8fd5",
    "name": "Numão",
    "state_id": "b6605095-adfa-4f63-a287-645f9ac9856a"
  },
  {
    "id": "11c54fd1-3bdb-4f67-b117-c574add9dab9",
    "name": "Odivelas",
    "state_id": "b6605095-adfa-4f63-a287-645f9ac9856a"
  },
  {
    "id": "67d8e3fa-e3c0-46c9-8b3e-75198e45b87b",
    "name": "Odivelas Municipality",
    "state_id": "b6605095-adfa-4f63-a287-645f9ac9856a"
  },
  {
    "id": "078b1826-332b-4242-994a-732a992f739d",
    "name": "Oeiras",
    "state_id": "b6605095-adfa-4f63-a287-645f9ac9856a"
  },
  {
    "id": "ab7ea782-497a-4f12-9678-ac78bbe0029c",
    "name": "Oeiras e São Julião da Barra",
    "state_id": "b6605095-adfa-4f63-a287-645f9ac9856a"
  },
  {
    "id": "efd5c36c-a3a6-4c78-a63a-f7a4470884a6",
    "name": "Olhalvo",
    "state_id": "b6605095-adfa-4f63-a287-645f9ac9856a"
  },
  {
    "id": "8db78627-b4ff-4c48-972a-fcd0102b2d3e",
    "name": "Olival de Basto",
    "state_id": "b6605095-adfa-4f63-a287-645f9ac9856a"
  },
  {
    "id": "db6bc744-e7dd-49c1-9689-e742c2ef85ab",
    "name": "Olival do Basto",
    "state_id": "b6605095-adfa-4f63-a287-645f9ac9856a"
  },
  {
    "id": "68e054c3-da0b-4e8f-a4e9-b3be7578172b",
    "name": "Ota",
    "state_id": "b6605095-adfa-4f63-a287-645f9ac9856a"
  },
  {
    "id": "9d2d133c-002c-499d-801b-58a1eef31cd8",
    "name": "Outeiro da Cabeça",
    "state_id": "b6605095-adfa-4f63-a287-645f9ac9856a"
  },
  {
    "id": "7b95b7df-3463-456c-8f24-eb7d1a4fe1cb",
    "name": "Outeiro de Gatos",
    "state_id": "b6605095-adfa-4f63-a287-645f9ac9856a"
  },
  {
    "id": "ade53b1d-c51f-4955-b825-b5842af2ddba",
    "name": "Paço de Arcos",
    "state_id": "b6605095-adfa-4f63-a287-645f9ac9856a"
  },
  {
    "id": "1a18822f-e08b-4b02-a61f-a4318db9945e",
    "name": "Paços da Serra",
    "state_id": "b6605095-adfa-4f63-a287-645f9ac9856a"
  },
  {
    "id": "9c440712-5823-4151-846a-57ee21ec45f8",
    "name": "Painho",
    "state_id": "b6605095-adfa-4f63-a287-645f9ac9856a"
  },
  {
    "id": "4e0e1b74-32d2-4b91-825a-8f3aa8a06873",
    "name": "Pala",
    "state_id": "b6605095-adfa-4f63-a287-645f9ac9856a"
  },
  {
    "id": "c3626a6f-9c56-4014-a604-577980c273ea",
    "name": "Palhais",
    "state_id": "b6605095-adfa-4f63-a287-645f9ac9856a"
  },
  {
    "id": "2138fb11-91a3-4f62-be33-6e9f35a6b716",
    "name": "Panoias de Cima",
    "state_id": "b6605095-adfa-4f63-a287-645f9ac9856a"
  },
  {
    "id": "16fb6efc-d5ba-480e-984a-888718fa6f14",
    "name": "Parada",
    "state_id": "b6605095-adfa-4f63-a287-645f9ac9856a"
  },
  {
    "id": "879a5e26-3b83-4df0-9962-8a9a3609d61e",
    "name": "Paranhos",
    "state_id": "b6605095-adfa-4f63-a287-645f9ac9856a"
  },
  {
    "id": "3af190ab-11f1-4fed-bd21-89469976d7bb",
    "name": "Parede",
    "state_id": "b6605095-adfa-4f63-a287-645f9ac9856a"
  },
  {
    "id": "ef2e86dd-8745-4ac5-8036-3fa9f6b42cf7",
    "name": "Pega",
    "state_id": "b6605095-adfa-4f63-a287-645f9ac9856a"
  },
  {
    "id": "c880e87e-c4e8-4280-ad72-08e471adf6c5",
    "name": "Pena",
    "state_id": "b6605095-adfa-4f63-a287-645f9ac9856a"
  },
  {
    "id": "5bb7bd2d-3f88-4cc6-bb2d-a694448dc104",
    "name": "Pena Lobo",
    "state_id": "b6605095-adfa-4f63-a287-645f9ac9856a"
  },
  {
    "id": "0bd307d3-c766-4425-ba30-c75a67a58766",
    "name": "Pena Verde",
    "state_id": "b6605095-adfa-4f63-a287-645f9ac9856a"
  },
  {
    "id": "5b0b272d-553a-4a02-bad3-6694d5779a95",
    "name": "Penha de Águia",
    "state_id": "b6605095-adfa-4f63-a287-645f9ac9856a"
  },
  {
    "id": "7377cf2b-a010-4975-ba69-f32aa31b3f96",
    "name": "Penha de França",
    "state_id": "b6605095-adfa-4f63-a287-645f9ac9856a"
  },
  {
    "id": "ac102a62-dbc0-423d-90fc-3e76ba83d601",
    "name": "Pêra do Moço",
    "state_id": "b6605095-adfa-4f63-a287-645f9ac9856a"
  },
  {
    "id": "154c9b3c-779b-4fdb-8eeb-0c9c3abac628",
    "name": "Peral",
    "state_id": "b6605095-adfa-4f63-a287-645f9ac9856a"
  },
  {
    "id": "78894e77-a997-4977-b5d2-77cf57c1d2d1",
    "name": "Pereiro",
    "state_id": "b6605095-adfa-4f63-a287-645f9ac9856a"
  },
  {
    "id": "ee4eacb6-eeea-475f-905a-ed91f2102fdd",
    "name": "Pereiro de Palhacana",
    "state_id": "b6605095-adfa-4f63-a287-645f9ac9856a"
  },
  {
    "id": "bf5b6ff7-84ae-4656-9029-bb902e1c02cb",
    "name": "Pêro Moniz",
    "state_id": "b6605095-adfa-4f63-a287-645f9ac9856a"
  },
  {
    "id": "2bda2e02-01f6-40c2-96d0-cf788f20cc39",
    "name": "Pero Pinheiro",
    "state_id": "b6605095-adfa-4f63-a287-645f9ac9856a"
  },
  {
    "id": "7238c2b9-0d67-4ccc-95ba-cc1609b31838",
    "name": "Peva",
    "state_id": "b6605095-adfa-4f63-a287-645f9ac9856a"
  },
  {
    "id": "76214208-64ad-4a09-b9a8-e792fa123989",
    "name": "Pinhanços",
    "state_id": "b6605095-adfa-4f63-a287-645f9ac9856a"
  },
  {
    "id": "c796dac1-44c3-42c0-9dae-7d8637faf0fb",
    "name": "Pinheiro",
    "state_id": "b6605095-adfa-4f63-a287-645f9ac9856a"
  },
  {
    "id": "a2534a2b-5f76-4265-9c65-f27c0227ec30",
    "name": "Pinhel",
    "state_id": "b6605095-adfa-4f63-a287-645f9ac9856a"
  },
  {
    "id": "cb3331c9-176f-4174-966a-78625a098919",
    "name": "Pínzio",
    "state_id": "b6605095-adfa-4f63-a287-645f9ac9856a"
  },
  {
    "id": "3a70e62b-f3d2-4d6a-aa56-99ac4fe62b3f",
    "name": "Poço do Canto",
    "state_id": "b6605095-adfa-4f63-a287-645f9ac9856a"
  },
  {
    "id": "7f0d1f4d-ca12-4ced-bdd3-ab18fb1e4b91",
    "name": "Pomares",
    "state_id": "b6605095-adfa-4f63-a287-645f9ac9856a"
  },
  {
    "id": "3ad17250-1d72-4651-bb22-0e18975054b3",
    "name": "Ponte do Rol",
    "state_id": "b6605095-adfa-4f63-a287-645f9ac9856a"
  },
  {
    "id": "85b8fa9a-e533-42bf-a379-4977468833a7",
    "name": "Pontinha",
    "state_id": "b6605095-adfa-4f63-a287-645f9ac9856a"
  },
  {
    "id": "636f31cb-14f5-4495-8ca3-7dc7bb5e9d9f",
    "name": "Portela",
    "state_id": "b6605095-adfa-4f63-a287-645f9ac9856a"
  },
  {
    "id": "a3059bdc-2c70-4694-9111-dcbd13e7b27d",
    "name": "Porto da Carne",
    "state_id": "b6605095-adfa-4f63-a287-645f9ac9856a"
  },
  {
    "id": "bb3dfafe-c440-4083-98b9-00c38535af2d",
    "name": "Porto Salvo",
    "state_id": "b6605095-adfa-4f63-a287-645f9ac9856a"
  },
  {
    "id": "e11669a3-b45a-4806-b29e-8f312e19df98",
    "name": "Pousada",
    "state_id": "b6605095-adfa-4f63-a287-645f9ac9856a"
  },
  {
    "id": "4b9ff059-33b5-469a-ad91-b37753c447d7",
    "name": "Pousafoles do Bispo",
    "state_id": "b6605095-adfa-4f63-a287-645f9ac9856a"
  },
  {
    "id": "82e66ac8-6918-444f-a3d6-f304e11dd85b",
    "name": "Póvoa de Santa Iria",
    "state_id": "b6605095-adfa-4f63-a287-645f9ac9856a"
  },
  {
    "id": "127ae683-5e54-4600-a0d4-c3e809cdfe40",
    "name": "Póvoa de Santo Adrião",
    "state_id": "b6605095-adfa-4f63-a287-645f9ac9856a"
  },
  {
    "id": "d0cb9020-915c-4e6e-887b-634e952cd61c",
    "name": "Póvoa do Concelho",
    "state_id": "b6605095-adfa-4f63-a287-645f9ac9856a"
  },
  {
    "id": "53567e17-ad2f-4fa8-aaaa-b6796750e503",
    "name": "Prados",
    "state_id": "b6605095-adfa-4f63-a287-645f9ac9856a"
  },
  {
    "id": "af2e2a96-148a-4cf0-99ea-5fa287b3fcb3",
    "name": "Prazeres",
    "state_id": "b6605095-adfa-4f63-a287-645f9ac9856a"
  },
  {
    "id": "600328d4-3408-4351-b2d5-95a419c03e94",
    "name": "Prior Velho",
    "state_id": "b6605095-adfa-4f63-a287-645f9ac9856a"
  },
  {
    "id": "9c31eea1-983a-4c6d-a020-6b772c239dc4",
    "name": "Prova",
    "state_id": "b6605095-adfa-4f63-a287-645f9ac9856a"
  },
  {
    "id": "56ceba6c-e891-428f-a6b6-a6ebc9c92f9f",
    "name": "Quadrazais",
    "state_id": "b6605095-adfa-4f63-a287-645f9ac9856a"
  },
  {
    "id": "dbd109ae-6c21-4ca5-ade5-6b1f361adfa9",
    "name": "Queijas",
    "state_id": "b6605095-adfa-4f63-a287-645f9ac9856a"
  },
  {
    "id": "0516cfec-60cb-4074-ae56-6f76385dfc22",
    "name": "Queiriz",
    "state_id": "b6605095-adfa-4f63-a287-645f9ac9856a"
  },
  {
    "id": "f7a946d5-9c65-4dd2-bd73-01a975412a49",
    "name": "Queluz",
    "state_id": "b6605095-adfa-4f63-a287-645f9ac9856a"
  },
  {
    "id": "d6cce3d3-6b8d-4349-aec2-d3f4a255ff02",
    "name": "Quintã de Pêro Martins",
    "state_id": "b6605095-adfa-4f63-a287-645f9ac9856a"
  },
  {
    "id": "d9bc9880-00c7-4b1d-817a-0eca56f9605a",
    "name": "Quintas de São Bartolomeu",
    "state_id": "b6605095-adfa-4f63-a287-645f9ac9856a"
  },
  {
    "id": "f43c68bf-2333-451e-a3a9-b8b70cd7b66c",
    "name": "Rabaçal",
    "state_id": "b6605095-adfa-4f63-a287-645f9ac9856a"
  },
  {
    "id": "166f453c-02e9-4716-a892-569295bebd41",
    "name": "Ramada",
    "state_id": "b6605095-adfa-4f63-a287-645f9ac9856a"
  },
  {
    "id": "27b2ccd6-c014-4f90-956a-ed5fec8ad7d4",
    "name": "Ramalhal",
    "state_id": "b6605095-adfa-4f63-a287-645f9ac9856a"
  },
  {
    "id": "aeeec4ed-f3de-41fa-9a07-0d121eb02958",
    "name": "Ramela",
    "state_id": "b6605095-adfa-4f63-a287-645f9ac9856a"
  },
  {
    "id": "a4c48fbb-35cd-416d-8089-e8a23e98645f",
    "name": "Ranhados",
    "state_id": "b6605095-adfa-4f63-a287-645f9ac9856a"
  },
  {
    "id": "a6ca5c8c-f13a-428c-9e21-76475a5b2628",
    "name": "Rapa",
    "state_id": "b6605095-adfa-4f63-a287-645f9ac9856a"
  },
  {
    "id": "d4c368d8-a927-4615-ae33-0934d1ab2a3b",
    "name": "Rapoula do Côa",
    "state_id": "b6605095-adfa-4f63-a287-645f9ac9856a"
  },
  {
    "id": "b2687b48-d142-40db-bb8c-0713305735fb",
    "name": "Ratoeira",
    "state_id": "b6605095-adfa-4f63-a287-645f9ac9856a"
  },
  {
    "id": "2fd00f18-3f6f-48f4-a3a6-e4bacdc83384",
    "name": "Reboleira",
    "state_id": "b6605095-adfa-4f63-a287-645f9ac9856a"
  },
  {
    "id": "3838185d-157a-4138-862e-c8abd3af0349",
    "name": "Reboleiro",
    "state_id": "b6605095-adfa-4f63-a287-645f9ac9856a"
  },
  {
    "id": "b2e1ca53-7bd6-47af-bc7d-c7d8fa97c96c",
    "name": "Rebolosa",
    "state_id": "b6605095-adfa-4f63-a287-645f9ac9856a"
  },
  {
    "id": "230be784-06ac-49be-8e9c-b34e7d0c565b",
    "name": "Reguengo Grande",
    "state_id": "b6605095-adfa-4f63-a287-645f9ac9856a"
  },
  {
    "id": "3b192c39-7600-4086-b8ac-924deebdde75",
    "name": "Reigada",
    "state_id": "b6605095-adfa-4f63-a287-645f9ac9856a"
  },
  {
    "id": "753f18a6-84cb-4a91-a823-36442f21a9e8",
    "name": "Rendo",
    "state_id": "b6605095-adfa-4f63-a287-645f9ac9856a"
  },
  {
    "id": "d23d75af-2411-4c85-af06-2678481fd63f",
    "name": "Ribafria",
    "state_id": "b6605095-adfa-4f63-a287-645f9ac9856a"
  },
  {
    "id": "ac2a12bd-e836-4e5a-af3f-25db17e52eb1",
    "name": "Ribamar",
    "state_id": "b6605095-adfa-4f63-a287-645f9ac9856a"
  },
  {
    "id": "1bf801e9-11c9-419f-addc-a41eeb8532ca",
    "name": "Ribamondego",
    "state_id": "b6605095-adfa-4f63-a287-645f9ac9856a"
  },
  {
    "id": "290ea3fa-bfb1-499d-8094-5b12f7718d3a",
    "name": "Ribeira Dos Carinhos",
    "state_id": "b6605095-adfa-4f63-a287-645f9ac9856a"
  },
  {
    "id": "e7852163-4ee1-4e43-a074-4e6c2b00f710",
    "name": "Rio de Mel",
    "state_id": "b6605095-adfa-4f63-a287-645f9ac9856a"
  },
  {
    "id": "85b40762-0319-4cb8-9f02-ce7776a96110",
    "name": "Rio de Mouro",
    "state_id": "b6605095-adfa-4f63-a287-645f9ac9856a"
  },
  {
    "id": "75dcecb4-d42a-4cf0-862d-33aabca45202",
    "name": "Rio Torto",
    "state_id": "b6605095-adfa-4f63-a287-645f9ac9856a"
  },
  {
    "id": "74f5a986-01eb-4749-9c2d-9d46b75e1dc6",
    "name": "Rochoso",
    "state_id": "b6605095-adfa-4f63-a287-645f9ac9856a"
  },
  {
    "id": "59953e41-a06f-4fd3-bac7-adbb0579fc0d",
    "name": "Runa",
    "state_id": "b6605095-adfa-4f63-a287-645f9ac9856a"
  },
  {
    "id": "c15cd08a-8477-4d87-8834-2982756f96e0",
    "name": "Ruvina",
    "state_id": "b6605095-adfa-4f63-a287-645f9ac9856a"
  },
  {
    "id": "8ba84377-6af3-43df-8757-a66c216c1d13",
    "name": "Sabugal",
    "state_id": "b6605095-adfa-4f63-a287-645f9ac9856a"
  },
  {
    "id": "69b3b3af-a7ab-4f3f-b63d-7c0ad6058be1",
    "name": "Sabugueiro",
    "state_id": "b6605095-adfa-4f63-a287-645f9ac9856a"
  },
  {
    "id": "c8beb879-1792-4107-b9cb-8b77a5022d31",
    "name": "Sacavém",
    "state_id": "b6605095-adfa-4f63-a287-645f9ac9856a"
  },
  {
    "id": "5326531c-bd6a-4abc-ba81-d221f80bd3bd",
    "name": "Sacramento",
    "state_id": "b6605095-adfa-4f63-a287-645f9ac9856a"
  },
  {
    "id": "73f25047-fb49-4d7d-96ff-3b158c96a4e9",
    "name": "Safurdão",
    "state_id": "b6605095-adfa-4f63-a287-645f9ac9856a"
  },
  {
    "id": "4bfd23a0-7357-4953-89ce-a5c9e92c2e8e",
    "name": "Salgueirais",
    "state_id": "b6605095-adfa-4f63-a287-645f9ac9856a"
  },
  {
    "id": "061fd713-56a4-4cff-9229-76913c483b15",
    "name": "Sameice",
    "state_id": "b6605095-adfa-4f63-a287-645f9ac9856a"
  },
  {
    "id": "32287880-4873-41cd-bedf-9af122875f9e",
    "name": "Sameiro",
    "state_id": "b6605095-adfa-4f63-a287-645f9ac9856a"
  },
  {
    "id": "bf4377a8-0b3c-422f-8d8b-d674a7fe830a",
    "name": "Sandomil",
    "state_id": "b6605095-adfa-4f63-a287-645f9ac9856a"
  },
  {
    "id": "8927cda1-7368-46f1-a824-78cd74fa00ef",
    "name": "Santa Bárbara",
    "state_id": "b6605095-adfa-4f63-a287-645f9ac9856a"
  },
  {
    "id": "2396a027-72ec-4cef-8bb0-b14be7463028",
    "name": "Santa Catarina",
    "state_id": "b6605095-adfa-4f63-a287-645f9ac9856a"
  },
  {
    "id": "9b997dec-88e9-46b2-b679-08ea9af0140e",
    "name": "Santa Comba",
    "state_id": "b6605095-adfa-4f63-a287-645f9ac9856a"
  },
  {
    "id": "93795702-7c21-4686-bc0a-ddf1390042a5",
    "name": "Santa Engrácia",
    "state_id": "b6605095-adfa-4f63-a287-645f9ac9856a"
  },
  {
    "id": "d6f0e1b7-5c6f-48f0-846d-d0e35b54d213",
    "name": "Santa Eufémia",
    "state_id": "b6605095-adfa-4f63-a287-645f9ac9856a"
  },
  {
    "id": "872896d7-43dc-46d2-91c3-2846750aa7a9",
    "name": "Santa Eulália",
    "state_id": "b6605095-adfa-4f63-a287-645f9ac9856a"
  },
  {
    "id": "5c636fc1-d190-4a5a-82a2-08c121f89636",
    "name": "Santa Iria da Azóia",
    "state_id": "b6605095-adfa-4f63-a287-645f9ac9856a"
  },
  {
    "id": "f839fd0d-bbee-492c-addb-02fea0539aee",
    "name": "Santa Iria de Azoia",
    "state_id": "b6605095-adfa-4f63-a287-645f9ac9856a"
  },
  {
    "id": "ea643d4c-c061-483e-8634-2713cd19e714",
    "name": "Santa Isabel",
    "state_id": "b6605095-adfa-4f63-a287-645f9ac9856a"
  },
  {
    "id": "37037460-188e-465b-8420-e0cf29e53206",
    "name": "Santa Justa",
    "state_id": "b6605095-adfa-4f63-a287-645f9ac9856a"
  },
  {
    "id": "81f688c9-4f47-4dcd-a613-894fb7c5157f",
    "name": "Santa Maria",
    "state_id": "b6605095-adfa-4f63-a287-645f9ac9856a"
  },
  {
    "id": "83559f9c-4c18-490f-8fd9-65e0790c7140",
    "name": "Santa Maria de Belém",
    "state_id": "b6605095-adfa-4f63-a287-645f9ac9856a"
  },
  {
    "id": "b1656901-c366-445b-a8ff-79818c473502",
    "name": "Santa Maria do Castelo e São Miguel",
    "state_id": "b6605095-adfa-4f63-a287-645f9ac9856a"
  },
  {
    "id": "c630ac38-8f07-43d2-accc-f8a1bec7073f",
    "name": "Santa Maria dos Olivais",
    "state_id": "b6605095-adfa-4f63-a287-645f9ac9856a"
  },
  {
    "id": "5700aaf2-918e-4fbe-9d60-f4f1956eb526",
    "name": "Santa Maria e São Miguel",
    "state_id": "b6605095-adfa-4f63-a287-645f9ac9856a"
  },
  {
    "id": "72d3c825-d6f9-4aec-9dc7-ff15288d9a5e",
    "name": "Santa Marinha",
    "state_id": "b6605095-adfa-4f63-a287-645f9ac9856a"
  },
  {
    "id": "3dbfda84-92a6-4d13-ae11-8047b2b87f79",
    "name": "Santana da Azinha",
    "state_id": "b6605095-adfa-4f63-a287-645f9ac9856a"
  },
  {
    "id": "010947c3-a118-4878-8633-beac6ca00afc",
    "name": "Santiago",
    "state_id": "b6605095-adfa-4f63-a287-645f9ac9856a"
  },
  {
    "id": "9407574d-3ba2-48a3-b137-e7c2519c8931",
    "name": "Santiago dos Velhos",
    "state_id": "b6605095-adfa-4f63-a287-645f9ac9856a"
  },
  {
    "id": "1a32ba29-a025-46c2-a0d8-a7c1aad573ad",
    "name": "Santo Antão do Tojal",
    "state_id": "b6605095-adfa-4f63-a287-645f9ac9856a"
  },
  {
    "id": "b8efefe1-3b7a-40bf-bde3-e020213fc413",
    "name": "Santo António dos Cavaleiros",
    "state_id": "b6605095-adfa-4f63-a287-645f9ac9856a"
  },
  {
    "id": "d111b211-9fe0-4b8e-a69c-60b58edc5c1c",
    "name": "Santo Condestável",
    "state_id": "b6605095-adfa-4f63-a287-645f9ac9856a"
  },
  {
    "id": "f3fb5f4a-7a53-4be3-8e55-99517d1c354c",
    "name": "Santo Estêvão",
    "state_id": "b6605095-adfa-4f63-a287-645f9ac9856a"
  },
  {
    "id": "9b633384-35e3-4e16-9ef2-205524ec1aab",
    "name": "Santo Estêvão das Galés",
    "state_id": "b6605095-adfa-4f63-a287-645f9ac9856a"
  },
  {
    "id": "08b88fd2-f22f-4ad7-93a7-2245fc20494f",
    "name": "Santo Isidoro",
    "state_id": "b6605095-adfa-4f63-a287-645f9ac9856a"
  },
  {
    "id": "73475c02-1228-4f9e-aa1e-d1e5cbbb4649",
    "name": "Santo Quintino",
    "state_id": "b6605095-adfa-4f63-a287-645f9ac9856a"
  },
  {
    "id": "b983e77a-f1ec-4a4a-a84a-a0c4317dba6e",
    "name": "Santos-o-Velho",
    "state_id": "b6605095-adfa-4f63-a287-645f9ac9856a"
  },
  {
    "id": "777a7dd7-8f51-4d90-ac67-e8c39651f9ae",
    "name": "São Bartolomeu",
    "state_id": "b6605095-adfa-4f63-a287-645f9ac9856a"
  },
  {
    "id": "48090bc2-80ed-4486-ba8c-d66951df378f",
    "name": "São Bartolomeu dos Galegos",
    "state_id": "b6605095-adfa-4f63-a287-645f9ac9856a"
  },
  {
    "id": "6836b2c7-9f56-48ce-a2b0-fb26a5006f89",
    "name": "São Brás",
    "state_id": "b6605095-adfa-4f63-a287-645f9ac9856a"
  },
  {
    "id": "c57c4269-b015-43fd-977f-64ca2c0f504b",
    "name": "São Cristóvão e São Lourenço",
    "state_id": "b6605095-adfa-4f63-a287-645f9ac9856a"
  },
  {
    "id": "d5c63db9-f219-4341-9e3e-23c77d15fd50",
    "name": "São Domingos de Benfica",
    "state_id": "b6605095-adfa-4f63-a287-645f9ac9856a"
  },
  {
    "id": "f26861b5-10be-43ce-a737-10aad78fe387",
    "name": "São Domingos de Rana",
    "state_id": "b6605095-adfa-4f63-a287-645f9ac9856a"
  },
  {
    "id": "26fe668b-aadc-4bde-a5a5-0e9927b51b2d",
    "name": "São Francisco Xavier",
    "state_id": "b6605095-adfa-4f63-a287-645f9ac9856a"
  },
  {
    "id": "214e9cbb-7537-4012-a83f-4be2913258db",
    "name": "São João",
    "state_id": "b6605095-adfa-4f63-a287-645f9ac9856a"
  },
  {
    "id": "04198b41-a54b-47ac-9a7b-d0e8718bbb9e",
    "name": "São João da Talha",
    "state_id": "b6605095-adfa-4f63-a287-645f9ac9856a"
  },
  {
    "id": "fde407d0-2152-403d-b96d-79f5967a4d65",
    "name": "São João das Lampas",
    "state_id": "b6605095-adfa-4f63-a287-645f9ac9856a"
  },
  {
    "id": "5014fc25-a69e-4855-84ce-f4610581f01b",
    "name": "São João de Brito",
    "state_id": "b6605095-adfa-4f63-a287-645f9ac9856a"
  },
  {
    "id": "c7cae6cb-d5bb-4c52-9731-edf47c30c0ae",
    "name": "São João de Deus",
    "state_id": "b6605095-adfa-4f63-a287-645f9ac9856a"
  },
  {
    "id": "67df6990-2d7b-4204-8fe1-ff02cfdafe7d",
    "name": "São João Dos Montes",
    "state_id": "b6605095-adfa-4f63-a287-645f9ac9856a"
  },
  {
    "id": "cad1bc2b-20e9-415c-bdb3-31835e8c4df0",
    "name": "São Jorge de Arroios",
    "state_id": "b6605095-adfa-4f63-a287-645f9ac9856a"
  },
  {
    "id": "63aedad2-1618-4347-99f9-6b010e6ea371",
    "name": "São José",
    "state_id": "b6605095-adfa-4f63-a287-645f9ac9856a"
  },
  {
    "id": "52d5beca-3c8d-49c7-bffa-6b4b328ccc74",
    "name": "São Julião",
    "state_id": "b6605095-adfa-4f63-a287-645f9ac9856a"
  },
  {
    "id": "a0002044-09e6-4045-930c-4f3ff417d66e",
    "name": "São Julião do Tojal",
    "state_id": "b6605095-adfa-4f63-a287-645f9ac9856a"
  },
  {
    "id": "b6525d66-b122-482f-beab-40fe1973805c",
    "name": "São Mamede",
    "state_id": "b6605095-adfa-4f63-a287-645f9ac9856a"
  },
  {
    "id": "f494ab02-1021-4648-a947-94d37eadb9ab",
    "name": "São Marcos",
    "state_id": "b6605095-adfa-4f63-a287-645f9ac9856a"
  },
  {
    "id": "0414d580-99a2-4721-8d16-1ae2a0735185",
    "name": "São Martinho",
    "state_id": "b6605095-adfa-4f63-a287-645f9ac9856a"
  },
  {
    "id": "74961fa5-24ee-4b52-bfd3-d28e49b38faf",
    "name": "São Miguel",
    "state_id": "b6605095-adfa-4f63-a287-645f9ac9856a"
  },
  {
    "id": "d8d29b16-f320-46ad-a27a-c2793fa1a02f",
    "name": "São Miguel da Guarda",
    "state_id": "b6605095-adfa-4f63-a287-645f9ac9856a"
  },
  {
    "id": "a080cebc-186e-4a42-86b9-441f7e72de7a",
    "name": "São Miguel de Alcainça",
    "state_id": "b6605095-adfa-4f63-a287-645f9ac9856a"
  },
  {
    "id": "90d9a61e-885e-4b51-8bbd-43d651b4eda6",
    "name": "São Nicolau",
    "state_id": "b6605095-adfa-4f63-a287-645f9ac9856a"
  },
  {
    "id": "5c012d65-b769-4f7c-b1f4-804bd3bb661d",
    "name": "São Paio",
    "state_id": "b6605095-adfa-4f63-a287-645f9ac9856a"
  },
  {
    "id": "40af237c-f35e-45bf-b064-6ac3ebc88a1f",
    "name": "São Paulo",
    "state_id": "b6605095-adfa-4f63-a287-645f9ac9856a"
  },
  {
    "id": "8b09b359-bb65-44c2-863d-8ff9257f487a",
    "name": "São Pedro",
    "state_id": "b6605095-adfa-4f63-a287-645f9ac9856a"
  },
  {
    "id": "3039a5dc-c220-4660-a2fe-8c45f90e159f",
    "name": "São Pedro da Cadeira",
    "state_id": "b6605095-adfa-4f63-a287-645f9ac9856a"
  },
  {
    "id": "51dd50f6-9f3b-4ef4-9fa1-dcd6b3224cfd",
    "name": "São Pedro de Penaferrim",
    "state_id": "b6605095-adfa-4f63-a287-645f9ac9856a"
  },
  {
    "id": "8c9e3815-526d-446f-b2ce-640114b39c01",
    "name": "São Pedro de Rio Seco",
    "state_id": "b6605095-adfa-4f63-a287-645f9ac9856a"
  },
  {
    "id": "97aa8342-4d3c-4c62-948d-69812e719801",
    "name": "São Romão",
    "state_id": "b6605095-adfa-4f63-a287-645f9ac9856a"
  },
  {
    "id": "eeba065a-5640-4cb6-9114-b8a0d4c141bc",
    "name": "São Sebastião da Pedreira",
    "state_id": "b6605095-adfa-4f63-a287-645f9ac9856a"
  },
  {
    "id": "9638a5f4-6265-4d9f-9629-dd6cdafd26aa",
    "name": "São Vicente",
    "state_id": "b6605095-adfa-4f63-a287-645f9ac9856a"
  },
  {
    "id": "5d70b134-0299-400e-8986-ec66b1a5a6ff",
    "name": "São Vicente de Fora",
    "state_id": "b6605095-adfa-4f63-a287-645f9ac9856a"
  },
  {
    "id": "397307ef-472e-4e7b-99be-bd5bd64058da",
    "name": "Sapataria",
    "state_id": "b6605095-adfa-4f63-a287-645f9ac9856a"
  },
  {
    "id": "2a544d94-b6d5-401c-8c80-f8d153653e12",
    "name": "Sazes da Beira",
    "state_id": "b6605095-adfa-4f63-a287-645f9ac9856a"
  },
  {
    "id": "a6c94f79-1dc4-44e4-9a72-8fd50aeb075e",
    "name": "Sé",
    "state_id": "b6605095-adfa-4f63-a287-645f9ac9856a"
  },
  {
    "id": "2c271df7-a96d-4a0b-a666-a4cd16326a6c",
    "name": "Sebadelhe",
    "state_id": "b6605095-adfa-4f63-a287-645f9ac9856a"
  },
  {
    "id": "6dcb532c-1b8f-47c6-b43d-0f8fc4a7e0fb",
    "name": "Sebadelhe da Serra",
    "state_id": "b6605095-adfa-4f63-a287-645f9ac9856a"
  },
  {
    "id": "13157964-8486-44c6-a5ab-1d8711bbe5bb",
    "name": "Seia",
    "state_id": "b6605095-adfa-4f63-a287-645f9ac9856a"
  },
  {
    "id": "86bc345e-1486-464f-8ef9-ffc06dd531b5",
    "name": "Seixas",
    "state_id": "b6605095-adfa-4f63-a287-645f9ac9856a"
  },
  {
    "id": "33635c71-bffb-4f07-a360-7f291a844287",
    "name": "Seixo do Côa",
    "state_id": "b6605095-adfa-4f63-a287-645f9ac9856a"
  },
  {
    "id": "f2cf6bae-3ee6-490b-ab90-ef0b8c4b8a6f",
    "name": "Sequeira",
    "state_id": "b6605095-adfa-4f63-a287-645f9ac9856a"
  },
  {
    "id": "39f91872-6691-4f83-b633-34cc5d45318b",
    "name": "Sequeiros",
    "state_id": "b6605095-adfa-4f63-a287-645f9ac9856a"
  },
  {
    "id": "25f135f5-101e-42bd-aacb-caa1b4122ce5",
    "name": "Silveira",
    "state_id": "b6605095-adfa-4f63-a287-645f9ac9856a"
  },
  {
    "id": "82d5ff8f-6974-4ede-92df-6c04dc2d4a6e",
    "name": "Sintra",
    "state_id": "b6605095-adfa-4f63-a287-645f9ac9856a"
  },
  {
    "id": "ca15296a-a052-4c93-af02-7488f320b04c",
    "name": "Sintra (town)",
    "state_id": "b6605095-adfa-4f63-a287-645f9ac9856a"
  },
  {
    "id": "d1c2efce-17de-4cbf-aaf2-eda4c3e62455",
    "name": "Sobral da Abelheira",
    "state_id": "b6605095-adfa-4f63-a287-645f9ac9856a"
  },
  {
    "id": "b0016e1d-2fea-4ca1-9d57-dbaa2f817c3b",
    "name": "Sobral da Serra",
    "state_id": "b6605095-adfa-4f63-a287-645f9ac9856a"
  },
  {
    "id": "40b73eb3-3d34-4d49-baa0-6fb91b128b86",
    "name": "Sobral de Monte Agraço",
    "state_id": "b6605095-adfa-4f63-a287-645f9ac9856a"
  },
  {
    "id": "2a9b71a5-39dd-4c87-9ba6-fd59b012b786",
    "name": "Sobral Pichorro",
    "state_id": "b6605095-adfa-4f63-a287-645f9ac9856a"
  },
  {
    "id": "9feafeb7-781e-4639-917b-a011172515fe",
    "name": "Sobralinho",
    "state_id": "b6605095-adfa-4f63-a287-645f9ac9856a"
  },
  {
    "id": "72f6cc23-7a63-4abe-8410-6ab9a673b6e3",
    "name": "Socorro",
    "state_id": "b6605095-adfa-4f63-a287-645f9ac9856a"
  },
  {
    "id": "a023e584-dd35-41fc-b462-209f6372b019",
    "name": "Sortelha",
    "state_id": "b6605095-adfa-4f63-a287-645f9ac9856a"
  },
  {
    "id": "d5897b64-51b2-4af5-8155-f5bb10809773",
    "name": "Souro Pires",
    "state_id": "b6605095-adfa-4f63-a287-645f9ac9856a"
  },
  {
    "id": "4832170c-78b4-4efb-98af-5a66786698a5",
    "name": "Souto",
    "state_id": "b6605095-adfa-4f63-a287-645f9ac9856a"
  },
  {
    "id": "fbc5f390-33fc-49ca-b71c-46734b8da222",
    "name": "Souto de Aguiar da Beira",
    "state_id": "b6605095-adfa-4f63-a287-645f9ac9856a"
  },
  {
    "id": "26202be1-1ae7-420d-957e-ec568a3c57d1",
    "name": "Souto Maior",
    "state_id": "b6605095-adfa-4f63-a287-645f9ac9856a"
  },
  {
    "id": "95d497eb-99c0-4aa0-9286-c60b3a579b72",
    "name": "Tamanhos",
    "state_id": "b6605095-adfa-4f63-a287-645f9ac9856a"
  },
  {
    "id": "c8090214-ab0e-4d4b-80d2-61a7b9057305",
    "name": "Teixeira",
    "state_id": "b6605095-adfa-4f63-a287-645f9ac9856a"
  },
  {
    "id": "6e7676e6-d4b0-48be-a6a2-fe005544f11a",
    "name": "Terrenho",
    "state_id": "b6605095-adfa-4f63-a287-645f9ac9856a"
  },
  {
    "id": "5aededa2-1bd4-41a1-aec2-8dee78b57e74",
    "name": "Terrugem",
    "state_id": "b6605095-adfa-4f63-a287-645f9ac9856a"
  },
  {
    "id": "10f6c188-b8e8-4510-b457-90a77f52982a",
    "name": "Torre do Terrenho",
    "state_id": "b6605095-adfa-4f63-a287-645f9ac9856a"
  },
  {
    "id": "556f3d74-723d-4515-9b8d-86e0f62a58a1",
    "name": "Torres",
    "state_id": "b6605095-adfa-4f63-a287-645f9ac9856a"
  },
  {
    "id": "91c14125-8d6e-4fd1-bcc6-8fb2d7b3b5f7",
    "name": "Torres Vedras",
    "state_id": "b6605095-adfa-4f63-a287-645f9ac9856a"
  },
  {
    "id": "21ebd0e4-b275-4c4f-9966-8e5e11a8c15a",
    "name": "Torrozelo",
    "state_id": "b6605095-adfa-4f63-a287-645f9ac9856a"
  },
  {
    "id": "9e794c6b-d8c2-445c-8cd4-80006f21e7a0",
    "name": "Touça",
    "state_id": "b6605095-adfa-4f63-a287-645f9ac9856a"
  },
  {
    "id": "c4315cef-c44a-4065-aed9-d4a1da5d171e",
    "name": "Tourais",
    "state_id": "b6605095-adfa-4f63-a287-645f9ac9856a"
  },
  {
    "id": "a8a37c16-46a2-46e6-9f87-89723849fe58",
    "name": "Trancoso",
    "state_id": "b6605095-adfa-4f63-a287-645f9ac9856a"
  },
  {
    "id": "e4141607-6533-4df4-891a-3e7cb185ba31",
    "name": "Travancinha",
    "state_id": "b6605095-adfa-4f63-a287-645f9ac9856a"
  },
  {
    "id": "a04e59a0-a430-4e68-952f-24262e8a9da1",
    "name": "Triana",
    "state_id": "b6605095-adfa-4f63-a287-645f9ac9856a"
  },
  {
    "id": "a0c447a6-edb9-4f4e-b4c9-03ae0ed1e682",
    "name": "Trinta",
    "state_id": "b6605095-adfa-4f63-a287-645f9ac9856a"
  },
  {
    "id": "b18ae407-20fe-49e0-8c03-5a6301c1c12f",
    "name": "Turcifal",
    "state_id": "b6605095-adfa-4f63-a287-645f9ac9856a"
  },
  {
    "id": "467b0306-4a93-4ff5-86c3-ca28ec976342",
    "name": "Unhos",
    "state_id": "b6605095-adfa-4f63-a287-645f9ac9856a"
  },
  {
    "id": "e60aa9bd-51bb-48e5-831a-e575472872cb",
    "name": "Valbom",
    "state_id": "b6605095-adfa-4f63-a287-645f9ac9856a"
  },
  {
    "id": "a6d80a53-fcde-4980-92ea-e61e2dbb44b9",
    "name": "Valdujo",
    "state_id": "b6605095-adfa-4f63-a287-645f9ac9856a"
  },
  {
    "id": "a11baa1d-faed-44d9-a760-5a81b40d8456",
    "name": "Vale da Mula",
    "state_id": "b6605095-adfa-4f63-a287-645f9ac9856a"
  },
  {
    "id": "5751bf1e-3af2-4015-a2f9-4bd0868d692a",
    "name": "Vale de Amoreira",
    "state_id": "b6605095-adfa-4f63-a287-645f9ac9856a"
  },
  {
    "id": "c4042b8a-35d4-4264-ab74-7f7ac84a7404",
    "name": "Vale de Azares",
    "state_id": "b6605095-adfa-4f63-a287-645f9ac9856a"
  },
  {
    "id": "79e4bd26-1b30-45a6-9da1-a890c6df47de",
    "name": "Vale de Espinho",
    "state_id": "b6605095-adfa-4f63-a287-645f9ac9856a"
  },
  {
    "id": "5ec713bd-83dc-42cb-b952-cc9d8b505b21",
    "name": "Vale de Estrela",
    "state_id": "b6605095-adfa-4f63-a287-645f9ac9856a"
  },
  {
    "id": "154911c2-22c6-4216-af9d-ddaa57831b03",
    "name": "Vale do Paraíso",
    "state_id": "b6605095-adfa-4f63-a287-645f9ac9856a"
  },
  {
    "id": "24ad239b-f225-4722-8b0f-7de398f63e98",
    "name": "Vale do Seixo",
    "state_id": "b6605095-adfa-4f63-a287-645f9ac9856a"
  },
  {
    "id": "18c12347-7684-485a-accc-ac56c9bef91f",
    "name": "Vale Flor",
    "state_id": "b6605095-adfa-4f63-a287-645f9ac9856a"
  },
  {
    "id": "50783d6b-77b5-4384-834d-8e3bb9c241c9",
    "name": "Valezim",
    "state_id": "b6605095-adfa-4f63-a287-645f9ac9856a"
  },
  {
    "id": "c0f32a6e-de75-4f68-a9df-8f814d43d0a5",
    "name": "Valhelhas",
    "state_id": "b6605095-adfa-4f63-a287-645f9ac9856a"
  },
  {
    "id": "dd8e532c-26a0-4294-9524-063c84d20cd3",
    "name": "Valverde",
    "state_id": "b6605095-adfa-4f63-a287-645f9ac9856a"
  },
  {
    "id": "041358d9-1b23-4a2d-8efb-f8d3a95c2deb",
    "name": "Várzea de Meruge",
    "state_id": "b6605095-adfa-4f63-a287-645f9ac9856a"
  },
  {
    "id": "69c808f2-2b59-4a6a-aa99-7cec34560f02",
    "name": "Vascoveiro",
    "state_id": "b6605095-adfa-4f63-a287-645f9ac9856a"
  },
  {
    "id": "0fef2e8c-14b6-4719-aa36-0a5ac0818f8f",
    "name": "Vela",
    "state_id": "b6605095-adfa-4f63-a287-645f9ac9856a"
  },
  {
    "id": "268f4f23-6bf2-43ae-a5d5-fefa2f843977",
    "name": "Velosa",
    "state_id": "b6605095-adfa-4f63-a287-645f9ac9856a"
  },
  {
    "id": "80e40d20-74c0-4536-949f-bae189917cce",
    "name": "Venda do Pinheiro",
    "state_id": "b6605095-adfa-4f63-a287-645f9ac9856a"
  },
  {
    "id": "c0b6df3d-53a5-4a6d-9332-8534faea4082",
    "name": "Venda Nova",
    "state_id": "b6605095-adfa-4f63-a287-645f9ac9856a"
  },
  {
    "id": "58daee63-36cd-4e1d-af0b-cc61a04336c4",
    "name": "Venteira",
    "state_id": "b6605095-adfa-4f63-a287-645f9ac9856a"
  },
  {
    "id": "c3fecb6d-302a-4ec8-84d6-bc9b3cbbc218",
    "name": "Ventosa",
    "state_id": "b6605095-adfa-4f63-a287-645f9ac9856a"
  },
  {
    "id": "a46d7200-cbbc-4e30-98b2-ca9243c325ed",
    "name": "Vermelha",
    "state_id": "b6605095-adfa-4f63-a287-645f9ac9856a"
  },
  {
    "id": "7d930c57-ac7c-43fe-b586-6a636843c3e7",
    "name": "Vermiosa",
    "state_id": "b6605095-adfa-4f63-a287-645f9ac9856a"
  },
  {
    "id": "9979a5d8-2712-430b-82b9-c190a9f5a21a",
    "name": "Vialonga",
    "state_id": "b6605095-adfa-4f63-a287-645f9ac9856a"
  },
  {
    "id": "1a6abbd7-b411-4830-a30d-5e2f0cf46e69",
    "name": "Vide",
    "state_id": "b6605095-adfa-4f63-a287-645f9ac9856a"
  },
  {
    "id": "b9b48b04-5b35-46f2-aed2-470b8ab0efb4",
    "name": "Vide Entre Vinhas",
    "state_id": "b6605095-adfa-4f63-a287-645f9ac9856a"
  },
  {
    "id": "a96231a0-8609-4f1e-89ce-26cad34e3628",
    "name": "Videmonte",
    "state_id": "b6605095-adfa-4f63-a287-645f9ac9856a"
  },
  {
    "id": "49177b38-2dd0-41c9-bd77-a180dca01243",
    "name": "Vila Boa",
    "state_id": "b6605095-adfa-4f63-a287-645f9ac9856a"
  },
  {
    "id": "56100f31-f352-40a1-a15a-ecb223c0cdc2",
    "name": "Vila Boa do Mondego",
    "state_id": "b6605095-adfa-4f63-a287-645f9ac9856a"
  },
  {
    "id": "374bb8e7-9021-479f-b16a-bf2668db9d2f",
    "name": "Vila Cortês da Serra",
    "state_id": "b6605095-adfa-4f63-a287-645f9ac9856a"
  },
  {
    "id": "d276ba1d-a5f4-4b79-a863-69dd9aeec498",
    "name": "Vila Cortês do Mondego",
    "state_id": "b6605095-adfa-4f63-a287-645f9ac9856a"
  },
  {
    "id": "4b1785ad-cd21-4207-a796-ad78871ffa4f",
    "name": "Vila Cova à Coelheira",
    "state_id": "b6605095-adfa-4f63-a287-645f9ac9856a"
  },
  {
    "id": "3264e043-512a-47aa-9232-b8981e79c15c",
    "name": "Vila do Touro",
    "state_id": "b6605095-adfa-4f63-a287-645f9ac9856a"
  },
  {
    "id": "c55d0260-ab81-4d36-a244-203fd6b9fbdf",
    "name": "Vila Fernando",
    "state_id": "b6605095-adfa-4f63-a287-645f9ac9856a"
  },
  {
    "id": "46815c0c-a28a-4ed6-8cec-8f47ff8ca431",
    "name": "Vila Franca da Serra",
    "state_id": "b6605095-adfa-4f63-a287-645f9ac9856a"
  },
  {
    "id": "cbe6eb2c-d337-4500-a309-a7a230e8f674",
    "name": "Vila Franca das Naves",
    "state_id": "b6605095-adfa-4f63-a287-645f9ac9856a"
  },
  {
    "id": "0cb21b12-3332-4c3f-bbce-6e6ad2e482c0",
    "name": "Vila Franca de Xira",
    "state_id": "b6605095-adfa-4f63-a287-645f9ac9856a"
  },
  {
    "id": "af0b3eba-f9c1-4e6f-9481-76b2716a172e",
    "name": "Vila Franca do Deão",
    "state_id": "b6605095-adfa-4f63-a287-645f9ac9856a"
  },
  {
    "id": "ab5b0597-5028-4968-a129-99a12fecca7e",
    "name": "Vila Franca do Rosário",
    "state_id": "b6605095-adfa-4f63-a287-645f9ac9856a"
  },
  {
    "id": "73fec445-cd45-4490-9cc9-cbe28f854441",
    "name": "Vila Garcia",
    "state_id": "b6605095-adfa-4f63-a287-645f9ac9856a"
  },
  {
    "id": "1e936d8a-8f28-4659-bd7b-3ca1dcaa217e",
    "name": "Vila Nova da Rainha",
    "state_id": "b6605095-adfa-4f63-a287-645f9ac9856a"
  },
  {
    "id": "970862bd-6dc8-4a87-8ac8-e43ebe914895",
    "name": "Vila Nova de Foz Côa",
    "state_id": "b6605095-adfa-4f63-a287-645f9ac9856a"
  },
  {
    "id": "c16a37cf-cde9-4dbf-af09-eac9c5c32fea",
    "name": "Vila Nova de São Pedro",
    "state_id": "b6605095-adfa-4f63-a287-645f9ac9856a"
  },
  {
    "id": "ab0db74c-bda6-47af-b67e-853d08f2d149",
    "name": "Vila Nova de Tazem",
    "state_id": "b6605095-adfa-4f63-a287-645f9ac9856a"
  },
  {
    "id": "2cdcec52-2eb0-4a17-8ca5-b5f408d39e99",
    "name": "Vila Ruiva",
    "state_id": "b6605095-adfa-4f63-a287-645f9ac9856a"
  },
  {
    "id": "688776a4-9e45-4408-8b8e-757972783d6c",
    "name": "Vila Soeiro do Chão",
    "state_id": "b6605095-adfa-4f63-a287-645f9ac9856a"
  },
  {
    "id": "3bb61dfa-4459-4c14-a5a2-2d7eaf3c9176",
    "name": "Vila Verde",
    "state_id": "b6605095-adfa-4f63-a287-645f9ac9856a"
  },
  {
    "id": "18f98f81-6d03-490a-8f8c-c689545b8ed4",
    "name": "Vila Verde dos Francos",
    "state_id": "b6605095-adfa-4f63-a287-645f9ac9856a"
  },
  {
    "id": "3a15292f-d52a-49e5-bd39-9ea82d72981c",
    "name": "Vilar",
    "state_id": "b6605095-adfa-4f63-a287-645f9ac9856a"
  },
  {
    "id": "60016ff5-48f4-4d30-8123-9a3671df9c9a",
    "name": "Vilar de Amargo",
    "state_id": "b6605095-adfa-4f63-a287-645f9ac9856a"
  },
  {
    "id": "cd47f674-9e49-40f4-9f2a-7060398cf7a2",
    "name": "Vilar Formoso",
    "state_id": "b6605095-adfa-4f63-a287-645f9ac9856a"
  },
  {
    "id": "bf10fc90-d31d-4042-a02b-35698c89fb0f",
    "name": "Vilar Maior",
    "state_id": "b6605095-adfa-4f63-a287-645f9ac9856a"
  },
  {
    "id": "d45f2196-dffd-4c49-9a53-d121a8736bbe",
    "name": "Vilar Torpim",
    "state_id": "b6605095-adfa-4f63-a287-645f9ac9856a"
  },
  {
    "id": "64520e9b-e171-4109-a97d-8eb847f0dcc1",
    "name": "Vilares",
    "state_id": "b6605095-adfa-4f63-a287-645f9ac9856a"
  },
  {
    "id": "5aad9655-f57a-469f-9648-31fb1dfd4607",
    "name": "Vimeiro",
    "state_id": "b6605095-adfa-4f63-a287-645f9ac9856a"
  },
  {
    "id": "f0581e66-ef74-4de0-8130-5db69e889a3f",
    "name": "Vinhó",
    "state_id": "b6605095-adfa-4f63-a287-645f9ac9856a"
  }
]