[
  {
    "id": "a9b63c83-886b-448c-9cc1-8a5f40660178",
    "name": "Kracheh",
    "state_id": "b668a3db-7522-4506-838a-2d46a915e154"
  },
  {
    "id": "2e3a83b7-615a-472d-85b1-2936caeb2b2b",
    "name": "Kratié",
    "state_id": "b668a3db-7522-4506-838a-2d46a915e154"
  },
  {
    "id": "85c2601c-ae99-4186-9f03-c2c10274f4c5",
    "name": "Snuol",
    "state_id": "b668a3db-7522-4506-838a-2d46a915e154"
  }
]