[
  {
    "id": "6c20bd02-c701-4703-ad45-073a4938a01d",
    "name": "Aiquile",
    "state_id": "b6772b5c-b158-45fe-97bf-43c7f338e306"
  },
  {
    "id": "b44ee7a2-4bb4-4958-a33c-04e35331f566",
    "name": "Arani",
    "state_id": "b6772b5c-b158-45fe-97bf-43c7f338e306"
  },
  {
    "id": "2a326a80-2c51-4620-b3bf-54f602d78892",
    "name": "Bolivar",
    "state_id": "b6772b5c-b158-45fe-97bf-43c7f338e306"
  },
  {
    "id": "219528a7-323a-4818-a154-f39e315f544a",
    "name": "Capinota",
    "state_id": "b6772b5c-b158-45fe-97bf-43c7f338e306"
  },
  {
    "id": "302e5559-1621-4270-ac47-c3c87a49de8e",
    "name": "Chimoré",
    "state_id": "b6772b5c-b158-45fe-97bf-43c7f338e306"
  },
  {
    "id": "03273e66-336c-4ed3-94d9-b510c59e1302",
    "name": "Cliza",
    "state_id": "b6772b5c-b158-45fe-97bf-43c7f338e306"
  },
  {
    "id": "7c3a80d2-cc84-4d44-80ca-3416631fe007",
    "name": "Cochabamba",
    "state_id": "b6772b5c-b158-45fe-97bf-43c7f338e306"
  },
  {
    "id": "69054885-1cb1-4ca1-9021-7acc476ee643",
    "name": "Colchani",
    "state_id": "b6772b5c-b158-45fe-97bf-43c7f338e306"
  },
  {
    "id": "9309a2fa-d291-4664-ac64-efa6b4e55fe1",
    "name": "Colomi",
    "state_id": "b6772b5c-b158-45fe-97bf-43c7f338e306"
  },
  {
    "id": "b73c0edf-1e68-4a76-9944-9ecc07432dce",
    "name": "Independencia",
    "state_id": "b6772b5c-b158-45fe-97bf-43c7f338e306"
  },
  {
    "id": "ea63f047-0865-432c-ad9a-f05bcc8fa2a1",
    "name": "Irpa Irpa",
    "state_id": "b6772b5c-b158-45fe-97bf-43c7f338e306"
  },
  {
    "id": "2722ca05-46a4-4fd7-b73c-bc09822aef33",
    "name": "Mizque",
    "state_id": "b6772b5c-b158-45fe-97bf-43c7f338e306"
  },
  {
    "id": "82f82adc-7858-4fb5-adae-e78d0425744e",
    "name": "Provincia Arani",
    "state_id": "b6772b5c-b158-45fe-97bf-43c7f338e306"
  },
  {
    "id": "0016e31c-e26c-4ab9-9c14-254d3ee9d235",
    "name": "Provincia Arque",
    "state_id": "b6772b5c-b158-45fe-97bf-43c7f338e306"
  },
  {
    "id": "6a225fab-49cf-4ea4-8a56-755cbb45b831",
    "name": "Provincia Ayopaya",
    "state_id": "b6772b5c-b158-45fe-97bf-43c7f338e306"
  },
  {
    "id": "1fd412df-4df7-4c90-a746-532613ad5d4b",
    "name": "Provincia Campero",
    "state_id": "b6772b5c-b158-45fe-97bf-43c7f338e306"
  },
  {
    "id": "c6e5bf15-018e-4ef7-8518-4986620ce792",
    "name": "Provincia Capinota",
    "state_id": "b6772b5c-b158-45fe-97bf-43c7f338e306"
  },
  {
    "id": "125bb107-633e-409d-bcef-1c44ec9315d3",
    "name": "Provincia Carrasco",
    "state_id": "b6772b5c-b158-45fe-97bf-43c7f338e306"
  },
  {
    "id": "ccf755e1-a15e-4bce-bfe4-0cdba8db1238",
    "name": "Provincia Cercado",
    "state_id": "b6772b5c-b158-45fe-97bf-43c7f338e306"
  },
  {
    "id": "dd69f9cf-03a9-468a-99dc-df1c786eca29",
    "name": "Provincia Chaparé",
    "state_id": "b6772b5c-b158-45fe-97bf-43c7f338e306"
  },
  {
    "id": "3b79f028-5bef-49ff-97c3-005190cda92f",
    "name": "Provincia Esteban Arce",
    "state_id": "b6772b5c-b158-45fe-97bf-43c7f338e306"
  },
  {
    "id": "093da65c-d8fe-43ec-80e6-8caefd23dbd0",
    "name": "Provincia Germán Jordán",
    "state_id": "b6772b5c-b158-45fe-97bf-43c7f338e306"
  },
  {
    "id": "1d59e4e5-5520-4a56-ae22-48145a48038f",
    "name": "Provincia Mizque",
    "state_id": "b6772b5c-b158-45fe-97bf-43c7f338e306"
  },
  {
    "id": "af8f486a-40e8-4a88-95ce-31b7ea429935",
    "name": "Provincia Punata",
    "state_id": "b6772b5c-b158-45fe-97bf-43c7f338e306"
  },
  {
    "id": "e9bbf7f8-5e05-44ce-88ab-93c8bcf2867b",
    "name": "Provincia Quillacollo",
    "state_id": "b6772b5c-b158-45fe-97bf-43c7f338e306"
  },
  {
    "id": "439959e5-1f95-4d03-9037-3997ace17cd4",
    "name": "Provincia Tapacarí",
    "state_id": "b6772b5c-b158-45fe-97bf-43c7f338e306"
  },
  {
    "id": "e0bf22a2-7c2f-4c11-bdea-1dda272f339d",
    "name": "Punata",
    "state_id": "b6772b5c-b158-45fe-97bf-43c7f338e306"
  },
  {
    "id": "e0aa801a-67cb-4382-8764-4268e6fd01ed",
    "name": "Quillacollo",
    "state_id": "b6772b5c-b158-45fe-97bf-43c7f338e306"
  },
  {
    "id": "c6708379-6359-48e5-ae9b-e1279a371754",
    "name": "Sacaba",
    "state_id": "b6772b5c-b158-45fe-97bf-43c7f338e306"
  },
  {
    "id": "eec0817c-02d6-4b13-9aeb-781e9ecb0d37",
    "name": "Sipe Sipe",
    "state_id": "b6772b5c-b158-45fe-97bf-43c7f338e306"
  },
  {
    "id": "659556c7-2da6-4dbc-b010-995963f6bae1",
    "name": "Tarata",
    "state_id": "b6772b5c-b158-45fe-97bf-43c7f338e306"
  },
  {
    "id": "12c971e3-118d-4d3b-9df7-c2936617dc0e",
    "name": "Tiquipaya",
    "state_id": "b6772b5c-b158-45fe-97bf-43c7f338e306"
  },
  {
    "id": "5d6f6473-93b4-43cc-a777-0867559c561e",
    "name": "Tiraque Province",
    "state_id": "b6772b5c-b158-45fe-97bf-43c7f338e306"
  },
  {
    "id": "8f0f6c47-e236-46c9-aa7d-1e856561555a",
    "name": "Totora",
    "state_id": "b6772b5c-b158-45fe-97bf-43c7f338e306"
  }
]