[
  {
    "id": "8014a299-a860-48cb-b54e-58f6243287d0",
    "name": "Arashiyama",
    "state_id": "b6abe019-769e-43be-8b6e-75c2ea5fbcf7"
  },
  {
    "id": "5fbacbca-fb9c-437e-a65f-befe7a254a46",
    "name": "Ayabe",
    "state_id": "b6abe019-769e-43be-8b6e-75c2ea5fbcf7"
  },
  {
    "id": "a0fb7339-a437-4b97-85d1-3b1da925e953",
    "name": "Ayabe-shi",
    "state_id": "b6abe019-769e-43be-8b6e-75c2ea5fbcf7"
  },
  {
    "id": "e157425d-faaa-49cd-9322-3a68b9cf4dd2",
    "name": "Fukuchiyama-shi",
    "state_id": "b6abe019-769e-43be-8b6e-75c2ea5fbcf7"
  },
  {
    "id": "9af9da3f-9707-48c3-993e-1de61cd5f3c2",
    "name": "Jōyō Shi",
    "state_id": "b6abe019-769e-43be-8b6e-75c2ea5fbcf7"
  },
  {
    "id": "345cfd92-e838-4ba1-bee4-211acc70e551",
    "name": "Kameoka",
    "state_id": "b6abe019-769e-43be-8b6e-75c2ea5fbcf7"
  },
  {
    "id": "03caf89a-e90a-4e79-88ae-2556dc2f3bd4",
    "name": "Kameoka-shi",
    "state_id": "b6abe019-769e-43be-8b6e-75c2ea5fbcf7"
  },
  {
    "id": "a402d7b0-8928-4cc7-bdb0-a6477c8fb382",
    "name": "Kamigyō-ku",
    "state_id": "b6abe019-769e-43be-8b6e-75c2ea5fbcf7"
  },
  {
    "id": "727227cf-35e0-401f-aff3-2340d2c453fb",
    "name": "Kizugawa-shi",
    "state_id": "b6abe019-769e-43be-8b6e-75c2ea5fbcf7"
  },
  {
    "id": "856483ba-5a20-4c69-8813-588b94269eac",
    "name": "Kyōtanabe Shi",
    "state_id": "b6abe019-769e-43be-8b6e-75c2ea5fbcf7"
  },
  {
    "id": "eb4c5295-dcc9-4ef8-be54-63319e093c12",
    "name": "Kyōtango-shi",
    "state_id": "b6abe019-769e-43be-8b6e-75c2ea5fbcf7"
  },
  {
    "id": "29b79974-88a8-4687-95a3-1cb5a77a486b",
    "name": "Kyoto",
    "state_id": "b6abe019-769e-43be-8b6e-75c2ea5fbcf7"
  },
  {
    "id": "9d04b399-9620-4875-a7eb-d1a1cafbe9ed",
    "name": "Maizuru",
    "state_id": "b6abe019-769e-43be-8b6e-75c2ea5fbcf7"
  },
  {
    "id": "14d74cb9-6310-4265-bd2a-2074829b5609",
    "name": "Maizuru-shi",
    "state_id": "b6abe019-769e-43be-8b6e-75c2ea5fbcf7"
  },
  {
    "id": "ccc21065-c8d1-4547-a5ec-1617cb52101b",
    "name": "Miyazu",
    "state_id": "b6abe019-769e-43be-8b6e-75c2ea5fbcf7"
  },
  {
    "id": "19f5ac08-33e4-44e5-a736-a47d7030647a",
    "name": "Miyazu-shi",
    "state_id": "b6abe019-769e-43be-8b6e-75c2ea5fbcf7"
  },
  {
    "id": "e6b0e14d-1746-4631-9d62-6aa20d871f9a",
    "name": "Mukō Shi",
    "state_id": "b6abe019-769e-43be-8b6e-75c2ea5fbcf7"
  },
  {
    "id": "05c95b8c-8f6a-4dd1-b287-bbecc883b1a9",
    "name": "Nagaokakyō Shi",
    "state_id": "b6abe019-769e-43be-8b6e-75c2ea5fbcf7"
  },
  {
    "id": "32fd1065-2d79-47eb-8b4a-629774079e30",
    "name": "Nantan-shi",
    "state_id": "b6abe019-769e-43be-8b6e-75c2ea5fbcf7"
  },
  {
    "id": "8f7bc167-d399-4b0e-b978-e469062c2b5b",
    "name": "Tanabe",
    "state_id": "b6abe019-769e-43be-8b6e-75c2ea5fbcf7"
  },
  {
    "id": "6feb588a-3958-4c5c-9185-f277e695392b",
    "name": "Uji",
    "state_id": "b6abe019-769e-43be-8b6e-75c2ea5fbcf7"
  },
  {
    "id": "870ede54-7197-4f95-a3bd-0dea632f79c1",
    "name": "Uji Shi",
    "state_id": "b6abe019-769e-43be-8b6e-75c2ea5fbcf7"
  },
  {
    "id": "2f067e52-34da-4689-b739-45744ad7ab63",
    "name": "Yawata",
    "state_id": "b6abe019-769e-43be-8b6e-75c2ea5fbcf7"
  },
  {
    "id": "5957edbf-c0a1-4789-9311-46c067718744",
    "name": "Yawata Shi",
    "state_id": "b6abe019-769e-43be-8b6e-75c2ea5fbcf7"
  }
]