[
  {
    "id": "cae26073-4367-4fa9-ba1e-8ea57fbf1eca",
    "name": "Dryanovo",
    "state_id": "b6ca8d84-297d-4d75-b0f6-7d8f6f76340c"
  },
  {
    "id": "7716c4d4-2719-4bd0-a0eb-6ccd4bbf5c49",
    "name": "Gabrovo",
    "state_id": "b6ca8d84-297d-4d75-b0f6-7d8f6f76340c"
  },
  {
    "id": "8b4e768d-6a38-45b7-848a-d366a9a613a0",
    "name": "Obshtina Dryanovo",
    "state_id": "b6ca8d84-297d-4d75-b0f6-7d8f6f76340c"
  },
  {
    "id": "b22183ae-ba8e-40f1-80f4-c4abfb3d0add",
    "name": "Obshtina Gabrovo",
    "state_id": "b6ca8d84-297d-4d75-b0f6-7d8f6f76340c"
  },
  {
    "id": "b7a1de1f-39d2-4670-b731-172f502b6275",
    "name": "Obshtina Sevlievo",
    "state_id": "b6ca8d84-297d-4d75-b0f6-7d8f6f76340c"
  },
  {
    "id": "97e9e619-36d2-4522-8f5c-425f8dd1d906",
    "name": "Obshtina Tryavna",
    "state_id": "b6ca8d84-297d-4d75-b0f6-7d8f6f76340c"
  },
  {
    "id": "8febf649-4bd7-49b0-a539-cdf4c5cdf38f",
    "name": "Sevlievo",
    "state_id": "b6ca8d84-297d-4d75-b0f6-7d8f6f76340c"
  },
  {
    "id": "eba5b39f-f3cb-49c8-921f-e4ace294c852",
    "name": "Tryavna",
    "state_id": "b6ca8d84-297d-4d75-b0f6-7d8f6f76340c"
  }
]