[
  {
    "id": "bde5f57a-6ac5-44f7-aaba-b010faf66f31",
    "name": "Akçakoca",
    "state_id": "b6fd33c6-13ce-49d6-9ae3-00e62d7d775e"
  },
  {
    "id": "848027b6-c35e-451f-98f1-4a38747ea2d5",
    "name": "Çilimli İlçesi",
    "state_id": "b6fd33c6-13ce-49d6-9ae3-00e62d7d775e"
  },
  {
    "id": "5c80bdb7-b8ed-43fd-9e4d-a2fdb14e62ca",
    "name": "Cumayeri İlçesi",
    "state_id": "b6fd33c6-13ce-49d6-9ae3-00e62d7d775e"
  },
  {
    "id": "6c293bb8-5499-4d0d-96b8-418dd5cb5f8e",
    "name": "Düzce",
    "state_id": "b6fd33c6-13ce-49d6-9ae3-00e62d7d775e"
  },
  {
    "id": "45f3012c-b954-4375-8539-d0784bccb098",
    "name": "Gölyaka İlçesi",
    "state_id": "b6fd33c6-13ce-49d6-9ae3-00e62d7d775e"
  },
  {
    "id": "9a2f7dcc-b8b8-495c-bb08-b1c1e55ba8b4",
    "name": "Gümüşova İlçesi",
    "state_id": "b6fd33c6-13ce-49d6-9ae3-00e62d7d775e"
  },
  {
    "id": "19374458-126c-4fd6-a804-3f0d0b418c7e",
    "name": "Kaynaşlı İlçesi",
    "state_id": "b6fd33c6-13ce-49d6-9ae3-00e62d7d775e"
  },
  {
    "id": "91021bda-e82d-4563-b43b-f1c63989eecb",
    "name": "Yığılca İlçesi",
    "state_id": "b6fd33c6-13ce-49d6-9ae3-00e62d7d775e"
  }
]