[
  {
    "id": "a9dd2d81-20ad-497c-a312-0f3f58d9f16b",
    "name": "Ar Rumaythah",
    "state_id": "b74a4d4b-b3bd-4928-89dc-883ffa183777"
  },
  {
    "id": "50829ac5-ec10-4d83-bf25-d270227a5f71",
    "name": "As Samawah",
    "state_id": "b74a4d4b-b3bd-4928-89dc-883ffa183777"
  }
]