[
  {
    "id": "d766d9d1-5c51-4bbe-8f0c-35914286d22a",
    "name": "Acajutla",
    "state_id": "b7a8e386-0385-45e4-a0c0-380baf734fa5"
  },
  {
    "id": "51409533-3794-4be3-b48b-6bb319c31814",
    "name": "Armenia",
    "state_id": "b7a8e386-0385-45e4-a0c0-380baf734fa5"
  },
  {
    "id": "c1ef4bf4-8399-429e-a42f-ac36a5fef1c9",
    "name": "Izalco",
    "state_id": "b7a8e386-0385-45e4-a0c0-380baf734fa5"
  },
  {
    "id": "063f4957-c0cb-4723-b23a-c48a3d33fd84",
    "name": "Juayúa",
    "state_id": "b7a8e386-0385-45e4-a0c0-380baf734fa5"
  },
  {
    "id": "789a0356-23cb-49f9-a3a5-456d90ff81c1",
    "name": "Nahuizalco",
    "state_id": "b7a8e386-0385-45e4-a0c0-380baf734fa5"
  },
  {
    "id": "cb857633-5120-47aa-9b71-a4988c92ddbf",
    "name": "San Antonio del Monte",
    "state_id": "b7a8e386-0385-45e4-a0c0-380baf734fa5"
  },
  {
    "id": "26882c28-6ce5-401f-bc84-6902ff2cc4e0",
    "name": "Sonsonate",
    "state_id": "b7a8e386-0385-45e4-a0c0-380baf734fa5"
  },
  {
    "id": "7395f775-0d66-4c38-9fd4-144c7d0eed54",
    "name": "Sonzacate",
    "state_id": "b7a8e386-0385-45e4-a0c0-380baf734fa5"
  }
]