[
  {
    "id": "173b1b9f-6d7a-4ad3-819d-dec8f792f2c2",
    "name": "Bolama",
    "state_id": "b7ccdb95-86af-4993-950a-85b8c3e32e9c"
  },
  {
    "id": "6733e4cc-f6e0-4b49-b03b-e60e4b1bfaaf",
    "name": "Bubaque",
    "state_id": "b7ccdb95-86af-4993-950a-85b8c3e32e9c"
  }
]