[
  {
    "id": "9d815482-c828-478e-941c-2808f7fce26d",
    "name": "Cahul",
    "state_id": "b8913f89-baf0-4172-88cd-c6cfe03817f4"
  },
  {
    "id": "be40c2ac-3670-4204-b766-26672a87e624",
    "name": "Giurgiuleşti",
    "state_id": "b8913f89-baf0-4172-88cd-c6cfe03817f4"
  }
]