[
  {
    "id": "bcde38ca-cfda-4df5-a989-ef2c781113dd",
    "name": "Golubovci",
    "state_id": "b8a50502-14bb-4933-9108-b54729dc487b"
  },
  {
    "id": "d3338b31-b93a-469a-9cbe-cd1c62b56556",
    "name": "Goričani",
    "state_id": "b8a50502-14bb-4933-9108-b54729dc487b"
  },
  {
    "id": "4729d496-6b95-4fdc-b12b-0596a401e0cf",
    "name": "Mataguži",
    "state_id": "b8a50502-14bb-4933-9108-b54729dc487b"
  },
  {
    "id": "022f465b-7859-45db-a477-b5bc478f49b7",
    "name": "Mojanovići",
    "state_id": "b8a50502-14bb-4933-9108-b54729dc487b"
  },
  {
    "id": "0343643b-ba30-4a74-a607-e9bb6aae6350",
    "name": "Podgorica",
    "state_id": "b8a50502-14bb-4933-9108-b54729dc487b"
  },
  {
    "id": "9210b629-316d-4b8a-a1e6-baecdd1b9469",
    "name": "Tuzi",
    "state_id": "b8a50502-14bb-4933-9108-b54729dc487b"
  }
]