[
  {
    "id": "c13151e4-b385-425d-8f00-234fcb574ddd",
    "name": "Providencia",
    "state_id": "bab93392-9df8-4969-ab0f-9288fc4ac0ad"
  },
  {
    "id": "ad1a27e7-8977-4673-8cf4-fc8c68490c24",
    "name": "San Andrés",
    "state_id": "bab93392-9df8-4969-ab0f-9288fc4ac0ad"
  }
]