[
  {
    "id": "79dae39f-4c31-4ef9-83cf-fd485f158b9f",
    "name": "Allen",
    "state_id": "bac762e6-affc-4d78-a731-0943b802bcf6"
  },
  {
    "id": "0bdec904-52f8-441d-b2fc-6a7e38010891",
    "name": "Catriel",
    "state_id": "bac762e6-affc-4d78-a731-0943b802bcf6"
  },
  {
    "id": "8b339702-4853-4562-a692-a8fe776994b7",
    "name": "Cervantes",
    "state_id": "bac762e6-affc-4d78-a731-0943b802bcf6"
  },
  {
    "id": "6cf9e524-6742-4314-9607-e792fe0501da",
    "name": "Chichinales",
    "state_id": "bac762e6-affc-4d78-a731-0943b802bcf6"
  },
  {
    "id": "82cae5b9-801b-4138-87d7-adc3a7b7b171",
    "name": "Chimpay",
    "state_id": "bac762e6-affc-4d78-a731-0943b802bcf6"
  },
  {
    "id": "501ccade-bc18-4323-90cd-a2f6507cd41d",
    "name": "Choele Choel",
    "state_id": "bac762e6-affc-4d78-a731-0943b802bcf6"
  },
  {
    "id": "fdf2e3f9-698f-4ea7-b252-3c0b566e3793",
    "name": "Cinco Saltos",
    "state_id": "bac762e6-affc-4d78-a731-0943b802bcf6"
  },
  {
    "id": "4295a0ac-e47f-4952-8d73-360ac9f717fc",
    "name": "Cipolletti",
    "state_id": "bac762e6-affc-4d78-a731-0943b802bcf6"
  },
  {
    "id": "b326db5a-a1ef-4868-9cc3-edb19f1105bb",
    "name": "Comallo",
    "state_id": "bac762e6-affc-4d78-a731-0943b802bcf6"
  },
  {
    "id": "5ab4a81f-99fd-4373-bf75-222ea4cc28c3",
    "name": "Contraalmirante Cordero",
    "state_id": "bac762e6-affc-4d78-a731-0943b802bcf6"
  },
  {
    "id": "1081d1c2-44b0-4887-9ec2-d7801374d1fe",
    "name": "Coronel Belisle",
    "state_id": "bac762e6-affc-4d78-a731-0943b802bcf6"
  },
  {
    "id": "8cdd28f8-daba-475c-b016-44946ec3651a",
    "name": "Darwin",
    "state_id": "bac762e6-affc-4d78-a731-0943b802bcf6"
  },
  {
    "id": "d0e3e49b-b479-46a6-af90-b49afbc4b4ad",
    "name": "Departamento de Avellaneda",
    "state_id": "bac762e6-affc-4d78-a731-0943b802bcf6"
  },
  {
    "id": "3330621e-4bca-452c-a2c2-9505902f143e",
    "name": "Departamento de Veinticinco de Mayo",
    "state_id": "bac762e6-affc-4d78-a731-0943b802bcf6"
  },
  {
    "id": "8044f323-2cb5-4749-86d7-f55db8fc000a",
    "name": "El Bolsón",
    "state_id": "bac762e6-affc-4d78-a731-0943b802bcf6"
  },
  {
    "id": "cc6821c3-54ce-447f-b7a4-bda4a2e43c6d",
    "name": "El Cuy",
    "state_id": "bac762e6-affc-4d78-a731-0943b802bcf6"
  },
  {
    "id": "6dfced41-6fa1-4ccf-8353-3d33467b916a",
    "name": "Fray Luis Beltrán",
    "state_id": "bac762e6-affc-4d78-a731-0943b802bcf6"
  },
  {
    "id": "93374478-b684-417a-98e9-741ad7b7f720",
    "name": "General Conesa",
    "state_id": "bac762e6-affc-4d78-a731-0943b802bcf6"
  },
  {
    "id": "e0a0c673-df67-4419-9acf-c9dc1d7ac74b",
    "name": "General Enrique Godoy",
    "state_id": "bac762e6-affc-4d78-a731-0943b802bcf6"
  },
  {
    "id": "a2ab7ccf-4c61-4934-b79f-d2fc10d2f4fd",
    "name": "General Fernández Oro",
    "state_id": "bac762e6-affc-4d78-a731-0943b802bcf6"
  },
  {
    "id": "c478f880-eb20-4cfc-a8d0-b993b3cb683d",
    "name": "General Roca",
    "state_id": "bac762e6-affc-4d78-a731-0943b802bcf6"
  },
  {
    "id": "1750604d-1763-4438-9c6c-d7a8a5035ac8",
    "name": "Ingeniero Jacobacci",
    "state_id": "bac762e6-affc-4d78-a731-0943b802bcf6"
  },
  {
    "id": "9130ab3b-d7fb-4da8-8440-6f9058f78cbf",
    "name": "Ingeniero Luis A. Huergo",
    "state_id": "bac762e6-affc-4d78-a731-0943b802bcf6"
  },
  {
    "id": "e2aded43-4d20-49a5-a49a-3bcd7db06d73",
    "name": "Lamarque",
    "state_id": "bac762e6-affc-4d78-a731-0943b802bcf6"
  },
  {
    "id": "7a0ce5a4-6167-4f3a-9c43-ab9f3da25151",
    "name": "Los Menucos",
    "state_id": "bac762e6-affc-4d78-a731-0943b802bcf6"
  },
  {
    "id": "a840ccfd-937b-4a7d-9ec9-0f5f11fe2659",
    "name": "Mainque",
    "state_id": "bac762e6-affc-4d78-a731-0943b802bcf6"
  },
  {
    "id": "2dc597dd-6907-4748-b1a2-087c46601190",
    "name": "Maquinchao",
    "state_id": "bac762e6-affc-4d78-a731-0943b802bcf6"
  },
  {
    "id": "1b5e0f72-9b9d-41dc-a319-4bfc284d80a4",
    "name": "Ñorquinco",
    "state_id": "bac762e6-affc-4d78-a731-0943b802bcf6"
  },
  {
    "id": "53be1307-1b44-4e4c-92c6-9dc4c8e8d80b",
    "name": "Pilcaniyeu",
    "state_id": "bac762e6-affc-4d78-a731-0943b802bcf6"
  },
  {
    "id": "d51ed551-bde1-4acb-a3ef-93a0ae5a7d8f",
    "name": "Río Colorado",
    "state_id": "bac762e6-affc-4d78-a731-0943b802bcf6"
  },
  {
    "id": "426a7293-752a-4b71-b0b0-12cf1e76fb2b",
    "name": "San Antonio Oeste",
    "state_id": "bac762e6-affc-4d78-a731-0943b802bcf6"
  },
  {
    "id": "509f2272-e69c-42f2-9e80-fde2c8424df4",
    "name": "San Carlos de Bariloche",
    "state_id": "bac762e6-affc-4d78-a731-0943b802bcf6"
  },
  {
    "id": "7df75349-afca-40e8-bcd5-6e437fbd018c",
    "name": "Sierra Colorada",
    "state_id": "bac762e6-affc-4d78-a731-0943b802bcf6"
  },
  {
    "id": "076b615d-4d3a-4336-b676-0446f160e9cc",
    "name": "Sierra Grande",
    "state_id": "bac762e6-affc-4d78-a731-0943b802bcf6"
  },
  {
    "id": "2bf8de45-9e03-422c-9f42-16cf65b8e9ff",
    "name": "Valcheta",
    "state_id": "bac762e6-affc-4d78-a731-0943b802bcf6"
  },
  {
    "id": "3493b664-3358-484e-a606-829e023a36ec",
    "name": "Viedma",
    "state_id": "bac762e6-affc-4d78-a731-0943b802bcf6"
  },
  {
    "id": "8c258bb4-60d0-4c3f-b165-890f62ec62c7",
    "name": "Villa Regina",
    "state_id": "bac762e6-affc-4d78-a731-0943b802bcf6"
  }
]