[
  {
    "id": "45ce29bd-6542-442d-9ed8-585047f4bc40",
    "name": "Amphoe Akat Amnuai",
    "state_id": "bb0546c2-baea-4075-ab56-6fb478d3abc1"
  },
  {
    "id": "7e8c2985-607b-42e6-99cb-706c66105b05",
    "name": "Amphoe Ban Muang",
    "state_id": "bb0546c2-baea-4075-ab56-6fb478d3abc1"
  },
  {
    "id": "466112ac-8c33-472f-a343-56870dae65b7",
    "name": "Amphoe Charoen Sin",
    "state_id": "bb0546c2-baea-4075-ab56-6fb478d3abc1"
  },
  {
    "id": "acc2f5b9-b7c9-4f06-a6d9-49c2c1eefb94",
    "name": "Amphoe Kham Ta Kla",
    "state_id": "bb0546c2-baea-4075-ab56-6fb478d3abc1"
  },
  {
    "id": "8df32b95-ebea-4ac0-aa03-2503da45eef8",
    "name": "Amphoe Khok Si Suphan",
    "state_id": "bb0546c2-baea-4075-ab56-6fb478d3abc1"
  },
  {
    "id": "42626c07-6e0c-48c8-a98d-1a51b983a49c",
    "name": "Amphoe Kusuman",
    "state_id": "bb0546c2-baea-4075-ab56-6fb478d3abc1"
  },
  {
    "id": "5bf0dfa4-72f1-4d99-a479-d4ac24c6e27c",
    "name": "Amphoe Kut Bak",
    "state_id": "bb0546c2-baea-4075-ab56-6fb478d3abc1"
  },
  {
    "id": "3d931a78-2b07-4460-bc9f-bb70f79114f8",
    "name": "Amphoe Mueang Sakon Nakhon",
    "state_id": "bb0546c2-baea-4075-ab56-6fb478d3abc1"
  },
  {
    "id": "839be55b-0a51-47ae-a116-42ebc18ed1c8",
    "name": "Amphoe Nikhom Nam Un",
    "state_id": "bb0546c2-baea-4075-ab56-6fb478d3abc1"
  },
  {
    "id": "993b1074-8dc3-4d36-a7d0-b7fbff6a77e9",
    "name": "Amphoe Phang Khon",
    "state_id": "bb0546c2-baea-4075-ab56-6fb478d3abc1"
  },
  {
    "id": "9bdab471-96cb-409d-baf6-5cf45400fad5",
    "name": "Amphoe Phanna Nikhom",
    "state_id": "bb0546c2-baea-4075-ab56-6fb478d3abc1"
  },
  {
    "id": "bcb79031-c9d4-45f1-96d4-0718e01fd73a",
    "name": "Amphoe Phon Na Kaeo",
    "state_id": "bb0546c2-baea-4075-ab56-6fb478d3abc1"
  },
  {
    "id": "5d527f2d-6670-4ad3-8aa7-53aeb2911afc",
    "name": "Amphoe Phu Phan",
    "state_id": "bb0546c2-baea-4075-ab56-6fb478d3abc1"
  },
  {
    "id": "46550819-5d9d-4824-80d3-b52bdd28d8f7",
    "name": "Amphoe Sawang Daen Din",
    "state_id": "bb0546c2-baea-4075-ab56-6fb478d3abc1"
  },
  {
    "id": "75e19c8c-bba3-47f1-9cfa-dbf14cdd91f0",
    "name": "Amphoe Song Dao",
    "state_id": "bb0546c2-baea-4075-ab56-6fb478d3abc1"
  },
  {
    "id": "84e58eb9-c48d-4729-a1b0-c7c16e84e369",
    "name": "Amphoe Tao Ngoi",
    "state_id": "bb0546c2-baea-4075-ab56-6fb478d3abc1"
  },
  {
    "id": "6e839443-e2cc-4455-9322-7ca364216964",
    "name": "Amphoe Wanon Niwat",
    "state_id": "bb0546c2-baea-4075-ab56-6fb478d3abc1"
  },
  {
    "id": "de68b8f5-9cea-4d80-a400-cfed012a906c",
    "name": "Amphoe Waritchaphum",
    "state_id": "bb0546c2-baea-4075-ab56-6fb478d3abc1"
  },
  {
    "id": "664e21dc-c74c-4ff7-b74e-221dbe447926",
    "name": "Sakon Nakhon",
    "state_id": "bb0546c2-baea-4075-ab56-6fb478d3abc1"
  },
  {
    "id": "74d4b31e-e17b-422a-b37d-9d00068609ff",
    "name": "Sawang Daen Din",
    "state_id": "bb0546c2-baea-4075-ab56-6fb478d3abc1"
  }
]