[
  {
    "id": "8019c1ad-c1d2-4748-9a7c-7fd24ddfbb18",
    "name": "Elbeyli",
    "state_id": "bb8ced52-222e-4b77-a7aa-5be343869f92"
  },
  {
    "id": "fecd3332-8d0a-4ad8-82ef-32bcc67805d7",
    "name": "Kilis",
    "state_id": "bb8ced52-222e-4b77-a7aa-5be343869f92"
  },
  {
    "id": "a30a7712-8d27-46bd-82ee-7c43f46e3a7d",
    "name": "Musabeyli",
    "state_id": "bb8ced52-222e-4b77-a7aa-5be343869f92"
  },
  {
    "id": "bbfc0f60-5fb0-4ec8-bdfb-f66d3f7c4d20",
    "name": "Polateli İlçesi",
    "state_id": "bb8ced52-222e-4b77-a7aa-5be343869f92"
  }
]