[
  {
    "id": "2d638ecd-394a-4484-827f-97a467ac1e49",
    "name": "Asunafo North",
    "state_id": "bba77d82-08eb-43d9-8895-fab89fcb5d08"
  },
  {
    "id": "85713045-7514-4904-bbdd-efd4d956397a",
    "name": "Asunafo South",
    "state_id": "bba77d82-08eb-43d9-8895-fab89fcb5d08"
  },
  {
    "id": "9d50da2e-0c8f-451f-afab-b7f1c9b69776",
    "name": "Asutifi North",
    "state_id": "bba77d82-08eb-43d9-8895-fab89fcb5d08"
  },
  {
    "id": "55b74dd1-5181-4842-86af-165d838fc5b3",
    "name": "Asutifi South",
    "state_id": "bba77d82-08eb-43d9-8895-fab89fcb5d08"
  },
  {
    "id": "4f530ca1-3437-4e2b-81a6-04521f1c635c",
    "name": "Tano North",
    "state_id": "bba77d82-08eb-43d9-8895-fab89fcb5d08"
  },
  {
    "id": "06d21dca-4600-44d4-a512-289b665bf095",
    "name": "Tano South",
    "state_id": "bba77d82-08eb-43d9-8895-fab89fcb5d08"
  }
]