[
  {
    "id": "680afd99-c1c9-4552-92ea-9170d0746694",
    "name": "Bukonyo",
    "state_id": "bbcb0c62-acd5-4bbc-be77-990655036beb"
  },
  {
    "id": "45a11682-b6a8-4649-8c61-5c0d15cf5529",
    "name": "Butiama",
    "state_id": "bbcb0c62-acd5-4bbc-be77-990655036beb"
  },
  {
    "id": "b6e418a7-2d5f-49b2-a12b-a754bbf4888d",
    "name": "Issenye",
    "state_id": "bbcb0c62-acd5-4bbc-be77-990655036beb"
  },
  {
    "id": "719ee673-2a66-4f0f-a2ac-88d3d62c8346",
    "name": "Kibara",
    "state_id": "bbcb0c62-acd5-4bbc-be77-990655036beb"
  },
  {
    "id": "31edd63b-fc07-4a09-b115-7419875d4657",
    "name": "Mugango",
    "state_id": "bbcb0c62-acd5-4bbc-be77-990655036beb"
  },
  {
    "id": "ba1f363f-a189-4dad-bcfb-bad5e5647bd5",
    "name": "Mugumu",
    "state_id": "bbcb0c62-acd5-4bbc-be77-990655036beb"
  },
  {
    "id": "5afb34c8-2351-4146-852f-7334d8aa2a90",
    "name": "Muriti",
    "state_id": "bbcb0c62-acd5-4bbc-be77-990655036beb"
  },
  {
    "id": "a9021a22-16c1-4fa1-bcde-90a93b44314f",
    "name": "Musoma",
    "state_id": "bbcb0c62-acd5-4bbc-be77-990655036beb"
  },
  {
    "id": "53c82b23-b71d-4532-9cfd-8965f2db982d",
    "name": "Nakatunguru",
    "state_id": "bbcb0c62-acd5-4bbc-be77-990655036beb"
  },
  {
    "id": "5f227445-0d99-46b1-8e5c-5ab43184ff30",
    "name": "Nansio",
    "state_id": "bbcb0c62-acd5-4bbc-be77-990655036beb"
  },
  {
    "id": "8c7f522a-9003-4ad3-9e67-7c16ad94c757",
    "name": "Nyamuswa",
    "state_id": "bbcb0c62-acd5-4bbc-be77-990655036beb"
  },
  {
    "id": "de7b906e-1c66-4249-8fbe-cfb2b12519bb",
    "name": "Sirari",
    "state_id": "bbcb0c62-acd5-4bbc-be77-990655036beb"
  }
]