[
  {
    "id": "93d05a6a-c8d8-4c28-a2fe-fcacd2b9d3e4",
    "name": "Martakert",
    "state_id": "bbd474b5-79f2-4723-8731-a65cc45db66e"
  },
  {
    "id": "2cb60fcd-b049-4e3d-85ff-c23511dbb5a4",
    "name": "Terter",
    "state_id": "bbd474b5-79f2-4723-8731-a65cc45db66e"
  }
]