[
  {
    "id": "34de8a7a-f7cb-4e68-adc5-2a6bd42877f1",
    "name": "Brežice",
    "state_id": "bbedb964-72b4-492f-a2fd-fe94c2013efa"
  },
  {
    "id": "663b54a9-332c-45d8-8b47-74ab42953e3c",
    "name": "Poljčane",
    "state_id": "bbedb964-72b4-492f-a2fd-fe94c2013efa"
  }
]