[
  {
    "id": "ad67ad4b-aeb0-4031-869a-93dc8f28bc2e",
    "name": "Amphoe Ban Bueng",
    "state_id": "bc2d4c15-23a0-44bd-8615-03a426092cb5"
  },
  {
    "id": "1723445e-558d-4283-87fc-5701977e6a65",
    "name": "Amphoe Bo Thong",
    "state_id": "bc2d4c15-23a0-44bd-8615-03a426092cb5"
  },
  {
    "id": "57070610-c785-486b-919a-586b94adb9e6",
    "name": "Amphoe Ko Chan",
    "state_id": "bc2d4c15-23a0-44bd-8615-03a426092cb5"
  },
  {
    "id": "c7f47479-d8c0-4696-bb82-9529fad54674",
    "name": "Amphoe Ko Si Chang",
    "state_id": "bc2d4c15-23a0-44bd-8615-03a426092cb5"
  },
  {
    "id": "8a6cd085-2d80-4a13-a928-596027864e0c",
    "name": "Amphoe Nong Yai",
    "state_id": "bc2d4c15-23a0-44bd-8615-03a426092cb5"
  },
  {
    "id": "fc756007-9225-4260-b63a-1f0b22ec17cb",
    "name": "Amphoe Phan Thong",
    "state_id": "bc2d4c15-23a0-44bd-8615-03a426092cb5"
  },
  {
    "id": "7253cfc3-4493-4161-baea-811e6fd713b8",
    "name": "Amphoe Phanat Nikhom",
    "state_id": "bc2d4c15-23a0-44bd-8615-03a426092cb5"
  },
  {
    "id": "10634c2e-988c-4feb-896d-9eb6c403293c",
    "name": "Amphoe Sattahip",
    "state_id": "bc2d4c15-23a0-44bd-8615-03a426092cb5"
  },
  {
    "id": "bacb5ac1-7f17-4c3c-a2b1-4d60901fa0a2",
    "name": "Amphoe Si Racha",
    "state_id": "bc2d4c15-23a0-44bd-8615-03a426092cb5"
  },
  {
    "id": "3d3b0a28-9ca8-4006-8466-e8ee1e9f3aa6",
    "name": "Ban Bueng",
    "state_id": "bc2d4c15-23a0-44bd-8615-03a426092cb5"
  },
  {
    "id": "37995c32-1e7f-441f-a6ee-c038324930be",
    "name": "Ban Ko Lan",
    "state_id": "bc2d4c15-23a0-44bd-8615-03a426092cb5"
  },
  {
    "id": "659bfca3-b70a-4f45-b419-457f92bc9435",
    "name": "Ban Talat Bueng",
    "state_id": "bc2d4c15-23a0-44bd-8615-03a426092cb5"
  },
  {
    "id": "dca46612-07c8-41e7-b1d1-d6c89bbe85f1",
    "name": "Bang Lamung",
    "state_id": "bc2d4c15-23a0-44bd-8615-03a426092cb5"
  },
  {
    "id": "66a97312-f2f6-46ed-ba87-c7808225774c",
    "name": "Bang Lamung District",
    "state_id": "bc2d4c15-23a0-44bd-8615-03a426092cb5"
  },
  {
    "id": "e05e29bb-d18d-414b-91c0-daa8e7b0a8fd",
    "name": "Chon Buri",
    "state_id": "bc2d4c15-23a0-44bd-8615-03a426092cb5"
  },
  {
    "id": "f846fef3-5e3d-4c7e-aad9-f47ad9e83528",
    "name": "Ko Si Chang",
    "state_id": "bc2d4c15-23a0-44bd-8615-03a426092cb5"
  },
  {
    "id": "da331a02-56a9-498c-a866-70abcd272549",
    "name": "Mueang Chonburi District",
    "state_id": "bc2d4c15-23a0-44bd-8615-03a426092cb5"
  },
  {
    "id": "ef9878c7-1eb6-4ba2-9496-9f426f5519ad",
    "name": "Pattaya",
    "state_id": "bc2d4c15-23a0-44bd-8615-03a426092cb5"
  },
  {
    "id": "15cd125b-db8d-48a1-91a4-de9415af957c",
    "name": "Phan Thong",
    "state_id": "bc2d4c15-23a0-44bd-8615-03a426092cb5"
  },
  {
    "id": "b2471b5b-a988-4f24-9200-e9caf0b59fdf",
    "name": "Phanat Nikhom",
    "state_id": "bc2d4c15-23a0-44bd-8615-03a426092cb5"
  },
  {
    "id": "2b1beb9d-1c5d-46bf-9ad5-3f4a76da212b",
    "name": "Sattahip",
    "state_id": "bc2d4c15-23a0-44bd-8615-03a426092cb5"
  },
  {
    "id": "8d51f740-5e87-40e9-b502-b8963c8d7f2f",
    "name": "Si Racha",
    "state_id": "bc2d4c15-23a0-44bd-8615-03a426092cb5"
  }
]