[
  {
    "id": "dec872e7-99dd-4d5c-a5be-d11bca9cbc1d",
    "name": "Al Khārijah",
    "state_id": "bcf5adcb-f470-401e-b98d-9f0c3a97c67b"
  },
  {
    "id": "9c8849b7-c73f-48bf-8fdb-26ef6d1db800",
    "name": "Qaşr al Farāfirah",
    "state_id": "bcf5adcb-f470-401e-b98d-9f0c3a97c67b"
  }
]