[
  {
    "id": "50fa9d93-66ea-4208-8157-32c2419ffc15",
    "name": "Baro Kunda",
    "state_id": "be9282c7-7c95-45cd-be7b-657cd453caa3"
  },
  {
    "id": "49d6de0d-6cb0-4873-8808-53e1266319f3",
    "name": "Bureng",
    "state_id": "be9282c7-7c95-45cd-be7b-657cd453caa3"
  },
  {
    "id": "bac7828c-d246-4188-8a06-6228813375bb",
    "name": "Jali",
    "state_id": "be9282c7-7c95-45cd-be7b-657cd453caa3"
  },
  {
    "id": "1a121be6-a425-40c8-858e-245839dfb5c1",
    "name": "Jarra Central",
    "state_id": "be9282c7-7c95-45cd-be7b-657cd453caa3"
  },
  {
    "id": "b3ba76a2-70db-40da-b19b-7862cd8d0d10",
    "name": "Jarra East",
    "state_id": "be9282c7-7c95-45cd-be7b-657cd453caa3"
  },
  {
    "id": "f3660fb3-d269-43ee-a492-c67efa7d25b8",
    "name": "Jarra West",
    "state_id": "be9282c7-7c95-45cd-be7b-657cd453caa3"
  },
  {
    "id": "d202b281-637a-4f71-bd24-ce32d70d1078",
    "name": "Jenoi",
    "state_id": "be9282c7-7c95-45cd-be7b-657cd453caa3"
  },
  {
    "id": "9aa70dc5-da10-4d25-9c1d-25e53a57eeb9",
    "name": "Jifarong",
    "state_id": "be9282c7-7c95-45cd-be7b-657cd453caa3"
  },
  {
    "id": "84d75023-23c5-40a5-a1f9-83bb38b49172",
    "name": "Kaiaf",
    "state_id": "be9282c7-7c95-45cd-be7b-657cd453caa3"
  },
  {
    "id": "c88ed3b0-fdf8-47b1-94a1-b9bff6dc4347",
    "name": "Karantaba",
    "state_id": "be9282c7-7c95-45cd-be7b-657cd453caa3"
  },
  {
    "id": "ca09b030-e38e-4126-ab35-9dd6a01cc139",
    "name": "Keneba",
    "state_id": "be9282c7-7c95-45cd-be7b-657cd453caa3"
  },
  {
    "id": "32e914a8-ab22-4b9e-9467-6f2574a478c1",
    "name": "Kiang Central",
    "state_id": "be9282c7-7c95-45cd-be7b-657cd453caa3"
  },
  {
    "id": "83f648e0-593f-482f-b097-9d4e575b864b",
    "name": "Kiang East",
    "state_id": "be9282c7-7c95-45cd-be7b-657cd453caa3"
  },
  {
    "id": "84415349-c57c-41f3-bf05-3bc142f8958b",
    "name": "Kiang West District",
    "state_id": "be9282c7-7c95-45cd-be7b-657cd453caa3"
  },
  {
    "id": "360635f1-3f6d-4b5f-bfed-becd29f33926",
    "name": "Mansa Konko",
    "state_id": "be9282c7-7c95-45cd-be7b-657cd453caa3"
  },
  {
    "id": "60cba213-1b0e-4b9f-8824-eec88576fc14",
    "name": "Nioro",
    "state_id": "be9282c7-7c95-45cd-be7b-657cd453caa3"
  },
  {
    "id": "63913f7a-6fa6-4d49-8611-84562a6738c6",
    "name": "Sankwia",
    "state_id": "be9282c7-7c95-45cd-be7b-657cd453caa3"
  },
  {
    "id": "dc7f6767-6797-417d-bc1d-2b84987c9825",
    "name": "Si Kunda",
    "state_id": "be9282c7-7c95-45cd-be7b-657cd453caa3"
  },
  {
    "id": "6f0f9222-0cae-4411-b1d2-d238c7784a05",
    "name": "Soma",
    "state_id": "be9282c7-7c95-45cd-be7b-657cd453caa3"
  },
  {
    "id": "727e2723-3e8a-40ba-8588-eca426c2d5e3",
    "name": "Sutukung",
    "state_id": "be9282c7-7c95-45cd-be7b-657cd453caa3"
  },
  {
    "id": "1647815b-ddc2-4b41-8164-25543e00b7f8",
    "name": "Toniataba",
    "state_id": "be9282c7-7c95-45cd-be7b-657cd453caa3"
  },
  {
    "id": "1fc48636-0d61-4014-895d-bb032c79b0dc",
    "name": "Wellingara Ba",
    "state_id": "be9282c7-7c95-45cd-be7b-657cd453caa3"
  }
]