[
  {
    "id": "b08bba5e-42fb-44aa-b55a-db9de6a5481d",
    "name": "Arbuzynka",
    "state_id": "bf7ec6f1-653f-417a-a186-b220cfd92b99"
  },
  {
    "id": "13648971-166d-417c-a2d6-cf0b05a6731d",
    "name": "Bashtanka",
    "state_id": "bf7ec6f1-653f-417a-a186-b220cfd92b99"
  },
  {
    "id": "348cbb5c-db63-41d0-9d81-6293b8e220a5",
    "name": "Berezanka",
    "state_id": "bf7ec6f1-653f-417a-a186-b220cfd92b99"
  },
  {
    "id": "7c2f3d62-bcc4-40e8-94a4-56579ab65336",
    "name": "Bereznehuvate",
    "state_id": "bf7ec6f1-653f-417a-a186-b220cfd92b99"
  },
  {
    "id": "309c2526-ecfb-4d3f-919e-64ba2312fd09",
    "name": "Domanivka",
    "state_id": "bf7ec6f1-653f-417a-a186-b220cfd92b99"
  },
  {
    "id": "a60b16f5-0759-4777-a9b9-3944e051f2ef",
    "name": "Kazanka",
    "state_id": "bf7ec6f1-653f-417a-a186-b220cfd92b99"
  },
  {
    "id": "e04bef27-7875-4554-84df-32ecc89adbee",
    "name": "Kobleve",
    "state_id": "bf7ec6f1-653f-417a-a186-b220cfd92b99"
  },
  {
    "id": "718753ec-39e2-4ec1-9f78-7ed60ac0636b",
    "name": "Kostyantynivka",
    "state_id": "bf7ec6f1-653f-417a-a186-b220cfd92b99"
  },
  {
    "id": "c8272767-2bce-4599-8f09-982993c67dc8",
    "name": "Kryve Ozero",
    "state_id": "bf7ec6f1-653f-417a-a186-b220cfd92b99"
  },
  {
    "id": "829a880d-c9a8-4362-8af3-62fdb2159e42",
    "name": "Lysa Hora",
    "state_id": "bf7ec6f1-653f-417a-a186-b220cfd92b99"
  },
  {
    "id": "4128f9a4-af71-4ef0-93b0-ac2bc6cac5d7",
    "name": "Myhiya",
    "state_id": "bf7ec6f1-653f-417a-a186-b220cfd92b99"
  },
  {
    "id": "89c2e16f-e5da-497e-8b05-c49c9c8a3934",
    "name": "Mykolayiv",
    "state_id": "bf7ec6f1-653f-417a-a186-b220cfd92b99"
  },
  {
    "id": "fe01ef55-f9a0-4463-83a9-1b4f8d35894e",
    "name": "Nova Odesa",
    "state_id": "bf7ec6f1-653f-417a-a186-b220cfd92b99"
  },
  {
    "id": "1ae7894d-72b0-4c57-8d9c-648e43562f7c",
    "name": "Novyy Buh",
    "state_id": "bf7ec6f1-653f-417a-a186-b220cfd92b99"
  },
  {
    "id": "9615c784-00bc-4116-96f7-a420f6cc344d",
    "name": "Ochakiv",
    "state_id": "bf7ec6f1-653f-417a-a186-b220cfd92b99"
  },
  {
    "id": "bb9d3149-61e8-4778-8924-2fdc29c3261d",
    "name": "Ol'shanskoye",
    "state_id": "bf7ec6f1-653f-417a-a186-b220cfd92b99"
  },
  {
    "id": "67afe6ac-5226-48b9-8ed4-c703a26a7079",
    "name": "Oleksandrivka",
    "state_id": "bf7ec6f1-653f-417a-a186-b220cfd92b99"
  },
  {
    "id": "50f486ac-4b5b-4968-b2e4-cc6db30023aa",
    "name": "Parutyne",
    "state_id": "bf7ec6f1-653f-417a-a186-b220cfd92b99"
  },
  {
    "id": "571de52e-1018-4ec3-8a2e-3e2d77e616b7",
    "name": "Pervomays’k",
    "state_id": "bf7ec6f1-653f-417a-a186-b220cfd92b99"
  },
  {
    "id": "8d230cd6-5d48-42b1-9084-29c432d62530",
    "name": "Pidhorodna",
    "state_id": "bf7ec6f1-653f-417a-a186-b220cfd92b99"
  },
  {
    "id": "c81c807e-9f79-4e56-87c8-117c973cc68a",
    "name": "Rybakivka",
    "state_id": "bf7ec6f1-653f-417a-a186-b220cfd92b99"
  },
  {
    "id": "4efe166b-a0a1-495b-99cc-039ba4afbd9e",
    "name": "Shevchenkove",
    "state_id": "bf7ec6f1-653f-417a-a186-b220cfd92b99"
  },
  {
    "id": "ba56f50b-3cba-4175-869f-a59bb5f48247",
    "name": "Snihurivka",
    "state_id": "bf7ec6f1-653f-417a-a186-b220cfd92b99"
  },
  {
    "id": "8dc2edb4-9194-4ff9-92df-9cc88c05af5d",
    "name": "Veselynove",
    "state_id": "bf7ec6f1-653f-417a-a186-b220cfd92b99"
  },
  {
    "id": "388163c9-32be-4b14-a94c-52324e2af11e",
    "name": "Voznesensk",
    "state_id": "bf7ec6f1-653f-417a-a186-b220cfd92b99"
  },
  {
    "id": "12b740c7-0fc4-4158-bee6-2581106f37e3",
    "name": "Vradiyivka",
    "state_id": "bf7ec6f1-653f-417a-a186-b220cfd92b99"
  },
  {
    "id": "4def2217-0c07-493f-97ba-f6ec69e3d62a",
    "name": "Yuzhnoukrains'k",
    "state_id": "bf7ec6f1-653f-417a-a186-b220cfd92b99"
  }
]