[
  {
    "id": "51b73098-6aac-40c4-8429-8bbed6bb7a80",
    "name": "Faro Department",
    "state_id": "c004213d-d549-43f4-bbcb-db56baa79c94"
  },
  {
    "id": "fc7e4254-374a-4326-b4b1-11d8cfa051a8",
    "name": "Garoua",
    "state_id": "c004213d-d549-43f4-bbcb-db56baa79c94"
  },
  {
    "id": "face31d4-aaf5-4032-8151-e072a15abf05",
    "name": "Guider",
    "state_id": "c004213d-d549-43f4-bbcb-db56baa79c94"
  },
  {
    "id": "0071c42f-b1e2-4832-ad6a-56841b8154eb",
    "name": "Lagdo",
    "state_id": "c004213d-d549-43f4-bbcb-db56baa79c94"
  },
  {
    "id": "d72eafde-f47e-478f-b619-3f2017ab8b1d",
    "name": "Mayo-Louti",
    "state_id": "c004213d-d549-43f4-bbcb-db56baa79c94"
  },
  {
    "id": "c17c0f47-00e5-47bc-a4e5-145c27ed83f0",
    "name": "Mayo-Rey",
    "state_id": "c004213d-d549-43f4-bbcb-db56baa79c94"
  },
  {
    "id": "38f3d395-91fa-407e-8b03-854bc710c8a7",
    "name": "Pitoa",
    "state_id": "c004213d-d549-43f4-bbcb-db56baa79c94"
  },
  {
    "id": "03048a22-85d8-49a3-a663-728ff2defddf",
    "name": "Poli",
    "state_id": "c004213d-d549-43f4-bbcb-db56baa79c94"
  },
  {
    "id": "516db065-72e3-4b99-b4c6-1a272a6e4241",
    "name": "Rey Bouba",
    "state_id": "c004213d-d549-43f4-bbcb-db56baa79c94"
  },
  {
    "id": "45c4e71b-ad8a-42cf-82c4-31a299b6633e",
    "name": "Tcholliré",
    "state_id": "c004213d-d549-43f4-bbcb-db56baa79c94"
  }
]