[
  {
    "id": "425f0b30-1421-4a0a-a48d-9df284ae1d8b",
    "name": "Haapsalu",
    "state_id": "c02609a0-2c79-484b-9c2a-fb19d27ecc8e"
  },
  {
    "id": "168db9a7-f9b1-4668-987f-92f37ecd59f9",
    "name": "Haapsalu linn",
    "state_id": "c02609a0-2c79-484b-9c2a-fb19d27ecc8e"
  },
  {
    "id": "7e385584-dde7-48fc-a419-45b2694d2d33",
    "name": "Hullo",
    "state_id": "c02609a0-2c79-484b-9c2a-fb19d27ecc8e"
  },
  {
    "id": "622dd556-78d5-4b12-9fb7-ccb92b89d098",
    "name": "Lääne-Nigula vald",
    "state_id": "c02609a0-2c79-484b-9c2a-fb19d27ecc8e"
  },
  {
    "id": "dd4d1b77-c48d-4770-bed6-0b86380b2697",
    "name": "Taebla",
    "state_id": "c02609a0-2c79-484b-9c2a-fb19d27ecc8e"
  },
  {
    "id": "76b1486a-ef8f-45a6-b092-70d0353a449f",
    "name": "Uuemõisa",
    "state_id": "c02609a0-2c79-484b-9c2a-fb19d27ecc8e"
  },
  {
    "id": "b757d4d7-0d1a-44c2-9bb6-976401ca97ec",
    "name": "Vormsi vald",
    "state_id": "c02609a0-2c79-484b-9c2a-fb19d27ecc8e"
  }
]