[
  {
    "id": "0bb7ad94-9322-4c14-910c-29d7558f2f50",
    "name": "Fougamou",
    "state_id": "c0bf2f03-45fa-404c-88fe-c778eea6cbdf"
  },
  {
    "id": "157cfc3a-4641-4619-a5e7-b021d3900525",
    "name": "Mbigou",
    "state_id": "c0bf2f03-45fa-404c-88fe-c778eea6cbdf"
  },
  {
    "id": "a77ae8a2-ac22-40b6-bc1b-22c64fa9a919",
    "name": "Mimongo",
    "state_id": "c0bf2f03-45fa-404c-88fe-c778eea6cbdf"
  },
  {
    "id": "545302d5-011e-4f4d-b005-e92569298d25",
    "name": "Mouila",
    "state_id": "c0bf2f03-45fa-404c-88fe-c778eea6cbdf"
  },
  {
    "id": "3cede53e-7763-4dcc-93ce-8a374b32c272",
    "name": "Ndendé",
    "state_id": "c0bf2f03-45fa-404c-88fe-c778eea6cbdf"
  }
]