[
  {
    "id": "1ea64d64-b95d-4768-9baf-82e7dc821c85",
    "name": "Al ‘Ayyāţ",
    "state_id": "c0c82855-505f-4c66-be24-0874e1820bfb"
  },
  {
    "id": "ff2ad51b-74e9-40bb-9ab2-51a84718defb",
    "name": "Al Bawīţī",
    "state_id": "c0c82855-505f-4c66-be24-0874e1820bfb"
  },
  {
    "id": "b8583a05-14a9-4710-b7ce-811d0f14563a",
    "name": "Al Ḩawāmidīyah",
    "state_id": "c0c82855-505f-4c66-be24-0874e1820bfb"
  },
  {
    "id": "daa4a9ac-2e57-4c21-8b0f-356ae9aaa00e",
    "name": "Aş Şaff",
    "state_id": "c0c82855-505f-4c66-be24-0874e1820bfb"
  },
  {
    "id": "8d62aff5-5883-449e-86c5-de8cf1a8cfcd",
    "name": "Awsīm",
    "state_id": "c0c82855-505f-4c66-be24-0874e1820bfb"
  },
  {
    "id": "cb962df2-ddf0-450f-aae9-186b3eba87b7",
    "name": "Giza",
    "state_id": "c0c82855-505f-4c66-be24-0874e1820bfb"
  },
  {
    "id": "23ca98e6-a1e5-40f7-9f1f-40dd6072abc1",
    "name": "Madīnat Sittah Uktūbar",
    "state_id": "c0c82855-505f-4c66-be24-0874e1820bfb"
  }
]