[
  {
    "id": "d6f04124-fbae-4929-b5a3-518d0505c975",
    "name": "Aguada de Cima",
    "state_id": "c0d50746-77cf-40ee-a980-efa3b24a36ab"
  },
  {
    "id": "4c8b4263-c09a-44c5-8d47-4efe5d8f37df",
    "name": "Águeda",
    "state_id": "c0d50746-77cf-40ee-a980-efa3b24a36ab"
  },
  {
    "id": "f4209546-b3a4-4af4-ba01-e4248fd95435",
    "name": "Albergaria-a-Velha",
    "state_id": "c0d50746-77cf-40ee-a980-efa3b24a36ab"
  },
  {
    "id": "1fb42f5d-2259-4d21-b030-040a266ba8f2",
    "name": "Anadia",
    "state_id": "c0d50746-77cf-40ee-a980-efa3b24a36ab"
  },
  {
    "id": "0cd441b3-3bf3-4280-ae05-952fda5bd25a",
    "name": "Aradas",
    "state_id": "c0d50746-77cf-40ee-a980-efa3b24a36ab"
  },
  {
    "id": "6fcce472-000a-4690-9107-8e92f8b84c39",
    "name": "Arcos",
    "state_id": "c0d50746-77cf-40ee-a980-efa3b24a36ab"
  },
  {
    "id": "ee3e9ead-ffdf-45ba-9711-d49babffde20",
    "name": "Argoncilhe",
    "state_id": "c0d50746-77cf-40ee-a980-efa3b24a36ab"
  },
  {
    "id": "7e5c8f7c-fb09-4e29-8e15-3ab32de01c3e",
    "name": "Arouca",
    "state_id": "c0d50746-77cf-40ee-a980-efa3b24a36ab"
  },
  {
    "id": "56290329-dbed-4ae6-b943-f52f7c87d5fb",
    "name": "Arrifana",
    "state_id": "c0d50746-77cf-40ee-a980-efa3b24a36ab"
  },
  {
    "id": "71bd9448-f9a8-469b-b507-dac50cc0c454",
    "name": "Avanca",
    "state_id": "c0d50746-77cf-40ee-a980-efa3b24a36ab"
  },
  {
    "id": "fead4e3c-2ad5-4f96-afb9-548db6c84741",
    "name": "Aveiro",
    "state_id": "c0d50746-77cf-40ee-a980-efa3b24a36ab"
  },
  {
    "id": "9e32e029-fffa-43f2-aa1d-f907f5918010",
    "name": "Beduido",
    "state_id": "c0d50746-77cf-40ee-a980-efa3b24a36ab"
  },
  {
    "id": "3f10e306-06ec-4210-856c-cdc0c7e6c74d",
    "name": "Branca",
    "state_id": "c0d50746-77cf-40ee-a980-efa3b24a36ab"
  },
  {
    "id": "da068446-0d9e-4ad5-ab4d-7a2e8441aa96",
    "name": "Castelo de Paiva",
    "state_id": "c0d50746-77cf-40ee-a980-efa3b24a36ab"
  },
  {
    "id": "35d0d654-abe6-46cd-8ee1-2a92dd11c6b1",
    "name": "Cortegaça",
    "state_id": "c0d50746-77cf-40ee-a980-efa3b24a36ab"
  },
  {
    "id": "77c6e26a-1517-4dda-945f-4ac0b04a493f",
    "name": "Cucujães",
    "state_id": "c0d50746-77cf-40ee-a980-efa3b24a36ab"
  },
  {
    "id": "b1c22610-f00f-45c7-a4ef-55bdec95aff3",
    "name": "Eixo",
    "state_id": "c0d50746-77cf-40ee-a980-efa3b24a36ab"
  },
  {
    "id": "c2192ec9-f2d1-472f-a2e4-7a3f30ee3b86",
    "name": "Esgueira",
    "state_id": "c0d50746-77cf-40ee-a980-efa3b24a36ab"
  },
  {
    "id": "d31d9e68-4d22-4c30-9936-0941b0c9a4e6",
    "name": "Esmoriz",
    "state_id": "c0d50746-77cf-40ee-a980-efa3b24a36ab"
  },
  {
    "id": "e706fe2f-4e65-487f-97ae-945eda4abf47",
    "name": "Espargo",
    "state_id": "c0d50746-77cf-40ee-a980-efa3b24a36ab"
  },
  {
    "id": "13e6c161-832e-4d4c-b58d-515d29783685",
    "name": "Espinho",
    "state_id": "c0d50746-77cf-40ee-a980-efa3b24a36ab"
  },
  {
    "id": "c41f2355-1f59-4fdc-bc3f-6e011768eda4",
    "name": "Estarreja",
    "state_id": "c0d50746-77cf-40ee-a980-efa3b24a36ab"
  },
  {
    "id": "cd60d89f-cf58-4ab4-9b38-b77f05056979",
    "name": "Feira",
    "state_id": "c0d50746-77cf-40ee-a980-efa3b24a36ab"
  },
  {
    "id": "b03251a2-d1dc-42bd-86ba-dc0569e55780",
    "name": "Fiães",
    "state_id": "c0d50746-77cf-40ee-a980-efa3b24a36ab"
  },
  {
    "id": "41a1791c-a537-4842-ab95-a7450ae2a90a",
    "name": "Gafanha da Encarnação",
    "state_id": "c0d50746-77cf-40ee-a980-efa3b24a36ab"
  },
  {
    "id": "33271785-8e1d-4f3a-8ad9-dd7c6bbe5f65",
    "name": "Gafanha da Nazaré",
    "state_id": "c0d50746-77cf-40ee-a980-efa3b24a36ab"
  },
  {
    "id": "e609befd-c701-4802-b80d-78883d6a3a36",
    "name": "Ílhavo",
    "state_id": "c0d50746-77cf-40ee-a980-efa3b24a36ab"
  },
  {
    "id": "c47de174-3855-4dd2-9162-60c961bf3787",
    "name": "Lamas",
    "state_id": "c0d50746-77cf-40ee-a980-efa3b24a36ab"
  },
  {
    "id": "7ec74789-46f2-4c13-bdce-997a7dc128f3",
    "name": "Lobão",
    "state_id": "c0d50746-77cf-40ee-a980-efa3b24a36ab"
  },
  {
    "id": "c4793f94-98e1-40f4-a532-1d5e14247078",
    "name": "Lourosa",
    "state_id": "c0d50746-77cf-40ee-a980-efa3b24a36ab"
  },
  {
    "id": "689002ad-7012-4211-81d2-23d31572473c",
    "name": "Luso",
    "state_id": "c0d50746-77cf-40ee-a980-efa3b24a36ab"
  },
  {
    "id": "776e4f50-d256-4fa0-90b6-078539262e7f",
    "name": "Macieira de Cambra",
    "state_id": "c0d50746-77cf-40ee-a980-efa3b24a36ab"
  },
  {
    "id": "d87fca67-dcae-4593-80ed-3ca8a6260973",
    "name": "Mealhada",
    "state_id": "c0d50746-77cf-40ee-a980-efa3b24a36ab"
  },
  {
    "id": "c900f75b-c906-49bd-808e-6fb6590e344b",
    "name": "Milheirós de Poiares",
    "state_id": "c0d50746-77cf-40ee-a980-efa3b24a36ab"
  },
  {
    "id": "808a9de7-8865-456f-a870-b4d38f4a7076",
    "name": "Mosteirô",
    "state_id": "c0d50746-77cf-40ee-a980-efa3b24a36ab"
  },
  {
    "id": "e27af458-bda6-4f91-91c7-ce72b9ae7cae",
    "name": "Murtosa",
    "state_id": "c0d50746-77cf-40ee-a980-efa3b24a36ab"
  },
  {
    "id": "fa324902-9a85-46ae-ab9e-60dc54652214",
    "name": "Nogueira da Regedoura",
    "state_id": "c0d50746-77cf-40ee-a980-efa3b24a36ab"
  },
  {
    "id": "099e057a-18af-4951-82bf-399e067a61eb",
    "name": "Oiã",
    "state_id": "c0d50746-77cf-40ee-a980-efa3b24a36ab"
  },
  {
    "id": "b9d14d84-7b3b-493b-8884-74f329c90119",
    "name": "Oliveira de Azemeis",
    "state_id": "c0d50746-77cf-40ee-a980-efa3b24a36ab"
  },
  {
    "id": "fe6232e6-0831-45a6-b8a2-8fe14b5af3c4",
    "name": "Oliveira do Bairro",
    "state_id": "c0d50746-77cf-40ee-a980-efa3b24a36ab"
  },
  {
    "id": "8d4a58bb-bb16-4f20-9590-ca9a7291b297",
    "name": "Oliveirinha",
    "state_id": "c0d50746-77cf-40ee-a980-efa3b24a36ab"
  },
  {
    "id": "def03e8f-51de-40f0-98cd-1429b24f65cb",
    "name": "Ovar",
    "state_id": "c0d50746-77cf-40ee-a980-efa3b24a36ab"
  },
  {
    "id": "f9413090-9575-410c-91c0-4b45ac3f3276",
    "name": "Paços de Brandão",
    "state_id": "c0d50746-77cf-40ee-a980-efa3b24a36ab"
  },
  {
    "id": "a8d5964f-103e-4161-9e1d-7067c05e630d",
    "name": "Pampilhosa do Botão",
    "state_id": "c0d50746-77cf-40ee-a980-efa3b24a36ab"
  },
  {
    "id": "6843c65e-c903-42e8-aad4-c4946608a6a2",
    "name": "Pardilhó",
    "state_id": "c0d50746-77cf-40ee-a980-efa3b24a36ab"
  },
  {
    "id": "fa717d1d-f77c-4202-95a0-b0d8e169af5f",
    "name": "Rio Meão",
    "state_id": "c0d50746-77cf-40ee-a980-efa3b24a36ab"
  },
  {
    "id": "0c4ce6f4-fec3-4e80-8409-0875cee52d0b",
    "name": "Salreu",
    "state_id": "c0d50746-77cf-40ee-a980-efa3b24a36ab"
  },
  {
    "id": "a1ce10ee-27b0-42ca-8d1d-2befe8a8a5f6",
    "name": "Sanfins",
    "state_id": "c0d50746-77cf-40ee-a980-efa3b24a36ab"
  },
  {
    "id": "bdf55745-a1a0-4b7c-95c7-b66eb7e6eaae",
    "name": "Sangalhos",
    "state_id": "c0d50746-77cf-40ee-a980-efa3b24a36ab"
  },
  {
    "id": "60e97b4a-4360-466c-b621-05b53b6c73fa",
    "name": "Santa Maria da Feira",
    "state_id": "c0d50746-77cf-40ee-a980-efa3b24a36ab"
  },
  {
    "id": "85297415-183a-4030-90e2-cba05e61bcea",
    "name": "São João",
    "state_id": "c0d50746-77cf-40ee-a980-efa3b24a36ab"
  },
  {
    "id": "572158c1-7c31-42bd-93d3-81b45cabee94",
    "name": "São João da Madeira",
    "state_id": "c0d50746-77cf-40ee-a980-efa3b24a36ab"
  },
  {
    "id": "d5f5df03-3b97-46f3-ad55-de9399d05536",
    "name": "São João de Ver",
    "state_id": "c0d50746-77cf-40ee-a980-efa3b24a36ab"
  },
  {
    "id": "045a750b-957c-4492-a08f-b8fa8558d9b3",
    "name": "São Roque",
    "state_id": "c0d50746-77cf-40ee-a980-efa3b24a36ab"
  },
  {
    "id": "eba96fc2-145c-46c6-a67f-f0bc7d871a14",
    "name": "Sever do Vouga",
    "state_id": "c0d50746-77cf-40ee-a980-efa3b24a36ab"
  },
  {
    "id": "1f2033bc-1b88-4e60-b386-0b8e1228ed03",
    "name": "Silvalde",
    "state_id": "c0d50746-77cf-40ee-a980-efa3b24a36ab"
  },
  {
    "id": "3dfcf23e-aac5-4f7d-816c-b3d607340aed",
    "name": "Souto",
    "state_id": "c0d50746-77cf-40ee-a980-efa3b24a36ab"
  },
  {
    "id": "e18b0402-72af-4a95-bb74-5f0b20deb46f",
    "name": "Vagos",
    "state_id": "c0d50746-77cf-40ee-a980-efa3b24a36ab"
  },
  {
    "id": "550e3ef7-6c18-494a-bf31-ce77d7b3bfe8",
    "name": "Vale de Cambra",
    "state_id": "c0d50746-77cf-40ee-a980-efa3b24a36ab"
  },
  {
    "id": "4b2fefac-e775-45ed-8141-a9283fb4f23a",
    "name": "Válega",
    "state_id": "c0d50746-77cf-40ee-a980-efa3b24a36ab"
  },
  {
    "id": "c9cfd0ee-3a97-4bc3-9494-eb4c02e27af3",
    "name": "Valongo",
    "state_id": "c0d50746-77cf-40ee-a980-efa3b24a36ab"
  },
  {
    "id": "39e8c08d-c53e-42b6-be90-ee63211d69b3",
    "name": "Vila Chã",
    "state_id": "c0d50746-77cf-40ee-a980-efa3b24a36ab"
  }
]