[
  {
    "id": "3762c666-9553-4e6e-a558-4f50614a3f15",
    "name": "Abalak",
    "state_id": "c1b4ed6b-2a55-4a57-9b20-36660dbd3c8c"
  },
  {
    "id": "23415d7b-7bf1-4d8d-adf1-1d3915f887fb",
    "name": "Birni N Konni",
    "state_id": "c1b4ed6b-2a55-4a57-9b20-36660dbd3c8c"
  },
  {
    "id": "e2d94a87-ba61-4be6-9c7b-6f882ef1b507",
    "name": "Bouza",
    "state_id": "c1b4ed6b-2a55-4a57-9b20-36660dbd3c8c"
  },
  {
    "id": "1f68882e-f69d-4162-8b63-bd7f246cb586",
    "name": "Département d' Illéla",
    "state_id": "c1b4ed6b-2a55-4a57-9b20-36660dbd3c8c"
  },
  {
    "id": "1f27bfbb-501a-4da2-850c-4fe21983abc7",
    "name": "Département de Birni Nkonni",
    "state_id": "c1b4ed6b-2a55-4a57-9b20-36660dbd3c8c"
  },
  {
    "id": "1db6cde1-5ff1-444e-a0a5-56c517ef12d8",
    "name": "Département de Bouza",
    "state_id": "c1b4ed6b-2a55-4a57-9b20-36660dbd3c8c"
  },
  {
    "id": "c12fe8bd-182d-4410-98a7-b9febf0385f0",
    "name": "Département de Keïta",
    "state_id": "c1b4ed6b-2a55-4a57-9b20-36660dbd3c8c"
  },
  {
    "id": "7802c17d-8f1f-44c1-93f1-7d2a65784b3e",
    "name": "Département de Madaoua",
    "state_id": "c1b4ed6b-2a55-4a57-9b20-36660dbd3c8c"
  },
  {
    "id": "a7070957-2173-4367-8e04-18f64ad37368",
    "name": "Département de Tahoua",
    "state_id": "c1b4ed6b-2a55-4a57-9b20-36660dbd3c8c"
  },
  {
    "id": "4350062d-56eb-4636-8bc8-85cf4e73477d",
    "name": "Département de Tchin-Tabaraden",
    "state_id": "c1b4ed6b-2a55-4a57-9b20-36660dbd3c8c"
  },
  {
    "id": "7d3e1088-aea5-4142-a4dc-cca169ed099c",
    "name": "Illéla",
    "state_id": "c1b4ed6b-2a55-4a57-9b20-36660dbd3c8c"
  },
  {
    "id": "412531a8-bacc-4899-8eef-ca981c4204e4",
    "name": "Keïta",
    "state_id": "c1b4ed6b-2a55-4a57-9b20-36660dbd3c8c"
  },
  {
    "id": "7e0fd008-991e-48ab-a211-fe3c02a5bdf7",
    "name": "Madaoua",
    "state_id": "c1b4ed6b-2a55-4a57-9b20-36660dbd3c8c"
  },
  {
    "id": "63db185b-60fa-4fb5-be1f-cbc799a9d500",
    "name": "Tahoua",
    "state_id": "c1b4ed6b-2a55-4a57-9b20-36660dbd3c8c"
  },
  {
    "id": "fd3b7f6a-982f-4a22-a473-205096ef8953",
    "name": "Tchintabaraden",
    "state_id": "c1b4ed6b-2a55-4a57-9b20-36660dbd3c8c"
  }
]