[
  {
    "id": "d545a52e-ea04-4508-8b31-fc69a4308b0a",
    "name": "Akkuş",
    "state_id": "c23a0ab8-0566-4fc8-95ac-77172ddef729"
  },
  {
    "id": "a78ca836-7b4d-4326-b8b1-3c3f1c495d97",
    "name": "Altınordu",
    "state_id": "c23a0ab8-0566-4fc8-95ac-77172ddef729"
  },
  {
    "id": "b3ad09af-f40b-499f-b627-2e8d980e3f6e",
    "name": "Aybastı İlçesi",
    "state_id": "c23a0ab8-0566-4fc8-95ac-77172ddef729"
  },
  {
    "id": "0990745b-d770-4a6e-bb4f-5650c239cd11",
    "name": "Çamaş",
    "state_id": "c23a0ab8-0566-4fc8-95ac-77172ddef729"
  },
  {
    "id": "512273b8-35ed-4ea9-b255-1df1a514c6c1",
    "name": "Çatalpınar İlçesi",
    "state_id": "c23a0ab8-0566-4fc8-95ac-77172ddef729"
  },
  {
    "id": "a48707a3-ee88-4d2d-99af-fc72d1074afa",
    "name": "Çaybaşı İlçesi",
    "state_id": "c23a0ab8-0566-4fc8-95ac-77172ddef729"
  },
  {
    "id": "4785fcfb-41b1-476c-bc53-c4aedba162fb",
    "name": "Fatsa",
    "state_id": "c23a0ab8-0566-4fc8-95ac-77172ddef729"
  },
  {
    "id": "c7636d20-4ff8-4765-9f79-b384a69473d9",
    "name": "Gölköy İlçesi",
    "state_id": "c23a0ab8-0566-4fc8-95ac-77172ddef729"
  },
  {
    "id": "4bfdf798-5ac2-43f4-af37-d63599d79b50",
    "name": "Gülyalı İlçesi",
    "state_id": "c23a0ab8-0566-4fc8-95ac-77172ddef729"
  },
  {
    "id": "22dce45c-c894-4e70-9cbd-e1d6fa7c788b",
    "name": "Gürgentepe",
    "state_id": "c23a0ab8-0566-4fc8-95ac-77172ddef729"
  },
  {
    "id": "fb241322-022b-4b6b-a972-9f1beb3f0460",
    "name": "İkizce",
    "state_id": "c23a0ab8-0566-4fc8-95ac-77172ddef729"
  },
  {
    "id": "248227f8-82a0-43b3-abfc-b509259c69b2",
    "name": "Kabadüz",
    "state_id": "c23a0ab8-0566-4fc8-95ac-77172ddef729"
  },
  {
    "id": "621eb26e-6832-4ff3-a1b9-727084ec85b9",
    "name": "Kabataş",
    "state_id": "c23a0ab8-0566-4fc8-95ac-77172ddef729"
  },
  {
    "id": "6fc385db-1b7f-4eac-a434-c75cfe4c73f5",
    "name": "Korgan",
    "state_id": "c23a0ab8-0566-4fc8-95ac-77172ddef729"
  },
  {
    "id": "69b3d553-b264-4264-963f-1ce4a21d8711",
    "name": "Kumru",
    "state_id": "c23a0ab8-0566-4fc8-95ac-77172ddef729"
  },
  {
    "id": "d7f22b3b-28af-4a05-8fd4-c26a3b8729d0",
    "name": "Mesudiye",
    "state_id": "c23a0ab8-0566-4fc8-95ac-77172ddef729"
  },
  {
    "id": "9b63906d-0a52-43cf-a52c-4846197ba30a",
    "name": "Ordu",
    "state_id": "c23a0ab8-0566-4fc8-95ac-77172ddef729"
  },
  {
    "id": "4a68a4d0-d3e4-4fc6-ad20-5ed307a294ee",
    "name": "Perşembe",
    "state_id": "c23a0ab8-0566-4fc8-95ac-77172ddef729"
  },
  {
    "id": "5a080a6e-1896-44b2-b290-8c718120203b",
    "name": "Piraziz İlçesi",
    "state_id": "c23a0ab8-0566-4fc8-95ac-77172ddef729"
  },
  {
    "id": "a0582cac-29b8-467d-b139-93b06e469f87",
    "name": "Ulubey",
    "state_id": "c23a0ab8-0566-4fc8-95ac-77172ddef729"
  },
  {
    "id": "b628c146-9933-4ee8-932a-3369b6ccaeac",
    "name": "Ünye İlçesi",
    "state_id": "c23a0ab8-0566-4fc8-95ac-77172ddef729"
  }
]