[
  {
    "id": "9cfbc06f-e28b-451b-81ea-e401aa425811",
    "name": "Alatskivi",
    "state_id": "c2a2cb79-33b5-428c-9ddb-7bd6d9d7dbb9"
  },
  {
    "id": "4e68aa6d-89c6-4e25-a1ba-35ddbc9c14ec",
    "name": "Elva",
    "state_id": "c2a2cb79-33b5-428c-9ddb-7bd6d9d7dbb9"
  },
  {
    "id": "d736f013-b284-498a-b0fc-4373500b1268",
    "name": "Kallaste",
    "state_id": "c2a2cb79-33b5-428c-9ddb-7bd6d9d7dbb9"
  },
  {
    "id": "e8344b44-a388-4024-820b-328f9ca63661",
    "name": "Kambja vald",
    "state_id": "c2a2cb79-33b5-428c-9ddb-7bd6d9d7dbb9"
  },
  {
    "id": "8534a4c8-89c9-4daa-a5d0-723f178dbfab",
    "name": "Kõrveküla",
    "state_id": "c2a2cb79-33b5-428c-9ddb-7bd6d9d7dbb9"
  },
  {
    "id": "512dca3d-ad9c-4ef2-acc9-bc20f8f1abd9",
    "name": "Kurepalu",
    "state_id": "c2a2cb79-33b5-428c-9ddb-7bd6d9d7dbb9"
  },
  {
    "id": "4578cd7f-95d3-45f0-9ae7-e64eafadcf3b",
    "name": "Luunja",
    "state_id": "c2a2cb79-33b5-428c-9ddb-7bd6d9d7dbb9"
  },
  {
    "id": "41707e8e-8de8-45f1-9956-45a47f6e2e00",
    "name": "Luunja vald",
    "state_id": "c2a2cb79-33b5-428c-9ddb-7bd6d9d7dbb9"
  },
  {
    "id": "158cda92-03e6-4e48-b4ae-08d25ada2ca6",
    "name": "Nõo",
    "state_id": "c2a2cb79-33b5-428c-9ddb-7bd6d9d7dbb9"
  },
  {
    "id": "8810010c-e71d-42e5-85b0-4c054b5e3785",
    "name": "Nõo vald",
    "state_id": "c2a2cb79-33b5-428c-9ddb-7bd6d9d7dbb9"
  },
  {
    "id": "c4268161-0d66-4c28-a0ae-830655c9d97e",
    "name": "Peipsiääre vald",
    "state_id": "c2a2cb79-33b5-428c-9ddb-7bd6d9d7dbb9"
  },
  {
    "id": "88a0e63e-2e3a-457d-b971-fd5769ff78ae",
    "name": "Puhja",
    "state_id": "c2a2cb79-33b5-428c-9ddb-7bd6d9d7dbb9"
  },
  {
    "id": "44feb65c-15f7-4b5b-bbc5-573e382993be",
    "name": "Tartu",
    "state_id": "c2a2cb79-33b5-428c-9ddb-7bd6d9d7dbb9"
  },
  {
    "id": "353ae2a2-0c22-449b-95ed-4707b3d2ded7",
    "name": "Tartu linn",
    "state_id": "c2a2cb79-33b5-428c-9ddb-7bd6d9d7dbb9"
  },
  {
    "id": "c550c0da-397d-41b8-8dd1-981b8fb02606",
    "name": "Tartu vald",
    "state_id": "c2a2cb79-33b5-428c-9ddb-7bd6d9d7dbb9"
  },
  {
    "id": "e013eee2-c0f2-4f0b-9dd1-b4354fe989ad",
    "name": "Ülenurme",
    "state_id": "c2a2cb79-33b5-428c-9ddb-7bd6d9d7dbb9"
  }
]