[
  {
    "id": "a7fcbf00-cf90-4187-b97d-3a4830e9821e",
    "name": "Samraong",
    "state_id": "c311ef42-a756-464e-ada2-63e468624bae"
  },
  {
    "id": "ccb185b1-47ed-4467-851f-2038c39b4884",
    "name": "Srŏk Bântéay Âmpĭl",
    "state_id": "c311ef42-a756-464e-ada2-63e468624bae"
  },
  {
    "id": "c50cf671-4ac2-428a-b3b4-9f16040229e2",
    "name": "Srŏk Sâmraông",
    "state_id": "c311ef42-a756-464e-ada2-63e468624bae"
  },
  {
    "id": "423d4748-7b32-493d-85b3-511ede753f67",
    "name": "Srŏk Trâpeăng Prasat",
    "state_id": "c311ef42-a756-464e-ada2-63e468624bae"
  }
]