[
  {
    "id": "d1bb7c93-e3e6-4f5d-92ea-3f078f8cf41e",
    "name": "Drugovo",
    "state_id": "c3cf9807-2600-4709-9821-50c0214907bc"
  },
  {
    "id": "1a72cfd5-49bd-4a6d-ba13-01eef3175a8a",
    "name": "Kičevo",
    "state_id": "c3cf9807-2600-4709-9821-50c0214907bc"
  },
  {
    "id": "c3d1d77d-b80f-4a12-8f22-944894a26345",
    "name": "Srbica",
    "state_id": "c3cf9807-2600-4709-9821-50c0214907bc"
  },
  {
    "id": "101693d1-df7e-47a5-a60f-e31049b44d1c",
    "name": "Strelci",
    "state_id": "c3cf9807-2600-4709-9821-50c0214907bc"
  },
  {
    "id": "47b44db3-5926-4eed-b000-f8637268bb39",
    "name": "Tuin",
    "state_id": "c3cf9807-2600-4709-9821-50c0214907bc"
  },
  {
    "id": "e020dc1f-d9bd-42d1-869c-ab56edc4a53f",
    "name": "Vraneštica",
    "state_id": "c3cf9807-2600-4709-9821-50c0214907bc"
  },
  {
    "id": "0a496977-6295-4cd5-8454-be87c9e88c23",
    "name": "Zajas",
    "state_id": "c3cf9807-2600-4709-9821-50c0214907bc"
  }
]