[
  {
    "id": "40fd37a9-1275-4609-946a-2180d4351601",
    "name": "Altendorf",
    "state_id": "c4ac8120-9708-4d7b-8f83-735b3db24cb9"
  },
  {
    "id": "93eece18-73d1-4e77-b18b-a914fc052485",
    "name": "Arth",
    "state_id": "c4ac8120-9708-4d7b-8f83-735b3db24cb9"
  },
  {
    "id": "0e8a6110-3926-41c1-94fb-8133b83bb08d",
    "name": "Bäch",
    "state_id": "c4ac8120-9708-4d7b-8f83-735b3db24cb9"
  },
  {
    "id": "92f97fd8-de52-462a-8cd1-41a23c9d6fb2",
    "name": "Bezirk Einsiedeln",
    "state_id": "c4ac8120-9708-4d7b-8f83-735b3db24cb9"
  },
  {
    "id": "9269b17f-03ba-40b0-a03e-bfa2970b712f",
    "name": "Bezirk Gersau",
    "state_id": "c4ac8120-9708-4d7b-8f83-735b3db24cb9"
  },
  {
    "id": "3c9a0a7d-c455-44fe-81f5-14d131e09bb6",
    "name": "Bezirk Höfe",
    "state_id": "c4ac8120-9708-4d7b-8f83-735b3db24cb9"
  },
  {
    "id": "a0874970-96b1-4bca-8110-06ff48df60b3",
    "name": "Bezirk Küssnacht",
    "state_id": "c4ac8120-9708-4d7b-8f83-735b3db24cb9"
  },
  {
    "id": "a69f2c57-fc0d-44fb-9bbf-d6f3860ee9a6",
    "name": "Bezirk March",
    "state_id": "c4ac8120-9708-4d7b-8f83-735b3db24cb9"
  },
  {
    "id": "20b7db75-3796-4812-ba47-4f93e1f8c8a8",
    "name": "Bezirk Schwyz",
    "state_id": "c4ac8120-9708-4d7b-8f83-735b3db24cb9"
  },
  {
    "id": "d73fc143-1356-4e0b-a3d5-682007414c17",
    "name": "Einsiedeln",
    "state_id": "c4ac8120-9708-4d7b-8f83-735b3db24cb9"
  },
  {
    "id": "a298c322-4085-4ff0-bbd2-4f394c415ddf",
    "name": "Feusisberg",
    "state_id": "c4ac8120-9708-4d7b-8f83-735b3db24cb9"
  },
  {
    "id": "12264c3a-cb5e-4e21-8774-7ba76801a566",
    "name": "Freienbach",
    "state_id": "c4ac8120-9708-4d7b-8f83-735b3db24cb9"
  },
  {
    "id": "de816e76-27b3-4ca1-8006-0338ec0a2113",
    "name": "Gersau",
    "state_id": "c4ac8120-9708-4d7b-8f83-735b3db24cb9"
  },
  {
    "id": "4a9209fb-9f05-4c9a-bd4b-c66b7d5ad145",
    "name": "Goldau",
    "state_id": "c4ac8120-9708-4d7b-8f83-735b3db24cb9"
  },
  {
    "id": "0fc629ae-ca07-4dd6-b5d0-6eec79ee1c5d",
    "name": "Ibach",
    "state_id": "c4ac8120-9708-4d7b-8f83-735b3db24cb9"
  },
  {
    "id": "39d2f3c2-7a38-4c25-a2f4-d83109b36de7",
    "name": "Ingenbohl",
    "state_id": "c4ac8120-9708-4d7b-8f83-735b3db24cb9"
  },
  {
    "id": "addea9df-4b61-4383-a629-c2e37e01ee06",
    "name": "Küssnacht",
    "state_id": "c4ac8120-9708-4d7b-8f83-735b3db24cb9"
  },
  {
    "id": "78eccdfa-cb5d-432b-82b6-2a3fa071e162",
    "name": "Lachen",
    "state_id": "c4ac8120-9708-4d7b-8f83-735b3db24cb9"
  },
  {
    "id": "aadd531c-6a95-4c75-98ae-28b840873582",
    "name": "Muotathal",
    "state_id": "c4ac8120-9708-4d7b-8f83-735b3db24cb9"
  },
  {
    "id": "b2091d69-984b-4e0f-b11c-f9031a8f2202",
    "name": "Pfäffikon",
    "state_id": "c4ac8120-9708-4d7b-8f83-735b3db24cb9"
  },
  {
    "id": "0ca282bc-7022-43c9-9350-7d77f51d7e7f",
    "name": "Reichenburg",
    "state_id": "c4ac8120-9708-4d7b-8f83-735b3db24cb9"
  },
  {
    "id": "0a0ef0db-3be6-4ed7-bb62-0911ba23072c",
    "name": "Rothenthurm",
    "state_id": "c4ac8120-9708-4d7b-8f83-735b3db24cb9"
  },
  {
    "id": "f2d7b1e1-0ed3-4583-9987-47bc66a2d314",
    "name": "Sattel",
    "state_id": "c4ac8120-9708-4d7b-8f83-735b3db24cb9"
  },
  {
    "id": "43815948-7040-4264-92d7-f963ca6fd3e8",
    "name": "Schindellegi",
    "state_id": "c4ac8120-9708-4d7b-8f83-735b3db24cb9"
  },
  {
    "id": "d322063a-61ac-46b4-ba23-a65402530647",
    "name": "Schübelbach",
    "state_id": "c4ac8120-9708-4d7b-8f83-735b3db24cb9"
  },
  {
    "id": "fd86549b-265b-43b3-97f7-4c16b07d94cb",
    "name": "Schwyz",
    "state_id": "c4ac8120-9708-4d7b-8f83-735b3db24cb9"
  },
  {
    "id": "ce2e158c-9d75-4355-b1f0-e8aa94017114",
    "name": "Siebnen",
    "state_id": "c4ac8120-9708-4d7b-8f83-735b3db24cb9"
  },
  {
    "id": "2106c5e7-d492-4c36-b2e7-56b2fee1b475",
    "name": "Steinen",
    "state_id": "c4ac8120-9708-4d7b-8f83-735b3db24cb9"
  },
  {
    "id": "14abc793-cbc7-4a2f-8e5c-f338f1b90a58",
    "name": "Tuggen",
    "state_id": "c4ac8120-9708-4d7b-8f83-735b3db24cb9"
  },
  {
    "id": "b4fa4915-ad2e-4b6c-9f21-4630e66b8ac9",
    "name": "Unteriberg",
    "state_id": "c4ac8120-9708-4d7b-8f83-735b3db24cb9"
  },
  {
    "id": "693fd43a-c350-4774-87d8-9cabe7b34051",
    "name": "Vorderthal",
    "state_id": "c4ac8120-9708-4d7b-8f83-735b3db24cb9"
  },
  {
    "id": "b6abf116-d13b-4643-8e6b-772e2e0aecd8",
    "name": "Wollerau",
    "state_id": "c4ac8120-9708-4d7b-8f83-735b3db24cb9"
  }
]