[
  {
    "id": "688d8a29-95f2-4ffb-a55a-16e36201804a",
    "name": "Ar Rudayyif",
    "state_id": "c554e49f-0751-4a18-8414-49a9f445447c"
  },
  {
    "id": "c1917d87-1e5e-4624-abd7-c94dddfdf301",
    "name": "As Sanad",
    "state_id": "c554e49f-0751-4a18-8414-49a9f445447c"
  },
  {
    "id": "0738a26a-a31b-42a5-9210-36fefc33227d",
    "name": "Gafsa",
    "state_id": "c554e49f-0751-4a18-8414-49a9f445447c"
  },
  {
    "id": "e142d90b-ee09-4747-84be-8358839d52c9",
    "name": "Metlaoui",
    "state_id": "c554e49f-0751-4a18-8414-49a9f445447c"
  },
  {
    "id": "9841400c-a746-4f90-8069-1da0410dece0",
    "name": "Mu‘tamadīyat ar Rudayyif",
    "state_id": "c554e49f-0751-4a18-8414-49a9f445447c"
  }
]