[
  {
    "id": "f61ea7cd-9692-4c7b-8c72-7cee32d3d8be",
    "name": "Sabile",
    "state_id": "c590fa7b-041e-48d5-8b07-7d756c235325"
  },
  {
    "id": "e4c3f4c1-ff81-4fee-9aec-fdf7da50c44c",
    "name": "Stende",
    "state_id": "c590fa7b-041e-48d5-8b07-7d756c235325"
  },
  {
    "id": "f29cafec-846b-461f-8774-d5e4c3ef384b",
    "name": "Talsi",
    "state_id": "c590fa7b-041e-48d5-8b07-7d756c235325"
  },
  {
    "id": "f02db876-57bd-4993-b72a-73c11b3d3224",
    "name": "Valdemārpils",
    "state_id": "c590fa7b-041e-48d5-8b07-7d756c235325"
  }
]