[
  {
    "id": "fc48900a-cc68-4c6d-8e2a-9dc96d65a118",
    "name": "Daulo",
    "state_id": "c62018ff-770e-4341-ad47-a58dc9c0e6de"
  },
  {
    "id": "22dad8e6-8780-4fe5-a7e3-1e6f1678127a",
    "name": "Goroka",
    "state_id": "c62018ff-770e-4341-ad47-a58dc9c0e6de"
  },
  {
    "id": "a0b288ac-ad26-44aa-a9a9-87282ba7869b",
    "name": "Henganofi",
    "state_id": "c62018ff-770e-4341-ad47-a58dc9c0e6de"
  },
  {
    "id": "b03a3800-9112-4500-adc8-5438aeb3e18d",
    "name": "Kainantu",
    "state_id": "c62018ff-770e-4341-ad47-a58dc9c0e6de"
  },
  {
    "id": "7d9e45a2-1923-4a85-a714-b81b0398d667",
    "name": "Lufa",
    "state_id": "c62018ff-770e-4341-ad47-a58dc9c0e6de"
  },
  {
    "id": "7fbd3cdd-e95d-4e53-adf6-fa2a9d85e053",
    "name": "Obura Wonenara",
    "state_id": "c62018ff-770e-4341-ad47-a58dc9c0e6de"
  },
  {
    "id": "139f0aa1-aa97-4413-937b-09bae38c6d73",
    "name": "Okapa",
    "state_id": "c62018ff-770e-4341-ad47-a58dc9c0e6de"
  },
  {
    "id": "85bafcce-8ca6-4b3a-9b3f-f67147ce6452",
    "name": "Unggai Bena",
    "state_id": "c62018ff-770e-4341-ad47-a58dc9c0e6de"
  }
]