[
  {
    "id": "5cc7b63c-4f16-443b-8285-5dc346b5e93e",
    "name": "Al Ghuwayrīyah",
    "state_id": "c68f61b7-f203-4026-9775-cb0f033a8a71"
  },
  {
    "id": "60137d5f-0cb1-4a6f-8124-8417b0f98c3f",
    "name": "Al Khawr",
    "state_id": "c68f61b7-f203-4026-9775-cb0f033a8a71"
  }
]