[
  {
    "id": "f27aa75b-9cf5-4167-b0de-72a344f09410",
    "name": "Bardejov",
    "state_id": "c6e2b432-4940-4080-a3d1-e075e48b9eb0"
  },
  {
    "id": "a30c5967-fa9d-4389-b6b8-39ec1c2c4a94",
    "name": "Chlmec",
    "state_id": "c6e2b432-4940-4080-a3d1-e075e48b9eb0"
  },
  {
    "id": "edce548a-3a98-4215-9a44-353e71d089a3",
    "name": "Giraltovce",
    "state_id": "c6e2b432-4940-4080-a3d1-e075e48b9eb0"
  },
  {
    "id": "b86bf857-bada-425a-8048-9b6aa4edac07",
    "name": "Humenné",
    "state_id": "c6e2b432-4940-4080-a3d1-e075e48b9eb0"
  },
  {
    "id": "c92d60db-462b-4aa1-8f09-3110d9b136e7",
    "name": "Kežmarok",
    "state_id": "c6e2b432-4940-4080-a3d1-e075e48b9eb0"
  },
  {
    "id": "f76bd67d-c434-4e76-ab1f-11abdfb9916e",
    "name": "Levoča",
    "state_id": "c6e2b432-4940-4080-a3d1-e075e48b9eb0"
  },
  {
    "id": "0dda499d-e91b-4523-beb4-eab56b438b76",
    "name": "Lipany",
    "state_id": "c6e2b432-4940-4080-a3d1-e075e48b9eb0"
  },
  {
    "id": "317dfcc8-766b-4a3b-b62c-504c24da420c",
    "name": "Ľubica",
    "state_id": "c6e2b432-4940-4080-a3d1-e075e48b9eb0"
  },
  {
    "id": "46c620df-329d-4e5f-8a4b-295a2e9a154f",
    "name": "Medzilaborce",
    "state_id": "c6e2b432-4940-4080-a3d1-e075e48b9eb0"
  },
  {
    "id": "dafd744e-308c-44dc-a7cd-9a9e3a3aa57f",
    "name": "Nová Lesná",
    "state_id": "c6e2b432-4940-4080-a3d1-e075e48b9eb0"
  },
  {
    "id": "337ee085-4dde-464d-8814-625d755f88e6",
    "name": "Okres Bardejov",
    "state_id": "c6e2b432-4940-4080-a3d1-e075e48b9eb0"
  },
  {
    "id": "b9b2ab8b-4757-41ac-81af-f2911d0d854c",
    "name": "Okres Humenné",
    "state_id": "c6e2b432-4940-4080-a3d1-e075e48b9eb0"
  },
  {
    "id": "1ea5ce03-4b9d-4be2-8cdc-d426f60b6500",
    "name": "Okres Kežmarok",
    "state_id": "c6e2b432-4940-4080-a3d1-e075e48b9eb0"
  },
  {
    "id": "f2521c87-a3a9-4801-91c7-96f7a8b85973",
    "name": "Okres Levoča",
    "state_id": "c6e2b432-4940-4080-a3d1-e075e48b9eb0"
  },
  {
    "id": "4dcecef5-7f15-401c-a33d-b4956d120b99",
    "name": "Okres Medzilaborce",
    "state_id": "c6e2b432-4940-4080-a3d1-e075e48b9eb0"
  },
  {
    "id": "ee9da8cf-2540-40be-9e25-6a885411a37e",
    "name": "Okres Poprad",
    "state_id": "c6e2b432-4940-4080-a3d1-e075e48b9eb0"
  },
  {
    "id": "40531951-01fd-48d2-8cc5-bb468f981ad4",
    "name": "Okres Prešov",
    "state_id": "c6e2b432-4940-4080-a3d1-e075e48b9eb0"
  },
  {
    "id": "7e73925b-0bd9-467e-8460-a92f71639d76",
    "name": "Okres Sabinov",
    "state_id": "c6e2b432-4940-4080-a3d1-e075e48b9eb0"
  },
  {
    "id": "a631f306-1af7-40ba-b0e1-eadde6d5bf02",
    "name": "Okres Snina",
    "state_id": "c6e2b432-4940-4080-a3d1-e075e48b9eb0"
  },
  {
    "id": "0508f9e7-8d0b-4127-8ed6-e30e96b3cde4",
    "name": "Okres Stará Ĺubovňa",
    "state_id": "c6e2b432-4940-4080-a3d1-e075e48b9eb0"
  },
  {
    "id": "b7a86167-5a4f-40db-aebe-c5422387f027",
    "name": "Okres Stropkov",
    "state_id": "c6e2b432-4940-4080-a3d1-e075e48b9eb0"
  },
  {
    "id": "ce206ff1-5513-41de-b24b-e0a4e5d20773",
    "name": "Okres Svidník",
    "state_id": "c6e2b432-4940-4080-a3d1-e075e48b9eb0"
  },
  {
    "id": "eaf41b84-28d3-4711-9554-1243e59c46fa",
    "name": "Okres Vranov nad Topľou",
    "state_id": "c6e2b432-4940-4080-a3d1-e075e48b9eb0"
  },
  {
    "id": "d1dcb96c-b580-4350-93db-cd01e7fe48af",
    "name": "Podolínec",
    "state_id": "c6e2b432-4940-4080-a3d1-e075e48b9eb0"
  },
  {
    "id": "17491e88-77cc-41e7-aad3-4db030d6572f",
    "name": "Poprad",
    "state_id": "c6e2b432-4940-4080-a3d1-e075e48b9eb0"
  },
  {
    "id": "6feb57dc-491d-48c1-ad37-2d4d47c697f9",
    "name": "Prešov",
    "state_id": "c6e2b432-4940-4080-a3d1-e075e48b9eb0"
  },
  {
    "id": "d70876e0-3e3b-425d-8461-f3c5895c892a",
    "name": "Sabinov",
    "state_id": "c6e2b432-4940-4080-a3d1-e075e48b9eb0"
  },
  {
    "id": "d8a72ddc-e800-4312-ae2d-cab57cdab2ab",
    "name": "Snina",
    "state_id": "c6e2b432-4940-4080-a3d1-e075e48b9eb0"
  },
  {
    "id": "629b62a8-7555-40da-ac1a-7757098f9998",
    "name": "Spišská Belá",
    "state_id": "c6e2b432-4940-4080-a3d1-e075e48b9eb0"
  },
  {
    "id": "67daa2af-8647-4b57-864e-16fdbf35bb17",
    "name": "Spišské Podhradie",
    "state_id": "c6e2b432-4940-4080-a3d1-e075e48b9eb0"
  },
  {
    "id": "f62d0b19-6e92-495c-a070-7a3e0bbbde02",
    "name": "Stará Ľubovňa",
    "state_id": "c6e2b432-4940-4080-a3d1-e075e48b9eb0"
  },
  {
    "id": "b28f16c3-abac-4d96-9428-4293bd7aae7b",
    "name": "Štrba",
    "state_id": "c6e2b432-4940-4080-a3d1-e075e48b9eb0"
  },
  {
    "id": "f4db4ac5-4b20-4369-8e35-444f502b0116",
    "name": "Stropkov",
    "state_id": "c6e2b432-4940-4080-a3d1-e075e48b9eb0"
  },
  {
    "id": "efab199d-0a70-4ceb-a27b-740f75f71773",
    "name": "Svidník",
    "state_id": "c6e2b432-4940-4080-a3d1-e075e48b9eb0"
  },
  {
    "id": "3aa643dd-2541-424c-963d-d6e4f2f7e499",
    "name": "Svit",
    "state_id": "c6e2b432-4940-4080-a3d1-e075e48b9eb0"
  },
  {
    "id": "b69fa62d-313e-4e72-8588-e2be43a9382e",
    "name": "Vranov nad Topľou",
    "state_id": "c6e2b432-4940-4080-a3d1-e075e48b9eb0"
  },
  {
    "id": "c0687fc4-bf15-45ef-8f90-84c4884cc1f0",
    "name": "Vrbov",
    "state_id": "c6e2b432-4940-4080-a3d1-e075e48b9eb0"
  },
  {
    "id": "c3854ab6-ec17-43bd-bfea-7c0afe81e79c",
    "name": "Vyšné Ružbachy",
    "state_id": "c6e2b432-4940-4080-a3d1-e075e48b9eb0"
  },
  {
    "id": "f7a32573-1304-42c5-b512-927b9523f092",
    "name": "Vysoké Tatry",
    "state_id": "c6e2b432-4940-4080-a3d1-e075e48b9eb0"
  },
  {
    "id": "7e7a7ecc-a499-4930-b43b-6351417750dc",
    "name": "Ždiar",
    "state_id": "c6e2b432-4940-4080-a3d1-e075e48b9eb0"
  }
]