[
  {
    "id": "14246dd1-5fe0-4cee-bed8-93119f06044a",
    "name": "Nay Pyi Taw",
    "state_id": "c7148f35-41df-4d0c-9ab0-673eaf00bb5e"
  },
  {
    "id": "39a0439f-0691-44ce-88f3-0134347281a7",
    "name": "Pyinmana",
    "state_id": "c7148f35-41df-4d0c-9ab0-673eaf00bb5e"
  }
]