[
  {
    "id": "14ad5ef4-1470-46b8-842a-1abe4751f060",
    "name": "Ardeşen",
    "state_id": "c730669e-df70-4acc-83d6-871554cc11c0"
  },
  {
    "id": "b95d89de-7f6f-4717-a0e9-8bd30a67f814",
    "name": "Çayeli",
    "state_id": "c730669e-df70-4acc-83d6-871554cc11c0"
  },
  {
    "id": "e67df3d4-bc6b-4998-b05f-7d7eb2049998",
    "name": "Fındıklı",
    "state_id": "c730669e-df70-4acc-83d6-871554cc11c0"
  },
  {
    "id": "e8231ca3-53f1-49f2-90fc-dce9c696ee64",
    "name": "Güneysu",
    "state_id": "c730669e-df70-4acc-83d6-871554cc11c0"
  },
  {
    "id": "d2ec4a4e-e698-404e-9bec-52dc59a64f09",
    "name": "Hemşin İlçesi",
    "state_id": "c730669e-df70-4acc-83d6-871554cc11c0"
  },
  {
    "id": "786bada9-511c-4cb7-b869-d432b813fdbd",
    "name": "İkizdere İlçesi",
    "state_id": "c730669e-df70-4acc-83d6-871554cc11c0"
  },
  {
    "id": "2c2bfdfb-e193-40c5-9d63-24630a691ad4",
    "name": "İyidere",
    "state_id": "c730669e-df70-4acc-83d6-871554cc11c0"
  },
  {
    "id": "382c7cbc-802d-4248-a958-25454dc680af",
    "name": "Kalkandere",
    "state_id": "c730669e-df70-4acc-83d6-871554cc11c0"
  },
  {
    "id": "2ae21fcb-e4fe-42a3-87b8-21190958decd",
    "name": "Nurluca",
    "state_id": "c730669e-df70-4acc-83d6-871554cc11c0"
  },
  {
    "id": "effa0655-a725-4da8-a089-574f03d65bf1",
    "name": "Pazar",
    "state_id": "c730669e-df70-4acc-83d6-871554cc11c0"
  },
  {
    "id": "00bfd557-981a-4956-982f-11ef3158e743",
    "name": "Rize",
    "state_id": "c730669e-df70-4acc-83d6-871554cc11c0"
  }
]