[
  {
    "id": "fe95309e-79e7-4134-bd39-17cae006a545",
    "name": "Baiima",
    "state_id": "c735f150-abe3-41e2-b253-7b553660ef79"
  },
  {
    "id": "ebcc7f89-6652-43d1-8f94-b9c681e42ef3",
    "name": "Baoma",
    "state_id": "c735f150-abe3-41e2-b253-7b553660ef79"
  },
  {
    "id": "1e37e79c-3629-493c-b9c1-37471d47399e",
    "name": "Bo",
    "state_id": "c735f150-abe3-41e2-b253-7b553660ef79"
  },
  {
    "id": "6b0c02af-78c7-4ee9-a934-6403c513b391",
    "name": "Bo District",
    "state_id": "c735f150-abe3-41e2-b253-7b553660ef79"
  },
  {
    "id": "33a27d58-2bfb-4ee2-bbed-95822d8103a8",
    "name": "Bomi",
    "state_id": "c735f150-abe3-41e2-b253-7b553660ef79"
  },
  {
    "id": "f08e99cd-8ba1-4326-bd0a-5eefa96743ab",
    "name": "Bonthe",
    "state_id": "c735f150-abe3-41e2-b253-7b553660ef79"
  },
  {
    "id": "200f9b40-271c-4a1d-9a91-21a887ee08eb",
    "name": "Bonthe District",
    "state_id": "c735f150-abe3-41e2-b253-7b553660ef79"
  },
  {
    "id": "1004a83b-e2be-4e26-92e6-217cfbbe9709",
    "name": "Bumpe",
    "state_id": "c735f150-abe3-41e2-b253-7b553660ef79"
  },
  {
    "id": "eb14a8da-a2ed-4229-b32d-8a59368b027f",
    "name": "Foindu",
    "state_id": "c735f150-abe3-41e2-b253-7b553660ef79"
  },
  {
    "id": "45d44ce6-1bb5-477a-b0cc-37f6f7d40eeb",
    "name": "Gandorhun",
    "state_id": "c735f150-abe3-41e2-b253-7b553660ef79"
  },
  {
    "id": "fc003bc7-c1f6-4070-8db3-be2f90d99101",
    "name": "Gbewebu",
    "state_id": "c735f150-abe3-41e2-b253-7b553660ef79"
  },
  {
    "id": "b95ca2a0-656e-427e-b7c8-96ebce4bd1ee",
    "name": "Koribundu",
    "state_id": "c735f150-abe3-41e2-b253-7b553660ef79"
  },
  {
    "id": "3c852787-d68b-4c97-b0e8-e8f37ccdc21a",
    "name": "Largo",
    "state_id": "c735f150-abe3-41e2-b253-7b553660ef79"
  },
  {
    "id": "129fdf07-fa42-4791-96ee-65a41615cda9",
    "name": "Mamboma",
    "state_id": "c735f150-abe3-41e2-b253-7b553660ef79"
  },
  {
    "id": "7d7d18e6-b39c-4f61-96ab-e93e41f0fa2b",
    "name": "Mogbwemo",
    "state_id": "c735f150-abe3-41e2-b253-7b553660ef79"
  },
  {
    "id": "2254cb3e-fa80-464f-bd22-1bcd5691fac9",
    "name": "Moyamba",
    "state_id": "c735f150-abe3-41e2-b253-7b553660ef79"
  },
  {
    "id": "8cedf369-1acf-45d0-8911-46896fbbf394",
    "name": "Moyamba District",
    "state_id": "c735f150-abe3-41e2-b253-7b553660ef79"
  },
  {
    "id": "b45fe6eb-9f33-4520-b0de-f949649847c6",
    "name": "Palima",
    "state_id": "c735f150-abe3-41e2-b253-7b553660ef79"
  },
  {
    "id": "83938a56-9785-497d-a225-dabadeccbe59",
    "name": "Potoru",
    "state_id": "c735f150-abe3-41e2-b253-7b553660ef79"
  },
  {
    "id": "3fb2c2e0-12c0-4f21-928b-bbdfd7fd9aa6",
    "name": "Pujehun",
    "state_id": "c735f150-abe3-41e2-b253-7b553660ef79"
  },
  {
    "id": "e3f56026-16cf-45cf-b041-e9e7523ffaf8",
    "name": "Pujehun District",
    "state_id": "c735f150-abe3-41e2-b253-7b553660ef79"
  },
  {
    "id": "ebc98d4c-318b-41d4-ab54-17270446ba82",
    "name": "Rotifunk",
    "state_id": "c735f150-abe3-41e2-b253-7b553660ef79"
  },
  {
    "id": "1d36c437-1310-4143-98f2-495b0545f6a3",
    "name": "Serabu",
    "state_id": "c735f150-abe3-41e2-b253-7b553660ef79"
  },
  {
    "id": "38ac3ab8-a076-40bf-a2ea-4df374c016ca",
    "name": "Sumbuya",
    "state_id": "c735f150-abe3-41e2-b253-7b553660ef79"
  },
  {
    "id": "2010b91a-e7d9-4abb-820f-d85fc411e369",
    "name": "Tongole",
    "state_id": "c735f150-abe3-41e2-b253-7b553660ef79"
  },
  {
    "id": "35033b45-d01a-493f-946d-c8a5373b593e",
    "name": "Zimmi",
    "state_id": "c735f150-abe3-41e2-b253-7b553660ef79"
  }
]