[
  {
    "id": "fc927852-3bb0-4eb2-99ed-071dbad849f3",
    "name": "Balassagyarmat",
    "state_id": "c74ccf1f-15f1-49e8-a79f-f0d9382f7bca"
  },
  {
    "id": "90e45264-4a8c-4796-b544-9c1475e4468d",
    "name": "Balassagyarmati Járás",
    "state_id": "c74ccf1f-15f1-49e8-a79f-f0d9382f7bca"
  },
  {
    "id": "f84a540c-fbff-4b28-adff-72d555a8f260",
    "name": "Bátonyterenye",
    "state_id": "c74ccf1f-15f1-49e8-a79f-f0d9382f7bca"
  },
  {
    "id": "306ab16a-5450-4da3-bae5-4f70d9912eb6",
    "name": "Bátonyterenyei Járás",
    "state_id": "c74ccf1f-15f1-49e8-a79f-f0d9382f7bca"
  },
  {
    "id": "3999b458-1608-4fb6-aa56-ea6b4f9e3d9e",
    "name": "Bercel",
    "state_id": "c74ccf1f-15f1-49e8-a79f-f0d9382f7bca"
  },
  {
    "id": "d8ad5bc1-a68b-4f96-95d7-29679d1c0ce6",
    "name": "Buják",
    "state_id": "c74ccf1f-15f1-49e8-a79f-f0d9382f7bca"
  },
  {
    "id": "29c8dbb4-4b35-4da9-bccb-fdb0e19048dd",
    "name": "Diósjenő",
    "state_id": "c74ccf1f-15f1-49e8-a79f-f0d9382f7bca"
  },
  {
    "id": "8551cf87-322e-42dd-aacc-74d278e72ed5",
    "name": "Érsekvadkert",
    "state_id": "c74ccf1f-15f1-49e8-a79f-f0d9382f7bca"
  },
  {
    "id": "84c521e9-6267-4a4d-82b6-be99f361b92a",
    "name": "Héhalom",
    "state_id": "c74ccf1f-15f1-49e8-a79f-f0d9382f7bca"
  },
  {
    "id": "b418ff00-9326-473b-ad62-f75160e0ec94",
    "name": "Jobbágyi",
    "state_id": "c74ccf1f-15f1-49e8-a79f-f0d9382f7bca"
  },
  {
    "id": "e1672e0f-aa73-4df5-b573-78bf2adbfc8b",
    "name": "Karancskeszi",
    "state_id": "c74ccf1f-15f1-49e8-a79f-f0d9382f7bca"
  },
  {
    "id": "c8f8beb8-8bfe-45c9-883f-3cf3993f7767",
    "name": "Karancslapujtő",
    "state_id": "c74ccf1f-15f1-49e8-a79f-f0d9382f7bca"
  },
  {
    "id": "6674b385-23a5-4455-8e6b-aec83fe45b27",
    "name": "Kazár",
    "state_id": "c74ccf1f-15f1-49e8-a79f-f0d9382f7bca"
  },
  {
    "id": "29be934f-9165-4c2b-a079-04d748ea41d9",
    "name": "Mátranovák",
    "state_id": "c74ccf1f-15f1-49e8-a79f-f0d9382f7bca"
  },
  {
    "id": "d6c8c3ba-a6fe-428c-b9fc-aee2bb3b2e4c",
    "name": "Mátraterenye",
    "state_id": "c74ccf1f-15f1-49e8-a79f-f0d9382f7bca"
  },
  {
    "id": "4b68aaf0-ef98-48bd-927b-feaaead2efdc",
    "name": "Mátraverebély",
    "state_id": "c74ccf1f-15f1-49e8-a79f-f0d9382f7bca"
  },
  {
    "id": "e4a61cd0-b0e4-4b52-aa1e-984210226388",
    "name": "Nagyoroszi",
    "state_id": "c74ccf1f-15f1-49e8-a79f-f0d9382f7bca"
  },
  {
    "id": "03fd2db7-9df8-4d66-aa8a-8612f758b7a4",
    "name": "Palotás",
    "state_id": "c74ccf1f-15f1-49e8-a79f-f0d9382f7bca"
  },
  {
    "id": "d125e763-4bac-4be7-b1d9-16b345d53da8",
    "name": "Pásztó",
    "state_id": "c74ccf1f-15f1-49e8-a79f-f0d9382f7bca"
  },
  {
    "id": "bd490066-d3c6-4433-ba10-d62f0bf5e126",
    "name": "Pásztói Járás",
    "state_id": "c74ccf1f-15f1-49e8-a79f-f0d9382f7bca"
  },
  {
    "id": "d78aa2da-82be-4171-bc31-cac922eadf31",
    "name": "Rétság",
    "state_id": "c74ccf1f-15f1-49e8-a79f-f0d9382f7bca"
  },
  {
    "id": "a8a7f2e7-d7c1-4643-a27a-ff0277227eb5",
    "name": "Rétsági Járás",
    "state_id": "c74ccf1f-15f1-49e8-a79f-f0d9382f7bca"
  },
  {
    "id": "5232eaa8-5f9c-4df5-95d5-fcd454a2c344",
    "name": "Rimóc",
    "state_id": "c74ccf1f-15f1-49e8-a79f-f0d9382f7bca"
  },
  {
    "id": "89f96d9b-8447-496f-95c6-8d3f06f18329",
    "name": "Romhány",
    "state_id": "c74ccf1f-15f1-49e8-a79f-f0d9382f7bca"
  },
  {
    "id": "c62e8dbc-28b2-41ac-b208-78439526e4ff",
    "name": "Salgótarján",
    "state_id": "c74ccf1f-15f1-49e8-a79f-f0d9382f7bca"
  },
  {
    "id": "6fa3bdb3-b8e4-4f50-95fd-9f9e5c8e2562",
    "name": "Salgótarjáni Járás",
    "state_id": "c74ccf1f-15f1-49e8-a79f-f0d9382f7bca"
  },
  {
    "id": "5be939b9-9950-49b4-93a8-67085e0d78f1",
    "name": "Somoskőújfalu",
    "state_id": "c74ccf1f-15f1-49e8-a79f-f0d9382f7bca"
  },
  {
    "id": "d4dcda76-5d3e-45b0-a7f1-181aef5c49cb",
    "name": "Szécsény",
    "state_id": "c74ccf1f-15f1-49e8-a79f-f0d9382f7bca"
  },
  {
    "id": "6fd9591d-7eb3-4c1b-8b29-0996f96b3ba3",
    "name": "Szécsényi Járás",
    "state_id": "c74ccf1f-15f1-49e8-a79f-f0d9382f7bca"
  },
  {
    "id": "87eb6c9b-2b6e-4251-9354-f34b4a8501d2",
    "name": "Szurdokpüspöki",
    "state_id": "c74ccf1f-15f1-49e8-a79f-f0d9382f7bca"
  },
  {
    "id": "dfc3aaf5-270d-429f-b5ef-90b28c48cea6",
    "name": "Tar",
    "state_id": "c74ccf1f-15f1-49e8-a79f-f0d9382f7bca"
  }
]