[
  {
    "id": "eab81ac7-4316-4e3d-8d3a-8764d5874be1",
    "name": "Babice",
    "state_id": "c75e9f8b-c35e-454f-af61-64299cb571c3"
  },
  {
    "id": "ebe5019a-1e6d-4bc8-b2df-f96ed9341309",
    "name": "Bánov",
    "state_id": "c75e9f8b-c35e-454f-af61-64299cb571c3"
  },
  {
    "id": "c90d107d-93ed-48ca-ad71-6edf66ffda62",
    "name": "Bílovice",
    "state_id": "c75e9f8b-c35e-454f-af61-64299cb571c3"
  },
  {
    "id": "1174c051-7e56-4c76-888b-b5fb5b2833e7",
    "name": "Bojkovice",
    "state_id": "c75e9f8b-c35e-454f-af61-64299cb571c3"
  },
  {
    "id": "27da8b10-4630-4e01-a205-c2b64f119129",
    "name": "Boršice",
    "state_id": "c75e9f8b-c35e-454f-af61-64299cb571c3"
  },
  {
    "id": "edf0056a-5948-4e5b-96ad-ee7c12e641fc",
    "name": "Březnice",
    "state_id": "c75e9f8b-c35e-454f-af61-64299cb571c3"
  },
  {
    "id": "e941615e-cfce-4603-93ee-cb82b711b3bf",
    "name": "Březolupy",
    "state_id": "c75e9f8b-c35e-454f-af61-64299cb571c3"
  },
  {
    "id": "4786ee98-9735-4a73-b044-09130505254f",
    "name": "Březová",
    "state_id": "c75e9f8b-c35e-454f-af61-64299cb571c3"
  },
  {
    "id": "eff87c0e-b487-4978-9026-f36a6e664fc0",
    "name": "Buchlovice",
    "state_id": "c75e9f8b-c35e-454f-af61-64299cb571c3"
  },
  {
    "id": "dde12f47-73dd-4492-b416-f1ce5b70698b",
    "name": "Bystřice pod Hostýnem",
    "state_id": "c75e9f8b-c35e-454f-af61-64299cb571c3"
  },
  {
    "id": "a0a5b586-2a40-49da-b1fa-2e7b4ed98896",
    "name": "Chropyně",
    "state_id": "c75e9f8b-c35e-454f-af61-64299cb571c3"
  },
  {
    "id": "70e82674-299f-49dc-b591-98a3c85a20dd",
    "name": "Chvalčov",
    "state_id": "c75e9f8b-c35e-454f-af61-64299cb571c3"
  },
  {
    "id": "1a25fb66-372e-4d17-a281-a8f4af0681d3",
    "name": "Dolní Bečva",
    "state_id": "c75e9f8b-c35e-454f-af61-64299cb571c3"
  },
  {
    "id": "025bb222-d59d-40cd-aa95-c39a1995daab",
    "name": "Dolní Němčí",
    "state_id": "c75e9f8b-c35e-454f-af61-64299cb571c3"
  },
  {
    "id": "3bd6a94a-0e02-4314-a08b-ca9d0eb5cb08",
    "name": "Francova Lhota",
    "state_id": "c75e9f8b-c35e-454f-af61-64299cb571c3"
  },
  {
    "id": "12644826-2f29-4eec-babe-3b6b5a47df7d",
    "name": "Fryšták",
    "state_id": "c75e9f8b-c35e-454f-af61-64299cb571c3"
  },
  {
    "id": "65d2e34b-ec98-466b-9c7f-9fe0d3d30a8a",
    "name": "Halenkov",
    "state_id": "c75e9f8b-c35e-454f-af61-64299cb571c3"
  },
  {
    "id": "4eb39120-2df0-45ee-9374-d19ab26ba50f",
    "name": "Halenkovice",
    "state_id": "c75e9f8b-c35e-454f-af61-64299cb571c3"
  },
  {
    "id": "56983c8f-d9ef-4ee6-a87d-b42c71dce6ba",
    "name": "Hluk",
    "state_id": "c75e9f8b-c35e-454f-af61-64299cb571c3"
  },
  {
    "id": "3e796f71-cf69-46b6-b777-71048dc6c46a",
    "name": "Holešov",
    "state_id": "c75e9f8b-c35e-454f-af61-64299cb571c3"
  },
  {
    "id": "64d8593b-3e41-4bde-a3aa-902de30e585a",
    "name": "Horní Bečva",
    "state_id": "c75e9f8b-c35e-454f-af61-64299cb571c3"
  },
  {
    "id": "2ece3ea9-ff3e-4605-a0a0-af37c3503e36",
    "name": "Horní Lideč",
    "state_id": "c75e9f8b-c35e-454f-af61-64299cb571c3"
  },
  {
    "id": "852e6fe9-d8fd-4cb8-939b-bb650d309bd1",
    "name": "Hošťálková",
    "state_id": "c75e9f8b-c35e-454f-af61-64299cb571c3"
  },
  {
    "id": "efc52985-df79-423f-b9a5-d66d004aeb2c",
    "name": "Hovězí",
    "state_id": "c75e9f8b-c35e-454f-af61-64299cb571c3"
  },
  {
    "id": "e0dbb50a-5dd4-4a90-a258-2021b996e2c3",
    "name": "Hulín",
    "state_id": "c75e9f8b-c35e-454f-af61-64299cb571c3"
  },
  {
    "id": "7fc593ab-346f-4382-8154-d9f509bb1315",
    "name": "Hvozdná",
    "state_id": "c75e9f8b-c35e-454f-af61-64299cb571c3"
  },
  {
    "id": "374c2de2-3884-49b2-9ec3-d8ca69acf27d",
    "name": "Jablůnka",
    "state_id": "c75e9f8b-c35e-454f-af61-64299cb571c3"
  },
  {
    "id": "5bcc6512-685e-4c79-a9a0-5cef97b95712",
    "name": "Jalubí",
    "state_id": "c75e9f8b-c35e-454f-af61-64299cb571c3"
  },
  {
    "id": "343a6daa-db5c-44c9-b8ff-fe1498a00408",
    "name": "Karolinka",
    "state_id": "c75e9f8b-c35e-454f-af61-64299cb571c3"
  },
  {
    "id": "79e0c78e-b8fa-4dc7-8a26-84436a30172a",
    "name": "Kelč",
    "state_id": "c75e9f8b-c35e-454f-af61-64299cb571c3"
  },
  {
    "id": "26576c3f-a9f8-417f-b12e-7c51b32c9fda",
    "name": "Kněžpole",
    "state_id": "c75e9f8b-c35e-454f-af61-64299cb571c3"
  },
  {
    "id": "66f09ac6-94b9-4fff-bcc5-acc052abaf9c",
    "name": "Koryčany",
    "state_id": "c75e9f8b-c35e-454f-af61-64299cb571c3"
  },
  {
    "id": "19735046-8269-4455-ab66-3bc418da72a6",
    "name": "Kroměříž",
    "state_id": "c75e9f8b-c35e-454f-af61-64299cb571c3"
  },
  {
    "id": "e7b18eaf-9172-4b9f-bf05-e7ee42cdc45b",
    "name": "Kunovice",
    "state_id": "c75e9f8b-c35e-454f-af61-64299cb571c3"
  },
  {
    "id": "2570e922-85a1-43eb-8c7b-2bcf407791e6",
    "name": "Kvasice",
    "state_id": "c75e9f8b-c35e-454f-af61-64299cb571c3"
  },
  {
    "id": "63029870-00f2-4046-be9d-2d6147483bc4",
    "name": "Lešná",
    "state_id": "c75e9f8b-c35e-454f-af61-64299cb571c3"
  },
  {
    "id": "f67bef55-ab7d-4ac7-9cda-5fb533bc45ea",
    "name": "Lidečko",
    "state_id": "c75e9f8b-c35e-454f-af61-64299cb571c3"
  },
  {
    "id": "e98c8095-a77c-4e3d-b395-a8f5fef46810",
    "name": "Liptál",
    "state_id": "c75e9f8b-c35e-454f-af61-64299cb571c3"
  },
  {
    "id": "9afca4a9-45d4-4d90-861c-3061abb33b09",
    "name": "Luhačovice",
    "state_id": "c75e9f8b-c35e-454f-af61-64299cb571c3"
  },
  {
    "id": "ae489b04-a95d-4836-80a0-437d388cf765",
    "name": "Lukov",
    "state_id": "c75e9f8b-c35e-454f-af61-64299cb571c3"
  },
  {
    "id": "1ad6bed1-51c4-4ec7-a630-09e84c59c070",
    "name": "Mistřice",
    "state_id": "c75e9f8b-c35e-454f-af61-64299cb571c3"
  },
  {
    "id": "3710f27e-2671-4703-9f90-4cce32751ba4",
    "name": "Napajedla",
    "state_id": "c75e9f8b-c35e-454f-af61-64299cb571c3"
  },
  {
    "id": "aad82427-cf8b-4db7-8ea3-8028be16d2c1",
    "name": "Nedakonice",
    "state_id": "c75e9f8b-c35e-454f-af61-64299cb571c3"
  },
  {
    "id": "da1ee322-d2cc-49c3-b4f7-3bc6610edaf1",
    "name": "Nedašov",
    "state_id": "c75e9f8b-c35e-454f-af61-64299cb571c3"
  },
  {
    "id": "911bb62a-8a29-4e21-984c-56ab5dbfc6ee",
    "name": "Nivnice",
    "state_id": "c75e9f8b-c35e-454f-af61-64299cb571c3"
  },
  {
    "id": "d9ac1160-6a45-4dd8-8fe3-5ff9d0c142b3",
    "name": "Nový Hrozenkov",
    "state_id": "c75e9f8b-c35e-454f-af61-64299cb571c3"
  },
  {
    "id": "a0e07f81-8e11-400c-a770-bd79ddfcf112",
    "name": "Okres Kroměříž",
    "state_id": "c75e9f8b-c35e-454f-af61-64299cb571c3"
  },
  {
    "id": "c2c29c06-9e55-4d22-9e06-b7ad08f01b3e",
    "name": "Okres Uherské Hradiště",
    "state_id": "c75e9f8b-c35e-454f-af61-64299cb571c3"
  },
  {
    "id": "71d589f5-4796-46e0-b7bf-4afa4638713a",
    "name": "Okres Vsetín",
    "state_id": "c75e9f8b-c35e-454f-af61-64299cb571c3"
  },
  {
    "id": "99a41626-177d-4162-9203-95a17b9f5e8e",
    "name": "Okres Zlín",
    "state_id": "c75e9f8b-c35e-454f-af61-64299cb571c3"
  },
  {
    "id": "93ad4c9b-e3c9-4db0-8d6b-056fa013c375",
    "name": "Ostrožská Lhota",
    "state_id": "c75e9f8b-c35e-454f-af61-64299cb571c3"
  },
  {
    "id": "fdf375f3-6d03-4424-a24a-f43343e763ec",
    "name": "Ostrožská Nová Ves",
    "state_id": "c75e9f8b-c35e-454f-af61-64299cb571c3"
  },
  {
    "id": "79b416cd-58ab-4ce6-b4c7-f4ff7bba2a6b",
    "name": "Otrokovice",
    "state_id": "c75e9f8b-c35e-454f-af61-64299cb571c3"
  },
  {
    "id": "c186a12a-4aeb-4b06-ba0d-2b32713b85a6",
    "name": "Polešovice",
    "state_id": "c75e9f8b-c35e-454f-af61-64299cb571c3"
  },
  {
    "id": "39dc1d9d-cf2b-484b-8858-4bdddc71038c",
    "name": "Popovice",
    "state_id": "c75e9f8b-c35e-454f-af61-64299cb571c3"
  },
  {
    "id": "aa3a460d-d282-4f5f-a225-3784010964c5",
    "name": "Pozlovice",
    "state_id": "c75e9f8b-c35e-454f-af61-64299cb571c3"
  },
  {
    "id": "d8ed4cfe-85d5-424c-aa9f-38bc5b6032cb",
    "name": "Prostřední Bečva",
    "state_id": "c75e9f8b-c35e-454f-af61-64299cb571c3"
  },
  {
    "id": "c91f222f-1f85-47a1-83ec-5bf09e8f67df",
    "name": "Prusinovice",
    "state_id": "c75e9f8b-c35e-454f-af61-64299cb571c3"
  },
  {
    "id": "46ba925a-e25f-421c-ba0b-d5364c9a55c8",
    "name": "Rataje",
    "state_id": "c75e9f8b-c35e-454f-af61-64299cb571c3"
  },
  {
    "id": "c746444f-688f-4c66-b774-0378f0299ece",
    "name": "Ratiboř",
    "state_id": "c75e9f8b-c35e-454f-af61-64299cb571c3"
  },
  {
    "id": "b40762ca-cfcc-419d-ba33-8c31f2ae9e38",
    "name": "Rožnov pod Radhoštěm",
    "state_id": "c75e9f8b-c35e-454f-af61-64299cb571c3"
  },
  {
    "id": "84313817-aa61-4b18-8db6-b047005349c5",
    "name": "Slavičín",
    "state_id": "c75e9f8b-c35e-454f-af61-64299cb571c3"
  },
  {
    "id": "75eac640-da6b-4c95-bc5b-f7e27d1fbb7d",
    "name": "Slušovice",
    "state_id": "c75e9f8b-c35e-454f-af61-64299cb571c3"
  },
  {
    "id": "134c9113-14a3-423a-b45d-5a3a68d4a199",
    "name": "Spytihněv",
    "state_id": "c75e9f8b-c35e-454f-af61-64299cb571c3"
  },
  {
    "id": "651bbaec-4a6a-4cbb-bca8-c7f37a743a1a",
    "name": "Staré Město",
    "state_id": "c75e9f8b-c35e-454f-af61-64299cb571c3"
  },
  {
    "id": "3e851937-4634-4fbd-ba58-62b966d17d93",
    "name": "Štítná nad Vláří",
    "state_id": "c75e9f8b-c35e-454f-af61-64299cb571c3"
  },
  {
    "id": "db71839e-50f2-443e-b85c-5efcd78d8996",
    "name": "Strání",
    "state_id": "c75e9f8b-c35e-454f-af61-64299cb571c3"
  },
  {
    "id": "fa30da2d-9942-457b-9309-c39653824b77",
    "name": "Suchá Loz",
    "state_id": "c75e9f8b-c35e-454f-af61-64299cb571c3"
  },
  {
    "id": "b2c0ba8a-0c58-4b88-a93e-65839c7de7a4",
    "name": "Šumice",
    "state_id": "c75e9f8b-c35e-454f-af61-64299cb571c3"
  },
  {
    "id": "59ff754d-af46-4b5f-8214-1f2f9f7aa8af",
    "name": "Tečovice",
    "state_id": "c75e9f8b-c35e-454f-af61-64299cb571c3"
  },
  {
    "id": "f068b2fb-05e1-41d6-8d80-88db31712853",
    "name": "Tlumačov",
    "state_id": "c75e9f8b-c35e-454f-af61-64299cb571c3"
  },
  {
    "id": "3bb5f958-5c23-492d-bd78-e36a03b27026",
    "name": "Topolná",
    "state_id": "c75e9f8b-c35e-454f-af61-64299cb571c3"
  },
  {
    "id": "f1a735b1-5a2a-46a3-9439-669f3724345b",
    "name": "Traplice",
    "state_id": "c75e9f8b-c35e-454f-af61-64299cb571c3"
  },
  {
    "id": "99774341-f41e-4dec-b89c-31c8bed4d2af",
    "name": "Trnava",
    "state_id": "c75e9f8b-c35e-454f-af61-64299cb571c3"
  },
  {
    "id": "340df7fb-2618-4b0b-95b6-7a975a0ec4b4",
    "name": "Tupesy",
    "state_id": "c75e9f8b-c35e-454f-af61-64299cb571c3"
  },
  {
    "id": "7d233559-b041-4fd9-9777-03ad96f34c08",
    "name": "Uherské Hradiště",
    "state_id": "c75e9f8b-c35e-454f-af61-64299cb571c3"
  },
  {
    "id": "e42fedaa-4749-4db7-9f47-df9a033a30ab",
    "name": "Uherský Brod",
    "state_id": "c75e9f8b-c35e-454f-af61-64299cb571c3"
  },
  {
    "id": "4e41b917-7051-4959-b9ae-7574a19c0330",
    "name": "Uherský Ostroh",
    "state_id": "c75e9f8b-c35e-454f-af61-64299cb571c3"
  },
  {
    "id": "05f5f5e1-6d2d-4bf1-b352-32d3797e3119",
    "name": "Újezd",
    "state_id": "c75e9f8b-c35e-454f-af61-64299cb571c3"
  },
  {
    "id": "063ff5e0-fb16-4603-b998-530042ecb947",
    "name": "Valašská Bystřice",
    "state_id": "c75e9f8b-c35e-454f-af61-64299cb571c3"
  },
  {
    "id": "d8575df0-d23f-4cca-9776-712fcc0498ae",
    "name": "Valašská Polanka",
    "state_id": "c75e9f8b-c35e-454f-af61-64299cb571c3"
  },
  {
    "id": "a720c905-1e90-4110-9f12-e4c933f49a80",
    "name": "Valašské Klobouky",
    "state_id": "c75e9f8b-c35e-454f-af61-64299cb571c3"
  },
  {
    "id": "335eb6c9-abbf-4283-a41e-d4b9448d13d2",
    "name": "Valašské Meziříčí",
    "state_id": "c75e9f8b-c35e-454f-af61-64299cb571c3"
  },
  {
    "id": "c0885e08-c463-4b27-9b9e-d02491787847",
    "name": "Velehrad",
    "state_id": "c75e9f8b-c35e-454f-af61-64299cb571c3"
  },
  {
    "id": "6b70b799-b79f-4248-865d-716fcfb1e483",
    "name": "Velké Karlovice",
    "state_id": "c75e9f8b-c35e-454f-af61-64299cb571c3"
  },
  {
    "id": "ce2eeb28-840a-4908-bc29-1a76494e8cf3",
    "name": "Vidče",
    "state_id": "c75e9f8b-c35e-454f-af61-64299cb571c3"
  },
  {
    "id": "303434b7-751b-491e-b5d0-e9bb835f7ee0",
    "name": "Vizovice",
    "state_id": "c75e9f8b-c35e-454f-af61-64299cb571c3"
  },
  {
    "id": "6f72eef1-cb7a-4ea6-af77-7965ef6d20c5",
    "name": "Vlachovice",
    "state_id": "c75e9f8b-c35e-454f-af61-64299cb571c3"
  },
  {
    "id": "dee70e5d-5d61-4053-9957-80ec36313e48",
    "name": "Vlčnov",
    "state_id": "c75e9f8b-c35e-454f-af61-64299cb571c3"
  },
  {
    "id": "012af17c-9443-4e42-8ec1-20e92592ba6f",
    "name": "Všemina",
    "state_id": "c75e9f8b-c35e-454f-af61-64299cb571c3"
  },
  {
    "id": "05580312-12dc-4193-b81c-1935047d43a8",
    "name": "Vsetín",
    "state_id": "c75e9f8b-c35e-454f-af61-64299cb571c3"
  },
  {
    "id": "57175151-66bc-407b-903d-330831a8e306",
    "name": "Záhorovice",
    "state_id": "c75e9f8b-c35e-454f-af61-64299cb571c3"
  },
  {
    "id": "c0e92d0d-5302-4134-8f47-bc0f306c7205",
    "name": "Zašová",
    "state_id": "c75e9f8b-c35e-454f-af61-64299cb571c3"
  },
  {
    "id": "1b3e03b7-3d6f-467f-8850-03a1dc78dbf8",
    "name": "Zborovice",
    "state_id": "c75e9f8b-c35e-454f-af61-64299cb571c3"
  },
  {
    "id": "cc407a5a-dcb1-43e5-896a-e4d39e1396de",
    "name": "Zdounky",
    "state_id": "c75e9f8b-c35e-454f-af61-64299cb571c3"
  },
  {
    "id": "4137b5aa-eea4-4a5b-9723-d73bb6c2d44a",
    "name": "Zlechov",
    "state_id": "c75e9f8b-c35e-454f-af61-64299cb571c3"
  },
  {
    "id": "f48c9dda-88ed-49a6-acd5-adbf5b3493ea",
    "name": "Zlín",
    "state_id": "c75e9f8b-c35e-454f-af61-64299cb571c3"
  },
  {
    "id": "80869315-c947-42d2-bde5-5e71daf3a506",
    "name": "Žlutava",
    "state_id": "c75e9f8b-c35e-454f-af61-64299cb571c3"
  },
  {
    "id": "1285b7f2-ba32-4bd3-9e7a-d17388671270",
    "name": "Zubří",
    "state_id": "c75e9f8b-c35e-454f-af61-64299cb571c3"
  }
]