[
  {
    "id": "cb9941d3-8246-4790-9f10-0959d4f53647",
    "name": "Cauquenes",
    "state_id": "c78fb1d6-dff0-4155-b114-7c42caf56548"
  },
  {
    "id": "927a95f4-015f-43de-90b3-a723107956de",
    "name": "Chanco",
    "state_id": "c78fb1d6-dff0-4155-b114-7c42caf56548"
  },
  {
    "id": "f1ec948c-4728-4991-bfe8-bc49bb8c5690",
    "name": "Colbún",
    "state_id": "c78fb1d6-dff0-4155-b114-7c42caf56548"
  },
  {
    "id": "dbcaaf55-6d08-498d-bfa4-1559fe0479d7",
    "name": "Constitución",
    "state_id": "c78fb1d6-dff0-4155-b114-7c42caf56548"
  },
  {
    "id": "7c11d200-b0db-4217-9559-56d11c6a4a83",
    "name": "Curepto",
    "state_id": "c78fb1d6-dff0-4155-b114-7c42caf56548"
  },
  {
    "id": "9a9451f1-aa58-4bc7-8aa5-8323aa6e12f4",
    "name": "Curicó",
    "state_id": "c78fb1d6-dff0-4155-b114-7c42caf56548"
  },
  {
    "id": "90164346-e1dd-4518-aa90-0afbb9098461",
    "name": "Empedrado",
    "state_id": "c78fb1d6-dff0-4155-b114-7c42caf56548"
  },
  {
    "id": "59e1baf5-231d-4f36-902b-873f3b76bc6e",
    "name": "Hualañé",
    "state_id": "c78fb1d6-dff0-4155-b114-7c42caf56548"
  },
  {
    "id": "799fbcad-1aaf-493e-8f32-f075148b62ff",
    "name": "Licantén",
    "state_id": "c78fb1d6-dff0-4155-b114-7c42caf56548"
  },
  {
    "id": "b143827a-1a3b-4eba-adb8-6d2a5f3cc20d",
    "name": "Linares",
    "state_id": "c78fb1d6-dff0-4155-b114-7c42caf56548"
  },
  {
    "id": "6af689e8-4760-43f3-8ea2-80b16c4a5a46",
    "name": "Longaví",
    "state_id": "c78fb1d6-dff0-4155-b114-7c42caf56548"
  },
  {
    "id": "5f68da71-8f78-49a2-9fee-c82e61a9dd55",
    "name": "Maule",
    "state_id": "c78fb1d6-dff0-4155-b114-7c42caf56548"
  },
  {
    "id": "f9215db3-3e1e-450a-a38a-c5cbe4222837",
    "name": "Molina",
    "state_id": "c78fb1d6-dff0-4155-b114-7c42caf56548"
  },
  {
    "id": "4828af9a-3449-4ad2-9095-d0c7fff8daa4",
    "name": "Parral",
    "state_id": "c78fb1d6-dff0-4155-b114-7c42caf56548"
  },
  {
    "id": "6d7b40ab-fe55-4b34-b6b1-1badd8c2d649",
    "name": "Pelarco",
    "state_id": "c78fb1d6-dff0-4155-b114-7c42caf56548"
  },
  {
    "id": "213a3d11-7d99-4265-bb6f-e15cd9042e74",
    "name": "Pelluhue",
    "state_id": "c78fb1d6-dff0-4155-b114-7c42caf56548"
  },
  {
    "id": "25bed630-fc2c-41ca-a755-125532ffa191",
    "name": "Pencahue",
    "state_id": "c78fb1d6-dff0-4155-b114-7c42caf56548"
  },
  {
    "id": "be08db95-0c37-4533-b8f2-a138acd44a20",
    "name": "Rauco",
    "state_id": "c78fb1d6-dff0-4155-b114-7c42caf56548"
  },
  {
    "id": "21adfb1c-a8f3-4e3a-834e-fc88f377c256",
    "name": "Retiro",
    "state_id": "c78fb1d6-dff0-4155-b114-7c42caf56548"
  },
  {
    "id": "ccfd0c08-38d2-49fe-b1e4-6dd4497d6344",
    "name": "Río Claro",
    "state_id": "c78fb1d6-dff0-4155-b114-7c42caf56548"
  },
  {
    "id": "bff0c6f3-e9e5-40cf-b04d-d18141c2ef12",
    "name": "Romeral",
    "state_id": "c78fb1d6-dff0-4155-b114-7c42caf56548"
  },
  {
    "id": "f4d2ab45-4a8e-48e6-ba65-884d99fe4fca",
    "name": "Sagrada Familia",
    "state_id": "c78fb1d6-dff0-4155-b114-7c42caf56548"
  },
  {
    "id": "5932eab6-f1be-4a34-aa75-7c56dc4f39ce",
    "name": "San Clemente",
    "state_id": "c78fb1d6-dff0-4155-b114-7c42caf56548"
  },
  {
    "id": "1cfe5aef-3eaf-4943-b2dd-417c2a20f044",
    "name": "San Javier",
    "state_id": "c78fb1d6-dff0-4155-b114-7c42caf56548"
  },
  {
    "id": "c5534073-9168-48af-9ab2-e42248ca28d0",
    "name": "San Rafael",
    "state_id": "c78fb1d6-dff0-4155-b114-7c42caf56548"
  },
  {
    "id": "5f74c00f-8138-4aac-899f-3f3c3e56de6b",
    "name": "Talca",
    "state_id": "c78fb1d6-dff0-4155-b114-7c42caf56548"
  },
  {
    "id": "e2c1b132-c55a-4bb6-ba6d-bb8567365108",
    "name": "Teno",
    "state_id": "c78fb1d6-dff0-4155-b114-7c42caf56548"
  },
  {
    "id": "a185211d-5aa2-4432-aabc-a17303529ce1",
    "name": "Vichuquén",
    "state_id": "c78fb1d6-dff0-4155-b114-7c42caf56548"
  },
  {
    "id": "a9b10372-5c37-45a1-8187-a37298f13403",
    "name": "Villa Alegre",
    "state_id": "c78fb1d6-dff0-4155-b114-7c42caf56548"
  },
  {
    "id": "7216caf0-51d7-4010-a466-e1e752f57ebc",
    "name": "Yerbas Buenas",
    "state_id": "c78fb1d6-dff0-4155-b114-7c42caf56548"
  }
]