[
  {
    "id": "80123e82-a17a-48ab-b1c6-dd8c47e1e379",
    "name": "Hopelchén",
    "state_id": "c7d4e9d8-6d39-495b-8ac6-e2f9294ad6a4"
  },
  {
    "id": "9942bae9-5866-4a9b-8629-47e8a4fa1fee",
    "name": "Orange Walk",
    "state_id": "c7d4e9d8-6d39-495b-8ac6-e2f9294ad6a4"
  },
  {
    "id": "51ea03a8-b413-4bee-a926-0706bbcfc21d",
    "name": "Shipyard",
    "state_id": "c7d4e9d8-6d39-495b-8ac6-e2f9294ad6a4"
  }
]