[
  {
    "id": "2e04eb46-68ec-4646-9b63-c69a95b02291",
    "name": "Altos",
    "state_id": "c7dd8e1c-c7fc-42b1-b58b-9efbc5bc2dba"
  },
  {
    "id": "29fb154e-c2fb-461d-9c7d-c7c5c8121ce8",
    "name": "Arroyos y Esteros",
    "state_id": "c7dd8e1c-c7fc-42b1-b58b-9efbc5bc2dba"
  },
  {
    "id": "8ee5781f-04e1-46e1-b78d-9d6fc47fab3e",
    "name": "Atyrá",
    "state_id": "c7dd8e1c-c7fc-42b1-b58b-9efbc5bc2dba"
  },
  {
    "id": "3646bfd8-7941-4bdd-8e25-dc29d9b925d0",
    "name": "Caacupé",
    "state_id": "c7dd8e1c-c7fc-42b1-b58b-9efbc5bc2dba"
  },
  {
    "id": "96b88193-dc47-42f1-bdb4-6dbc0f3218ba",
    "name": "Caraguatay",
    "state_id": "c7dd8e1c-c7fc-42b1-b58b-9efbc5bc2dba"
  },
  {
    "id": "868daa62-7850-4949-96b6-51e50539b4e2",
    "name": "Emboscada",
    "state_id": "c7dd8e1c-c7fc-42b1-b58b-9efbc5bc2dba"
  },
  {
    "id": "0ceb6450-61ba-4eac-82aa-c67a06ddf5e7",
    "name": "Eusebio Ayala",
    "state_id": "c7dd8e1c-c7fc-42b1-b58b-9efbc5bc2dba"
  },
  {
    "id": "1bd20e8a-9e54-47be-9bcb-446a83b51e2f",
    "name": "Isla Pucú",
    "state_id": "c7dd8e1c-c7fc-42b1-b58b-9efbc5bc2dba"
  },
  {
    "id": "f7e9171f-e483-48fe-b34c-4008eb42d302",
    "name": "Itacurubí de la Cordillera",
    "state_id": "c7dd8e1c-c7fc-42b1-b58b-9efbc5bc2dba"
  },
  {
    "id": "310b5401-7629-4df3-a336-51fa4d11ada2",
    "name": "Piribebuy",
    "state_id": "c7dd8e1c-c7fc-42b1-b58b-9efbc5bc2dba"
  },
  {
    "id": "600c1227-f646-46d6-94fc-09764d176c6b",
    "name": "San Bernardino",
    "state_id": "c7dd8e1c-c7fc-42b1-b58b-9efbc5bc2dba"
  },
  {
    "id": "2d28bbb8-57f1-43ca-8a6f-54b6b993a251",
    "name": "Santa Elena",
    "state_id": "c7dd8e1c-c7fc-42b1-b58b-9efbc5bc2dba"
  },
  {
    "id": "3c1f921c-a5f9-47e7-aa42-1c3ccc98ffc0",
    "name": "Tobatí",
    "state_id": "c7dd8e1c-c7fc-42b1-b58b-9efbc5bc2dba"
  }
]