[
  {
    "id": "1f5ac257-1a63-4679-9d69-ea8009f7c2de",
    "name": "Burao",
    "state_id": "c7ecf8c7-e201-4f10-807e-aaeaff2aced0"
  },
  {
    "id": "5c44dc64-61d2-413b-9f2c-8677e11e68aa",
    "name": "Ceek",
    "state_id": "c7ecf8c7-e201-4f10-807e-aaeaff2aced0"
  },
  {
    "id": "f1d51826-6fa0-4d7e-a1bf-4483820f6954",
    "name": "Oodweyne",
    "state_id": "c7ecf8c7-e201-4f10-807e-aaeaff2aced0"
  }
]