[
  {
    "id": "b10561e1-8fd8-498a-9c40-31648951c5e8",
    "name": "Boca de Parita",
    "state_id": "c89a699e-f99b-4d0f-8923-2f39f9e73378"
  },
  {
    "id": "b6e144af-69b0-47ac-8b75-af8f693a5686",
    "name": "Cabuya",
    "state_id": "c89a699e-f99b-4d0f-8923-2f39f9e73378"
  },
  {
    "id": "ba0dc21d-be71-423f-b413-5f756ec9a5ae",
    "name": "Cerro Largo",
    "state_id": "c89a699e-f99b-4d0f-8923-2f39f9e73378"
  },
  {
    "id": "ec6730e5-88bc-49a5-933e-405463d511f2",
    "name": "Chitré",
    "state_id": "c89a699e-f99b-4d0f-8923-2f39f9e73378"
  },
  {
    "id": "42c95726-e9aa-49df-ba75-ca1ceba6b43b",
    "name": "Chumical",
    "state_id": "c89a699e-f99b-4d0f-8923-2f39f9e73378"
  },
  {
    "id": "09b291bb-7dde-4fd0-9048-eba508af019f",
    "name": "Chupampa",
    "state_id": "c89a699e-f99b-4d0f-8923-2f39f9e73378"
  },
  {
    "id": "2fb3ac5a-c3e3-4caf-8ed1-a39cde9a6071",
    "name": "Distrito de Chitré",
    "state_id": "c89a699e-f99b-4d0f-8923-2f39f9e73378"
  },
  {
    "id": "e307166d-fb5d-48cc-9ea8-df144c2390fb",
    "name": "Distrito de Las Minas",
    "state_id": "c89a699e-f99b-4d0f-8923-2f39f9e73378"
  },
  {
    "id": "06366a16-378a-4b34-ba55-2fab7ab9c171",
    "name": "Distrito de Los Pozos",
    "state_id": "c89a699e-f99b-4d0f-8923-2f39f9e73378"
  },
  {
    "id": "da179323-ce63-4b0d-975e-024d06d87679",
    "name": "Distrito de Ocú",
    "state_id": "c89a699e-f99b-4d0f-8923-2f39f9e73378"
  },
  {
    "id": "ba30683d-9770-4615-b6db-cdfc572f5e43",
    "name": "Distrito de Parita",
    "state_id": "c89a699e-f99b-4d0f-8923-2f39f9e73378"
  },
  {
    "id": "309139fd-11b1-4f5f-b548-2878e6fca974",
    "name": "Distrito de Pesé",
    "state_id": "c89a699e-f99b-4d0f-8923-2f39f9e73378"
  },
  {
    "id": "d2b17198-e5f9-45d3-bc15-b11bca52dff9",
    "name": "Distrito de Santa María",
    "state_id": "c89a699e-f99b-4d0f-8923-2f39f9e73378"
  },
  {
    "id": "1c90fac1-4a07-4c95-a080-1db67e736359",
    "name": "El Calabacito",
    "state_id": "c89a699e-f99b-4d0f-8923-2f39f9e73378"
  },
  {
    "id": "b8a29d1d-a0aa-4104-86ad-0ea5ab04ae66",
    "name": "El Capurí",
    "state_id": "c89a699e-f99b-4d0f-8923-2f39f9e73378"
  },
  {
    "id": "c6c21ab3-912b-4dcd-9af4-96a82e174728",
    "name": "El Cedro",
    "state_id": "c89a699e-f99b-4d0f-8923-2f39f9e73378"
  },
  {
    "id": "91939d43-7e67-4865-a1f1-093a6064611e",
    "name": "El Pedregoso",
    "state_id": "c89a699e-f99b-4d0f-8923-2f39f9e73378"
  },
  {
    "id": "05017bc0-1abf-4c01-9ce0-bb5327cbee5a",
    "name": "El Rincón",
    "state_id": "c89a699e-f99b-4d0f-8923-2f39f9e73378"
  },
  {
    "id": "4f070791-7ef7-4254-85ac-ed114d6322b7",
    "name": "El Toro",
    "state_id": "c89a699e-f99b-4d0f-8923-2f39f9e73378"
  },
  {
    "id": "da82a230-c96f-4063-908f-fe8fb853f3f3",
    "name": "La Arena",
    "state_id": "c89a699e-f99b-4d0f-8923-2f39f9e73378"
  },
  {
    "id": "c7153504-24ca-4d70-852c-2a413c0c0aac",
    "name": "La Trinidad",
    "state_id": "c89a699e-f99b-4d0f-8923-2f39f9e73378"
  },
  {
    "id": "7ae79b09-11c9-48f9-936a-e5a484a33e00",
    "name": "Las Guabas",
    "state_id": "c89a699e-f99b-4d0f-8923-2f39f9e73378"
  },
  {
    "id": "a0837aa4-7cc4-48c9-a931-5a7c187b17be",
    "name": "Las Minas",
    "state_id": "c89a699e-f99b-4d0f-8923-2f39f9e73378"
  },
  {
    "id": "e9371134-6f36-488c-8ea3-dc5f6cafbaaf",
    "name": "Leones Arriba",
    "state_id": "c89a699e-f99b-4d0f-8923-2f39f9e73378"
  },
  {
    "id": "efd44b25-9dbe-4bbb-a33c-8ed24544c49b",
    "name": "Limón de Tijeras",
    "state_id": "c89a699e-f99b-4d0f-8923-2f39f9e73378"
  },
  {
    "id": "0017c891-477a-4dc7-aa41-be5779313900",
    "name": "Llano Bonito",
    "state_id": "c89a699e-f99b-4d0f-8923-2f39f9e73378"
  },
  {
    "id": "6b2415fc-6260-48b6-93c6-fec3f00de58a",
    "name": "Llano de La Cruz",
    "state_id": "c89a699e-f99b-4d0f-8923-2f39f9e73378"
  },
  {
    "id": "4d35a95d-b6fc-4775-a1f3-8f114e839011",
    "name": "Llano Grande",
    "state_id": "c89a699e-f99b-4d0f-8923-2f39f9e73378"
  },
  {
    "id": "cfdb7ce9-b5bd-4b30-844f-6d875a9631df",
    "name": "Los Canelos",
    "state_id": "c89a699e-f99b-4d0f-8923-2f39f9e73378"
  },
  {
    "id": "c29676c8-9afc-4b9d-b4fe-4436e556649d",
    "name": "Los Castillos",
    "state_id": "c89a699e-f99b-4d0f-8923-2f39f9e73378"
  },
  {
    "id": "773fcd36-61ca-4def-8846-a2846813b1e5",
    "name": "Los Cerritos",
    "state_id": "c89a699e-f99b-4d0f-8923-2f39f9e73378"
  },
  {
    "id": "bd93958c-d2e2-4b8a-9045-8cf435ea88c1",
    "name": "Los Cerros de Paja",
    "state_id": "c89a699e-f99b-4d0f-8923-2f39f9e73378"
  },
  {
    "id": "f2f77b98-0089-4209-ac6c-fb5b2ae3955b",
    "name": "Los Pozos",
    "state_id": "c89a699e-f99b-4d0f-8923-2f39f9e73378"
  },
  {
    "id": "0e809dfe-0bf4-46b6-a2b8-5135c4f1f9ba",
    "name": "Monagrillo",
    "state_id": "c89a699e-f99b-4d0f-8923-2f39f9e73378"
  },
  {
    "id": "ee609a22-e5ff-4302-8184-1c2355356faf",
    "name": "Ocú",
    "state_id": "c89a699e-f99b-4d0f-8923-2f39f9e73378"
  },
  {
    "id": "42d8ca3b-7fdc-47ca-ab02-42b10654b9b8",
    "name": "París",
    "state_id": "c89a699e-f99b-4d0f-8923-2f39f9e73378"
  },
  {
    "id": "491deba2-dc87-4d60-8d10-c7746a10bd2d",
    "name": "Parita",
    "state_id": "c89a699e-f99b-4d0f-8923-2f39f9e73378"
  },
  {
    "id": "2ecdce62-fbfd-4689-9328-1d79a22182ac",
    "name": "Peñas Chatas",
    "state_id": "c89a699e-f99b-4d0f-8923-2f39f9e73378"
  },
  {
    "id": "2bea1666-4c45-4f3b-ab19-71bd9b8efefe",
    "name": "Pesé",
    "state_id": "c89a699e-f99b-4d0f-8923-2f39f9e73378"
  },
  {
    "id": "e8352005-531d-445f-a7fc-1100f7b5b8a5",
    "name": "Pitaloza Arriba",
    "state_id": "c89a699e-f99b-4d0f-8923-2f39f9e73378"
  },
  {
    "id": "bdef0f9f-f893-436e-8d62-c0b58b25baef",
    "name": "Portobelillo",
    "state_id": "c89a699e-f99b-4d0f-8923-2f39f9e73378"
  },
  {
    "id": "ed9524df-605c-44ca-9a3a-4c6c4cc9b445",
    "name": "Potuga",
    "state_id": "c89a699e-f99b-4d0f-8923-2f39f9e73378"
  },
  {
    "id": "4d036f4f-a4fc-4ee3-8a15-b1f7dad17c96",
    "name": "Quebrada del Rosario",
    "state_id": "c89a699e-f99b-4d0f-8923-2f39f9e73378"
  },
  {
    "id": "b8650522-aadf-4f58-8e76-f700e2b7c473",
    "name": "Rincón Hondo",
    "state_id": "c89a699e-f99b-4d0f-8923-2f39f9e73378"
  },
  {
    "id": "60f801eb-459e-4619-96f2-0ac82932b543",
    "name": "Sabana Grande",
    "state_id": "c89a699e-f99b-4d0f-8923-2f39f9e73378"
  },
  {
    "id": "b5803e49-4518-44df-a408-c525a01c94a6",
    "name": "San Juan Bautista",
    "state_id": "c89a699e-f99b-4d0f-8923-2f39f9e73378"
  },
  {
    "id": "e81a3d48-620c-4fe9-9b8d-ba739d763556",
    "name": "Santa María",
    "state_id": "c89a699e-f99b-4d0f-8923-2f39f9e73378"
  }
]