[
  {
    "id": "e36a9d49-959d-42cc-b8c1-5bb22e1f7aa3",
    "name": "Aksu",
    "state_id": "c8a0c156-2e20-4b7e-9227-aabe0c1479d9"
  },
  {
    "id": "6c77c16b-31a4-4946-a0b1-02f74d8ebc0b",
    "name": "Anamas",
    "state_id": "c8a0c156-2e20-4b7e-9227-aabe0c1479d9"
  },
  {
    "id": "2dc91716-8855-4084-b052-4c710f302ad6",
    "name": "Atabey",
    "state_id": "c8a0c156-2e20-4b7e-9227-aabe0c1479d9"
  },
  {
    "id": "cfcabbee-d6d6-4900-a261-a1a294d4e424",
    "name": "Eğirdir",
    "state_id": "c8a0c156-2e20-4b7e-9227-aabe0c1479d9"
  },
  {
    "id": "0924ba4d-2075-42fa-af8f-aa9ac009f2b4",
    "name": "Gelendost",
    "state_id": "c8a0c156-2e20-4b7e-9227-aabe0c1479d9"
  },
  {
    "id": "1cd852be-29fd-4ad8-9747-567e4427b3a3",
    "name": "Gönen",
    "state_id": "c8a0c156-2e20-4b7e-9227-aabe0c1479d9"
  },
  {
    "id": "b6eebd0b-b58f-4c01-870f-92c83ac36d78",
    "name": "Isparta",
    "state_id": "c8a0c156-2e20-4b7e-9227-aabe0c1479d9"
  },
  {
    "id": "2f1bd20a-affc-4e2d-be59-4c6b5aaebc4f",
    "name": "Keçiborlu",
    "state_id": "c8a0c156-2e20-4b7e-9227-aabe0c1479d9"
  },
  {
    "id": "4879305e-d78f-4921-a417-fc56dc294e57",
    "name": "Pavlu Cebel",
    "state_id": "c8a0c156-2e20-4b7e-9227-aabe0c1479d9"
  },
  {
    "id": "525eb211-0aff-4b91-8bfe-199494d4f1b0",
    "name": "Şarkîkaraağaç",
    "state_id": "c8a0c156-2e20-4b7e-9227-aabe0c1479d9"
  },
  {
    "id": "f2e34270-2827-4853-b76c-6e79e715626e",
    "name": "Senirkent",
    "state_id": "c8a0c156-2e20-4b7e-9227-aabe0c1479d9"
  },
  {
    "id": "391b1045-4bf4-4cf6-a51e-d0f3ad9a9319",
    "name": "Sütçüler İlçesi",
    "state_id": "c8a0c156-2e20-4b7e-9227-aabe0c1479d9"
  },
  {
    "id": "4fa0679b-a95a-4606-b785-1d47d9d85683",
    "name": "Uluborlu",
    "state_id": "c8a0c156-2e20-4b7e-9227-aabe0c1479d9"
  },
  {
    "id": "6f52ebef-7b18-4ba2-9836-49774807cfab",
    "name": "Yalvaç",
    "state_id": "c8a0c156-2e20-4b7e-9227-aabe0c1479d9"
  },
  {
    "id": "a162037f-b93f-443d-978e-e0a1ab35e278",
    "name": "Yenişarbademli",
    "state_id": "c8a0c156-2e20-4b7e-9227-aabe0c1479d9"
  }
]