[
  {
    "id": "3ca52e09-0eac-4d0b-b450-7881b1c8b49a",
    "name": "Couva",
    "state_id": "c8ca3483-24fc-48b6-b75c-9eb1963a7a78"
  },
  {
    "id": "34fc37d0-16b3-4d6e-8d4e-875496bd424f",
    "name": "Tabaquite",
    "state_id": "c8ca3483-24fc-48b6-b75c-9eb1963a7a78"
  }
]