[
  {
    "id": "58f44fb7-340e-41bf-802e-228839fb38d9",
    "name": "Āmol",
    "state_id": "c8e4aa8a-64a4-4467-8134-1d6d8b21f809"
  },
  {
    "id": "075bd5b8-b364-4ab2-9725-bb23b68bdc71",
    "name": "Bābol",
    "state_id": "c8e4aa8a-64a4-4467-8134-1d6d8b21f809"
  },
  {
    "id": "526c496c-2712-4925-9a4d-902bc57e7151",
    "name": "Bābolsar",
    "state_id": "c8e4aa8a-64a4-4467-8134-1d6d8b21f809"
  },
  {
    "id": "b913f9cc-43fc-4637-838a-cf5844025283",
    "name": "Behshahr",
    "state_id": "c8e4aa8a-64a4-4467-8134-1d6d8b21f809"
  },
  {
    "id": "f191c4a6-b61f-4560-a3f2-657ab8948582",
    "name": "Chālūs",
    "state_id": "c8e4aa8a-64a4-4467-8134-1d6d8b21f809"
  },
  {
    "id": "462e753f-5a88-4d32-b970-6255ec19ea3d",
    "name": "Fereydūnkenār",
    "state_id": "c8e4aa8a-64a4-4467-8134-1d6d8b21f809"
  },
  {
    "id": "a849b11e-a83d-435a-830c-bba5070c9f9d",
    "name": "Jūybār",
    "state_id": "c8e4aa8a-64a4-4467-8134-1d6d8b21f809"
  },
  {
    "id": "437cd72e-6698-44fd-ac0f-ca11e6b7b695",
    "name": "Nashtārūd",
    "state_id": "c8e4aa8a-64a4-4467-8134-1d6d8b21f809"
  },
  {
    "id": "39aa4996-370e-4627-97ad-26e597d86c05",
    "name": "Nekā",
    "state_id": "c8e4aa8a-64a4-4467-8134-1d6d8b21f809"
  },
  {
    "id": "2515aca6-1dde-4e89-b3d8-45bb816c3ee5",
    "name": "Nowshahr",
    "state_id": "c8e4aa8a-64a4-4467-8134-1d6d8b21f809"
  },
  {
    "id": "2b3b9b2e-c5fe-4425-8abc-823170365c15",
    "name": "Sari",
    "state_id": "c8e4aa8a-64a4-4467-8134-1d6d8b21f809"
  },
  {
    "id": "8df0e780-d1f7-47b8-b41a-a3920d27868b",
    "name": "Savadkuh-e Shomali",
    "state_id": "c8e4aa8a-64a4-4467-8134-1d6d8b21f809"
  },
  {
    "id": "ac889a3c-cb6a-48d8-894b-9a972a1b6bb0",
    "name": "Shahrestān-e ‘Abbāsābād",
    "state_id": "c8e4aa8a-64a4-4467-8134-1d6d8b21f809"
  },
  {
    "id": "2de5ff25-89f8-4de8-a7de-e35d5843f80d",
    "name": "Shahrestān-e Āmol",
    "state_id": "c8e4aa8a-64a4-4467-8134-1d6d8b21f809"
  },
  {
    "id": "aa47f785-708b-45fc-b1e6-c330fa456ef4",
    "name": "Shahrestān-e Bābol",
    "state_id": "c8e4aa8a-64a4-4467-8134-1d6d8b21f809"
  },
  {
    "id": "4da59202-648a-4860-9fab-ad5ce5dd5de0",
    "name": "Shahrestān-e Bābolsar",
    "state_id": "c8e4aa8a-64a4-4467-8134-1d6d8b21f809"
  },
  {
    "id": "47807f97-c3b5-4110-afe6-42a2d57c9ac2",
    "name": "Shahrestān-e Chālūs",
    "state_id": "c8e4aa8a-64a4-4467-8134-1d6d8b21f809"
  },
  {
    "id": "421bb803-7e49-49a5-9b9d-b2ab6018d314",
    "name": "Shahrestān-e Fareydūnkenār",
    "state_id": "c8e4aa8a-64a4-4467-8134-1d6d8b21f809"
  },
  {
    "id": "9e69d511-9e31-4c76-86f1-63fe7bdb7262",
    "name": "Shahrestān-e Galūgāh",
    "state_id": "c8e4aa8a-64a4-4467-8134-1d6d8b21f809"
  },
  {
    "id": "f9aab854-50b1-4d70-9c5e-361560742b6b",
    "name": "Shahrestān-e Jūybār",
    "state_id": "c8e4aa8a-64a4-4467-8134-1d6d8b21f809"
  },
  {
    "id": "543512d8-ae2a-4131-9404-87c379d590ce",
    "name": "Shahrestan-e Kalār Dasht",
    "state_id": "c8e4aa8a-64a4-4467-8134-1d6d8b21f809"
  },
  {
    "id": "14c961b6-7c8a-435c-a065-336a0c337f27",
    "name": "Shahrestān-e Maḩmūdābād",
    "state_id": "c8e4aa8a-64a4-4467-8134-1d6d8b21f809"
  },
  {
    "id": "a85a057d-1e7d-4cd4-b5a9-c96294809b44",
    "name": "Shahrestān-e Mīāndorūd",
    "state_id": "c8e4aa8a-64a4-4467-8134-1d6d8b21f809"
  },
  {
    "id": "a3524136-f356-4021-9720-049ece6c1f46",
    "name": "Shahrestān-e Nekā",
    "state_id": "c8e4aa8a-64a4-4467-8134-1d6d8b21f809"
  },
  {
    "id": "631ab424-facb-4698-b8e3-1cea313c60b8",
    "name": "Shahrestān-e Nūr",
    "state_id": "c8e4aa8a-64a4-4467-8134-1d6d8b21f809"
  },
  {
    "id": "413a3fa8-3b4e-4b7f-a35b-f5d5a94cdf95",
    "name": "Shahrestān-e Qā’em Shahr",
    "state_id": "c8e4aa8a-64a4-4467-8134-1d6d8b21f809"
  },
  {
    "id": "b0c96e03-e0f6-402d-b326-95fbd620c859",
    "name": "Shahrestān-e Rāmsar",
    "state_id": "c8e4aa8a-64a4-4467-8134-1d6d8b21f809"
  },
  {
    "id": "0e0b9c78-3ad5-496c-a463-5b1d6a2d1202",
    "name": "Shahrestān-e Sārī",
    "state_id": "c8e4aa8a-64a4-4467-8134-1d6d8b21f809"
  },
  {
    "id": "40fe925e-ce9f-4848-a2b8-86e239f9dee7",
    "name": "Shahrestān-e Savādkūh",
    "state_id": "c8e4aa8a-64a4-4467-8134-1d6d8b21f809"
  },
  {
    "id": "b923aad8-eb1b-4e88-a521-0f789e116473",
    "name": "Shahrestān-e Tonekābon",
    "state_id": "c8e4aa8a-64a4-4467-8134-1d6d8b21f809"
  },
  {
    "id": "181aeb9b-5f5a-40d8-be71-85ddfcb2da45",
    "name": "Simorgh County",
    "state_id": "c8e4aa8a-64a4-4467-8134-1d6d8b21f809"
  },
  {
    "id": "6712fe24-6e40-4811-9f9b-e73a54bb4102",
    "name": "Tonekābon",
    "state_id": "c8e4aa8a-64a4-4467-8134-1d6d8b21f809"
  }
]