[
  {
    "id": "3691fd34-ed06-4693-852f-b6d84b99b8b8",
    "name": "Abangares",
    "state_id": "ca4aa172-e7a4-4ca8-86a9-e92e5d1e8a26"
  },
  {
    "id": "20ddb973-9608-447e-b37a-38c3aa33e1d0",
    "name": "Bagaces",
    "state_id": "ca4aa172-e7a4-4ca8-86a9-e92e5d1e8a26"
  },
  {
    "id": "a2c88ec5-4ba6-474b-8f70-18453fa20bd3",
    "name": "Belén",
    "state_id": "ca4aa172-e7a4-4ca8-86a9-e92e5d1e8a26"
  },
  {
    "id": "ce11f618-ac3d-43c8-af93-468c7061eb15",
    "name": "Cañas",
    "state_id": "ca4aa172-e7a4-4ca8-86a9-e92e5d1e8a26"
  },
  {
    "id": "f821bded-58f0-418b-b293-ad380415a61c",
    "name": "Carrillo",
    "state_id": "ca4aa172-e7a4-4ca8-86a9-e92e5d1e8a26"
  },
  {
    "id": "772d9a16-d554-4564-a02c-4081bb4b2855",
    "name": "Fortuna",
    "state_id": "ca4aa172-e7a4-4ca8-86a9-e92e5d1e8a26"
  },
  {
    "id": "c1c80347-efe6-4d85-b574-0713574b910c",
    "name": "Hojancha",
    "state_id": "ca4aa172-e7a4-4ca8-86a9-e92e5d1e8a26"
  },
  {
    "id": "9a3f3413-c7ba-46a3-94ba-1457cfdc4772",
    "name": "Juntas",
    "state_id": "ca4aa172-e7a4-4ca8-86a9-e92e5d1e8a26"
  },
  {
    "id": "b006ada0-2a73-47a6-b6ec-30fa3ab633a4",
    "name": "La Cruz",
    "state_id": "ca4aa172-e7a4-4ca8-86a9-e92e5d1e8a26"
  },
  {
    "id": "221ed582-ea06-4fa9-8f2f-22834cd603b3",
    "name": "Liberia",
    "state_id": "ca4aa172-e7a4-4ca8-86a9-e92e5d1e8a26"
  },
  {
    "id": "131c8cde-3ea9-423d-9031-96128ff7d854",
    "name": "Nandayure",
    "state_id": "ca4aa172-e7a4-4ca8-86a9-e92e5d1e8a26"
  },
  {
    "id": "72a055c4-25cd-4d08-9daf-8ee721143cc7",
    "name": "Nicoya",
    "state_id": "ca4aa172-e7a4-4ca8-86a9-e92e5d1e8a26"
  },
  {
    "id": "a55513dd-0e9f-48e6-b9dc-ac10f92a7e9c",
    "name": "Sámara",
    "state_id": "ca4aa172-e7a4-4ca8-86a9-e92e5d1e8a26"
  },
  {
    "id": "3e5df490-f720-4716-b4ac-308e7247adfd",
    "name": "Santa Cruz",
    "state_id": "ca4aa172-e7a4-4ca8-86a9-e92e5d1e8a26"
  },
  {
    "id": "e9ce5a2a-a61c-43e5-9ff2-5ccbf0b786fc",
    "name": "Sardinal",
    "state_id": "ca4aa172-e7a4-4ca8-86a9-e92e5d1e8a26"
  },
  {
    "id": "6fae8843-2bb1-4e55-a2e0-e80689ed3051",
    "name": "Tilarán",
    "state_id": "ca4aa172-e7a4-4ca8-86a9-e92e5d1e8a26"
  }
]