[
  {
    "id": "4b3c49ec-3f59-4081-b234-53e114d0d606",
    "name": "Belaya",
    "state_id": "cb1ae5b9-23a1-4a7a-8ae2-81baeb9b4931"
  },
  {
    "id": "c3390c93-2b3e-4378-8289-5618d3077b0b",
    "name": "Cheremisinovo",
    "state_id": "cb1ae5b9-23a1-4a7a-8ae2-81baeb9b4931"
  },
  {
    "id": "f99761e2-92dc-4928-a241-ffe4b4fc8163",
    "name": "Cheremisinovskiy Rayon",
    "state_id": "cb1ae5b9-23a1-4a7a-8ae2-81baeb9b4931"
  },
  {
    "id": "ebdc1527-0dbb-480d-b137-51d9b552a1d8",
    "name": "Chernitsyno",
    "state_id": "cb1ae5b9-23a1-4a7a-8ae2-81baeb9b4931"
  },
  {
    "id": "62f77c22-92df-47b7-8cb6-3773851b76a5",
    "name": "Fatezh",
    "state_id": "cb1ae5b9-23a1-4a7a-8ae2-81baeb9b4931"
  },
  {
    "id": "d003ff60-9243-4aee-9807-5498508a0166",
    "name": "Fatezhskiy Rayon",
    "state_id": "cb1ae5b9-23a1-4a7a-8ae2-81baeb9b4931"
  },
  {
    "id": "4b3b5ccc-27c0-4279-986a-5d32688d4046",
    "name": "Glushkovo",
    "state_id": "cb1ae5b9-23a1-4a7a-8ae2-81baeb9b4931"
  },
  {
    "id": "166a7c4e-58dc-4f4c-b51e-20ef314c206f",
    "name": "Gorshechenskiy Rayon",
    "state_id": "cb1ae5b9-23a1-4a7a-8ae2-81baeb9b4931"
  },
  {
    "id": "eee4ae8a-94af-41b2-ba43-f1ee88be10ff",
    "name": "Gorshechnoye",
    "state_id": "cb1ae5b9-23a1-4a7a-8ae2-81baeb9b4931"
  },
  {
    "id": "aa3dee25-67af-46b5-abc2-547863758069",
    "name": "Ivanino",
    "state_id": "cb1ae5b9-23a1-4a7a-8ae2-81baeb9b4931"
  },
  {
    "id": "273d521b-f08c-4121-92f0-860b645d4aaa",
    "name": "Kastorenskiy Rayon",
    "state_id": "cb1ae5b9-23a1-4a7a-8ae2-81baeb9b4931"
  },
  {
    "id": "051dfbbf-f1b3-4f40-b314-1dd5d44bdea7",
    "name": "Kastornoye",
    "state_id": "cb1ae5b9-23a1-4a7a-8ae2-81baeb9b4931"
  },
  {
    "id": "6365b9a2-1823-4931-8c74-14b5ee945121",
    "name": "Khomutovka",
    "state_id": "cb1ae5b9-23a1-4a7a-8ae2-81baeb9b4931"
  },
  {
    "id": "cea7e4d7-ce36-44b0-854f-4ec9126f452a",
    "name": "Kirovskiy",
    "state_id": "cb1ae5b9-23a1-4a7a-8ae2-81baeb9b4931"
  },
  {
    "id": "ee7da17b-fb91-4491-81ca-54ef12af1daf",
    "name": "Konyshevka",
    "state_id": "cb1ae5b9-23a1-4a7a-8ae2-81baeb9b4931"
  },
  {
    "id": "8988c550-4548-4cbb-91ba-259e4752ed89",
    "name": "Korenëvo",
    "state_id": "cb1ae5b9-23a1-4a7a-8ae2-81baeb9b4931"
  },
  {
    "id": "ec806112-9282-4f31-9a4a-9b9d20830447",
    "name": "Kshenskiy",
    "state_id": "cb1ae5b9-23a1-4a7a-8ae2-81baeb9b4931"
  },
  {
    "id": "9d53ade7-efda-48dc-937c-230dc28bf3fe",
    "name": "Kurchatov",
    "state_id": "cb1ae5b9-23a1-4a7a-8ae2-81baeb9b4931"
  },
  {
    "id": "ec40dab5-024e-4ded-843c-bebaa8327834",
    "name": "Kursk",
    "state_id": "cb1ae5b9-23a1-4a7a-8ae2-81baeb9b4931"
  },
  {
    "id": "db2fc083-cb38-41c6-bfac-8007aed5a4c0",
    "name": "Kurskiy Rayon",
    "state_id": "cb1ae5b9-23a1-4a7a-8ae2-81baeb9b4931"
  },
  {
    "id": "69f7ad9a-c3c9-4d1c-b6bd-2dc3743c13fa",
    "name": "L’govskiy",
    "state_id": "cb1ae5b9-23a1-4a7a-8ae2-81baeb9b4931"
  },
  {
    "id": "a08f1f1f-1752-4ab7-865a-b85cbcdafbec",
    "name": "L’govskiy Rayon",
    "state_id": "cb1ae5b9-23a1-4a7a-8ae2-81baeb9b4931"
  },
  {
    "id": "4b2d113f-eff8-45d9-99cc-cf27774802b0",
    "name": "Manturovo",
    "state_id": "cb1ae5b9-23a1-4a7a-8ae2-81baeb9b4931"
  },
  {
    "id": "e3a8958a-8219-4300-a43f-056785a0b497",
    "name": "Medvenskiy Rayon",
    "state_id": "cb1ae5b9-23a1-4a7a-8ae2-81baeb9b4931"
  },
  {
    "id": "6ceff347-0183-4323-97c7-ebb6a64a278d",
    "name": "Mikhaylovka",
    "state_id": "cb1ae5b9-23a1-4a7a-8ae2-81baeb9b4931"
  },
  {
    "id": "4a4cc9f8-f8ee-4a5a-8b61-8eacc08f55b6",
    "name": "Oboyan’",
    "state_id": "cb1ae5b9-23a1-4a7a-8ae2-81baeb9b4931"
  },
  {
    "id": "10aeac21-cd16-431e-96dc-2b02367efed2",
    "name": "Oboyanskiy Rayon",
    "state_id": "cb1ae5b9-23a1-4a7a-8ae2-81baeb9b4931"
  },
  {
    "id": "8f9da414-5b1b-49b0-aca2-8c00f13dc00d",
    "name": "Olym",
    "state_id": "cb1ae5b9-23a1-4a7a-8ae2-81baeb9b4931"
  },
  {
    "id": "3e56afca-878b-453a-b6f5-7a791fa8d96d",
    "name": "Pervoavgustovskiy",
    "state_id": "cb1ae5b9-23a1-4a7a-8ae2-81baeb9b4931"
  },
  {
    "id": "2e61500c-0f5f-4b55-bbad-d71940155035",
    "name": "Ponyri Vtoryye",
    "state_id": "cb1ae5b9-23a1-4a7a-8ae2-81baeb9b4931"
  },
  {
    "id": "76e737e0-7fca-4cc2-acd5-92993c5f0174",
    "name": "Pristen’",
    "state_id": "cb1ae5b9-23a1-4a7a-8ae2-81baeb9b4931"
  },
  {
    "id": "4130b6c3-1089-4e37-b78e-f78b667b2775",
    "name": "Pristenskiy Rayon",
    "state_id": "cb1ae5b9-23a1-4a7a-8ae2-81baeb9b4931"
  },
  {
    "id": "a0fb651d-e981-4037-be15-931678281bcf",
    "name": "Pryamitsyno",
    "state_id": "cb1ae5b9-23a1-4a7a-8ae2-81baeb9b4931"
  },
  {
    "id": "b1c09729-a788-45c6-acfe-172c75a84f2b",
    "name": "Ryl’sk",
    "state_id": "cb1ae5b9-23a1-4a7a-8ae2-81baeb9b4931"
  },
  {
    "id": "d825d790-87c6-4475-b41f-e56e71a7b434",
    "name": "Shchigry",
    "state_id": "cb1ae5b9-23a1-4a7a-8ae2-81baeb9b4931"
  },
  {
    "id": "8766f2b4-9c7c-461c-9209-f2a8b5c1c838",
    "name": "Solntsevo",
    "state_id": "cb1ae5b9-23a1-4a7a-8ae2-81baeb9b4931"
  },
  {
    "id": "6bffcfaa-a02c-46d0-849d-d558eae4634e",
    "name": "Solntsevskiy Rayon",
    "state_id": "cb1ae5b9-23a1-4a7a-8ae2-81baeb9b4931"
  },
  {
    "id": "430499b0-0fd1-4cae-9487-e6b98c4f803f",
    "name": "Sovetskiy Rayon",
    "state_id": "cb1ae5b9-23a1-4a7a-8ae2-81baeb9b4931"
  },
  {
    "id": "ae635359-3c16-46ff-8044-0301a03d0c3e",
    "name": "Sudzha",
    "state_id": "cb1ae5b9-23a1-4a7a-8ae2-81baeb9b4931"
  },
  {
    "id": "d73235cf-bcd8-49df-901f-021ca855eb1c",
    "name": "Tim",
    "state_id": "cb1ae5b9-23a1-4a7a-8ae2-81baeb9b4931"
  },
  {
    "id": "b828f3f2-850b-4af7-9a33-1fae7eb3b27d",
    "name": "Voroshnëvo",
    "state_id": "cb1ae5b9-23a1-4a7a-8ae2-81baeb9b4931"
  },
  {
    "id": "b5baf5a5-901b-4ddb-8e3a-7c08a4c1f724",
    "name": "Zheleznogorsk",
    "state_id": "cb1ae5b9-23a1-4a7a-8ae2-81baeb9b4931"
  },
  {
    "id": "3c927fe1-a150-40c7-8e41-d5362b15fa1d",
    "name": "Zolotukhino",
    "state_id": "cb1ae5b9-23a1-4a7a-8ae2-81baeb9b4931"
  },
  {
    "id": "39e1697e-5a16-462e-b4ad-9428f11f8afd",
    "name": "Zolotukhinskiy Rayon",
    "state_id": "cb1ae5b9-23a1-4a7a-8ae2-81baeb9b4931"
  }
]