[
  {
    "id": "c9e9c932-b691-4cad-a166-4ff06fa30324",
    "name": "Aberdeen",
    "state_id": "cb557783-af77-4df3-b0f0-561c9d8a00ac"
  },
  {
    "id": "0c244610-5579-4177-adeb-08e64793d3fe",
    "name": "Ada County",
    "state_id": "cb557783-af77-4df3-b0f0-561c9d8a00ac"
  },
  {
    "id": "eed9a469-91d1-4971-9fc5-e8c1c55d95dd",
    "name": "Adams County",
    "state_id": "cb557783-af77-4df3-b0f0-561c9d8a00ac"
  },
  {
    "id": "d1ede42a-3952-4b6d-bd16-0ae570197ffa",
    "name": "American Falls",
    "state_id": "cb557783-af77-4df3-b0f0-561c9d8a00ac"
  },
  {
    "id": "f588a0af-315f-4eba-8c10-1b2f787d1a33",
    "name": "Ammon",
    "state_id": "cb557783-af77-4df3-b0f0-561c9d8a00ac"
  },
  {
    "id": "179b8b13-f757-4e18-826e-3d406547ed1a",
    "name": "Arco",
    "state_id": "cb557783-af77-4df3-b0f0-561c9d8a00ac"
  },
  {
    "id": "9003e43a-4a29-4cb4-b899-6650fb1cc918",
    "name": "Ashton",
    "state_id": "cb557783-af77-4df3-b0f0-561c9d8a00ac"
  },
  {
    "id": "49c70709-efd5-4fa1-9603-837631cfc218",
    "name": "Bannock County",
    "state_id": "cb557783-af77-4df3-b0f0-561c9d8a00ac"
  },
  {
    "id": "51dc7103-8020-4a74-99cc-d3ca3a9b280d",
    "name": "Bear Lake County",
    "state_id": "cb557783-af77-4df3-b0f0-561c9d8a00ac"
  },
  {
    "id": "148407ec-d314-48d3-bff4-67c4695dd9d0",
    "name": "Bellevue",
    "state_id": "cb557783-af77-4df3-b0f0-561c9d8a00ac"
  },
  {
    "id": "0e499134-b305-4d00-adaf-10c783e2a6a2",
    "name": "Benewah County",
    "state_id": "cb557783-af77-4df3-b0f0-561c9d8a00ac"
  },
  {
    "id": "12c38082-8f2f-4f95-b9f4-e97c9299f079",
    "name": "Bingham County",
    "state_id": "cb557783-af77-4df3-b0f0-561c9d8a00ac"
  },
  {
    "id": "b16a238d-cf0f-4398-a271-905664acaa71",
    "name": "Blackfoot",
    "state_id": "cb557783-af77-4df3-b0f0-561c9d8a00ac"
  },
  {
    "id": "c2520aff-7612-4286-ba79-652751cfee67",
    "name": "Blaine County",
    "state_id": "cb557783-af77-4df3-b0f0-561c9d8a00ac"
  },
  {
    "id": "6898142a-6c93-47f7-ae0d-c76ee5020c54",
    "name": "Boise",
    "state_id": "cb557783-af77-4df3-b0f0-561c9d8a00ac"
  },
  {
    "id": "7fd12847-97a7-4a64-9fda-4f29b3417dc9",
    "name": "Boise County",
    "state_id": "cb557783-af77-4df3-b0f0-561c9d8a00ac"
  },
  {
    "id": "34ef9176-cb27-448d-be59-dc9f526e9073",
    "name": "Bonner County",
    "state_id": "cb557783-af77-4df3-b0f0-561c9d8a00ac"
  },
  {
    "id": "eb1f7779-866f-4395-be9d-e289e7757bee",
    "name": "Bonners Ferry",
    "state_id": "cb557783-af77-4df3-b0f0-561c9d8a00ac"
  },
  {
    "id": "5cdef6cd-6a30-4b6e-a1ef-abfb5dde52aa",
    "name": "Bonneville County",
    "state_id": "cb557783-af77-4df3-b0f0-561c9d8a00ac"
  },
  {
    "id": "9576c486-857e-4806-a0cc-43b2b9994544",
    "name": "Boundary County",
    "state_id": "cb557783-af77-4df3-b0f0-561c9d8a00ac"
  },
  {
    "id": "96d2a586-5ffd-4022-b054-b02ca1ba4f60",
    "name": "Buhl",
    "state_id": "cb557783-af77-4df3-b0f0-561c9d8a00ac"
  },
  {
    "id": "4f7231ae-05c2-45f6-a622-15716658fed8",
    "name": "Burley",
    "state_id": "cb557783-af77-4df3-b0f0-561c9d8a00ac"
  },
  {
    "id": "0d7b1d5b-56c3-4ed9-a18d-948cf9d188e7",
    "name": "Butte County",
    "state_id": "cb557783-af77-4df3-b0f0-561c9d8a00ac"
  },
  {
    "id": "d3ec8f7d-3a90-453f-83d9-79f8c9328478",
    "name": "Caldwell",
    "state_id": "cb557783-af77-4df3-b0f0-561c9d8a00ac"
  },
  {
    "id": "692d9123-31f8-43f5-86b0-0d45c6c479f5",
    "name": "Camas County",
    "state_id": "cb557783-af77-4df3-b0f0-561c9d8a00ac"
  },
  {
    "id": "8fef51d6-da97-4077-b6f8-3d75534319bd",
    "name": "Canyon County",
    "state_id": "cb557783-af77-4df3-b0f0-561c9d8a00ac"
  },
  {
    "id": "8dece307-e331-472b-a98b-8922b9a63243",
    "name": "Caribou County",
    "state_id": "cb557783-af77-4df3-b0f0-561c9d8a00ac"
  },
  {
    "id": "02a0c877-bf53-4c3e-a8d6-f18728331d3e",
    "name": "Cascade",
    "state_id": "cb557783-af77-4df3-b0f0-561c9d8a00ac"
  },
  {
    "id": "0ccbe9bb-00ce-454e-ac12-42e7a7d41f41",
    "name": "Cassia County",
    "state_id": "cb557783-af77-4df3-b0f0-561c9d8a00ac"
  },
  {
    "id": "6d022878-75f1-4591-a4f0-4725786b9d51",
    "name": "Challis",
    "state_id": "cb557783-af77-4df3-b0f0-561c9d8a00ac"
  },
  {
    "id": "4ebded4b-e384-42ba-a781-eafcc547b5ad",
    "name": "Chubbuck",
    "state_id": "cb557783-af77-4df3-b0f0-561c9d8a00ac"
  },
  {
    "id": "eebc30c1-3f00-44dc-956c-f664832fbb8c",
    "name": "Clark County",
    "state_id": "cb557783-af77-4df3-b0f0-561c9d8a00ac"
  },
  {
    "id": "1f0de229-9003-4b17-a7ae-1f574cc8725e",
    "name": "Clearwater County",
    "state_id": "cb557783-af77-4df3-b0f0-561c9d8a00ac"
  },
  {
    "id": "38de0a48-ee95-4c33-b1df-78f133d30b02",
    "name": "Coeur d'Alene",
    "state_id": "cb557783-af77-4df3-b0f0-561c9d8a00ac"
  },
  {
    "id": "f2156b43-acee-4c4d-af57-3b9e6ce684aa",
    "name": "Council",
    "state_id": "cb557783-af77-4df3-b0f0-561c9d8a00ac"
  },
  {
    "id": "9b3022f4-0430-419c-91d0-aeead9dde034",
    "name": "Custer County",
    "state_id": "cb557783-af77-4df3-b0f0-561c9d8a00ac"
  },
  {
    "id": "2776fcac-2a10-4994-bbd2-ea5ed8d69bc1",
    "name": "Dalton Gardens",
    "state_id": "cb557783-af77-4df3-b0f0-561c9d8a00ac"
  },
  {
    "id": "bb72d921-c2d0-4bc4-92d7-34d18663c30b",
    "name": "Driggs",
    "state_id": "cb557783-af77-4df3-b0f0-561c9d8a00ac"
  },
  {
    "id": "86f11d6a-a166-4c80-980a-6b951d7a0378",
    "name": "Dubois",
    "state_id": "cb557783-af77-4df3-b0f0-561c9d8a00ac"
  },
  {
    "id": "96b8a7eb-37c8-4cdf-b3e4-87b6b71edc74",
    "name": "Eagle",
    "state_id": "cb557783-af77-4df3-b0f0-561c9d8a00ac"
  },
  {
    "id": "7ec56f87-052a-4b3e-b0e7-43a3482a2051",
    "name": "Elmore County",
    "state_id": "cb557783-af77-4df3-b0f0-561c9d8a00ac"
  },
  {
    "id": "d3d23c33-a4e8-41e1-980e-f02f53a49e29",
    "name": "Emmett",
    "state_id": "cb557783-af77-4df3-b0f0-561c9d8a00ac"
  },
  {
    "id": "a606a06a-1077-44cd-9bb3-2c440ddc8b29",
    "name": "Fairfield",
    "state_id": "cb557783-af77-4df3-b0f0-561c9d8a00ac"
  },
  {
    "id": "0dc74bb9-2cfa-49d1-ad5f-f35ebb0510a3",
    "name": "Filer",
    "state_id": "cb557783-af77-4df3-b0f0-561c9d8a00ac"
  },
  {
    "id": "dedebeec-3418-432b-936a-aa78734e7270",
    "name": "Fort Hall",
    "state_id": "cb557783-af77-4df3-b0f0-561c9d8a00ac"
  },
  {
    "id": "cf18bd19-a9ad-4aa8-aa7a-2e278bb288c3",
    "name": "Franklin County",
    "state_id": "cb557783-af77-4df3-b0f0-561c9d8a00ac"
  },
  {
    "id": "f4da5b11-0f8f-4fea-ba72-fd84cf753fdd",
    "name": "Fremont County",
    "state_id": "cb557783-af77-4df3-b0f0-561c9d8a00ac"
  },
  {
    "id": "3e654cb8-8b56-4f7b-8a85-c99d67aa2088",
    "name": "Fruitland",
    "state_id": "cb557783-af77-4df3-b0f0-561c9d8a00ac"
  },
  {
    "id": "858df76d-a54b-41be-9d71-22ca28da7f48",
    "name": "Garden City",
    "state_id": "cb557783-af77-4df3-b0f0-561c9d8a00ac"
  },
  {
    "id": "ca4c96f6-b21d-4c3f-adc5-fb0ddfa092c3",
    "name": "Gem County",
    "state_id": "cb557783-af77-4df3-b0f0-561c9d8a00ac"
  },
  {
    "id": "b319403e-ff45-4162-a8fc-7797affa3111",
    "name": "Glenns Ferry",
    "state_id": "cb557783-af77-4df3-b0f0-561c9d8a00ac"
  },
  {
    "id": "7fad58cf-43fe-4e25-83af-c716fbfbabbf",
    "name": "Gooding",
    "state_id": "cb557783-af77-4df3-b0f0-561c9d8a00ac"
  },
  {
    "id": "b4734150-ec93-41ee-839f-148e7976a800",
    "name": "Gooding County",
    "state_id": "cb557783-af77-4df3-b0f0-561c9d8a00ac"
  },
  {
    "id": "a34b1b3b-81e6-4304-9880-ccbf2be3d471",
    "name": "Grangeville",
    "state_id": "cb557783-af77-4df3-b0f0-561c9d8a00ac"
  },
  {
    "id": "bb1209ae-0b24-43d8-a536-2c495c36a530",
    "name": "Hailey",
    "state_id": "cb557783-af77-4df3-b0f0-561c9d8a00ac"
  },
  {
    "id": "82b5c926-ec3a-4265-a209-e7555bf5e3a1",
    "name": "Hansen",
    "state_id": "cb557783-af77-4df3-b0f0-561c9d8a00ac"
  },
  {
    "id": "a5ba27b3-13e5-43e2-b3e0-9e003958470d",
    "name": "Hayden",
    "state_id": "cb557783-af77-4df3-b0f0-561c9d8a00ac"
  },
  {
    "id": "ea94ce5d-7512-4aac-8cc2-961b7fd85642",
    "name": "Heyburn",
    "state_id": "cb557783-af77-4df3-b0f0-561c9d8a00ac"
  },
  {
    "id": "0247ca9b-560b-473c-a88f-c246e0284811",
    "name": "Hidden Spring",
    "state_id": "cb557783-af77-4df3-b0f0-561c9d8a00ac"
  },
  {
    "id": "da67b7c8-f005-4b4b-8dc5-898ac2ba6d19",
    "name": "Homedale",
    "state_id": "cb557783-af77-4df3-b0f0-561c9d8a00ac"
  },
  {
    "id": "f7a03a4d-0f29-4c0a-9c02-0c1de956443a",
    "name": "Idaho City",
    "state_id": "cb557783-af77-4df3-b0f0-561c9d8a00ac"
  },
  {
    "id": "bee5cd19-03eb-4f69-9eae-59d7b2c15f4d",
    "name": "Idaho County",
    "state_id": "cb557783-af77-4df3-b0f0-561c9d8a00ac"
  },
  {
    "id": "7452be9b-7ec6-474c-9f40-bb926ac7695e",
    "name": "Idaho Falls",
    "state_id": "cb557783-af77-4df3-b0f0-561c9d8a00ac"
  },
  {
    "id": "601ea83d-c249-4d34-a02a-e519c8c9832a",
    "name": "Iona",
    "state_id": "cb557783-af77-4df3-b0f0-561c9d8a00ac"
  },
  {
    "id": "967e8d8d-87c2-4b42-86a3-1cc0aa68f54f",
    "name": "Jefferson County",
    "state_id": "cb557783-af77-4df3-b0f0-561c9d8a00ac"
  },
  {
    "id": "9a33e716-09fa-46a2-b6c0-ee5143c2eba6",
    "name": "Jerome",
    "state_id": "cb557783-af77-4df3-b0f0-561c9d8a00ac"
  },
  {
    "id": "7d98cf8f-b770-494b-8d4b-ba3e7d96e484",
    "name": "Jerome County",
    "state_id": "cb557783-af77-4df3-b0f0-561c9d8a00ac"
  },
  {
    "id": "04842b27-be27-4c9f-b405-241cb0ec7d93",
    "name": "Kamiah",
    "state_id": "cb557783-af77-4df3-b0f0-561c9d8a00ac"
  },
  {
    "id": "2f38bff5-e0f7-4956-8163-ca6c6f0410f0",
    "name": "Kellogg",
    "state_id": "cb557783-af77-4df3-b0f0-561c9d8a00ac"
  },
  {
    "id": "db5eff30-b0e1-429c-8c42-6cc920a5a34f",
    "name": "Ketchum",
    "state_id": "cb557783-af77-4df3-b0f0-561c9d8a00ac"
  },
  {
    "id": "c66ec852-1432-4850-a101-dd32d46b6cd5",
    "name": "Kimberly",
    "state_id": "cb557783-af77-4df3-b0f0-561c9d8a00ac"
  },
  {
    "id": "c2b5c36d-ae42-48ad-acbd-9027693dd77f",
    "name": "Kootenai County",
    "state_id": "cb557783-af77-4df3-b0f0-561c9d8a00ac"
  },
  {
    "id": "d8287b98-8058-40a1-b259-e210b7207382",
    "name": "Kuna",
    "state_id": "cb557783-af77-4df3-b0f0-561c9d8a00ac"
  },
  {
    "id": "efad27c2-c34d-4d99-95e2-24e13baff2f2",
    "name": "Lapwai",
    "state_id": "cb557783-af77-4df3-b0f0-561c9d8a00ac"
  },
  {
    "id": "568128fc-6800-4086-976c-e2e6efde6a41",
    "name": "Latah County",
    "state_id": "cb557783-af77-4df3-b0f0-561c9d8a00ac"
  },
  {
    "id": "58ddadb3-b0fc-4dfc-a896-17e742281ee7",
    "name": "Lemhi County",
    "state_id": "cb557783-af77-4df3-b0f0-561c9d8a00ac"
  },
  {
    "id": "7e7063d0-00f8-4b7b-8214-68e472696e5f",
    "name": "Lewis County",
    "state_id": "cb557783-af77-4df3-b0f0-561c9d8a00ac"
  },
  {
    "id": "902acad9-a810-4d7c-8e6c-316a05c34c44",
    "name": "Lewiston",
    "state_id": "cb557783-af77-4df3-b0f0-561c9d8a00ac"
  },
  {
    "id": "8b35584e-da01-46d8-aa7c-b704b4951177",
    "name": "Lewiston Orchards",
    "state_id": "cb557783-af77-4df3-b0f0-561c9d8a00ac"
  },
  {
    "id": "4e8bdeed-8256-47f9-a849-7acdc5b7f970",
    "name": "Lincoln",
    "state_id": "cb557783-af77-4df3-b0f0-561c9d8a00ac"
  },
  {
    "id": "b4c7d7a7-fec8-4764-a157-7aa2351bcedd",
    "name": "Lincoln County",
    "state_id": "cb557783-af77-4df3-b0f0-561c9d8a00ac"
  },
  {
    "id": "697465d4-869d-4bb5-b355-e3be331885ba",
    "name": "Madison County",
    "state_id": "cb557783-af77-4df3-b0f0-561c9d8a00ac"
  },
  {
    "id": "b94e7137-f633-4939-bf07-ede247fca353",
    "name": "Malad City",
    "state_id": "cb557783-af77-4df3-b0f0-561c9d8a00ac"
  },
  {
    "id": "662bcd48-a781-47ba-ad0c-f8bdf2accb06",
    "name": "Marsing",
    "state_id": "cb557783-af77-4df3-b0f0-561c9d8a00ac"
  },
  {
    "id": "427d5754-c0ea-4657-8a3a-21367cb1b11e",
    "name": "McCall",
    "state_id": "cb557783-af77-4df3-b0f0-561c9d8a00ac"
  },
  {
    "id": "1cf2f5c4-dda3-422e-a075-b338040b8d03",
    "name": "Meridian",
    "state_id": "cb557783-af77-4df3-b0f0-561c9d8a00ac"
  },
  {
    "id": "2092d5c7-b517-435f-84c8-b2bb05736bb1",
    "name": "Middleton",
    "state_id": "cb557783-af77-4df3-b0f0-561c9d8a00ac"
  },
  {
    "id": "8135741b-97b3-464b-b6ca-b2630a2a1145",
    "name": "Minidoka County",
    "state_id": "cb557783-af77-4df3-b0f0-561c9d8a00ac"
  },
  {
    "id": "ded69a6e-9c4a-4d7f-b5b1-c4c244b555ec",
    "name": "Montpelier",
    "state_id": "cb557783-af77-4df3-b0f0-561c9d8a00ac"
  },
  {
    "id": "f415544b-6572-4151-aba0-683e9040aff4",
    "name": "Moreland",
    "state_id": "cb557783-af77-4df3-b0f0-561c9d8a00ac"
  },
  {
    "id": "da2451f9-3b4f-46da-bb81-f3379f7cd257",
    "name": "Moscow",
    "state_id": "cb557783-af77-4df3-b0f0-561c9d8a00ac"
  },
  {
    "id": "d5180957-6512-40cb-922e-f3aebd2f07b4",
    "name": "Mountain Home",
    "state_id": "cb557783-af77-4df3-b0f0-561c9d8a00ac"
  },
  {
    "id": "d9f170c7-bcd7-4159-9c71-c70a8158aeae",
    "name": "Murphy",
    "state_id": "cb557783-af77-4df3-b0f0-561c9d8a00ac"
  },
  {
    "id": "978bf6e1-6ccd-4694-b89f-7b6d7d533dc2",
    "name": "Nampa",
    "state_id": "cb557783-af77-4df3-b0f0-561c9d8a00ac"
  },
  {
    "id": "9dffbcc7-d4c0-4347-8a1a-0d8ac1b72a3d",
    "name": "New Plymouth",
    "state_id": "cb557783-af77-4df3-b0f0-561c9d8a00ac"
  },
  {
    "id": "921b8a9b-fc42-43a3-baa6-c7b0d66c0f0c",
    "name": "Nez Perce County",
    "state_id": "cb557783-af77-4df3-b0f0-561c9d8a00ac"
  },
  {
    "id": "059cd529-4f2c-4018-96e4-b0b09976c746",
    "name": "Nezperce",
    "state_id": "cb557783-af77-4df3-b0f0-561c9d8a00ac"
  },
  {
    "id": "1d1b3c0c-b3f2-4be8-af3c-b4bd05ec7dae",
    "name": "Oneida County",
    "state_id": "cb557783-af77-4df3-b0f0-561c9d8a00ac"
  },
  {
    "id": "6d028d79-88ed-4f1e-899d-b389fab617b2",
    "name": "Orofino",
    "state_id": "cb557783-af77-4df3-b0f0-561c9d8a00ac"
  },
  {
    "id": "075c1025-a81b-4d5e-afbf-c4c46ef93d25",
    "name": "Osburn",
    "state_id": "cb557783-af77-4df3-b0f0-561c9d8a00ac"
  },
  {
    "id": "d5511f4f-58fb-4f69-8521-06a2b28c4b19",
    "name": "Owyhee County",
    "state_id": "cb557783-af77-4df3-b0f0-561c9d8a00ac"
  },
  {
    "id": "40ea00c9-eb30-4cf2-bac6-e80f272b6ac0",
    "name": "Paris",
    "state_id": "cb557783-af77-4df3-b0f0-561c9d8a00ac"
  },
  {
    "id": "539f06ac-baf1-4159-85ce-199a6200235f",
    "name": "Parma",
    "state_id": "cb557783-af77-4df3-b0f0-561c9d8a00ac"
  },
  {
    "id": "ac1cd2e3-2e4a-4754-802a-9079bce420de",
    "name": "Paul",
    "state_id": "cb557783-af77-4df3-b0f0-561c9d8a00ac"
  },
  {
    "id": "99e78722-6fdb-4a6c-abd2-fee45d326073",
    "name": "Payette",
    "state_id": "cb557783-af77-4df3-b0f0-561c9d8a00ac"
  },
  {
    "id": "225933b0-cbd6-48db-9f5b-2fd3f7af26fe",
    "name": "Payette County",
    "state_id": "cb557783-af77-4df3-b0f0-561c9d8a00ac"
  },
  {
    "id": "48ba1fb3-6a79-4227-9ce8-2a8f5c6d406e",
    "name": "Pinehurst",
    "state_id": "cb557783-af77-4df3-b0f0-561c9d8a00ac"
  },
  {
    "id": "3cd16076-e195-4480-a385-20d8610d7767",
    "name": "Plummer",
    "state_id": "cb557783-af77-4df3-b0f0-561c9d8a00ac"
  },
  {
    "id": "5fc1d404-ac90-487b-aa78-d20d2bf39f53",
    "name": "Pocatello",
    "state_id": "cb557783-af77-4df3-b0f0-561c9d8a00ac"
  },
  {
    "id": "858c4681-b73e-458e-b6e0-9f5ef0bb002b",
    "name": "Ponderay",
    "state_id": "cb557783-af77-4df3-b0f0-561c9d8a00ac"
  },
  {
    "id": "f85a9e1e-57bd-4e99-abd6-2fb4890fe51c",
    "name": "Post Falls",
    "state_id": "cb557783-af77-4df3-b0f0-561c9d8a00ac"
  },
  {
    "id": "8253c2cc-122e-4f4d-a7e8-2d86552dd9cd",
    "name": "Power County",
    "state_id": "cb557783-af77-4df3-b0f0-561c9d8a00ac"
  },
  {
    "id": "9435676d-4cad-47b4-9b76-fb652c7c8874",
    "name": "Preston",
    "state_id": "cb557783-af77-4df3-b0f0-561c9d8a00ac"
  },
  {
    "id": "ccab552a-af83-4f44-9782-1cec9df00ac9",
    "name": "Priest River",
    "state_id": "cb557783-af77-4df3-b0f0-561c9d8a00ac"
  },
  {
    "id": "074e5ae1-ab2f-47f4-954a-0cf3f5fdf0f2",
    "name": "Rathdrum",
    "state_id": "cb557783-af77-4df3-b0f0-561c9d8a00ac"
  },
  {
    "id": "1bf42d2e-3023-4708-8e1d-02e184ac54d8",
    "name": "Rexburg",
    "state_id": "cb557783-af77-4df3-b0f0-561c9d8a00ac"
  },
  {
    "id": "dbbe313e-76bd-4555-961a-aafccd91cb4d",
    "name": "Rigby",
    "state_id": "cb557783-af77-4df3-b0f0-561c9d8a00ac"
  },
  {
    "id": "f98e1072-7f4a-44df-b74d-5f43e0267bf5",
    "name": "Rupert",
    "state_id": "cb557783-af77-4df3-b0f0-561c9d8a00ac"
  },
  {
    "id": "3f41a249-d822-40a2-9362-74984a1647a2",
    "name": "Saint Anthony",
    "state_id": "cb557783-af77-4df3-b0f0-561c9d8a00ac"
  },
  {
    "id": "92124711-59d3-4c4a-9278-ff7a1d33b22d",
    "name": "Saint Maries",
    "state_id": "cb557783-af77-4df3-b0f0-561c9d8a00ac"
  },
  {
    "id": "6e684426-432d-476e-8e7c-86d96613c07d",
    "name": "Salmon",
    "state_id": "cb557783-af77-4df3-b0f0-561c9d8a00ac"
  },
  {
    "id": "26a36e59-1fad-4811-9c1f-194cef5bef46",
    "name": "Sandpoint",
    "state_id": "cb557783-af77-4df3-b0f0-561c9d8a00ac"
  },
  {
    "id": "b251038e-bd06-4317-8efc-3f0d0a1c51cb",
    "name": "Shelley",
    "state_id": "cb557783-af77-4df3-b0f0-561c9d8a00ac"
  },
  {
    "id": "2a01523f-5fae-4ffc-8d88-780681c91f58",
    "name": "Shoshone",
    "state_id": "cb557783-af77-4df3-b0f0-561c9d8a00ac"
  },
  {
    "id": "db207274-8e35-40dd-a606-ef01b99d672d",
    "name": "Shoshone County",
    "state_id": "cb557783-af77-4df3-b0f0-561c9d8a00ac"
  },
  {
    "id": "460fa0ec-bde9-4575-8dee-d20c222dc652",
    "name": "Soda Springs",
    "state_id": "cb557783-af77-4df3-b0f0-561c9d8a00ac"
  },
  {
    "id": "9f4f7410-5102-4dda-a05d-ce35ee5800b6",
    "name": "Spirit Lake",
    "state_id": "cb557783-af77-4df3-b0f0-561c9d8a00ac"
  },
  {
    "id": "b993b7f7-c1d6-4f60-b0aa-5912cf43d3c2",
    "name": "Star",
    "state_id": "cb557783-af77-4df3-b0f0-561c9d8a00ac"
  },
  {
    "id": "6f2464cf-ade0-4bd0-8b4e-08bb63a21049",
    "name": "Sugar City",
    "state_id": "cb557783-af77-4df3-b0f0-561c9d8a00ac"
  },
  {
    "id": "418ac7de-2367-4f56-9c76-4b238a56fcde",
    "name": "Sun Valley",
    "state_id": "cb557783-af77-4df3-b0f0-561c9d8a00ac"
  },
  {
    "id": "4e430f6a-577e-4d2d-b15b-71552caec5d8",
    "name": "Teton County",
    "state_id": "cb557783-af77-4df3-b0f0-561c9d8a00ac"
  },
  {
    "id": "3ae55ebc-4bd9-47f6-9fbc-6192d1b34eb6",
    "name": "Twin Falls",
    "state_id": "cb557783-af77-4df3-b0f0-561c9d8a00ac"
  },
  {
    "id": "79f099ca-78c6-4911-a244-b86435a58d57",
    "name": "Twin Falls County",
    "state_id": "cb557783-af77-4df3-b0f0-561c9d8a00ac"
  },
  {
    "id": "ac8359eb-ec6e-4acb-9191-78bc5ca96979",
    "name": "Tyhee",
    "state_id": "cb557783-af77-4df3-b0f0-561c9d8a00ac"
  },
  {
    "id": "50ea9958-19c5-44c8-858a-1849da46a60b",
    "name": "Ucon",
    "state_id": "cb557783-af77-4df3-b0f0-561c9d8a00ac"
  },
  {
    "id": "816e937d-5b1b-4a2a-a228-4de63abe32ff",
    "name": "Valley County",
    "state_id": "cb557783-af77-4df3-b0f0-561c9d8a00ac"
  },
  {
    "id": "49a04fdf-85fe-4c3f-ac65-612ce5d4586d",
    "name": "Victor",
    "state_id": "cb557783-af77-4df3-b0f0-561c9d8a00ac"
  },
  {
    "id": "d57bbf0c-8427-4e9f-8f06-bd890cd8122f",
    "name": "Wallace",
    "state_id": "cb557783-af77-4df3-b0f0-561c9d8a00ac"
  },
  {
    "id": "403c4523-a00d-4a2e-9bb2-afb455a4b5d6",
    "name": "Washington County",
    "state_id": "cb557783-af77-4df3-b0f0-561c9d8a00ac"
  },
  {
    "id": "f3dfee9a-178d-42d7-b452-45f71d9db4ab",
    "name": "Weiser",
    "state_id": "cb557783-af77-4df3-b0f0-561c9d8a00ac"
  },
  {
    "id": "bf29901c-0159-41ab-b96c-9c132dc13d1b",
    "name": "Wendell",
    "state_id": "cb557783-af77-4df3-b0f0-561c9d8a00ac"
  },
  {
    "id": "a9f892ba-93f6-494e-acaf-5b1b7cfae7a3",
    "name": "Wilder",
    "state_id": "cb557783-af77-4df3-b0f0-561c9d8a00ac"
  }
]