[
  {
    "id": "cfbf5b60-6bba-4b4c-b4b9-396f404fc099",
    "name": "Altıntaş İlçesi",
    "state_id": "cbb50c28-a7f2-4d45-9110-6f11f90f033b"
  },
  {
    "id": "4f3f8b37-b76d-4b71-9374-c0acba0dae1a",
    "name": "Aslanapa",
    "state_id": "cbb50c28-a7f2-4d45-9110-6f11f90f033b"
  },
  {
    "id": "21f68774-9e5c-4ba2-95f6-9fba59fb1a91",
    "name": "Çavdarhisar İlçesi",
    "state_id": "cbb50c28-a7f2-4d45-9110-6f11f90f033b"
  },
  {
    "id": "42fd8945-7792-42e8-84ea-a3333301600e",
    "name": "Domaniç",
    "state_id": "cbb50c28-a7f2-4d45-9110-6f11f90f033b"
  },
  {
    "id": "80eb9a9b-9260-4e29-8399-45b3134257ab",
    "name": "Dumlupınar",
    "state_id": "cbb50c28-a7f2-4d45-9110-6f11f90f033b"
  },
  {
    "id": "c5e73f3c-5769-45c6-ba57-ef428637caba",
    "name": "Emet",
    "state_id": "cbb50c28-a7f2-4d45-9110-6f11f90f033b"
  },
  {
    "id": "023357d9-7355-4837-8fb2-83ed4bdaf9c8",
    "name": "Gediz",
    "state_id": "cbb50c28-a7f2-4d45-9110-6f11f90f033b"
  },
  {
    "id": "ce777747-13ad-49af-8f14-cd083333f9e4",
    "name": "Hisarcık İlçesi",
    "state_id": "cbb50c28-a7f2-4d45-9110-6f11f90f033b"
  },
  {
    "id": "5cd688e9-fb8c-4889-993e-25b14ff8d00c",
    "name": "Kütahya",
    "state_id": "cbb50c28-a7f2-4d45-9110-6f11f90f033b"
  },
  {
    "id": "b32c2f2c-4b00-4e81-bf40-e6c682d292c1",
    "name": "Pazarlar",
    "state_id": "cbb50c28-a7f2-4d45-9110-6f11f90f033b"
  },
  {
    "id": "a1e91c27-2adc-4ea5-8262-6ea132282e7f",
    "name": "Şaphane",
    "state_id": "cbb50c28-a7f2-4d45-9110-6f11f90f033b"
  },
  {
    "id": "6c3e12ca-7faf-4a65-a7a2-112912de2711",
    "name": "Simav",
    "state_id": "cbb50c28-a7f2-4d45-9110-6f11f90f033b"
  },
  {
    "id": "64ff712b-c933-4989-975e-8a731938a3dc",
    "name": "Tavşanlı",
    "state_id": "cbb50c28-a7f2-4d45-9110-6f11f90f033b"
  }
]