[
  {
    "id": "70e3348d-9668-4121-afb8-59b87d5954b1",
    "name": "Ahwar",
    "state_id": "cca9adb0-c28e-4ca2-aaa5-3aaedd095cd6"
  },
  {
    "id": "e08074c7-f816-4498-9124-4ebe5d5c80a9",
    "name": "Al Mahfad",
    "state_id": "cca9adb0-c28e-4ca2-aaa5-3aaedd095cd6"
  },
  {
    "id": "6269ef37-8b51-4746-97b8-a6eeb2e6ee3e",
    "name": "Al Wade'a",
    "state_id": "cca9adb0-c28e-4ca2-aaa5-3aaedd095cd6"
  },
  {
    "id": "9cc2e582-8638-4e8d-b0f7-b95800d739b3",
    "name": "Jawf al Maqbābah",
    "state_id": "cca9adb0-c28e-4ca2-aaa5-3aaedd095cd6"
  },
  {
    "id": "12408078-d93f-41f1-affa-a2ef98d43c2c",
    "name": "Jayshan",
    "state_id": "cca9adb0-c28e-4ca2-aaa5-3aaedd095cd6"
  },
  {
    "id": "1827ef2b-385f-4fae-b709-c2a57bd8552c",
    "name": "Khanfir",
    "state_id": "cca9adb0-c28e-4ca2-aaa5-3aaedd095cd6"
  },
  {
    "id": "076a2720-2ba3-406b-8601-5e557b9037d5",
    "name": "Lawdar",
    "state_id": "cca9adb0-c28e-4ca2-aaa5-3aaedd095cd6"
  },
  {
    "id": "5e7b356a-00d9-4d7f-b943-cef29eedfb57",
    "name": "Mudiyah",
    "state_id": "cca9adb0-c28e-4ca2-aaa5-3aaedd095cd6"
  },
  {
    "id": "5aaddfa3-92ac-4c17-9668-4b300d909bf2",
    "name": "Rasad",
    "state_id": "cca9adb0-c28e-4ca2-aaa5-3aaedd095cd6"
  },
  {
    "id": "93861b44-76f1-4ba4-a908-9a516de46990",
    "name": "Sarar",
    "state_id": "cca9adb0-c28e-4ca2-aaa5-3aaedd095cd6"
  },
  {
    "id": "b6e04271-3cc2-48e6-830e-8262c321f4a8",
    "name": "Sibah",
    "state_id": "cca9adb0-c28e-4ca2-aaa5-3aaedd095cd6"
  },
  {
    "id": "0183175c-b108-4508-a76d-75fd3627fb4a",
    "name": "Zingibar",
    "state_id": "cca9adb0-c28e-4ca2-aaa5-3aaedd095cd6"
  },
  {
    "id": "a3e83d95-bb79-4f9f-882a-05efe0078ec9",
    "name": "Zinjibār",
    "state_id": "cca9adb0-c28e-4ca2-aaa5-3aaedd095cd6"
  }
]