[
  {
    "id": "392452f8-e331-4180-97ba-12c2065a177e",
    "name": "Agua Blanca Sur",
    "state_id": "cd5c1373-1462-4cc5-b899-ec3bd842ebe1"
  },
  {
    "id": "b95e9a52-3943-4611-a97c-384f8c44c93f",
    "name": "Arenal",
    "state_id": "cd5c1373-1462-4cc5-b899-ec3bd842ebe1"
  },
  {
    "id": "f9adf32e-6b23-4ab1-9584-c41bed2a9053",
    "name": "Armenia",
    "state_id": "cd5c1373-1462-4cc5-b899-ec3bd842ebe1"
  },
  {
    "id": "0458acd7-5d9d-4728-9a28-4568f56f56f3",
    "name": "Ayapa",
    "state_id": "cd5c1373-1462-4cc5-b899-ec3bd842ebe1"
  },
  {
    "id": "f5b85942-f404-4639-a023-e982f381eebe",
    "name": "Bálsamo Oriental",
    "state_id": "cd5c1373-1462-4cc5-b899-ec3bd842ebe1"
  },
  {
    "id": "d3c7f8db-9560-438f-8400-a1837db56833",
    "name": "Carbajales",
    "state_id": "cd5c1373-1462-4cc5-b899-ec3bd842ebe1"
  },
  {
    "id": "113c70ce-8511-475a-af24-3d18c68b027b",
    "name": "Coyoles Central",
    "state_id": "cd5c1373-1462-4cc5-b899-ec3bd842ebe1"
  },
  {
    "id": "3212eb21-4c63-46b0-b969-23c286062345",
    "name": "El Bálsamo",
    "state_id": "cd5c1373-1462-4cc5-b899-ec3bd842ebe1"
  },
  {
    "id": "ac53dc77-06ed-4837-bcdc-8a27d1d90fb7",
    "name": "El Juncal",
    "state_id": "cd5c1373-1462-4cc5-b899-ec3bd842ebe1"
  },
  {
    "id": "aa1cf7d1-8609-4286-8b67-329ed8aacf23",
    "name": "El Negrito",
    "state_id": "cd5c1373-1462-4cc5-b899-ec3bd842ebe1"
  },
  {
    "id": "b097acb3-9075-4861-bfaf-f1c0551d962d",
    "name": "El Ocote",
    "state_id": "cd5c1373-1462-4cc5-b899-ec3bd842ebe1"
  },
  {
    "id": "fb4797d1-6493-4982-9329-a3a6f933c37e",
    "name": "El Progreso",
    "state_id": "cd5c1373-1462-4cc5-b899-ec3bd842ebe1"
  },
  {
    "id": "0610d407-4f4c-49c9-ae0c-9dd4e78e4a1d",
    "name": "Guaimitas",
    "state_id": "cd5c1373-1462-4cc5-b899-ec3bd842ebe1"
  },
  {
    "id": "493affff-a2ac-4d13-9bfb-f0f224bc0d6d",
    "name": "Jocón",
    "state_id": "cd5c1373-1462-4cc5-b899-ec3bd842ebe1"
  },
  {
    "id": "0d09d564-1641-4bbf-8b34-90cfb4fa37f9",
    "name": "La Estancia",
    "state_id": "cd5c1373-1462-4cc5-b899-ec3bd842ebe1"
  },
  {
    "id": "ba126965-8ff3-4e65-901a-f5e1aaf1edb6",
    "name": "La Guacamaya",
    "state_id": "cd5c1373-1462-4cc5-b899-ec3bd842ebe1"
  },
  {
    "id": "c6b65f16-c464-4a46-bf07-128f1a47f1ed",
    "name": "La Mina",
    "state_id": "cd5c1373-1462-4cc5-b899-ec3bd842ebe1"
  },
  {
    "id": "45f189fb-710c-414f-862b-6ce60e2963eb",
    "name": "La Rosa",
    "state_id": "cd5c1373-1462-4cc5-b899-ec3bd842ebe1"
  },
  {
    "id": "0fce6db1-85e2-4114-b4fe-c185bc4c7b22",
    "name": "La Sarrosa",
    "state_id": "cd5c1373-1462-4cc5-b899-ec3bd842ebe1"
  },
  {
    "id": "5e99b504-0145-4c13-b580-f69631bacbf5",
    "name": "La Trinidad",
    "state_id": "cd5c1373-1462-4cc5-b899-ec3bd842ebe1"
  },
  {
    "id": "3ebea3ae-0e22-4825-84c1-9a6d78e172fa",
    "name": "Las Vegas",
    "state_id": "cd5c1373-1462-4cc5-b899-ec3bd842ebe1"
  },
  {
    "id": "160412a6-698e-4893-900b-edb30177ce75",
    "name": "Lomitas",
    "state_id": "cd5c1373-1462-4cc5-b899-ec3bd842ebe1"
  },
  {
    "id": "76a09c73-e1ec-4190-9348-3d85b95cdc2e",
    "name": "Mojimán",
    "state_id": "cd5c1373-1462-4cc5-b899-ec3bd842ebe1"
  },
  {
    "id": "1fbac9ce-4bc0-4bfb-a9c0-f8bdba2b76bb",
    "name": "Morazán",
    "state_id": "cd5c1373-1462-4cc5-b899-ec3bd842ebe1"
  },
  {
    "id": "aa01eeb9-a788-44bb-98fb-afcc5978883a",
    "name": "Nombre de Jesús",
    "state_id": "cd5c1373-1462-4cc5-b899-ec3bd842ebe1"
  },
  {
    "id": "49d42ed8-afe4-4f41-ae10-840daeef4c5a",
    "name": "Nueva Esperanza",
    "state_id": "cd5c1373-1462-4cc5-b899-ec3bd842ebe1"
  },
  {
    "id": "d7d8f47e-3f17-4b33-9418-d23d7fba6570",
    "name": "Ocote Paulino",
    "state_id": "cd5c1373-1462-4cc5-b899-ec3bd842ebe1"
  },
  {
    "id": "2b0a140e-b01b-402d-9a0f-b1808714d183",
    "name": "Olanchito",
    "state_id": "cd5c1373-1462-4cc5-b899-ec3bd842ebe1"
  },
  {
    "id": "f907aa3d-ba70-4c2d-b825-8f9cb9fda6cf",
    "name": "Paujiles",
    "state_id": "cd5c1373-1462-4cc5-b899-ec3bd842ebe1"
  },
  {
    "id": "0ff02b6c-d41b-41bd-b351-486261b20d61",
    "name": "Punta Ocote",
    "state_id": "cd5c1373-1462-4cc5-b899-ec3bd842ebe1"
  },
  {
    "id": "fc001ca8-93e9-4094-ae6a-b9bda157bb35",
    "name": "San Antonio",
    "state_id": "cd5c1373-1462-4cc5-b899-ec3bd842ebe1"
  },
  {
    "id": "8d51bf45-76e3-4cf8-b7ab-fb7366f0ed3d",
    "name": "San José",
    "state_id": "cd5c1373-1462-4cc5-b899-ec3bd842ebe1"
  },
  {
    "id": "d0f1b55c-df22-4437-adca-f9f66fdbd0b9",
    "name": "Santa Rita",
    "state_id": "cd5c1373-1462-4cc5-b899-ec3bd842ebe1"
  },
  {
    "id": "fd589d94-d6ec-4647-8511-82da5e8b022a",
    "name": "Subirana",
    "state_id": "cd5c1373-1462-4cc5-b899-ec3bd842ebe1"
  },
  {
    "id": "e216eb12-6da8-4102-b614-a5a08197308a",
    "name": "Sulaco",
    "state_id": "cd5c1373-1462-4cc5-b899-ec3bd842ebe1"
  },
  {
    "id": "fc7bc2cc-bbc4-4669-89ec-7f71e224a95e",
    "name": "Teguajinal",
    "state_id": "cd5c1373-1462-4cc5-b899-ec3bd842ebe1"
  },
  {
    "id": "27e136e7-34d8-470c-89f1-277e77366ba2",
    "name": "Tepusteca",
    "state_id": "cd5c1373-1462-4cc5-b899-ec3bd842ebe1"
  },
  {
    "id": "03778b66-448b-45c1-8139-821c886170a2",
    "name": "Toyós",
    "state_id": "cd5c1373-1462-4cc5-b899-ec3bd842ebe1"
  },
  {
    "id": "29852775-59aa-450c-bf6e-07c5d183c11c",
    "name": "Trojas",
    "state_id": "cd5c1373-1462-4cc5-b899-ec3bd842ebe1"
  },
  {
    "id": "ddc73bfc-d285-4e22-ac5e-ab7f20521880",
    "name": "Victoria",
    "state_id": "cd5c1373-1462-4cc5-b899-ec3bd842ebe1"
  },
  {
    "id": "fd32d790-dea0-42e2-a99f-590b612abad7",
    "name": "Yorito",
    "state_id": "cd5c1373-1462-4cc5-b899-ec3bd842ebe1"
  },
  {
    "id": "d22f48b1-dc83-4aeb-93c6-fc4df6c374d3",
    "name": "Yoro",
    "state_id": "cd5c1373-1462-4cc5-b899-ec3bd842ebe1"
  }
]