[
  {
    "id": "7dc440b8-bfa0-4f6c-8e49-dc69f58b4a0a",
    "name": "Deskle",
    "state_id": "cda9a0bb-0315-465e-b737-5511b6ae76ca"
  },
  {
    "id": "6d75d0eb-2004-4787-9566-76858482b7c5",
    "name": "Kanal",
    "state_id": "cda9a0bb-0315-465e-b737-5511b6ae76ca"
  }
]