[
  {
    "id": "036af845-b7b1-4eac-aaa5-b26f332c7699",
    "name": "Altagracia de Orituco",
    "state_id": "cdd16eb2-5a64-445f-ae31-250b2464b070"
  },
  {
    "id": "9a6c0ccb-758f-4e2f-8597-dbf4a879ab51",
    "name": "Calabozo",
    "state_id": "cdd16eb2-5a64-445f-ae31-250b2464b070"
  },
  {
    "id": "b09bd437-b4ae-4238-ac17-2ff6e8e28ef2",
    "name": "San Juan de los Morros",
    "state_id": "cdd16eb2-5a64-445f-ae31-250b2464b070"
  },
  {
    "id": "007a5d39-8f6d-4058-ad15-51b2528d7bfc",
    "name": "Valle de La Pascua",
    "state_id": "cdd16eb2-5a64-445f-ae31-250b2464b070"
  },
  {
    "id": "10c32625-6a42-4686-af50-2e6000bee1a2",
    "name": "Zaraza",
    "state_id": "cdd16eb2-5a64-445f-ae31-250b2464b070"
  }
]