[
  {
    "id": "b3021bd9-872c-463a-8d22-c30d8a669d52",
    "name": "Agrieș",
    "state_id": "cf9a15b8-41d0-43ec-955d-856a848336f9"
  },
  {
    "id": "3a69a8c3-29bd-414b-a155-7255f850f444",
    "name": "Anieș",
    "state_id": "cf9a15b8-41d0-43ec-955d-856a848336f9"
  },
  {
    "id": "de4bff48-5b2c-4dd2-bf86-05175ab0569d",
    "name": "Beclean",
    "state_id": "cf9a15b8-41d0-43ec-955d-856a848336f9"
  },
  {
    "id": "bdae0399-9243-4945-ad17-6a5cbe097e9b",
    "name": "Bichigiu",
    "state_id": "cf9a15b8-41d0-43ec-955d-856a848336f9"
  },
  {
    "id": "5c9eb948-f410-4fa9-9baf-9456cd0243c1",
    "name": "Bistriţa",
    "state_id": "cf9a15b8-41d0-43ec-955d-856a848336f9"
  },
  {
    "id": "c7bb5a72-ff9f-432a-a620-676379c00c9a",
    "name": "Bistriţa Bârgăului",
    "state_id": "cf9a15b8-41d0-43ec-955d-856a848336f9"
  },
  {
    "id": "4759cfa1-0366-466a-941d-25c6ed15ec03",
    "name": "Braniştea",
    "state_id": "cf9a15b8-41d0-43ec-955d-856a848336f9"
  },
  {
    "id": "9ab3c8d7-55cd-4deb-8e96-5985b1c9f513",
    "name": "Breaza",
    "state_id": "cf9a15b8-41d0-43ec-955d-856a848336f9"
  },
  {
    "id": "12f5961b-b1ec-4500-916b-e9c8c8100304",
    "name": "Budacu de Jos",
    "state_id": "cf9a15b8-41d0-43ec-955d-856a848336f9"
  },
  {
    "id": "0ed339c5-2c32-439f-b01c-24d2a5bc4170",
    "name": "Budacu de Sus",
    "state_id": "cf9a15b8-41d0-43ec-955d-856a848336f9"
  },
  {
    "id": "d690e6a5-2a75-4e47-9956-eacfa16e42a0",
    "name": "Budeşti",
    "state_id": "cf9a15b8-41d0-43ec-955d-856a848336f9"
  },
  {
    "id": "5274a9b8-825b-4245-a22e-cd2522b8885e",
    "name": "Căianu Mic",
    "state_id": "cf9a15b8-41d0-43ec-955d-856a848336f9"
  },
  {
    "id": "3e641971-2173-4038-9125-e88ad731b43f",
    "name": "Chiochiş",
    "state_id": "cf9a15b8-41d0-43ec-955d-856a848336f9"
  },
  {
    "id": "fb095e0c-96bd-4415-ad84-99a34d299774",
    "name": "Chiuza",
    "state_id": "cf9a15b8-41d0-43ec-955d-856a848336f9"
  },
  {
    "id": "a90ea136-b13e-4563-ab3b-335208fa40b1",
    "name": "Ciceu-Giurgeşti",
    "state_id": "cf9a15b8-41d0-43ec-955d-856a848336f9"
  },
  {
    "id": "0d601e8c-3e4b-4c01-963c-f8e0af35374e",
    "name": "Ciceu-Mihăiești",
    "state_id": "cf9a15b8-41d0-43ec-955d-856a848336f9"
  },
  {
    "id": "f00ebbfb-4883-4edf-bce8-c7fcaf55981e",
    "name": "Cireșoaia",
    "state_id": "cf9a15b8-41d0-43ec-955d-856a848336f9"
  },
  {
    "id": "e6667113-8ae7-4054-8445-ca5f1d0b2b8a",
    "name": "Cociu",
    "state_id": "cf9a15b8-41d0-43ec-955d-856a848336f9"
  },
  {
    "id": "63c9b1e2-b20c-481e-9e1b-60893ee095b1",
    "name": "Comuna Bistriţa Bârgăului",
    "state_id": "cf9a15b8-41d0-43ec-955d-856a848336f9"
  },
  {
    "id": "219e1171-d9d1-41ee-9fbf-cc8b4a6ad8a5",
    "name": "Comuna Braniştea",
    "state_id": "cf9a15b8-41d0-43ec-955d-856a848336f9"
  },
  {
    "id": "5f2f72e2-96a8-4ee2-889a-58ba6440022a",
    "name": "Comuna Budacu de Jos",
    "state_id": "cf9a15b8-41d0-43ec-955d-856a848336f9"
  },
  {
    "id": "d81b9359-9a66-4129-b50f-6d42f928d070",
    "name": "Comuna Budeşti",
    "state_id": "cf9a15b8-41d0-43ec-955d-856a848336f9"
  },
  {
    "id": "e8ebf099-0965-4ee5-914d-63d5ebcea0d4",
    "name": "Comuna Căianu",
    "state_id": "cf9a15b8-41d0-43ec-955d-856a848336f9"
  },
  {
    "id": "4eaeb9d4-cf32-44fc-8a09-4a5a69dde7bf",
    "name": "Comuna Chiochiş",
    "state_id": "cf9a15b8-41d0-43ec-955d-856a848336f9"
  },
  {
    "id": "722433ed-65c5-4c09-b1cb-bd83df339d9f",
    "name": "Comuna Chiuza",
    "state_id": "cf9a15b8-41d0-43ec-955d-856a848336f9"
  },
  {
    "id": "268f2d5b-ca6b-4a5d-9354-c142b1665a84",
    "name": "Comuna Ciceu-Giurgeşti",
    "state_id": "cf9a15b8-41d0-43ec-955d-856a848336f9"
  },
  {
    "id": "bd43134f-5314-4f57-aaae-9c23a28f17b9",
    "name": "Comuna Ciceu-Mihăieşti",
    "state_id": "cf9a15b8-41d0-43ec-955d-856a848336f9"
  },
  {
    "id": "2b134323-2b92-49bb-b5ce-a030e0e0f8a3",
    "name": "Comuna Coşbuc",
    "state_id": "cf9a15b8-41d0-43ec-955d-856a848336f9"
  },
  {
    "id": "54b6c037-6307-4b82-b0bd-ea75ea1568b3",
    "name": "Comuna Dumitra",
    "state_id": "cf9a15b8-41d0-43ec-955d-856a848336f9"
  },
  {
    "id": "e15bd20d-3823-483f-9be9-3ae2fddffc38",
    "name": "Comuna Dumitriţa",
    "state_id": "cf9a15b8-41d0-43ec-955d-856a848336f9"
  },
  {
    "id": "a34ae8f0-7a02-41a5-acd2-58fa41876c55",
    "name": "Comuna Feldru",
    "state_id": "cf9a15b8-41d0-43ec-955d-856a848336f9"
  },
  {
    "id": "a5d6a1b7-6e53-493f-9578-ab928de490ab",
    "name": "Comuna Galaţii Bistriţei",
    "state_id": "cf9a15b8-41d0-43ec-955d-856a848336f9"
  },
  {
    "id": "43fd6910-1bc4-4f0c-bfec-593a8210ac1d",
    "name": "Comuna Ilva Mare",
    "state_id": "cf9a15b8-41d0-43ec-955d-856a848336f9"
  },
  {
    "id": "445d413a-293f-4859-b742-dda35edc19a5",
    "name": "Comuna Ilva Mică",
    "state_id": "cf9a15b8-41d0-43ec-955d-856a848336f9"
  },
  {
    "id": "696ffed3-443d-4747-af32-3439791a33c2",
    "name": "Comuna Josenii Bârgăului",
    "state_id": "cf9a15b8-41d0-43ec-955d-856a848336f9"
  },
  {
    "id": "f314a483-4c77-496f-973a-09d17907813b",
    "name": "Comuna Lechinţa",
    "state_id": "cf9a15b8-41d0-43ec-955d-856a848336f9"
  },
  {
    "id": "46760db6-315b-45e1-bb50-b9c39b0689c5",
    "name": "Comuna Leşu",
    "state_id": "cf9a15b8-41d0-43ec-955d-856a848336f9"
  },
  {
    "id": "bd648523-9f5b-43f1-8bad-0f5e0179de0f",
    "name": "Comuna Livezile",
    "state_id": "cf9a15b8-41d0-43ec-955d-856a848336f9"
  },
  {
    "id": "d737593b-440c-423c-8e78-19d90c699622",
    "name": "Comuna Lunca Ilvei",
    "state_id": "cf9a15b8-41d0-43ec-955d-856a848336f9"
  },
  {
    "id": "b06bbabb-4b62-4da5-afc5-4649143c781d",
    "name": "Comuna Măgura Ilvei",
    "state_id": "cf9a15b8-41d0-43ec-955d-856a848336f9"
  },
  {
    "id": "3d7aa3b4-ec54-4b9b-bbd6-5b916550e6b8",
    "name": "Comuna Măieru",
    "state_id": "cf9a15b8-41d0-43ec-955d-856a848336f9"
  },
  {
    "id": "22257082-2f39-4a6d-a412-5253232f8fb5",
    "name": "Comuna Mărişelu",
    "state_id": "cf9a15b8-41d0-43ec-955d-856a848336f9"
  },
  {
    "id": "4c0303a5-cf87-4549-91f1-ddc7ae0aa9b9",
    "name": "Comuna Matei",
    "state_id": "cf9a15b8-41d0-43ec-955d-856a848336f9"
  },
  {
    "id": "7a3dcce8-431d-4749-8e92-8ea772df0c7e",
    "name": "Comuna Miceştii de Câmpie",
    "state_id": "cf9a15b8-41d0-43ec-955d-856a848336f9"
  },
  {
    "id": "b6124644-dea3-4d09-9290-6f73fdc198d2",
    "name": "Comuna Milas",
    "state_id": "cf9a15b8-41d0-43ec-955d-856a848336f9"
  },
  {
    "id": "559289a8-59da-4c82-b749-0b2f98f4fa33",
    "name": "Comuna Monor",
    "state_id": "cf9a15b8-41d0-43ec-955d-856a848336f9"
  },
  {
    "id": "6b320f07-4398-4838-a1f0-ed877504f4e1",
    "name": "Comuna Negrileşti",
    "state_id": "cf9a15b8-41d0-43ec-955d-856a848336f9"
  },
  {
    "id": "e3ac761a-2ab2-4eb1-a432-c651b983aad1",
    "name": "Comuna Nimigea",
    "state_id": "cf9a15b8-41d0-43ec-955d-856a848336f9"
  },
  {
    "id": "e66ad2a5-e11b-43f8-bd69-c188d11986b0",
    "name": "Comuna Nuşeni",
    "state_id": "cf9a15b8-41d0-43ec-955d-856a848336f9"
  },
  {
    "id": "b3ea798d-8195-4d9b-81e9-194064491117",
    "name": "Comuna Parva",
    "state_id": "cf9a15b8-41d0-43ec-955d-856a848336f9"
  },
  {
    "id": "8d25dafc-ce1d-48c6-bcd0-2a5be49b699c",
    "name": "Comuna Petru Rareş",
    "state_id": "cf9a15b8-41d0-43ec-955d-856a848336f9"
  },
  {
    "id": "137dd150-2432-44dc-a513-d9ec5f722524",
    "name": "Comuna Poiana  Ilvei",
    "state_id": "cf9a15b8-41d0-43ec-955d-856a848336f9"
  },
  {
    "id": "5c0c254d-60b4-49e1-801a-2cb6dad54414",
    "name": "Comuna Prundu Bârgăului",
    "state_id": "cf9a15b8-41d0-43ec-955d-856a848336f9"
  },
  {
    "id": "ce4c51c8-254f-43e6-8c1c-1c74f396fe55",
    "name": "Comuna Războeni-Cetate",
    "state_id": "cf9a15b8-41d0-43ec-955d-856a848336f9"
  },
  {
    "id": "701a8f1d-50b6-4be1-a0f3-c5a44d2afbd4",
    "name": "Comuna Rebra",
    "state_id": "cf9a15b8-41d0-43ec-955d-856a848336f9"
  },
  {
    "id": "7e63fc7a-a1fa-4277-886a-ebb10db17959",
    "name": "Comuna Rebrişoara",
    "state_id": "cf9a15b8-41d0-43ec-955d-856a848336f9"
  },
  {
    "id": "4bfd3210-c63f-4ceb-9008-9934e8bcf63d",
    "name": "Comuna Rodna",
    "state_id": "cf9a15b8-41d0-43ec-955d-856a848336f9"
  },
  {
    "id": "fccacf48-468e-4edd-8c8d-3b89a8d90625",
    "name": "Comuna Romuli",
    "state_id": "cf9a15b8-41d0-43ec-955d-856a848336f9"
  },
  {
    "id": "b6650e1f-d4b8-4595-9d64-c7ff3839a942",
    "name": "Comuna Runcu Salvei",
    "state_id": "cf9a15b8-41d0-43ec-955d-856a848336f9"
  },
  {
    "id": "157a4048-3046-402e-8a0f-f8c61812e9a2",
    "name": "Comuna Salva",
    "state_id": "cf9a15b8-41d0-43ec-955d-856a848336f9"
  },
  {
    "id": "e3d90d7a-6fb2-46f2-b8bd-2d0c83f1561d",
    "name": "Comuna Sânmihaiu de Câmpie",
    "state_id": "cf9a15b8-41d0-43ec-955d-856a848336f9"
  },
  {
    "id": "5ccb0cab-73a1-41f4-b5e0-abb9a52b7cf2",
    "name": "Comuna Şanţ",
    "state_id": "cf9a15b8-41d0-43ec-955d-856a848336f9"
  },
  {
    "id": "f02a5e8a-82f9-44e3-801a-bd023c4905d7",
    "name": "Comuna Şieu",
    "state_id": "cf9a15b8-41d0-43ec-955d-856a848336f9"
  },
  {
    "id": "6f376181-f126-4f15-8f29-e76aff854654",
    "name": "Comuna Şieu-Măgheruş",
    "state_id": "cf9a15b8-41d0-43ec-955d-856a848336f9"
  },
  {
    "id": "e7c1a9c3-6a8e-42c5-adf0-5eb2730d4d64",
    "name": "Comuna Şieu-Odorhei",
    "state_id": "cf9a15b8-41d0-43ec-955d-856a848336f9"
  },
  {
    "id": "392c499c-f0d9-4d08-bdc5-bae2f6d46767",
    "name": "Comuna Şieuţ",
    "state_id": "cf9a15b8-41d0-43ec-955d-856a848336f9"
  },
  {
    "id": "c69d2cf5-0b47-480b-8dc6-c4694343f09d",
    "name": "Comuna Silivaşu De Câmpie",
    "state_id": "cf9a15b8-41d0-43ec-955d-856a848336f9"
  },
  {
    "id": "41f3715c-3ad5-428b-81c5-2a7226e592d1",
    "name": "Comuna Şintereag",
    "state_id": "cf9a15b8-41d0-43ec-955d-856a848336f9"
  },
  {
    "id": "5fecb8c3-f681-4234-bb19-e971a6c24764",
    "name": "Comuna Spermezeu",
    "state_id": "cf9a15b8-41d0-43ec-955d-856a848336f9"
  },
  {
    "id": "a1b4f210-ac07-4295-8b1f-5656f18023b6",
    "name": "Comuna Târlişua",
    "state_id": "cf9a15b8-41d0-43ec-955d-856a848336f9"
  },
  {
    "id": "5e46c73a-1f83-45c7-a832-acc5e4da8b2a",
    "name": "Comuna Teaca",
    "state_id": "cf9a15b8-41d0-43ec-955d-856a848336f9"
  },
  {
    "id": "7d5edf98-b48a-4e72-95f3-0df0cfa9f2b1",
    "name": "Comuna Telciu",
    "state_id": "cf9a15b8-41d0-43ec-955d-856a848336f9"
  },
  {
    "id": "7196ce28-8dba-45e6-b80b-acd09757710b",
    "name": "Comuna Tiha Bârgăului",
    "state_id": "cf9a15b8-41d0-43ec-955d-856a848336f9"
  },
  {
    "id": "768f40e8-51f0-40d4-a872-8980bb7f2a4b",
    "name": "Comuna Uriu",
    "state_id": "cf9a15b8-41d0-43ec-955d-856a848336f9"
  },
  {
    "id": "72b59637-e965-42cc-a127-e06c41527550",
    "name": "Comuna Urmeniş",
    "state_id": "cf9a15b8-41d0-43ec-955d-856a848336f9"
  },
  {
    "id": "62013032-4b96-4756-a8b8-6cdf2f765505",
    "name": "Comuna Zagra",
    "state_id": "cf9a15b8-41d0-43ec-955d-856a848336f9"
  },
  {
    "id": "958f8154-701a-4a72-b99a-169666017f05",
    "name": "Cormaia",
    "state_id": "cf9a15b8-41d0-43ec-955d-856a848336f9"
  },
  {
    "id": "316384b3-b7d1-4d45-8e53-f0692254c95d",
    "name": "Coşbuc",
    "state_id": "cf9a15b8-41d0-43ec-955d-856a848336f9"
  },
  {
    "id": "df2489e4-1edc-4fa7-aca4-bbc60d4b35e8",
    "name": "Cristeștii Ciceului",
    "state_id": "cf9a15b8-41d0-43ec-955d-856a848336f9"
  },
  {
    "id": "183f9b67-87a4-41ce-9aac-1c437b0b00f2",
    "name": "Dobric",
    "state_id": "cf9a15b8-41d0-43ec-955d-856a848336f9"
  },
  {
    "id": "6d937556-a60e-4d80-bc9d-e074cfd755b1",
    "name": "Dumitra",
    "state_id": "cf9a15b8-41d0-43ec-955d-856a848336f9"
  },
  {
    "id": "7ff87666-1b54-493b-b401-d7b8ff0f3422",
    "name": "Dumitrița",
    "state_id": "cf9a15b8-41d0-43ec-955d-856a848336f9"
  },
  {
    "id": "9065c1ae-e663-4b5c-8426-f9d3cd18bdc8",
    "name": "Feldru",
    "state_id": "cf9a15b8-41d0-43ec-955d-856a848336f9"
  },
  {
    "id": "cf035dbd-3985-4f7b-a4f2-34b074aa7e02",
    "name": "Frunzi",
    "state_id": "cf9a15b8-41d0-43ec-955d-856a848336f9"
  },
  {
    "id": "ad3684b7-8220-44c6-ba9b-32aca9ac671d",
    "name": "Galaţii Bistriţei",
    "state_id": "cf9a15b8-41d0-43ec-955d-856a848336f9"
  },
  {
    "id": "3ea48257-06f8-4c0e-b6bf-fd52dcd092c4",
    "name": "Ilva Mare",
    "state_id": "cf9a15b8-41d0-43ec-955d-856a848336f9"
  },
  {
    "id": "0561b773-aa44-4751-b818-ddaceb963ce1",
    "name": "Ilva Mică",
    "state_id": "cf9a15b8-41d0-43ec-955d-856a848336f9"
  },
  {
    "id": "02cdada6-e5db-4f78-9f8a-6df45dde0304",
    "name": "Josenii Bârgăului",
    "state_id": "cf9a15b8-41d0-43ec-955d-856a848336f9"
  },
  {
    "id": "25727a73-827e-4a8d-9efb-b5d5bf0af6e7",
    "name": "Lechinţa",
    "state_id": "cf9a15b8-41d0-43ec-955d-856a848336f9"
  },
  {
    "id": "d40f9cf6-47bb-4746-8a00-ae79a948610f",
    "name": "Leşu",
    "state_id": "cf9a15b8-41d0-43ec-955d-856a848336f9"
  },
  {
    "id": "b32ad6cf-f6d9-4789-96e7-d824fcdbac59",
    "name": "Livezile",
    "state_id": "cf9a15b8-41d0-43ec-955d-856a848336f9"
  },
  {
    "id": "ec01df5d-5dcb-4da8-a530-77ecccfca205",
    "name": "Lunca Ilvei",
    "state_id": "cf9a15b8-41d0-43ec-955d-856a848336f9"
  },
  {
    "id": "9556091a-25ad-41c8-bfc1-a8a7d3f2a623",
    "name": "Lunca Leșului",
    "state_id": "cf9a15b8-41d0-43ec-955d-856a848336f9"
  },
  {
    "id": "edfac23e-55fa-410d-a189-ef3d9b2dedb9",
    "name": "Măgura Ilvei",
    "state_id": "cf9a15b8-41d0-43ec-955d-856a848336f9"
  },
  {
    "id": "5a2ae304-f5db-49dd-b42e-2a8bed820f11",
    "name": "Măieru",
    "state_id": "cf9a15b8-41d0-43ec-955d-856a848336f9"
  },
  {
    "id": "ab61fb7d-4b1e-4803-a449-23a57d2bb4c6",
    "name": "Mărişelu",
    "state_id": "cf9a15b8-41d0-43ec-955d-856a848336f9"
  },
  {
    "id": "b3bddfeb-a43a-43b3-834d-3fd851e682a1",
    "name": "Matei",
    "state_id": "cf9a15b8-41d0-43ec-955d-856a848336f9"
  },
  {
    "id": "76184abc-ed75-4424-a7d1-ca19c952c304",
    "name": "Miceştii de Câmpie",
    "state_id": "cf9a15b8-41d0-43ec-955d-856a848336f9"
  },
  {
    "id": "34cad156-5c46-4100-bc16-5a5d90882c53",
    "name": "Mijlocenii Bârgăului",
    "state_id": "cf9a15b8-41d0-43ec-955d-856a848336f9"
  },
  {
    "id": "a9aef12b-6c56-465d-8ead-84b095cc0fbe",
    "name": "Milaş",
    "state_id": "cf9a15b8-41d0-43ec-955d-856a848336f9"
  },
  {
    "id": "21f994c1-8840-44b8-8029-3937f3b4106e",
    "name": "Monor",
    "state_id": "cf9a15b8-41d0-43ec-955d-856a848336f9"
  },
  {
    "id": "2e2df1a2-5a57-433f-a894-0d5ceea093b7",
    "name": "Municipiul Bistriţa",
    "state_id": "cf9a15b8-41d0-43ec-955d-856a848336f9"
  },
  {
    "id": "6faf0d05-4dcb-404b-a822-7c2f1af0bfab",
    "name": "Năsăud",
    "state_id": "cf9a15b8-41d0-43ec-955d-856a848336f9"
  },
  {
    "id": "8632acfa-b1ad-4cda-bafd-566602f011e6",
    "name": "Negrilești",
    "state_id": "cf9a15b8-41d0-43ec-955d-856a848336f9"
  },
  {
    "id": "a91d701d-72f5-4794-a55a-71ccf930a921",
    "name": "Nepos",
    "state_id": "cf9a15b8-41d0-43ec-955d-856a848336f9"
  },
  {
    "id": "6cc1adbd-8ed5-4274-9e0f-c02a5d4d5e41",
    "name": "Nimigea de Jos",
    "state_id": "cf9a15b8-41d0-43ec-955d-856a848336f9"
  },
  {
    "id": "fe3d82f0-811c-4c5e-92b2-71366635fad5",
    "name": "Nimigea de Sus",
    "state_id": "cf9a15b8-41d0-43ec-955d-856a848336f9"
  },
  {
    "id": "0a07817e-82a7-4b6d-b9f2-3efee45663b8",
    "name": "Nuşeni",
    "state_id": "cf9a15b8-41d0-43ec-955d-856a848336f9"
  },
  {
    "id": "1c9634f6-2eeb-4ec7-80f6-f2eb8446c746",
    "name": "Ocnița",
    "state_id": "cf9a15b8-41d0-43ec-955d-856a848336f9"
  },
  {
    "id": "932e63de-eccd-4897-ab55-fc68f4897629",
    "name": "Oraş Beclean",
    "state_id": "cf9a15b8-41d0-43ec-955d-856a848336f9"
  },
  {
    "id": "82860dd3-fae1-40fc-be3e-25e79c164a65",
    "name": "Oraş Nãsãud",
    "state_id": "cf9a15b8-41d0-43ec-955d-856a848336f9"
  },
  {
    "id": "75dfbd9d-38a1-40fc-806a-a2ccbbffe406",
    "name": "Oraş Sângeorz-Bãi",
    "state_id": "cf9a15b8-41d0-43ec-955d-856a848336f9"
  },
  {
    "id": "66113bc1-9e94-4439-b84b-109f89fa04f8",
    "name": "Parva",
    "state_id": "cf9a15b8-41d0-43ec-955d-856a848336f9"
  },
  {
    "id": "c6ccef8e-a173-4d41-b9b8-a1968d641850",
    "name": "Petriș",
    "state_id": "cf9a15b8-41d0-43ec-955d-856a848336f9"
  },
  {
    "id": "bf684f5f-3a7f-40e5-82cf-a619161abcad",
    "name": "Poiana Ilvei",
    "state_id": "cf9a15b8-41d0-43ec-955d-856a848336f9"
  },
  {
    "id": "7210cd11-c51c-4e75-8681-b847d4134e3f",
    "name": "Prundu Bârgăului",
    "state_id": "cf9a15b8-41d0-43ec-955d-856a848336f9"
  },
  {
    "id": "1dcb546c-8442-4db5-97d6-a205df8adcdd",
    "name": "Răpănaşu",
    "state_id": "cf9a15b8-41d0-43ec-955d-856a848336f9"
  },
  {
    "id": "fb70a438-7ed9-4458-8a9f-c68466bc0cf4",
    "name": "Rebra",
    "state_id": "cf9a15b8-41d0-43ec-955d-856a848336f9"
  },
  {
    "id": "5a7c62dd-c8b8-4821-9284-04d0c4942353",
    "name": "Rebrişoara",
    "state_id": "cf9a15b8-41d0-43ec-955d-856a848336f9"
  },
  {
    "id": "dc9623f6-05f0-4587-a813-ecf454b141a7",
    "name": "Reteag",
    "state_id": "cf9a15b8-41d0-43ec-955d-856a848336f9"
  },
  {
    "id": "9cf33de5-9c5e-438b-8cfb-d1ac74901cbd",
    "name": "Rodna",
    "state_id": "cf9a15b8-41d0-43ec-955d-856a848336f9"
  },
  {
    "id": "07551965-f207-402a-b664-b4de9ff16b2a",
    "name": "Romuli",
    "state_id": "cf9a15b8-41d0-43ec-955d-856a848336f9"
  },
  {
    "id": "468369b2-77be-4bc2-af90-21b7412549fc",
    "name": "Runcu Salvei",
    "state_id": "cf9a15b8-41d0-43ec-955d-856a848336f9"
  },
  {
    "id": "1e7ee8cb-7aed-44eb-a36f-2a963044db00",
    "name": "Salva",
    "state_id": "cf9a15b8-41d0-43ec-955d-856a848336f9"
  },
  {
    "id": "14a95b3a-79f9-4656-b964-e9c1e3c1ab29",
    "name": "Sângeorz-Băi",
    "state_id": "cf9a15b8-41d0-43ec-955d-856a848336f9"
  },
  {
    "id": "c4bc8265-c516-49ed-bd29-068a083d894d",
    "name": "Sânmihaiu de Câmpie",
    "state_id": "cf9a15b8-41d0-43ec-955d-856a848336f9"
  },
  {
    "id": "7978caee-323c-4d47-b81b-023481ada57b",
    "name": "Șanț",
    "state_id": "cf9a15b8-41d0-43ec-955d-856a848336f9"
  },
  {
    "id": "b5499448-4ee5-4c35-b84d-691cf611cf56",
    "name": "Şieu",
    "state_id": "cf9a15b8-41d0-43ec-955d-856a848336f9"
  },
  {
    "id": "ac0deb85-2eab-4cf1-ac9e-3ece412b0754",
    "name": "Şieu-Măgheruş",
    "state_id": "cf9a15b8-41d0-43ec-955d-856a848336f9"
  },
  {
    "id": "304a3ace-6fa1-4036-ae39-32edc7033a74",
    "name": "Şieu-Odorhei",
    "state_id": "cf9a15b8-41d0-43ec-955d-856a848336f9"
  },
  {
    "id": "66c288fc-796f-4510-a93d-db74d797bf91",
    "name": "Şieuţ",
    "state_id": "cf9a15b8-41d0-43ec-955d-856a848336f9"
  },
  {
    "id": "c898d7ed-354f-4253-8503-65128a3214c5",
    "name": "Silivașu de Câmpie",
    "state_id": "cf9a15b8-41d0-43ec-955d-856a848336f9"
  },
  {
    "id": "b599bec4-d6b7-48f4-9889-5485e5a14386",
    "name": "Şintereag",
    "state_id": "cf9a15b8-41d0-43ec-955d-856a848336f9"
  },
  {
    "id": "c05b3701-ef28-45d3-ad43-cc5f27a8bdf7",
    "name": "Spermezeu",
    "state_id": "cf9a15b8-41d0-43ec-955d-856a848336f9"
  },
  {
    "id": "9f8b8641-0a7e-4c03-80bd-7211442e82a2",
    "name": "Susenii Bârgăului",
    "state_id": "cf9a15b8-41d0-43ec-955d-856a848336f9"
  },
  {
    "id": "6d9b99f6-65ab-435b-bbe3-384d71b5320e",
    "name": "Târlişua",
    "state_id": "cf9a15b8-41d0-43ec-955d-856a848336f9"
  },
  {
    "id": "92ef7d1d-7a01-4fe2-90cc-3b1976835d57",
    "name": "Teaca",
    "state_id": "cf9a15b8-41d0-43ec-955d-856a848336f9"
  },
  {
    "id": "ad005aea-9456-4d30-93ab-fe193dae5b90",
    "name": "Telcișor",
    "state_id": "cf9a15b8-41d0-43ec-955d-856a848336f9"
  },
  {
    "id": "c7b2e379-97da-41c3-bbac-92ea236a6fcd",
    "name": "Telciu",
    "state_id": "cf9a15b8-41d0-43ec-955d-856a848336f9"
  },
  {
    "id": "2f97e205-804e-4881-aa05-ddbddd5ae186",
    "name": "Tiha Bârgăului",
    "state_id": "cf9a15b8-41d0-43ec-955d-856a848336f9"
  },
  {
    "id": "775aa5f2-a467-497d-861d-e28720d3173d",
    "name": "Tureac",
    "state_id": "cf9a15b8-41d0-43ec-955d-856a848336f9"
  },
  {
    "id": "84a35c0d-6fff-44ac-9176-0e06ac36fe0d",
    "name": "Unirea",
    "state_id": "cf9a15b8-41d0-43ec-955d-856a848336f9"
  },
  {
    "id": "72822c81-d1a6-47a2-8fb9-d26340726036",
    "name": "Uriu",
    "state_id": "cf9a15b8-41d0-43ec-955d-856a848336f9"
  },
  {
    "id": "b9d6df1d-7de6-415b-ac0e-6173da48b980",
    "name": "Urmeniş",
    "state_id": "cf9a15b8-41d0-43ec-955d-856a848336f9"
  },
  {
    "id": "6c44cbd1-5c65-4638-9303-8ba7b019f264",
    "name": "Valea Borcutului",
    "state_id": "cf9a15b8-41d0-43ec-955d-856a848336f9"
  },
  {
    "id": "b7b81791-d84c-41d3-bf41-dde050fc952f",
    "name": "Viile Tecii",
    "state_id": "cf9a15b8-41d0-43ec-955d-856a848336f9"
  },
  {
    "id": "8a781b94-3e24-4d3d-b68e-e51bee79fbf8",
    "name": "Viișoara",
    "state_id": "cf9a15b8-41d0-43ec-955d-856a848336f9"
  },
  {
    "id": "ab5a170f-122b-467b-97e8-b8a0c240aae1",
    "name": "Zagra",
    "state_id": "cf9a15b8-41d0-43ec-955d-856a848336f9"
  }
]