[
  {
    "id": "37c10ec8-7ce8-4990-a4d5-759a9039ec89",
    "name": "Amphoe Kapoe",
    "state_id": "d02362e9-9f8a-46a4-b331-81c821a715b7"
  },
  {
    "id": "30bf0d2b-651a-45b6-a761-e33b46afa7ff",
    "name": "Amphoe Kra Buri",
    "state_id": "d02362e9-9f8a-46a4-b331-81c821a715b7"
  },
  {
    "id": "02a00231-1558-4bba-8769-e6d166ed6d20",
    "name": "Amphoe La-un",
    "state_id": "d02362e9-9f8a-46a4-b331-81c821a715b7"
  },
  {
    "id": "b4e3fe3a-ad00-4750-acd5-3a2cb594eb96",
    "name": "Amphoe Mueang Ranong",
    "state_id": "d02362e9-9f8a-46a4-b331-81c821a715b7"
  },
  {
    "id": "947ff816-e226-40fd-86f7-54b562526d3c",
    "name": "Amphoe Suk Samran",
    "state_id": "d02362e9-9f8a-46a4-b331-81c821a715b7"
  },
  {
    "id": "0377eb6c-965e-43d1-85de-edf214f7d78e",
    "name": "Ranong",
    "state_id": "d02362e9-9f8a-46a4-b331-81c821a715b7"
  }
]