[
  {
    "id": "783f754c-c78d-4c85-bbf1-a2a9b4505b80",
    "name": "Alta",
    "state_id": "d154ec03-a836-4970-becb-752c8c26050c"
  },
  {
    "id": "9a757294-9012-4a1b-837f-b598986c05d0",
    "name": "Ávanuorri",
    "state_id": "d154ec03-a836-4970-becb-752c8c26050c"
  },
  {
    "id": "fcbb8253-cddc-4c0e-ac22-b2ee1f308b86",
    "name": "Båtsfjord",
    "state_id": "d154ec03-a836-4970-becb-752c8c26050c"
  },
  {
    "id": "f5cb8f52-2e2b-4922-af38-6304ccb0c3e9",
    "name": "Berlevåg",
    "state_id": "d154ec03-a836-4970-becb-752c8c26050c"
  },
  {
    "id": "708cf6f6-5bf1-4c32-a55f-a74a225c8f7f",
    "name": "Bjørnevatn",
    "state_id": "d154ec03-a836-4970-becb-752c8c26050c"
  },
  {
    "id": "22be6fea-68e5-4ffc-bc2f-0320ff321006",
    "name": "Gamvik",
    "state_id": "d154ec03-a836-4970-becb-752c8c26050c"
  },
  {
    "id": "a645c996-f7f7-4355-8830-b9cae21eefe7",
    "name": "Hammerfest",
    "state_id": "d154ec03-a836-4970-becb-752c8c26050c"
  },
  {
    "id": "2098271c-3389-4882-884e-642424bca531",
    "name": "Hasvik",
    "state_id": "d154ec03-a836-4970-becb-752c8c26050c"
  },
  {
    "id": "edfb6162-85a3-45a8-b95b-0f44df93849c",
    "name": "Honningsvåg",
    "state_id": "d154ec03-a836-4970-becb-752c8c26050c"
  },
  {
    "id": "6988397e-7161-4b98-a471-e419e87aad14",
    "name": "Kárášjohka",
    "state_id": "d154ec03-a836-4970-becb-752c8c26050c"
  },
  {
    "id": "ed09d639-5069-47c3-b103-ec7d16a5d414",
    "name": "Karasjok",
    "state_id": "d154ec03-a836-4970-becb-752c8c26050c"
  },
  {
    "id": "328eeb18-62e6-4332-9247-63e78faa2254",
    "name": "Kautokeino",
    "state_id": "d154ec03-a836-4970-becb-752c8c26050c"
  },
  {
    "id": "b78b1ff8-fd99-4e05-8817-b27b9029e72b",
    "name": "Kirkenes",
    "state_id": "d154ec03-a836-4970-becb-752c8c26050c"
  },
  {
    "id": "df66ab3c-67a8-4c27-b8ef-c4241b352eb8",
    "name": "Kjøllefjord",
    "state_id": "d154ec03-a836-4970-becb-752c8c26050c"
  },
  {
    "id": "0f77d232-2bc9-42c5-97ad-8de193aa47c7",
    "name": "Kvalsund",
    "state_id": "d154ec03-a836-4970-becb-752c8c26050c"
  },
  {
    "id": "eaaf95d6-ec72-4a5a-8560-4ab47b11ec6d",
    "name": "Lakselv",
    "state_id": "d154ec03-a836-4970-becb-752c8c26050c"
  },
  {
    "id": "6efd5721-b0d5-4a95-a2f0-31e54634efaa",
    "name": "Lebesby",
    "state_id": "d154ec03-a836-4970-becb-752c8c26050c"
  },
  {
    "id": "5732af2f-ddea-412b-b121-f653b7616895",
    "name": "Loppa",
    "state_id": "d154ec03-a836-4970-becb-752c8c26050c"
  },
  {
    "id": "e6b9e324-270b-48b8-9516-9bb349c63e33",
    "name": "Måsøy",
    "state_id": "d154ec03-a836-4970-becb-752c8c26050c"
  },
  {
    "id": "6161e8dd-731c-4f04-9069-a3e46d8535cf",
    "name": "Mehamn",
    "state_id": "d154ec03-a836-4970-becb-752c8c26050c"
  },
  {
    "id": "326b7279-707e-4c8c-84ad-3f5f0f62c87b",
    "name": "Nesseby",
    "state_id": "d154ec03-a836-4970-becb-752c8c26050c"
  },
  {
    "id": "603a69e1-e8ff-4970-9995-1c1b5d11662c",
    "name": "Nordkapp",
    "state_id": "d154ec03-a836-4970-becb-752c8c26050c"
  },
  {
    "id": "c3923aac-9bc9-4252-9da5-2a04dab24667",
    "name": "Øksfjord",
    "state_id": "d154ec03-a836-4970-becb-752c8c26050c"
  },
  {
    "id": "45feef0d-0fea-4d77-9791-7777cc911a99",
    "name": "Porsanger",
    "state_id": "d154ec03-a836-4970-becb-752c8c26050c"
  },
  {
    "id": "241b96ed-bac6-41e0-8b8d-16cc7eabd367",
    "name": "Rypefjord",
    "state_id": "d154ec03-a836-4970-becb-752c8c26050c"
  },
  {
    "id": "f57336bd-cf1b-4214-89e7-167984342e4b",
    "name": "Sør-Varanger",
    "state_id": "d154ec03-a836-4970-becb-752c8c26050c"
  },
  {
    "id": "92b3db3e-3cfd-4f4c-8e4d-7b0a258a398e",
    "name": "Tana",
    "state_id": "d154ec03-a836-4970-becb-752c8c26050c"
  },
  {
    "id": "396d85b6-0443-415f-96a6-d5a3c4373ec7",
    "name": "Vadsø",
    "state_id": "d154ec03-a836-4970-becb-752c8c26050c"
  },
  {
    "id": "5bba1953-211b-4587-919f-2c61091d85d5",
    "name": "Vardø",
    "state_id": "d154ec03-a836-4970-becb-752c8c26050c"
  }
]