[
  {
    "id": "5da4807b-7ada-444b-a2cd-0aeb0e37994d",
    "name": "Acolla",
    "state_id": "d295caa0-0238-42db-8556-919bf997e235"
  },
  {
    "id": "0261804c-67ac-44f4-aaaf-15846d229e01",
    "name": "Carhuamayo",
    "state_id": "d295caa0-0238-42db-8556-919bf997e235"
  },
  {
    "id": "a2f69a6a-db55-44ce-afe8-6f39b624deb1",
    "name": "Chanchamayo",
    "state_id": "d295caa0-0238-42db-8556-919bf997e235"
  },
  {
    "id": "016dee04-1280-46df-930e-0b9313204c12",
    "name": "Chupaca",
    "state_id": "d295caa0-0238-42db-8556-919bf997e235"
  },
  {
    "id": "c2196ef0-6891-4985-aec5-f2b23cb3960a",
    "name": "Concepción",
    "state_id": "d295caa0-0238-42db-8556-919bf997e235"
  },
  {
    "id": "c74cbe90-dffd-41e3-a2b1-2ddf1ab974b3",
    "name": "Huancayo",
    "state_id": "d295caa0-0238-42db-8556-919bf997e235"
  },
  {
    "id": "0ecb1d8e-caf0-48dd-be1b-d11e63a1fea1",
    "name": "Huasahuasi",
    "state_id": "d295caa0-0238-42db-8556-919bf997e235"
  },
  {
    "id": "0daf1f11-e934-42e8-9d10-5966da462316",
    "name": "Huayucachi",
    "state_id": "d295caa0-0238-42db-8556-919bf997e235"
  },
  {
    "id": "9e40f410-34ad-4072-90c7-871e95877c46",
    "name": "Jauja",
    "state_id": "d295caa0-0238-42db-8556-919bf997e235"
  },
  {
    "id": "bf712a61-958b-4083-81b4-00d322b9204a",
    "name": "Junín",
    "state_id": "d295caa0-0238-42db-8556-919bf997e235"
  },
  {
    "id": "3a62004e-6e46-4942-87d4-4efad2bee526",
    "name": "La Oroya",
    "state_id": "d295caa0-0238-42db-8556-919bf997e235"
  },
  {
    "id": "76446c64-868a-4321-be17-3fd3a60ea8ca",
    "name": "Mazamari",
    "state_id": "d295caa0-0238-42db-8556-919bf997e235"
  },
  {
    "id": "46323d27-9700-417b-a3ca-f0c71f4ae2d3",
    "name": "Morococha",
    "state_id": "d295caa0-0238-42db-8556-919bf997e235"
  },
  {
    "id": "ff27357d-1207-4221-af3a-44d3601ea28d",
    "name": "Orcotuna",
    "state_id": "d295caa0-0238-42db-8556-919bf997e235"
  },
  {
    "id": "d50e6bb8-39ad-4d35-8911-d212ab674c9a",
    "name": "Perené",
    "state_id": "d295caa0-0238-42db-8556-919bf997e235"
  },
  {
    "id": "6e5827ec-264b-4e72-bf09-6df0301993c8",
    "name": "Pilcomay",
    "state_id": "d295caa0-0238-42db-8556-919bf997e235"
  },
  {
    "id": "9efd90d9-86f9-4aff-918e-23e82218bdd9",
    "name": "Provincia de Chupaca",
    "state_id": "d295caa0-0238-42db-8556-919bf997e235"
  },
  {
    "id": "5a538397-b2b7-41f0-9b6d-f80965dabb07",
    "name": "Provincia de Concepción",
    "state_id": "d295caa0-0238-42db-8556-919bf997e235"
  },
  {
    "id": "68a65d4c-8161-4919-90b1-71dfd4bc6db2",
    "name": "Provincia de Huancayo",
    "state_id": "d295caa0-0238-42db-8556-919bf997e235"
  },
  {
    "id": "3723e92e-a5ca-4cfb-a28d-7235608adb47",
    "name": "Provincia de Jauja",
    "state_id": "d295caa0-0238-42db-8556-919bf997e235"
  },
  {
    "id": "2ea1a4c3-6caf-4f4c-aa45-838d8e27227c",
    "name": "Provincia de Junín",
    "state_id": "d295caa0-0238-42db-8556-919bf997e235"
  },
  {
    "id": "54451d58-c5ed-4d43-a815-9474be9f87a6",
    "name": "Provincia de Satipo",
    "state_id": "d295caa0-0238-42db-8556-919bf997e235"
  },
  {
    "id": "4e350195-a25e-4349-ac05-e661093cb7cc",
    "name": "Provincia de Tarma",
    "state_id": "d295caa0-0238-42db-8556-919bf997e235"
  },
  {
    "id": "07b44f60-f03f-48aa-a52f-618ae369ad46",
    "name": "Provincia de Yauli",
    "state_id": "d295caa0-0238-42db-8556-919bf997e235"
  },
  {
    "id": "53193ac7-d552-4263-802e-1f75a90a6ecb",
    "name": "San Agustin",
    "state_id": "d295caa0-0238-42db-8556-919bf997e235"
  },
  {
    "id": "40a9f958-680d-46dc-b122-5a18d23bab59",
    "name": "San Jerónimo",
    "state_id": "d295caa0-0238-42db-8556-919bf997e235"
  },
  {
    "id": "2affece7-7467-4749-b2a0-ec0112ecf707",
    "name": "San Pedro de Cajas",
    "state_id": "d295caa0-0238-42db-8556-919bf997e235"
  },
  {
    "id": "a739fcc8-4bfb-473b-a6e0-69faa873934f",
    "name": "San Ramón",
    "state_id": "d295caa0-0238-42db-8556-919bf997e235"
  },
  {
    "id": "58c69ed1-f2d1-4ef3-a926-995ddf7174ef",
    "name": "Satipo",
    "state_id": "d295caa0-0238-42db-8556-919bf997e235"
  },
  {
    "id": "93f63819-1f27-44f6-b9b7-4b98ee146471",
    "name": "Sicaya",
    "state_id": "d295caa0-0238-42db-8556-919bf997e235"
  },
  {
    "id": "4aee6366-9f9e-4582-9d54-9ae826bc7182",
    "name": "Tarma",
    "state_id": "d295caa0-0238-42db-8556-919bf997e235"
  }
]