[
  {
    "id": "453aad37-ca1f-451c-8063-ce06ee6052f7",
    "name": "Amphoe Khuan Don",
    "state_id": "d2b0a77b-c446-4131-99ba-6963a3baa548"
  },
  {
    "id": "9754bc56-e088-47cb-b551-85ba2625af32",
    "name": "Amphoe Khuan Kalong",
    "state_id": "d2b0a77b-c446-4131-99ba-6963a3baa548"
  },
  {
    "id": "1c5e18cb-1ebb-4bf5-830c-fc103a9ffcb2",
    "name": "Amphoe La-Ngu",
    "state_id": "d2b0a77b-c446-4131-99ba-6963a3baa548"
  },
  {
    "id": "bfdf8872-5702-4a7e-9a70-9088c8d586e6",
    "name": "Amphoe Manang",
    "state_id": "d2b0a77b-c446-4131-99ba-6963a3baa548"
  },
  {
    "id": "72da92b0-9001-487d-a704-9262a05f0c3d",
    "name": "Amphoe Mueang Satun",
    "state_id": "d2b0a77b-c446-4131-99ba-6963a3baa548"
  },
  {
    "id": "3b555724-f727-49e5-8a17-618ea29de1cf",
    "name": "Amphoe Tha Phae",
    "state_id": "d2b0a77b-c446-4131-99ba-6963a3baa548"
  },
  {
    "id": "6756e8f5-8a71-4f6c-9207-406fbe1c6d21",
    "name": "Amphoe Thung Wa",
    "state_id": "d2b0a77b-c446-4131-99ba-6963a3baa548"
  },
  {
    "id": "1fb1806e-cbec-40d1-b744-a19c43508318",
    "name": "Satun",
    "state_id": "d2b0a77b-c446-4131-99ba-6963a3baa548"
  }
]