[
  {
    "id": "63c437e8-9241-4658-af0d-628410f523c0",
    "name": "Anqiu",
    "state_id": "d2d21bdb-ed5a-4064-b49a-ba03da8c8665"
  },
  {
    "id": "17128588-3443-4609-80d7-a8ce1953c3f6",
    "name": "Beizhai",
    "state_id": "d2d21bdb-ed5a-4064-b49a-ba03da8c8665"
  },
  {
    "id": "26cf5fac-d0d5-49f9-95c0-10c27bb14da9",
    "name": "Bianzhuang",
    "state_id": "d2d21bdb-ed5a-4064-b49a-ba03da8c8665"
  },
  {
    "id": "5f467dc2-6a6a-446d-99e8-446c6113713b",
    "name": "Binzhou",
    "state_id": "d2d21bdb-ed5a-4064-b49a-ba03da8c8665"
  },
  {
    "id": "b0b60a46-69e1-401e-b27c-4d95c92780a2",
    "name": "Boshan",
    "state_id": "d2d21bdb-ed5a-4064-b49a-ba03da8c8665"
  },
  {
    "id": "8af0d758-55ae-4df4-8385-fe73f58092cc",
    "name": "Changqing",
    "state_id": "d2d21bdb-ed5a-4064-b49a-ba03da8c8665"
  },
  {
    "id": "48929d6e-3517-41fc-84ff-ae63d5cdeb94",
    "name": "Chengqu",
    "state_id": "d2d21bdb-ed5a-4064-b49a-ba03da8c8665"
  },
  {
    "id": "f72633cf-83c3-41d6-84cd-5cc8a3846e41",
    "name": "Chengtangcun",
    "state_id": "d2d21bdb-ed5a-4064-b49a-ba03da8c8665"
  },
  {
    "id": "c5a12754-4f62-4ef6-9d0a-46ac3fcd7311",
    "name": "Chengyang",
    "state_id": "d2d21bdb-ed5a-4064-b49a-ba03da8c8665"
  },
  {
    "id": "ac40c27a-da76-411a-81bb-425b5736cf02",
    "name": "Dengying",
    "state_id": "d2d21bdb-ed5a-4064-b49a-ba03da8c8665"
  },
  {
    "id": "9fed3d04-e1e2-47a1-b831-55be70016221",
    "name": "Dengzhou",
    "state_id": "d2d21bdb-ed5a-4064-b49a-ba03da8c8665"
  },
  {
    "id": "d93aeb7f-246e-439e-8bca-57052e84339c",
    "name": "Dezhou",
    "state_id": "d2d21bdb-ed5a-4064-b49a-ba03da8c8665"
  },
  {
    "id": "d12f4907-0b75-4add-b64e-5796838af800",
    "name": "Dingtao",
    "state_id": "d2d21bdb-ed5a-4064-b49a-ba03da8c8665"
  },
  {
    "id": "c4b2a6ad-e629-4428-84bd-c9e88dd924fd",
    "name": "Dongcun",
    "state_id": "d2d21bdb-ed5a-4064-b49a-ba03da8c8665"
  },
  {
    "id": "71d8c48d-5b21-410c-9ecf-affa4a465e12",
    "name": "Dongdu",
    "state_id": "d2d21bdb-ed5a-4064-b49a-ba03da8c8665"
  },
  {
    "id": "190bcb70-cac7-4905-b421-b56ffaebfbd7",
    "name": "Feicheng",
    "state_id": "d2d21bdb-ed5a-4064-b49a-ba03da8c8665"
  },
  {
    "id": "c4160073-94b2-4263-a0a4-a41157e56204",
    "name": "Gaomi",
    "state_id": "d2d21bdb-ed5a-4064-b49a-ba03da8c8665"
  },
  {
    "id": "40be7b71-594e-4659-b69c-859cb42ce8c3",
    "name": "Hanting",
    "state_id": "d2d21bdb-ed5a-4064-b49a-ba03da8c8665"
  },
  {
    "id": "caa21057-fc54-4353-a377-f83c899accea",
    "name": "Heze",
    "state_id": "d2d21bdb-ed5a-4064-b49a-ba03da8c8665"
  },
  {
    "id": "96f0dbdf-0fa7-4116-a152-d93a8c7bb89f",
    "name": "Jiamaying",
    "state_id": "d2d21bdb-ed5a-4064-b49a-ba03da8c8665"
  },
  {
    "id": "f2026d84-9f9f-47c2-9518-fc5c8ff1b9e9",
    "name": "Jiaozhou",
    "state_id": "d2d21bdb-ed5a-4064-b49a-ba03da8c8665"
  },
  {
    "id": "d0c887d3-306b-4e39-932a-89ea192f99a5",
    "name": "Jiehu",
    "state_id": "d2d21bdb-ed5a-4064-b49a-ba03da8c8665"
  },
  {
    "id": "bfc3525b-f43e-43ff-ad16-7293ae530533",
    "name": "Jimo",
    "state_id": "d2d21bdb-ed5a-4064-b49a-ba03da8c8665"
  },
  {
    "id": "62db3c34-5b1f-4f7a-a422-c9c710ae2623",
    "name": "Jinan",
    "state_id": "d2d21bdb-ed5a-4064-b49a-ba03da8c8665"
  },
  {
    "id": "2dfae513-6c9e-44cf-9001-224c3926ff12",
    "name": "Jining",
    "state_id": "d2d21bdb-ed5a-4064-b49a-ba03da8c8665"
  },
  {
    "id": "e29c1857-538b-46a6-b3c9-5533e65dfe41",
    "name": "Juye",
    "state_id": "d2d21bdb-ed5a-4064-b49a-ba03da8c8665"
  },
  {
    "id": "350dd5f9-f391-4784-9f52-c91166e257c9",
    "name": "Kuiju",
    "state_id": "d2d21bdb-ed5a-4064-b49a-ba03da8c8665"
  },
  {
    "id": "539d724d-9207-4bd0-aba8-ae488e952790",
    "name": "Kutao",
    "state_id": "d2d21bdb-ed5a-4064-b49a-ba03da8c8665"
  },
  {
    "id": "996859ef-d477-484a-9aa9-2df78c204827",
    "name": "Laiwu",
    "state_id": "d2d21bdb-ed5a-4064-b49a-ba03da8c8665"
  },
  {
    "id": "348bda16-cfbe-4777-8f69-4a1d6bd5127d",
    "name": "Laixi",
    "state_id": "d2d21bdb-ed5a-4064-b49a-ba03da8c8665"
  },
  {
    "id": "322291da-faa3-4071-97c8-ed7deed4bdc1",
    "name": "Laiyang",
    "state_id": "d2d21bdb-ed5a-4064-b49a-ba03da8c8665"
  },
  {
    "id": "e45b6c80-7bb3-4f42-9ce3-b60446b8f2ec",
    "name": "Laizhou",
    "state_id": "d2d21bdb-ed5a-4064-b49a-ba03da8c8665"
  },
  {
    "id": "a6762dff-745f-4b58-bedf-765664e53bd5",
    "name": "Laocheng",
    "state_id": "d2d21bdb-ed5a-4064-b49a-ba03da8c8665"
  },
  {
    "id": "0b1dca65-5a36-4d34-ace8-43330fd029bf",
    "name": "Liaocheng",
    "state_id": "d2d21bdb-ed5a-4064-b49a-ba03da8c8665"
  },
  {
    "id": "21b64c3a-5799-4e45-8a87-0e44ae2a19b7",
    "name": "Linqu",
    "state_id": "d2d21bdb-ed5a-4064-b49a-ba03da8c8665"
  },
  {
    "id": "7fa264f6-1c28-4ca3-9ba8-d89387eba35c",
    "name": "Linyi",
    "state_id": "d2d21bdb-ed5a-4064-b49a-ba03da8c8665"
  },
  {
    "id": "2d2b4e4a-3f4c-4e9e-9431-74d7a52af31f",
    "name": "Longgang",
    "state_id": "d2d21bdb-ed5a-4064-b49a-ba03da8c8665"
  },
  {
    "id": "92eb68c2-2423-491f-b010-6fd21652ea4b",
    "name": "Mengyin",
    "state_id": "d2d21bdb-ed5a-4064-b49a-ba03da8c8665"
  },
  {
    "id": "390be330-3a5c-4ccc-8de8-7ab43787283e",
    "name": "Mingshui",
    "state_id": "d2d21bdb-ed5a-4064-b49a-ba03da8c8665"
  },
  {
    "id": "e3194ee1-204e-4efb-aad4-a28a3f6790dc",
    "name": "Mizhou",
    "state_id": "d2d21bdb-ed5a-4064-b49a-ba03da8c8665"
  },
  {
    "id": "2faee82c-c6d7-4f49-acb8-79af1c59f402",
    "name": "Nanding",
    "state_id": "d2d21bdb-ed5a-4064-b49a-ba03da8c8665"
  },
  {
    "id": "db0d4c6b-89b9-46fc-bfb0-42d78540813a",
    "name": "Nanma",
    "state_id": "d2d21bdb-ed5a-4064-b49a-ba03da8c8665"
  },
  {
    "id": "e70db74d-e54c-42fc-8113-fa863cf70601",
    "name": "Ninghai",
    "state_id": "d2d21bdb-ed5a-4064-b49a-ba03da8c8665"
  },
  {
    "id": "ba88f5f0-a3af-4be7-9133-4016450e27b3",
    "name": "Ningyang",
    "state_id": "d2d21bdb-ed5a-4064-b49a-ba03da8c8665"
  },
  {
    "id": "4c4f4e88-fd84-4008-bed2-9d3c14de1d86",
    "name": "Pingdu",
    "state_id": "d2d21bdb-ed5a-4064-b49a-ba03da8c8665"
  },
  {
    "id": "09c60a07-b024-422e-be9b-097708812565",
    "name": "Pingyi",
    "state_id": "d2d21bdb-ed5a-4064-b49a-ba03da8c8665"
  },
  {
    "id": "92c379a8-4e2f-45ee-a5ef-979046a2543a",
    "name": "Pingyin",
    "state_id": "d2d21bdb-ed5a-4064-b49a-ba03da8c8665"
  },
  {
    "id": "22d7351a-7b11-4666-80af-b21d7a829ec9",
    "name": "Qingdao",
    "state_id": "d2d21bdb-ed5a-4064-b49a-ba03da8c8665"
  },
  {
    "id": "4897e823-45af-4bc9-8931-6cf8535f58c9",
    "name": "Qingnian",
    "state_id": "d2d21bdb-ed5a-4064-b49a-ba03da8c8665"
  },
  {
    "id": "ea3b301e-48c5-4b1c-924b-55ff992e1d39",
    "name": "Qingshancun",
    "state_id": "d2d21bdb-ed5a-4064-b49a-ba03da8c8665"
  },
  {
    "id": "292add2e-3941-4600-8344-eca4130918ec",
    "name": "Qingyang",
    "state_id": "d2d21bdb-ed5a-4064-b49a-ba03da8c8665"
  },
  {
    "id": "514e1c5e-b2ae-44ea-b98e-2ec5269ad1dd",
    "name": "Qingzhou",
    "state_id": "d2d21bdb-ed5a-4064-b49a-ba03da8c8665"
  },
  {
    "id": "1a8448ac-599a-42f7-baef-b12bc2a7ee3b",
    "name": "Qufu",
    "state_id": "d2d21bdb-ed5a-4064-b49a-ba03da8c8665"
  },
  {
    "id": "f496481e-0f92-4ba6-a743-878688c0373d",
    "name": "Rizhao",
    "state_id": "d2d21bdb-ed5a-4064-b49a-ba03da8c8665"
  },
  {
    "id": "c39aca3c-5691-4a4b-95c3-f5bd4ea714ee",
    "name": "Shancheng",
    "state_id": "d2d21bdb-ed5a-4064-b49a-ba03da8c8665"
  },
  {
    "id": "573f5ed7-a16a-4f4a-a182-b4140783731a",
    "name": "Shanting",
    "state_id": "d2d21bdb-ed5a-4064-b49a-ba03da8c8665"
  },
  {
    "id": "75cb1eb0-d477-465b-8b7c-6ec623729b74",
    "name": "Shazikou",
    "state_id": "d2d21bdb-ed5a-4064-b49a-ba03da8c8665"
  },
  {
    "id": "8bdc3187-d6a1-4e98-b045-8b65d27ef935",
    "name": "Shengli",
    "state_id": "d2d21bdb-ed5a-4064-b49a-ba03da8c8665"
  },
  {
    "id": "6a351e89-54b5-4242-8bfd-192cc08b6366",
    "name": "Shilaorencun",
    "state_id": "d2d21bdb-ed5a-4064-b49a-ba03da8c8665"
  },
  {
    "id": "46880898-2b95-4816-b055-65f0de1930d8",
    "name": "Shizilu",
    "state_id": "d2d21bdb-ed5a-4064-b49a-ba03da8c8665"
  },
  {
    "id": "3617ecc4-7c92-49a8-bd10-036129353226",
    "name": "Shouguang",
    "state_id": "d2d21bdb-ed5a-4064-b49a-ba03da8c8665"
  },
  {
    "id": "1e7c8c46-7883-4e52-8c84-26bfe89213ab",
    "name": "Sishui",
    "state_id": "d2d21bdb-ed5a-4064-b49a-ba03da8c8665"
  },
  {
    "id": "5158207d-7175-488b-b1e4-832ee47b159f",
    "name": "Suozhen",
    "state_id": "d2d21bdb-ed5a-4064-b49a-ba03da8c8665"
  },
  {
    "id": "ed26a4bc-0bcd-45f4-8942-7cdafa7003cd",
    "name": "Tai’an",
    "state_id": "d2d21bdb-ed5a-4064-b49a-ba03da8c8665"
  },
  {
    "id": "321ed85d-a58e-4737-bb81-7f7c476089bf",
    "name": "Taozhuang",
    "state_id": "d2d21bdb-ed5a-4064-b49a-ba03da8c8665"
  },
  {
    "id": "a86a8061-a769-48a9-b2b6-7c45e43ee0aa",
    "name": "Tianfu",
    "state_id": "d2d21bdb-ed5a-4064-b49a-ba03da8c8665"
  },
  {
    "id": "7bd8a860-fabe-4a69-ad08-2f06735d1fc3",
    "name": "Weifang",
    "state_id": "d2d21bdb-ed5a-4064-b49a-ba03da8c8665"
  },
  {
    "id": "eee21b2d-db13-4f7b-b914-d8ad868cd60a",
    "name": "Weihai",
    "state_id": "d2d21bdb-ed5a-4064-b49a-ba03da8c8665"
  },
  {
    "id": "091b97da-0b9c-436c-9f7f-d81461992ce0",
    "name": "Wenshang",
    "state_id": "d2d21bdb-ed5a-4064-b49a-ba03da8c8665"
  },
  {
    "id": "b2bd0944-9d3b-4723-8207-1b675d68c07d",
    "name": "Xiazhen",
    "state_id": "d2d21bdb-ed5a-4064-b49a-ba03da8c8665"
  },
  {
    "id": "43fa9484-7a28-4aef-9517-8f36aa0e6096",
    "name": "Xiazhuang",
    "state_id": "d2d21bdb-ed5a-4064-b49a-ba03da8c8665"
  },
  {
    "id": "7e1e7824-f155-478a-a678-b311010daed4",
    "name": "Xiliguantun",
    "state_id": "d2d21bdb-ed5a-4064-b49a-ba03da8c8665"
  },
  {
    "id": "3d5c7b5b-add2-4797-bb0a-fd9c63d29ccf",
    "name": "Xindian",
    "state_id": "d2d21bdb-ed5a-4064-b49a-ba03da8c8665"
  },
  {
    "id": "be9a60a1-2d27-474a-a05a-3886ded44fe4",
    "name": "Xintai",
    "state_id": "d2d21bdb-ed5a-4064-b49a-ba03da8c8665"
  },
  {
    "id": "a786f8e8-7412-4c21-9d09-91684f863691",
    "name": "Yanggu",
    "state_id": "d2d21bdb-ed5a-4064-b49a-ba03da8c8665"
  },
  {
    "id": "c74cf783-dbc5-472a-91b3-468c3ce0c9f5",
    "name": "Yanta",
    "state_id": "d2d21bdb-ed5a-4064-b49a-ba03da8c8665"
  },
  {
    "id": "023bbca5-f6d0-4688-ac6c-810d2adc19ad",
    "name": "Yantai",
    "state_id": "d2d21bdb-ed5a-4064-b49a-ba03da8c8665"
  },
  {
    "id": "004a037a-9594-4fd9-9ae7-b0ac9b0d7e8f",
    "name": "Yanzhou",
    "state_id": "d2d21bdb-ed5a-4064-b49a-ba03da8c8665"
  },
  {
    "id": "06e15611-8b0c-4b2a-9d6b-2dae35aa1399",
    "name": "Yatou",
    "state_id": "d2d21bdb-ed5a-4064-b49a-ba03da8c8665"
  },
  {
    "id": "73b76a4b-c285-430e-9a67-d1bcc9244120",
    "name": "Yinzhu",
    "state_id": "d2d21bdb-ed5a-4064-b49a-ba03da8c8665"
  },
  {
    "id": "0bf35466-1fb5-467e-a811-ad125aaa35aa",
    "name": "Yishui",
    "state_id": "d2d21bdb-ed5a-4064-b49a-ba03da8c8665"
  },
  {
    "id": "7c651545-6931-441e-ac9f-1d1f7713cd28",
    "name": "Yucheng",
    "state_id": "d2d21bdb-ed5a-4064-b49a-ba03da8c8665"
  },
  {
    "id": "a381c89c-09a0-49ff-b221-4f16fd23b96f",
    "name": "Zaozhuang",
    "state_id": "d2d21bdb-ed5a-4064-b49a-ba03da8c8665"
  },
  {
    "id": "4fb8dfe4-f1d1-4528-a815-f8f16525d252",
    "name": "Zhaoyuan",
    "state_id": "d2d21bdb-ed5a-4064-b49a-ba03da8c8665"
  },
  {
    "id": "ea5a414b-2230-4bdd-a4ba-0f6db5eb3f89",
    "name": "Zhoucheng",
    "state_id": "d2d21bdb-ed5a-4064-b49a-ba03da8c8665"
  },
  {
    "id": "ffdc8aa4-075f-4d20-b433-dd43728d5d90",
    "name": "Zhoucun",
    "state_id": "d2d21bdb-ed5a-4064-b49a-ba03da8c8665"
  },
  {
    "id": "0703d219-140f-476a-9f3b-a8e2196b9382",
    "name": "Zhu Cheng City",
    "state_id": "d2d21bdb-ed5a-4064-b49a-ba03da8c8665"
  },
  {
    "id": "ed494d11-7b0e-4dd4-8937-6fd7d1c38cf6",
    "name": "Zhuangyuan",
    "state_id": "d2d21bdb-ed5a-4064-b49a-ba03da8c8665"
  },
  {
    "id": "31682f0a-2cf1-4b0a-beca-da00b6659c95",
    "name": "Zibo",
    "state_id": "d2d21bdb-ed5a-4064-b49a-ba03da8c8665"
  },
  {
    "id": "f6b267d3-1428-4b0d-bec9-bf9ba2a0699a",
    "name": "Zoucheng",
    "state_id": "d2d21bdb-ed5a-4064-b49a-ba03da8c8665"
  }
]