[
  {
    "id": "2e9b2aef-7fe1-4ff9-9960-2c440dcea35d",
    "name": "Acate",
    "state_id": "d2da63f1-456c-4405-8e5f-605b8139460e"
  },
  {
    "id": "98fbf0df-b06c-4b99-a94c-e0ce65b863d1",
    "name": "Aci Bonaccorsi",
    "state_id": "d2da63f1-456c-4405-8e5f-605b8139460e"
  },
  {
    "id": "5de0f413-0d12-493d-991b-3fb626bdd450",
    "name": "Aci Castello",
    "state_id": "d2da63f1-456c-4405-8e5f-605b8139460e"
  },
  {
    "id": "cb40c026-2c16-48c7-b922-b46596bd9b3c",
    "name": "Aci Catena",
    "state_id": "d2da63f1-456c-4405-8e5f-605b8139460e"
  },
  {
    "id": "bcb74870-8f5c-41cf-852d-c29be733d6d8",
    "name": "Aci Sant'Antonio",
    "state_id": "d2da63f1-456c-4405-8e5f-605b8139460e"
  },
  {
    "id": "44739a5a-daa4-4214-9ad7-9dbf9a419f1b",
    "name": "Aci Trezza",
    "state_id": "d2da63f1-456c-4405-8e5f-605b8139460e"
  },
  {
    "id": "21117f14-34c0-4b6d-9a3c-a5cb3bacfe36",
    "name": "Acireale",
    "state_id": "d2da63f1-456c-4405-8e5f-605b8139460e"
  },
  {
    "id": "b476f0c9-6d36-4dde-9498-b9d730c9b9b2",
    "name": "Acitrezza",
    "state_id": "d2da63f1-456c-4405-8e5f-605b8139460e"
  },
  {
    "id": "361dd168-0982-47a4-b84b-947724122726",
    "name": "Acquaviva Platani",
    "state_id": "d2da63f1-456c-4405-8e5f-605b8139460e"
  },
  {
    "id": "7e3d2a9d-e81d-420b-ae7d-7a61b6eb1def",
    "name": "Acquedolci",
    "state_id": "d2da63f1-456c-4405-8e5f-605b8139460e"
  },
  {
    "id": "de2bcbc3-cc4b-4f4a-b795-a30acff7d36e",
    "name": "Adrano",
    "state_id": "d2da63f1-456c-4405-8e5f-605b8139460e"
  },
  {
    "id": "b7d9a14b-0ba8-4d16-a20a-5ccbb8da5923",
    "name": "Agira",
    "state_id": "d2da63f1-456c-4405-8e5f-605b8139460e"
  },
  {
    "id": "eba5c4ea-3969-4365-bf09-f7f7b2717ce4",
    "name": "Agliandroni-Paternella",
    "state_id": "d2da63f1-456c-4405-8e5f-605b8139460e"
  },
  {
    "id": "a4b9fccd-b2e2-4546-a8b5-00a0128c979c",
    "name": "Agrigento",
    "state_id": "d2da63f1-456c-4405-8e5f-605b8139460e"
  },
  {
    "id": "060e8c27-cd57-4ef0-9a38-a012d67f10e0",
    "name": "Aidone",
    "state_id": "d2da63f1-456c-4405-8e5f-605b8139460e"
  },
  {
    "id": "7e2fa6ea-ce4a-4b7a-bd25-aba329151e1e",
    "name": "Alcamo",
    "state_id": "d2da63f1-456c-4405-8e5f-605b8139460e"
  },
  {
    "id": "da9331a3-bf59-4cae-bdf0-46e54eaba13c",
    "name": "Alcara Li Fusi",
    "state_id": "d2da63f1-456c-4405-8e5f-605b8139460e"
  },
  {
    "id": "bf068f4b-2ff8-49e1-9085-94f1312fb017",
    "name": "Alessandria della Rocca",
    "state_id": "d2da63f1-456c-4405-8e5f-605b8139460e"
  },
  {
    "id": "52357897-953a-4d44-844c-2fe0bda5aceb",
    "name": "Alì",
    "state_id": "d2da63f1-456c-4405-8e5f-605b8139460e"
  },
  {
    "id": "57aae0d8-8a47-4f6d-80d5-f0f2ddfdee74",
    "name": "Alì Terme",
    "state_id": "d2da63f1-456c-4405-8e5f-605b8139460e"
  },
  {
    "id": "fe808975-73e2-46eb-8bf1-1c47d1552289",
    "name": "Alia",
    "state_id": "d2da63f1-456c-4405-8e5f-605b8139460e"
  },
  {
    "id": "eee72121-704b-418b-a490-9127c4c45a53",
    "name": "Alimena",
    "state_id": "d2da63f1-456c-4405-8e5f-605b8139460e"
  },
  {
    "id": "296edce3-03ed-4bbf-b370-39be87b3f1e5",
    "name": "Aliminusa",
    "state_id": "d2da63f1-456c-4405-8e5f-605b8139460e"
  },
  {
    "id": "cda0415e-2327-4905-872a-c9f210c8d7f4",
    "name": "Altavilla Milicia",
    "state_id": "d2da63f1-456c-4405-8e5f-605b8139460e"
  },
  {
    "id": "dbe15776-4dbc-495e-be46-cb363ed657e4",
    "name": "Altofonte",
    "state_id": "d2da63f1-456c-4405-8e5f-605b8139460e"
  },
  {
    "id": "1f2a4d30-87ea-4127-9e22-8912b727844e",
    "name": "Antillo",
    "state_id": "d2da63f1-456c-4405-8e5f-605b8139460e"
  },
  {
    "id": "ecc11e1c-336b-4b1f-a72b-61a51f143429",
    "name": "Aragona",
    "state_id": "d2da63f1-456c-4405-8e5f-605b8139460e"
  },
  {
    "id": "fc471eec-d305-40c1-be7a-8f299ade7989",
    "name": "Assoro",
    "state_id": "d2da63f1-456c-4405-8e5f-605b8139460e"
  },
  {
    "id": "bf13f824-427d-4df5-8096-c90f664c3696",
    "name": "Augusta",
    "state_id": "d2da63f1-456c-4405-8e5f-605b8139460e"
  },
  {
    "id": "3703dd7d-4ab3-45de-813f-b95768cac3b6",
    "name": "Avola",
    "state_id": "d2da63f1-456c-4405-8e5f-605b8139460e"
  },
  {
    "id": "36e512ab-8bb7-40cf-b300-3cc3bcc23856",
    "name": "Bagheria",
    "state_id": "d2da63f1-456c-4405-8e5f-605b8139460e"
  },
  {
    "id": "c920b41e-c51c-4b94-b08b-26ac4e0611e1",
    "name": "Balestrate",
    "state_id": "d2da63f1-456c-4405-8e5f-605b8139460e"
  },
  {
    "id": "adcea109-c741-45bd-aa85-d8e3e5f106be",
    "name": "Barcellona Pozzo di Gotto",
    "state_id": "d2da63f1-456c-4405-8e5f-605b8139460e"
  },
  {
    "id": "846c0029-d52e-4ed6-8a26-0ad977d0251b",
    "name": "Barrafranca",
    "state_id": "d2da63f1-456c-4405-8e5f-605b8139460e"
  },
  {
    "id": "92a8abc8-54ad-4aeb-9b8d-ac925324b8d9",
    "name": "Basicò",
    "state_id": "d2da63f1-456c-4405-8e5f-605b8139460e"
  },
  {
    "id": "77c527e4-895c-4952-915a-2f2661277cdd",
    "name": "Baucina",
    "state_id": "d2da63f1-456c-4405-8e5f-605b8139460e"
  },
  {
    "id": "f74d4d5a-3c7e-4ff3-978c-5d74e306a308",
    "name": "Belmonte Mezzagno",
    "state_id": "d2da63f1-456c-4405-8e5f-605b8139460e"
  },
  {
    "id": "889a9cb0-0c71-4b20-be35-cae6cc0a62d8",
    "name": "Belpasso",
    "state_id": "d2da63f1-456c-4405-8e5f-605b8139460e"
  },
  {
    "id": "4066455d-5bd7-4b2f-a70d-c18309da1fd2",
    "name": "Belvedere",
    "state_id": "d2da63f1-456c-4405-8e5f-605b8139460e"
  },
  {
    "id": "8f78d375-dab7-491e-9534-7d45a4859dab",
    "name": "Belvedere-Piano Tavola",
    "state_id": "d2da63f1-456c-4405-8e5f-605b8139460e"
  },
  {
    "id": "e1e3dab2-b249-452b-b3eb-19a430ce9a41",
    "name": "Biancavilla",
    "state_id": "d2da63f1-456c-4405-8e5f-605b8139460e"
  },
  {
    "id": "4c3838d6-41e1-4154-a6bd-627637bb7bde",
    "name": "Bisacquino",
    "state_id": "d2da63f1-456c-4405-8e5f-605b8139460e"
  },
  {
    "id": "d054af1b-4d55-4464-b8ab-1e169847273d",
    "name": "Bivona",
    "state_id": "d2da63f1-456c-4405-8e5f-605b8139460e"
  },
  {
    "id": "619fa7b7-30cf-43de-bfe8-e3a39111373b",
    "name": "Blufi",
    "state_id": "d2da63f1-456c-4405-8e5f-605b8139460e"
  },
  {
    "id": "1497eb7c-a95f-4c31-ae54-1df6131e542a",
    "name": "Bolognetta",
    "state_id": "d2da63f1-456c-4405-8e5f-605b8139460e"
  },
  {
    "id": "6ec5eec5-6061-46d7-89e3-2f938ce179e2",
    "name": "Bompensiere",
    "state_id": "d2da63f1-456c-4405-8e5f-605b8139460e"
  },
  {
    "id": "1612bc7e-8b83-4baa-a107-84f4fde20f64",
    "name": "Bompietro",
    "state_id": "d2da63f1-456c-4405-8e5f-605b8139460e"
  },
  {
    "id": "df50cca9-5c19-40b9-aa81-c32f3aed022c",
    "name": "Borgetto",
    "state_id": "d2da63f1-456c-4405-8e5f-605b8139460e"
  },
  {
    "id": "e245b226-65b8-4ab1-ba9e-1f0608722223",
    "name": "Brolo",
    "state_id": "d2da63f1-456c-4405-8e5f-605b8139460e"
  },
  {
    "id": "6ac0cf24-f158-4d9c-aa77-bebdc5c68d32",
    "name": "Bronte",
    "state_id": "d2da63f1-456c-4405-8e5f-605b8139460e"
  },
  {
    "id": "3604528b-7ec7-41f0-aab9-5bb840546876",
    "name": "Brucoli",
    "state_id": "d2da63f1-456c-4405-8e5f-605b8139460e"
  },
  {
    "id": "18d1c167-5998-4c29-9814-d46abfbbb2f8",
    "name": "Buccheri",
    "state_id": "d2da63f1-456c-4405-8e5f-605b8139460e"
  },
  {
    "id": "01095f2e-1621-41f1-b2b6-e5a40f83408f",
    "name": "Burgio",
    "state_id": "d2da63f1-456c-4405-8e5f-605b8139460e"
  },
  {
    "id": "bd9a57ca-23d9-425d-bd85-a39f4593fb2c",
    "name": "Buscemi",
    "state_id": "d2da63f1-456c-4405-8e5f-605b8139460e"
  },
  {
    "id": "235d42cd-93a1-4923-a427-72dc8394576e",
    "name": "Buseto Palizzolo",
    "state_id": "d2da63f1-456c-4405-8e5f-605b8139460e"
  },
  {
    "id": "f4cc1169-fe26-4c3c-ad60-3aa570374407",
    "name": "Butera",
    "state_id": "d2da63f1-456c-4405-8e5f-605b8139460e"
  },
  {
    "id": "b687e9f0-212f-4012-8058-7dce1b480299",
    "name": "Caccamo",
    "state_id": "d2da63f1-456c-4405-8e5f-605b8139460e"
  },
  {
    "id": "55174e98-531c-4b20-9186-bc9ac2bded69",
    "name": "Calamonaci",
    "state_id": "d2da63f1-456c-4405-8e5f-605b8139460e"
  },
  {
    "id": "0beabe99-a79c-4986-bdae-64b3894a677f",
    "name": "Calascibetta",
    "state_id": "d2da63f1-456c-4405-8e5f-605b8139460e"
  },
  {
    "id": "091b2555-f1cd-4220-9d02-667dcbe6dd41",
    "name": "Calatabiano",
    "state_id": "d2da63f1-456c-4405-8e5f-605b8139460e"
  },
  {
    "id": "eb207e1f-48fe-43b6-961d-0495a55a8952",
    "name": "Calatafimi",
    "state_id": "d2da63f1-456c-4405-8e5f-605b8139460e"
  },
  {
    "id": "9b7a5443-0132-43ce-b237-693745746832",
    "name": "Caltabellotta",
    "state_id": "d2da63f1-456c-4405-8e5f-605b8139460e"
  },
  {
    "id": "e2f136cd-c91c-4901-b42a-98a4d3e0ebfe",
    "name": "Caltagirone",
    "state_id": "d2da63f1-456c-4405-8e5f-605b8139460e"
  },
  {
    "id": "fe18d8e9-add4-452e-94a3-63d0bc509fbb",
    "name": "Caltanissetta",
    "state_id": "d2da63f1-456c-4405-8e5f-605b8139460e"
  },
  {
    "id": "6b90dd24-c734-43b5-acfb-652082c5f52d",
    "name": "Caltavuturo",
    "state_id": "d2da63f1-456c-4405-8e5f-605b8139460e"
  },
  {
    "id": "34c38448-443c-4876-9950-36362bb498c0",
    "name": "Camastra",
    "state_id": "d2da63f1-456c-4405-8e5f-605b8139460e"
  },
  {
    "id": "1b90ca1d-9478-4e48-88bd-347683a38a68",
    "name": "Cammarata",
    "state_id": "d2da63f1-456c-4405-8e5f-605b8139460e"
  },
  {
    "id": "47cbbaf0-c94c-4895-ad9b-9df86c165fca",
    "name": "Campanella-Gianforma",
    "state_id": "d2da63f1-456c-4405-8e5f-605b8139460e"
  },
  {
    "id": "fa3c3ae5-a77b-4733-8397-4ecdf39cb4c3",
    "name": "Campobello di Licata",
    "state_id": "d2da63f1-456c-4405-8e5f-605b8139460e"
  },
  {
    "id": "d18cb01a-e9d5-4acd-9734-c6675c69a406",
    "name": "Campobello di Mazara",
    "state_id": "d2da63f1-456c-4405-8e5f-605b8139460e"
  },
  {
    "id": "b724ef95-7341-48c8-8aa9-236497a84360",
    "name": "Campofelice di Fitalia",
    "state_id": "d2da63f1-456c-4405-8e5f-605b8139460e"
  },
  {
    "id": "8315ae7a-1222-439c-8bf5-2903191f3736",
    "name": "Campofelice di Roccella",
    "state_id": "d2da63f1-456c-4405-8e5f-605b8139460e"
  },
  {
    "id": "725a45de-395b-45a9-8467-081fe0df253a",
    "name": "Campofiorito",
    "state_id": "d2da63f1-456c-4405-8e5f-605b8139460e"
  },
  {
    "id": "07de3451-6645-4f33-a9fc-15caf32620c1",
    "name": "Campofranco",
    "state_id": "d2da63f1-456c-4405-8e5f-605b8139460e"
  },
  {
    "id": "31c4546a-0292-41cb-aa75-6288a241c91c",
    "name": "Camporeale",
    "state_id": "d2da63f1-456c-4405-8e5f-605b8139460e"
  },
  {
    "id": "e84a86a9-7df6-4120-aa0c-7573ae713998",
    "name": "Camporotondo Etneo",
    "state_id": "d2da63f1-456c-4405-8e5f-605b8139460e"
  },
  {
    "id": "637f38ea-6f1f-4ae9-91ba-2fa86f885c25",
    "name": "Canalicchio",
    "state_id": "d2da63f1-456c-4405-8e5f-605b8139460e"
  },
  {
    "id": "d31dae1d-a6ea-4786-8154-11ba2853ed97",
    "name": "Canicattì",
    "state_id": "d2da63f1-456c-4405-8e5f-605b8139460e"
  },
  {
    "id": "947b1563-c15c-42b7-8890-94957d0b56c1",
    "name": "Canicattini Bagni",
    "state_id": "d2da63f1-456c-4405-8e5f-605b8139460e"
  },
  {
    "id": "5ec7a57e-58c7-47b8-a86e-130feb28b4dd",
    "name": "Canneto",
    "state_id": "d2da63f1-456c-4405-8e5f-605b8139460e"
  },
  {
    "id": "92fa1ff0-8372-4fa9-a662-b597105013ae",
    "name": "Cannizzaro-Favara",
    "state_id": "d2da63f1-456c-4405-8e5f-605b8139460e"
  },
  {
    "id": "3b8eb29d-ce83-44cf-9497-ec305cfeaa06",
    "name": "Capaci",
    "state_id": "d2da63f1-456c-4405-8e5f-605b8139460e"
  },
  {
    "id": "c51b274a-efea-4c37-a7f4-390b72777bf5",
    "name": "Capizzi",
    "state_id": "d2da63f1-456c-4405-8e5f-605b8139460e"
  },
  {
    "id": "cfec1703-40a5-4b63-b22c-5ac42f85a0b9",
    "name": "Capo d'Orlando",
    "state_id": "d2da63f1-456c-4405-8e5f-605b8139460e"
  },
  {
    "id": "79d02408-95e7-4d8c-9969-f6f8bdbf1941",
    "name": "Capri Leone",
    "state_id": "d2da63f1-456c-4405-8e5f-605b8139460e"
  },
  {
    "id": "8e26cafd-24be-4bf6-b5bf-5bb6259c6c87",
    "name": "Carini",
    "state_id": "d2da63f1-456c-4405-8e5f-605b8139460e"
  },
  {
    "id": "6ed600cd-90ff-4d33-a712-9f0c808a219d",
    "name": "Carlentini",
    "state_id": "d2da63f1-456c-4405-8e5f-605b8139460e"
  },
  {
    "id": "762f9daf-4e52-4243-8b09-22a94d61d09c",
    "name": "Caronia",
    "state_id": "d2da63f1-456c-4405-8e5f-605b8139460e"
  },
  {
    "id": "9d8cdb79-5fb0-4c30-8ca1-6728b7a0b170",
    "name": "Carrozziere",
    "state_id": "d2da63f1-456c-4405-8e5f-605b8139460e"
  },
  {
    "id": "3e1e1c18-142f-474f-b758-06e1c8458613",
    "name": "Carruba",
    "state_id": "d2da63f1-456c-4405-8e5f-605b8139460e"
  },
  {
    "id": "1ca2418c-8ba4-4c33-aa4f-329de9a927b9",
    "name": "Carrubazza-Motta",
    "state_id": "d2da63f1-456c-4405-8e5f-605b8139460e"
  },
  {
    "id": "0b9b7f0d-6ca5-4aec-bdd8-f71afbae018e",
    "name": "Casa Santa",
    "state_id": "d2da63f1-456c-4405-8e5f-605b8139460e"
  },
  {
    "id": "11cb1de4-6774-42cc-bde9-603ab5ac7392",
    "name": "Casalvecchio Siculo",
    "state_id": "d2da63f1-456c-4405-8e5f-605b8139460e"
  },
  {
    "id": "00d5958c-40d3-4839-b914-4e086d510e14",
    "name": "Cassaro",
    "state_id": "d2da63f1-456c-4405-8e5f-605b8139460e"
  },
  {
    "id": "a4ff8aa6-0a30-4aea-b8e8-1d278f661e63",
    "name": "Cassibile",
    "state_id": "d2da63f1-456c-4405-8e5f-605b8139460e"
  },
  {
    "id": "81ac05ce-ae93-43af-bcb0-f21a1285a043",
    "name": "Castanea delle Furie",
    "state_id": "d2da63f1-456c-4405-8e5f-605b8139460e"
  },
  {
    "id": "4f5fa284-55f6-41b6-926e-556dc8121f53",
    "name": "Castel di Judica",
    "state_id": "d2da63f1-456c-4405-8e5f-605b8139460e"
  },
  {
    "id": "3c387b71-db6a-4200-8c47-33c3e564a5d6",
    "name": "Castel di Lucio",
    "state_id": "d2da63f1-456c-4405-8e5f-605b8139460e"
  },
  {
    "id": "02590b0f-4b3e-4708-ae6d-479e1c499f9f",
    "name": "Castelbuono",
    "state_id": "d2da63f1-456c-4405-8e5f-605b8139460e"
  },
  {
    "id": "f422dc8c-9bfb-429e-9a6c-53a43491b4c9",
    "name": "Casteldaccia",
    "state_id": "d2da63f1-456c-4405-8e5f-605b8139460e"
  },
  {
    "id": "e4cbc8bb-63de-49c1-81be-db909c8e2046",
    "name": "Castell'Umberto",
    "state_id": "d2da63f1-456c-4405-8e5f-605b8139460e"
  },
  {
    "id": "69c98137-5a79-466e-a924-17a6ebe12524",
    "name": "Castellammare del Golfo",
    "state_id": "d2da63f1-456c-4405-8e5f-605b8139460e"
  },
  {
    "id": "09e949e5-b683-4d8c-90f2-3a1a955ddc07",
    "name": "Castellana Sicula",
    "state_id": "d2da63f1-456c-4405-8e5f-605b8139460e"
  },
  {
    "id": "c9c55fce-514d-42da-b053-eabd9497beb0",
    "name": "Castelluzzo",
    "state_id": "d2da63f1-456c-4405-8e5f-605b8139460e"
  },
  {
    "id": "5eeddca9-08a9-43cc-b3c2-f65028114431",
    "name": "Castelmola",
    "state_id": "d2da63f1-456c-4405-8e5f-605b8139460e"
  },
  {
    "id": "4a81d515-0fa1-497e-ba98-8245de1a6dda",
    "name": "Casteltermini",
    "state_id": "d2da63f1-456c-4405-8e5f-605b8139460e"
  },
  {
    "id": "ae57fd0b-0a01-4f62-93d6-001f4d71fa1f",
    "name": "Castelvetrano",
    "state_id": "d2da63f1-456c-4405-8e5f-605b8139460e"
  },
  {
    "id": "b8d10952-24dd-4010-be67-5a90903f16a6",
    "name": "Castiglione di Sicilia",
    "state_id": "d2da63f1-456c-4405-8e5f-605b8139460e"
  },
  {
    "id": "191caddc-5b84-4c96-8f0f-fe331df0a4de",
    "name": "Castrofilippo",
    "state_id": "d2da63f1-456c-4405-8e5f-605b8139460e"
  },
  {
    "id": "7ed6da44-4ed7-4288-9c26-c62f79f0640c",
    "name": "Castronuovo di Sicilia",
    "state_id": "d2da63f1-456c-4405-8e5f-605b8139460e"
  },
  {
    "id": "1f0e2be0-8c37-4cad-adb2-0d60123469f8",
    "name": "Castroreale",
    "state_id": "d2da63f1-456c-4405-8e5f-605b8139460e"
  },
  {
    "id": "73d8ca05-013b-44bc-9cc5-c350107c5183",
    "name": "Catania",
    "state_id": "d2da63f1-456c-4405-8e5f-605b8139460e"
  },
  {
    "id": "795f2e91-83ae-4cbc-9e0f-13dbb72e763e",
    "name": "Catenanuova",
    "state_id": "d2da63f1-456c-4405-8e5f-605b8139460e"
  },
  {
    "id": "fbe4ab18-8053-4e7e-95e9-b47e49dc184d",
    "name": "Cattolica Eraclea",
    "state_id": "d2da63f1-456c-4405-8e5f-605b8139460e"
  },
  {
    "id": "d104ae04-d9d5-4b21-bd87-abe17a8ca99a",
    "name": "Cava d'Aliga",
    "state_id": "d2da63f1-456c-4405-8e5f-605b8139460e"
  },
  {
    "id": "1f9cc827-d961-4847-9a81-4af178dc086b",
    "name": "Cefalà Diana",
    "state_id": "d2da63f1-456c-4405-8e5f-605b8139460e"
  },
  {
    "id": "94ec5ae3-efef-4005-a490-b18dba3ff4ba",
    "name": "Cefalù",
    "state_id": "d2da63f1-456c-4405-8e5f-605b8139460e"
  },
  {
    "id": "42129de9-20ba-45ef-8a2e-381935aded3f",
    "name": "Centuripe",
    "state_id": "d2da63f1-456c-4405-8e5f-605b8139460e"
  },
  {
    "id": "e6883d21-4a51-441c-b769-360b5609be11",
    "name": "Cerami",
    "state_id": "d2da63f1-456c-4405-8e5f-605b8139460e"
  },
  {
    "id": "b654518e-263e-434e-9d1f-bf1db741b7a3",
    "name": "Cerda",
    "state_id": "d2da63f1-456c-4405-8e5f-605b8139460e"
  },
  {
    "id": "6711aa71-ecda-4b38-9e31-a6e116c43d22",
    "name": "Cerza",
    "state_id": "d2da63f1-456c-4405-8e5f-605b8139460e"
  },
  {
    "id": "86e2437c-9715-4707-8ef7-3706110ebb68",
    "name": "Cesarò",
    "state_id": "d2da63f1-456c-4405-8e5f-605b8139460e"
  },
  {
    "id": "fbb4652d-2361-4377-911b-38388232304f",
    "name": "Chianchitta-Pallio",
    "state_id": "d2da63f1-456c-4405-8e5f-605b8139460e"
  },
  {
    "id": "92603474-c2b7-4ca2-a9b1-4ee13f16db7d",
    "name": "Chianchitta-Trappitello",
    "state_id": "d2da63f1-456c-4405-8e5f-605b8139460e"
  },
  {
    "id": "a8afb486-5a87-4423-a741-95946afb572a",
    "name": "Chiaramonte Gulfi",
    "state_id": "d2da63f1-456c-4405-8e5f-605b8139460e"
  },
  {
    "id": "1c059195-ece2-4cde-9a67-83d8c9b30b3b",
    "name": "Chiusa Sclafani",
    "state_id": "d2da63f1-456c-4405-8e5f-605b8139460e"
  },
  {
    "id": "f215739c-70a8-42f6-a99b-9a87b5065d06",
    "name": "Ciaculli",
    "state_id": "d2da63f1-456c-4405-8e5f-605b8139460e"
  },
  {
    "id": "46f33389-bfae-418a-a9c3-cffb02d57ba5",
    "name": "Cianciana",
    "state_id": "d2da63f1-456c-4405-8e5f-605b8139460e"
  },
  {
    "id": "3fac5d90-d008-4967-891f-46109b790557",
    "name": "Ciavolo",
    "state_id": "d2da63f1-456c-4405-8e5f-605b8139460e"
  },
  {
    "id": "4a36cf94-44d1-47f8-b0c5-b703185d8b64",
    "name": "Ciminna",
    "state_id": "d2da63f1-456c-4405-8e5f-605b8139460e"
  },
  {
    "id": "38d8495f-073c-49eb-ac0f-e2744e4ed63e",
    "name": "Cinisi",
    "state_id": "d2da63f1-456c-4405-8e5f-605b8139460e"
  },
  {
    "id": "03802f63-3ac8-4582-b1b9-72dc6998aeea",
    "name": "Città Giardino",
    "state_id": "d2da63f1-456c-4405-8e5f-605b8139460e"
  },
  {
    "id": "399fea6f-6c03-462c-936b-88077b788149",
    "name": "Collesano",
    "state_id": "d2da63f1-456c-4405-8e5f-605b8139460e"
  },
  {
    "id": "43a1079f-9f3c-4ba5-b660-229f6a94d36f",
    "name": "Comiso",
    "state_id": "d2da63f1-456c-4405-8e5f-605b8139460e"
  },
  {
    "id": "8cca69dd-dadf-4657-b720-2547387bbee4",
    "name": "Comitini",
    "state_id": "d2da63f1-456c-4405-8e5f-605b8139460e"
  },
  {
    "id": "614f1d6f-1790-4b1b-9e69-b63a6bf1cd9f",
    "name": "Condrò",
    "state_id": "d2da63f1-456c-4405-8e5f-605b8139460e"
  },
  {
    "id": "078ad22b-ae78-4eda-8439-a3394cad5c16",
    "name": "Contessa Entellina",
    "state_id": "d2da63f1-456c-4405-8e5f-605b8139460e"
  },
  {
    "id": "be056826-6c44-4544-9753-86c9ec81c780",
    "name": "Corleone",
    "state_id": "d2da63f1-456c-4405-8e5f-605b8139460e"
  },
  {
    "id": "5b288189-47e7-43ca-af3e-3b6c5f431067",
    "name": "Custonaci",
    "state_id": "d2da63f1-456c-4405-8e5f-605b8139460e"
  },
  {
    "id": "d813b38d-91f6-4eac-a8e7-d9bfa496aa8d",
    "name": "Delia",
    "state_id": "d2da63f1-456c-4405-8e5f-605b8139460e"
  },
  {
    "id": "639aae45-205b-4fac-bb95-7923d9c0375b",
    "name": "Donnalucata",
    "state_id": "d2da63f1-456c-4405-8e5f-605b8139460e"
  },
  {
    "id": "56e2509c-5c88-4756-9b9c-dd7a671ee0cc",
    "name": "Enna",
    "state_id": "d2da63f1-456c-4405-8e5f-605b8139460e"
  },
  {
    "id": "edd331e2-ad5c-419a-bef5-ad6739aa6183",
    "name": "Erice",
    "state_id": "d2da63f1-456c-4405-8e5f-605b8139460e"
  },
  {
    "id": "200bc422-416a-4d6f-b577-43d7c36191a7",
    "name": "Evangelisti-Rubino",
    "state_id": "d2da63f1-456c-4405-8e5f-605b8139460e"
  },
  {
    "id": "64a27d25-01b0-4966-afe7-a181e6241ed5",
    "name": "Falcone",
    "state_id": "d2da63f1-456c-4405-8e5f-605b8139460e"
  },
  {
    "id": "219828cc-7f7e-4dd3-8795-62d8951a51bf",
    "name": "Faro Superiore",
    "state_id": "d2da63f1-456c-4405-8e5f-605b8139460e"
  },
  {
    "id": "2480ea74-ff05-480d-8d4b-5de25696c238",
    "name": "Favara",
    "state_id": "d2da63f1-456c-4405-8e5f-605b8139460e"
  },
  {
    "id": "2b798596-b955-487f-a92d-3798081bd548",
    "name": "Favignana",
    "state_id": "d2da63f1-456c-4405-8e5f-605b8139460e"
  },
  {
    "id": "a01ae22a-491e-4a5f-b316-30a659ec743c",
    "name": "Ferla",
    "state_id": "d2da63f1-456c-4405-8e5f-605b8139460e"
  },
  {
    "id": "afda3257-b4f2-46e6-83ae-3542c7b4c178",
    "name": "Ficarazzi",
    "state_id": "d2da63f1-456c-4405-8e5f-605b8139460e"
  },
  {
    "id": "dc5adb10-f27f-45b1-b1ad-7c7c2edfee53",
    "name": "Ficarra",
    "state_id": "d2da63f1-456c-4405-8e5f-605b8139460e"
  },
  {
    "id": "fff0f943-7676-40e5-b7c5-9ceb6cbfe909",
    "name": "Finale",
    "state_id": "d2da63f1-456c-4405-8e5f-605b8139460e"
  },
  {
    "id": "ea4c4a17-06dc-4d6c-a32a-fc814d2659d1",
    "name": "Fiumedinisi",
    "state_id": "d2da63f1-456c-4405-8e5f-605b8139460e"
  },
  {
    "id": "89fa69d4-2888-4772-a315-b586cb5306a6",
    "name": "Fiumefreddo Sicilia",
    "state_id": "d2da63f1-456c-4405-8e5f-605b8139460e"
  },
  {
    "id": "c798f38c-8374-429d-b3de-e08d53868a33",
    "name": "Floresta",
    "state_id": "d2da63f1-456c-4405-8e5f-605b8139460e"
  },
  {
    "id": "953c13ac-cf20-4894-ae2e-96b47f86f667",
    "name": "Floridia",
    "state_id": "d2da63f1-456c-4405-8e5f-605b8139460e"
  },
  {
    "id": "3a10784f-a726-4ae7-a971-20ce7a14c202",
    "name": "Fondachelli-Fantina",
    "state_id": "d2da63f1-456c-4405-8e5f-605b8139460e"
  },
  {
    "id": "8076e7b3-8303-4f7c-adee-07b61aa323fc",
    "name": "Forza d'Agrò",
    "state_id": "d2da63f1-456c-4405-8e5f-605b8139460e"
  },
  {
    "id": "3df193de-daa5-47c9-ba30-f28e310d9a24",
    "name": "Francavilla di Sicilia",
    "state_id": "d2da63f1-456c-4405-8e5f-605b8139460e"
  },
  {
    "id": "00868861-dff3-42ac-9097-aacc2c982730",
    "name": "Francofonte",
    "state_id": "d2da63f1-456c-4405-8e5f-605b8139460e"
  },
  {
    "id": "cfda8c13-aadc-4141-9353-ac544d9a1a17",
    "name": "Frazzanò",
    "state_id": "d2da63f1-456c-4405-8e5f-605b8139460e"
  },
  {
    "id": "027e9513-88cd-45d3-a51c-5006254d3db8",
    "name": "Fulgatore-Torretta",
    "state_id": "d2da63f1-456c-4405-8e5f-605b8139460e"
  },
  {
    "id": "19729bbd-9cc2-467d-9f82-f073e81c4769",
    "name": "Furci Siculo",
    "state_id": "d2da63f1-456c-4405-8e5f-605b8139460e"
  },
  {
    "id": "5f26b977-85ed-49ee-a2ad-dcb713af89c3",
    "name": "Furnari",
    "state_id": "d2da63f1-456c-4405-8e5f-605b8139460e"
  },
  {
    "id": "1f6f5540-222a-43c6-bc5b-d57aea0296ac",
    "name": "Gaggi",
    "state_id": "d2da63f1-456c-4405-8e5f-605b8139460e"
  },
  {
    "id": "4aa66c7c-7e21-4a61-83d1-4bcb1deb66e6",
    "name": "Gagliano Castelferrato",
    "state_id": "d2da63f1-456c-4405-8e5f-605b8139460e"
  },
  {
    "id": "f36f9a8f-33ef-4492-85bb-7f37704523b1",
    "name": "Galati Mamertino",
    "state_id": "d2da63f1-456c-4405-8e5f-605b8139460e"
  },
  {
    "id": "ab7628b2-ff0f-4c4b-8a40-4adc3ea9ef36",
    "name": "Gallodoro",
    "state_id": "d2da63f1-456c-4405-8e5f-605b8139460e"
  },
  {
    "id": "e98e6540-422f-4fb9-bd6b-f612c9a7973a",
    "name": "Gangi",
    "state_id": "d2da63f1-456c-4405-8e5f-605b8139460e"
  },
  {
    "id": "ab2bb04b-aa84-4a0c-a8bf-5ebf241db200",
    "name": "Gela",
    "state_id": "d2da63f1-456c-4405-8e5f-605b8139460e"
  },
  {
    "id": "6005b864-5c08-4acf-a6ac-bbdcd42557ba",
    "name": "Geraci Siculo",
    "state_id": "d2da63f1-456c-4405-8e5f-605b8139460e"
  },
  {
    "id": "10253baf-2681-4345-8463-e8e6af5a6a21",
    "name": "Giacalone",
    "state_id": "d2da63f1-456c-4405-8e5f-605b8139460e"
  },
  {
    "id": "a6383eff-b7ab-4bcc-b1ad-12053e363162",
    "name": "Giammoro",
    "state_id": "d2da63f1-456c-4405-8e5f-605b8139460e"
  },
  {
    "id": "61cd10ce-411b-492e-8166-852e7cb54b15",
    "name": "Giardina Gallotti",
    "state_id": "d2da63f1-456c-4405-8e5f-605b8139460e"
  },
  {
    "id": "c282e4c2-9301-4f86-9293-2c99c6102a6b",
    "name": "Giardinello",
    "state_id": "d2da63f1-456c-4405-8e5f-605b8139460e"
  },
  {
    "id": "29f0da73-c43c-4d02-85b5-9b737085fb16",
    "name": "Giardini-Naxos",
    "state_id": "d2da63f1-456c-4405-8e5f-605b8139460e"
  },
  {
    "id": "0fd560f2-d02e-4d25-8e37-f5e8d1438a7d",
    "name": "Giarratana",
    "state_id": "d2da63f1-456c-4405-8e5f-605b8139460e"
  },
  {
    "id": "c7699ca6-31f6-4e22-b409-a2ec0db70d1f",
    "name": "Giarre",
    "state_id": "d2da63f1-456c-4405-8e5f-605b8139460e"
  },
  {
    "id": "5ba4a81f-c30d-437a-916e-6229d5bf855f",
    "name": "Gioiosa Marea",
    "state_id": "d2da63f1-456c-4405-8e5f-605b8139460e"
  },
  {
    "id": "52d324a3-6871-4f2a-824e-22c385ca44c2",
    "name": "Giuliana",
    "state_id": "d2da63f1-456c-4405-8e5f-605b8139460e"
  },
  {
    "id": "d4472030-4b5d-48d8-b1a0-a18b7d09fe43",
    "name": "Gliaca",
    "state_id": "d2da63f1-456c-4405-8e5f-605b8139460e"
  },
  {
    "id": "aff3e8f4-4b1d-475d-b9c8-848724ca08f4",
    "name": "Godrano",
    "state_id": "d2da63f1-456c-4405-8e5f-605b8139460e"
  },
  {
    "id": "ecd3d95f-ba5b-4f94-a7e1-a647cebfec78",
    "name": "Grammichele",
    "state_id": "d2da63f1-456c-4405-8e5f-605b8139460e"
  },
  {
    "id": "1d93a2cd-f678-4076-b973-d229f8e16978",
    "name": "Graniti",
    "state_id": "d2da63f1-456c-4405-8e5f-605b8139460e"
  },
  {
    "id": "f0c4fafa-2904-45b8-a852-6ef55505f90a",
    "name": "Gratteri",
    "state_id": "d2da63f1-456c-4405-8e5f-605b8139460e"
  },
  {
    "id": "255d6af5-f4a3-48fa-8e48-c2d8c74ea2bb",
    "name": "Gravina di Catania",
    "state_id": "d2da63f1-456c-4405-8e5f-605b8139460e"
  },
  {
    "id": "7a4cdf40-6d69-4f71-9586-19ec82b79a44",
    "name": "Grotte",
    "state_id": "d2da63f1-456c-4405-8e5f-605b8139460e"
  },
  {
    "id": "1f0701b5-8663-4412-96a5-5b32cff09403",
    "name": "Gualtieri Sicaminò",
    "state_id": "d2da63f1-456c-4405-8e5f-605b8139460e"
  },
  {
    "id": "aa8945b0-bf9e-42b1-bcd0-ad3417aceb57",
    "name": "Guidomandri Marina",
    "state_id": "d2da63f1-456c-4405-8e5f-605b8139460e"
  },
  {
    "id": "79003ea5-e622-43fc-845e-8fff9980eecb",
    "name": "Isnello",
    "state_id": "d2da63f1-456c-4405-8e5f-605b8139460e"
  },
  {
    "id": "f3328a72-6ad3-4b3c-a26e-6a4d4275a520",
    "name": "Isola delle Femmine",
    "state_id": "d2da63f1-456c-4405-8e5f-605b8139460e"
  },
  {
    "id": "16355e0d-1c88-4013-a128-5fc07e793f57",
    "name": "Ispica",
    "state_id": "d2da63f1-456c-4405-8e5f-605b8139460e"
  },
  {
    "id": "6977a016-70e5-47e1-8801-cef8c91636a4",
    "name": "Itala",
    "state_id": "d2da63f1-456c-4405-8e5f-605b8139460e"
  },
  {
    "id": "24c17463-a708-479b-8046-7fad0fcc45e3",
    "name": "Joppolo Giancaxio",
    "state_id": "d2da63f1-456c-4405-8e5f-605b8139460e"
  },
  {
    "id": "7f5951e9-2067-4bd9-8832-fea72cb8febd",
    "name": "Kamma",
    "state_id": "d2da63f1-456c-4405-8e5f-605b8139460e"
  },
  {
    "id": "c4bfe276-02c3-472d-a48d-85de2d61c660",
    "name": "Lampedusa",
    "state_id": "d2da63f1-456c-4405-8e5f-605b8139460e"
  },
  {
    "id": "3884e7ef-62a5-4265-89ff-5700dc3d5c55",
    "name": "Larderia",
    "state_id": "d2da63f1-456c-4405-8e5f-605b8139460e"
  },
  {
    "id": "94b6c2c6-ca0c-47f4-b298-2b1a2b141d4a",
    "name": "Lascari",
    "state_id": "d2da63f1-456c-4405-8e5f-605b8139460e"
  },
  {
    "id": "1be2d59f-e296-4f43-99e7-4b6a235fd645",
    "name": "Lavinaio-Monterosso",
    "state_id": "d2da63f1-456c-4405-8e5f-605b8139460e"
  },
  {
    "id": "28678062-ed6c-4a29-a321-415ff3a9f640",
    "name": "Leni",
    "state_id": "d2da63f1-456c-4405-8e5f-605b8139460e"
  },
  {
    "id": "358e7075-d2cf-41ab-9348-268def05833a",
    "name": "Lentini",
    "state_id": "d2da63f1-456c-4405-8e5f-605b8139460e"
  },
  {
    "id": "466a9a0e-a2d2-40c1-a3f7-7395c46220e3",
    "name": "Leonforte",
    "state_id": "d2da63f1-456c-4405-8e5f-605b8139460e"
  },
  {
    "id": "ecf8c27b-ccd4-4060-99c4-25333a2b4260",
    "name": "Lercara Friddi",
    "state_id": "d2da63f1-456c-4405-8e5f-605b8139460e"
  },
  {
    "id": "eb16186b-c19c-4fc2-83d9-858e974c6d21",
    "name": "Letojanni",
    "state_id": "d2da63f1-456c-4405-8e5f-605b8139460e"
  },
  {
    "id": "76878917-b326-4495-927e-f4336167bc6a",
    "name": "Librizzi",
    "state_id": "d2da63f1-456c-4405-8e5f-605b8139460e"
  },
  {
    "id": "b7881ed8-05c9-46fd-97ba-6088cda366b6",
    "name": "Licata",
    "state_id": "d2da63f1-456c-4405-8e5f-605b8139460e"
  },
  {
    "id": "990b8eda-875f-43ec-af4a-37a240e19619",
    "name": "Licodia Eubea",
    "state_id": "d2da63f1-456c-4405-8e5f-605b8139460e"
  },
  {
    "id": "192cd731-9737-44f9-85c0-ef572278f53f",
    "name": "Limina",
    "state_id": "d2da63f1-456c-4405-8e5f-605b8139460e"
  },
  {
    "id": "991b5d49-bf08-47da-967e-0701298049ca",
    "name": "Linera",
    "state_id": "d2da63f1-456c-4405-8e5f-605b8139460e"
  },
  {
    "id": "4e67fe81-94b5-4cb5-b78f-ac044de44f14",
    "name": "Linguaglossa",
    "state_id": "d2da63f1-456c-4405-8e5f-605b8139460e"
  },
  {
    "id": "11aa47fb-8f38-4562-ab16-12d4eddeafd7",
    "name": "Lipari",
    "state_id": "d2da63f1-456c-4405-8e5f-605b8139460e"
  },
  {
    "id": "a4af321f-6c51-4310-8b26-0efa11f8e3a2",
    "name": "Longi",
    "state_id": "d2da63f1-456c-4405-8e5f-605b8139460e"
  },
  {
    "id": "688d74d2-5177-481b-84fc-e2d1ab01f0a9",
    "name": "Lucca Sicula",
    "state_id": "d2da63f1-456c-4405-8e5f-605b8139460e"
  },
  {
    "id": "c1e9742f-725d-4048-9f82-76e507141a07",
    "name": "Maletto",
    "state_id": "d2da63f1-456c-4405-8e5f-605b8139460e"
  },
  {
    "id": "64ce303d-742c-4958-9935-dd308504f62c",
    "name": "Malfa",
    "state_id": "d2da63f1-456c-4405-8e5f-605b8139460e"
  },
  {
    "id": "ea7865e5-9b29-42f9-9049-8a1ff259f50c",
    "name": "Malvagna",
    "state_id": "d2da63f1-456c-4405-8e5f-605b8139460e"
  },
  {
    "id": "434dff51-0ed2-4d0d-93d6-e30f52ad48a9",
    "name": "Mandanici",
    "state_id": "d2da63f1-456c-4405-8e5f-605b8139460e"
  },
  {
    "id": "23bf17cc-a918-4f53-a29c-0cf16a6a70c6",
    "name": "Maniace",
    "state_id": "d2da63f1-456c-4405-8e5f-605b8139460e"
  },
  {
    "id": "00be73b7-4792-4f82-8419-aa06c6c8263f",
    "name": "Marausa",
    "state_id": "d2da63f1-456c-4405-8e5f-605b8139460e"
  },
  {
    "id": "2d859ac6-0331-45ba-9ef0-9f2a8ee43955",
    "name": "Marianopoli",
    "state_id": "d2da63f1-456c-4405-8e5f-605b8139460e"
  },
  {
    "id": "a9204069-1ce0-424d-b140-cc1a3b7f100c",
    "name": "Marina di Caronia",
    "state_id": "d2da63f1-456c-4405-8e5f-605b8139460e"
  },
  {
    "id": "4cc88c7a-6420-4c98-b3e7-0bb678316a95",
    "name": "Marina di Ragusa",
    "state_id": "d2da63f1-456c-4405-8e5f-605b8139460e"
  },
  {
    "id": "cd02f498-56e5-455e-a92f-156d197b56ac",
    "name": "Marinella",
    "state_id": "d2da63f1-456c-4405-8e5f-605b8139460e"
  },
  {
    "id": "29d824bc-e3ee-4000-9d78-be9238328f03",
    "name": "Marineo",
    "state_id": "d2da63f1-456c-4405-8e5f-605b8139460e"
  },
  {
    "id": "d15c5c15-5e8d-4735-9ea0-1116bb71662d",
    "name": "Marsala",
    "state_id": "d2da63f1-456c-4405-8e5f-605b8139460e"
  },
  {
    "id": "06840fde-6606-487a-9366-f67b06c53fe0",
    "name": "Mascali",
    "state_id": "d2da63f1-456c-4405-8e5f-605b8139460e"
  },
  {
    "id": "8c0c4cf9-4711-47ae-95b9-5b22890cb4b9",
    "name": "Mascalucia",
    "state_id": "d2da63f1-456c-4405-8e5f-605b8139460e"
  },
  {
    "id": "d3f304cb-0977-48a4-8cb0-bef3619f3c67",
    "name": "Maugeri",
    "state_id": "d2da63f1-456c-4405-8e5f-605b8139460e"
  },
  {
    "id": "97aa10d4-c303-4919-a516-768ec082af4d",
    "name": "Mazara del Vallo",
    "state_id": "d2da63f1-456c-4405-8e5f-605b8139460e"
  },
  {
    "id": "fcb6e6ba-1810-40ab-98d1-1a3c662a69fc",
    "name": "Mazara II",
    "state_id": "d2da63f1-456c-4405-8e5f-605b8139460e"
  },
  {
    "id": "f7fd3d68-e6cb-4c61-ad8c-3ee66cfc0309",
    "name": "Mazzarino",
    "state_id": "d2da63f1-456c-4405-8e5f-605b8139460e"
  },
  {
    "id": "9bfe87e7-b541-4985-8458-cd897228f7dd",
    "name": "Mazzarrà Sant'Andrea",
    "state_id": "d2da63f1-456c-4405-8e5f-605b8139460e"
  },
  {
    "id": "34278f19-a641-4097-a7b9-1454ad849166",
    "name": "Mazzarrone",
    "state_id": "d2da63f1-456c-4405-8e5f-605b8139460e"
  },
  {
    "id": "e67e5c34-a55c-4fc4-9f37-5a35edc699f9",
    "name": "Melia",
    "state_id": "d2da63f1-456c-4405-8e5f-605b8139460e"
  },
  {
    "id": "d395fd42-64b2-4f11-8afd-151b2eee1f07",
    "name": "Melilli",
    "state_id": "d2da63f1-456c-4405-8e5f-605b8139460e"
  },
  {
    "id": "40d30682-afca-4446-ae68-4c8f67c9e685",
    "name": "Menfi",
    "state_id": "d2da63f1-456c-4405-8e5f-605b8139460e"
  },
  {
    "id": "00e78521-03a8-4b6b-8266-d7892871642b",
    "name": "Merì",
    "state_id": "d2da63f1-456c-4405-8e5f-605b8139460e"
  },
  {
    "id": "73b48e76-158c-4fa5-beb3-61c5050ac8d9",
    "name": "Messina",
    "state_id": "d2da63f1-456c-4405-8e5f-605b8139460e"
  },
  {
    "id": "319f73f5-2af7-41ca-a6be-2ae49d516ab7",
    "name": "Mezzojuso",
    "state_id": "d2da63f1-456c-4405-8e5f-605b8139460e"
  },
  {
    "id": "37d231bc-2586-4d17-86ce-a7243b060bda",
    "name": "Milazzo",
    "state_id": "d2da63f1-456c-4405-8e5f-605b8139460e"
  },
  {
    "id": "d9e28ed6-626e-4b7d-9d13-eb415c73b2cc",
    "name": "Milena",
    "state_id": "d2da63f1-456c-4405-8e5f-605b8139460e"
  },
  {
    "id": "a4559838-79e8-44d1-b4a3-e3cb552b368a",
    "name": "Militello in Val di Catania",
    "state_id": "d2da63f1-456c-4405-8e5f-605b8139460e"
  },
  {
    "id": "40b8505a-f981-4231-9bbe-f6aadc0aaeab",
    "name": "Militello Rosmarino",
    "state_id": "d2da63f1-456c-4405-8e5f-605b8139460e"
  },
  {
    "id": "77834e69-d992-4bcb-91db-88932a0a733f",
    "name": "Milo",
    "state_id": "d2da63f1-456c-4405-8e5f-605b8139460e"
  },
  {
    "id": "66bc9903-9d37-4e31-98c2-0fa1e29a3ad9",
    "name": "Mineo",
    "state_id": "d2da63f1-456c-4405-8e5f-605b8139460e"
  },
  {
    "id": "a70bb57b-de5b-4e3d-8ee9-da61424a6daf",
    "name": "Mirabella Imbaccari",
    "state_id": "d2da63f1-456c-4405-8e5f-605b8139460e"
  },
  {
    "id": "714287dd-7bb2-4f52-8eb6-4d0ecbb6c9fa",
    "name": "Mirto",
    "state_id": "d2da63f1-456c-4405-8e5f-605b8139460e"
  },
  {
    "id": "eb9e3430-c321-4684-a8a8-1ed4dee9112b",
    "name": "Misilmeri",
    "state_id": "d2da63f1-456c-4405-8e5f-605b8139460e"
  },
  {
    "id": "dc04a266-39dd-46a9-ba44-d3cad09f0eef",
    "name": "Misterbianco",
    "state_id": "d2da63f1-456c-4405-8e5f-605b8139460e"
  },
  {
    "id": "0f80fdde-7eac-44cb-aec8-f6b227348eb4",
    "name": "Mistretta",
    "state_id": "d2da63f1-456c-4405-8e5f-605b8139460e"
  },
  {
    "id": "62771d43-a24c-42e7-97a7-9ed9c7510185",
    "name": "Modica",
    "state_id": "d2da63f1-456c-4405-8e5f-605b8139460e"
  },
  {
    "id": "e33076f9-7015-47a3-9621-4670afc6def5",
    "name": "Moio Alcantara",
    "state_id": "d2da63f1-456c-4405-8e5f-605b8139460e"
  },
  {
    "id": "f2b14d2e-fdb0-4ea4-b1dd-4016cd4b15bb",
    "name": "Monforte San Giorgio",
    "state_id": "d2da63f1-456c-4405-8e5f-605b8139460e"
  },
  {
    "id": "634c2dd5-48d0-4b97-80cc-789d087814f4",
    "name": "Mongiuffi Melia",
    "state_id": "d2da63f1-456c-4405-8e5f-605b8139460e"
  },
  {
    "id": "3256a148-d57a-467e-bac9-aa2208302e6a",
    "name": "Monreale",
    "state_id": "d2da63f1-456c-4405-8e5f-605b8139460e"
  },
  {
    "id": "51ce39db-95d2-411e-913f-e9b06e15fe30",
    "name": "Montagnareale",
    "state_id": "d2da63f1-456c-4405-8e5f-605b8139460e"
  },
  {
    "id": "39fd82bb-3a41-474a-a416-1bac0ec1b082",
    "name": "Montalbano Elicona",
    "state_id": "d2da63f1-456c-4405-8e5f-605b8139460e"
  },
  {
    "id": "7e91eee4-be54-45d0-b0a1-97ab8c84bce6",
    "name": "Montallegro",
    "state_id": "d2da63f1-456c-4405-8e5f-605b8139460e"
  },
  {
    "id": "d6302bee-55ee-4da0-a7c3-53b9a392f50d",
    "name": "Montedoro",
    "state_id": "d2da63f1-456c-4405-8e5f-605b8139460e"
  },
  {
    "id": "5e7b443e-8330-46c7-aecb-9cae01d56591",
    "name": "Montelepre",
    "state_id": "d2da63f1-456c-4405-8e5f-605b8139460e"
  },
  {
    "id": "5eb53548-f9ee-460b-90b9-026531fbf461",
    "name": "Montemaggiore Belsito",
    "state_id": "d2da63f1-456c-4405-8e5f-605b8139460e"
  },
  {
    "id": "3b8d19b4-4313-44a6-8123-f44dab3e5aac",
    "name": "Monterosso Almo",
    "state_id": "d2da63f1-456c-4405-8e5f-605b8139460e"
  },
  {
    "id": "9b2799c5-adf3-42c4-8441-2bffdff5efd8",
    "name": "Montevago",
    "state_id": "d2da63f1-456c-4405-8e5f-605b8139460e"
  },
  {
    "id": "b85bf47a-a5f6-44be-a318-9f710fa41ddc",
    "name": "Motta Camastra",
    "state_id": "d2da63f1-456c-4405-8e5f-605b8139460e"
  },
  {
    "id": "d5015d28-71be-42af-a2ca-f19c8e615ea7",
    "name": "Motta d'Affermo",
    "state_id": "d2da63f1-456c-4405-8e5f-605b8139460e"
  },
  {
    "id": "bcf18488-60e5-412b-96e9-dde8ba219785",
    "name": "Motta Sant'Anastasia",
    "state_id": "d2da63f1-456c-4405-8e5f-605b8139460e"
  },
  {
    "id": "91ed9316-1131-4303-9391-20dd53343fee",
    "name": "Mussomeli",
    "state_id": "d2da63f1-456c-4405-8e5f-605b8139460e"
  },
  {
    "id": "96263846-3aa0-4b4a-89e2-20ef99afce42",
    "name": "Naro",
    "state_id": "d2da63f1-456c-4405-8e5f-605b8139460e"
  },
  {
    "id": "7e8926fb-c5a2-45a2-9d50-46e4a33cbd5e",
    "name": "Naso",
    "state_id": "d2da63f1-456c-4405-8e5f-605b8139460e"
  },
  {
    "id": "0867a279-f3e2-4072-9440-fe2db0c575cb",
    "name": "Nicolosi",
    "state_id": "d2da63f1-456c-4405-8e5f-605b8139460e"
  },
  {
    "id": "00465be2-02f4-40bb-b59a-9ab992cb1667",
    "name": "Nicosia",
    "state_id": "d2da63f1-456c-4405-8e5f-605b8139460e"
  },
  {
    "id": "ca895df7-746f-41d2-a59f-9766d7ae6bad",
    "name": "Niscemi",
    "state_id": "d2da63f1-456c-4405-8e5f-605b8139460e"
  },
  {
    "id": "07440c08-6b02-4ade-afa9-6be20c034b2f",
    "name": "Nissoria",
    "state_id": "d2da63f1-456c-4405-8e5f-605b8139460e"
  },
  {
    "id": "05b06044-ec3c-496f-a87e-148674cc4760",
    "name": "Nizza di Sicilia",
    "state_id": "d2da63f1-456c-4405-8e5f-605b8139460e"
  },
  {
    "id": "06633f16-e98e-411f-b850-2b5fd33c6ad8",
    "name": "Noto",
    "state_id": "d2da63f1-456c-4405-8e5f-605b8139460e"
  },
  {
    "id": "fd2c90a1-c8fe-43a5-810f-45bef3d41c35",
    "name": "Novara di Sicilia",
    "state_id": "d2da63f1-456c-4405-8e5f-605b8139460e"
  },
  {
    "id": "30371641-9181-49ff-9548-1e2d087c1c4d",
    "name": "Nunziata",
    "state_id": "d2da63f1-456c-4405-8e5f-605b8139460e"
  },
  {
    "id": "1ed02eb9-a0dc-4dcb-be0e-890384bc3a7d",
    "name": "Nuova Gibellina",
    "state_id": "d2da63f1-456c-4405-8e5f-605b8139460e"
  },
  {
    "id": "463f4a24-69a7-4c99-ac69-0e1f70ea0cf2",
    "name": "Nuovo Centro Urbano Poggioreale",
    "state_id": "d2da63f1-456c-4405-8e5f-605b8139460e"
  },
  {
    "id": "3312bbee-62bc-42cf-9b16-859b08636bbb",
    "name": "Oliveri",
    "state_id": "d2da63f1-456c-4405-8e5f-605b8139460e"
  },
  {
    "id": "15e65500-40d1-4148-9c45-9f30c1676804",
    "name": "Pace del Mela",
    "state_id": "d2da63f1-456c-4405-8e5f-605b8139460e"
  },
  {
    "id": "a6d638f3-b555-447c-960f-caf167b8a7c3",
    "name": "Paceco",
    "state_id": "d2da63f1-456c-4405-8e5f-605b8139460e"
  },
  {
    "id": "6cacbfc8-9b81-4496-a321-e210ba812ebf",
    "name": "Pachino",
    "state_id": "d2da63f1-456c-4405-8e5f-605b8139460e"
  },
  {
    "id": "f95850bb-5438-4e41-9392-8bb58b0ed9a7",
    "name": "Pagliara",
    "state_id": "d2da63f1-456c-4405-8e5f-605b8139460e"
  },
  {
    "id": "fe6b1644-6461-4cd9-9364-80f732835414",
    "name": "Palagonia",
    "state_id": "d2da63f1-456c-4405-8e5f-605b8139460e"
  },
  {
    "id": "ae803472-3462-4218-81a9-ebbe630e2e4a",
    "name": "Palazzo Adriano",
    "state_id": "d2da63f1-456c-4405-8e5f-605b8139460e"
  },
  {
    "id": "e6641cfc-efe3-4041-86e9-bc624ea6d7d3",
    "name": "Palazzolo",
    "state_id": "d2da63f1-456c-4405-8e5f-605b8139460e"
  },
  {
    "id": "4134efef-04a8-4292-8b0c-30d666f989dd",
    "name": "Palazzolo Acreide",
    "state_id": "d2da63f1-456c-4405-8e5f-605b8139460e"
  },
  {
    "id": "26d833b6-3c95-4164-a1e9-8883fef27144",
    "name": "Palermo",
    "state_id": "d2da63f1-456c-4405-8e5f-605b8139460e"
  },
  {
    "id": "fc2bcf4b-9aaf-41c5-a9d2-d005ffecd6b5",
    "name": "Palma di Montechiaro",
    "state_id": "d2da63f1-456c-4405-8e5f-605b8139460e"
  },
  {
    "id": "55acc1a7-26cf-4309-a51b-c8e54dde15fc",
    "name": "Pantelleria",
    "state_id": "d2da63f1-456c-4405-8e5f-605b8139460e"
  },
  {
    "id": "09525f11-ece3-40a8-999b-a775176128b9",
    "name": "Partanna",
    "state_id": "d2da63f1-456c-4405-8e5f-605b8139460e"
  },
  {
    "id": "1e6fc312-6d2c-490f-af65-175518250c9b",
    "name": "Partinico",
    "state_id": "d2da63f1-456c-4405-8e5f-605b8139460e"
  },
  {
    "id": "dd09401c-1335-4e5a-ac34-eb3b20a8b21a",
    "name": "Pasteria-Lapide",
    "state_id": "d2da63f1-456c-4405-8e5f-605b8139460e"
  },
  {
    "id": "25a193cc-6a7f-4bc2-8ece-4dafe1ee43f0",
    "name": "Paternò",
    "state_id": "d2da63f1-456c-4405-8e5f-605b8139460e"
  },
  {
    "id": "2b3550f6-f390-419f-afa6-a5a5f87003f7",
    "name": "Patti",
    "state_id": "d2da63f1-456c-4405-8e5f-605b8139460e"
  },
  {
    "id": "25c78d55-331e-47a1-b900-e9a7d0736f41",
    "name": "Pedagaggi",
    "state_id": "d2da63f1-456c-4405-8e5f-605b8139460e"
  },
  {
    "id": "85db3bf5-eb3c-49b4-a04f-9dfd869a9bc7",
    "name": "Pedalino",
    "state_id": "d2da63f1-456c-4405-8e5f-605b8139460e"
  },
  {
    "id": "f449f615-9e2f-4e41-8178-f6d50a2e2f5d",
    "name": "Pedara",
    "state_id": "d2da63f1-456c-4405-8e5f-605b8139460e"
  },
  {
    "id": "c9657052-c88e-4aed-a52b-477c49916f47",
    "name": "Pennisi",
    "state_id": "d2da63f1-456c-4405-8e5f-605b8139460e"
  },
  {
    "id": "6f38b694-530c-464a-89df-4790722d962b",
    "name": "Petralia Soprana",
    "state_id": "d2da63f1-456c-4405-8e5f-605b8139460e"
  },
  {
    "id": "8fe675df-2f8d-4e1f-b834-6e97c65fa6e3",
    "name": "Petralia Sottana",
    "state_id": "d2da63f1-456c-4405-8e5f-605b8139460e"
  },
  {
    "id": "d781570d-3af3-440d-ada5-5f259f6e8d4c",
    "name": "Petrosino",
    "state_id": "d2da63f1-456c-4405-8e5f-605b8139460e"
  },
  {
    "id": "b49f58c6-c407-4c6f-a5aa-05577ea48e8a",
    "name": "Pettineo",
    "state_id": "d2da63f1-456c-4405-8e5f-605b8139460e"
  },
  {
    "id": "9087b686-84e8-489d-892d-ccda8ae6c3e6",
    "name": "Piana degli Albanesi",
    "state_id": "d2da63f1-456c-4405-8e5f-605b8139460e"
  },
  {
    "id": "d8dd48e4-5f6f-4f54-8753-c05fd5621631",
    "name": "Piano dei Geli",
    "state_id": "d2da63f1-456c-4405-8e5f-605b8139460e"
  },
  {
    "id": "25993c27-8521-4d11-8f96-4fca7a3b883d",
    "name": "Piano Maglio-Blandino",
    "state_id": "d2da63f1-456c-4405-8e5f-605b8139460e"
  },
  {
    "id": "80609f9c-581a-46a9-8eba-8810293369b3",
    "name": "Pianoconte",
    "state_id": "d2da63f1-456c-4405-8e5f-605b8139460e"
  },
  {
    "id": "410e294f-d236-4866-ac8a-b1bda9b2800b",
    "name": "Piazza Armerina",
    "state_id": "d2da63f1-456c-4405-8e5f-605b8139460e"
  },
  {
    "id": "b3f56911-5c6e-4525-80e1-7d269c6388e8",
    "name": "Piedimonte Etneo",
    "state_id": "d2da63f1-456c-4405-8e5f-605b8139460e"
  },
  {
    "id": "55016aa2-11e0-416b-8d93-e64c3d9cde7d",
    "name": "Pietraperzia",
    "state_id": "d2da63f1-456c-4405-8e5f-605b8139460e"
  },
  {
    "id": "87b99c8d-aff7-4c2c-8e54-6d952af0bc09",
    "name": "Pioppo",
    "state_id": "d2da63f1-456c-4405-8e5f-605b8139460e"
  },
  {
    "id": "c2b19504-d6b4-4ced-9848-0a463e323107",
    "name": "Piraino",
    "state_id": "d2da63f1-456c-4405-8e5f-605b8139460e"
  },
  {
    "id": "e8dd10be-d7fe-4251-ba2e-d8eab0f2a87c",
    "name": "Polizzi Generosa",
    "state_id": "d2da63f1-456c-4405-8e5f-605b8139460e"
  },
  {
    "id": "b9827322-1ef3-4e6d-be23-f1cc6d7ab38c",
    "name": "Pollina",
    "state_id": "d2da63f1-456c-4405-8e5f-605b8139460e"
  },
  {
    "id": "1620374c-b038-4198-9c3b-089cc5b40658",
    "name": "Portella di Mare",
    "state_id": "d2da63f1-456c-4405-8e5f-605b8139460e"
  },
  {
    "id": "d231bd71-dc4f-4064-8047-a4feded4a60e",
    "name": "Porto Empedocle",
    "state_id": "d2da63f1-456c-4405-8e5f-605b8139460e"
  },
  {
    "id": "59f7338e-8093-4ebf-9b7e-4a40f0bc0dee",
    "name": "Portopalo di Capo Passero",
    "state_id": "d2da63f1-456c-4405-8e5f-605b8139460e"
  },
  {
    "id": "d08018ac-3392-4814-8e05-437ea2cae406",
    "name": "Pozzallo",
    "state_id": "d2da63f1-456c-4405-8e5f-605b8139460e"
  },
  {
    "id": "8941aad0-eb28-4d60-b59c-fcd42ae65714",
    "name": "Priolo Gargallo",
    "state_id": "d2da63f1-456c-4405-8e5f-605b8139460e"
  },
  {
    "id": "bee0c023-2510-4bd1-a015-ce3d0485eb52",
    "name": "Prizzi",
    "state_id": "d2da63f1-456c-4405-8e5f-605b8139460e"
  },
  {
    "id": "b7306c51-66bd-4b2b-a292-69df4ab87be9",
    "name": "Provincia di Caltanissetta",
    "state_id": "d2da63f1-456c-4405-8e5f-605b8139460e"
  },
  {
    "id": "412317ac-309e-4352-93da-08d5b78d256c",
    "name": "Provincia di Siracusa",
    "state_id": "d2da63f1-456c-4405-8e5f-605b8139460e"
  },
  {
    "id": "e28c842f-f731-4725-8190-1d171c28f453",
    "name": "Racalmuto",
    "state_id": "d2da63f1-456c-4405-8e5f-605b8139460e"
  },
  {
    "id": "898e8085-84d2-4e25-b31d-08caee2d5c15",
    "name": "Raccuja",
    "state_id": "d2da63f1-456c-4405-8e5f-605b8139460e"
  },
  {
    "id": "6b2e49bb-f63e-4a2e-9568-fb92cf0cdb0c",
    "name": "Raddusa",
    "state_id": "d2da63f1-456c-4405-8e5f-605b8139460e"
  },
  {
    "id": "79338b4c-9df8-43fd-a2fa-8ae865e63651",
    "name": "Raffadali",
    "state_id": "d2da63f1-456c-4405-8e5f-605b8139460e"
  },
  {
    "id": "56622679-6f2f-443b-ac6d-a45f51c9947c",
    "name": "Ragalna",
    "state_id": "d2da63f1-456c-4405-8e5f-605b8139460e"
  },
  {
    "id": "86c928b6-1329-4184-a9f4-4b239e874f48",
    "name": "Ragusa",
    "state_id": "d2da63f1-456c-4405-8e5f-605b8139460e"
  },
  {
    "id": "f64579ef-a058-4ce1-8c5a-9802525b1608",
    "name": "Ramacca",
    "state_id": "d2da63f1-456c-4405-8e5f-605b8139460e"
  },
  {
    "id": "07f81045-9e20-4702-9db7-5e0c84dd949f",
    "name": "Randazzo",
    "state_id": "d2da63f1-456c-4405-8e5f-605b8139460e"
  },
  {
    "id": "f160be93-9613-4f26-92f2-479fa6171587",
    "name": "Ravanusa",
    "state_id": "d2da63f1-456c-4405-8e5f-605b8139460e"
  },
  {
    "id": "78dea86e-aee5-4435-91c3-ac998516522f",
    "name": "Realmonte",
    "state_id": "d2da63f1-456c-4405-8e5f-605b8139460e"
  },
  {
    "id": "5b0ff478-8496-449f-ac97-58d9f190f0da",
    "name": "Regalbuto",
    "state_id": "d2da63f1-456c-4405-8e5f-605b8139460e"
  },
  {
    "id": "999572a6-d870-403c-ba49-186547418241",
    "name": "Reitano",
    "state_id": "d2da63f1-456c-4405-8e5f-605b8139460e"
  },
  {
    "id": "ac4a2e56-eaa2-4de4-a74a-819212fbff46",
    "name": "Resuttano",
    "state_id": "d2da63f1-456c-4405-8e5f-605b8139460e"
  },
  {
    "id": "ff65cbef-122a-45db-9ad4-4a1aa4f812f4",
    "name": "Ribera",
    "state_id": "d2da63f1-456c-4405-8e5f-605b8139460e"
  },
  {
    "id": "f15df091-4204-4238-93c2-b5dd85968a90",
    "name": "Riesi",
    "state_id": "d2da63f1-456c-4405-8e5f-605b8139460e"
  },
  {
    "id": "9bf16a94-24cb-4d42-b1d1-a6c9ab53e432",
    "name": "Rilievo",
    "state_id": "d2da63f1-456c-4405-8e5f-605b8139460e"
  },
  {
    "id": "6a01c3e6-8f25-46f3-9e45-3e18aa970154",
    "name": "Riposto",
    "state_id": "d2da63f1-456c-4405-8e5f-605b8139460e"
  },
  {
    "id": "d627c04c-a403-4dc2-beaf-e07d1a1f4ae1",
    "name": "Rocca di Capri Leone",
    "state_id": "d2da63f1-456c-4405-8e5f-605b8139460e"
  },
  {
    "id": "79ecb2c7-ef33-4e04-95c6-aa192d1839f3",
    "name": "Roccafiorita",
    "state_id": "d2da63f1-456c-4405-8e5f-605b8139460e"
  },
  {
    "id": "071a1a8b-8ee4-4022-a875-68c096001454",
    "name": "Roccalumera",
    "state_id": "d2da63f1-456c-4405-8e5f-605b8139460e"
  },
  {
    "id": "76a6199f-5e36-4546-815f-8d478532455c",
    "name": "Roccamena",
    "state_id": "d2da63f1-456c-4405-8e5f-605b8139460e"
  },
  {
    "id": "d9748d0c-7584-467e-9e9f-6847cc409a8a",
    "name": "Roccapalumba",
    "state_id": "d2da63f1-456c-4405-8e5f-605b8139460e"
  },
  {
    "id": "a9442360-8d8b-4c04-9596-3a27f8265459",
    "name": "Roccavaldina",
    "state_id": "d2da63f1-456c-4405-8e5f-605b8139460e"
  },
  {
    "id": "ada887df-8502-48a9-b293-a23c6d82ba15",
    "name": "Roccella Valdemone",
    "state_id": "d2da63f1-456c-4405-8e5f-605b8139460e"
  },
  {
    "id": "2f534593-a912-408a-9a02-18da0a477444",
    "name": "Rodì",
    "state_id": "d2da63f1-456c-4405-8e5f-605b8139460e"
  },
  {
    "id": "d9915f45-6369-4501-b448-42f1dd3322d8",
    "name": "Rometta",
    "state_id": "d2da63f1-456c-4405-8e5f-605b8139460e"
  },
  {
    "id": "13e2cfba-2548-4c5a-ba33-aa807a7133e8",
    "name": "Rometta Marea",
    "state_id": "d2da63f1-456c-4405-8e5f-605b8139460e"
  },
  {
    "id": "a38dfd0a-2f09-4335-984d-bef13a4dc202",
    "name": "Rosolini",
    "state_id": "d2da63f1-456c-4405-8e5f-605b8139460e"
  },
  {
    "id": "b898b676-c91a-4941-89fa-86dc79caaf0b",
    "name": "Salaparuta",
    "state_id": "d2da63f1-456c-4405-8e5f-605b8139460e"
  },
  {
    "id": "8cfe54e2-4373-4bb1-82a8-013c3bc7515b",
    "name": "Salemi",
    "state_id": "d2da63f1-456c-4405-8e5f-605b8139460e"
  },
  {
    "id": "7970a0bf-5cac-44ef-8c1f-07c76a06912b",
    "name": "Sambuca di Sicilia",
    "state_id": "d2da63f1-456c-4405-8e5f-605b8139460e"
  },
  {
    "id": "9ed37f78-4312-4168-ae93-3145e78d9ba5",
    "name": "San Biagio Platani",
    "state_id": "d2da63f1-456c-4405-8e5f-605b8139460e"
  },
  {
    "id": "075c991d-309d-4585-8783-2313a95899a1",
    "name": "San Cataldo",
    "state_id": "d2da63f1-456c-4405-8e5f-605b8139460e"
  },
  {
    "id": "8b731e04-0984-4bc1-a352-fda605cd1322",
    "name": "San Cipirello",
    "state_id": "d2da63f1-456c-4405-8e5f-605b8139460e"
  },
  {
    "id": "6143f7ec-014c-4a1b-b0d6-5e73724b543f",
    "name": "San Ciro-Ulmi-Filci",
    "state_id": "d2da63f1-456c-4405-8e5f-605b8139460e"
  },
  {
    "id": "f263f7a0-e728-4ebe-bbeb-4b1d61ee1006",
    "name": "San Cono",
    "state_id": "d2da63f1-456c-4405-8e5f-605b8139460e"
  },
  {
    "id": "7d4acfd2-6791-40bf-8fb3-5c0d2bb6f520",
    "name": "San Filippo del Mela",
    "state_id": "d2da63f1-456c-4405-8e5f-605b8139460e"
  },
  {
    "id": "52128bef-6213-46b9-8a6d-ed64f22952d6",
    "name": "San Fratello",
    "state_id": "d2da63f1-456c-4405-8e5f-605b8139460e"
  },
  {
    "id": "5b40ff23-5007-458a-affe-5afd8ef3d55c",
    "name": "San Giorgio",
    "state_id": "d2da63f1-456c-4405-8e5f-605b8139460e"
  },
  {
    "id": "b581e00c-0a5c-4d24-9d1e-3d4ffa84c276",
    "name": "San Giovanni",
    "state_id": "d2da63f1-456c-4405-8e5f-605b8139460e"
  },
  {
    "id": "746cbcc8-3311-4968-8ac4-31b4f0e8eb5f",
    "name": "San Giovanni Gemini",
    "state_id": "d2da63f1-456c-4405-8e5f-605b8139460e"
  },
  {
    "id": "8494f6a8-0ce2-43d3-9408-a07c65c27ea1",
    "name": "San Giovanni la Punta",
    "state_id": "d2da63f1-456c-4405-8e5f-605b8139460e"
  },
  {
    "id": "c8194b1d-4b25-484a-bb6b-372507c53ee7",
    "name": "San Giuseppe Jato",
    "state_id": "d2da63f1-456c-4405-8e5f-605b8139460e"
  },
  {
    "id": "1b9e5597-69dc-4e6a-b3c1-6b1d5d44d5b0",
    "name": "San Gregorio di Catania",
    "state_id": "d2da63f1-456c-4405-8e5f-605b8139460e"
  },
  {
    "id": "67be2db3-9978-41f0-954d-997ef956c7cb",
    "name": "San Leone Mosè",
    "state_id": "d2da63f1-456c-4405-8e5f-605b8139460e"
  },
  {
    "id": "8148a2a1-dce3-439d-af3f-d853883c5773",
    "name": "San Marco d'Alunzio",
    "state_id": "d2da63f1-456c-4405-8e5f-605b8139460e"
  },
  {
    "id": "be5db73e-79c4-4dba-b961-b07632b24dcf",
    "name": "San Mauro Castelverde",
    "state_id": "d2da63f1-456c-4405-8e5f-605b8139460e"
  },
  {
    "id": "27ee1591-d22b-4db0-9bea-8397aa058580",
    "name": "San Michele di Ganzaria",
    "state_id": "d2da63f1-456c-4405-8e5f-605b8139460e"
  },
  {
    "id": "6ed4a871-5648-4f9e-a66e-56cafe046bef",
    "name": "San Pier Niceto",
    "state_id": "d2da63f1-456c-4405-8e5f-605b8139460e"
  },
  {
    "id": "9297eb3e-4e72-4214-991d-c5b91c7c094d",
    "name": "San Piero Patti",
    "state_id": "d2da63f1-456c-4405-8e5f-605b8139460e"
  },
  {
    "id": "cc36ef87-c214-453c-924f-2a66415a674a",
    "name": "San Pietro Clarenza",
    "state_id": "d2da63f1-456c-4405-8e5f-605b8139460e"
  },
  {
    "id": "bb14bb68-0d71-4826-a2f1-429fe3cc1d49",
    "name": "San Salvatore di Fitalia",
    "state_id": "d2da63f1-456c-4405-8e5f-605b8139460e"
  },
  {
    "id": "e7114fe1-a221-4e38-8b45-120242d8703f",
    "name": "San Teodoro",
    "state_id": "d2da63f1-456c-4405-8e5f-605b8139460e"
  },
  {
    "id": "faf2314a-9311-4f61-95ff-c8e02a796061",
    "name": "San Vito Lo Capo",
    "state_id": "d2da63f1-456c-4405-8e5f-605b8139460e"
  },
  {
    "id": "0b45f37d-0074-4bda-8ccd-3ded08b71db5",
    "name": "Sant'Agata di Militello",
    "state_id": "d2da63f1-456c-4405-8e5f-605b8139460e"
  },
  {
    "id": "18463fd5-e2bb-40c8-8217-c23a0a66ee64",
    "name": "Sant'Agata Li Battiati",
    "state_id": "d2da63f1-456c-4405-8e5f-605b8139460e"
  },
  {
    "id": "3d8344c1-b51a-42fe-b84c-a54ab6cfc017",
    "name": "Sant'Alessio Siculo",
    "state_id": "d2da63f1-456c-4405-8e5f-605b8139460e"
  },
  {
    "id": "e909d3cb-9023-4ef3-8410-52502a79a3ce",
    "name": "Sant'Alfio",
    "state_id": "d2da63f1-456c-4405-8e5f-605b8139460e"
  },
  {
    "id": "158cdc16-43d0-432b-878d-4a97d3555cd6",
    "name": "Sant'Angelo di Brolo",
    "state_id": "d2da63f1-456c-4405-8e5f-605b8139460e"
  },
  {
    "id": "c13f521b-310b-464a-8f7b-e983fd5f0b7f",
    "name": "Sant'Angelo Muxaro",
    "state_id": "d2da63f1-456c-4405-8e5f-605b8139460e"
  },
  {
    "id": "d45d8278-19f6-4189-a6c3-1c7e9423b405",
    "name": "Santa Caterina Villarmosa",
    "state_id": "d2da63f1-456c-4405-8e5f-605b8139460e"
  },
  {
    "id": "b5c43201-35e5-4399-9598-688202cf3341",
    "name": "Santa Cristina Gela",
    "state_id": "d2da63f1-456c-4405-8e5f-605b8139460e"
  },
  {
    "id": "8061292a-e2b4-4c5e-828e-f43e97f520d0",
    "name": "Santa Croce Camerina",
    "state_id": "d2da63f1-456c-4405-8e5f-605b8139460e"
  },
  {
    "id": "3437a7a4-b3a4-4faf-b1ab-0a4f01889f37",
    "name": "Santa Domenica Vittoria",
    "state_id": "d2da63f1-456c-4405-8e5f-605b8139460e"
  },
  {
    "id": "0350a222-fa27-4b54-a851-4010634d8249",
    "name": "Santa Elisabetta",
    "state_id": "d2da63f1-456c-4405-8e5f-605b8139460e"
  },
  {
    "id": "24942c12-1c0a-421d-b0c1-0c0a0eb8c537",
    "name": "Santa Flavia",
    "state_id": "d2da63f1-456c-4405-8e5f-605b8139460e"
  },
  {
    "id": "415ed3a2-91bf-40e6-b376-9e98a4d6553e",
    "name": "Santa Lucia del Mela",
    "state_id": "d2da63f1-456c-4405-8e5f-605b8139460e"
  },
  {
    "id": "f96ef1d5-2838-433c-b5dd-d51c690fae3b",
    "name": "Santa Margherita di Belice",
    "state_id": "d2da63f1-456c-4405-8e5f-605b8139460e"
  },
  {
    "id": "dee017f8-8b2c-4727-8a1a-a2b45b239786",
    "name": "Santa Maria di Licodia",
    "state_id": "d2da63f1-456c-4405-8e5f-605b8139460e"
  },
  {
    "id": "fa3e2407-cbf6-400b-9d39-084e7e0bf67b",
    "name": "Santa Maria la Stella",
    "state_id": "d2da63f1-456c-4405-8e5f-605b8139460e"
  },
  {
    "id": "7722356f-3764-49e0-ac8e-9cac2c2addc4",
    "name": "Santa Marina Salina",
    "state_id": "d2da63f1-456c-4405-8e5f-605b8139460e"
  },
  {
    "id": "a0a4499a-bc1f-487f-aa39-f2e222bf8e74",
    "name": "Santa Ninfa",
    "state_id": "d2da63f1-456c-4405-8e5f-605b8139460e"
  },
  {
    "id": "b5ac9891-cd3b-411a-b433-c6b19dcf7ca7",
    "name": "Santa Teresa di Riva",
    "state_id": "d2da63f1-456c-4405-8e5f-605b8139460e"
  },
  {
    "id": "302dc9d4-b83c-4a7b-a1f4-ce1ff829a63a",
    "name": "Santa Venerina",
    "state_id": "d2da63f1-456c-4405-8e5f-605b8139460e"
  },
  {
    "id": "4090dc30-41fe-48ac-ac3a-07d6b41462a6",
    "name": "Santo Stefano di Camastra",
    "state_id": "d2da63f1-456c-4405-8e5f-605b8139460e"
  },
  {
    "id": "c1ef4c4d-739f-4d1d-b6f9-873865ef035b",
    "name": "Santo Stefano Quisquina",
    "state_id": "d2da63f1-456c-4405-8e5f-605b8139460e"
  },
  {
    "id": "d9957877-d38c-4315-b22b-d8432b83670b",
    "name": "Saponara",
    "state_id": "d2da63f1-456c-4405-8e5f-605b8139460e"
  },
  {
    "id": "3bde689e-983e-4bed-97e3-1cd021508e36",
    "name": "Saponara Marittima",
    "state_id": "d2da63f1-456c-4405-8e5f-605b8139460e"
  },
  {
    "id": "7de8c034-7c90-400c-bd91-dffb79c81853",
    "name": "Sasi",
    "state_id": "d2da63f1-456c-4405-8e5f-605b8139460e"
  },
  {
    "id": "08c1bb4d-f4fa-4ab6-b76f-6b7c6e2ec7d5",
    "name": "Savoca",
    "state_id": "d2da63f1-456c-4405-8e5f-605b8139460e"
  },
  {
    "id": "25650000-cb8b-4189-bfbe-59a113c077cb",
    "name": "Scaletta Zanclea",
    "state_id": "d2da63f1-456c-4405-8e5f-605b8139460e"
  },
  {
    "id": "7f26cf6c-910e-416d-a846-5ecabbf46b96",
    "name": "Sciacca",
    "state_id": "d2da63f1-456c-4405-8e5f-605b8139460e"
  },
  {
    "id": "d1ff99b8-3d2e-4378-af7a-1f4cd150fbec",
    "name": "Sciara",
    "state_id": "d2da63f1-456c-4405-8e5f-605b8139460e"
  },
  {
    "id": "b6113b25-4f8c-49e3-83da-77e617f16dde",
    "name": "Scicli",
    "state_id": "d2da63f1-456c-4405-8e5f-605b8139460e"
  },
  {
    "id": "33c366f7-5f99-4319-9edb-447fd5878628",
    "name": "Scillato",
    "state_id": "d2da63f1-456c-4405-8e5f-605b8139460e"
  },
  {
    "id": "b852bdc3-fa88-48ba-ae0b-a7ec2214c9ca",
    "name": "Sclafani Bagni",
    "state_id": "d2da63f1-456c-4405-8e5f-605b8139460e"
  },
  {
    "id": "5ebaa0d1-7ca4-413d-87b7-3b522e444f64",
    "name": "Scoglitti",
    "state_id": "d2da63f1-456c-4405-8e5f-605b8139460e"
  },
  {
    "id": "abd5ef7d-362e-4886-9e9f-d44f26779dee",
    "name": "Scordia",
    "state_id": "d2da63f1-456c-4405-8e5f-605b8139460e"
  },
  {
    "id": "784e5bf8-e866-46b5-aa43-95a01e6215a6",
    "name": "Serradifalco",
    "state_id": "d2da63f1-456c-4405-8e5f-605b8139460e"
  },
  {
    "id": "c5ad6781-5500-4555-8215-6e77169cf2f3",
    "name": "Sfaranda",
    "state_id": "d2da63f1-456c-4405-8e5f-605b8139460e"
  },
  {
    "id": "33624670-15da-4e4d-8dde-8c71bc170e48",
    "name": "Sferracavallo",
    "state_id": "d2da63f1-456c-4405-8e5f-605b8139460e"
  },
  {
    "id": "fa95701f-ddef-465a-af69-e0fa6a4735f3",
    "name": "Siculiana",
    "state_id": "d2da63f1-456c-4405-8e5f-605b8139460e"
  },
  {
    "id": "ac4783aa-04b8-4940-80bf-a4b8135b03ea",
    "name": "Sinagra",
    "state_id": "d2da63f1-456c-4405-8e5f-605b8139460e"
  },
  {
    "id": "59e9ba0f-ca97-47c8-b657-89288643d099",
    "name": "Siracusa",
    "state_id": "d2da63f1-456c-4405-8e5f-605b8139460e"
  },
  {
    "id": "801f1387-09cb-47b7-89cf-3da1c56d8179",
    "name": "Solarino",
    "state_id": "d2da63f1-456c-4405-8e5f-605b8139460e"
  },
  {
    "id": "e0f2b192-e082-44bd-891c-e91bdad38674",
    "name": "Sommatino",
    "state_id": "d2da63f1-456c-4405-8e5f-605b8139460e"
  },
  {
    "id": "b2c15d72-1caf-4d26-b78d-b91187e7002c",
    "name": "Sortino",
    "state_id": "d2da63f1-456c-4405-8e5f-605b8139460e"
  },
  {
    "id": "9674592b-4314-4c54-99aa-9c0f8971335c",
    "name": "Spadafora",
    "state_id": "d2da63f1-456c-4405-8e5f-605b8139460e"
  },
  {
    "id": "93a547d2-3e9b-4969-a690-98af52ac0efe",
    "name": "Sparta'",
    "state_id": "d2da63f1-456c-4405-8e5f-605b8139460e"
  },
  {
    "id": "a4b4dba2-f58b-4e89-81e7-90df633e9ac8",
    "name": "Sperlinga",
    "state_id": "d2da63f1-456c-4405-8e5f-605b8139460e"
  },
  {
    "id": "73f5b318-2131-4e71-b433-68f3502561fc",
    "name": "Sutera",
    "state_id": "d2da63f1-456c-4405-8e5f-605b8139460e"
  },
  {
    "id": "c5d67802-090c-40c5-be17-effa128df190",
    "name": "Taormina",
    "state_id": "d2da63f1-456c-4405-8e5f-605b8139460e"
  },
  {
    "id": "491398a7-1d1e-43c5-873b-b7aede6ae73e",
    "name": "Terme",
    "state_id": "d2da63f1-456c-4405-8e5f-605b8139460e"
  },
  {
    "id": "0306bbca-9b30-4c44-b7c3-ab85fe80004b",
    "name": "Termini Imerese",
    "state_id": "d2da63f1-456c-4405-8e5f-605b8139460e"
  },
  {
    "id": "0f994eba-9436-417a-9f61-6bc2aa186b0c",
    "name": "Terrasini",
    "state_id": "d2da63f1-456c-4405-8e5f-605b8139460e"
  },
  {
    "id": "97facbdc-7c5e-49bd-8cf0-08949073fe9d",
    "name": "Tonnara di Bonagia",
    "state_id": "d2da63f1-456c-4405-8e5f-605b8139460e"
  },
  {
    "id": "1e3d08b5-6a41-4368-abf9-ce56e4c3ca20",
    "name": "Tonnarella",
    "state_id": "d2da63f1-456c-4405-8e5f-605b8139460e"
  },
  {
    "id": "9296c42a-eb4d-473c-ac87-0d0f52fba457",
    "name": "Torre Colonna-Sperone",
    "state_id": "d2da63f1-456c-4405-8e5f-605b8139460e"
  },
  {
    "id": "48bfecb4-a4fb-450f-9c68-4820b842f97b",
    "name": "Torregrotta",
    "state_id": "d2da63f1-456c-4405-8e5f-605b8139460e"
  },
  {
    "id": "32ab81a9-79ac-4da4-9dfe-49020b7e689a",
    "name": "Torrenova",
    "state_id": "d2da63f1-456c-4405-8e5f-605b8139460e"
  },
  {
    "id": "25ce8008-c456-432f-a35f-70a055a59df9",
    "name": "Torretta",
    "state_id": "d2da63f1-456c-4405-8e5f-605b8139460e"
  },
  {
    "id": "43025e92-afc5-44df-a925-c5cc4b8ce1f8",
    "name": "Tortorici",
    "state_id": "d2da63f1-456c-4405-8e5f-605b8139460e"
  },
  {
    "id": "3328d80e-1238-40a2-b89a-45fbc382f0a2",
    "name": "Trabia",
    "state_id": "d2da63f1-456c-4405-8e5f-605b8139460e"
  },
  {
    "id": "d90a4ede-5053-4df8-a0c4-25a84bc09913",
    "name": "Trapani",
    "state_id": "d2da63f1-456c-4405-8e5f-605b8139460e"
  },
  {
    "id": "8963105f-3750-4b6e-8e47-5839dc35150a",
    "name": "Trappeto",
    "state_id": "d2da63f1-456c-4405-8e5f-605b8139460e"
  },
  {
    "id": "b0693a66-f816-460a-8d01-35a543356c66",
    "name": "Tre Fontane",
    "state_id": "d2da63f1-456c-4405-8e5f-605b8139460e"
  },
  {
    "id": "f27500fe-2258-4cbc-a808-987227bf8df4",
    "name": "Trecastagni",
    "state_id": "d2da63f1-456c-4405-8e5f-605b8139460e"
  },
  {
    "id": "c02f1efd-ca8d-4e1c-b620-20a18760da70",
    "name": "Tremestieri Etneo",
    "state_id": "d2da63f1-456c-4405-8e5f-605b8139460e"
  },
  {
    "id": "8a886e8c-f38b-49b3-b66d-ef6178503721",
    "name": "Tripi",
    "state_id": "d2da63f1-456c-4405-8e5f-605b8139460e"
  },
  {
    "id": "e4a96020-268f-4303-94de-c88625a9b0b9",
    "name": "Triscina",
    "state_id": "d2da63f1-456c-4405-8e5f-605b8139460e"
  },
  {
    "id": "0330ada0-be0a-4c04-83a2-6ad3a371182b",
    "name": "Troina",
    "state_id": "d2da63f1-456c-4405-8e5f-605b8139460e"
  },
  {
    "id": "8090118b-160d-46a7-8fea-f47faf24e53b",
    "name": "Tusa",
    "state_id": "d2da63f1-456c-4405-8e5f-605b8139460e"
  },
  {
    "id": "ab9ff3e7-9dee-417e-b8bb-dda59f5994be",
    "name": "Ucria",
    "state_id": "d2da63f1-456c-4405-8e5f-605b8139460e"
  },
  {
    "id": "5b2f34f1-6678-4324-998e-5b313c8a5fef",
    "name": "Ustica",
    "state_id": "d2da63f1-456c-4405-8e5f-605b8139460e"
  },
  {
    "id": "79063f64-7cae-4453-abc3-fe53adc9fcf4",
    "name": "Valderice",
    "state_id": "d2da63f1-456c-4405-8e5f-605b8139460e"
  },
  {
    "id": "188bdc8c-a741-48a6-8a20-228e5ca09c9a",
    "name": "Valdina",
    "state_id": "d2da63f1-456c-4405-8e5f-605b8139460e"
  },
  {
    "id": "3187c04f-9e4e-4b4e-a121-ac26d9f7bc24",
    "name": "Valguarnera Caropepe",
    "state_id": "d2da63f1-456c-4405-8e5f-605b8139460e"
  },
  {
    "id": "0b9036c9-0827-4d88-a24e-db7cff6ed369",
    "name": "Valledolmo",
    "state_id": "d2da63f1-456c-4405-8e5f-605b8139460e"
  },
  {
    "id": "ad93996e-b4c9-4588-8b4b-35ebc4837300",
    "name": "Vallelunga Pratameno",
    "state_id": "d2da63f1-456c-4405-8e5f-605b8139460e"
  },
  {
    "id": "cfe96d63-085e-4a1c-a53e-d4a959f33aac",
    "name": "Valverde",
    "state_id": "d2da63f1-456c-4405-8e5f-605b8139460e"
  },
  {
    "id": "b0fca476-5b4e-4722-a4a1-e11d3bc5bcbb",
    "name": "Vambolieri",
    "state_id": "d2da63f1-456c-4405-8e5f-605b8139460e"
  },
  {
    "id": "6db428bb-064f-4b29-ad57-e678151f55f8",
    "name": "Venetico Marina",
    "state_id": "d2da63f1-456c-4405-8e5f-605b8139460e"
  },
  {
    "id": "d144ddad-0bf7-414c-a5d6-0e895d56ed25",
    "name": "Venetico Superiore",
    "state_id": "d2da63f1-456c-4405-8e5f-605b8139460e"
  },
  {
    "id": "fa0505b3-7e88-421b-b038-12dcfe098d52",
    "name": "Ventimiglia di Sicilia",
    "state_id": "d2da63f1-456c-4405-8e5f-605b8139460e"
  },
  {
    "id": "e72bfa4a-c515-4380-bd8b-741fb1b35434",
    "name": "Viagrande",
    "state_id": "d2da63f1-456c-4405-8e5f-605b8139460e"
  },
  {
    "id": "7fc021df-68fe-476d-bc2e-b835c027ecdc",
    "name": "Vicari",
    "state_id": "d2da63f1-456c-4405-8e5f-605b8139460e"
  },
  {
    "id": "03a8bc38-11bf-497e-9293-f2d081b2ea18",
    "name": "Vigliatore 2",
    "state_id": "d2da63f1-456c-4405-8e5f-605b8139460e"
  },
  {
    "id": "a7ae0e87-a090-4a86-863f-77eeffed36ad",
    "name": "Villa Ciambra",
    "state_id": "d2da63f1-456c-4405-8e5f-605b8139460e"
  },
  {
    "id": "b455ffd3-aec8-4055-83e2-b0d4aa27ef51",
    "name": "Villabate",
    "state_id": "d2da63f1-456c-4405-8e5f-605b8139460e"
  },
  {
    "id": "2a66debb-80ea-4a35-a206-897f41fe8ac3",
    "name": "Villafranca Sicula",
    "state_id": "d2da63f1-456c-4405-8e5f-605b8139460e"
  },
  {
    "id": "5fe94ac5-5289-4cae-af28-bf8f0d829d72",
    "name": "Villafranca Tirrena",
    "state_id": "d2da63f1-456c-4405-8e5f-605b8139460e"
  },
  {
    "id": "6ac3876c-14c3-4844-8aca-d892b3244a4f",
    "name": "Villafrati",
    "state_id": "d2da63f1-456c-4405-8e5f-605b8139460e"
  },
  {
    "id": "b7a8f6a6-73f9-4826-aebd-7a6ec9836c28",
    "name": "Villaggio del Pino-Le Ginestre",
    "state_id": "d2da63f1-456c-4405-8e5f-605b8139460e"
  },
  {
    "id": "84f79686-ae56-42f4-8c45-3fec90d6c940",
    "name": "Villalba",
    "state_id": "d2da63f1-456c-4405-8e5f-605b8139460e"
  },
  {
    "id": "1734c075-8e92-4894-b9fe-e8ced6cf1e2e",
    "name": "Villarosa",
    "state_id": "d2da63f1-456c-4405-8e5f-605b8139460e"
  },
  {
    "id": "ddcad6fe-c795-49f2-a93b-302c1f7e905e",
    "name": "Villaseta",
    "state_id": "d2da63f1-456c-4405-8e5f-605b8139460e"
  },
  {
    "id": "0e369ea9-deb3-423f-8eb5-f0f50285991f",
    "name": "Villasmundo",
    "state_id": "d2da63f1-456c-4405-8e5f-605b8139460e"
  },
  {
    "id": "43c485d5-1ce1-4c9a-a0bc-f8267576546d",
    "name": "Vita",
    "state_id": "d2da63f1-456c-4405-8e5f-605b8139460e"
  },
  {
    "id": "9e234e6c-74f7-4724-aba8-c2e69c22e194",
    "name": "Vittoria",
    "state_id": "d2da63f1-456c-4405-8e5f-605b8139460e"
  },
  {
    "id": "4cbe62b9-203b-4eea-87d2-6212ef3b349a",
    "name": "Vizzini",
    "state_id": "d2da63f1-456c-4405-8e5f-605b8139460e"
  },
  {
    "id": "add5e832-269d-422a-92e0-254fd4fae81a",
    "name": "Zafferana Etnea",
    "state_id": "d2da63f1-456c-4405-8e5f-605b8139460e"
  }
]