[
  {
    "id": "3dd169fa-6660-415b-b622-0d1e05f9bcf1",
    "name": "Ābādeh",
    "state_id": "d3ee45c9-9e85-49c7-85a6-740bff8ab7c7"
  },
  {
    "id": "47175e43-92e3-40fc-9e04-8b46f428f24a",
    "name": "Akbarābād",
    "state_id": "d3ee45c9-9e85-49c7-85a6-740bff8ab7c7"
  },
  {
    "id": "647b964c-2f29-4e65-b456-b51aa8554d10",
    "name": "Dārāb",
    "state_id": "d3ee45c9-9e85-49c7-85a6-740bff8ab7c7"
  },
  {
    "id": "68752cab-c957-4738-af11-43eb63e89a45",
    "name": "Fasā",
    "state_id": "d3ee45c9-9e85-49c7-85a6-740bff8ab7c7"
  },
  {
    "id": "90c5e63d-592d-4ff6-ac6a-a7275d20069f",
    "name": "Fīrūzābād",
    "state_id": "d3ee45c9-9e85-49c7-85a6-740bff8ab7c7"
  },
  {
    "id": "8bf936f1-6d85-4c5d-b216-273534533bc6",
    "name": "Gerāsh",
    "state_id": "d3ee45c9-9e85-49c7-85a6-740bff8ab7c7"
  },
  {
    "id": "1a3c5524-3bb8-45d8-bb2a-75c8ce240505",
    "name": "Kāzerūn",
    "state_id": "d3ee45c9-9e85-49c7-85a6-740bff8ab7c7"
  },
  {
    "id": "7b960c7d-1f5d-416b-a065-0bdd4f880812",
    "name": "Mamasanī",
    "state_id": "d3ee45c9-9e85-49c7-85a6-740bff8ab7c7"
  },
  {
    "id": "7b26dc7c-8bd1-4fed-b40e-0d3173253d2d",
    "name": "Marvdasht",
    "state_id": "d3ee45c9-9e85-49c7-85a6-740bff8ab7c7"
  },
  {
    "id": "0fe240f8-1bef-4854-8107-2f2e8c6a193d",
    "name": "Mohr",
    "state_id": "d3ee45c9-9e85-49c7-85a6-740bff8ab7c7"
  },
  {
    "id": "90af9759-b1f9-4fa6-8c39-fd9cd7e42e11",
    "name": "Neyrīz",
    "state_id": "d3ee45c9-9e85-49c7-85a6-740bff8ab7c7"
  },
  {
    "id": "e945bc7f-5b4c-449e-a030-ee181f0676ca",
    "name": "Nūrābād",
    "state_id": "d3ee45c9-9e85-49c7-85a6-740bff8ab7c7"
  },
  {
    "id": "84214513-5f5a-4f62-a813-b614b22dd597",
    "name": "Pāsārgād",
    "state_id": "d3ee45c9-9e85-49c7-85a6-740bff8ab7c7"
  },
  {
    "id": "00607b5d-71b7-4ca0-959c-2972a4e94d63",
    "name": "Rostam",
    "state_id": "d3ee45c9-9e85-49c7-85a6-740bff8ab7c7"
  },
  {
    "id": "b5234868-3c40-4780-8d56-a21c4a76f30a",
    "name": "Shahr-e Qadīm-e Lār",
    "state_id": "d3ee45c9-9e85-49c7-85a6-740bff8ab7c7"
  },
  {
    "id": "f090c748-3039-43e5-8cb8-98e1ac344433",
    "name": "Shahrestān-e Ābādeh",
    "state_id": "d3ee45c9-9e85-49c7-85a6-740bff8ab7c7"
  },
  {
    "id": "e4c2ba35-b00a-435e-b0c7-7f170323da4d",
    "name": "Shahrestān-e Arsanjān",
    "state_id": "d3ee45c9-9e85-49c7-85a6-740bff8ab7c7"
  },
  {
    "id": "74619715-0d5c-4776-98e3-42e42585b858",
    "name": "Shahrestān-e Bavānāt",
    "state_id": "d3ee45c9-9e85-49c7-85a6-740bff8ab7c7"
  },
  {
    "id": "115dd01e-34de-4092-bd31-7daf7759b8cb",
    "name": "Shahrestān-e Dārāb",
    "state_id": "d3ee45c9-9e85-49c7-85a6-740bff8ab7c7"
  },
  {
    "id": "6bbde1cd-a2c9-438b-8b77-2c92e1deb3a9",
    "name": "Shahrestān-e Eqlīd",
    "state_id": "d3ee45c9-9e85-49c7-85a6-740bff8ab7c7"
  },
  {
    "id": "e87c82fe-58bd-42ba-b0db-4e4320ac301f",
    "name": "Shahrestān-e Estahbān",
    "state_id": "d3ee45c9-9e85-49c7-85a6-740bff8ab7c7"
  },
  {
    "id": "d9f056b5-dd14-439b-adac-42669f5ac805",
    "name": "Shahrestān-e Farāshband",
    "state_id": "d3ee45c9-9e85-49c7-85a6-740bff8ab7c7"
  },
  {
    "id": "8a144037-9463-48a5-971b-a7fcdaed1819",
    "name": "Shahrestān-e Fasā",
    "state_id": "d3ee45c9-9e85-49c7-85a6-740bff8ab7c7"
  },
  {
    "id": "088d1a75-48b1-4f5b-bb11-72c31221cd71",
    "name": "Shahrestān-e Fīrūzābād",
    "state_id": "d3ee45c9-9e85-49c7-85a6-740bff8ab7c7"
  },
  {
    "id": "c384499d-3840-47bc-8804-32ae8f7ab62c",
    "name": "Shahrestān-e Gerāsh",
    "state_id": "d3ee45c9-9e85-49c7-85a6-740bff8ab7c7"
  },
  {
    "id": "3b24aa19-8626-4540-9797-1ac605decf96",
    "name": "Shahrestān-e Kavār",
    "state_id": "d3ee45c9-9e85-49c7-85a6-740bff8ab7c7"
  },
  {
    "id": "4524d987-c9ac-42af-85b3-ccf9b19bcd90",
    "name": "Shahrestān-e Kāzerūn",
    "state_id": "d3ee45c9-9e85-49c7-85a6-740bff8ab7c7"
  },
  {
    "id": "b43bb3fc-71a7-4fb4-ab3a-00dc6147c47d",
    "name": "Shahrestān-e Kherāmeh",
    "state_id": "d3ee45c9-9e85-49c7-85a6-740bff8ab7c7"
  },
  {
    "id": "38616d71-3071-4276-888f-0ab22b3fb12d",
    "name": "Shahrestān-e Khorrambīd",
    "state_id": "d3ee45c9-9e85-49c7-85a6-740bff8ab7c7"
  },
  {
    "id": "898bc4bb-114a-471d-985a-1aea7570ae6e",
    "name": "Shahrestān-e Lāmerd",
    "state_id": "d3ee45c9-9e85-49c7-85a6-740bff8ab7c7"
  },
  {
    "id": "c8bdc57c-9d08-4d76-a8d5-e75a91ade1f7",
    "name": "Shahrestān-e Lārestān",
    "state_id": "d3ee45c9-9e85-49c7-85a6-740bff8ab7c7"
  },
  {
    "id": "bc936c64-2248-4c7a-8335-5e41e088643e",
    "name": "Shahrestān-e Neyrīz",
    "state_id": "d3ee45c9-9e85-49c7-85a6-740bff8ab7c7"
  },
  {
    "id": "a2190f6a-f6d3-4602-a7ed-4c2644f9a1fd",
    "name": "Shahrestān-e Pāsārgād",
    "state_id": "d3ee45c9-9e85-49c7-85a6-740bff8ab7c7"
  },
  {
    "id": "92059fb0-ceb5-448c-b23d-713678e34347",
    "name": "Shahrestān-e Qīr va Kārzīn",
    "state_id": "d3ee45c9-9e85-49c7-85a6-740bff8ab7c7"
  },
  {
    "id": "5c1d173a-5f58-46f0-8bae-012aaaedeeb4",
    "name": "Shahrestān-e Sarvestān",
    "state_id": "d3ee45c9-9e85-49c7-85a6-740bff8ab7c7"
  },
  {
    "id": "f2cf7952-52c0-4ad2-8843-59db24751d33",
    "name": "Shahrestān-e Sepīdān",
    "state_id": "d3ee45c9-9e85-49c7-85a6-740bff8ab7c7"
  },
  {
    "id": "6a71d737-328d-4062-9dba-f5cac47311f7",
    "name": "Shahrestān-e Shīrāz",
    "state_id": "d3ee45c9-9e85-49c7-85a6-740bff8ab7c7"
  },
  {
    "id": "a63360db-a56d-4a04-97a6-b783760b7d15",
    "name": "Shahrestān-e Zarrīn Dasht",
    "state_id": "d3ee45c9-9e85-49c7-85a6-740bff8ab7c7"
  },
  {
    "id": "638bb9bf-802a-4d28-8c8d-956ba8dd368a",
    "name": "Shiraz",
    "state_id": "d3ee45c9-9e85-49c7-85a6-740bff8ab7c7"
  }
]