[
  {
    "id": "f69c1d18-60e8-45cc-90bb-fc5815eb7050",
    "name": "As Sars",
    "state_id": "d496aa73-8c37-450c-9f62-51d7253768de"
  },
  {
    "id": "a00dd443-d894-4862-bd79-28abe0f9c847",
    "name": "El Kef",
    "state_id": "d496aa73-8c37-450c-9f62-51d7253768de"
  },
  {
    "id": "f42d9553-a7b1-40b4-a5ce-64622c112905",
    "name": "El Ksour",
    "state_id": "d496aa73-8c37-450c-9f62-51d7253768de"
  },
  {
    "id": "c54d1a8d-4707-4d6b-8177-bc5aca1a133a",
    "name": "Menzel Salem",
    "state_id": "d496aa73-8c37-450c-9f62-51d7253768de"
  },
  {
    "id": "a7ffe82c-d46a-4cf9-8bc1-e4f01d9d98d3",
    "name": "Nibbar",
    "state_id": "d496aa73-8c37-450c-9f62-51d7253768de"
  },
  {
    "id": "d6a2bf2e-e170-4bba-8a87-8f33b44b7fc2",
    "name": "Sakiet Sidi Youssef",
    "state_id": "d496aa73-8c37-450c-9f62-51d7253768de"
  },
  {
    "id": "8d68117b-99e4-46d9-83de-7be72f5d2d85",
    "name": "Tajerouine",
    "state_id": "d496aa73-8c37-450c-9f62-51d7253768de"
  }
]