[
  {
    "id": "c388133d-0cec-434f-9961-e4bb08ff2e3d",
    "name": "Buga",
    "state_id": "d54946dd-1693-4a8b-bdf2-a32c86b9f35b"
  },
  {
    "id": "cf462409-4f1a-4ab8-bfbb-b58def81c0f3",
    "name": "Doma",
    "state_id": "d54946dd-1693-4a8b-bdf2-a32c86b9f35b"
  },
  {
    "id": "4eba3c34-c4b0-4409-b204-3ea74506e787",
    "name": "Keffi",
    "state_id": "d54946dd-1693-4a8b-bdf2-a32c86b9f35b"
  },
  {
    "id": "97af432b-7a5e-4d73-90a0-8e3a2e4823c3",
    "name": "Lafia",
    "state_id": "d54946dd-1693-4a8b-bdf2-a32c86b9f35b"
  },
  {
    "id": "a975b524-693c-445d-84ae-3a56005dfb07",
    "name": "Nasarawa",
    "state_id": "d54946dd-1693-4a8b-bdf2-a32c86b9f35b"
  },
  {
    "id": "a1676eec-ccc8-4c83-a6f7-835cc98985e9",
    "name": "Wamba",
    "state_id": "d54946dd-1693-4a8b-bdf2-a32c86b9f35b"
  }
]