[
  {
    "id": "b9cf1842-b153-4c28-83f6-df0269cfdc2c",
    "name": "Bahçesaray",
    "state_id": "d5eaada3-95f2-4ae1-b8cc-8044c79a8439"
  },
  {
    "id": "55976bbe-1694-44c0-b230-e1e4d01e136e",
    "name": "Başkale",
    "state_id": "d5eaada3-95f2-4ae1-b8cc-8044c79a8439"
  },
  {
    "id": "6e0a5ad6-c14d-4720-b035-624008bbe0ce",
    "name": "Çaldıran",
    "state_id": "d5eaada3-95f2-4ae1-b8cc-8044c79a8439"
  },
  {
    "id": "d57eacf9-081a-4e50-9b00-3ccfc2234d0d",
    "name": "Çatak İlçesi",
    "state_id": "d5eaada3-95f2-4ae1-b8cc-8044c79a8439"
  },
  {
    "id": "797fb8ce-6e62-4b06-94f0-7aa8a124c735",
    "name": "Edremit",
    "state_id": "d5eaada3-95f2-4ae1-b8cc-8044c79a8439"
  },
  {
    "id": "aa6c7347-5b0f-49d4-8cf4-641bb0623e6e",
    "name": "Erciş",
    "state_id": "d5eaada3-95f2-4ae1-b8cc-8044c79a8439"
  },
  {
    "id": "2dc843a3-37e9-40da-8c8a-48c8501d486a",
    "name": "Gevaş",
    "state_id": "d5eaada3-95f2-4ae1-b8cc-8044c79a8439"
  },
  {
    "id": "5e255c71-fd32-4a7a-b5dd-edeecb20a089",
    "name": "Gürpınar",
    "state_id": "d5eaada3-95f2-4ae1-b8cc-8044c79a8439"
  },
  {
    "id": "dad205a4-8b06-4324-b89d-b95ef0f6cfa5",
    "name": "İpekyolu",
    "state_id": "d5eaada3-95f2-4ae1-b8cc-8044c79a8439"
  },
  {
    "id": "9ec23cfd-197b-433a-803e-737d6b51ddd8",
    "name": "Konalga",
    "state_id": "d5eaada3-95f2-4ae1-b8cc-8044c79a8439"
  },
  {
    "id": "e9960c71-81a5-4997-8560-38c919d314b0",
    "name": "Muradiye",
    "state_id": "d5eaada3-95f2-4ae1-b8cc-8044c79a8439"
  },
  {
    "id": "db0cbd5e-658c-4060-bfa6-2d53920d700b",
    "name": "Özalp",
    "state_id": "d5eaada3-95f2-4ae1-b8cc-8044c79a8439"
  },
  {
    "id": "f466b911-2fb8-46ab-9118-c126468a4637",
    "name": "Saray",
    "state_id": "d5eaada3-95f2-4ae1-b8cc-8044c79a8439"
  },
  {
    "id": "506ab6b6-badd-47ca-88f6-9577b7e0943b",
    "name": "Tuşpa",
    "state_id": "d5eaada3-95f2-4ae1-b8cc-8044c79a8439"
  },
  {
    "id": "3c937804-e7e1-49b2-b767-949a2ea33438",
    "name": "Van",
    "state_id": "d5eaada3-95f2-4ae1-b8cc-8044c79a8439"
  }
]