[
  {
    "id": "a7454e75-899c-4049-9b66-fa4309ebf563",
    "name": "Akunk’",
    "state_id": "d7a96ab3-13ea-4303-97a6-c40225a8ccce"
  },
  {
    "id": "d976655a-f661-4bde-852a-39553a77d5dd",
    "name": "Astghadzor",
    "state_id": "d7a96ab3-13ea-4303-97a6-c40225a8ccce"
  },
  {
    "id": "5d3475cf-253c-4c3b-a4be-5329dabaabb3",
    "name": "Chambarak",
    "state_id": "d7a96ab3-13ea-4303-97a6-c40225a8ccce"
  },
  {
    "id": "818229ab-9ddf-4792-9c34-6663483f01c5",
    "name": "Ddmashen",
    "state_id": "d7a96ab3-13ea-4303-97a6-c40225a8ccce"
  },
  {
    "id": "7fb5c258-7c57-480f-b18b-06ff9be52d30",
    "name": "Drakhtik",
    "state_id": "d7a96ab3-13ea-4303-97a6-c40225a8ccce"
  },
  {
    "id": "a184186b-0da7-48d8-af8c-9c0620cd66e7",
    "name": "Dzoragyugh",
    "state_id": "d7a96ab3-13ea-4303-97a6-c40225a8ccce"
  },
  {
    "id": "d6c373a6-844f-4ac8-bc60-e51b83ea7a37",
    "name": "Gagarin",
    "state_id": "d7a96ab3-13ea-4303-97a6-c40225a8ccce"
  },
  {
    "id": "11e51ec0-94f4-4cb2-b966-0fdeeeecde46",
    "name": "Gandzak",
    "state_id": "d7a96ab3-13ea-4303-97a6-c40225a8ccce"
  },
  {
    "id": "f037ee3d-f099-43d7-9ee6-da4df658d185",
    "name": "Gavarr",
    "state_id": "d7a96ab3-13ea-4303-97a6-c40225a8ccce"
  },
  {
    "id": "5f645c63-baf1-41dd-8cc8-ce7776d0ce40",
    "name": "Geghamasar",
    "state_id": "d7a96ab3-13ea-4303-97a6-c40225a8ccce"
  },
  {
    "id": "645056b2-3fc0-4d10-a623-73e63a9621bc",
    "name": "Geghamavan",
    "state_id": "d7a96ab3-13ea-4303-97a6-c40225a8ccce"
  },
  {
    "id": "aab70acc-87a9-4ef5-92d5-575e0fa7e798",
    "name": "Karanlukh",
    "state_id": "d7a96ab3-13ea-4303-97a6-c40225a8ccce"
  },
  {
    "id": "10097fec-f368-442b-a4db-b6fbadb31020",
    "name": "Karchaghbyur",
    "state_id": "d7a96ab3-13ea-4303-97a6-c40225a8ccce"
  },
  {
    "id": "68055f98-38fe-4cc2-9b39-ca4dec56a6ef",
    "name": "Lanjaghbyur",
    "state_id": "d7a96ab3-13ea-4303-97a6-c40225a8ccce"
  },
  {
    "id": "baba41ed-3db7-4ddc-b64e-3f30b5c4a7e5",
    "name": "Lchap’",
    "state_id": "d7a96ab3-13ea-4303-97a6-c40225a8ccce"
  },
  {
    "id": "91a35f06-6eb3-4a65-a5a4-5649eaa1a560",
    "name": "Lchashen",
    "state_id": "d7a96ab3-13ea-4303-97a6-c40225a8ccce"
  },
  {
    "id": "2d8f4dc1-027a-4ef9-ae1f-9b9c18e71404",
    "name": "Lichk’",
    "state_id": "d7a96ab3-13ea-4303-97a6-c40225a8ccce"
  },
  {
    "id": "89b0fc2a-360e-4a6c-b200-d3577202854c",
    "name": "Madina",
    "state_id": "d7a96ab3-13ea-4303-97a6-c40225a8ccce"
  },
  {
    "id": "d5397484-8892-4b03-9052-a02edab09ef7",
    "name": "Martuni",
    "state_id": "d7a96ab3-13ea-4303-97a6-c40225a8ccce"
  },
  {
    "id": "d19679e9-6cd0-4957-8640-cd543a3d6227",
    "name": "Mets Masrik",
    "state_id": "d7a96ab3-13ea-4303-97a6-c40225a8ccce"
  },
  {
    "id": "8aea60d2-24fc-4fc0-ab42-8d704e8f39d6",
    "name": "Nerk’in Getashen",
    "state_id": "d7a96ab3-13ea-4303-97a6-c40225a8ccce"
  },
  {
    "id": "b586d12e-4d41-445c-be92-03ea42f49662",
    "name": "Noratus",
    "state_id": "d7a96ab3-13ea-4303-97a6-c40225a8ccce"
  },
  {
    "id": "4af8c048-5f98-49b2-9101-d53ec61e528e",
    "name": "Sarukhan",
    "state_id": "d7a96ab3-13ea-4303-97a6-c40225a8ccce"
  },
  {
    "id": "a29aa913-1894-4370-9d02-c25a49de80c9",
    "name": "Sevan",
    "state_id": "d7a96ab3-13ea-4303-97a6-c40225a8ccce"
  },
  {
    "id": "27daba80-48b3-4e56-97bf-6f3ddf161482",
    "name": "Tsovagyugh",
    "state_id": "d7a96ab3-13ea-4303-97a6-c40225a8ccce"
  },
  {
    "id": "ba4144a7-a364-45d1-9b88-6531e0f197b0",
    "name": "Tsovak",
    "state_id": "d7a96ab3-13ea-4303-97a6-c40225a8ccce"
  },
  {
    "id": "3481452f-76ce-45de-b622-b854816b1305",
    "name": "Tsovasar",
    "state_id": "d7a96ab3-13ea-4303-97a6-c40225a8ccce"
  },
  {
    "id": "5d6740a9-0c0a-4271-abc4-9c688c25c51c",
    "name": "Tsovazard",
    "state_id": "d7a96ab3-13ea-4303-97a6-c40225a8ccce"
  },
  {
    "id": "81940e62-126c-4da5-be43-c599192df8d1",
    "name": "Tsovinar",
    "state_id": "d7a96ab3-13ea-4303-97a6-c40225a8ccce"
  },
  {
    "id": "8234b890-8ce2-4829-b6af-e6b64f622709",
    "name": "Vaghashen",
    "state_id": "d7a96ab3-13ea-4303-97a6-c40225a8ccce"
  },
  {
    "id": "e04abce2-5e9f-40d7-a7a4-8e183c915178",
    "name": "Vahan",
    "state_id": "d7a96ab3-13ea-4303-97a6-c40225a8ccce"
  },
  {
    "id": "3ef85d22-d9f8-49ee-b45c-d6d443af2dc0",
    "name": "Vardenik",
    "state_id": "d7a96ab3-13ea-4303-97a6-c40225a8ccce"
  },
  {
    "id": "30640eef-63dc-4dde-bb26-d5e39cab86fd",
    "name": "Vardenis",
    "state_id": "d7a96ab3-13ea-4303-97a6-c40225a8ccce"
  },
  {
    "id": "6d198421-dab0-4296-8924-8437444c317f",
    "name": "Varser",
    "state_id": "d7a96ab3-13ea-4303-97a6-c40225a8ccce"
  },
  {
    "id": "eb105970-f87b-4e1d-9494-3264351e1d55",
    "name": "Verin Getashen",
    "state_id": "d7a96ab3-13ea-4303-97a6-c40225a8ccce"
  },
  {
    "id": "21f295ec-b017-4786-95c4-91068ff10d2e",
    "name": "Yeranos",
    "state_id": "d7a96ab3-13ea-4303-97a6-c40225a8ccce"
  }
]