[
  {
    "id": "e5bf6db8-422c-4a13-b366-6b0712fee54d",
    "name": "Abuyon",
    "state_id": "d825f983-bf3e-4016-9207-ca35944bea8c"
  },
  {
    "id": "bb51a0b5-c574-455c-8222-39925ae5b0df",
    "name": "Aga",
    "state_id": "d825f983-bf3e-4016-9207-ca35944bea8c"
  },
  {
    "id": "54881529-c38e-4a39-8f00-9c6167dc9523",
    "name": "Agdangan",
    "state_id": "d825f983-bf3e-4016-9207-ca35944bea8c"
  },
  {
    "id": "f2c6ec35-9a96-47df-98fe-acd3126c1161",
    "name": "Agoncillo",
    "state_id": "d825f983-bf3e-4016-9207-ca35944bea8c"
  },
  {
    "id": "22431546-6283-4c4e-8719-4c1f907113dc",
    "name": "Alabat",
    "state_id": "d825f983-bf3e-4016-9207-ca35944bea8c"
  },
  {
    "id": "745813dd-33a4-4b6d-a9fe-c178cc5be497",
    "name": "Alaminos",
    "state_id": "d825f983-bf3e-4016-9207-ca35944bea8c"
  },
  {
    "id": "10e40e69-d644-49d4-abb0-e3950665f5ba",
    "name": "Alfonso",
    "state_id": "d825f983-bf3e-4016-9207-ca35944bea8c"
  },
  {
    "id": "0d863d25-5d5a-4ea7-a1d7-618136301030",
    "name": "Aliang",
    "state_id": "d825f983-bf3e-4016-9207-ca35944bea8c"
  },
  {
    "id": "ad0c04b0-cbb5-4f4e-9487-ea04fdf3bc3f",
    "name": "Alitagtag",
    "state_id": "d825f983-bf3e-4016-9207-ca35944bea8c"
  },
  {
    "id": "8f252c7d-1de5-420d-9b8e-0713f321a13b",
    "name": "Alupay",
    "state_id": "d825f983-bf3e-4016-9207-ca35944bea8c"
  },
  {
    "id": "96f8a24a-37e8-4633-b3bd-f6fc0dfb8128",
    "name": "Amadeo",
    "state_id": "d825f983-bf3e-4016-9207-ca35944bea8c"
  },
  {
    "id": "f0c7b68b-4f8a-4905-a7e0-85d1a60a41a5",
    "name": "Ambulong",
    "state_id": "d825f983-bf3e-4016-9207-ca35944bea8c"
  },
  {
    "id": "978ddbdc-a3e7-4cff-8dce-31d0ba9d457e",
    "name": "Angono",
    "state_id": "d825f983-bf3e-4016-9207-ca35944bea8c"
  },
  {
    "id": "608ed424-feae-4b9c-ba62-3f53305c6a08",
    "name": "Antipolo",
    "state_id": "d825f983-bf3e-4016-9207-ca35944bea8c"
  },
  {
    "id": "a3b53b7e-16c3-4429-989c-4255a1702a9e",
    "name": "Anuling",
    "state_id": "d825f983-bf3e-4016-9207-ca35944bea8c"
  },
  {
    "id": "9946fd3f-ef5e-46dd-990b-5c04b76d9112",
    "name": "Aplaya",
    "state_id": "d825f983-bf3e-4016-9207-ca35944bea8c"
  },
  {
    "id": "c025c829-26ac-4717-aeec-19abc88385af",
    "name": "Atimonan",
    "state_id": "d825f983-bf3e-4016-9207-ca35944bea8c"
  },
  {
    "id": "a627c221-07e1-4a30-bb06-a36b8f218823",
    "name": "Aurora",
    "state_id": "d825f983-bf3e-4016-9207-ca35944bea8c"
  },
  {
    "id": "bf7a0af9-6cf4-4e7b-8933-7969d73bc51c",
    "name": "Aya",
    "state_id": "d825f983-bf3e-4016-9207-ca35944bea8c"
  },
  {
    "id": "79f7f07b-ef61-4c11-938b-3f4fb938f649",
    "name": "Ayusan Uno",
    "state_id": "d825f983-bf3e-4016-9207-ca35944bea8c"
  },
  {
    "id": "84c6c0f7-3861-48b9-98c2-30847c3d3863",
    "name": "Bacoor",
    "state_id": "d825f983-bf3e-4016-9207-ca35944bea8c"
  },
  {
    "id": "2cd039d6-a063-4468-95f8-e9f5202afd64",
    "name": "Bagalangit",
    "state_id": "d825f983-bf3e-4016-9207-ca35944bea8c"
  },
  {
    "id": "8c3516a1-8c32-4c39-9b9b-24a4e7e5e407",
    "name": "Bagombong",
    "state_id": "d825f983-bf3e-4016-9207-ca35944bea8c"
  },
  {
    "id": "91252db5-728a-4a11-9431-06bf26d0a963",
    "name": "Bagong Pagasa",
    "state_id": "d825f983-bf3e-4016-9207-ca35944bea8c"
  },
  {
    "id": "a44d03e2-05b9-4a03-8107-10dee24c7ccd",
    "name": "Bagupaye",
    "state_id": "d825f983-bf3e-4016-9207-ca35944bea8c"
  },
  {
    "id": "850ee5a2-25ba-4be0-8ab9-753ce11891e7",
    "name": "Balagtasin",
    "state_id": "d825f983-bf3e-4016-9207-ca35944bea8c"
  },
  {
    "id": "a72649ef-bbb0-4aed-b7da-f0caef8f3703",
    "name": "Balayan",
    "state_id": "d825f983-bf3e-4016-9207-ca35944bea8c"
  },
  {
    "id": "1979fe3f-2667-4f1d-a983-84d9347223d0",
    "name": "Balele",
    "state_id": "d825f983-bf3e-4016-9207-ca35944bea8c"
  },
  {
    "id": "34a1bc1f-bc5e-4a54-b5f6-7e4820689137",
    "name": "Balete",
    "state_id": "d825f983-bf3e-4016-9207-ca35944bea8c"
  },
  {
    "id": "b94e82e5-dca9-4a66-bfe2-873497246c38",
    "name": "Balibago",
    "state_id": "d825f983-bf3e-4016-9207-ca35944bea8c"
  },
  {
    "id": "f7e42d44-8d29-40a4-930c-a3901e58d2d5",
    "name": "Balite Segundo",
    "state_id": "d825f983-bf3e-4016-9207-ca35944bea8c"
  },
  {
    "id": "7f1bffe3-a527-4f67-8ae9-d15979e76220",
    "name": "Balitoc",
    "state_id": "d825f983-bf3e-4016-9207-ca35944bea8c"
  },
  {
    "id": "f42f291a-57e2-4db5-9829-4bbc7262d4c8",
    "name": "Banaba",
    "state_id": "d825f983-bf3e-4016-9207-ca35944bea8c"
  },
  {
    "id": "387f8e33-d0f6-4b05-ae3a-0d2bd21a489a",
    "name": "Banalo",
    "state_id": "d825f983-bf3e-4016-9207-ca35944bea8c"
  },
  {
    "id": "68d357e6-a802-483b-bcbb-a402a9ee68ad",
    "name": "Banaybanay",
    "state_id": "d825f983-bf3e-4016-9207-ca35944bea8c"
  },
  {
    "id": "dc37a14b-9234-4137-b94c-f6e202ebfe1c",
    "name": "Banilad",
    "state_id": "d825f983-bf3e-4016-9207-ca35944bea8c"
  },
  {
    "id": "e7281ba2-090e-4faa-8076-387fb44b7f46",
    "name": "Bantilan",
    "state_id": "d825f983-bf3e-4016-9207-ca35944bea8c"
  },
  {
    "id": "e0274492-3187-4c82-adbb-f9df69695970",
    "name": "Banugao",
    "state_id": "d825f983-bf3e-4016-9207-ca35944bea8c"
  },
  {
    "id": "3a738c12-c779-44f6-bd59-e6081af24928",
    "name": "Baras",
    "state_id": "d825f983-bf3e-4016-9207-ca35944bea8c"
  },
  {
    "id": "9d95e771-d51e-4db9-a7fc-5d129e13e9c2",
    "name": "Batangas",
    "state_id": "d825f983-bf3e-4016-9207-ca35944bea8c"
  },
  {
    "id": "9575fb1f-1e88-4fdc-aeb2-c5ae504de150",
    "name": "Batas",
    "state_id": "d825f983-bf3e-4016-9207-ca35944bea8c"
  },
  {
    "id": "03ffccff-6173-4434-a9c6-afcfcbcf2e6c",
    "name": "Bauan",
    "state_id": "d825f983-bf3e-4016-9207-ca35944bea8c"
  },
  {
    "id": "8b9907dd-d2c9-4521-90ae-2d9e6bcfe855",
    "name": "Bautista",
    "state_id": "d825f983-bf3e-4016-9207-ca35944bea8c"
  },
  {
    "id": "94dde89e-256a-48aa-bd66-22579be063ef",
    "name": "Bay",
    "state_id": "d825f983-bf3e-4016-9207-ca35944bea8c"
  },
  {
    "id": "3e314ff4-16dd-4bf3-a26b-6af5912108ab",
    "name": "Baybayin",
    "state_id": "d825f983-bf3e-4016-9207-ca35944bea8c"
  },
  {
    "id": "cddbbcae-d740-410a-af50-1527257c2fa1",
    "name": "Biga",
    "state_id": "d825f983-bf3e-4016-9207-ca35944bea8c"
  },
  {
    "id": "d306c30b-a476-46cc-b36f-f84eca34348f",
    "name": "Bignay Uno",
    "state_id": "d825f983-bf3e-4016-9207-ca35944bea8c"
  },
  {
    "id": "8e9b80ec-4741-4734-be66-5c14b96f1a95",
    "name": "Bilaran",
    "state_id": "d825f983-bf3e-4016-9207-ca35944bea8c"
  },
  {
    "id": "5484aea5-81ed-4219-a93b-ba4b613e7dc8",
    "name": "Bilog-Bilog",
    "state_id": "d825f983-bf3e-4016-9207-ca35944bea8c"
  },
  {
    "id": "95745b37-fa94-448d-aff9-06b284a4f9a1",
    "name": "Binahaan",
    "state_id": "d825f983-bf3e-4016-9207-ca35944bea8c"
  },
  {
    "id": "1d038097-5c68-4e2e-b353-b5d979395f6d",
    "name": "Biñan",
    "state_id": "d825f983-bf3e-4016-9207-ca35944bea8c"
  },
  {
    "id": "0c089e37-51fa-43c7-969d-6f40b37f563f",
    "name": "Binangonan",
    "state_id": "d825f983-bf3e-4016-9207-ca35944bea8c"
  },
  {
    "id": "7b4d08dd-53cd-4226-94ee-305253b8e461",
    "name": "Binay",
    "state_id": "d825f983-bf3e-4016-9207-ca35944bea8c"
  },
  {
    "id": "62983365-82bf-4a31-a59a-f4de7f4698a8",
    "name": "Binubusan",
    "state_id": "d825f983-bf3e-4016-9207-ca35944bea8c"
  },
  {
    "id": "2985bda4-d34a-419e-92c9-ff250f0f3d61",
    "name": "Binulasan",
    "state_id": "d825f983-bf3e-4016-9207-ca35944bea8c"
  },
  {
    "id": "e0d6c9ab-a776-4e5e-8bdc-965f680d36c6",
    "name": "Bitangan",
    "state_id": "d825f983-bf3e-4016-9207-ca35944bea8c"
  },
  {
    "id": "a88d6c1e-e5b8-465c-9461-2e230dd0805a",
    "name": "Bitin",
    "state_id": "d825f983-bf3e-4016-9207-ca35944bea8c"
  },
  {
    "id": "6a815720-974e-4bb4-a121-e345bbe3bbd9",
    "name": "Bolboc",
    "state_id": "d825f983-bf3e-4016-9207-ca35944bea8c"
  },
  {
    "id": "8fe62cd5-3bcf-44cd-bfc1-4b3647e26ce6",
    "name": "Bolo",
    "state_id": "d825f983-bf3e-4016-9207-ca35944bea8c"
  },
  {
    "id": "02749b63-3c4b-46a9-8b76-ce3681e1e992",
    "name": "Boot",
    "state_id": "d825f983-bf3e-4016-9207-ca35944bea8c"
  },
  {
    "id": "cb3e7a5b-40b3-4f03-8440-7986cd9ae344",
    "name": "Bosdak",
    "state_id": "d825f983-bf3e-4016-9207-ca35944bea8c"
  },
  {
    "id": "5f6fe287-2430-439a-add9-72560f5e23df",
    "name": "Bugaan",
    "state_id": "d825f983-bf3e-4016-9207-ca35944bea8c"
  },
  {
    "id": "24624f2f-96dc-4a2c-a118-9212a96952f8",
    "name": "Bukal",
    "state_id": "d825f983-bf3e-4016-9207-ca35944bea8c"
  },
  {
    "id": "f25a98c5-7a3e-4e4d-b13a-ee1a1840ac73",
    "name": "Bukal Sur",
    "state_id": "d825f983-bf3e-4016-9207-ca35944bea8c"
  },
  {
    "id": "bd66acf1-5da3-4c02-b948-8c99caddef29",
    "name": "Bulacnin",
    "state_id": "d825f983-bf3e-4016-9207-ca35944bea8c"
  },
  {
    "id": "206cbe0a-b389-48aa-a888-54d67c7dcaec",
    "name": "Bulihan",
    "state_id": "d825f983-bf3e-4016-9207-ca35944bea8c"
  },
  {
    "id": "6f3d402e-f561-4f6f-9a91-1e97cb61694f",
    "name": "Bungahan",
    "state_id": "d825f983-bf3e-4016-9207-ca35944bea8c"
  },
  {
    "id": "0d7abcf4-5dc3-4bf2-9f92-5eb43471b8c7",
    "name": "Bungoy",
    "state_id": "d825f983-bf3e-4016-9207-ca35944bea8c"
  },
  {
    "id": "bc771d80-962f-411f-97f0-602f4dfa95c9",
    "name": "Burdeos",
    "state_id": "d825f983-bf3e-4016-9207-ca35944bea8c"
  },
  {
    "id": "b966cdfc-808e-4c17-8ff5-83fe8e234e06",
    "name": "Cabanbanan",
    "state_id": "d825f983-bf3e-4016-9207-ca35944bea8c"
  },
  {
    "id": "2139f57b-520f-4de5-9666-7bf3762febf7",
    "name": "Cabatang",
    "state_id": "d825f983-bf3e-4016-9207-ca35944bea8c"
  },
  {
    "id": "29a09d73-c665-4d64-a56d-29f69d82ff10",
    "name": "Cabay",
    "state_id": "d825f983-bf3e-4016-9207-ca35944bea8c"
  },
  {
    "id": "33f3153e-af2e-49d5-9624-5c0cd414b0c2",
    "name": "Cabuyao",
    "state_id": "d825f983-bf3e-4016-9207-ca35944bea8c"
  },
  {
    "id": "f2995669-d8d8-4d68-8f23-592ac76af2ea",
    "name": "Cagsiay",
    "state_id": "d825f983-bf3e-4016-9207-ca35944bea8c"
  },
  {
    "id": "bae6fa81-87ed-4576-882c-b0d7c485a4e0",
    "name": "Cainta",
    "state_id": "d825f983-bf3e-4016-9207-ca35944bea8c"
  },
  {
    "id": "d6414e50-9035-4472-85ac-1c4bc5306b45",
    "name": "Calaca",
    "state_id": "d825f983-bf3e-4016-9207-ca35944bea8c"
  },
  {
    "id": "3eace2dc-53a9-4c17-817c-8b060a660180",
    "name": "Calamba",
    "state_id": "d825f983-bf3e-4016-9207-ca35944bea8c"
  },
  {
    "id": "f2a5ed6e-8e20-4773-8285-e918a78a4062",
    "name": "Calantas",
    "state_id": "d825f983-bf3e-4016-9207-ca35944bea8c"
  },
  {
    "id": "ea508490-f7d4-46e1-96b6-5a99bb960442",
    "name": "Calatagan",
    "state_id": "d825f983-bf3e-4016-9207-ca35944bea8c"
  },
  {
    "id": "3a038b89-93ce-4074-96c1-7ae49b5e3529",
    "name": "Calauag",
    "state_id": "d825f983-bf3e-4016-9207-ca35944bea8c"
  },
  {
    "id": "7509729e-a8c4-4364-a0e1-26856e08b579",
    "name": "Calauan",
    "state_id": "d825f983-bf3e-4016-9207-ca35944bea8c"
  },
  {
    "id": "0473e3a9-cff2-4d88-950c-bcbe792fc3c2",
    "name": "Calilayan",
    "state_id": "d825f983-bf3e-4016-9207-ca35944bea8c"
  },
  {
    "id": "f665c1f7-c874-436b-8d40-dc207ad397d2",
    "name": "Calubcub Dos",
    "state_id": "d825f983-bf3e-4016-9207-ca35944bea8c"
  },
  {
    "id": "1f6f64fe-32b7-443e-893e-897ea8f89d0a",
    "name": "Calumpang",
    "state_id": "d825f983-bf3e-4016-9207-ca35944bea8c"
  },
  {
    "id": "9c45f6ff-35d7-4602-9cc1-a50234ae858b",
    "name": "Cambuga",
    "state_id": "d825f983-bf3e-4016-9207-ca35944bea8c"
  },
  {
    "id": "46584d2f-c8dc-4229-8655-7107dc7283b0",
    "name": "Camohaguin",
    "state_id": "d825f983-bf3e-4016-9207-ca35944bea8c"
  },
  {
    "id": "ba083a4e-6fb9-40a8-90bd-bcf9a863fc52",
    "name": "Camp Flora",
    "state_id": "d825f983-bf3e-4016-9207-ca35944bea8c"
  },
  {
    "id": "a2cf36b9-14a5-4f20-8586-62da67c7ff5a",
    "name": "Candelaria",
    "state_id": "d825f983-bf3e-4016-9207-ca35944bea8c"
  },
  {
    "id": "7a83ab4a-89ca-45e6-941c-4f7bcbc3f765",
    "name": "Capuluan",
    "state_id": "d825f983-bf3e-4016-9207-ca35944bea8c"
  },
  {
    "id": "a549c252-62cf-47e9-81e0-4209bff1afe7",
    "name": "Cardona",
    "state_id": "d825f983-bf3e-4016-9207-ca35944bea8c"
  },
  {
    "id": "b4cbbc21-b517-49de-ad71-8ca97d4e7497",
    "name": "Carmona",
    "state_id": "d825f983-bf3e-4016-9207-ca35944bea8c"
  },
  {
    "id": "2c746a00-02c2-45b9-bcea-5f3e8d70dfef",
    "name": "Casay",
    "state_id": "d825f983-bf3e-4016-9207-ca35944bea8c"
  },
  {
    "id": "e00a453a-36ee-45a1-a12e-29cffae58477",
    "name": "Castañas",
    "state_id": "d825f983-bf3e-4016-9207-ca35944bea8c"
  },
  {
    "id": "2e9f877d-eaf2-4b2d-8ced-da6439359325",
    "name": "Casuguran",
    "state_id": "d825f983-bf3e-4016-9207-ca35944bea8c"
  },
  {
    "id": "9c64907e-95c7-40a7-b353-ef64232cce20",
    "name": "Catanauan",
    "state_id": "d825f983-bf3e-4016-9207-ca35944bea8c"
  },
  {
    "id": "66b5ff49-b37f-47d5-aa89-4fb38111a949",
    "name": "Cavinti",
    "state_id": "d825f983-bf3e-4016-9207-ca35944bea8c"
  },
  {
    "id": "4a74db7a-f209-43e6-9840-d1d0a081615b",
    "name": "Cavite City",
    "state_id": "d825f983-bf3e-4016-9207-ca35944bea8c"
  },
  {
    "id": "f7215efc-0b2d-4c34-8652-52b9cafd1504",
    "name": "Cawayan",
    "state_id": "d825f983-bf3e-4016-9207-ca35944bea8c"
  },
  {
    "id": "9e4d25f8-0a53-4fb7-9c6c-61d45ad25055",
    "name": "Cigaras",
    "state_id": "d825f983-bf3e-4016-9207-ca35944bea8c"
  },
  {
    "id": "b64ea11c-c7d9-4cc7-9b0c-1dee63bb115a",
    "name": "Concepcion Ibaba",
    "state_id": "d825f983-bf3e-4016-9207-ca35944bea8c"
  },
  {
    "id": "f87c29e0-9a3a-4f8d-afbd-4cfb9f5f8b1b",
    "name": "Cuenca",
    "state_id": "d825f983-bf3e-4016-9207-ca35944bea8c"
  },
  {
    "id": "71f8d72a-6004-4638-b444-cc996d9b94c3",
    "name": "Dagatan",
    "state_id": "d825f983-bf3e-4016-9207-ca35944bea8c"
  },
  {
    "id": "63d90518-66c7-4772-8571-ba65a2ec90f5",
    "name": "Daraitan",
    "state_id": "d825f983-bf3e-4016-9207-ca35944bea8c"
  },
  {
    "id": "01441b36-5482-4649-b207-a639b03580c6",
    "name": "Dasmariñas",
    "state_id": "d825f983-bf3e-4016-9207-ca35944bea8c"
  },
  {
    "id": "2e640853-ad23-49fc-8dd8-c1a0e1be5e81",
    "name": "Dayap",
    "state_id": "d825f983-bf3e-4016-9207-ca35944bea8c"
  },
  {
    "id": "9cbccbf8-17f2-478e-85dd-cb4e97808925",
    "name": "Dayapan",
    "state_id": "d825f983-bf3e-4016-9207-ca35944bea8c"
  },
  {
    "id": "cfbe3cc0-aad6-400f-9431-ea4ca82acd93",
    "name": "Del Monte",
    "state_id": "d825f983-bf3e-4016-9207-ca35944bea8c"
  },
  {
    "id": "8b155e72-14c7-4ad0-8a19-8158c3bdeacf",
    "name": "Dinahican",
    "state_id": "d825f983-bf3e-4016-9207-ca35944bea8c"
  },
  {
    "id": "08bf1835-d700-4e79-a986-02eb8e846c94",
    "name": "Dolores",
    "state_id": "d825f983-bf3e-4016-9207-ca35944bea8c"
  },
  {
    "id": "59fff46c-e515-4658-8fc5-5f59fc6fb019",
    "name": "Famy",
    "state_id": "d825f983-bf3e-4016-9207-ca35944bea8c"
  },
  {
    "id": "f778dc4c-fe8f-4850-9a79-8a1572f6388e",
    "name": "General Emilio Aguinaldo",
    "state_id": "d825f983-bf3e-4016-9207-ca35944bea8c"
  },
  {
    "id": "578a8d50-5761-4a76-aff2-e5f34f3a38f0",
    "name": "General Luna",
    "state_id": "d825f983-bf3e-4016-9207-ca35944bea8c"
  },
  {
    "id": "3397b364-d9f3-4b7c-abc1-d4c2992a990d",
    "name": "General Nakar",
    "state_id": "d825f983-bf3e-4016-9207-ca35944bea8c"
  },
  {
    "id": "3a046be9-9f86-41a1-801e-62d3299556f0",
    "name": "General Trias",
    "state_id": "d825f983-bf3e-4016-9207-ca35944bea8c"
  },
  {
    "id": "6e1732cb-a4c4-4852-b777-a50c48b1ff0a",
    "name": "Guinayangan, Fourth District of Quezon",
    "state_id": "d825f983-bf3e-4016-9207-ca35944bea8c"
  },
  {
    "id": "0b8a6b06-91b9-406e-830d-417a71489364",
    "name": "Guisguis",
    "state_id": "d825f983-bf3e-4016-9207-ca35944bea8c"
  },
  {
    "id": "f7c07185-d10d-4b5f-87fa-c67ad9e5cb2c",
    "name": "Gulod",
    "state_id": "d825f983-bf3e-4016-9207-ca35944bea8c"
  },
  {
    "id": "a5bfd44f-d522-415e-8d17-ee4541648830",
    "name": "Gumaca",
    "state_id": "d825f983-bf3e-4016-9207-ca35944bea8c"
  },
  {
    "id": "bde25346-1088-43a1-99bc-4d00e5bd651c",
    "name": "Gumian",
    "state_id": "d825f983-bf3e-4016-9207-ca35944bea8c"
  },
  {
    "id": "8123f06e-40ff-4378-a5c6-e58f85fedf61",
    "name": "Guyam Malaki",
    "state_id": "d825f983-bf3e-4016-9207-ca35944bea8c"
  },
  {
    "id": "ef4fcf13-7034-4330-bbcb-ea449e05962a",
    "name": "Halayhay",
    "state_id": "d825f983-bf3e-4016-9207-ca35944bea8c"
  },
  {
    "id": "7aba4702-8861-4f36-a255-a5252969f057",
    "name": "Halayhayin",
    "state_id": "d825f983-bf3e-4016-9207-ca35944bea8c"
  },
  {
    "id": "8ceae64a-881a-415f-959c-ff722acd967f",
    "name": "Haligue",
    "state_id": "d825f983-bf3e-4016-9207-ca35944bea8c"
  },
  {
    "id": "cdd2d6d9-cc4b-4b40-b1b9-ba2563f10add",
    "name": "Hondagua",
    "state_id": "d825f983-bf3e-4016-9207-ca35944bea8c"
  },
  {
    "id": "c1dd67ee-e685-4a08-afaa-e31edc5983a4",
    "name": "Hukay",
    "state_id": "d825f983-bf3e-4016-9207-ca35944bea8c"
  },
  {
    "id": "bb444ac9-4696-4df4-b1d5-a9346a5be30c",
    "name": "Ibaan",
    "state_id": "d825f983-bf3e-4016-9207-ca35944bea8c"
  },
  {
    "id": "e3076b90-145f-4511-bf3b-8d97469f9e17",
    "name": "Ibabang Tayuman",
    "state_id": "d825f983-bf3e-4016-9207-ca35944bea8c"
  },
  {
    "id": "52a0d7e6-14df-4313-813d-cbe9f71c895e",
    "name": "Ilihan",
    "state_id": "d825f983-bf3e-4016-9207-ca35944bea8c"
  },
  {
    "id": "c4c7aa95-16e0-4b5c-a058-ff6197abfb3e",
    "name": "Imus",
    "state_id": "d825f983-bf3e-4016-9207-ca35944bea8c"
  },
  {
    "id": "1f4bc69e-49f0-4c36-b6f3-0963443df7e9",
    "name": "Indang",
    "state_id": "d825f983-bf3e-4016-9207-ca35944bea8c"
  },
  {
    "id": "d13f07e5-4210-4b94-9110-712ed6f42c6a",
    "name": "Infanta",
    "state_id": "d825f983-bf3e-4016-9207-ca35944bea8c"
  },
  {
    "id": "365693f9-ec5e-489e-9202-54d8265a4245",
    "name": "Inicbulan",
    "state_id": "d825f983-bf3e-4016-9207-ca35944bea8c"
  },
  {
    "id": "61db170d-c7ae-4a2e-aeb8-d22f31710f86",
    "name": "Isabang",
    "state_id": "d825f983-bf3e-4016-9207-ca35944bea8c"
  },
  {
    "id": "83e31cb2-4676-4320-82cd-60d2db9bb22d",
    "name": "Jalajala",
    "state_id": "d825f983-bf3e-4016-9207-ca35944bea8c"
  },
  {
    "id": "4be30c1e-484c-45de-8bc7-378ce9808dc2",
    "name": "Janagdong",
    "state_id": "d825f983-bf3e-4016-9207-ca35944bea8c"
  },
  {
    "id": "eba0d7d7-1e05-4559-baca-585fecfaa946",
    "name": "Janopol",
    "state_id": "d825f983-bf3e-4016-9207-ca35944bea8c"
  },
  {
    "id": "28182235-1bcc-42bd-b73e-4db45aeeabda",
    "name": "Javalera",
    "state_id": "d825f983-bf3e-4016-9207-ca35944bea8c"
  },
  {
    "id": "3053f598-9b0a-4b2f-960c-a43453f3bd99",
    "name": "Kabulusan",
    "state_id": "d825f983-bf3e-4016-9207-ca35944bea8c"
  },
  {
    "id": "6c9159bc-d63e-41f9-b5d7-c995b341a120",
    "name": "Kalayaan",
    "state_id": "d825f983-bf3e-4016-9207-ca35944bea8c"
  },
  {
    "id": "9b40fd5a-2f76-468c-bae1-1f2ff03d3e5c",
    "name": "Kanluran",
    "state_id": "d825f983-bf3e-4016-9207-ca35944bea8c"
  },
  {
    "id": "b91ea6b0-1b59-4075-87d0-5bfb1c978546",
    "name": "Kapatalan",
    "state_id": "d825f983-bf3e-4016-9207-ca35944bea8c"
  },
  {
    "id": "18133e07-3b4e-4ca3-ae03-8ef51a74ee92",
    "name": "Karligan",
    "state_id": "d825f983-bf3e-4016-9207-ca35944bea8c"
  },
  {
    "id": "d964d1f2-2290-4e80-90b6-9cad42c42912",
    "name": "Kawit",
    "state_id": "d825f983-bf3e-4016-9207-ca35944bea8c"
  },
  {
    "id": "9d62c600-8c5b-42dd-a1b7-5aa9913abd86",
    "name": "Kaytitinga",
    "state_id": "d825f983-bf3e-4016-9207-ca35944bea8c"
  },
  {
    "id": "d4041060-b97c-4f6e-9e1f-d14818bf4d66",
    "name": "Kiloloran",
    "state_id": "d825f983-bf3e-4016-9207-ca35944bea8c"
  },
  {
    "id": "37338edf-c042-4507-9c62-1d6f6ece1cc4",
    "name": "Kinalaglagan",
    "state_id": "d825f983-bf3e-4016-9207-ca35944bea8c"
  },
  {
    "id": "5bc82df5-7ce8-4de2-b6d6-592c8e9e0098",
    "name": "Kinatakutan",
    "state_id": "d825f983-bf3e-4016-9207-ca35944bea8c"
  },
  {
    "id": "4cbdbaa3-e1c9-43cb-8bc4-917f57b4e0fe",
    "name": "Lacdayan",
    "state_id": "d825f983-bf3e-4016-9207-ca35944bea8c"
  },
  {
    "id": "b50afd29-deb1-4a57-8f92-c459cfa0e21c",
    "name": "Laiya",
    "state_id": "d825f983-bf3e-4016-9207-ca35944bea8c"
  },
  {
    "id": "5f3a943c-14ea-410c-8a6f-bc595367f90f",
    "name": "Lalig",
    "state_id": "d825f983-bf3e-4016-9207-ca35944bea8c"
  },
  {
    "id": "84b10044-c445-4834-b917-9d269e8a99a4",
    "name": "Lapolapo",
    "state_id": "d825f983-bf3e-4016-9207-ca35944bea8c"
  },
  {
    "id": "942a6509-9200-4a3e-8f17-f8ee65e37784",
    "name": "Laurel",
    "state_id": "d825f983-bf3e-4016-9207-ca35944bea8c"
  },
  {
    "id": "7eda6f81-97f6-4ddb-9917-3e8d7af8265c",
    "name": "Lemery",
    "state_id": "d825f983-bf3e-4016-9207-ca35944bea8c"
  },
  {
    "id": "2fd52d28-e4fb-455c-8cee-27c8691f823a",
    "name": "Lian",
    "state_id": "d825f983-bf3e-4016-9207-ca35944bea8c"
  },
  {
    "id": "42ecb8f7-56fa-44e8-ba4c-4f4a92faf08a",
    "name": "Libato",
    "state_id": "d825f983-bf3e-4016-9207-ca35944bea8c"
  },
  {
    "id": "c5bbb6d8-3836-4d7e-9230-f4dd3620cabe",
    "name": "Lilio",
    "state_id": "d825f983-bf3e-4016-9207-ca35944bea8c"
  },
  {
    "id": "d6955f3c-25ca-4a1a-b65a-716f28dfe21a",
    "name": "Lipa City",
    "state_id": "d825f983-bf3e-4016-9207-ca35944bea8c"
  },
  {
    "id": "cd9a4142-3306-4dac-bcf4-5ba1d962ff95",
    "name": "Lipahan",
    "state_id": "d825f983-bf3e-4016-9207-ca35944bea8c"
  },
  {
    "id": "15d4aeaf-1d71-43bb-a361-9f45005d25d1",
    "name": "Lobo",
    "state_id": "d825f983-bf3e-4016-9207-ca35944bea8c"
  },
  {
    "id": "27682c3f-b463-4d1c-8510-0e55b544f4c8",
    "name": "Looc",
    "state_id": "d825f983-bf3e-4016-9207-ca35944bea8c"
  },
  {
    "id": "0f38d59f-1877-4534-b159-b9bd529f2515",
    "name": "Lopez",
    "state_id": "d825f983-bf3e-4016-9207-ca35944bea8c"
  },
  {
    "id": "57f27748-66c0-4781-b2a2-b42f151a5843",
    "name": "Los Baños",
    "state_id": "d825f983-bf3e-4016-9207-ca35944bea8c"
  },
  {
    "id": "7b2c84ee-ccb9-4515-a118-3412afad858b",
    "name": "Lucban",
    "state_id": "d825f983-bf3e-4016-9207-ca35944bea8c"
  },
  {
    "id": "73f8a135-0128-4e5a-a454-94296b1171e9",
    "name": "Lucena",
    "state_id": "d825f983-bf3e-4016-9207-ca35944bea8c"
  },
  {
    "id": "465e0aa2-f48b-4663-ba5d-7f8168647e54",
    "name": "Lucsuhin",
    "state_id": "d825f983-bf3e-4016-9207-ca35944bea8c"
  },
  {
    "id": "95162981-3d56-4ab7-8440-d0b3d359b585",
    "name": "Luisiana",
    "state_id": "d825f983-bf3e-4016-9207-ca35944bea8c"
  },
  {
    "id": "c14100cc-c17a-4025-9690-e8a0a13c1e36",
    "name": "Luksuhin",
    "state_id": "d825f983-bf3e-4016-9207-ca35944bea8c"
  },
  {
    "id": "e3d287d6-da90-4529-9434-865b21c28516",
    "name": "Lumbang",
    "state_id": "d825f983-bf3e-4016-9207-ca35944bea8c"
  },
  {
    "id": "1a9a6498-167f-4a72-a62e-4f591615287a",
    "name": "Lumbangan",
    "state_id": "d825f983-bf3e-4016-9207-ca35944bea8c"
  },
  {
    "id": "e07f940a-f5a7-4c8f-b41f-2089c6934157",
    "name": "Lumil",
    "state_id": "d825f983-bf3e-4016-9207-ca35944bea8c"
  },
  {
    "id": "e530e480-8e9d-49d5-9617-41d20979ae0f",
    "name": "Luntal",
    "state_id": "d825f983-bf3e-4016-9207-ca35944bea8c"
  },
  {
    "id": "0fa443d4-fea6-42b1-8bd2-b2e76af152b7",
    "name": "Lusacan",
    "state_id": "d825f983-bf3e-4016-9207-ca35944bea8c"
  },
  {
    "id": "38f0a2d5-b449-4440-9e4c-a6d103949fb7",
    "name": "Mabini",
    "state_id": "d825f983-bf3e-4016-9207-ca35944bea8c"
  },
  {
    "id": "5762d202-83ec-4300-893a-60fb411d822e",
    "name": "Mabitac",
    "state_id": "d825f983-bf3e-4016-9207-ca35944bea8c"
  },
  {
    "id": "c67b90d9-b73b-42bd-be42-2d3d1a1582b8",
    "name": "Mabunga",
    "state_id": "d825f983-bf3e-4016-9207-ca35944bea8c"
  },
  {
    "id": "97f926aa-4a2f-4b57-962e-22c020d5a9eb",
    "name": "Macalamcam A",
    "state_id": "d825f983-bf3e-4016-9207-ca35944bea8c"
  },
  {
    "id": "1011f71f-242d-4a76-9a31-87267a69c87e",
    "name": "Macalelon",
    "state_id": "d825f983-bf3e-4016-9207-ca35944bea8c"
  },
  {
    "id": "d83017d3-cf94-4d80-a505-6d55a82f1bdd",
    "name": "Madulao",
    "state_id": "d825f983-bf3e-4016-9207-ca35944bea8c"
  },
  {
    "id": "08cff78b-248f-4dd9-935a-3c4ef0f5b618",
    "name": "Magallanes",
    "state_id": "d825f983-bf3e-4016-9207-ca35944bea8c"
  },
  {
    "id": "242091e8-7321-4c5d-9ec6-dd15f275aa29",
    "name": "Magdalena",
    "state_id": "d825f983-bf3e-4016-9207-ca35944bea8c"
  },
  {
    "id": "e83b332b-b422-4961-9499-6242f10e0184",
    "name": "Magsaysay",
    "state_id": "d825f983-bf3e-4016-9207-ca35944bea8c"
  },
  {
    "id": "336e0631-2dae-4985-9006-7fbf6b680100",
    "name": "Maguyam",
    "state_id": "d825f983-bf3e-4016-9207-ca35944bea8c"
  },
  {
    "id": "be5e93f7-510a-4b35-9e88-94f64b017adf",
    "name": "Mahabang Parang",
    "state_id": "d825f983-bf3e-4016-9207-ca35944bea8c"
  },
  {
    "id": "ebb549ac-49cc-4549-8ea2-43cb3ee13709",
    "name": "Mainit Norte",
    "state_id": "d825f983-bf3e-4016-9207-ca35944bea8c"
  },
  {
    "id": "dfe2ae3b-a0b1-492c-8af7-00517e721a95",
    "name": "Majayjay",
    "state_id": "d825f983-bf3e-4016-9207-ca35944bea8c"
  },
  {
    "id": "8635f75e-fe18-4e24-aec8-bb3b847865ca",
    "name": "Malabag",
    "state_id": "d825f983-bf3e-4016-9207-ca35944bea8c"
  },
  {
    "id": "78e1cd27-fafd-4f32-98c7-a2cd5c8d2a85",
    "name": "Malabanan",
    "state_id": "d825f983-bf3e-4016-9207-ca35944bea8c"
  },
  {
    "id": "bb1ea146-bfbf-46cd-8e3d-ed30d2505025",
    "name": "Malabanban Norte",
    "state_id": "d825f983-bf3e-4016-9207-ca35944bea8c"
  },
  {
    "id": "cc07e712-61a5-4ca4-8a6b-8de0c311a840",
    "name": "Malainen Luma",
    "state_id": "d825f983-bf3e-4016-9207-ca35944bea8c"
  },
  {
    "id": "5b568b9b-57c1-4de8-a7ef-e251ae4867d8",
    "name": "Malanday",
    "state_id": "d825f983-bf3e-4016-9207-ca35944bea8c"
  },
  {
    "id": "87271431-ecc3-45f8-9336-2da7975ed547",
    "name": "Malaruhatan",
    "state_id": "d825f983-bf3e-4016-9207-ca35944bea8c"
  },
  {
    "id": "3a9532f8-0a46-436b-b42a-5a58509cdaaa",
    "name": "Malaya",
    "state_id": "d825f983-bf3e-4016-9207-ca35944bea8c"
  },
  {
    "id": "234b1828-4363-4b65-9cd6-66c8cdfaff95",
    "name": "Malicboy",
    "state_id": "d825f983-bf3e-4016-9207-ca35944bea8c"
  },
  {
    "id": "bcf1b7ea-c6ee-4dd7-9ec5-e7f7707a61ff",
    "name": "Malinao Ilaya",
    "state_id": "d825f983-bf3e-4016-9207-ca35944bea8c"
  },
  {
    "id": "d854dcd8-9d84-4ad3-82f2-3a345518e36e",
    "name": "Malvar",
    "state_id": "d825f983-bf3e-4016-9207-ca35944bea8c"
  },
  {
    "id": "e4b1ee29-d935-4e91-aa78-ac054135476c",
    "name": "Mamala",
    "state_id": "d825f983-bf3e-4016-9207-ca35944bea8c"
  },
  {
    "id": "376292ea-e44d-4b5f-b54c-b9971b2c6d3a",
    "name": "Mamatid",
    "state_id": "d825f983-bf3e-4016-9207-ca35944bea8c"
  },
  {
    "id": "88e352c1-b4f4-45f1-bd22-c72d4b86bc92",
    "name": "Mangas",
    "state_id": "d825f983-bf3e-4016-9207-ca35944bea8c"
  },
  {
    "id": "f7ca0d95-4ffb-4231-bff0-7de7ca4cd1a7",
    "name": "Mangero",
    "state_id": "d825f983-bf3e-4016-9207-ca35944bea8c"
  },
  {
    "id": "e365f982-15b9-4083-97f7-ef4192909b64",
    "name": "Manggahan",
    "state_id": "d825f983-bf3e-4016-9207-ca35944bea8c"
  },
  {
    "id": "6eacf95a-03d3-41aa-936a-b5034c1f34cc",
    "name": "Mapulo",
    "state_id": "d825f983-bf3e-4016-9207-ca35944bea8c"
  },
  {
    "id": "f6246d64-95be-43c0-b9cc-abf804f01263",
    "name": "Mapulot",
    "state_id": "d825f983-bf3e-4016-9207-ca35944bea8c"
  },
  {
    "id": "f9e6aefd-286f-40f9-9502-5c189c9c56b3",
    "name": "Maragondon",
    "state_id": "d825f983-bf3e-4016-9207-ca35944bea8c"
  },
  {
    "id": "37a90ca5-4f84-4996-9266-eef80fac7317",
    "name": "Marao",
    "state_id": "d825f983-bf3e-4016-9207-ca35944bea8c"
  },
  {
    "id": "f20d05fb-0974-41a5-b069-b73f3b910cf3",
    "name": "Masalukot Uno",
    "state_id": "d825f983-bf3e-4016-9207-ca35944bea8c"
  },
  {
    "id": "af9707f9-331f-4074-aaff-1ba82a150c76",
    "name": "Masapang",
    "state_id": "d825f983-bf3e-4016-9207-ca35944bea8c"
  },
  {
    "id": "5bea3d9c-925d-4d26-af4e-b3753e91fe21",
    "name": "Masaya",
    "state_id": "d825f983-bf3e-4016-9207-ca35944bea8c"
  },
  {
    "id": "074e5731-5985-4a6c-984e-f13076debe06",
    "name": "Mataas Na Kahoy",
    "state_id": "d825f983-bf3e-4016-9207-ca35944bea8c"
  },
  {
    "id": "9a2f5651-14c0-4451-8e38-c451dd70fe3e",
    "name": "Matagbak",
    "state_id": "d825f983-bf3e-4016-9207-ca35944bea8c"
  },
  {
    "id": "66405584-0570-4d8a-bee1-6d1f14fa8828",
    "name": "Matala",
    "state_id": "d825f983-bf3e-4016-9207-ca35944bea8c"
  },
  {
    "id": "8df9ae45-3fc8-413e-9efb-5e2463d15ee6",
    "name": "Mataywanac",
    "state_id": "d825f983-bf3e-4016-9207-ca35944bea8c"
  },
  {
    "id": "7c7acea8-c95f-462e-b51c-3bfedd455c0d",
    "name": "Matingain",
    "state_id": "d825f983-bf3e-4016-9207-ca35944bea8c"
  },
  {
    "id": "a63cb285-5abd-4037-a1ca-6216d37c1155",
    "name": "Mauban",
    "state_id": "d825f983-bf3e-4016-9207-ca35944bea8c"
  },
  {
    "id": "f215f31d-891e-4ed8-b60f-13bc1a334430",
    "name": "Maugat West",
    "state_id": "d825f983-bf3e-4016-9207-ca35944bea8c"
  },
  {
    "id": "1582079f-adcf-4beb-92b7-b504d1e75a4e",
    "name": "Maulawin",
    "state_id": "d825f983-bf3e-4016-9207-ca35944bea8c"
  },
  {
    "id": "ae39fde7-ffd7-47fe-b944-156dab01790d",
    "name": "Mendez-Nuñez",
    "state_id": "d825f983-bf3e-4016-9207-ca35944bea8c"
  },
  {
    "id": "45c563c5-9458-4113-b660-e8e55d10a6c3",
    "name": "Montecillo",
    "state_id": "d825f983-bf3e-4016-9207-ca35944bea8c"
  },
  {
    "id": "ed39b0bb-06a7-4017-b479-30f624c38f4f",
    "name": "Morong",
    "state_id": "d825f983-bf3e-4016-9207-ca35944bea8c"
  },
  {
    "id": "ac0263bf-00cb-4314-9fff-41110d353caf",
    "name": "Mozon",
    "state_id": "d825f983-bf3e-4016-9207-ca35944bea8c"
  },
  {
    "id": "3cc3514e-fe26-4913-94ff-18e3161353b0",
    "name": "Mulanay",
    "state_id": "d825f983-bf3e-4016-9207-ca35944bea8c"
  },
  {
    "id": "781e98e6-32ac-44e4-bd12-105b528ea47b",
    "name": "Mulauin",
    "state_id": "d825f983-bf3e-4016-9207-ca35944bea8c"
  },
  {
    "id": "b3df63c9-f7f1-4c2c-a573-9e3a6de46f74",
    "name": "Nagcarlan",
    "state_id": "d825f983-bf3e-4016-9207-ca35944bea8c"
  },
  {
    "id": "885a6ce7-2ac0-48b6-b0aa-c7e287e8a6e1",
    "name": "Naic",
    "state_id": "d825f983-bf3e-4016-9207-ca35944bea8c"
  },
  {
    "id": "d13b6af2-b55a-4792-88f8-a5131417813a",
    "name": "Nasugbu",
    "state_id": "d825f983-bf3e-4016-9207-ca35944bea8c"
  },
  {
    "id": "902cb788-b1ee-44b0-ad47-79c92597ef6b",
    "name": "Navotas",
    "state_id": "d825f983-bf3e-4016-9207-ca35944bea8c"
  },
  {
    "id": "989e6603-dbb7-4a4d-a88c-ef27f6ead092",
    "name": "Noveleta",
    "state_id": "d825f983-bf3e-4016-9207-ca35944bea8c"
  },
  {
    "id": "fa4ca7f2-5d39-4347-8a80-c8a8837a03b3",
    "name": "Paagahan",
    "state_id": "d825f983-bf3e-4016-9207-ca35944bea8c"
  },
  {
    "id": "95cc62ab-3bbf-40f7-80fa-67252dd86fc7",
    "name": "Padre Burgos",
    "state_id": "d825f983-bf3e-4016-9207-ca35944bea8c"
  },
  {
    "id": "7bcef4d6-8e72-4ef0-a1d6-f05c780c1d38",
    "name": "Padre Garcia",
    "state_id": "d825f983-bf3e-4016-9207-ca35944bea8c"
  },
  {
    "id": "76964db2-0e62-4acb-b629-f96adb46b873",
    "name": "Paete",
    "state_id": "d825f983-bf3e-4016-9207-ca35944bea8c"
  },
  {
    "id": "bf267933-32e6-435b-a73a-de99b65319ad",
    "name": "Pagbilao",
    "state_id": "d825f983-bf3e-4016-9207-ca35944bea8c"
  },
  {
    "id": "03cae216-f45a-4892-978f-a018cdd82464",
    "name": "Pagsañgahan",
    "state_id": "d825f983-bf3e-4016-9207-ca35944bea8c"
  },
  {
    "id": "7059cb75-1f09-465a-a23b-9a70fb8d5a24",
    "name": "Pagsanjan",
    "state_id": "d825f983-bf3e-4016-9207-ca35944bea8c"
  },
  {
    "id": "51114e5c-86d3-4613-97f7-7888ea2790a2",
    "name": "Paiisa",
    "state_id": "d825f983-bf3e-4016-9207-ca35944bea8c"
  },
  {
    "id": "c01c12bc-132f-48b5-9b28-056c946f1143",
    "name": "Pakil",
    "state_id": "d825f983-bf3e-4016-9207-ca35944bea8c"
  },
  {
    "id": "e4eed2bb-a116-42eb-96c6-b3411a87f105",
    "name": "Palahanan Uno",
    "state_id": "d825f983-bf3e-4016-9207-ca35944bea8c"
  },
  {
    "id": "adeefa11-faad-4a8e-a5da-d3c994c83ad5",
    "name": "Palangue",
    "state_id": "d825f983-bf3e-4016-9207-ca35944bea8c"
  },
  {
    "id": "2a93101f-f5e9-47f1-93f3-7b87d0809874",
    "name": "Pangao",
    "state_id": "d825f983-bf3e-4016-9207-ca35944bea8c"
  },
  {
    "id": "e04c72af-f4a3-475a-8aa5-cd40b8b7fdc3",
    "name": "Pangil",
    "state_id": "d825f983-bf3e-4016-9207-ca35944bea8c"
  },
  {
    "id": "6c7f2618-7337-4157-b4d5-a5d623104bc3",
    "name": "Panikihan",
    "state_id": "d825f983-bf3e-4016-9207-ca35944bea8c"
  },
  {
    "id": "b378dc31-f7b2-4bfa-8c6a-9eb1591faf21",
    "name": "Pansol",
    "state_id": "d825f983-bf3e-4016-9207-ca35944bea8c"
  },
  {
    "id": "eefc68b6-c588-4b78-9764-62c68d2d1ede",
    "name": "Pansoy",
    "state_id": "d825f983-bf3e-4016-9207-ca35944bea8c"
  },
  {
    "id": "43ca4dff-aa45-4f42-98d3-f4193b3d1b62",
    "name": "Pantay Na Matanda",
    "state_id": "d825f983-bf3e-4016-9207-ca35944bea8c"
  },
  {
    "id": "e4086c55-5fe1-4a61-897d-17da92fd4708",
    "name": "Pantijan No 2",
    "state_id": "d825f983-bf3e-4016-9207-ca35944bea8c"
  },
  {
    "id": "6a760baf-6231-4c51-b983-d5a0e8af9a14",
    "name": "Panukulan",
    "state_id": "d825f983-bf3e-4016-9207-ca35944bea8c"
  },
  {
    "id": "74fe3eb5-06b2-437d-953b-76ed0fdba1e6",
    "name": "Paradahan",
    "state_id": "d825f983-bf3e-4016-9207-ca35944bea8c"
  },
  {
    "id": "66c53a21-6a00-413c-aa37-4bdcb13d7186",
    "name": "Pasong Kawayan Primero",
    "state_id": "d825f983-bf3e-4016-9207-ca35944bea8c"
  },
  {
    "id": "031d3cf3-98a9-4607-b73f-62f56d585a22",
    "name": "Patabog",
    "state_id": "d825f983-bf3e-4016-9207-ca35944bea8c"
  },
  {
    "id": "195a4ae5-8f91-473b-9ca6-d09ed44ffcac",
    "name": "Patnanungan",
    "state_id": "d825f983-bf3e-4016-9207-ca35944bea8c"
  },
  {
    "id": "8646f3e3-57d8-4342-bf5b-2839900f0f91",
    "name": "Patuto",
    "state_id": "d825f983-bf3e-4016-9207-ca35944bea8c"
  },
  {
    "id": "188fced2-ccd3-4a91-ab39-1ff623621e92",
    "name": "Payapa",
    "state_id": "d825f983-bf3e-4016-9207-ca35944bea8c"
  },
  {
    "id": "94b596ac-7c06-445a-9c20-2cd838a1c2dd",
    "name": "Perez",
    "state_id": "d825f983-bf3e-4016-9207-ca35944bea8c"
  },
  {
    "id": "a439e1d6-0941-400c-bbd1-b240428e6277",
    "name": "Pila",
    "state_id": "d825f983-bf3e-4016-9207-ca35944bea8c"
  },
  {
    "id": "69662996-230c-4d7c-8216-d6a20c9a2baf",
    "name": "Pililla",
    "state_id": "d825f983-bf3e-4016-9207-ca35944bea8c"
  },
  {
    "id": "07f7aaf0-8dc7-4026-a90c-8134ea905d53",
    "name": "Pinagsibaan",
    "state_id": "d825f983-bf3e-4016-9207-ca35944bea8c"
  },
  {
    "id": "e0c09c59-59c9-444f-b283-b34d2d0595ca",
    "name": "Pinugay",
    "state_id": "d825f983-bf3e-4016-9207-ca35944bea8c"
  },
  {
    "id": "7936731b-4fec-4fc3-9828-e8f31772429f",
    "name": "Pitogo",
    "state_id": "d825f983-bf3e-4016-9207-ca35944bea8c"
  },
  {
    "id": "20d9c9b8-f79c-4a93-857d-e54fd5fb102d",
    "name": "Plaridel",
    "state_id": "d825f983-bf3e-4016-9207-ca35944bea8c"
  },
  {
    "id": "1648a906-d2d5-4f97-ba9f-bbc2177bfb37",
    "name": "Poctol",
    "state_id": "d825f983-bf3e-4016-9207-ca35944bea8c"
  },
  {
    "id": "a84fc674-f8c2-4051-93a5-ddc1a95d73de",
    "name": "Polillo",
    "state_id": "d825f983-bf3e-4016-9207-ca35944bea8c"
  },
  {
    "id": "98e59b0e-9665-4f0d-a844-3ae4b3cba0be",
    "name": "Prinza",
    "state_id": "d825f983-bf3e-4016-9207-ca35944bea8c"
  },
  {
    "id": "9ab52bc5-bc8f-4bae-a2c6-f0f6928cc780",
    "name": "Progreso",
    "state_id": "d825f983-bf3e-4016-9207-ca35944bea8c"
  },
  {
    "id": "54420f40-1f45-4c7c-9275-902bf443c1ba",
    "name": "Province of Batangas",
    "state_id": "d825f983-bf3e-4016-9207-ca35944bea8c"
  },
  {
    "id": "c2e0e96d-e65d-44df-950f-924c9680f3b6",
    "name": "Province of Cavite",
    "state_id": "d825f983-bf3e-4016-9207-ca35944bea8c"
  },
  {
    "id": "66337f80-c4f2-4d4c-9a36-74800805f232",
    "name": "Province of Laguna",
    "state_id": "d825f983-bf3e-4016-9207-ca35944bea8c"
  },
  {
    "id": "3fbc2ea3-cf0b-4803-8784-ea43d7af4b1a",
    "name": "Province of Quezon",
    "state_id": "d825f983-bf3e-4016-9207-ca35944bea8c"
  },
  {
    "id": "18dc94e5-0c32-4e94-b9f1-4aaf5f801e39",
    "name": "Province of Rizal",
    "state_id": "d825f983-bf3e-4016-9207-ca35944bea8c"
  },
  {
    "id": "8c85680c-51df-447c-879a-83de728493cf",
    "name": "Pulangbato",
    "state_id": "d825f983-bf3e-4016-9207-ca35944bea8c"
  },
  {
    "id": "b4e8c985-8db5-42c0-8ad0-5fe289d6d8c3",
    "name": "Pulo",
    "state_id": "d825f983-bf3e-4016-9207-ca35944bea8c"
  },
  {
    "id": "d364840d-d1fd-49b5-8c50-d8bb374340d8",
    "name": "Pulong Santa Cruz",
    "state_id": "d825f983-bf3e-4016-9207-ca35944bea8c"
  },
  {
    "id": "bc398d44-252a-44ab-8488-8076882547f4",
    "name": "Punta",
    "state_id": "d825f983-bf3e-4016-9207-ca35944bea8c"
  },
  {
    "id": "24cc66e8-8475-4a7a-9fb8-ce62fd38070f",
    "name": "Puting Kahoy",
    "state_id": "d825f983-bf3e-4016-9207-ca35944bea8c"
  },
  {
    "id": "6b4a736d-c924-4cec-80cd-9ee60d03d910",
    "name": "Putingkahoy",
    "state_id": "d825f983-bf3e-4016-9207-ca35944bea8c"
  },
  {
    "id": "d407f1c6-d366-4b69-b1d5-8b5fd92ae91f",
    "name": "Putol",
    "state_id": "d825f983-bf3e-4016-9207-ca35944bea8c"
  },
  {
    "id": "9d37a49e-5c2d-48bc-96e4-3edcee3d6bff",
    "name": "Quezon",
    "state_id": "d825f983-bf3e-4016-9207-ca35944bea8c"
  },
  {
    "id": "84d64129-c89b-42e3-8961-2bd8cb6a5ec5",
    "name": "Quilo-quilo",
    "state_id": "d825f983-bf3e-4016-9207-ca35944bea8c"
  },
  {
    "id": "4e559514-5912-4360-8648-67d485726327",
    "name": "Quipot",
    "state_id": "d825f983-bf3e-4016-9207-ca35944bea8c"
  },
  {
    "id": "e3ecfd71-8ff2-4e66-92ad-53ab17956de1",
    "name": "Quisao",
    "state_id": "d825f983-bf3e-4016-9207-ca35944bea8c"
  },
  {
    "id": "b31c115f-cbb1-491a-99fb-b03185aa9050",
    "name": "Real",
    "state_id": "d825f983-bf3e-4016-9207-ca35944bea8c"
  },
  {
    "id": "5bbb9b23-825f-44e4-98c1-1d8826ffde32",
    "name": "Rizal",
    "state_id": "d825f983-bf3e-4016-9207-ca35944bea8c"
  },
  {
    "id": "78611761-57dc-4f1f-bead-a2642f12016d",
    "name": "Rodriguez",
    "state_id": "d825f983-bf3e-4016-9207-ca35944bea8c"
  },
  {
    "id": "671eabb7-81f1-4180-9aec-511428533a99",
    "name": "Rosario",
    "state_id": "d825f983-bf3e-4016-9207-ca35944bea8c"
  },
  {
    "id": "d370fcd5-3c49-4cd0-a6f8-86c010ba2f2d",
    "name": "Sabang",
    "state_id": "d825f983-bf3e-4016-9207-ca35944bea8c"
  },
  {
    "id": "df4dee0d-2cb3-4df9-8473-39cabf5239e9",
    "name": "Sampaloc",
    "state_id": "d825f983-bf3e-4016-9207-ca35944bea8c"
  },
  {
    "id": "71d256ef-e712-4cf2-87da-d75beed9022e",
    "name": "Sampiro",
    "state_id": "d825f983-bf3e-4016-9207-ca35944bea8c"
  },
  {
    "id": "52d84d83-95f4-47b8-94ea-48a4239c6bfe",
    "name": "San Andres",
    "state_id": "d825f983-bf3e-4016-9207-ca35944bea8c"
  },
  {
    "id": "c2217560-a49b-408b-8324-7d356ff58167",
    "name": "San Antonio",
    "state_id": "d825f983-bf3e-4016-9207-ca35944bea8c"
  },
  {
    "id": "9ce359b4-4425-43d5-a17f-29ef22ae3e1e",
    "name": "San Carlos",
    "state_id": "d825f983-bf3e-4016-9207-ca35944bea8c"
  },
  {
    "id": "05560b25-d8ea-46cc-a630-0a8a7c6ef80f",
    "name": "San Celestio",
    "state_id": "d825f983-bf3e-4016-9207-ca35944bea8c"
  },
  {
    "id": "3725c585-638a-41b4-a7c4-a155f1735467",
    "name": "San Diego",
    "state_id": "d825f983-bf3e-4016-9207-ca35944bea8c"
  },
  {
    "id": "7a9c0fd9-dfe4-41f9-b7c3-8984a8293ea4",
    "name": "San Francisco",
    "state_id": "d825f983-bf3e-4016-9207-ca35944bea8c"
  },
  {
    "id": "e7376987-c663-483b-97dd-5fde3bf6faa7",
    "name": "San Gregorio",
    "state_id": "d825f983-bf3e-4016-9207-ca35944bea8c"
  },
  {
    "id": "94c23632-f20c-42f0-813d-6782d3ea3155",
    "name": "San Isidro",
    "state_id": "d825f983-bf3e-4016-9207-ca35944bea8c"
  },
  {
    "id": "54c96f1f-22be-4d3c-89d7-57ac32a8fac9",
    "name": "San Joaquin",
    "state_id": "d825f983-bf3e-4016-9207-ca35944bea8c"
  },
  {
    "id": "6fa638c3-3a33-4c85-8921-20e36ca88783",
    "name": "San Jose",
    "state_id": "d825f983-bf3e-4016-9207-ca35944bea8c"
  },
  {
    "id": "6d5da858-c7ac-4d74-b143-434dc08cd6bc",
    "name": "San Juan",
    "state_id": "d825f983-bf3e-4016-9207-ca35944bea8c"
  },
  {
    "id": "f7098723-9903-4e0d-a167-2d96a39ac761",
    "name": "San Luis",
    "state_id": "d825f983-bf3e-4016-9207-ca35944bea8c"
  },
  {
    "id": "f82e7236-842b-4760-a796-8d57f16dac3c",
    "name": "San Mateo",
    "state_id": "d825f983-bf3e-4016-9207-ca35944bea8c"
  },
  {
    "id": "9b1100af-ca69-40df-89af-c907fce47234",
    "name": "San Miguel",
    "state_id": "d825f983-bf3e-4016-9207-ca35944bea8c"
  },
  {
    "id": "5e1a7b8e-f546-4706-a7aa-6bc800cf3ec8",
    "name": "San Narciso",
    "state_id": "d825f983-bf3e-4016-9207-ca35944bea8c"
  },
  {
    "id": "092b823b-fcb8-479a-b2a6-498026281b88",
    "name": "San Nicolas",
    "state_id": "d825f983-bf3e-4016-9207-ca35944bea8c"
  },
  {
    "id": "ac4f952b-3a6e-4a88-921c-6609961d07fe",
    "name": "San Pablo",
    "state_id": "d825f983-bf3e-4016-9207-ca35944bea8c"
  },
  {
    "id": "96676716-48e1-4688-8ecf-df862580c376",
    "name": "San Pascual",
    "state_id": "d825f983-bf3e-4016-9207-ca35944bea8c"
  },
  {
    "id": "6c439082-ad45-4014-b434-9dd140a88053",
    "name": "San Pedro",
    "state_id": "d825f983-bf3e-4016-9207-ca35944bea8c"
  },
  {
    "id": "f54f3de4-e63e-4a6f-b28c-8df5b8c1229b",
    "name": "San Pedro One",
    "state_id": "d825f983-bf3e-4016-9207-ca35944bea8c"
  },
  {
    "id": "c7b4fffa-b7e0-46ce-a95b-010d05ab160c",
    "name": "San Rafael",
    "state_id": "d825f983-bf3e-4016-9207-ca35944bea8c"
  },
  {
    "id": "fb2d7e3d-8c95-400a-a549-5f2ec7cc5ba5",
    "name": "San Vicente",
    "state_id": "d825f983-bf3e-4016-9207-ca35944bea8c"
  },
  {
    "id": "36e7d2dd-ed35-4063-9821-b340903a78a1",
    "name": "Santa Catalina",
    "state_id": "d825f983-bf3e-4016-9207-ca35944bea8c"
  },
  {
    "id": "2f4ce033-9cbb-443a-bf22-0b291f6a04f2",
    "name": "Santa Catalina Norte",
    "state_id": "d825f983-bf3e-4016-9207-ca35944bea8c"
  },
  {
    "id": "9a833163-4f79-4bfd-813d-c921168ba066",
    "name": "Santa Catalina Sur",
    "state_id": "d825f983-bf3e-4016-9207-ca35944bea8c"
  },
  {
    "id": "0b26d9e3-783c-4fca-b946-604dadc195ab",
    "name": "Santa Cecilia",
    "state_id": "d825f983-bf3e-4016-9207-ca35944bea8c"
  },
  {
    "id": "426ef459-7e3c-4be7-bce7-b14c77cf555b",
    "name": "Santa Clara",
    "state_id": "d825f983-bf3e-4016-9207-ca35944bea8c"
  },
  {
    "id": "6d15d8dc-3039-4d53-b0fa-037d9c77b019",
    "name": "Santa Cruz",
    "state_id": "d825f983-bf3e-4016-9207-ca35944bea8c"
  },
  {
    "id": "f193b14b-7ca7-4fac-b869-4ade2f843172",
    "name": "Santa Lucia",
    "state_id": "d825f983-bf3e-4016-9207-ca35944bea8c"
  },
  {
    "id": "8bb283cc-9d90-4e6d-b7c7-966c679d503d",
    "name": "Santa Maria",
    "state_id": "d825f983-bf3e-4016-9207-ca35944bea8c"
  },
  {
    "id": "b82521c5-8e5a-4b2f-bb9d-7166b0ab35b2",
    "name": "Santa Rita Aplaya",
    "state_id": "d825f983-bf3e-4016-9207-ca35944bea8c"
  },
  {
    "id": "857b1a7d-14ce-4e81-b765-fee2e7b6410a",
    "name": "Santa Rosa",
    "state_id": "d825f983-bf3e-4016-9207-ca35944bea8c"
  },
  {
    "id": "57dc4053-4a69-4015-970c-832b797b116c",
    "name": "Santa Teresita",
    "state_id": "d825f983-bf3e-4016-9207-ca35944bea8c"
  },
  {
    "id": "51cbd77d-1223-409e-af21-056737fec756",
    "name": "Santiago",
    "state_id": "d825f983-bf3e-4016-9207-ca35944bea8c"
  },
  {
    "id": "13fdd865-6075-4209-b5fc-62325823814e",
    "name": "Santisimo Rosario",
    "state_id": "d825f983-bf3e-4016-9207-ca35944bea8c"
  },
  {
    "id": "dc82fea1-ca4f-4343-b1c7-c30b917f877b",
    "name": "Santo Niño",
    "state_id": "d825f983-bf3e-4016-9207-ca35944bea8c"
  },
  {
    "id": "817a2068-cccd-4290-a36c-259925563432",
    "name": "Santo Tomas",
    "state_id": "d825f983-bf3e-4016-9207-ca35944bea8c"
  },
  {
    "id": "435b6fb8-244f-4c8a-9328-301c4cf10097",
    "name": "Santor",
    "state_id": "d825f983-bf3e-4016-9207-ca35944bea8c"
  },
  {
    "id": "4e859cea-1393-4cb4-966e-8efdfe0babd7",
    "name": "Sariaya",
    "state_id": "d825f983-bf3e-4016-9207-ca35944bea8c"
  },
  {
    "id": "bd3fc38c-d8ad-46c6-973f-f386aa22f9cd",
    "name": "Sibulan",
    "state_id": "d825f983-bf3e-4016-9207-ca35944bea8c"
  },
  {
    "id": "986d7200-ab4b-4756-82e7-63ebea247d32",
    "name": "Sico Uno",
    "state_id": "d825f983-bf3e-4016-9207-ca35944bea8c"
  },
  {
    "id": "8c0742b5-b05c-4b66-a601-3cf533954a14",
    "name": "Silang",
    "state_id": "d825f983-bf3e-4016-9207-ca35944bea8c"
  },
  {
    "id": "c6cf1656-946c-462c-804d-35cb54dc7859",
    "name": "Silongin",
    "state_id": "d825f983-bf3e-4016-9207-ca35944bea8c"
  },
  {
    "id": "ab47ac37-a302-414c-a5d9-3093ea6e56c8",
    "name": "Sinala",
    "state_id": "d825f983-bf3e-4016-9207-ca35944bea8c"
  },
  {
    "id": "f53b578b-3eb6-40c4-b75a-d1c18522ba36",
    "name": "Siniloan",
    "state_id": "d825f983-bf3e-4016-9207-ca35944bea8c"
  },
  {
    "id": "c0bdb7f3-78b1-4400-a2eb-ec2a85471eaa",
    "name": "Sinisian",
    "state_id": "d825f983-bf3e-4016-9207-ca35944bea8c"
  },
  {
    "id": "b1b8cceb-56b6-41ef-807f-a370010c6d65",
    "name": "Solo",
    "state_id": "d825f983-bf3e-4016-9207-ca35944bea8c"
  },
  {
    "id": "37e63886-b106-402a-a102-0602e276410e",
    "name": "Subic",
    "state_id": "d825f983-bf3e-4016-9207-ca35944bea8c"
  },
  {
    "id": "7a9e1ab1-06bf-4262-9260-b03d6f0722d0",
    "name": "Taal",
    "state_id": "d825f983-bf3e-4016-9207-ca35944bea8c"
  },
  {
    "id": "3ca3d49b-de8c-48e8-9d9e-8002403ee043",
    "name": "Tagaytay",
    "state_id": "d825f983-bf3e-4016-9207-ca35944bea8c"
  },
  {
    "id": "5352b760-25e3-4a91-b416-068e2f09e237",
    "name": "Tagbacan Ibaba",
    "state_id": "d825f983-bf3e-4016-9207-ca35944bea8c"
  },
  {
    "id": "7d86e6e8-7c35-4330-a7ac-0e5d247355be",
    "name": "Tagkawayan Sabang",
    "state_id": "d825f983-bf3e-4016-9207-ca35944bea8c"
  },
  {
    "id": "451dc95a-47fb-442c-bfc1-28696935e71b",
    "name": "Tala",
    "state_id": "d825f983-bf3e-4016-9207-ca35944bea8c"
  },
  {
    "id": "346e44a1-5d9e-4f80-a26a-716ca8f3ad4a",
    "name": "Talaga",
    "state_id": "d825f983-bf3e-4016-9207-ca35944bea8c"
  },
  {
    "id": "af1d0845-51ed-4bb5-a424-50b4d3b24cbd",
    "name": "Talahib Payap",
    "state_id": "d825f983-bf3e-4016-9207-ca35944bea8c"
  },
  {
    "id": "6fa39961-26b1-47ea-bd79-575f414d014a",
    "name": "Talahiban I",
    "state_id": "d825f983-bf3e-4016-9207-ca35944bea8c"
  },
  {
    "id": "c47d79b1-6047-4c5c-82a5-8207ad37e6cb",
    "name": "Talaibon",
    "state_id": "d825f983-bf3e-4016-9207-ca35944bea8c"
  },
  {
    "id": "3d840173-f7ea-41b4-9c98-8fc6c9bae2e0",
    "name": "Talipan",
    "state_id": "d825f983-bf3e-4016-9207-ca35944bea8c"
  },
  {
    "id": "4b549ef7-243c-450a-b6ae-45b54ef7479b",
    "name": "Talisay",
    "state_id": "d825f983-bf3e-4016-9207-ca35944bea8c"
  },
  {
    "id": "46fa8b16-f53c-4e58-8c04-eb6854c880fa",
    "name": "Tanauan",
    "state_id": "d825f983-bf3e-4016-9207-ca35944bea8c"
  },
  {
    "id": "720ce094-ed24-4d01-a8ce-5bc78b5770c7",
    "name": "Tanay",
    "state_id": "d825f983-bf3e-4016-9207-ca35944bea8c"
  },
  {
    "id": "d7698025-4e06-494a-82e2-bf96dc734857",
    "name": "Tanza",
    "state_id": "d825f983-bf3e-4016-9207-ca35944bea8c"
  },
  {
    "id": "b38928e5-c70c-4341-a5c4-5ecc32947e05",
    "name": "Tayabas",
    "state_id": "d825f983-bf3e-4016-9207-ca35944bea8c"
  },
  {
    "id": "4de8f1f7-162b-4884-9388-88bca633851e",
    "name": "Tayabas Ibaba",
    "state_id": "d825f983-bf3e-4016-9207-ca35944bea8c"
  },
  {
    "id": "01170238-349b-4fe6-aecb-84aa69b5358c",
    "name": "Taysan",
    "state_id": "d825f983-bf3e-4016-9207-ca35944bea8c"
  },
  {
    "id": "2b9cb69d-cc2a-45ac-aba6-cc6057f78aaf",
    "name": "Taytay",
    "state_id": "d825f983-bf3e-4016-9207-ca35944bea8c"
  },
  {
    "id": "fecbafe9-544f-44cf-8187-4e8b4a691a6d",
    "name": "Taywanak Ilaya",
    "state_id": "d825f983-bf3e-4016-9207-ca35944bea8c"
  },
  {
    "id": "d7a1cfe0-84f2-4c01-8e60-9def88cf07b5",
    "name": "Teresa",
    "state_id": "d825f983-bf3e-4016-9207-ca35944bea8c"
  },
  {
    "id": "b7f45003-adea-4783-a2c5-2302eea4d2b3",
    "name": "Ternate",
    "state_id": "d825f983-bf3e-4016-9207-ca35944bea8c"
  },
  {
    "id": "eb4b2970-ef86-4a29-8bcf-2670c6eb0cd9",
    "name": "Tiaong",
    "state_id": "d825f983-bf3e-4016-9207-ca35944bea8c"
  },
  {
    "id": "1105d507-fc4d-45b1-a311-1e2eebb5ba0c",
    "name": "Tignoan",
    "state_id": "d825f983-bf3e-4016-9207-ca35944bea8c"
  },
  {
    "id": "095904af-80b1-4daa-9d8d-c82c3eb9e308",
    "name": "Tingloy",
    "state_id": "d825f983-bf3e-4016-9207-ca35944bea8c"
  },
  {
    "id": "e73c783d-616e-4fc5-8aad-c8681c83634d",
    "name": "Tipaz",
    "state_id": "d825f983-bf3e-4016-9207-ca35944bea8c"
  },
  {
    "id": "fab18389-c31e-4fdb-95db-fcd8f0783914",
    "name": "Toong",
    "state_id": "d825f983-bf3e-4016-9207-ca35944bea8c"
  },
  {
    "id": "ac0a2ac1-281b-4722-89b6-cb4f366f0e21",
    "name": "Tranca",
    "state_id": "d825f983-bf3e-4016-9207-ca35944bea8c"
  },
  {
    "id": "33c1c7f6-f91e-4c40-ba3a-bb5a8f4f6a16",
    "name": "Tuhian",
    "state_id": "d825f983-bf3e-4016-9207-ca35944bea8c"
  },
  {
    "id": "52039d54-d033-4ec9-a9a6-d52291fd322d",
    "name": "Tulay",
    "state_id": "d825f983-bf3e-4016-9207-ca35944bea8c"
  },
  {
    "id": "2342d7a0-99d6-4601-a667-91249f6433a2",
    "name": "Tumalim",
    "state_id": "d825f983-bf3e-4016-9207-ca35944bea8c"
  },
  {
    "id": "f9363745-6e8e-4fad-88a3-7116344f3ad1",
    "name": "Tuy",
    "state_id": "d825f983-bf3e-4016-9207-ca35944bea8c"
  },
  {
    "id": "cb8e71ff-9a43-4ff6-8b47-b22a25ee5b89",
    "name": "Unisan",
    "state_id": "d825f983-bf3e-4016-9207-ca35944bea8c"
  },
  {
    "id": "824238d1-4ff5-4ed5-bb13-c5ca5727b9f4",
    "name": "Victoria",
    "state_id": "d825f983-bf3e-4016-9207-ca35944bea8c"
  },
  {
    "id": "bbd589f4-88f6-4e1f-8718-49c02097b8fb",
    "name": "Wawa",
    "state_id": "d825f983-bf3e-4016-9207-ca35944bea8c"
  },
  {
    "id": "e6066cdf-257a-45fa-99c1-74556ee421e2",
    "name": "Yuni",
    "state_id": "d825f983-bf3e-4016-9207-ca35944bea8c"
  }
]