[
  {
    "id": "bef5d3e0-ecbf-4359-9966-d90c59ff2992",
    "name": "Abashiri",
    "state_id": "d8a492af-5ab4-4706-9b36-a24295d4c47e"
  },
  {
    "id": "412be06c-d711-45b7-bda2-e5f905a1cdfc",
    "name": "Abashiri Shi",
    "state_id": "d8a492af-5ab4-4706-9b36-a24295d4c47e"
  },
  {
    "id": "2a2f47fd-abe6-410b-98e7-8ad6688b473d",
    "name": "Akabira",
    "state_id": "d8a492af-5ab4-4706-9b36-a24295d4c47e"
  },
  {
    "id": "b97ec9f4-5874-4afb-9e2b-b6992c47e5e6",
    "name": "Akabira-shi",
    "state_id": "d8a492af-5ab4-4706-9b36-a24295d4c47e"
  },
  {
    "id": "e4379037-5020-4117-bbec-df9fc93d36ea",
    "name": "Asahikawa",
    "state_id": "d8a492af-5ab4-4706-9b36-a24295d4c47e"
  },
  {
    "id": "33dee331-480b-42b5-bfda-b0bbf802ab11",
    "name": "Ashibetsu",
    "state_id": "d8a492af-5ab4-4706-9b36-a24295d4c47e"
  },
  {
    "id": "1cb15617-c0c0-403b-96be-7e6eb7e73aef",
    "name": "Ashibetsu-shi",
    "state_id": "d8a492af-5ab4-4706-9b36-a24295d4c47e"
  },
  {
    "id": "8b57cfd2-f776-4934-81f0-9a54dc9aa5b2",
    "name": "Bibai",
    "state_id": "d8a492af-5ab4-4706-9b36-a24295d4c47e"
  },
  {
    "id": "6bc33a8e-9eb0-4542-97e1-5969a5b1beb2",
    "name": "Chitose",
    "state_id": "d8a492af-5ab4-4706-9b36-a24295d4c47e"
  },
  {
    "id": "0f3dbd71-7d7b-42e9-9144-d9e7d77c486c",
    "name": "Chitose Shi",
    "state_id": "d8a492af-5ab4-4706-9b36-a24295d4c47e"
  },
  {
    "id": "2994fb0b-40e0-43f8-8f89-328d4738efc6",
    "name": "Date",
    "state_id": "d8a492af-5ab4-4706-9b36-a24295d4c47e"
  },
  {
    "id": "673caf2e-7110-49f6-bbf5-5fe7bf11f0c8",
    "name": "Date-shi",
    "state_id": "d8a492af-5ab4-4706-9b36-a24295d4c47e"
  },
  {
    "id": "1a074fc6-f171-4ba3-897f-ec45a2db6ded",
    "name": "Ebetsu",
    "state_id": "d8a492af-5ab4-4706-9b36-a24295d4c47e"
  },
  {
    "id": "7423b06e-9749-492f-9cb5-d2b6e98f5236",
    "name": "Eniwa-shi",
    "state_id": "d8a492af-5ab4-4706-9b36-a24295d4c47e"
  },
  {
    "id": "b54b1bb5-a30e-4d7e-8a1d-00714f2b8e6a",
    "name": "Fukagawa",
    "state_id": "d8a492af-5ab4-4706-9b36-a24295d4c47e"
  },
  {
    "id": "3ca1b418-24be-44c2-b509-f2def5d5d618",
    "name": "Fukagawa-shi",
    "state_id": "d8a492af-5ab4-4706-9b36-a24295d4c47e"
  },
  {
    "id": "77f09a37-cf5f-42a4-abff-164c3e71b509",
    "name": "Furano-shi",
    "state_id": "d8a492af-5ab4-4706-9b36-a24295d4c47e"
  },
  {
    "id": "be766e7d-1cf4-4150-b9ff-d4bd1277f01c",
    "name": "Hakodate",
    "state_id": "d8a492af-5ab4-4706-9b36-a24295d4c47e"
  },
  {
    "id": "2702862c-bd3e-4a89-96bd-c689b926e1c3",
    "name": "Hakodate Shi",
    "state_id": "d8a492af-5ab4-4706-9b36-a24295d4c47e"
  },
  {
    "id": "5a7bd35a-a6fe-4920-b3e3-dd3a35ffd9b1",
    "name": "Hokuto",
    "state_id": "d8a492af-5ab4-4706-9b36-a24295d4c47e"
  },
  {
    "id": "8e379d96-e608-4b33-966c-717b7fd58fc5",
    "name": "Hokuto-shi",
    "state_id": "d8a492af-5ab4-4706-9b36-a24295d4c47e"
  },
  {
    "id": "35d27b21-fde4-4cae-966d-f358793cdd5c",
    "name": "Honchō",
    "state_id": "d8a492af-5ab4-4706-9b36-a24295d4c47e"
  },
  {
    "id": "1d6c5894-8cf1-4681-85dd-d02842da209a",
    "name": "Ishikari",
    "state_id": "d8a492af-5ab4-4706-9b36-a24295d4c47e"
  },
  {
    "id": "c346aba2-a65a-47a7-8357-4f55cbd6faa1",
    "name": "Ishikari-shi",
    "state_id": "d8a492af-5ab4-4706-9b36-a24295d4c47e"
  },
  {
    "id": "dd333750-d5c1-4289-9372-7c1f9dfd4ef2",
    "name": "Iwamizawa",
    "state_id": "d8a492af-5ab4-4706-9b36-a24295d4c47e"
  },
  {
    "id": "d22a0463-f40b-412b-8163-92148cc5e2fd",
    "name": "Iwamizawa-shi",
    "state_id": "d8a492af-5ab4-4706-9b36-a24295d4c47e"
  },
  {
    "id": "29a54ef2-ba07-496f-83b6-1319db1734de",
    "name": "Iwanai",
    "state_id": "d8a492af-5ab4-4706-9b36-a24295d4c47e"
  },
  {
    "id": "24643cb3-72de-4fb6-9a41-a03b4f2358bc",
    "name": "Kamiiso",
    "state_id": "d8a492af-5ab4-4706-9b36-a24295d4c47e"
  },
  {
    "id": "c8b5aca8-ea2c-4076-b952-128d304ea0db",
    "name": "Kamikawa",
    "state_id": "d8a492af-5ab4-4706-9b36-a24295d4c47e"
  },
  {
    "id": "9b1cab9c-80cd-408e-8475-faf85377a971",
    "name": "Kitahiroshima",
    "state_id": "d8a492af-5ab4-4706-9b36-a24295d4c47e"
  },
  {
    "id": "a4da4678-e159-4c0a-9ccb-391031bee38b",
    "name": "Kitahiroshima-shi",
    "state_id": "d8a492af-5ab4-4706-9b36-a24295d4c47e"
  },
  {
    "id": "b429231f-5aa7-4710-80cb-9035907c3da6",
    "name": "Kitami",
    "state_id": "d8a492af-5ab4-4706-9b36-a24295d4c47e"
  },
  {
    "id": "a2bb82d2-1876-4309-8613-f12adb9acb23",
    "name": "Ktiami Shi",
    "state_id": "d8a492af-5ab4-4706-9b36-a24295d4c47e"
  },
  {
    "id": "63d32afd-32f1-4487-a31e-4b411d4bfa44",
    "name": "Kushiro",
    "state_id": "d8a492af-5ab4-4706-9b36-a24295d4c47e"
  },
  {
    "id": "2a0fda05-bbd3-48cb-af19-be572d014759",
    "name": "Kushiro Shi",
    "state_id": "d8a492af-5ab4-4706-9b36-a24295d4c47e"
  },
  {
    "id": "ee43923b-65a0-486a-ba53-80d603ae87a7",
    "name": "Makubetsu",
    "state_id": "d8a492af-5ab4-4706-9b36-a24295d4c47e"
  },
  {
    "id": "1be59074-1f65-4b62-b87f-b7a6b866e44a",
    "name": "Mikasa",
    "state_id": "d8a492af-5ab4-4706-9b36-a24295d4c47e"
  },
  {
    "id": "81b30e29-1726-4de7-b672-62f3bb6450bc",
    "name": "Mikasa-shi",
    "state_id": "d8a492af-5ab4-4706-9b36-a24295d4c47e"
  },
  {
    "id": "63b1b89e-4878-44bb-bbf0-9f086f76e31e",
    "name": "Mombetsu",
    "state_id": "d8a492af-5ab4-4706-9b36-a24295d4c47e"
  },
  {
    "id": "9e552bb4-9d9c-43b2-b5d1-ee2cf9e96fa3",
    "name": "Monbetsu Shi",
    "state_id": "d8a492af-5ab4-4706-9b36-a24295d4c47e"
  },
  {
    "id": "8c2b4964-a973-4c22-aea2-c53e68b2e738",
    "name": "Motomachi",
    "state_id": "d8a492af-5ab4-4706-9b36-a24295d4c47e"
  },
  {
    "id": "cf0eac05-b906-4bd6-84f9-8ca5883ead71",
    "name": "Muroran",
    "state_id": "d8a492af-5ab4-4706-9b36-a24295d4c47e"
  },
  {
    "id": "8d20fb63-883f-48c3-9e61-a7da4fa58ef7",
    "name": "Muroran-shi",
    "state_id": "d8a492af-5ab4-4706-9b36-a24295d4c47e"
  },
  {
    "id": "f49a7ff6-ca71-45c9-8c0b-9e1383b032b4",
    "name": "Nayoro",
    "state_id": "d8a492af-5ab4-4706-9b36-a24295d4c47e"
  },
  {
    "id": "1041ac44-2a36-4a7d-8834-33d28a609b91",
    "name": "Nayoro Shi",
    "state_id": "d8a492af-5ab4-4706-9b36-a24295d4c47e"
  },
  {
    "id": "3725d1d7-58b8-4908-b63f-a0dbf80897cb",
    "name": "Nemuro",
    "state_id": "d8a492af-5ab4-4706-9b36-a24295d4c47e"
  },
  {
    "id": "7d251405-19ce-4b16-80eb-09f8622f197d",
    "name": "Nemuro-shi",
    "state_id": "d8a492af-5ab4-4706-9b36-a24295d4c47e"
  },
  {
    "id": "381830f5-6580-4937-880b-4b4833564285",
    "name": "Niseko Town",
    "state_id": "d8a492af-5ab4-4706-9b36-a24295d4c47e"
  },
  {
    "id": "d49463ce-c3e4-4e4f-8359-487c2b7eef93",
    "name": "Noboribetsu",
    "state_id": "d8a492af-5ab4-4706-9b36-a24295d4c47e"
  },
  {
    "id": "547afaae-8fdd-4b06-98ed-b5bdeed486eb",
    "name": "Noboribetsu-shi",
    "state_id": "d8a492af-5ab4-4706-9b36-a24295d4c47e"
  },
  {
    "id": "1a5274d5-a0e2-465c-90a6-70ec574dad2f",
    "name": "Obihiro",
    "state_id": "d8a492af-5ab4-4706-9b36-a24295d4c47e"
  },
  {
    "id": "c9fb18c0-2bcb-4d35-bb05-beddd416c901",
    "name": "Obihiro Shi",
    "state_id": "d8a492af-5ab4-4706-9b36-a24295d4c47e"
  },
  {
    "id": "accafb0f-5354-4898-a721-e718be3d0c98",
    "name": "Otaru",
    "state_id": "d8a492af-5ab4-4706-9b36-a24295d4c47e"
  },
  {
    "id": "7074081a-2b33-4f57-9709-19fedeadbbf3",
    "name": "Otaru-shi",
    "state_id": "d8a492af-5ab4-4706-9b36-a24295d4c47e"
  },
  {
    "id": "916018b8-69e0-4c1e-8370-8bbef044ea1a",
    "name": "Otofuke",
    "state_id": "d8a492af-5ab4-4706-9b36-a24295d4c47e"
  },
  {
    "id": "d63c7be8-ac10-4418-b840-31ba66336550",
    "name": "Rebun Gun",
    "state_id": "d8a492af-5ab4-4706-9b36-a24295d4c47e"
  },
  {
    "id": "b62d577b-1246-4f18-9524-a9919cbde55d",
    "name": "Rishiri Gun",
    "state_id": "d8a492af-5ab4-4706-9b36-a24295d4c47e"
  },
  {
    "id": "0b60f932-9020-4c52-884c-5b8ea51651cd",
    "name": "Rishiri Town",
    "state_id": "d8a492af-5ab4-4706-9b36-a24295d4c47e"
  },
  {
    "id": "3c9ab75c-926b-4491-9c07-71babca0d870",
    "name": "Rumoi",
    "state_id": "d8a492af-5ab4-4706-9b36-a24295d4c47e"
  },
  {
    "id": "3ce276f2-4ecd-4f9e-81d8-9b954997c3fb",
    "name": "Rumoi-shi",
    "state_id": "d8a492af-5ab4-4706-9b36-a24295d4c47e"
  },
  {
    "id": "bcd17ee8-e34b-41a1-8386-2ca3d5bf9a9c",
    "name": "Sapporo",
    "state_id": "d8a492af-5ab4-4706-9b36-a24295d4c47e"
  },
  {
    "id": "2979e913-849e-4aca-8c9c-1ee64218bd9c",
    "name": "Sapporo-shi",
    "state_id": "d8a492af-5ab4-4706-9b36-a24295d4c47e"
  },
  {
    "id": "a4715de2-b1e0-4b3c-8d25-575e0eb86f5f",
    "name": "Shibetsu",
    "state_id": "d8a492af-5ab4-4706-9b36-a24295d4c47e"
  },
  {
    "id": "ce4c7505-fcaf-4af3-8c8a-45d0617da357",
    "name": "Shibetsu Shi",
    "state_id": "d8a492af-5ab4-4706-9b36-a24295d4c47e"
  },
  {
    "id": "736ffed6-2d7e-48c0-9227-b6071ac805f6",
    "name": "Shimo-furano",
    "state_id": "d8a492af-5ab4-4706-9b36-a24295d4c47e"
  },
  {
    "id": "0ab1d8a0-6734-42b4-a7de-8777e8a29c0d",
    "name": "Shiraoi",
    "state_id": "d8a492af-5ab4-4706-9b36-a24295d4c47e"
  },
  {
    "id": "cb5b68d9-8c8f-4bd4-bae0-6e17e9aa1942",
    "name": "Shizunai-furukawachō",
    "state_id": "d8a492af-5ab4-4706-9b36-a24295d4c47e"
  },
  {
    "id": "b28011a0-951e-4c71-967c-617f1800f951",
    "name": "Sunagawa",
    "state_id": "d8a492af-5ab4-4706-9b36-a24295d4c47e"
  },
  {
    "id": "dce3f025-db80-421f-9625-3ccddbd8929a",
    "name": "Sunagawa-shi",
    "state_id": "d8a492af-5ab4-4706-9b36-a24295d4c47e"
  },
  {
    "id": "0e63035a-55bd-4fcf-ab70-579e224d4f08",
    "name": "Takikawa",
    "state_id": "d8a492af-5ab4-4706-9b36-a24295d4c47e"
  },
  {
    "id": "b3aef3ea-4d71-4711-a902-4bad027518fb",
    "name": "Takikawa-shi",
    "state_id": "d8a492af-5ab4-4706-9b36-a24295d4c47e"
  },
  {
    "id": "225308d0-07db-4097-bee4-0d2f2853fd3e",
    "name": "Tōbetsu",
    "state_id": "d8a492af-5ab4-4706-9b36-a24295d4c47e"
  },
  {
    "id": "8abce54d-6efa-46b8-81d8-7ef0a1eeb9a5",
    "name": "Tomakomai",
    "state_id": "d8a492af-5ab4-4706-9b36-a24295d4c47e"
  },
  {
    "id": "09dff9a0-e3e7-4a8e-bb18-1ebe9b6e25b1",
    "name": "Tomakomai Shi",
    "state_id": "d8a492af-5ab4-4706-9b36-a24295d4c47e"
  },
  {
    "id": "9a6ebe00-743d-4954-8f98-6ae28ea628fd",
    "name": "Utashinai",
    "state_id": "d8a492af-5ab4-4706-9b36-a24295d4c47e"
  },
  {
    "id": "a68c47a8-6a00-406e-83c3-f33df644096b",
    "name": "Utashinai-shi",
    "state_id": "d8a492af-5ab4-4706-9b36-a24295d4c47e"
  },
  {
    "id": "2a29b905-fc76-4d44-8bcc-794d7e79498c",
    "name": "Wakkanai",
    "state_id": "d8a492af-5ab4-4706-9b36-a24295d4c47e"
  },
  {
    "id": "04d675c5-a8c8-4311-9f6b-41339b9a2c7c",
    "name": "Wakkanai Shi",
    "state_id": "d8a492af-5ab4-4706-9b36-a24295d4c47e"
  },
  {
    "id": "c611698f-1eb6-4bf0-a8e6-b3fcf70f5863",
    "name": "Yoichi",
    "state_id": "d8a492af-5ab4-4706-9b36-a24295d4c47e"
  },
  {
    "id": "94f21590-6480-42c7-838d-f3078a6c9e45",
    "name": "Yūbari",
    "state_id": "d8a492af-5ab4-4706-9b36-a24295d4c47e"
  },
  {
    "id": "51720569-232a-4abb-97db-613488c1730a",
    "name": "Yūbari-shi",
    "state_id": "d8a492af-5ab4-4706-9b36-a24295d4c47e"
  }
]