[
  {
    "id": "9ada38bb-b0eb-4ec0-8202-88d9207d6d8d",
    "name": "Alfatar",
    "state_id": "d8a9dba4-1509-4bc2-88e2-3391f7602567"
  },
  {
    "id": "a06a567c-7c4d-41e2-9b10-9b305fe9c9a6",
    "name": "Dulovo",
    "state_id": "d8a9dba4-1509-4bc2-88e2-3391f7602567"
  },
  {
    "id": "76b70693-ede8-4f6e-9fc8-17cb5352f501",
    "name": "Glavinitsa",
    "state_id": "d8a9dba4-1509-4bc2-88e2-3391f7602567"
  },
  {
    "id": "6066d63e-2bec-48d1-bf7f-bde41448d354",
    "name": "Kaynardzha",
    "state_id": "d8a9dba4-1509-4bc2-88e2-3391f7602567"
  },
  {
    "id": "cc9a4e9b-d70c-4d2e-beda-1833ca39c7d3",
    "name": "Obshtina Alfatar",
    "state_id": "d8a9dba4-1509-4bc2-88e2-3391f7602567"
  },
  {
    "id": "d3de2795-87ff-4d83-afb8-76f63f40a49d",
    "name": "Obshtina Dulovo",
    "state_id": "d8a9dba4-1509-4bc2-88e2-3391f7602567"
  },
  {
    "id": "a78e8a4d-335c-474e-bfef-aa78913653d9",
    "name": "Obshtina Glavinitsa",
    "state_id": "d8a9dba4-1509-4bc2-88e2-3391f7602567"
  },
  {
    "id": "25f9e39f-a0cf-4054-8a73-840eeda9f9de",
    "name": "Obshtina Kaynardzha",
    "state_id": "d8a9dba4-1509-4bc2-88e2-3391f7602567"
  },
  {
    "id": "262ec907-d350-41cd-b625-94613dcce257",
    "name": "Obshtina Silistra",
    "state_id": "d8a9dba4-1509-4bc2-88e2-3391f7602567"
  },
  {
    "id": "680a3980-eafc-4693-9486-d654e97aba4a",
    "name": "Obshtina Sitovo",
    "state_id": "d8a9dba4-1509-4bc2-88e2-3391f7602567"
  },
  {
    "id": "a7f4643e-e5b9-423c-a1d2-e12310c108b2",
    "name": "Obshtina Tutrakan",
    "state_id": "d8a9dba4-1509-4bc2-88e2-3391f7602567"
  },
  {
    "id": "325c207b-8d18-4f92-a101-4556e78c25ac",
    "name": "Silistra",
    "state_id": "d8a9dba4-1509-4bc2-88e2-3391f7602567"
  },
  {
    "id": "f2a43f91-3c19-41ba-ac10-3ed707222d09",
    "name": "Sitovo",
    "state_id": "d8a9dba4-1509-4bc2-88e2-3391f7602567"
  },
  {
    "id": "346806b0-e891-4e07-b57f-2833236d6819",
    "name": "Tutrakan",
    "state_id": "d8a9dba4-1509-4bc2-88e2-3391f7602567"
  }
]