[
  {
    "id": "81451669-183e-4233-b320-0c2c9c4d4ce2",
    "name": "Aïn Bessem",
    "state_id": "d8d5d370-4929-433c-a47e-bb1519f0e6ad"
  },
  {
    "id": "72482c89-fcfe-41da-9426-d9d5c9b5de50",
    "name": "Bouïra",
    "state_id": "d8d5d370-4929-433c-a47e-bb1519f0e6ad"
  },
  {
    "id": "03c3074c-ed4b-4386-8984-f99efa70e738",
    "name": "Chorfa",
    "state_id": "d8d5d370-4929-433c-a47e-bb1519f0e6ad"
  },
  {
    "id": "4c055e73-6432-468a-87e3-6374e272fc41",
    "name": "Draa el Mizan",
    "state_id": "d8d5d370-4929-433c-a47e-bb1519f0e6ad"
  },
  {
    "id": "dd919a74-3cc1-44bc-9352-5a00421e88ac",
    "name": "Lakhdaria",
    "state_id": "d8d5d370-4929-433c-a47e-bb1519f0e6ad"
  },
  {
    "id": "d80136e5-cf8a-46d4-b873-571fa36e78d5",
    "name": "Sour el Ghozlane",
    "state_id": "d8d5d370-4929-433c-a47e-bb1519f0e6ad"
  }
]