[
  {
    "id": "44c57957-00d4-4b42-b564-9c54597a9575",
    "name": "Għajnsielem",
    "state_id": "d8eb866b-96ad-4c11-a540-3e9e93019832"
  },
  {
    "id": "254594cd-09fe-4103-91b8-a1f4c5665bd3",
    "name": "Hal Gharghur",
    "state_id": "d8eb866b-96ad-4c11-a540-3e9e93019832"
  }
]