[
  {
    "id": "d876f33c-9950-4c01-9bc8-5c080c2f6cac",
    "name": "Abadía",
    "state_id": "d972521d-2ffe-444d-b25e-f07ec8f81ed7"
  },
  {
    "id": "551f4fdb-d03b-4e18-9e25-3b66b39e4d99",
    "name": "Abertura",
    "state_id": "d972521d-2ffe-444d-b25e-f07ec8f81ed7"
  },
  {
    "id": "589f31fb-f350-4b67-8b9f-817248f9ac3b",
    "name": "Acebo",
    "state_id": "d972521d-2ffe-444d-b25e-f07ec8f81ed7"
  },
  {
    "id": "2c93b9f1-efeb-42e1-a87c-dc107399444b",
    "name": "Acedera",
    "state_id": "d972521d-2ffe-444d-b25e-f07ec8f81ed7"
  },
  {
    "id": "a1a934c9-b0a3-4b6b-af7f-44379a3eaab6",
    "name": "Aceituna",
    "state_id": "d972521d-2ffe-444d-b25e-f07ec8f81ed7"
  },
  {
    "id": "ad8d5c61-6340-4b68-bc21-a313e8647d95",
    "name": "Aceuchal",
    "state_id": "d972521d-2ffe-444d-b25e-f07ec8f81ed7"
  },
  {
    "id": "58768fb8-96d4-4da4-a12f-fd9c888b08d9",
    "name": "Ahigal",
    "state_id": "d972521d-2ffe-444d-b25e-f07ec8f81ed7"
  },
  {
    "id": "04843730-5152-4ba9-b0f6-651608999ce2",
    "name": "Ahillones",
    "state_id": "d972521d-2ffe-444d-b25e-f07ec8f81ed7"
  },
  {
    "id": "f2acac27-4c3a-40ef-b5d9-0ef63a9deb75",
    "name": "Alange",
    "state_id": "d972521d-2ffe-444d-b25e-f07ec8f81ed7"
  },
  {
    "id": "362bc094-1247-4ae3-9ef2-f3def7e82a1e",
    "name": "Albalá",
    "state_id": "d972521d-2ffe-444d-b25e-f07ec8f81ed7"
  },
  {
    "id": "d222050f-ccb9-4513-98da-380d6cc0c3a8",
    "name": "Alburquerque",
    "state_id": "d972521d-2ffe-444d-b25e-f07ec8f81ed7"
  },
  {
    "id": "55f3dd90-2b0a-472c-b18b-572e6a99b42c",
    "name": "Alcántara",
    "state_id": "d972521d-2ffe-444d-b25e-f07ec8f81ed7"
  },
  {
    "id": "f8a69afb-e10a-4b62-872c-aadd22cc38a2",
    "name": "Alcollarín",
    "state_id": "d972521d-2ffe-444d-b25e-f07ec8f81ed7"
  },
  {
    "id": "cfa0b1c5-54dd-4fb6-86e7-66a20e47b85a",
    "name": "Alconchel",
    "state_id": "d972521d-2ffe-444d-b25e-f07ec8f81ed7"
  },
  {
    "id": "2c89abd5-98f9-4bf3-b999-7818b5f4bbf4",
    "name": "Alconera",
    "state_id": "d972521d-2ffe-444d-b25e-f07ec8f81ed7"
  },
  {
    "id": "3faa6cc8-fc5c-484c-8efa-dc1f2b7bdc16",
    "name": "Alcuéscar",
    "state_id": "d972521d-2ffe-444d-b25e-f07ec8f81ed7"
  },
  {
    "id": "61fb331d-ea5c-422a-b982-df0db77e920a",
    "name": "Aldea del Cano",
    "state_id": "d972521d-2ffe-444d-b25e-f07ec8f81ed7"
  },
  {
    "id": "be85ce39-62f1-4ed1-8705-f6198f545946",
    "name": "Aldeacentenera",
    "state_id": "d972521d-2ffe-444d-b25e-f07ec8f81ed7"
  },
  {
    "id": "d13eba2a-936d-42c3-8ddb-b03694536dbd",
    "name": "Aldeanueva de la Vera",
    "state_id": "d972521d-2ffe-444d-b25e-f07ec8f81ed7"
  },
  {
    "id": "ce62a883-5c2f-4967-a9aa-8e1e4a3cf499",
    "name": "Aldeanueva del Camino",
    "state_id": "d972521d-2ffe-444d-b25e-f07ec8f81ed7"
  },
  {
    "id": "b8f8f6d6-4849-4600-a859-e936e5dc7604",
    "name": "Alía",
    "state_id": "d972521d-2ffe-444d-b25e-f07ec8f81ed7"
  },
  {
    "id": "1b97f872-bbd7-4776-9916-3994e936311a",
    "name": "Aliseda",
    "state_id": "d972521d-2ffe-444d-b25e-f07ec8f81ed7"
  },
  {
    "id": "cd37e3a3-d2df-4574-910d-3f7b56dc0569",
    "name": "Aljucén",
    "state_id": "d972521d-2ffe-444d-b25e-f07ec8f81ed7"
  },
  {
    "id": "a55f6726-ebf6-45af-b66d-de244c6e0199",
    "name": "Almaraz",
    "state_id": "d972521d-2ffe-444d-b25e-f07ec8f81ed7"
  },
  {
    "id": "b20b6142-0f56-4ce8-96a3-49cbb61ee7ee",
    "name": "Almendral",
    "state_id": "d972521d-2ffe-444d-b25e-f07ec8f81ed7"
  },
  {
    "id": "fbe5d6c4-8911-487c-bbf6-c5622ce1c5c8",
    "name": "Almendralejo",
    "state_id": "d972521d-2ffe-444d-b25e-f07ec8f81ed7"
  },
  {
    "id": "807519f3-af2d-4acc-a530-b0c5bfe2c7b2",
    "name": "Almoharín",
    "state_id": "d972521d-2ffe-444d-b25e-f07ec8f81ed7"
  },
  {
    "id": "7e4b772d-58a5-40e6-aaaf-8322c020668a",
    "name": "Arroyo de la Luz",
    "state_id": "d972521d-2ffe-444d-b25e-f07ec8f81ed7"
  },
  {
    "id": "9fea579b-21a9-4eff-b560-156afcdfd023",
    "name": "Arroyo de San Serván",
    "state_id": "d972521d-2ffe-444d-b25e-f07ec8f81ed7"
  },
  {
    "id": "e81264b6-b5dd-437e-ac4d-e4f8ca8cfbb2",
    "name": "Arroyomolinos de la Vera",
    "state_id": "d972521d-2ffe-444d-b25e-f07ec8f81ed7"
  },
  {
    "id": "f640e109-6818-4e99-b359-615e7ff25d22",
    "name": "Atalaya",
    "state_id": "d972521d-2ffe-444d-b25e-f07ec8f81ed7"
  },
  {
    "id": "ef9dd363-1e03-4eab-a6a7-160c96152433",
    "name": "Azuaga",
    "state_id": "d972521d-2ffe-444d-b25e-f07ec8f81ed7"
  },
  {
    "id": "5b27b01d-05b6-461f-b7cc-988ef115688b",
    "name": "Badajoz",
    "state_id": "d972521d-2ffe-444d-b25e-f07ec8f81ed7"
  },
  {
    "id": "8e87b2c7-9cfc-4f4e-81a6-8d2faf4d73ba",
    "name": "Baños de Montemayor",
    "state_id": "d972521d-2ffe-444d-b25e-f07ec8f81ed7"
  },
  {
    "id": "d67e7c17-f766-4d67-9ff6-683ac297ecaa",
    "name": "Barcarrota",
    "state_id": "d972521d-2ffe-444d-b25e-f07ec8f81ed7"
  },
  {
    "id": "598e741a-6ed5-4e60-b9a6-d8b9cd9a46e3",
    "name": "Barrado",
    "state_id": "d972521d-2ffe-444d-b25e-f07ec8f81ed7"
  },
  {
    "id": "9772f0c8-108d-4bcd-bdb4-6209acef7b85",
    "name": "Baterno",
    "state_id": "d972521d-2ffe-444d-b25e-f07ec8f81ed7"
  },
  {
    "id": "06b37b2c-67ac-4576-b805-cf284f94f292",
    "name": "Benquerencia",
    "state_id": "d972521d-2ffe-444d-b25e-f07ec8f81ed7"
  },
  {
    "id": "3134e8ef-046c-49c0-8dbb-2a9604447e45",
    "name": "Berlanga",
    "state_id": "d972521d-2ffe-444d-b25e-f07ec8f81ed7"
  },
  {
    "id": "fefaa1e8-8577-4fa6-9c73-7f3c725f4138",
    "name": "Berrocalejo",
    "state_id": "d972521d-2ffe-444d-b25e-f07ec8f81ed7"
  },
  {
    "id": "eebddd56-f52c-4bd3-91a2-0cc6bb453248",
    "name": "Bienvenida",
    "state_id": "d972521d-2ffe-444d-b25e-f07ec8f81ed7"
  },
  {
    "id": "500000b5-e1d6-4f2b-998b-c360a4c51971",
    "name": "Bodonal de la Sierra",
    "state_id": "d972521d-2ffe-444d-b25e-f07ec8f81ed7"
  },
  {
    "id": "ecd8323c-61fa-48e6-8f5f-bd451815b6ba",
    "name": "Bohonal de Ibor",
    "state_id": "d972521d-2ffe-444d-b25e-f07ec8f81ed7"
  },
  {
    "id": "7dc1137c-f067-46f2-a142-6aff68023bd3",
    "name": "Botija",
    "state_id": "d972521d-2ffe-444d-b25e-f07ec8f81ed7"
  },
  {
    "id": "324e790c-a4e7-42a4-9e0e-1796f02df0d9",
    "name": "Brozas",
    "state_id": "d972521d-2ffe-444d-b25e-f07ec8f81ed7"
  },
  {
    "id": "ac62706c-5836-4f50-ab1b-ee4861ca599e",
    "name": "Burguillos del Cerro",
    "state_id": "d972521d-2ffe-444d-b25e-f07ec8f81ed7"
  },
  {
    "id": "44b9484a-e5bc-4e0f-8662-b75d31da6ff4",
    "name": "Cabañas del Castillo",
    "state_id": "d972521d-2ffe-444d-b25e-f07ec8f81ed7"
  },
  {
    "id": "600ab8f8-70f4-4b0d-995e-1bae3028b923",
    "name": "Cabeza del Buey",
    "state_id": "d972521d-2ffe-444d-b25e-f07ec8f81ed7"
  },
  {
    "id": "1748400e-880d-45d3-937e-06a59bb969a2",
    "name": "Cabeza la Vaca",
    "state_id": "d972521d-2ffe-444d-b25e-f07ec8f81ed7"
  },
  {
    "id": "4c7fb15f-9e83-45f9-addd-e4f0c514577d",
    "name": "Cabezabellosa",
    "state_id": "d972521d-2ffe-444d-b25e-f07ec8f81ed7"
  },
  {
    "id": "93281e91-02de-43a8-9d1d-086540361b1c",
    "name": "Cabezuela del Valle",
    "state_id": "d972521d-2ffe-444d-b25e-f07ec8f81ed7"
  },
  {
    "id": "16390b3e-653b-4e25-bcf6-4634cea73c82",
    "name": "Cabrero",
    "state_id": "d972521d-2ffe-444d-b25e-f07ec8f81ed7"
  },
  {
    "id": "fcdb731a-c6af-4ce2-8a6f-d221217f5855",
    "name": "Cáceres",
    "state_id": "d972521d-2ffe-444d-b25e-f07ec8f81ed7"
  },
  {
    "id": "b6134094-0000-4920-b310-f13d70570549",
    "name": "Cachorrilla",
    "state_id": "d972521d-2ffe-444d-b25e-f07ec8f81ed7"
  },
  {
    "id": "55ea767f-33b1-47ea-9a6c-185af74da623",
    "name": "Cadalso",
    "state_id": "d972521d-2ffe-444d-b25e-f07ec8f81ed7"
  },
  {
    "id": "8143ddb8-3698-44f4-ace6-3a204cad605a",
    "name": "Calamonte",
    "state_id": "d972521d-2ffe-444d-b25e-f07ec8f81ed7"
  },
  {
    "id": "ad6c526c-6b9b-4035-9703-e8a43bfe752c",
    "name": "Calera de León",
    "state_id": "d972521d-2ffe-444d-b25e-f07ec8f81ed7"
  },
  {
    "id": "5fb5a8ad-6d67-4974-884b-7963376120f8",
    "name": "Calzadilla",
    "state_id": "d972521d-2ffe-444d-b25e-f07ec8f81ed7"
  },
  {
    "id": "0d1814c6-e197-4832-beb8-03952bf1e4e8",
    "name": "Caminomorisco",
    "state_id": "d972521d-2ffe-444d-b25e-f07ec8f81ed7"
  },
  {
    "id": "e880f4ed-a7fe-4f1c-b54b-475c55f675b0",
    "name": "Campanario",
    "state_id": "d972521d-2ffe-444d-b25e-f07ec8f81ed7"
  },
  {
    "id": "fd3bc7ea-5378-4ccd-a812-848de9d46257",
    "name": "Campillo de Deleitosa",
    "state_id": "d972521d-2ffe-444d-b25e-f07ec8f81ed7"
  },
  {
    "id": "58818b7b-1278-4276-a913-511d70c9e043",
    "name": "Campillo de Llerena",
    "state_id": "d972521d-2ffe-444d-b25e-f07ec8f81ed7"
  },
  {
    "id": "9329a788-984d-448b-bea0-d6168b7edecd",
    "name": "Cañamero",
    "state_id": "d972521d-2ffe-444d-b25e-f07ec8f81ed7"
  },
  {
    "id": "33bc9530-aa9c-4f88-a51b-71c3648e5bd8",
    "name": "Cañaveral",
    "state_id": "d972521d-2ffe-444d-b25e-f07ec8f81ed7"
  },
  {
    "id": "ac6d8613-ae21-45cc-b527-f3e98c764f8b",
    "name": "Capilla",
    "state_id": "d972521d-2ffe-444d-b25e-f07ec8f81ed7"
  },
  {
    "id": "2cb0a2e8-f318-4276-9a88-37cf643865fa",
    "name": "Carbajo",
    "state_id": "d972521d-2ffe-444d-b25e-f07ec8f81ed7"
  },
  {
    "id": "e2d07411-87e2-4dd0-b8d5-8bb66b3a4e47",
    "name": "Carcaboso",
    "state_id": "d972521d-2ffe-444d-b25e-f07ec8f81ed7"
  },
  {
    "id": "33db2c18-16c3-4e1f-a4a6-afdbcc646091",
    "name": "Carmonita",
    "state_id": "d972521d-2ffe-444d-b25e-f07ec8f81ed7"
  },
  {
    "id": "dbd5c160-e65d-4d49-bba6-ae332b0e5d5c",
    "name": "Carrascalejo",
    "state_id": "d972521d-2ffe-444d-b25e-f07ec8f81ed7"
  },
  {
    "id": "4c0a9846-0141-4e4e-9d48-5ed09d383a80",
    "name": "Casar de Cáceres",
    "state_id": "d972521d-2ffe-444d-b25e-f07ec8f81ed7"
  },
  {
    "id": "298a3c1e-f1df-465b-bbc1-bc8ef2c418f2",
    "name": "Casar de Palomero",
    "state_id": "d972521d-2ffe-444d-b25e-f07ec8f81ed7"
  },
  {
    "id": "f8d0c961-1879-4bef-8697-fa7a3b75a2a1",
    "name": "Casares de las Hurdes",
    "state_id": "d972521d-2ffe-444d-b25e-f07ec8f81ed7"
  },
  {
    "id": "9c411008-a834-42a8-8076-5fe108eb5bae",
    "name": "Casas de Don Antonio",
    "state_id": "d972521d-2ffe-444d-b25e-f07ec8f81ed7"
  },
  {
    "id": "94dd2aa1-82dd-48fb-88cb-c2663dd11096",
    "name": "Casas de Don Gómez",
    "state_id": "d972521d-2ffe-444d-b25e-f07ec8f81ed7"
  },
  {
    "id": "9e3b76fd-a7aa-416c-83a8-dd7e29acefb1",
    "name": "Casas de Don Pedro",
    "state_id": "d972521d-2ffe-444d-b25e-f07ec8f81ed7"
  },
  {
    "id": "bc8ffca2-fbc7-47db-94b4-682f5859d984",
    "name": "Casas de Millán",
    "state_id": "d972521d-2ffe-444d-b25e-f07ec8f81ed7"
  },
  {
    "id": "e4c873d7-aca6-4204-929b-be031f37850b",
    "name": "Casas de Miravete",
    "state_id": "d972521d-2ffe-444d-b25e-f07ec8f81ed7"
  },
  {
    "id": "0d077760-07fa-4db4-a914-2f72338631d1",
    "name": "Casas de Reina",
    "state_id": "d972521d-2ffe-444d-b25e-f07ec8f81ed7"
  },
  {
    "id": "2db86661-9a9b-4b6d-9355-6a5bae52316a",
    "name": "Casas del Castañar",
    "state_id": "d972521d-2ffe-444d-b25e-f07ec8f81ed7"
  },
  {
    "id": "1a7a5dc2-d501-4fd5-b94f-9995f304ec62",
    "name": "Casas del Monte",
    "state_id": "d972521d-2ffe-444d-b25e-f07ec8f81ed7"
  },
  {
    "id": "79be599a-e369-45a8-aef1-22ca63dba951",
    "name": "Casatejada",
    "state_id": "d972521d-2ffe-444d-b25e-f07ec8f81ed7"
  },
  {
    "id": "f10fc2a9-5cc6-42b5-88b5-4ec02c49945b",
    "name": "Casillas de Coria",
    "state_id": "d972521d-2ffe-444d-b25e-f07ec8f81ed7"
  },
  {
    "id": "dd7aec53-2e96-487c-9d14-b29435314f14",
    "name": "Castañar de Ibor",
    "state_id": "d972521d-2ffe-444d-b25e-f07ec8f81ed7"
  },
  {
    "id": "6f14246c-3873-487d-a201-cc985410be7a",
    "name": "Castilblanco",
    "state_id": "d972521d-2ffe-444d-b25e-f07ec8f81ed7"
  },
  {
    "id": "681cec58-f355-4fe4-af49-46ed6aca7455",
    "name": "Castuera",
    "state_id": "d972521d-2ffe-444d-b25e-f07ec8f81ed7"
  },
  {
    "id": "074cac0b-ce56-4dbc-9e14-c1cc18b96fa3",
    "name": "Ceclavín",
    "state_id": "d972521d-2ffe-444d-b25e-f07ec8f81ed7"
  },
  {
    "id": "5b98f1a7-9efc-43d4-a90a-2c384e3356ec",
    "name": "Cedillo",
    "state_id": "d972521d-2ffe-444d-b25e-f07ec8f81ed7"
  },
  {
    "id": "8d4bbe11-17e0-4c65-a9f0-a4ee844254b4",
    "name": "Cerezo",
    "state_id": "d972521d-2ffe-444d-b25e-f07ec8f81ed7"
  },
  {
    "id": "e1b834d5-d649-442d-86c1-e2ec52068d2c",
    "name": "Cheles",
    "state_id": "d972521d-2ffe-444d-b25e-f07ec8f81ed7"
  },
  {
    "id": "cbd2bc32-d7c3-4aa5-899b-55f9456dc232",
    "name": "Cilleros",
    "state_id": "d972521d-2ffe-444d-b25e-f07ec8f81ed7"
  },
  {
    "id": "8a57e61f-e776-4a91-9f51-a9749d7b09c6",
    "name": "Collado",
    "state_id": "d972521d-2ffe-444d-b25e-f07ec8f81ed7"
  },
  {
    "id": "23e16407-8797-4dac-a352-77af3c0cbae1",
    "name": "Conquista de la Sierra",
    "state_id": "d972521d-2ffe-444d-b25e-f07ec8f81ed7"
  },
  {
    "id": "e7118cef-c8f3-4473-a12f-1a96bd9ecedc",
    "name": "Cordobilla de Lácara",
    "state_id": "d972521d-2ffe-444d-b25e-f07ec8f81ed7"
  },
  {
    "id": "810bd5ca-071d-43ed-bfe9-87be409c966b",
    "name": "Coria",
    "state_id": "d972521d-2ffe-444d-b25e-f07ec8f81ed7"
  },
  {
    "id": "45e9409f-1c7c-44b2-b1a4-6480f4f7b619",
    "name": "Corte de Peleas",
    "state_id": "d972521d-2ffe-444d-b25e-f07ec8f81ed7"
  },
  {
    "id": "bace8019-d82f-470b-b3e5-b9e69d3b8c99",
    "name": "Cristina",
    "state_id": "d972521d-2ffe-444d-b25e-f07ec8f81ed7"
  },
  {
    "id": "0de584d7-eabe-4b83-ac3d-042fe063ce96",
    "name": "Deleitosa",
    "state_id": "d972521d-2ffe-444d-b25e-f07ec8f81ed7"
  },
  {
    "id": "b883215d-10ec-4531-bd8f-1ee3a5939bfc",
    "name": "Descargamaría",
    "state_id": "d972521d-2ffe-444d-b25e-f07ec8f81ed7"
  },
  {
    "id": "8ea4ffb0-2438-4396-9e67-3bda493aa2be",
    "name": "Don Álvaro",
    "state_id": "d972521d-2ffe-444d-b25e-f07ec8f81ed7"
  },
  {
    "id": "4ff3c62a-ff37-4282-b517-5f3959961caf",
    "name": "Don Benito",
    "state_id": "d972521d-2ffe-444d-b25e-f07ec8f81ed7"
  },
  {
    "id": "0b4cd80a-5183-41ab-a8b2-358d1033f5cb",
    "name": "El Casar",
    "state_id": "d972521d-2ffe-444d-b25e-f07ec8f81ed7"
  },
  {
    "id": "df771944-7f25-4c4a-8b24-2d961d4c81ef",
    "name": "Eljas",
    "state_id": "d972521d-2ffe-444d-b25e-f07ec8f81ed7"
  },
  {
    "id": "bfed1cba-cde0-4e76-9496-b4c03410db3f",
    "name": "Entrín Bajo",
    "state_id": "d972521d-2ffe-444d-b25e-f07ec8f81ed7"
  },
  {
    "id": "fd2eae9f-e869-4f9e-8dbd-0cd72c34244a",
    "name": "Escurial",
    "state_id": "d972521d-2ffe-444d-b25e-f07ec8f81ed7"
  },
  {
    "id": "51e6e89b-fc60-4ce4-9ecf-bf5478667d7b",
    "name": "Esparragalejo",
    "state_id": "d972521d-2ffe-444d-b25e-f07ec8f81ed7"
  },
  {
    "id": "b1ffe840-c093-473f-993f-d22206955dfc",
    "name": "Esparragosa de la Serena",
    "state_id": "d972521d-2ffe-444d-b25e-f07ec8f81ed7"
  },
  {
    "id": "0fba4405-a74c-4014-8a34-9a9296e2c185",
    "name": "Esparragosa de Lares",
    "state_id": "d972521d-2ffe-444d-b25e-f07ec8f81ed7"
  },
  {
    "id": "c981318c-b02b-4612-9b99-7cfa969423dc",
    "name": "Feria",
    "state_id": "d972521d-2ffe-444d-b25e-f07ec8f81ed7"
  },
  {
    "id": "4b9c3035-957d-4c9d-9266-c2eb256ed9db",
    "name": "Fregenal de la Sierra",
    "state_id": "d972521d-2ffe-444d-b25e-f07ec8f81ed7"
  },
  {
    "id": "bae5f9a8-6ad8-4151-a757-382e3a3cb142",
    "name": "Fresnedoso de Ibor",
    "state_id": "d972521d-2ffe-444d-b25e-f07ec8f81ed7"
  },
  {
    "id": "d51aa09b-7405-410f-b6dc-0c6e3b09a40c",
    "name": "Fuenlabrada de los Montes",
    "state_id": "d972521d-2ffe-444d-b25e-f07ec8f81ed7"
  },
  {
    "id": "5ef17aab-8a0b-4de3-95c3-ae7dc76ce0bf",
    "name": "Fuente de Cantos",
    "state_id": "d972521d-2ffe-444d-b25e-f07ec8f81ed7"
  },
  {
    "id": "d222374b-d98b-4893-9416-c78cf4fd77bb",
    "name": "Fuente del Maestre",
    "state_id": "d972521d-2ffe-444d-b25e-f07ec8f81ed7"
  },
  {
    "id": "e181e5fd-4c0e-4b83-9143-2e9b98fde1b9",
    "name": "Fuentes de León",
    "state_id": "d972521d-2ffe-444d-b25e-f07ec8f81ed7"
  },
  {
    "id": "eab1a527-6733-421f-8177-14da190c77f5",
    "name": "Galisteo",
    "state_id": "d972521d-2ffe-444d-b25e-f07ec8f81ed7"
  },
  {
    "id": "dfe8664c-02f4-45e1-8b7f-af57dd726ab6",
    "name": "Garbayuela",
    "state_id": "d972521d-2ffe-444d-b25e-f07ec8f81ed7"
  },
  {
    "id": "a6194597-e8d3-4f2d-8b83-8fe6d1e269c0",
    "name": "Garganta la Olla",
    "state_id": "d972521d-2ffe-444d-b25e-f07ec8f81ed7"
  },
  {
    "id": "27278406-e442-4686-ade5-dc6a1639d52c",
    "name": "Gargantilla",
    "state_id": "d972521d-2ffe-444d-b25e-f07ec8f81ed7"
  },
  {
    "id": "68dd77de-a425-4cf1-ab2e-c2ce20c25a75",
    "name": "Gargüera",
    "state_id": "d972521d-2ffe-444d-b25e-f07ec8f81ed7"
  },
  {
    "id": "00ab28eb-5636-45b1-b9de-57c32a6a4a4b",
    "name": "Garlitos",
    "state_id": "d972521d-2ffe-444d-b25e-f07ec8f81ed7"
  },
  {
    "id": "4a72a353-e1bb-4c05-a72a-39a4face157c",
    "name": "Garrovillas",
    "state_id": "d972521d-2ffe-444d-b25e-f07ec8f81ed7"
  },
  {
    "id": "d48ddbb4-e9ed-444a-83ca-c5c4c837eb48",
    "name": "Garvín",
    "state_id": "d972521d-2ffe-444d-b25e-f07ec8f81ed7"
  },
  {
    "id": "6814ba72-ea28-4ab9-a4d4-2a6d8a4b3d5f",
    "name": "Gata",
    "state_id": "d972521d-2ffe-444d-b25e-f07ec8f81ed7"
  },
  {
    "id": "4544edd4-e641-44a7-9b49-7e829852f5fd",
    "name": "Granja de Torrehermosa",
    "state_id": "d972521d-2ffe-444d-b25e-f07ec8f81ed7"
  },
  {
    "id": "bd326f19-4878-4621-8854-10159437598d",
    "name": "Guadalupe",
    "state_id": "d972521d-2ffe-444d-b25e-f07ec8f81ed7"
  },
  {
    "id": "182c0296-bf94-47cf-a429-fd8b578d1387",
    "name": "Guareña",
    "state_id": "d972521d-2ffe-444d-b25e-f07ec8f81ed7"
  },
  {
    "id": "e95ad3b5-ee59-4a8a-bac3-218affd35c57",
    "name": "Guijo de Coria",
    "state_id": "d972521d-2ffe-444d-b25e-f07ec8f81ed7"
  },
  {
    "id": "c08452a8-8305-47cf-8707-ff2d1edb0bfe",
    "name": "Guijo de Galisteo",
    "state_id": "d972521d-2ffe-444d-b25e-f07ec8f81ed7"
  },
  {
    "id": "9b550f1f-27eb-4fa0-8021-40fde7367c16",
    "name": "Guijo de Granadilla",
    "state_id": "d972521d-2ffe-444d-b25e-f07ec8f81ed7"
  },
  {
    "id": "471bd1e3-6710-43ee-87e7-0d74e821ec42",
    "name": "Guijo de Santa Bárbara",
    "state_id": "d972521d-2ffe-444d-b25e-f07ec8f81ed7"
  },
  {
    "id": "163374b4-3329-4d66-8816-6b815112bbd3",
    "name": "Herguijuela",
    "state_id": "d972521d-2ffe-444d-b25e-f07ec8f81ed7"
  },
  {
    "id": "91c18dda-eaf0-4d31-bc2f-869210f33fa1",
    "name": "Hernán-Pérez",
    "state_id": "d972521d-2ffe-444d-b25e-f07ec8f81ed7"
  },
  {
    "id": "20ea5674-6b50-41c2-bb35-e90a0f3dec57",
    "name": "Herrera de Alcántara",
    "state_id": "d972521d-2ffe-444d-b25e-f07ec8f81ed7"
  },
  {
    "id": "72796691-fd3d-4f6e-815a-ec76e369f2cc",
    "name": "Herrera del Duque",
    "state_id": "d972521d-2ffe-444d-b25e-f07ec8f81ed7"
  },
  {
    "id": "b9c655a9-1114-4d94-9e4f-b9d1232a09ce",
    "name": "Hervás",
    "state_id": "d972521d-2ffe-444d-b25e-f07ec8f81ed7"
  },
  {
    "id": "c7753c26-a31f-46d6-8e1d-b3ff7e33fe26",
    "name": "Higuera",
    "state_id": "d972521d-2ffe-444d-b25e-f07ec8f81ed7"
  },
  {
    "id": "5bf10ae1-2938-4b52-81c2-5ef82dd18526",
    "name": "Higuera de la Serena",
    "state_id": "d972521d-2ffe-444d-b25e-f07ec8f81ed7"
  },
  {
    "id": "d4b3e752-c3d5-4d65-9982-a8e53a821a11",
    "name": "Higuera de Vargas",
    "state_id": "d972521d-2ffe-444d-b25e-f07ec8f81ed7"
  },
  {
    "id": "75cea08d-b5cd-42e0-8fb2-df5ec01cf454",
    "name": "Higuera la Real",
    "state_id": "d972521d-2ffe-444d-b25e-f07ec8f81ed7"
  },
  {
    "id": "d3d98d35-bf34-4da8-8f2e-d625e7265817",
    "name": "Hinojal",
    "state_id": "d972521d-2ffe-444d-b25e-f07ec8f81ed7"
  },
  {
    "id": "fd05fd5f-c627-4a6b-b82c-d9ba51139484",
    "name": "Hinojosa del Valle",
    "state_id": "d972521d-2ffe-444d-b25e-f07ec8f81ed7"
  },
  {
    "id": "d6eeb164-9a2e-4c1b-a321-dc6a8396dd55",
    "name": "Holguera",
    "state_id": "d972521d-2ffe-444d-b25e-f07ec8f81ed7"
  },
  {
    "id": "52700ee0-b700-4519-be09-f2f65bb86be2",
    "name": "Hornachos",
    "state_id": "d972521d-2ffe-444d-b25e-f07ec8f81ed7"
  },
  {
    "id": "b7214c34-9df6-47c9-bde1-293343fa975a",
    "name": "Hoyos",
    "state_id": "d972521d-2ffe-444d-b25e-f07ec8f81ed7"
  },
  {
    "id": "3d81ab0c-d09e-415d-8bfa-d38a3a25896e",
    "name": "Huélaga",
    "state_id": "d972521d-2ffe-444d-b25e-f07ec8f81ed7"
  },
  {
    "id": "f27ec756-7fcf-47c9-b708-8de8e656c546",
    "name": "Ibahernando",
    "state_id": "d972521d-2ffe-444d-b25e-f07ec8f81ed7"
  },
  {
    "id": "4a96f14f-2ce5-463f-9aa0-84fda53aba45",
    "name": "Jaraicejo",
    "state_id": "d972521d-2ffe-444d-b25e-f07ec8f81ed7"
  },
  {
    "id": "5e49f024-fcb0-445f-8db0-459dc041ba3f",
    "name": "Jaraíz de la Vera",
    "state_id": "d972521d-2ffe-444d-b25e-f07ec8f81ed7"
  },
  {
    "id": "c4a7c47f-c4fc-4ae8-a985-fdd873a015db",
    "name": "Jarandilla de la Vera",
    "state_id": "d972521d-2ffe-444d-b25e-f07ec8f81ed7"
  },
  {
    "id": "9fa50e92-9ec0-4faa-835b-97bc0871e5e4",
    "name": "Jerez de los Caballeros",
    "state_id": "d972521d-2ffe-444d-b25e-f07ec8f81ed7"
  },
  {
    "id": "d56f4b94-d123-47f1-ae9c-fe059bd74b72",
    "name": "Jerte",
    "state_id": "d972521d-2ffe-444d-b25e-f07ec8f81ed7"
  },
  {
    "id": "8a57d360-8000-4bd0-a110-b24aee79c70f",
    "name": "La Albuera",
    "state_id": "d972521d-2ffe-444d-b25e-f07ec8f81ed7"
  },
  {
    "id": "b53072ea-5660-477b-b575-0a4d19d4f74a",
    "name": "La Codosera",
    "state_id": "d972521d-2ffe-444d-b25e-f07ec8f81ed7"
  },
  {
    "id": "11b16d80-3f34-4a0f-b6c0-703d8f985336",
    "name": "La Coronada",
    "state_id": "d972521d-2ffe-444d-b25e-f07ec8f81ed7"
  },
  {
    "id": "7cd13c4b-4a8a-4452-89b8-d0d623af14b8",
    "name": "La Cumbre",
    "state_id": "d972521d-2ffe-444d-b25e-f07ec8f81ed7"
  },
  {
    "id": "3a57947a-fa38-4998-8ee4-ed8bc1132be6",
    "name": "La Garrovilla",
    "state_id": "d972521d-2ffe-444d-b25e-f07ec8f81ed7"
  },
  {
    "id": "8d360a1b-5bb9-413e-a328-45dbe68f0410",
    "name": "La Haba",
    "state_id": "d972521d-2ffe-444d-b25e-f07ec8f81ed7"
  },
  {
    "id": "578a36d8-0c82-47e0-b046-26fb0265f06c",
    "name": "La Nava de Santiago",
    "state_id": "d972521d-2ffe-444d-b25e-f07ec8f81ed7"
  },
  {
    "id": "0f617d81-ffb0-44c1-acc0-264fe90733aa",
    "name": "La Parra",
    "state_id": "d972521d-2ffe-444d-b25e-f07ec8f81ed7"
  },
  {
    "id": "34517c9c-162d-4314-a2eb-98fe7e0e150d",
    "name": "La Pesga",
    "state_id": "d972521d-2ffe-444d-b25e-f07ec8f81ed7"
  },
  {
    "id": "dda56477-2bef-4fc7-b748-3ed9eecee204",
    "name": "La Roca de la Sierra",
    "state_id": "d972521d-2ffe-444d-b25e-f07ec8f81ed7"
  },
  {
    "id": "3ed8b142-57c5-474a-b65d-c9aab8433158",
    "name": "Ladrillar",
    "state_id": "d972521d-2ffe-444d-b25e-f07ec8f81ed7"
  },
  {
    "id": "938eeb25-a9dd-46b9-9928-4a8bc3abef4a",
    "name": "Llera",
    "state_id": "d972521d-2ffe-444d-b25e-f07ec8f81ed7"
  },
  {
    "id": "363a50bf-8dca-40d7-b120-b493b2db0d7e",
    "name": "Llerena",
    "state_id": "d972521d-2ffe-444d-b25e-f07ec8f81ed7"
  },
  {
    "id": "4eafce01-f10e-4221-9828-2c54b5e1e604",
    "name": "Lobón",
    "state_id": "d972521d-2ffe-444d-b25e-f07ec8f81ed7"
  },
  {
    "id": "aa8acc0c-ad36-4b4d-a755-89501781330a",
    "name": "Logrosán",
    "state_id": "d972521d-2ffe-444d-b25e-f07ec8f81ed7"
  },
  {
    "id": "69145519-5013-4470-b2d1-5d00d88b0313",
    "name": "Los Santos de Maimona",
    "state_id": "d972521d-2ffe-444d-b25e-f07ec8f81ed7"
  },
  {
    "id": "bad72706-db4e-4748-be15-c3bc3193a9fb",
    "name": "Losar de la Vera",
    "state_id": "d972521d-2ffe-444d-b25e-f07ec8f81ed7"
  },
  {
    "id": "30e4ddf0-6d9a-408a-8c38-d66335f0acc5",
    "name": "Madrigal de la Vera",
    "state_id": "d972521d-2ffe-444d-b25e-f07ec8f81ed7"
  },
  {
    "id": "c4d0e96a-61b6-4009-8222-dcb1dde1e275",
    "name": "Madrigalejo",
    "state_id": "d972521d-2ffe-444d-b25e-f07ec8f81ed7"
  },
  {
    "id": "47b72f15-3a58-4c30-967d-0eb67bb59d57",
    "name": "Madroñera",
    "state_id": "d972521d-2ffe-444d-b25e-f07ec8f81ed7"
  },
  {
    "id": "b15c8b8b-da69-463b-92b0-1cb7f9c1ddcf",
    "name": "Magacela",
    "state_id": "d972521d-2ffe-444d-b25e-f07ec8f81ed7"
  },
  {
    "id": "33e547a7-ceff-4a36-96c0-dc165f7b88b7",
    "name": "Maguilla",
    "state_id": "d972521d-2ffe-444d-b25e-f07ec8f81ed7"
  },
  {
    "id": "ffb1fba2-c472-4b19-b2ae-f3bac085a031",
    "name": "Majadas",
    "state_id": "d972521d-2ffe-444d-b25e-f07ec8f81ed7"
  },
  {
    "id": "7f40032b-3766-4ac5-a57f-469f235552e2",
    "name": "Malcocinado",
    "state_id": "d972521d-2ffe-444d-b25e-f07ec8f81ed7"
  },
  {
    "id": "c0c560ba-211b-46c8-94bb-2e0015a839c7",
    "name": "Malpartida de Cáceres",
    "state_id": "d972521d-2ffe-444d-b25e-f07ec8f81ed7"
  },
  {
    "id": "6ae7444a-6407-4293-876b-a9fc41044e36",
    "name": "Malpartida de la Serena",
    "state_id": "d972521d-2ffe-444d-b25e-f07ec8f81ed7"
  },
  {
    "id": "b7563e04-dcbb-4712-a342-08a78d925504",
    "name": "Malpartida de Plasencia",
    "state_id": "d972521d-2ffe-444d-b25e-f07ec8f81ed7"
  },
  {
    "id": "c4b3d040-9a44-4ddf-beb1-346df77a12e5",
    "name": "Manchita",
    "state_id": "d972521d-2ffe-444d-b25e-f07ec8f81ed7"
  },
  {
    "id": "aca63d0e-e664-451a-9efa-c574f4fdf9e6",
    "name": "Marchagaz",
    "state_id": "d972521d-2ffe-444d-b25e-f07ec8f81ed7"
  },
  {
    "id": "c2043936-c089-4726-bc30-123082ad0519",
    "name": "Mata de Alcántara",
    "state_id": "d972521d-2ffe-444d-b25e-f07ec8f81ed7"
  },
  {
    "id": "14dcec9a-4542-45f2-a967-06251d387c22",
    "name": "Medellín",
    "state_id": "d972521d-2ffe-444d-b25e-f07ec8f81ed7"
  },
  {
    "id": "9d927f65-5d7d-44a4-b40b-2f0ece2addf0",
    "name": "Medina de las Torres",
    "state_id": "d972521d-2ffe-444d-b25e-f07ec8f81ed7"
  },
  {
    "id": "e8db9f06-bcdd-4bdc-bc0f-cf6f55b2fb5f",
    "name": "Mengabril",
    "state_id": "d972521d-2ffe-444d-b25e-f07ec8f81ed7"
  },
  {
    "id": "f8dfc5aa-b919-4832-b967-9fa125c176dc",
    "name": "Mérida",
    "state_id": "d972521d-2ffe-444d-b25e-f07ec8f81ed7"
  },
  {
    "id": "c590376e-c2bf-4586-bda5-4ad0dc8dc023",
    "name": "Mesas de Ibor",
    "state_id": "d972521d-2ffe-444d-b25e-f07ec8f81ed7"
  },
  {
    "id": "7a9c4721-2d87-401a-8783-811b4696d0cc",
    "name": "Miajadas",
    "state_id": "d972521d-2ffe-444d-b25e-f07ec8f81ed7"
  },
  {
    "id": "c4d1eea7-9ba7-42bf-b9a3-df334b71ecab",
    "name": "Millanes",
    "state_id": "d972521d-2ffe-444d-b25e-f07ec8f81ed7"
  },
  {
    "id": "defd4fc3-cf90-4f6b-83bf-15dce9052d92",
    "name": "Mirabel",
    "state_id": "d972521d-2ffe-444d-b25e-f07ec8f81ed7"
  },
  {
    "id": "20eee64f-2f8f-4b8d-a4ea-149db506d24f",
    "name": "Mirandilla",
    "state_id": "d972521d-2ffe-444d-b25e-f07ec8f81ed7"
  },
  {
    "id": "4561ad4b-e7c8-41f5-be5b-b0ae84a878ac",
    "name": "Monesterio",
    "state_id": "d972521d-2ffe-444d-b25e-f07ec8f81ed7"
  },
  {
    "id": "ed4d5696-e3b6-42d1-b6ad-738a7d6b11b5",
    "name": "Montánchez",
    "state_id": "d972521d-2ffe-444d-b25e-f07ec8f81ed7"
  },
  {
    "id": "1e42da47-76e2-4646-b813-6af4514783ef",
    "name": "Montehermoso",
    "state_id": "d972521d-2ffe-444d-b25e-f07ec8f81ed7"
  },
  {
    "id": "9112af90-d605-4ed7-994d-cf197d1fb943",
    "name": "Montemolín",
    "state_id": "d972521d-2ffe-444d-b25e-f07ec8f81ed7"
  },
  {
    "id": "fa3a0e89-a4d7-4eb2-bffd-d6055cf7cd8a",
    "name": "Monterrubio de la Serena",
    "state_id": "d972521d-2ffe-444d-b25e-f07ec8f81ed7"
  },
  {
    "id": "768e2d07-4703-4aa0-ab76-5e22ec3b5b56",
    "name": "Montijo",
    "state_id": "d972521d-2ffe-444d-b25e-f07ec8f81ed7"
  },
  {
    "id": "432f7cba-9702-4420-ad19-be26c84b1fed",
    "name": "Moraleja",
    "state_id": "d972521d-2ffe-444d-b25e-f07ec8f81ed7"
  },
  {
    "id": "cbb5c892-e8a7-4803-a76d-d5bdec4cead6",
    "name": "Morcillo",
    "state_id": "d972521d-2ffe-444d-b25e-f07ec8f81ed7"
  },
  {
    "id": "33337f73-b714-434d-b56c-d2e2ed1d0799",
    "name": "Navaconcejo",
    "state_id": "d972521d-2ffe-444d-b25e-f07ec8f81ed7"
  },
  {
    "id": "376f05a8-9803-4666-975d-f5426f546111",
    "name": "Navalmoral de la Mata",
    "state_id": "d972521d-2ffe-444d-b25e-f07ec8f81ed7"
  },
  {
    "id": "2c2ea314-8f3d-40cd-bd21-8bee38dfa300",
    "name": "Navalvillar de Ibor",
    "state_id": "d972521d-2ffe-444d-b25e-f07ec8f81ed7"
  },
  {
    "id": "88f324c2-d25f-4f64-9a13-86a7d7a00ce7",
    "name": "Navalvillar de Pela",
    "state_id": "d972521d-2ffe-444d-b25e-f07ec8f81ed7"
  },
  {
    "id": "ad44ede0-d03f-490c-b0cf-dba93ac35657",
    "name": "Navas del Madroño",
    "state_id": "d972521d-2ffe-444d-b25e-f07ec8f81ed7"
  },
  {
    "id": "81a2046f-a20a-4823-8b3e-e535a19ebe4f",
    "name": "Navezuelas",
    "state_id": "d972521d-2ffe-444d-b25e-f07ec8f81ed7"
  },
  {
    "id": "50db1b4b-2868-4eb1-b186-4692d4530639",
    "name": "Nogales",
    "state_id": "d972521d-2ffe-444d-b25e-f07ec8f81ed7"
  },
  {
    "id": "81f60491-dd7e-4878-a470-76fcfdff0400",
    "name": "Nuñomoral",
    "state_id": "d972521d-2ffe-444d-b25e-f07ec8f81ed7"
  },
  {
    "id": "094f0e8d-5428-49f8-85d4-9a52780f1ab3",
    "name": "Oliva de la Frontera",
    "state_id": "d972521d-2ffe-444d-b25e-f07ec8f81ed7"
  },
  {
    "id": "1ce77992-a236-493e-9d63-32fa95f71222",
    "name": "Oliva de Mérida",
    "state_id": "d972521d-2ffe-444d-b25e-f07ec8f81ed7"
  },
  {
    "id": "a2944581-ae8c-454b-86f6-b084f2c2ee6d",
    "name": "Oliva de Plasencia",
    "state_id": "d972521d-2ffe-444d-b25e-f07ec8f81ed7"
  },
  {
    "id": "eabde269-7fd8-4df6-941b-6c2df1ee9b27",
    "name": "Olivenza",
    "state_id": "d972521d-2ffe-444d-b25e-f07ec8f81ed7"
  },
  {
    "id": "19754394-b5ff-49b6-860d-ac558b8e32f4",
    "name": "Orellana la Vieja",
    "state_id": "d972521d-2ffe-444d-b25e-f07ec8f81ed7"
  },
  {
    "id": "de0ecbb8-fbdc-417c-a49c-8d3a317e52f6",
    "name": "Palomas",
    "state_id": "d972521d-2ffe-444d-b25e-f07ec8f81ed7"
  },
  {
    "id": "2375002d-2da2-4e02-b9e6-30317b5f4350",
    "name": "Palomero",
    "state_id": "d972521d-2ffe-444d-b25e-f07ec8f81ed7"
  },
  {
    "id": "7f895f92-5dc7-43d8-87e9-4eedb97ad142",
    "name": "Pedroso de Acim",
    "state_id": "d972521d-2ffe-444d-b25e-f07ec8f81ed7"
  },
  {
    "id": "87e6ed63-dfef-4213-9bee-2a0a706b2d74",
    "name": "Peñalsordo",
    "state_id": "d972521d-2ffe-444d-b25e-f07ec8f81ed7"
  },
  {
    "id": "938e5f65-c9b1-4005-9d3f-ae7d256e11b5",
    "name": "Peraleda de la Mata",
    "state_id": "d972521d-2ffe-444d-b25e-f07ec8f81ed7"
  },
  {
    "id": "dbcbd73e-6478-45c6-901b-825c96f749ec",
    "name": "Peraleda de San Román",
    "state_id": "d972521d-2ffe-444d-b25e-f07ec8f81ed7"
  },
  {
    "id": "c4fb09b2-fd95-44df-a483-0717c09d2040",
    "name": "Perales del Puerto",
    "state_id": "d972521d-2ffe-444d-b25e-f07ec8f81ed7"
  },
  {
    "id": "29da4d2e-c1c1-48fb-b74c-ea7f4deed09c",
    "name": "Pescueza",
    "state_id": "d972521d-2ffe-444d-b25e-f07ec8f81ed7"
  },
  {
    "id": "c6b86974-91b7-4be7-88fa-d187f31afd04",
    "name": "Piedras Albas",
    "state_id": "d972521d-2ffe-444d-b25e-f07ec8f81ed7"
  },
  {
    "id": "35d8abb4-f648-4adc-8fee-bb23004e7e11",
    "name": "Pinofranqueado",
    "state_id": "d972521d-2ffe-444d-b25e-f07ec8f81ed7"
  },
  {
    "id": "1ced1ed6-06b3-4f5a-8278-a97d22588712",
    "name": "Piornal",
    "state_id": "d972521d-2ffe-444d-b25e-f07ec8f81ed7"
  },
  {
    "id": "b290c7a1-d853-4b73-b48e-19d127ef5e4a",
    "name": "Plasencia",
    "state_id": "d972521d-2ffe-444d-b25e-f07ec8f81ed7"
  },
  {
    "id": "fe7c3afb-8be2-4aaa-88d9-f1b80fa8e68e",
    "name": "Plasenzuela",
    "state_id": "d972521d-2ffe-444d-b25e-f07ec8f81ed7"
  },
  {
    "id": "1c04aa10-8f6d-414f-8dca-899c8acb96a6",
    "name": "Portaje",
    "state_id": "d972521d-2ffe-444d-b25e-f07ec8f81ed7"
  },
  {
    "id": "9ecdb538-1c88-49cd-988f-79db916bc949",
    "name": "Portezuelo",
    "state_id": "d972521d-2ffe-444d-b25e-f07ec8f81ed7"
  },
  {
    "id": "d8174261-a382-49b8-a15d-158dd895ac9c",
    "name": "Pozuelo de Zarzón",
    "state_id": "d972521d-2ffe-444d-b25e-f07ec8f81ed7"
  },
  {
    "id": "afc7c22d-ee3f-4cb5-a8ed-ca37bc1308a0",
    "name": "Provincia de Badajoz",
    "state_id": "d972521d-2ffe-444d-b25e-f07ec8f81ed7"
  },
  {
    "id": "9e171cf5-ef25-4ce9-a640-4454652e4496",
    "name": "Provincia de Cáceres",
    "state_id": "d972521d-2ffe-444d-b25e-f07ec8f81ed7"
  },
  {
    "id": "7b918260-1b08-4677-b770-0aab02e100a5",
    "name": "Puebla de Alcocer",
    "state_id": "d972521d-2ffe-444d-b25e-f07ec8f81ed7"
  },
  {
    "id": "cbd07c00-cb5b-4213-b529-96d98963e3a6",
    "name": "Puebla de la Calzada",
    "state_id": "d972521d-2ffe-444d-b25e-f07ec8f81ed7"
  },
  {
    "id": "fb11b3e4-2fad-4f3a-a3ba-46d427a80002",
    "name": "Puebla de la Reina",
    "state_id": "d972521d-2ffe-444d-b25e-f07ec8f81ed7"
  },
  {
    "id": "0f4cf124-40e0-429f-a8ca-487eab99d58b",
    "name": "Puebla de Obando",
    "state_id": "d972521d-2ffe-444d-b25e-f07ec8f81ed7"
  },
  {
    "id": "8c4c80bb-f25e-4858-8186-d695ff47cc4d",
    "name": "Puebla de Sancho Pérez",
    "state_id": "d972521d-2ffe-444d-b25e-f07ec8f81ed7"
  },
  {
    "id": "08d92020-58d8-4bc7-8076-556d148107d2",
    "name": "Puebla del Maestre",
    "state_id": "d972521d-2ffe-444d-b25e-f07ec8f81ed7"
  },
  {
    "id": "f078c926-b6bb-4b4d-b370-520097b435e3",
    "name": "Puebla del Prior",
    "state_id": "d972521d-2ffe-444d-b25e-f07ec8f81ed7"
  },
  {
    "id": "a49e216b-83f3-440a-af92-625f586f9f66",
    "name": "Puerto de Santa Cruz",
    "state_id": "d972521d-2ffe-444d-b25e-f07ec8f81ed7"
  },
  {
    "id": "57b0c88d-ad47-4881-9bf3-66919d31d4e0",
    "name": "Quintana de la Serena",
    "state_id": "d972521d-2ffe-444d-b25e-f07ec8f81ed7"
  },
  {
    "id": "dc2590b1-6ecb-4394-b923-6403563f498b",
    "name": "Reina",
    "state_id": "d972521d-2ffe-444d-b25e-f07ec8f81ed7"
  },
  {
    "id": "87315c8b-634b-4b2a-a292-caf2f1e87266",
    "name": "Rena",
    "state_id": "d972521d-2ffe-444d-b25e-f07ec8f81ed7"
  },
  {
    "id": "2a49c593-0a54-4ce0-b527-6a1bb876f207",
    "name": "Ribera del Fresno",
    "state_id": "d972521d-2ffe-444d-b25e-f07ec8f81ed7"
  },
  {
    "id": "6a281785-420a-404d-8ccb-69ef1b449839",
    "name": "Ríolobos",
    "state_id": "d972521d-2ffe-444d-b25e-f07ec8f81ed7"
  },
  {
    "id": "736f9a48-10e0-48a4-abc6-7c7a139ad7d7",
    "name": "Robledillo de Gata",
    "state_id": "d972521d-2ffe-444d-b25e-f07ec8f81ed7"
  },
  {
    "id": "ed977b32-d175-4eb6-b0fc-1264d951f69a",
    "name": "Robledillo de la Vera",
    "state_id": "d972521d-2ffe-444d-b25e-f07ec8f81ed7"
  },
  {
    "id": "04afe996-54a7-4b84-b8bb-316d94f430f8",
    "name": "Robledillo de Trujillo",
    "state_id": "d972521d-2ffe-444d-b25e-f07ec8f81ed7"
  },
  {
    "id": "0c80026e-188b-4215-b18d-a5c8a10bfeda",
    "name": "Robledollano",
    "state_id": "d972521d-2ffe-444d-b25e-f07ec8f81ed7"
  },
  {
    "id": "b0cad0c0-b315-4e23-9252-4617e1c87acf",
    "name": "Romangordo",
    "state_id": "d972521d-2ffe-444d-b25e-f07ec8f81ed7"
  },
  {
    "id": "314d4805-8dc9-4743-a93b-777a206fef3b",
    "name": "Rosalejo",
    "state_id": "d972521d-2ffe-444d-b25e-f07ec8f81ed7"
  },
  {
    "id": "ec4c8555-cc83-4001-8120-1babf9d5d482",
    "name": "Ruanes",
    "state_id": "d972521d-2ffe-444d-b25e-f07ec8f81ed7"
  },
  {
    "id": "86b4bc70-f039-4943-b032-faf2c65bd316",
    "name": "Salorino",
    "state_id": "d972521d-2ffe-444d-b25e-f07ec8f81ed7"
  },
  {
    "id": "ea5fa6ba-4091-4430-a002-cc084dc50146",
    "name": "Salvaleón",
    "state_id": "d972521d-2ffe-444d-b25e-f07ec8f81ed7"
  },
  {
    "id": "169a948c-13e5-44e2-ab20-19bf9752e76e",
    "name": "Salvatierra de los Barros",
    "state_id": "d972521d-2ffe-444d-b25e-f07ec8f81ed7"
  },
  {
    "id": "d15c2951-5d0a-4b25-81c4-815f0dffae31",
    "name": "Salvatierra de Santiago",
    "state_id": "d972521d-2ffe-444d-b25e-f07ec8f81ed7"
  },
  {
    "id": "53c927f9-ebea-4d0b-8fc8-e68569a7338b",
    "name": "San Martín de Trevejo",
    "state_id": "d972521d-2ffe-444d-b25e-f07ec8f81ed7"
  },
  {
    "id": "84e84e3b-bbf8-4110-8e47-499573ece75e",
    "name": "San Pedro de Mérida",
    "state_id": "d972521d-2ffe-444d-b25e-f07ec8f81ed7"
  },
  {
    "id": "66edea4a-8f2d-48ef-b1fa-6b56a2c0bd9f",
    "name": "San Vicente de Alcántara",
    "state_id": "d972521d-2ffe-444d-b25e-f07ec8f81ed7"
  },
  {
    "id": "bcaf8d56-de1b-41da-837a-a00539398f59",
    "name": "Santa Amalia",
    "state_id": "d972521d-2ffe-444d-b25e-f07ec8f81ed7"
  },
  {
    "id": "369c49e6-95fd-40fd-8dd0-ca31bed314ed",
    "name": "Santa Ana",
    "state_id": "d972521d-2ffe-444d-b25e-f07ec8f81ed7"
  },
  {
    "id": "5066a0e9-f7c5-4934-8e2c-5cc4e45bb1c4",
    "name": "Santa Cruz de la Sierra",
    "state_id": "d972521d-2ffe-444d-b25e-f07ec8f81ed7"
  },
  {
    "id": "9360bab5-1b45-477f-a16b-e07e3a4536e5",
    "name": "Santa Cruz de Paniagua",
    "state_id": "d972521d-2ffe-444d-b25e-f07ec8f81ed7"
  },
  {
    "id": "fd4677c7-18a9-488a-afd1-d27319d947f9",
    "name": "Santa Marta",
    "state_id": "d972521d-2ffe-444d-b25e-f07ec8f81ed7"
  },
  {
    "id": "be9ea21c-8f48-4f63-9eca-85647abf4d54",
    "name": "Santa Marta de Magasca",
    "state_id": "d972521d-2ffe-444d-b25e-f07ec8f81ed7"
  },
  {
    "id": "0b596a89-fac2-4f0c-b258-7dcd26e17f39",
    "name": "Santiago del Campo",
    "state_id": "d972521d-2ffe-444d-b25e-f07ec8f81ed7"
  },
  {
    "id": "1435b0d4-b8e5-48db-8a45-ad02a8da2ac6",
    "name": "Santibáñez el Alto",
    "state_id": "d972521d-2ffe-444d-b25e-f07ec8f81ed7"
  },
  {
    "id": "78a41735-b097-4508-8bc0-200bfa06187a",
    "name": "Santibáñez el Bajo",
    "state_id": "d972521d-2ffe-444d-b25e-f07ec8f81ed7"
  },
  {
    "id": "0d4b914a-0033-4b1d-8af1-a62338ddf2dc",
    "name": "Saucedilla",
    "state_id": "d972521d-2ffe-444d-b25e-f07ec8f81ed7"
  },
  {
    "id": "72f24457-0463-49d1-b9bb-9fe93c07c5e6",
    "name": "Segura de León",
    "state_id": "d972521d-2ffe-444d-b25e-f07ec8f81ed7"
  },
  {
    "id": "dd469214-5d22-45a9-a9e7-1bafc6165432",
    "name": "Segura de Toro",
    "state_id": "d972521d-2ffe-444d-b25e-f07ec8f81ed7"
  },
  {
    "id": "16be32ff-c803-4c66-9baf-21b539e2ebbb",
    "name": "Serradilla",
    "state_id": "d972521d-2ffe-444d-b25e-f07ec8f81ed7"
  },
  {
    "id": "ede626ea-3e51-4fcc-8107-8e5ba252bf6c",
    "name": "Serrejón",
    "state_id": "d972521d-2ffe-444d-b25e-f07ec8f81ed7"
  },
  {
    "id": "a1194c9d-8fcd-4a2f-9414-81ca31f6ef5f",
    "name": "Sierra de Fuentes",
    "state_id": "d972521d-2ffe-444d-b25e-f07ec8f81ed7"
  },
  {
    "id": "e1779dfa-2bc1-4f82-a0f5-a1507429c21c",
    "name": "Siruela",
    "state_id": "d972521d-2ffe-444d-b25e-f07ec8f81ed7"
  },
  {
    "id": "24f8f36d-882d-487b-92d3-a1364d306680",
    "name": "Solana de los Barros",
    "state_id": "d972521d-2ffe-444d-b25e-f07ec8f81ed7"
  },
  {
    "id": "347745ac-8559-44da-baa6-65207c97a713",
    "name": "Talarrubias",
    "state_id": "d972521d-2ffe-444d-b25e-f07ec8f81ed7"
  },
  {
    "id": "d5ae9f7d-76a4-40ea-85d5-9c83d85ad5d7",
    "name": "Talaván",
    "state_id": "d972521d-2ffe-444d-b25e-f07ec8f81ed7"
  },
  {
    "id": "bc74bced-e7a0-42b5-a366-1262dcc2f7f1",
    "name": "Talavera La Real",
    "state_id": "d972521d-2ffe-444d-b25e-f07ec8f81ed7"
  },
  {
    "id": "c1abdf01-d40d-4be1-9f1f-439d46a2b9b9",
    "name": "Talayuela",
    "state_id": "d972521d-2ffe-444d-b25e-f07ec8f81ed7"
  },
  {
    "id": "0b47736b-de07-4e34-93fb-38c0cf273f7a",
    "name": "Táliga",
    "state_id": "d972521d-2ffe-444d-b25e-f07ec8f81ed7"
  },
  {
    "id": "890f93e4-fa5a-4021-b585-e8edb694548b",
    "name": "Tamurejo",
    "state_id": "d972521d-2ffe-444d-b25e-f07ec8f81ed7"
  },
  {
    "id": "ee4a75c7-5701-42a0-893d-54a64f5311f6",
    "name": "Tejeda de Tiétar",
    "state_id": "d972521d-2ffe-444d-b25e-f07ec8f81ed7"
  },
  {
    "id": "31e99aae-0fd0-4355-8f7e-d0acd47cf5c9",
    "name": "Toril",
    "state_id": "d972521d-2ffe-444d-b25e-f07ec8f81ed7"
  },
  {
    "id": "ee5e6477-f20f-4e97-bfb4-5b3ad9f7d31f",
    "name": "Tornavacas",
    "state_id": "d972521d-2ffe-444d-b25e-f07ec8f81ed7"
  },
  {
    "id": "584c1f6b-a37b-4c08-8781-c0f345555143",
    "name": "Torre de Don Miguel",
    "state_id": "d972521d-2ffe-444d-b25e-f07ec8f81ed7"
  },
  {
    "id": "e805cca4-e350-4e1b-9a4c-7d651683ac70",
    "name": "Torre de Miguel Sesmero",
    "state_id": "d972521d-2ffe-444d-b25e-f07ec8f81ed7"
  },
  {
    "id": "0cf42b8f-fc9f-46f4-84d1-b90e3b2c45a2",
    "name": "Torre de Santa María",
    "state_id": "d972521d-2ffe-444d-b25e-f07ec8f81ed7"
  },
  {
    "id": "41c7f4ef-d66c-495f-98d2-a4176ae6d4ee",
    "name": "Torrecilla de los Ángeles",
    "state_id": "d972521d-2ffe-444d-b25e-f07ec8f81ed7"
  },
  {
    "id": "0e2c51b6-e1bb-4dca-98d0-10e6590047c5",
    "name": "Torrecillas de la Tiesa",
    "state_id": "d972521d-2ffe-444d-b25e-f07ec8f81ed7"
  },
  {
    "id": "862e6e80-107b-43e8-accd-62955348a7e1",
    "name": "Torrejón el Rubio",
    "state_id": "d972521d-2ffe-444d-b25e-f07ec8f81ed7"
  },
  {
    "id": "66fb5413-a8cb-490b-b75d-6b3c0091cdc0",
    "name": "Torrejoncillo",
    "state_id": "d972521d-2ffe-444d-b25e-f07ec8f81ed7"
  },
  {
    "id": "4d0bec0b-e850-4d92-83c8-c8de9e924923",
    "name": "Torremayor",
    "state_id": "d972521d-2ffe-444d-b25e-f07ec8f81ed7"
  },
  {
    "id": "b75e3cd0-97fa-4607-ba11-4e1a612f5a08",
    "name": "Torremegía",
    "state_id": "d972521d-2ffe-444d-b25e-f07ec8f81ed7"
  },
  {
    "id": "c5fbfa39-02ca-41c7-978b-248f520e5acd",
    "name": "Torremenga",
    "state_id": "d972521d-2ffe-444d-b25e-f07ec8f81ed7"
  },
  {
    "id": "97f4dbd3-8539-44d5-8fa9-a83a50b249cf",
    "name": "Torremocha",
    "state_id": "d972521d-2ffe-444d-b25e-f07ec8f81ed7"
  },
  {
    "id": "074fecfd-4cb7-4db7-9eab-ad061d54a269",
    "name": "Torreorgaz",
    "state_id": "d972521d-2ffe-444d-b25e-f07ec8f81ed7"
  },
  {
    "id": "d185e480-64ff-4193-8ea3-7a61e298122b",
    "name": "Torrequemada",
    "state_id": "d972521d-2ffe-444d-b25e-f07ec8f81ed7"
  },
  {
    "id": "fbf74461-54f8-4286-8d98-e61246ccc1dc",
    "name": "Trasierra",
    "state_id": "d972521d-2ffe-444d-b25e-f07ec8f81ed7"
  },
  {
    "id": "b5da1eb4-2788-494d-8845-2b1fc8b111b7",
    "name": "Trujillanos",
    "state_id": "d972521d-2ffe-444d-b25e-f07ec8f81ed7"
  },
  {
    "id": "c18adb4a-30bd-4167-a7b7-88cee580d235",
    "name": "Trujillo",
    "state_id": "d972521d-2ffe-444d-b25e-f07ec8f81ed7"
  },
  {
    "id": "ead0a3fc-a4df-45e6-a977-9ea770172df6",
    "name": "Usagre",
    "state_id": "d972521d-2ffe-444d-b25e-f07ec8f81ed7"
  },
  {
    "id": "d67fe2c0-8ef4-4bab-b4b4-48a3917c5a6e",
    "name": "Valdastillas",
    "state_id": "d972521d-2ffe-444d-b25e-f07ec8f81ed7"
  },
  {
    "id": "f52a696e-b274-488e-ad45-16d61e83f536",
    "name": "Valdecaballeros",
    "state_id": "d972521d-2ffe-444d-b25e-f07ec8f81ed7"
  },
  {
    "id": "5d3b1080-5f89-489b-94d2-22aa4c3856ab",
    "name": "Valdecañas de Tajo",
    "state_id": "d972521d-2ffe-444d-b25e-f07ec8f81ed7"
  },
  {
    "id": "01385ea1-3009-4240-98a9-81106f49ad54",
    "name": "Valdefuentes",
    "state_id": "d972521d-2ffe-444d-b25e-f07ec8f81ed7"
  },
  {
    "id": "39e3fdab-a0e3-411b-aad3-a8bdfaaa81f2",
    "name": "Valdehúncar",
    "state_id": "d972521d-2ffe-444d-b25e-f07ec8f81ed7"
  },
  {
    "id": "924095b7-69df-48dd-8d37-5157a2791c26",
    "name": "Valdelacalzada",
    "state_id": "d972521d-2ffe-444d-b25e-f07ec8f81ed7"
  },
  {
    "id": "fdd8b564-19a1-40b4-a90d-3d4fe8233dce",
    "name": "Valdelacasa de Tajo",
    "state_id": "d972521d-2ffe-444d-b25e-f07ec8f81ed7"
  },
  {
    "id": "33dd2f54-793c-47eb-a88a-9e029f13a8d2",
    "name": "Valdemorales",
    "state_id": "d972521d-2ffe-444d-b25e-f07ec8f81ed7"
  },
  {
    "id": "7976aa5b-8fd4-4a21-b413-42aa09e24bfe",
    "name": "Valdeobispo",
    "state_id": "d972521d-2ffe-444d-b25e-f07ec8f81ed7"
  },
  {
    "id": "82c8efe3-77ac-4d22-aa61-152ac56ddd26",
    "name": "Valdetorres",
    "state_id": "d972521d-2ffe-444d-b25e-f07ec8f81ed7"
  },
  {
    "id": "1819df4c-a127-476a-a9a4-723da4d3ccad",
    "name": "Valencia de Alcántara",
    "state_id": "d972521d-2ffe-444d-b25e-f07ec8f81ed7"
  },
  {
    "id": "a18671fb-6742-4344-be52-a5df2c55b71a",
    "name": "Valencia de las Torres",
    "state_id": "d972521d-2ffe-444d-b25e-f07ec8f81ed7"
  },
  {
    "id": "6332e6f4-aa62-474e-932e-7473ed0e1f83",
    "name": "Valencia del Mombuey",
    "state_id": "d972521d-2ffe-444d-b25e-f07ec8f81ed7"
  },
  {
    "id": "0d5cac64-6c8d-434b-9790-decd26346776",
    "name": "Valencia del Ventoso",
    "state_id": "d972521d-2ffe-444d-b25e-f07ec8f81ed7"
  },
  {
    "id": "742f1e4c-81c4-40a0-aad8-5e1f0ab86dc9",
    "name": "Valle de la Serena",
    "state_id": "d972521d-2ffe-444d-b25e-f07ec8f81ed7"
  },
  {
    "id": "9a2a165e-51da-4b39-8c94-c78c77873eec",
    "name": "Valle de Matamoros",
    "state_id": "d972521d-2ffe-444d-b25e-f07ec8f81ed7"
  },
  {
    "id": "3fcffd3d-11c3-42f1-8d97-4f2338c0dfec",
    "name": "Valle de Santa Ana",
    "state_id": "d972521d-2ffe-444d-b25e-f07ec8f81ed7"
  },
  {
    "id": "37f98346-2a30-4790-8a64-707f23d6d330",
    "name": "Valverde de Burguillos",
    "state_id": "d972521d-2ffe-444d-b25e-f07ec8f81ed7"
  },
  {
    "id": "6e11fb60-e302-4581-b851-eda5693c206f",
    "name": "Valverde de la Vera",
    "state_id": "d972521d-2ffe-444d-b25e-f07ec8f81ed7"
  },
  {
    "id": "b2e8c41f-7a95-431b-85a1-898212d39f6e",
    "name": "Valverde de Leganés",
    "state_id": "d972521d-2ffe-444d-b25e-f07ec8f81ed7"
  },
  {
    "id": "afe03732-6af0-42bb-9541-dd38f5230d90",
    "name": "Valverde de Llerena",
    "state_id": "d972521d-2ffe-444d-b25e-f07ec8f81ed7"
  },
  {
    "id": "84f0ccd3-265e-4ae6-80ec-57b5a9768baa",
    "name": "Valverde de Mérida",
    "state_id": "d972521d-2ffe-444d-b25e-f07ec8f81ed7"
  },
  {
    "id": "52b58b5e-4e54-45f5-aff0-fb703c6fa6d3",
    "name": "Valverde del Fresno",
    "state_id": "d972521d-2ffe-444d-b25e-f07ec8f81ed7"
  },
  {
    "id": "280aa7f2-53f7-498d-8cc2-8d73a623ccb1",
    "name": "Viandar de la Vera",
    "state_id": "d972521d-2ffe-444d-b25e-f07ec8f81ed7"
  },
  {
    "id": "de2760af-9207-4b2e-af29-a72058237021",
    "name": "Villa del Campo",
    "state_id": "d972521d-2ffe-444d-b25e-f07ec8f81ed7"
  },
  {
    "id": "a27aa645-393c-4f83-8e7e-1b0689e5c40e",
    "name": "Villa del Rey",
    "state_id": "d972521d-2ffe-444d-b25e-f07ec8f81ed7"
  },
  {
    "id": "bbd491e4-b602-418d-a6ae-f52b323147f1",
    "name": "Villafranca de los Barros",
    "state_id": "d972521d-2ffe-444d-b25e-f07ec8f81ed7"
  },
  {
    "id": "86efc95b-41ab-457b-a335-894829c53556",
    "name": "Villagarcía de la Torre",
    "state_id": "d972521d-2ffe-444d-b25e-f07ec8f81ed7"
  },
  {
    "id": "f485e8bb-83ea-4367-8279-b3e77758c360",
    "name": "Villagonzalo",
    "state_id": "d972521d-2ffe-444d-b25e-f07ec8f81ed7"
  },
  {
    "id": "4a253b6b-f557-4236-a9c3-6bdd92c57ee3",
    "name": "Villalba de los Barros",
    "state_id": "d972521d-2ffe-444d-b25e-f07ec8f81ed7"
  },
  {
    "id": "83b84f48-eb52-4124-adba-0edfc00ec517",
    "name": "Villamesías",
    "state_id": "d972521d-2ffe-444d-b25e-f07ec8f81ed7"
  },
  {
    "id": "2b10d4c5-8b17-4df5-b6e8-e3481971c9b6",
    "name": "Villamiel",
    "state_id": "d972521d-2ffe-444d-b25e-f07ec8f81ed7"
  },
  {
    "id": "8f8d63f8-b81b-4b10-812a-95b988e3ce0f",
    "name": "Villanueva de la Serena",
    "state_id": "d972521d-2ffe-444d-b25e-f07ec8f81ed7"
  },
  {
    "id": "f8cdfd41-3c19-49fe-824d-d52e2db6daec",
    "name": "Villanueva de la Sierra",
    "state_id": "d972521d-2ffe-444d-b25e-f07ec8f81ed7"
  },
  {
    "id": "349f2c64-96d4-4e80-b63f-c4af945059b6",
    "name": "Villanueva de la Vera",
    "state_id": "d972521d-2ffe-444d-b25e-f07ec8f81ed7"
  },
  {
    "id": "2c568833-236b-420b-8b66-6181407c5064",
    "name": "Villanueva del Fresno",
    "state_id": "d972521d-2ffe-444d-b25e-f07ec8f81ed7"
  },
  {
    "id": "4f0ae1c1-3c0d-4df4-9c8a-8f8450d49fb1",
    "name": "Villar de Plasencia",
    "state_id": "d972521d-2ffe-444d-b25e-f07ec8f81ed7"
  },
  {
    "id": "ceb02584-9b3b-47bb-b190-e3fef1612056",
    "name": "Villar de Rena",
    "state_id": "d972521d-2ffe-444d-b25e-f07ec8f81ed7"
  },
  {
    "id": "4bf09695-44b6-4e23-83fc-7a5a4f07ba44",
    "name": "Villar del Pedroso",
    "state_id": "d972521d-2ffe-444d-b25e-f07ec8f81ed7"
  },
  {
    "id": "cab065f2-a1ab-4db5-844b-4f4fe52f8297",
    "name": "Villar del Rey",
    "state_id": "d972521d-2ffe-444d-b25e-f07ec8f81ed7"
  },
  {
    "id": "5dd7167b-3073-472b-878f-61c38f960e1a",
    "name": "Villarta de los Montes",
    "state_id": "d972521d-2ffe-444d-b25e-f07ec8f81ed7"
  },
  {
    "id": "a89d1c0e-d1f8-4c9c-8a14-53d84d7d34b4",
    "name": "Villasbuenas de Gata",
    "state_id": "d972521d-2ffe-444d-b25e-f07ec8f81ed7"
  },
  {
    "id": "91da274f-abfd-4996-b5d6-486bc9ef438d",
    "name": "Zafra",
    "state_id": "d972521d-2ffe-444d-b25e-f07ec8f81ed7"
  },
  {
    "id": "65f133d9-1b7c-418e-b109-cfadd8ebf93b",
    "name": "Zahinos",
    "state_id": "d972521d-2ffe-444d-b25e-f07ec8f81ed7"
  },
  {
    "id": "7f416f54-4ec1-4c84-aaf2-180b97db5894",
    "name": "Zalamea de la Serena",
    "state_id": "d972521d-2ffe-444d-b25e-f07ec8f81ed7"
  },
  {
    "id": "56be663e-3815-4087-9b0d-b3b19a7ce80a",
    "name": "Zarza de Alange",
    "state_id": "d972521d-2ffe-444d-b25e-f07ec8f81ed7"
  },
  {
    "id": "78356f55-deeb-48a3-900f-769d9551fabb",
    "name": "Zarza de Granadilla",
    "state_id": "d972521d-2ffe-444d-b25e-f07ec8f81ed7"
  },
  {
    "id": "262215df-473b-4ac9-b017-62ca3eadc476",
    "name": "Zarza de Montánchez",
    "state_id": "d972521d-2ffe-444d-b25e-f07ec8f81ed7"
  },
  {
    "id": "7181a104-0028-4567-9357-e7542b7653ca",
    "name": "Zarza la Mayor",
    "state_id": "d972521d-2ffe-444d-b25e-f07ec8f81ed7"
  },
  {
    "id": "8ea1b454-e24f-4283-8e5d-c197eb93bcce",
    "name": "Zorita",
    "state_id": "d972521d-2ffe-444d-b25e-f07ec8f81ed7"
  }
]