[
  {
    "id": "64c86c78-357e-4a07-9c66-e692c821968b",
    "name": "Ahero",
    "state_id": "d9dabc17-b1ef-4187-a979-c504272a184b"
  },
  {
    "id": "2e351f7d-7180-4080-bb17-069f260ecdf7",
    "name": "Kisumu",
    "state_id": "d9dabc17-b1ef-4187-a979-c504272a184b"
  },
  {
    "id": "97c5f21f-de2d-4394-b607-c3008f71f45f",
    "name": "Muhoroni",
    "state_id": "d9dabc17-b1ef-4187-a979-c504272a184b"
  }
]