[
  {
    "id": "147d38bc-b98e-4d1c-a543-7db21efe8945",
    "name": "Nieuw Nickerie",
    "state_id": "db72d2da-1826-412e-85bb-cc7d64cee221"
  },
  {
    "id": "b9e0f8ac-4972-4fd9-a420-4efc1f2d1dd4",
    "name": "Wageningen",
    "state_id": "db72d2da-1826-412e-85bb-cc7d64cee221"
  }
]