[
  {
    "id": "030454a6-4544-4e0c-8d80-3de825fd07fb",
    "name": "Bakovci",
    "state_id": "dbc4f8fc-52aa-47b6-be81-33fabf94a6aa"
  },
  {
    "id": "a8f175a6-aa59-4f01-b34a-fe435a410d3a",
    "name": "Černelavci",
    "state_id": "dbc4f8fc-52aa-47b6-be81-33fabf94a6aa"
  },
  {
    "id": "b5ec51c4-778c-4cd4-ac2b-0a75159e8fc8",
    "name": "Krog",
    "state_id": "dbc4f8fc-52aa-47b6-be81-33fabf94a6aa"
  },
  {
    "id": "8348e5da-23b0-4320-9d76-a13e54d60c7d",
    "name": "Murska Sobota",
    "state_id": "dbc4f8fc-52aa-47b6-be81-33fabf94a6aa"
  },
  {
    "id": "49ad88a3-cc5d-4256-9234-7fb6f1a04eb0",
    "name": "Rakičan",
    "state_id": "dbc4f8fc-52aa-47b6-be81-33fabf94a6aa"
  }
]