[
  {
    "id": "c8d5ac9f-5fe0-460e-aa76-3ff116d4f519",
    "name": "Lindi",
    "state_id": "dc3e220e-21d5-4d1b-909f-3880678b04e2"
  },
  {
    "id": "76d8c499-d4ed-4b46-946f-860e197ef4dd",
    "name": "Mbekenyera",
    "state_id": "dc3e220e-21d5-4d1b-909f-3880678b04e2"
  },
  {
    "id": "c5ebb6c3-34d1-4d31-b742-7709caf3e559",
    "name": "Mingoyo",
    "state_id": "dc3e220e-21d5-4d1b-909f-3880678b04e2"
  },
  {
    "id": "0bea7de1-8610-4c93-916d-621358293f42",
    "name": "Mtama",
    "state_id": "dc3e220e-21d5-4d1b-909f-3880678b04e2"
  },
  {
    "id": "8dbb59c9-ba9b-4bd1-8715-3c95874d39b9",
    "name": "Nachingwea",
    "state_id": "dc3e220e-21d5-4d1b-909f-3880678b04e2"
  },
  {
    "id": "945e32e3-d6b6-4c67-9a15-e534df6e15a2",
    "name": "Nyangao",
    "state_id": "dc3e220e-21d5-4d1b-909f-3880678b04e2"
  },
  {
    "id": "a161cfe3-8554-4621-bd7c-b043412ae4a8",
    "name": "Ruangwa",
    "state_id": "dc3e220e-21d5-4d1b-909f-3880678b04e2"
  }
]