[
  {
    "id": "5b6e14d2-2d05-4c42-aa25-4d418990a4e9",
    "name": "I-n-Salah",
    "state_id": "dccfe6dc-8b68-4e6c-913a-075a9d1a6c75"
  },
  {
    "id": "17fd6544-d64f-40df-b5ff-2d1c2d8923a4",
    "name": "Tamanrasset",
    "state_id": "dccfe6dc-8b68-4e6c-913a-075a9d1a6c75"
  }
]