[
  {
    "id": "5c1fa121-40ed-487c-94d8-40f067c1a31f",
    "name": "Bimbo",
    "state_id": "dd248697-60ec-4280-b87b-dd1f555589b7"
  },
  {
    "id": "ee4a3e36-9fe2-4a29-8d6c-b479871efa65",
    "name": "Boali",
    "state_id": "dd248697-60ec-4280-b87b-dd1f555589b7"
  },
  {
    "id": "e64c6707-a30e-495f-96ad-e3a16eb553ac",
    "name": "Damara",
    "state_id": "dd248697-60ec-4280-b87b-dd1f555589b7"
  }
]