[
  {
    "id": "8e29e3e2-d800-4e0e-a285-a5064eba646a",
    "name": "Augier",
    "state_id": "dd6b6b29-245b-4546-aa0d-176969f441a2"
  },
  {
    "id": "f9c6ae8a-f029-4fd7-b10c-6adf95bc2d80",
    "name": "Beane Field",
    "state_id": "dd6b6b29-245b-4546-aa0d-176969f441a2"
  },
  {
    "id": "8a1a415a-ec61-4198-8471-4973ed370a75",
    "name": "Beausejour",
    "state_id": "dd6b6b29-245b-4546-aa0d-176969f441a2"
  },
  {
    "id": "03d87899-5462-48ff-b6e3-c0e7bf8f6436",
    "name": "Belle Vue",
    "state_id": "dd6b6b29-245b-4546-aa0d-176969f441a2"
  },
  {
    "id": "3bec27ce-cfd2-40b2-a2c0-a8db7d0f3eb1",
    "name": "Black Bay",
    "state_id": "dd6b6b29-245b-4546-aa0d-176969f441a2"
  },
  {
    "id": "5d03e737-bdb1-4a92-9ee4-fbeaaf51ee06",
    "name": "Bruceville/Shanty Town",
    "state_id": "dd6b6b29-245b-4546-aa0d-176969f441a2"
  },
  {
    "id": "eeb0d74d-c18c-459a-af10-a2abab486098",
    "name": "Cacoa",
    "state_id": "dd6b6b29-245b-4546-aa0d-176969f441a2"
  },
  {
    "id": "cd4db2dd-d7b3-466c-a572-59a05fd4c198",
    "name": "Cantonement",
    "state_id": "dd6b6b29-245b-4546-aa0d-176969f441a2"
  },
  {
    "id": "4c385716-8bc5-4af7-9b48-c86913fa849f",
    "name": "Carierre",
    "state_id": "dd6b6b29-245b-4546-aa0d-176969f441a2"
  },
  {
    "id": "39bf956e-c998-4761-82be-4cfd976b8677",
    "name": "Catin",
    "state_id": "dd6b6b29-245b-4546-aa0d-176969f441a2"
  },
  {
    "id": "c6b53c96-95c8-479f-adff-77d7dcfdfae6",
    "name": "Cocoa Dan",
    "state_id": "dd6b6b29-245b-4546-aa0d-176969f441a2"
  },
  {
    "id": "a7bd89c9-79fb-45fd-9b9e-0ce15f1efb98",
    "name": "Coolie Town",
    "state_id": "dd6b6b29-245b-4546-aa0d-176969f441a2"
  },
  {
    "id": "f427fd3b-fc79-4ebf-892c-c62afe08e6c4",
    "name": "De Mailly",
    "state_id": "dd6b6b29-245b-4546-aa0d-176969f441a2"
  },
  {
    "id": "d14c84c9-4f7b-4e8b-ae81-f13e19928d85",
    "name": "Derierre Bois",
    "state_id": "dd6b6b29-245b-4546-aa0d-176969f441a2"
  },
  {
    "id": "6dc9bf16-0396-44fd-ab87-f6d5969f758d",
    "name": "Derierre Morne",
    "state_id": "dd6b6b29-245b-4546-aa0d-176969f441a2"
  },
  {
    "id": "700dd10d-c216-4954-a57d-0257126bcb07",
    "name": "Docamel/La Resource",
    "state_id": "dd6b6b29-245b-4546-aa0d-176969f441a2"
  },
  {
    "id": "3b550843-7512-43a5-b4e1-658c9c3b7865",
    "name": "Eau Piquant/St Urbain",
    "state_id": "dd6b6b29-245b-4546-aa0d-176969f441a2"
  },
  {
    "id": "eec07bda-ad34-4d25-bd5a-45330ba10d52",
    "name": "En Bamboo",
    "state_id": "dd6b6b29-245b-4546-aa0d-176969f441a2"
  },
  {
    "id": "582958c8-85f9-457d-94d1-aa61b7fcfe0e",
    "name": "Esperance",
    "state_id": "dd6b6b29-245b-4546-aa0d-176969f441a2"
  },
  {
    "id": "2d406ae6-8993-45fe-97a4-7fda40db1816",
    "name": "Fond Capeche",
    "state_id": "dd6b6b29-245b-4546-aa0d-176969f441a2"
  },
  {
    "id": "489ac860-567e-47b6-b609-0ea035dfbdbb",
    "name": "Fond Sabot",
    "state_id": "dd6b6b29-245b-4546-aa0d-176969f441a2"
  },
  {
    "id": "0e118c73-3ce5-4f89-91bf-d4b6c6977c26",
    "name": "Grace",
    "state_id": "dd6b6b29-245b-4546-aa0d-176969f441a2"
  },
  {
    "id": "4cfc707e-7092-45e7-bad5-fff417e69230",
    "name": "Hewanorra Orchard",
    "state_id": "dd6b6b29-245b-4546-aa0d-176969f441a2"
  },
  {
    "id": "81ec04fc-e994-4e8b-93f4-4c1b540c9e2c",
    "name": "Hope Estate",
    "state_id": "dd6b6b29-245b-4546-aa0d-176969f441a2"
  },
  {
    "id": "ff4c40d8-d68a-4867-afb7-1f99bea08f4f",
    "name": "Industrial Estate",
    "state_id": "dd6b6b29-245b-4546-aa0d-176969f441a2"
  },
  {
    "id": "3b26ee8a-ec63-4844-99c1-1168b9d9e35f",
    "name": "Joyeux",
    "state_id": "dd6b6b29-245b-4546-aa0d-176969f441a2"
  },
  {
    "id": "6ddd8e58-6c87-4e22-b1f6-bc7816a9c280",
    "name": "La Resource",
    "state_id": "dd6b6b29-245b-4546-aa0d-176969f441a2"
  },
  {
    "id": "e7937f41-39fa-481c-8ca2-83b859bf23af",
    "name": "La Retraite",
    "state_id": "dd6b6b29-245b-4546-aa0d-176969f441a2"
  },
  {
    "id": "a29be748-3562-41be-ab84-43d7e07ea240",
    "name": "La Tourney/Cedar Heights",
    "state_id": "dd6b6b29-245b-4546-aa0d-176969f441a2"
  },
  {
    "id": "a7e78882-1ea0-4a82-a213-321f1a4a64c1",
    "name": "Maganier",
    "state_id": "dd6b6b29-245b-4546-aa0d-176969f441a2"
  },
  {
    "id": "e7b0dae3-d7b6-4f7b-9491-fb4e91a2ce18",
    "name": "Morne Cayenne",
    "state_id": "dd6b6b29-245b-4546-aa0d-176969f441a2"
  },
  {
    "id": "25f79380-4eb7-4de4-b557-edc80d6db9b0",
    "name": "Morne Vert",
    "state_id": "dd6b6b29-245b-4546-aa0d-176969f441a2"
  },
  {
    "id": "1e37f97f-d11a-46cf-a205-7018c45a3f00",
    "name": "Moule A Chique",
    "state_id": "dd6b6b29-245b-4546-aa0d-176969f441a2"
  },
  {
    "id": "ccfbdc01-4749-42b7-95cc-8f332d2fa825",
    "name": "Obrier",
    "state_id": "dd6b6b29-245b-4546-aa0d-176969f441a2"
  },
  {
    "id": "f2741548-4b90-4506-938c-5386225fc717",
    "name": "Pierrot",
    "state_id": "dd6b6b29-245b-4546-aa0d-176969f441a2"
  },
  {
    "id": "4fd94ae1-482a-4e82-8077-1442ca517eed",
    "name": "Plut",
    "state_id": "dd6b6b29-245b-4546-aa0d-176969f441a2"
  },
  {
    "id": "c58cad59-d3b8-40b7-af8f-80b9ad5d6aea",
    "name": "Pomme",
    "state_id": "dd6b6b29-245b-4546-aa0d-176969f441a2"
  },
  {
    "id": "af0ea594-46a5-44a3-9514-ad1e01cc63f3",
    "name": "St Jude'S Highway",
    "state_id": "dd6b6b29-245b-4546-aa0d-176969f441a2"
  },
  {
    "id": "68899d3a-b5fb-4e3b-929d-9871b7942a99",
    "name": "Tete Morne/Morne Andrew",
    "state_id": "dd6b6b29-245b-4546-aa0d-176969f441a2"
  },
  {
    "id": "1353cd4e-207e-4ccc-9985-a2511c6f2407",
    "name": "Town",
    "state_id": "dd6b6b29-245b-4546-aa0d-176969f441a2"
  },
  {
    "id": "7a49d487-433b-4e13-a5cc-620cd7b0d432",
    "name": "Vieux Fort",
    "state_id": "dd6b6b29-245b-4546-aa0d-176969f441a2"
  },
  {
    "id": "e3ba6f4c-e137-4d53-b8b5-80244e18cb15",
    "name": "Vieux Fort/Laborie Highway",
    "state_id": "dd6b6b29-245b-4546-aa0d-176969f441a2"
  },
  {
    "id": "4ab09a84-565a-44c1-8648-4d6b435cca25",
    "name": "Vige'",
    "state_id": "dd6b6b29-245b-4546-aa0d-176969f441a2"
  },
  {
    "id": "c3c2757f-cf20-40c1-b1bf-3f05c81f63fe",
    "name": "Westall Group/The Mangue",
    "state_id": "dd6b6b29-245b-4546-aa0d-176969f441a2"
  }
]