[
  {
    "id": "682f0ed9-b126-44b8-bc37-71d219a3bd63",
    "name": "Kangema",
    "state_id": "dee3eb05-1f67-4c6a-bf31-41f1bd25f009"
  },
  {
    "id": "5912d4d1-d8d1-49a0-9993-e4643cc2ec2f",
    "name": "Karuri",
    "state_id": "dee3eb05-1f67-4c6a-bf31-41f1bd25f009"
  },
  {
    "id": "440a81bb-fe75-422c-a165-22f56dac3908",
    "name": "Maragua",
    "state_id": "dee3eb05-1f67-4c6a-bf31-41f1bd25f009"
  },
  {
    "id": "2204412c-7268-4ca1-b7d9-42a1f60cecb8",
    "name": "Murang’a",
    "state_id": "dee3eb05-1f67-4c6a-bf31-41f1bd25f009"
  }
]