[
  {
    "id": "16d82c63-9806-4e83-bcfd-d338ef72ae5f",
    "name": "Benghazi",
    "state_id": "dfc51dd5-f1bb-478a-8bfd-de1d660e2d42"
  },
  {
    "id": "199e91e6-8fdd-4761-9134-2e598f329f45",
    "name": "Qaryat Sulūq",
    "state_id": "dfc51dd5-f1bb-478a-8bfd-de1d660e2d42"
  }
]