[
  {
    "id": "f95f0c72-5798-4a13-bbf1-9fed93935324",
    "name": "Aghireș",
    "state_id": "e188fd8b-c0d6-486a-b67c-dd7c790c8bcd"
  },
  {
    "id": "3bdaa9f9-e124-4095-b995-6b73b7d0abd6",
    "name": "Agrij",
    "state_id": "e188fd8b-c0d6-486a-b67c-dd7c790c8bcd"
  },
  {
    "id": "aba040de-c27b-49b6-ae53-770a4f84741c",
    "name": "Almaşu",
    "state_id": "e188fd8b-c0d6-486a-b67c-dd7c790c8bcd"
  },
  {
    "id": "795aa99e-cab2-4228-ad64-cefdccf48d8c",
    "name": "Băbeni",
    "state_id": "e188fd8b-c0d6-486a-b67c-dd7c790c8bcd"
  },
  {
    "id": "1e29f5a9-136c-43f8-9ea5-83d5ba982dc2",
    "name": "Bălan",
    "state_id": "e188fd8b-c0d6-486a-b67c-dd7c790c8bcd"
  },
  {
    "id": "4a84a1d6-a412-4bef-820e-2f0bcb69f41f",
    "name": "Bănişor",
    "state_id": "e188fd8b-c0d6-486a-b67c-dd7c790c8bcd"
  },
  {
    "id": "c73b0a8a-7cb9-4abc-b113-beeac92087f9",
    "name": "Benesat",
    "state_id": "e188fd8b-c0d6-486a-b67c-dd7c790c8bcd"
  },
  {
    "id": "759f6009-d39e-49a0-a19b-5e42dd788a19",
    "name": "Bobota",
    "state_id": "e188fd8b-c0d6-486a-b67c-dd7c790c8bcd"
  },
  {
    "id": "c0125a5d-5dfa-44cb-a94f-a51fa810d5af",
    "name": "Bocşa",
    "state_id": "e188fd8b-c0d6-486a-b67c-dd7c790c8bcd"
  },
  {
    "id": "b8b61120-3cec-4f22-a6e5-bb233e599aa9",
    "name": "Boghiș",
    "state_id": "e188fd8b-c0d6-486a-b67c-dd7c790c8bcd"
  },
  {
    "id": "b151d851-1ffe-4cc5-9fa1-0e9953eca334",
    "name": "Buciumi",
    "state_id": "e188fd8b-c0d6-486a-b67c-dd7c790c8bcd"
  },
  {
    "id": "725b57e1-028a-4b66-8012-10a9589ad2bc",
    "name": "Camăr",
    "state_id": "e188fd8b-c0d6-486a-b67c-dd7c790c8bcd"
  },
  {
    "id": "5552847d-f927-47eb-8768-853123c7bd8a",
    "name": "Carastelec",
    "state_id": "e188fd8b-c0d6-486a-b67c-dd7c790c8bcd"
  },
  {
    "id": "c1882bd1-fc24-40cd-8b6e-ec9d148fd163",
    "name": "Cehei",
    "state_id": "e188fd8b-c0d6-486a-b67c-dd7c790c8bcd"
  },
  {
    "id": "183b7ba9-be58-4dac-af90-c5cb23806476",
    "name": "Cehu Silvaniei",
    "state_id": "e188fd8b-c0d6-486a-b67c-dd7c790c8bcd"
  },
  {
    "id": "5bdf799a-1436-46ba-a2c3-01c356055e77",
    "name": "Chendrea",
    "state_id": "e188fd8b-c0d6-486a-b67c-dd7c790c8bcd"
  },
  {
    "id": "252c0c22-834c-43f4-86ba-cce045ca56af",
    "name": "Chieşd",
    "state_id": "e188fd8b-c0d6-486a-b67c-dd7c790c8bcd"
  },
  {
    "id": "527f82a6-ffb2-4834-944b-18c2e51a6d9e",
    "name": "Cizer",
    "state_id": "e188fd8b-c0d6-486a-b67c-dd7c790c8bcd"
  },
  {
    "id": "19b61606-b3b9-498c-aeda-e54f4e7009a1",
    "name": "Comuna Agrij",
    "state_id": "e188fd8b-c0d6-486a-b67c-dd7c790c8bcd"
  },
  {
    "id": "29aab556-1af6-4c0c-9945-a415eba58976",
    "name": "Comuna Almaşu",
    "state_id": "e188fd8b-c0d6-486a-b67c-dd7c790c8bcd"
  },
  {
    "id": "194094f8-0eba-4a87-b530-34584fbb868e",
    "name": "Comuna Băbeni",
    "state_id": "e188fd8b-c0d6-486a-b67c-dd7c790c8bcd"
  },
  {
    "id": "2cad1f8c-ff8c-4aca-a25c-46b6ad2c6d9a",
    "name": "Comuna Bălan",
    "state_id": "e188fd8b-c0d6-486a-b67c-dd7c790c8bcd"
  },
  {
    "id": "85f676c3-5213-4b7a-a687-f4fbe88b20ef",
    "name": "Comuna Bănişor",
    "state_id": "e188fd8b-c0d6-486a-b67c-dd7c790c8bcd"
  },
  {
    "id": "1c54fb36-5006-4763-ae81-1b322338e5c3",
    "name": "Comuna Benesat",
    "state_id": "e188fd8b-c0d6-486a-b67c-dd7c790c8bcd"
  },
  {
    "id": "ab911af8-8e8d-4370-8991-bc4212978262",
    "name": "Comuna Bobota",
    "state_id": "e188fd8b-c0d6-486a-b67c-dd7c790c8bcd"
  },
  {
    "id": "2bb06b63-b36e-4204-bd12-b78531b6b044",
    "name": "Comuna Bocşa",
    "state_id": "e188fd8b-c0d6-486a-b67c-dd7c790c8bcd"
  },
  {
    "id": "5ff4acfe-c770-4924-9704-b71068df97c4",
    "name": "Comuna Boghiş",
    "state_id": "e188fd8b-c0d6-486a-b67c-dd7c790c8bcd"
  },
  {
    "id": "06680714-3095-4fa8-be5c-ae8b0ccc87ac",
    "name": "Comuna Buciumi",
    "state_id": "e188fd8b-c0d6-486a-b67c-dd7c790c8bcd"
  },
  {
    "id": "3a193f5d-038e-436b-8f48-79de0fcb3f69",
    "name": "Comuna Camăr",
    "state_id": "e188fd8b-c0d6-486a-b67c-dd7c790c8bcd"
  },
  {
    "id": "ba58096c-3b41-47fc-b6f8-f5b48e0e2afd",
    "name": "Comuna Carastelec",
    "state_id": "e188fd8b-c0d6-486a-b67c-dd7c790c8bcd"
  },
  {
    "id": "0370a337-eaa5-4bb6-a335-2c38ef62aeb0",
    "name": "Comuna Cehu Silvaniei",
    "state_id": "e188fd8b-c0d6-486a-b67c-dd7c790c8bcd"
  },
  {
    "id": "d3d3deac-0d22-459f-89f5-9916cfd541cd",
    "name": "Comuna Chieşd",
    "state_id": "e188fd8b-c0d6-486a-b67c-dd7c790c8bcd"
  },
  {
    "id": "77186e69-fb69-4688-a16e-2f4189795af4",
    "name": "Comuna Cizer",
    "state_id": "e188fd8b-c0d6-486a-b67c-dd7c790c8bcd"
  },
  {
    "id": "f37c4922-7419-4d1d-a132-f53628ecc79f",
    "name": "Comuna Coşeiu",
    "state_id": "e188fd8b-c0d6-486a-b67c-dd7c790c8bcd"
  },
  {
    "id": "1ccb5937-2e88-4024-aa1f-45b94d2b27a3",
    "name": "Comuna Crasna",
    "state_id": "e188fd8b-c0d6-486a-b67c-dd7c790c8bcd"
  },
  {
    "id": "b469f5b4-8cd2-4858-9ca1-3f135f43bfb1",
    "name": "Comuna Creaca",
    "state_id": "e188fd8b-c0d6-486a-b67c-dd7c790c8bcd"
  },
  {
    "id": "8489bcf6-9ec6-4194-b5ba-1714fb2b70ff",
    "name": "Comuna Crişeni",
    "state_id": "e188fd8b-c0d6-486a-b67c-dd7c790c8bcd"
  },
  {
    "id": "6f54db56-543f-4fd3-b722-0f2b25e48cc1",
    "name": "Comuna Cristolţ",
    "state_id": "e188fd8b-c0d6-486a-b67c-dd7c790c8bcd"
  },
  {
    "id": "2add8c7a-c0be-4ec3-bf31-b97d917932a1",
    "name": "Comuna Cuzăplac",
    "state_id": "e188fd8b-c0d6-486a-b67c-dd7c790c8bcd"
  },
  {
    "id": "ce6383cf-63f7-4da4-840a-b59f9521b1b1",
    "name": "Comuna Dobrin",
    "state_id": "e188fd8b-c0d6-486a-b67c-dd7c790c8bcd"
  },
  {
    "id": "aa19581d-b309-40ab-bfa3-44a675e2cefa",
    "name": "Comuna Dragu",
    "state_id": "e188fd8b-c0d6-486a-b67c-dd7c790c8bcd"
  },
  {
    "id": "0a1f2d94-0201-4d3b-bd47-0fdc06082c5c",
    "name": "Comuna Fildu De Jos",
    "state_id": "e188fd8b-c0d6-486a-b67c-dd7c790c8bcd"
  },
  {
    "id": "b1740160-337f-4918-a7ba-125baaa5289b",
    "name": "Comuna Gâlgău",
    "state_id": "e188fd8b-c0d6-486a-b67c-dd7c790c8bcd"
  },
  {
    "id": "ab04381b-b77e-4648-8116-a63f4e4a4dbb",
    "name": "Comuna Gârbou",
    "state_id": "e188fd8b-c0d6-486a-b67c-dd7c790c8bcd"
  },
  {
    "id": "c83bcb5d-5e5b-45a8-8070-0598535572b0",
    "name": "Comuna Halmăşd",
    "state_id": "e188fd8b-c0d6-486a-b67c-dd7c790c8bcd"
  },
  {
    "id": "8c8382eb-5360-4885-b286-8d24c0f54a4d",
    "name": "Comuna Hereclean",
    "state_id": "e188fd8b-c0d6-486a-b67c-dd7c790c8bcd"
  },
  {
    "id": "6553320b-5e51-441b-a7e9-d29ea3ff1e80",
    "name": "Comuna Hida",
    "state_id": "e188fd8b-c0d6-486a-b67c-dd7c790c8bcd"
  },
  {
    "id": "8894a5fb-b19c-4c18-9032-7a4c87fe8ae1",
    "name": "Comuna Horoatu Crasnei",
    "state_id": "e188fd8b-c0d6-486a-b67c-dd7c790c8bcd"
  },
  {
    "id": "d200338d-9bb0-4ace-a9ed-0e3b9505c2ec",
    "name": "Comuna Ileanda",
    "state_id": "e188fd8b-c0d6-486a-b67c-dd7c790c8bcd"
  },
  {
    "id": "6f3c8b7a-1fa0-4920-a686-2af1a9e6c60a",
    "name": "Comuna Ip",
    "state_id": "e188fd8b-c0d6-486a-b67c-dd7c790c8bcd"
  },
  {
    "id": "01838177-540e-45c1-9985-0a4af70dadd7",
    "name": "Comuna Letca",
    "state_id": "e188fd8b-c0d6-486a-b67c-dd7c790c8bcd"
  },
  {
    "id": "9010d272-0a9f-4472-92f6-7db05723303b",
    "name": "Comuna Lozna",
    "state_id": "e188fd8b-c0d6-486a-b67c-dd7c790c8bcd"
  },
  {
    "id": "0dfe3676-8794-460c-8ee8-cc95a05eed18",
    "name": "Comuna Măerişte",
    "state_id": "e188fd8b-c0d6-486a-b67c-dd7c790c8bcd"
  },
  {
    "id": "966d7603-51cc-43ea-b35a-b6fadfd14490",
    "name": "Comuna Marca",
    "state_id": "e188fd8b-c0d6-486a-b67c-dd7c790c8bcd"
  },
  {
    "id": "52eec00c-b08b-4722-8270-926d57611451",
    "name": "Comună Meseşenii de Jos",
    "state_id": "e188fd8b-c0d6-486a-b67c-dd7c790c8bcd"
  },
  {
    "id": "c0dfe910-a5f5-464d-a451-8a3f649362db",
    "name": "Comuna Mirşid",
    "state_id": "e188fd8b-c0d6-486a-b67c-dd7c790c8bcd"
  },
  {
    "id": "4a984b49-5e76-4ff6-a068-54e40eb61a6b",
    "name": "Comuna Năpradea",
    "state_id": "e188fd8b-c0d6-486a-b67c-dd7c790c8bcd"
  },
  {
    "id": "d477f79c-68e1-4066-9891-feedab055147",
    "name": "Comuna Nuşfalău",
    "state_id": "e188fd8b-c0d6-486a-b67c-dd7c790c8bcd"
  },
  {
    "id": "008722b5-5d20-4c9c-bb26-7f20a60e4fac",
    "name": "Comuna Pericei",
    "state_id": "e188fd8b-c0d6-486a-b67c-dd7c790c8bcd"
  },
  {
    "id": "3b594658-6661-47de-b563-e41bdfd9c8b1",
    "name": "Comuna Plopiş",
    "state_id": "e188fd8b-c0d6-486a-b67c-dd7c790c8bcd"
  },
  {
    "id": "b90ab575-9ed2-4909-b882-5c6d71d66e93",
    "name": "Comuna Poiana Blenchii",
    "state_id": "e188fd8b-c0d6-486a-b67c-dd7c790c8bcd"
  },
  {
    "id": "b509518d-de4f-46fc-b5ee-d20865be8dd8",
    "name": "Comuna Românaşi",
    "state_id": "e188fd8b-c0d6-486a-b67c-dd7c790c8bcd"
  },
  {
    "id": "4d644424-f09c-4a82-bac9-4eb089fbe00a",
    "name": "Comuna Rus",
    "state_id": "e188fd8b-c0d6-486a-b67c-dd7c790c8bcd"
  },
  {
    "id": "fd238da9-c123-4652-afd3-cf686e46b357",
    "name": "Comuna Sâg",
    "state_id": "e188fd8b-c0d6-486a-b67c-dd7c790c8bcd"
  },
  {
    "id": "e536f646-a043-4bac-9f81-46ce9cc77bc2",
    "name": "Comuna Sălăţig",
    "state_id": "e188fd8b-c0d6-486a-b67c-dd7c790c8bcd"
  },
  {
    "id": "af9b8f46-48ed-49df-9ad4-20fcc09dbcb5",
    "name": "Comuna Şamşud",
    "state_id": "e188fd8b-c0d6-486a-b67c-dd7c790c8bcd"
  },
  {
    "id": "496d0e0b-925f-49d3-9c44-c0c0534e3fba",
    "name": "Comuna Sânmihaiu Almaşului",
    "state_id": "e188fd8b-c0d6-486a-b67c-dd7c790c8bcd"
  },
  {
    "id": "b1e5797f-814a-4d2a-aa3c-fd5a8847b953",
    "name": "Comuna Şărmăşag",
    "state_id": "e188fd8b-c0d6-486a-b67c-dd7c790c8bcd"
  },
  {
    "id": "a99b6149-6879-44ed-871c-2d26ffbbba4c",
    "name": "Comuna Şimişna",
    "state_id": "e188fd8b-c0d6-486a-b67c-dd7c790c8bcd"
  },
  {
    "id": "b80216b8-7411-4ffa-b2a8-fab4e5c1cca7",
    "name": "Comuna Someş-Odorhei",
    "state_id": "e188fd8b-c0d6-486a-b67c-dd7c790c8bcd"
  },
  {
    "id": "4d1ae14f-bece-4668-88de-a32f3b1ecdbf",
    "name": "Comuna Surduc",
    "state_id": "e188fd8b-c0d6-486a-b67c-dd7c790c8bcd"
  },
  {
    "id": "7cff0122-d88a-4fb8-9b84-209d54c4c4ad",
    "name": "Comuna Treznea",
    "state_id": "e188fd8b-c0d6-486a-b67c-dd7c790c8bcd"
  },
  {
    "id": "58d25003-bcf9-45a5-b575-91404c2833ec",
    "name": "Comuna Valcãu De Jos",
    "state_id": "e188fd8b-c0d6-486a-b67c-dd7c790c8bcd"
  },
  {
    "id": "50f20c8e-178f-487a-904f-71f58acf9bd4",
    "name": "Comuna Vârşolţ",
    "state_id": "e188fd8b-c0d6-486a-b67c-dd7c790c8bcd"
  },
  {
    "id": "6b5969be-4469-46ec-a9f8-165a0b5975e2",
    "name": "Comuna Zalha",
    "state_id": "e188fd8b-c0d6-486a-b67c-dd7c790c8bcd"
  },
  {
    "id": "c08d9afe-b870-41c1-b5a3-490e16487806",
    "name": "Comuna Zimbor",
    "state_id": "e188fd8b-c0d6-486a-b67c-dd7c790c8bcd"
  },
  {
    "id": "8bdae23f-5ee6-4912-911a-2554b36f2e83",
    "name": "Coşeiu",
    "state_id": "e188fd8b-c0d6-486a-b67c-dd7c790c8bcd"
  },
  {
    "id": "a2b62ca1-c27b-4264-9c78-48a2c919f421",
    "name": "Crasna",
    "state_id": "e188fd8b-c0d6-486a-b67c-dd7c790c8bcd"
  },
  {
    "id": "57969bec-1636-4a97-883a-6fb82e59dd5e",
    "name": "Creaca",
    "state_id": "e188fd8b-c0d6-486a-b67c-dd7c790c8bcd"
  },
  {
    "id": "85e81385-c02b-4096-909a-35a013f0b294",
    "name": "Crişeni",
    "state_id": "e188fd8b-c0d6-486a-b67c-dd7c790c8bcd"
  },
  {
    "id": "89fcf9fd-3959-403d-904c-e59b9edc5ddf",
    "name": "Cristolţ",
    "state_id": "e188fd8b-c0d6-486a-b67c-dd7c790c8bcd"
  },
  {
    "id": "b512681b-a14e-4908-b7ff-072ac5151ab5",
    "name": "Cuzăplac",
    "state_id": "e188fd8b-c0d6-486a-b67c-dd7c790c8bcd"
  },
  {
    "id": "9e5c5cdc-0586-43f9-9f83-97a0dcb1103c",
    "name": "Deja",
    "state_id": "e188fd8b-c0d6-486a-b67c-dd7c790c8bcd"
  },
  {
    "id": "73aeb100-d7f9-48f5-acb3-83e00580a50a",
    "name": "Derșida",
    "state_id": "e188fd8b-c0d6-486a-b67c-dd7c790c8bcd"
  },
  {
    "id": "ff72f47c-363d-48c8-8a13-746033a68265",
    "name": "Dioșod",
    "state_id": "e188fd8b-c0d6-486a-b67c-dd7c790c8bcd"
  },
  {
    "id": "f895ce5d-5fd5-428e-b39d-0201bb0f1b45",
    "name": "Dobrin",
    "state_id": "e188fd8b-c0d6-486a-b67c-dd7c790c8bcd"
  },
  {
    "id": "d3d4b745-a1be-4709-bc53-765ae0321f1b",
    "name": "Dragu",
    "state_id": "e188fd8b-c0d6-486a-b67c-dd7c790c8bcd"
  },
  {
    "id": "986d9f06-7007-4275-b091-fa71b6249217",
    "name": "Fildu de Jos",
    "state_id": "e188fd8b-c0d6-486a-b67c-dd7c790c8bcd"
  },
  {
    "id": "5c65a1a2-c690-4081-8931-cedcb54eb459",
    "name": "Gâlgău",
    "state_id": "e188fd8b-c0d6-486a-b67c-dd7c790c8bcd"
  },
  {
    "id": "ff59ffea-58e1-4595-bc9d-28b641e2a47b",
    "name": "Gâlgău Almaşului",
    "state_id": "e188fd8b-c0d6-486a-b67c-dd7c790c8bcd"
  },
  {
    "id": "dbe019b1-0b4a-4a53-b54a-2594d848d4ed",
    "name": "Gârbou",
    "state_id": "e188fd8b-c0d6-486a-b67c-dd7c790c8bcd"
  },
  {
    "id": "b788c814-36e6-431c-b55e-f3ad4c9f84d8",
    "name": "Giurtelecu Șimleului",
    "state_id": "e188fd8b-c0d6-486a-b67c-dd7c790c8bcd"
  },
  {
    "id": "d16c63cc-46e8-4a6d-9bd9-388077561b27",
    "name": "Halmăşd",
    "state_id": "e188fd8b-c0d6-486a-b67c-dd7c790c8bcd"
  },
  {
    "id": "fd4e4b0e-dbfe-4955-b832-8d136ada1a25",
    "name": "Hereclean",
    "state_id": "e188fd8b-c0d6-486a-b67c-dd7c790c8bcd"
  },
  {
    "id": "0f6ac994-71bd-4a67-ac38-1e1d76e1d4b7",
    "name": "Hida",
    "state_id": "e188fd8b-c0d6-486a-b67c-dd7c790c8bcd"
  },
  {
    "id": "9857a212-eebd-4933-a142-aea2e66a13f4",
    "name": "Horoatu Crasnei",
    "state_id": "e188fd8b-c0d6-486a-b67c-dd7c790c8bcd"
  },
  {
    "id": "ead4d99b-6e05-4328-a1dc-e6c768ed639c",
    "name": "Ileanda",
    "state_id": "e188fd8b-c0d6-486a-b67c-dd7c790c8bcd"
  },
  {
    "id": "88517d53-e602-47e0-882a-e69ad1d7748e",
    "name": "Ip",
    "state_id": "e188fd8b-c0d6-486a-b67c-dd7c790c8bcd"
  },
  {
    "id": "0e5327a9-a3e4-42ae-90d2-68d52f47a95c",
    "name": "Jibou",
    "state_id": "e188fd8b-c0d6-486a-b67c-dd7c790c8bcd"
  },
  {
    "id": "4319dcec-7795-405d-88ad-690f8fb19a73",
    "name": "Letca",
    "state_id": "e188fd8b-c0d6-486a-b67c-dd7c790c8bcd"
  },
  {
    "id": "bac29b57-c4e7-4ae0-8663-d970c7662392",
    "name": "Lozna",
    "state_id": "e188fd8b-c0d6-486a-b67c-dd7c790c8bcd"
  },
  {
    "id": "196088f6-2edf-49c5-82eb-0454dfbd8d1a",
    "name": "Măerişte",
    "state_id": "e188fd8b-c0d6-486a-b67c-dd7c790c8bcd"
  },
  {
    "id": "84223f86-3608-440f-a13c-7ce1211554e3",
    "name": "Mal",
    "state_id": "e188fd8b-c0d6-486a-b67c-dd7c790c8bcd"
  },
  {
    "id": "2a50fde5-c7a2-450e-9a35-cdf456b98527",
    "name": "Marca",
    "state_id": "e188fd8b-c0d6-486a-b67c-dd7c790c8bcd"
  },
  {
    "id": "c2ee53c4-e8ad-4edf-85b9-ad3d61b99d27",
    "name": "Marin",
    "state_id": "e188fd8b-c0d6-486a-b67c-dd7c790c8bcd"
  },
  {
    "id": "2167c817-cadc-4db2-b33a-1b98843dc80c",
    "name": "Meseşenii de Jos",
    "state_id": "e188fd8b-c0d6-486a-b67c-dd7c790c8bcd"
  },
  {
    "id": "cfe8b5a7-68d1-4a35-b010-9712143f71be",
    "name": "Mirşid",
    "state_id": "e188fd8b-c0d6-486a-b67c-dd7c790c8bcd"
  },
  {
    "id": "e3610cbb-964f-408b-8bb6-9da1178cae17",
    "name": "Municipiul Zalãu",
    "state_id": "e188fd8b-c0d6-486a-b67c-dd7c790c8bcd"
  },
  {
    "id": "124e2b8f-bdc2-4f28-b765-45e03f26909b",
    "name": "Năpradea",
    "state_id": "e188fd8b-c0d6-486a-b67c-dd7c790c8bcd"
  },
  {
    "id": "1ef16d44-49e4-4f76-bacd-a8181334b459",
    "name": "Nuşfalău",
    "state_id": "e188fd8b-c0d6-486a-b67c-dd7c790c8bcd"
  },
  {
    "id": "f5ef263b-ba0c-454a-8224-1b0201b808b9",
    "name": "Oraș Jibou",
    "state_id": "e188fd8b-c0d6-486a-b67c-dd7c790c8bcd"
  },
  {
    "id": "5dab12bb-1fb8-4101-a8a7-69b2a4f13fd5",
    "name": "Oraş Şimleu Silvaniei",
    "state_id": "e188fd8b-c0d6-486a-b67c-dd7c790c8bcd"
  },
  {
    "id": "332cb248-4487-4847-9382-070e7fe16cc7",
    "name": "Peceiu",
    "state_id": "e188fd8b-c0d6-486a-b67c-dd7c790c8bcd"
  },
  {
    "id": "dd71ee94-b9ac-4a48-9222-1367be9ab8bd",
    "name": "Pericei",
    "state_id": "e188fd8b-c0d6-486a-b67c-dd7c790c8bcd"
  },
  {
    "id": "a164fd1b-e750-41dd-8e9a-3e973afe19a8",
    "name": "Plopiş",
    "state_id": "e188fd8b-c0d6-486a-b67c-dd7c790c8bcd"
  },
  {
    "id": "80811a00-4f01-4c93-b9ed-a4ef25cb5a00",
    "name": "Poiana Blenchii",
    "state_id": "e188fd8b-c0d6-486a-b67c-dd7c790c8bcd"
  },
  {
    "id": "8a365f11-10f6-4323-be91-dd8cdf97e88c",
    "name": "Pusta",
    "state_id": "e188fd8b-c0d6-486a-b67c-dd7c790c8bcd"
  },
  {
    "id": "3c48d766-3565-42c0-9bee-e7eb2bcc898d",
    "name": "Românaşi",
    "state_id": "e188fd8b-c0d6-486a-b67c-dd7c790c8bcd"
  },
  {
    "id": "bec59ef0-4e9c-4b43-93b2-22e9577480a8",
    "name": "Rus",
    "state_id": "e188fd8b-c0d6-486a-b67c-dd7c790c8bcd"
  },
  {
    "id": "82beff09-5e0d-4e43-a80d-c43c21fc01bf",
    "name": "Sâg",
    "state_id": "e188fd8b-c0d6-486a-b67c-dd7c790c8bcd"
  },
  {
    "id": "41b431b0-2acb-4466-bdf2-981c2f794d5a",
    "name": "Sălăţig",
    "state_id": "e188fd8b-c0d6-486a-b67c-dd7c790c8bcd"
  },
  {
    "id": "8a536f14-82ed-478b-993a-4603dce06fcd",
    "name": "Şamşud",
    "state_id": "e188fd8b-c0d6-486a-b67c-dd7c790c8bcd"
  },
  {
    "id": "823ca31f-811d-413b-a9ca-19ce5a2275b6",
    "name": "Sânmihaiu Almaşului",
    "state_id": "e188fd8b-c0d6-486a-b67c-dd7c790c8bcd"
  },
  {
    "id": "82e35ff1-27c3-4353-a083-cb8982e3a64e",
    "name": "Şărmăşag",
    "state_id": "e188fd8b-c0d6-486a-b67c-dd7c790c8bcd"
  },
  {
    "id": "3fb74d53-0ecb-40eb-b260-fd5c5f1b06c4",
    "name": "Șimișna",
    "state_id": "e188fd8b-c0d6-486a-b67c-dd7c790c8bcd"
  },
  {
    "id": "a1a7c54a-a7a5-4ad2-9de9-434204c45fc4",
    "name": "Şimleu Silvaniei",
    "state_id": "e188fd8b-c0d6-486a-b67c-dd7c790c8bcd"
  },
  {
    "id": "e1391b01-b157-462f-900a-9b56a2e8dd10",
    "name": "Someş-Odorhei",
    "state_id": "e188fd8b-c0d6-486a-b67c-dd7c790c8bcd"
  },
  {
    "id": "0c0c6231-9911-409e-8378-18dc964a6374",
    "name": "Stârciu",
    "state_id": "e188fd8b-c0d6-486a-b67c-dd7c790c8bcd"
  },
  {
    "id": "08a65943-597c-440e-a8a3-a560ae42ff1f",
    "name": "Surduc",
    "state_id": "e188fd8b-c0d6-486a-b67c-dd7c790c8bcd"
  },
  {
    "id": "23e359f7-452c-46ac-8060-b336f31a9464",
    "name": "Tihău",
    "state_id": "e188fd8b-c0d6-486a-b67c-dd7c790c8bcd"
  },
  {
    "id": "76a46c14-1f5b-494e-b6b2-202a57943db9",
    "name": "Treznea",
    "state_id": "e188fd8b-c0d6-486a-b67c-dd7c790c8bcd"
  },
  {
    "id": "dec0e9d1-2835-44d7-bf31-7e47abb9a054",
    "name": "Valcău de Jos",
    "state_id": "e188fd8b-c0d6-486a-b67c-dd7c790c8bcd"
  },
  {
    "id": "1ffa3b3c-3849-4d95-b795-e8f3b744fa2b",
    "name": "Vârşolţ",
    "state_id": "e188fd8b-c0d6-486a-b67c-dd7c790c8bcd"
  },
  {
    "id": "f8025847-dfe9-4778-b6ad-daf82ff03e94",
    "name": "Zalău",
    "state_id": "e188fd8b-c0d6-486a-b67c-dd7c790c8bcd"
  },
  {
    "id": "a17faa3e-afc7-42c0-a485-b0c57a37aa24",
    "name": "Zalha",
    "state_id": "e188fd8b-c0d6-486a-b67c-dd7c790c8bcd"
  },
  {
    "id": "2ff792df-c4af-4589-a068-2e7bcadb6f47",
    "name": "Zăuan",
    "state_id": "e188fd8b-c0d6-486a-b67c-dd7c790c8bcd"
  },
  {
    "id": "e15b530c-c01f-4c05-b9ff-a21df00f3cf7",
    "name": "Zimbor",
    "state_id": "e188fd8b-c0d6-486a-b67c-dd7c790c8bcd"
  }
]