[
  {
    "id": "94e6f47c-608b-4315-965a-9c9aa653e9cb",
    "name": "Aysén",
    "state_id": "e1e5e50f-c12d-49a2-9da0-3a4dd99f18cb"
  },
  {
    "id": "ce31b3de-081f-4e71-95e3-e60cae8793a6",
    "name": "Chile Chico",
    "state_id": "e1e5e50f-c12d-49a2-9da0-3a4dd99f18cb"
  },
  {
    "id": "490201c3-d415-4498-8d0d-fa67ba9f07e7",
    "name": "Cisnes",
    "state_id": "e1e5e50f-c12d-49a2-9da0-3a4dd99f18cb"
  },
  {
    "id": "10b7deec-64a1-4100-828c-29899202766b",
    "name": "Cochrane",
    "state_id": "e1e5e50f-c12d-49a2-9da0-3a4dd99f18cb"
  },
  {
    "id": "3e607c0e-13ae-4d5f-bf4c-d1b07d1a5a4a",
    "name": "Coyhaique",
    "state_id": "e1e5e50f-c12d-49a2-9da0-3a4dd99f18cb"
  },
  {
    "id": "70f6f59d-37d8-4fc8-9286-873fee4868f5",
    "name": "Guaitecas",
    "state_id": "e1e5e50f-c12d-49a2-9da0-3a4dd99f18cb"
  },
  {
    "id": "8a2a0585-3a55-4e60-89e6-eee553084e61",
    "name": "Lago Verde",
    "state_id": "e1e5e50f-c12d-49a2-9da0-3a4dd99f18cb"
  },
  {
    "id": "3fc2a041-9074-41e1-a755-efe3a69f924b",
    "name": "O'Higgins",
    "state_id": "e1e5e50f-c12d-49a2-9da0-3a4dd99f18cb"
  },
  {
    "id": "ed1dfae4-1f7c-44e3-9dfd-cda579a78ab8",
    "name": "Río Ibáñez",
    "state_id": "e1e5e50f-c12d-49a2-9da0-3a4dd99f18cb"
  },
  {
    "id": "a4acd2f4-30c0-4fc8-a235-1d0fd6d56f4a",
    "name": "Tortel",
    "state_id": "e1e5e50f-c12d-49a2-9da0-3a4dd99f18cb"
  }
]