[
  {
    "id": "1df9faeb-6d7d-45dc-bdc9-cf622ed1f4a7",
    "name": "Abilene",
    "state_id": "e26a17cf-9410-407b-b276-87f62cf28aed"
  },
  {
    "id": "b39d5d45-81b6-4715-b722-3b94da62aa3a",
    "name": "Allen County",
    "state_id": "e26a17cf-9410-407b-b276-87f62cf28aed"
  },
  {
    "id": "2c7c41c4-eec1-4342-b732-f94210043f1f",
    "name": "Alma",
    "state_id": "e26a17cf-9410-407b-b276-87f62cf28aed"
  },
  {
    "id": "71b262d2-57ec-4f49-87d8-89d2c7b7d24e",
    "name": "Altamont",
    "state_id": "e26a17cf-9410-407b-b276-87f62cf28aed"
  },
  {
    "id": "6a76f8c9-1936-4cfe-b793-3c8362ea2844",
    "name": "Anderson County",
    "state_id": "e26a17cf-9410-407b-b276-87f62cf28aed"
  },
  {
    "id": "8314da9a-5955-4f48-8ffe-e5573ab059ae",
    "name": "Andover",
    "state_id": "e26a17cf-9410-407b-b276-87f62cf28aed"
  },
  {
    "id": "867f861f-31b7-4191-bc3e-d681ab1cea08",
    "name": "Anthony",
    "state_id": "e26a17cf-9410-407b-b276-87f62cf28aed"
  },
  {
    "id": "0af2865e-26d3-4c6a-bbdc-76fbba32e10a",
    "name": "Arkansas City",
    "state_id": "e26a17cf-9410-407b-b276-87f62cf28aed"
  },
  {
    "id": "49e902c9-319d-4d16-9e14-2e8142fdf60d",
    "name": "Arma",
    "state_id": "e26a17cf-9410-407b-b276-87f62cf28aed"
  },
  {
    "id": "243ddfb8-5ad4-4df1-b0db-80804c5a3193",
    "name": "Ashland",
    "state_id": "e26a17cf-9410-407b-b276-87f62cf28aed"
  },
  {
    "id": "6a9e59aa-506d-4c1a-9a68-b2bc1feb6d87",
    "name": "Atchison",
    "state_id": "e26a17cf-9410-407b-b276-87f62cf28aed"
  },
  {
    "id": "a00342a7-d269-44ed-b77c-cfe9706d519a",
    "name": "Atchison County",
    "state_id": "e26a17cf-9410-407b-b276-87f62cf28aed"
  },
  {
    "id": "1ba474d3-fe58-47c3-a8d8-267dd7b52974",
    "name": "Atwood",
    "state_id": "e26a17cf-9410-407b-b276-87f62cf28aed"
  },
  {
    "id": "08adb417-4549-4299-89cf-f1247b2fbf76",
    "name": "Auburn",
    "state_id": "e26a17cf-9410-407b-b276-87f62cf28aed"
  },
  {
    "id": "a6274a46-5b34-4be3-9f2a-16eaed2f5840",
    "name": "Augusta",
    "state_id": "e26a17cf-9410-407b-b276-87f62cf28aed"
  },
  {
    "id": "f70847e8-3af3-4070-81c4-9ebc8273ed6b",
    "name": "Baldwin City",
    "state_id": "e26a17cf-9410-407b-b276-87f62cf28aed"
  },
  {
    "id": "3d2e84aa-670e-4897-9471-aa86680cd649",
    "name": "Barber County",
    "state_id": "e26a17cf-9410-407b-b276-87f62cf28aed"
  },
  {
    "id": "2f6769df-adda-4ab6-8f39-abb06268b9e6",
    "name": "Barton County",
    "state_id": "e26a17cf-9410-407b-b276-87f62cf28aed"
  },
  {
    "id": "41386387-e1fe-47d4-a57b-ebd54669f204",
    "name": "Basehor",
    "state_id": "e26a17cf-9410-407b-b276-87f62cf28aed"
  },
  {
    "id": "25699237-cd93-4e1c-a010-280c7308afe0",
    "name": "Baxter Springs",
    "state_id": "e26a17cf-9410-407b-b276-87f62cf28aed"
  },
  {
    "id": "e0c9c7ae-273b-460b-aa34-bfb9ef0e024d",
    "name": "Bellaire",
    "state_id": "e26a17cf-9410-407b-b276-87f62cf28aed"
  },
  {
    "id": "a3368210-8438-4390-b0dc-7f16cca12dc4",
    "name": "Belle Plaine",
    "state_id": "e26a17cf-9410-407b-b276-87f62cf28aed"
  },
  {
    "id": "8dad0fcc-0ab7-490c-8c44-ee34a9a2e4a6",
    "name": "Belleville",
    "state_id": "e26a17cf-9410-407b-b276-87f62cf28aed"
  },
  {
    "id": "81e14d80-47cb-4bd4-a62f-8bba52f9fcdf",
    "name": "Beloit",
    "state_id": "e26a17cf-9410-407b-b276-87f62cf28aed"
  },
  {
    "id": "4873e968-8b33-45fe-8ae7-1a13be1520c4",
    "name": "Bonner Springs",
    "state_id": "e26a17cf-9410-407b-b276-87f62cf28aed"
  },
  {
    "id": "0af62e87-a759-49ac-8c63-948a4960c312",
    "name": "Bourbon County",
    "state_id": "e26a17cf-9410-407b-b276-87f62cf28aed"
  },
  {
    "id": "8661f928-f79b-4871-a5c3-9392b6a3aea3",
    "name": "Brown County",
    "state_id": "e26a17cf-9410-407b-b276-87f62cf28aed"
  },
  {
    "id": "41b9b193-72ba-4dd9-a9f4-b491b1b0936a",
    "name": "Buhler",
    "state_id": "e26a17cf-9410-407b-b276-87f62cf28aed"
  },
  {
    "id": "a345568a-1c58-4074-9262-6a90f62c6b23",
    "name": "Burlington",
    "state_id": "e26a17cf-9410-407b-b276-87f62cf28aed"
  },
  {
    "id": "014fbb4a-390f-4504-bc34-c79b00be06d1",
    "name": "Butler County",
    "state_id": "e26a17cf-9410-407b-b276-87f62cf28aed"
  },
  {
    "id": "dc7f26e2-ebc4-448d-9d9c-c91f1dd4997c",
    "name": "Caldwell",
    "state_id": "e26a17cf-9410-407b-b276-87f62cf28aed"
  },
  {
    "id": "b76f5f92-5532-40fb-92f1-569dc8a498b2",
    "name": "Caney",
    "state_id": "e26a17cf-9410-407b-b276-87f62cf28aed"
  },
  {
    "id": "5f59aff3-05c2-46a6-aa0e-c7754f35cdb0",
    "name": "Carbondale",
    "state_id": "e26a17cf-9410-407b-b276-87f62cf28aed"
  },
  {
    "id": "9ccb7f09-558a-43da-867b-4d073a6e52be",
    "name": "Chanute",
    "state_id": "e26a17cf-9410-407b-b276-87f62cf28aed"
  },
  {
    "id": "20726f47-70b5-4124-b145-b09c66f70e7b",
    "name": "Chapman",
    "state_id": "e26a17cf-9410-407b-b276-87f62cf28aed"
  },
  {
    "id": "968c0d90-acc2-4c2e-9e82-2d40e3d024ef",
    "name": "Chase County",
    "state_id": "e26a17cf-9410-407b-b276-87f62cf28aed"
  },
  {
    "id": "b638f8e4-ae53-4b10-8982-4a962f4170e3",
    "name": "Chautauqua County",
    "state_id": "e26a17cf-9410-407b-b276-87f62cf28aed"
  },
  {
    "id": "4decb83a-faf1-4123-9b45-562f2e082adc",
    "name": "Cheney",
    "state_id": "e26a17cf-9410-407b-b276-87f62cf28aed"
  },
  {
    "id": "ed7ce8d1-9420-40a1-b413-f9205d2cc4a9",
    "name": "Cherokee County",
    "state_id": "e26a17cf-9410-407b-b276-87f62cf28aed"
  },
  {
    "id": "7f64f176-b7bb-4d88-94a8-81d3b304358f",
    "name": "Cherryvale",
    "state_id": "e26a17cf-9410-407b-b276-87f62cf28aed"
  },
  {
    "id": "37fe1f1f-a51a-4407-89a6-86de453fe769",
    "name": "Chetopa",
    "state_id": "e26a17cf-9410-407b-b276-87f62cf28aed"
  },
  {
    "id": "44c551dc-0c88-42a1-b312-a14af991db38",
    "name": "Cheyenne County",
    "state_id": "e26a17cf-9410-407b-b276-87f62cf28aed"
  },
  {
    "id": "d94d55b9-5da4-4690-a655-1d0a27552e0f",
    "name": "Cimarron",
    "state_id": "e26a17cf-9410-407b-b276-87f62cf28aed"
  },
  {
    "id": "52186445-943c-42ce-a6c5-4dc0abd14d32",
    "name": "Clark County",
    "state_id": "e26a17cf-9410-407b-b276-87f62cf28aed"
  },
  {
    "id": "15afdde3-f211-4dab-977d-c3c37cf66e20",
    "name": "Clay Center",
    "state_id": "e26a17cf-9410-407b-b276-87f62cf28aed"
  },
  {
    "id": "c7c95d93-c8dd-4554-8aff-433830767725",
    "name": "Clay County",
    "state_id": "e26a17cf-9410-407b-b276-87f62cf28aed"
  },
  {
    "id": "01d7e7fc-ee77-4b19-ba42-8a645986cd46",
    "name": "Clearwater",
    "state_id": "e26a17cf-9410-407b-b276-87f62cf28aed"
  },
  {
    "id": "b409473c-40f8-429b-a54f-7d6edfa09e9e",
    "name": "Cloud County",
    "state_id": "e26a17cf-9410-407b-b276-87f62cf28aed"
  },
  {
    "id": "1f7626f4-71a0-4592-902b-5f90558872a6",
    "name": "Coffey County",
    "state_id": "e26a17cf-9410-407b-b276-87f62cf28aed"
  },
  {
    "id": "3ea636a9-532d-4d63-bb8c-32945616c96d",
    "name": "Coffeyville",
    "state_id": "e26a17cf-9410-407b-b276-87f62cf28aed"
  },
  {
    "id": "2dd3f166-e20d-429b-8382-6d24222a03bf",
    "name": "Colby",
    "state_id": "e26a17cf-9410-407b-b276-87f62cf28aed"
  },
  {
    "id": "27fa1cfa-41ed-4a95-9eb9-35ed92ad0f76",
    "name": "Coldwater",
    "state_id": "e26a17cf-9410-407b-b276-87f62cf28aed"
  },
  {
    "id": "6121be8e-d5ad-4126-8563-ac05d442e437",
    "name": "Columbus",
    "state_id": "e26a17cf-9410-407b-b276-87f62cf28aed"
  },
  {
    "id": "56a13d15-436e-4755-abc1-c0531d4752b1",
    "name": "Colwich",
    "state_id": "e26a17cf-9410-407b-b276-87f62cf28aed"
  },
  {
    "id": "a378171d-c560-43ea-b097-f9fa4ba4f045",
    "name": "Comanche County",
    "state_id": "e26a17cf-9410-407b-b276-87f62cf28aed"
  },
  {
    "id": "c0bd4b4c-b107-4051-afbe-1f1c3fbd40a4",
    "name": "Concordia",
    "state_id": "e26a17cf-9410-407b-b276-87f62cf28aed"
  },
  {
    "id": "a3c826bc-b634-4771-a60b-c8b910016c84",
    "name": "Conway Springs",
    "state_id": "e26a17cf-9410-407b-b276-87f62cf28aed"
  },
  {
    "id": "ea300137-92bd-401d-8ad5-29e512668b43",
    "name": "Cottonwood Falls",
    "state_id": "e26a17cf-9410-407b-b276-87f62cf28aed"
  },
  {
    "id": "9c28188c-1082-4c64-a55f-61f88af39ca9",
    "name": "Council Grove",
    "state_id": "e26a17cf-9410-407b-b276-87f62cf28aed"
  },
  {
    "id": "e9820bbe-fa95-46ee-b638-8cc2d5fb1f30",
    "name": "Cowley County",
    "state_id": "e26a17cf-9410-407b-b276-87f62cf28aed"
  },
  {
    "id": "310e5ddb-6d8e-45b2-beac-266fdda5f18e",
    "name": "Crawford County",
    "state_id": "e26a17cf-9410-407b-b276-87f62cf28aed"
  },
  {
    "id": "6ee73b4f-8827-483b-b49e-f613427f0433",
    "name": "De Soto",
    "state_id": "e26a17cf-9410-407b-b276-87f62cf28aed"
  },
  {
    "id": "3d143975-03b9-4c64-bf72-cdc5a70ffb26",
    "name": "Decatur County",
    "state_id": "e26a17cf-9410-407b-b276-87f62cf28aed"
  },
  {
    "id": "2049c669-d639-44e1-8888-5c840022dc37",
    "name": "Derby",
    "state_id": "e26a17cf-9410-407b-b276-87f62cf28aed"
  },
  {
    "id": "b2d7e706-5619-4b62-b416-28a2ff1b101d",
    "name": "Dickinson County",
    "state_id": "e26a17cf-9410-407b-b276-87f62cf28aed"
  },
  {
    "id": "f601a8ff-c39c-4d4a-82e2-9104db7e66fa",
    "name": "Dighton",
    "state_id": "e26a17cf-9410-407b-b276-87f62cf28aed"
  },
  {
    "id": "a7d4501c-e62b-419b-9393-712015dbcae4",
    "name": "Dodge City",
    "state_id": "e26a17cf-9410-407b-b276-87f62cf28aed"
  },
  {
    "id": "88e71421-1177-4d65-94be-359f3f209e0c",
    "name": "Doniphan County",
    "state_id": "e26a17cf-9410-407b-b276-87f62cf28aed"
  },
  {
    "id": "899a8ae3-b610-461f-af96-82a7f51cef23",
    "name": "Douglas County",
    "state_id": "e26a17cf-9410-407b-b276-87f62cf28aed"
  },
  {
    "id": "8526834c-d6f2-4056-8179-e8d85ac99a55",
    "name": "Douglass",
    "state_id": "e26a17cf-9410-407b-b276-87f62cf28aed"
  },
  {
    "id": "e9373d1e-c990-4636-ab55-13f6f7164a51",
    "name": "Edgerton",
    "state_id": "e26a17cf-9410-407b-b276-87f62cf28aed"
  },
  {
    "id": "b695e4fb-6206-4add-aa43-aa686c859ed9",
    "name": "Edwards County",
    "state_id": "e26a17cf-9410-407b-b276-87f62cf28aed"
  },
  {
    "id": "1ca42bfe-c4e6-42f2-b655-82341b2b77b0",
    "name": "Edwardsville",
    "state_id": "e26a17cf-9410-407b-b276-87f62cf28aed"
  },
  {
    "id": "16dcbfc5-aa20-4c13-86cc-3fbe34d7984c",
    "name": "El Dorado",
    "state_id": "e26a17cf-9410-407b-b276-87f62cf28aed"
  },
  {
    "id": "adcf5eab-6ae3-43f3-8623-4201471286e5",
    "name": "Elk County",
    "state_id": "e26a17cf-9410-407b-b276-87f62cf28aed"
  },
  {
    "id": "e95b5dea-260c-47c1-8a5a-30ef16bcda6d",
    "name": "Elkhart",
    "state_id": "e26a17cf-9410-407b-b276-87f62cf28aed"
  },
  {
    "id": "025b679f-a9ed-45e6-8b0c-2aee73fb0896",
    "name": "Ellinwood",
    "state_id": "e26a17cf-9410-407b-b276-87f62cf28aed"
  },
  {
    "id": "8c72a244-bee2-441e-9fd0-178ffdf60efb",
    "name": "Ellis",
    "state_id": "e26a17cf-9410-407b-b276-87f62cf28aed"
  },
  {
    "id": "0ecc5034-c8c1-4db1-a9a7-53dcdc649537",
    "name": "Ellis County",
    "state_id": "e26a17cf-9410-407b-b276-87f62cf28aed"
  },
  {
    "id": "9f9ef7fc-841b-47c7-83b2-e6dda4dcb09f",
    "name": "Ellsworth",
    "state_id": "e26a17cf-9410-407b-b276-87f62cf28aed"
  },
  {
    "id": "7e65d9bc-4e1c-4258-b655-d38abde12289",
    "name": "Ellsworth County",
    "state_id": "e26a17cf-9410-407b-b276-87f62cf28aed"
  },
  {
    "id": "3307679f-992b-4be0-adf4-bdebd093ca42",
    "name": "Elwood",
    "state_id": "e26a17cf-9410-407b-b276-87f62cf28aed"
  },
  {
    "id": "2886c803-6d57-436a-9de7-12936d2307ab",
    "name": "Emporia",
    "state_id": "e26a17cf-9410-407b-b276-87f62cf28aed"
  },
  {
    "id": "b7b99b14-ca18-4d5c-aff3-f5c88ca050ae",
    "name": "Erie",
    "state_id": "e26a17cf-9410-407b-b276-87f62cf28aed"
  },
  {
    "id": "102bf31c-88e0-49ad-a85b-179f7c198c99",
    "name": "Eudora",
    "state_id": "e26a17cf-9410-407b-b276-87f62cf28aed"
  },
  {
    "id": "bac45e8d-c728-4dd2-a56c-9ee6e61bed94",
    "name": "Eureka",
    "state_id": "e26a17cf-9410-407b-b276-87f62cf28aed"
  },
  {
    "id": "351dac62-57e9-4325-960b-fc0546e0b04a",
    "name": "Fairway",
    "state_id": "e26a17cf-9410-407b-b276-87f62cf28aed"
  },
  {
    "id": "37f47adc-cf2a-4fa9-a649-facf1bfcf586",
    "name": "Finney County",
    "state_id": "e26a17cf-9410-407b-b276-87f62cf28aed"
  },
  {
    "id": "316d7c10-3584-4e32-87c0-08307f9952be",
    "name": "Ford County",
    "state_id": "e26a17cf-9410-407b-b276-87f62cf28aed"
  },
  {
    "id": "20df58eb-e2fb-49fe-bd03-8be0b8de56dc",
    "name": "Fort Riley North",
    "state_id": "e26a17cf-9410-407b-b276-87f62cf28aed"
  },
  {
    "id": "16fd07ad-c149-4a14-aa74-0602cabffc77",
    "name": "Fort Scott",
    "state_id": "e26a17cf-9410-407b-b276-87f62cf28aed"
  },
  {
    "id": "eb61864d-17ce-40e2-81b5-523e7e12f189",
    "name": "Franklin County",
    "state_id": "e26a17cf-9410-407b-b276-87f62cf28aed"
  },
  {
    "id": "6005d524-72c2-4cdc-b8b4-a0a0745f7741",
    "name": "Fredonia",
    "state_id": "e26a17cf-9410-407b-b276-87f62cf28aed"
  },
  {
    "id": "11ec8942-09ef-4226-a861-06364bea9067",
    "name": "Frontenac",
    "state_id": "e26a17cf-9410-407b-b276-87f62cf28aed"
  },
  {
    "id": "b2310f5e-8a27-4a2e-aaa7-ca00e3b510aa",
    "name": "Galena",
    "state_id": "e26a17cf-9410-407b-b276-87f62cf28aed"
  },
  {
    "id": "1e9d45ee-a574-49ca-9f77-8ecf19051a98",
    "name": "Garden City",
    "state_id": "e26a17cf-9410-407b-b276-87f62cf28aed"
  },
  {
    "id": "486d561b-51da-43a6-beb7-628e0aead7b7",
    "name": "Gardner",
    "state_id": "e26a17cf-9410-407b-b276-87f62cf28aed"
  },
  {
    "id": "04b7bd0c-61b9-4852-bb82-57cda2f3a62c",
    "name": "Garnett",
    "state_id": "e26a17cf-9410-407b-b276-87f62cf28aed"
  },
  {
    "id": "b0221fe1-d487-499f-9c2a-73572274cefc",
    "name": "Geary County",
    "state_id": "e26a17cf-9410-407b-b276-87f62cf28aed"
  },
  {
    "id": "4914d90a-5b94-4ef5-916a-a880486ddca5",
    "name": "Girard",
    "state_id": "e26a17cf-9410-407b-b276-87f62cf28aed"
  },
  {
    "id": "585f312d-b5e7-40e7-aa46-a4df730d95cf",
    "name": "Goddard",
    "state_id": "e26a17cf-9410-407b-b276-87f62cf28aed"
  },
  {
    "id": "d437e300-c04f-4a13-844d-e457c5d14efd",
    "name": "Goodland",
    "state_id": "e26a17cf-9410-407b-b276-87f62cf28aed"
  },
  {
    "id": "1971c77f-aa45-4212-8ab8-b9ec4b75ec45",
    "name": "Gove",
    "state_id": "e26a17cf-9410-407b-b276-87f62cf28aed"
  },
  {
    "id": "c3aa5a2a-6571-43d4-8e57-e14bbe09303e",
    "name": "Gove County",
    "state_id": "e26a17cf-9410-407b-b276-87f62cf28aed"
  },
  {
    "id": "5d55dba2-6859-49f4-ab48-bead8247e176",
    "name": "Graham County",
    "state_id": "e26a17cf-9410-407b-b276-87f62cf28aed"
  },
  {
    "id": "18f73218-c1c3-4cfa-b562-d465d3133c48",
    "name": "Grandview Plaza",
    "state_id": "e26a17cf-9410-407b-b276-87f62cf28aed"
  },
  {
    "id": "0d75a437-029f-4756-b592-0851829e91b7",
    "name": "Grant County",
    "state_id": "e26a17cf-9410-407b-b276-87f62cf28aed"
  },
  {
    "id": "9de722bb-31b8-4a60-825c-d4bb37366457",
    "name": "Gray County",
    "state_id": "e26a17cf-9410-407b-b276-87f62cf28aed"
  },
  {
    "id": "8a679355-f79e-4b83-aba8-e9c4646c0671",
    "name": "Great Bend",
    "state_id": "e26a17cf-9410-407b-b276-87f62cf28aed"
  },
  {
    "id": "e654bc5a-a044-4333-a993-a5a874d44f65",
    "name": "Greeley County",
    "state_id": "e26a17cf-9410-407b-b276-87f62cf28aed"
  },
  {
    "id": "9d490767-65ab-463a-a7d3-50a5ce7dddc4",
    "name": "Greensburg",
    "state_id": "e26a17cf-9410-407b-b276-87f62cf28aed"
  },
  {
    "id": "5641131c-3de2-4ec5-809d-59d06b670060",
    "name": "Greenwood County",
    "state_id": "e26a17cf-9410-407b-b276-87f62cf28aed"
  },
  {
    "id": "858df518-2d0e-43bf-bdaa-ac9760833a39",
    "name": "Halstead",
    "state_id": "e26a17cf-9410-407b-b276-87f62cf28aed"
  },
  {
    "id": "8b14366b-2847-4af9-9993-4c5b688f66c2",
    "name": "Hamilton County",
    "state_id": "e26a17cf-9410-407b-b276-87f62cf28aed"
  },
  {
    "id": "f6d25797-49cf-4426-a4dc-3f8af09727c1",
    "name": "Harper",
    "state_id": "e26a17cf-9410-407b-b276-87f62cf28aed"
  },
  {
    "id": "1c241307-f363-421d-a182-e9649398683b",
    "name": "Harper County",
    "state_id": "e26a17cf-9410-407b-b276-87f62cf28aed"
  },
  {
    "id": "02569076-a140-49cc-9674-9799ec12d5d0",
    "name": "Harvey County",
    "state_id": "e26a17cf-9410-407b-b276-87f62cf28aed"
  },
  {
    "id": "e8085c14-7abf-4918-91f9-01d94eabb49a",
    "name": "Haskell County",
    "state_id": "e26a17cf-9410-407b-b276-87f62cf28aed"
  },
  {
    "id": "73505f24-dc89-47bd-8ba6-265df6af4a3d",
    "name": "Haven",
    "state_id": "e26a17cf-9410-407b-b276-87f62cf28aed"
  },
  {
    "id": "0484cd3e-0b42-472d-b6cf-f032c73e5406",
    "name": "Hays",
    "state_id": "e26a17cf-9410-407b-b276-87f62cf28aed"
  },
  {
    "id": "25f93048-bcf5-4a52-9a06-375c4f094da2",
    "name": "Haysville",
    "state_id": "e26a17cf-9410-407b-b276-87f62cf28aed"
  },
  {
    "id": "7961518e-7d8d-49e2-9cff-0f4181a883c4",
    "name": "Herington",
    "state_id": "e26a17cf-9410-407b-b276-87f62cf28aed"
  },
  {
    "id": "07194ed6-5e02-4185-888f-d239fc6ce1e9",
    "name": "Hesston",
    "state_id": "e26a17cf-9410-407b-b276-87f62cf28aed"
  },
  {
    "id": "5bab5e32-2beb-48ac-a4fe-1da35e1880ba",
    "name": "Hiawatha",
    "state_id": "e26a17cf-9410-407b-b276-87f62cf28aed"
  },
  {
    "id": "854e7808-5fdb-4daf-ba41-5735b343ec8f",
    "name": "Highland",
    "state_id": "e26a17cf-9410-407b-b276-87f62cf28aed"
  },
  {
    "id": "ac5eab6e-8bbe-4d24-945f-b6b2fb8ae88b",
    "name": "Hill City",
    "state_id": "e26a17cf-9410-407b-b276-87f62cf28aed"
  },
  {
    "id": "15b3b127-2161-4221-acbb-fe6d93f07841",
    "name": "Hillsboro",
    "state_id": "e26a17cf-9410-407b-b276-87f62cf28aed"
  },
  {
    "id": "a991a030-8b03-4c8a-95db-6dd43f0fd48c",
    "name": "Hodgeman County",
    "state_id": "e26a17cf-9410-407b-b276-87f62cf28aed"
  },
  {
    "id": "2df81682-13e8-4a99-a1e1-e9880d8308d1",
    "name": "Hoisington",
    "state_id": "e26a17cf-9410-407b-b276-87f62cf28aed"
  },
  {
    "id": "d5180058-b54e-4549-bf4c-e7a590b34abc",
    "name": "Holcomb",
    "state_id": "e26a17cf-9410-407b-b276-87f62cf28aed"
  },
  {
    "id": "c0685dac-363f-478c-867a-2bbc9748c9d7",
    "name": "Holton",
    "state_id": "e26a17cf-9410-407b-b276-87f62cf28aed"
  },
  {
    "id": "40d5881e-42ef-4205-8eb0-1c46576fdcb1",
    "name": "Horton",
    "state_id": "e26a17cf-9410-407b-b276-87f62cf28aed"
  },
  {
    "id": "0ddc9ad7-31b9-4e7d-a326-2793d4d6c581",
    "name": "Howard",
    "state_id": "e26a17cf-9410-407b-b276-87f62cf28aed"
  },
  {
    "id": "66df9a6a-54cd-414a-adef-4b0d6ac2174d",
    "name": "Hoxie",
    "state_id": "e26a17cf-9410-407b-b276-87f62cf28aed"
  },
  {
    "id": "2c2761b9-c0ff-4047-ae54-92489a7a7672",
    "name": "Hugoton",
    "state_id": "e26a17cf-9410-407b-b276-87f62cf28aed"
  },
  {
    "id": "a3427076-02c0-4f95-b5a2-8aeb42345f64",
    "name": "Humboldt",
    "state_id": "e26a17cf-9410-407b-b276-87f62cf28aed"
  },
  {
    "id": "fda76291-ca93-453a-9d84-ba350c7c3235",
    "name": "Hutchinson",
    "state_id": "e26a17cf-9410-407b-b276-87f62cf28aed"
  },
  {
    "id": "637a9c3b-06de-4f3c-b291-cf56bd88d312",
    "name": "Independence",
    "state_id": "e26a17cf-9410-407b-b276-87f62cf28aed"
  },
  {
    "id": "a2e42dc9-dc37-4d5f-9c0a-0e26c62d8f83",
    "name": "Inman",
    "state_id": "e26a17cf-9410-407b-b276-87f62cf28aed"
  },
  {
    "id": "a49c8a8b-d5f2-496b-8c83-a9e030fe8ece",
    "name": "Iola",
    "state_id": "e26a17cf-9410-407b-b276-87f62cf28aed"
  },
  {
    "id": "301a7772-68cf-48eb-a239-e05f81157ded",
    "name": "Jackson County",
    "state_id": "e26a17cf-9410-407b-b276-87f62cf28aed"
  },
  {
    "id": "08946b05-3d34-4e1f-9fbe-b09bc5da5a63",
    "name": "Jefferson County",
    "state_id": "e26a17cf-9410-407b-b276-87f62cf28aed"
  },
  {
    "id": "9f40c22e-f849-4ae6-a4d0-8ab92a1b77fc",
    "name": "Jetmore",
    "state_id": "e26a17cf-9410-407b-b276-87f62cf28aed"
  },
  {
    "id": "0614a0fa-ceed-421b-af62-8ec13365698e",
    "name": "Jewell County",
    "state_id": "e26a17cf-9410-407b-b276-87f62cf28aed"
  },
  {
    "id": "5363e724-f3de-4694-a83d-e5a7da39a958",
    "name": "Johnson",
    "state_id": "e26a17cf-9410-407b-b276-87f62cf28aed"
  },
  {
    "id": "6ec1d05d-50b6-4847-9dd1-e5e526eb03fb",
    "name": "Johnson County",
    "state_id": "e26a17cf-9410-407b-b276-87f62cf28aed"
  },
  {
    "id": "40648d6c-07e8-4d74-86d0-3d7ee4581d58",
    "name": "Junction City",
    "state_id": "e26a17cf-9410-407b-b276-87f62cf28aed"
  },
  {
    "id": "31ee10e9-84b3-4a22-9a7a-18bf8a96e931",
    "name": "Kansas City",
    "state_id": "e26a17cf-9410-407b-b276-87f62cf28aed"
  },
  {
    "id": "38182695-36ec-42b8-a5e9-67f68d98e638",
    "name": "Kearny County",
    "state_id": "e26a17cf-9410-407b-b276-87f62cf28aed"
  },
  {
    "id": "024c5375-922d-4cd9-8ec6-099c4e8703e0",
    "name": "Kechi",
    "state_id": "e26a17cf-9410-407b-b276-87f62cf28aed"
  },
  {
    "id": "e624a0c8-3706-4879-ad4b-c61c35e89078",
    "name": "Kingman",
    "state_id": "e26a17cf-9410-407b-b276-87f62cf28aed"
  },
  {
    "id": "8743e74e-6806-4b83-8790-f325d9e738bf",
    "name": "Kingman County",
    "state_id": "e26a17cf-9410-407b-b276-87f62cf28aed"
  },
  {
    "id": "433c3301-c7d8-4c90-bf10-42f06bae507c",
    "name": "Kinsley",
    "state_id": "e26a17cf-9410-407b-b276-87f62cf28aed"
  },
  {
    "id": "34966ff2-52d4-4988-8696-cc8a672517f7",
    "name": "Kiowa",
    "state_id": "e26a17cf-9410-407b-b276-87f62cf28aed"
  },
  {
    "id": "469f2590-f096-4cc3-8ef7-281587002942",
    "name": "Kiowa County",
    "state_id": "e26a17cf-9410-407b-b276-87f62cf28aed"
  },
  {
    "id": "03919a20-698c-4a16-99ea-e12554325a63",
    "name": "La Crosse",
    "state_id": "e26a17cf-9410-407b-b276-87f62cf28aed"
  },
  {
    "id": "44588525-78da-4722-b963-7614cda9cdcb",
    "name": "La Cygne",
    "state_id": "e26a17cf-9410-407b-b276-87f62cf28aed"
  },
  {
    "id": "82e55a83-a9f3-480f-9b17-1aa8f0023be4",
    "name": "Labette County",
    "state_id": "e26a17cf-9410-407b-b276-87f62cf28aed"
  },
  {
    "id": "eaf243dd-9aa5-496c-bcd1-edcfeb36c9bd",
    "name": "Lakin",
    "state_id": "e26a17cf-9410-407b-b276-87f62cf28aed"
  },
  {
    "id": "f0946ec0-2e1f-4238-9b9d-bf8a285c7e59",
    "name": "Lane County",
    "state_id": "e26a17cf-9410-407b-b276-87f62cf28aed"
  },
  {
    "id": "e938591b-55d5-4034-932e-c1eff892f204",
    "name": "Lansing",
    "state_id": "e26a17cf-9410-407b-b276-87f62cf28aed"
  },
  {
    "id": "e4262d65-776c-4007-a605-e9f928d205ad",
    "name": "Larned",
    "state_id": "e26a17cf-9410-407b-b276-87f62cf28aed"
  },
  {
    "id": "439b9e29-544b-4d7e-8089-1fcb9fd079e6",
    "name": "Lawrence",
    "state_id": "e26a17cf-9410-407b-b276-87f62cf28aed"
  },
  {
    "id": "3e2fc868-df77-45eb-9061-90a0b4c4efe7",
    "name": "Leavenworth",
    "state_id": "e26a17cf-9410-407b-b276-87f62cf28aed"
  },
  {
    "id": "4d594b3a-b5b9-498c-8a00-5f5a5c132c93",
    "name": "Leavenworth County",
    "state_id": "e26a17cf-9410-407b-b276-87f62cf28aed"
  },
  {
    "id": "58c5f20c-2164-4444-bb47-86800b6cb942",
    "name": "Leawood",
    "state_id": "e26a17cf-9410-407b-b276-87f62cf28aed"
  },
  {
    "id": "73960bdf-6cfb-4759-9f4f-c5cfcaffbf7a",
    "name": "Lenexa",
    "state_id": "e26a17cf-9410-407b-b276-87f62cf28aed"
  },
  {
    "id": "3f4f6ee7-029f-4d80-a62f-4e235a4297c5",
    "name": "Leoti",
    "state_id": "e26a17cf-9410-407b-b276-87f62cf28aed"
  },
  {
    "id": "e63a65e4-709b-4d61-b6e0-1f103a42a084",
    "name": "Liberal",
    "state_id": "e26a17cf-9410-407b-b276-87f62cf28aed"
  },
  {
    "id": "0310bebf-9e46-47bc-88f6-371a1d82b26e",
    "name": "Lincoln",
    "state_id": "e26a17cf-9410-407b-b276-87f62cf28aed"
  },
  {
    "id": "5384cdc8-6682-4630-bbc1-026becce5c21",
    "name": "Lincoln County",
    "state_id": "e26a17cf-9410-407b-b276-87f62cf28aed"
  },
  {
    "id": "529099e1-f9a0-4e57-9b3f-584f9165ec1a",
    "name": "Lindsborg",
    "state_id": "e26a17cf-9410-407b-b276-87f62cf28aed"
  },
  {
    "id": "20de19d2-0f79-4ec2-bd0d-d320fe90f6a1",
    "name": "Linn County",
    "state_id": "e26a17cf-9410-407b-b276-87f62cf28aed"
  },
  {
    "id": "9ee5db96-f99c-4111-a2e7-86bce6ddfcc8",
    "name": "Logan County",
    "state_id": "e26a17cf-9410-407b-b276-87f62cf28aed"
  },
  {
    "id": "f723d9b8-db9b-4637-88ec-2b8c225d9ed2",
    "name": "Louisburg",
    "state_id": "e26a17cf-9410-407b-b276-87f62cf28aed"
  },
  {
    "id": "3e1b82ed-3454-4985-88fc-213180e240fa",
    "name": "Lyndon",
    "state_id": "e26a17cf-9410-407b-b276-87f62cf28aed"
  },
  {
    "id": "23e9ee33-679d-4102-8641-7801fd1c1df0",
    "name": "Lyon County",
    "state_id": "e26a17cf-9410-407b-b276-87f62cf28aed"
  },
  {
    "id": "7641804a-7e75-48f5-b159-3004865b7e54",
    "name": "Lyons",
    "state_id": "e26a17cf-9410-407b-b276-87f62cf28aed"
  },
  {
    "id": "13fc6ffc-6109-46ff-9ddf-0ef1a2509058",
    "name": "Maize",
    "state_id": "e26a17cf-9410-407b-b276-87f62cf28aed"
  },
  {
    "id": "00598fdd-e1ff-4332-9f73-f22d05618c9e",
    "name": "Manhattan",
    "state_id": "e26a17cf-9410-407b-b276-87f62cf28aed"
  },
  {
    "id": "67feb70b-c933-464a-a128-1bd986542871",
    "name": "Mankato",
    "state_id": "e26a17cf-9410-407b-b276-87f62cf28aed"
  },
  {
    "id": "e8494b2e-fee6-4d46-9d15-ebc74352ea06",
    "name": "Marion",
    "state_id": "e26a17cf-9410-407b-b276-87f62cf28aed"
  },
  {
    "id": "b68f23f3-4d98-4b99-a3c9-2a1e383db197",
    "name": "Marion County",
    "state_id": "e26a17cf-9410-407b-b276-87f62cf28aed"
  },
  {
    "id": "f91fcb72-bf70-46b6-b804-0f6333376aec",
    "name": "Marshall County",
    "state_id": "e26a17cf-9410-407b-b276-87f62cf28aed"
  },
  {
    "id": "8afbd348-3145-4d95-8086-10d0a79345e0",
    "name": "Marysville",
    "state_id": "e26a17cf-9410-407b-b276-87f62cf28aed"
  },
  {
    "id": "def3058b-a238-4b2c-b6a2-99b1931ef3d0",
    "name": "McConnell AFB",
    "state_id": "e26a17cf-9410-407b-b276-87f62cf28aed"
  },
  {
    "id": "7f9c9928-ea90-46d4-94d5-bf6bf8cc412b",
    "name": "McPherson",
    "state_id": "e26a17cf-9410-407b-b276-87f62cf28aed"
  },
  {
    "id": "b80f024d-285e-4112-81fc-14ac70b6f9b2",
    "name": "McPherson County",
    "state_id": "e26a17cf-9410-407b-b276-87f62cf28aed"
  },
  {
    "id": "e564609b-5f18-4043-8e2a-da13ebc595f7",
    "name": "Meade",
    "state_id": "e26a17cf-9410-407b-b276-87f62cf28aed"
  },
  {
    "id": "2ec907e6-2f3e-47e2-8924-97fc92f72ee2",
    "name": "Meade County",
    "state_id": "e26a17cf-9410-407b-b276-87f62cf28aed"
  },
  {
    "id": "ade9d3bc-9611-4e77-8727-0095072b2b56",
    "name": "Medicine Lodge",
    "state_id": "e26a17cf-9410-407b-b276-87f62cf28aed"
  },
  {
    "id": "499dd7c7-26b6-4526-bbb6-bb865337089d",
    "name": "Merriam",
    "state_id": "e26a17cf-9410-407b-b276-87f62cf28aed"
  },
  {
    "id": "edeffb73-4f96-4859-a965-12cdd45ea838",
    "name": "Miami County",
    "state_id": "e26a17cf-9410-407b-b276-87f62cf28aed"
  },
  {
    "id": "ee81ee81-dbfc-4d40-af0c-8907c367581c",
    "name": "Minneapolis",
    "state_id": "e26a17cf-9410-407b-b276-87f62cf28aed"
  },
  {
    "id": "05434f89-91f7-498f-9626-fd284d468dec",
    "name": "Mission",
    "state_id": "e26a17cf-9410-407b-b276-87f62cf28aed"
  },
  {
    "id": "f46fe59b-ad71-40f5-80cc-32871354a723",
    "name": "Mission Hills",
    "state_id": "e26a17cf-9410-407b-b276-87f62cf28aed"
  },
  {
    "id": "e6dcc4a1-b030-4301-a61e-ca671d0cfc86",
    "name": "Mitchell County",
    "state_id": "e26a17cf-9410-407b-b276-87f62cf28aed"
  },
  {
    "id": "a35e1a98-c720-4c08-b4be-ba1edc3446ec",
    "name": "Montgomery County",
    "state_id": "e26a17cf-9410-407b-b276-87f62cf28aed"
  },
  {
    "id": "68304800-4878-4be9-a0e4-e74a77719bf2",
    "name": "Morris County",
    "state_id": "e26a17cf-9410-407b-b276-87f62cf28aed"
  },
  {
    "id": "5f54272c-7c91-4d29-83f4-8f32e697f2d5",
    "name": "Morton County",
    "state_id": "e26a17cf-9410-407b-b276-87f62cf28aed"
  },
  {
    "id": "f3c57bd4-5fe4-4d3a-a686-f68be635c235",
    "name": "Mound City",
    "state_id": "e26a17cf-9410-407b-b276-87f62cf28aed"
  },
  {
    "id": "19b54efc-85f0-4554-93a5-d4766d58dbaf",
    "name": "Moundridge",
    "state_id": "e26a17cf-9410-407b-b276-87f62cf28aed"
  },
  {
    "id": "ad41cbcf-cb80-44a2-a63b-beaa632301db",
    "name": "Mulvane",
    "state_id": "e26a17cf-9410-407b-b276-87f62cf28aed"
  },
  {
    "id": "30b77cf8-598b-497d-a5bb-81cb98a12c43",
    "name": "Nemaha County",
    "state_id": "e26a17cf-9410-407b-b276-87f62cf28aed"
  },
  {
    "id": "13e95bf8-9076-48d5-acdd-dcdc4821ec98",
    "name": "Neodesha",
    "state_id": "e26a17cf-9410-407b-b276-87f62cf28aed"
  },
  {
    "id": "5150e524-7337-4159-9174-af41c9eb2549",
    "name": "Neosho County",
    "state_id": "e26a17cf-9410-407b-b276-87f62cf28aed"
  },
  {
    "id": "9c6574eb-a9b6-4d85-a85e-a077a0a774d6",
    "name": "Ness City",
    "state_id": "e26a17cf-9410-407b-b276-87f62cf28aed"
  },
  {
    "id": "053407c1-a649-4810-91cc-fcbea6982460",
    "name": "Ness County",
    "state_id": "e26a17cf-9410-407b-b276-87f62cf28aed"
  },
  {
    "id": "55cd2a76-3d66-450a-b6a3-9f05206e7168",
    "name": "New Century, KS",
    "state_id": "e26a17cf-9410-407b-b276-87f62cf28aed"
  },
  {
    "id": "1970f6de-f00e-4934-8525-0977b476338b",
    "name": "Newton",
    "state_id": "e26a17cf-9410-407b-b276-87f62cf28aed"
  },
  {
    "id": "01d1dfe4-175d-4125-b39f-bd83dbed6a30",
    "name": "Nickerson",
    "state_id": "e26a17cf-9410-407b-b276-87f62cf28aed"
  },
  {
    "id": "95609186-86fd-4789-9bb5-f119e184a019",
    "name": "North Newton",
    "state_id": "e26a17cf-9410-407b-b276-87f62cf28aed"
  },
  {
    "id": "1ec225b0-ebc4-4d95-b9ec-097f24f3808d",
    "name": "Norton",
    "state_id": "e26a17cf-9410-407b-b276-87f62cf28aed"
  },
  {
    "id": "8b63d65e-bd8a-4153-96b1-125e1afc4951",
    "name": "Norton County",
    "state_id": "e26a17cf-9410-407b-b276-87f62cf28aed"
  },
  {
    "id": "ae90e597-c244-4b73-8b6e-5a7c2e9918ee",
    "name": "Oakley",
    "state_id": "e26a17cf-9410-407b-b276-87f62cf28aed"
  },
  {
    "id": "53d84870-38c6-4bca-a93e-8399c165a301",
    "name": "Oberlin",
    "state_id": "e26a17cf-9410-407b-b276-87f62cf28aed"
  },
  {
    "id": "2362f5d6-8c2b-48ac-9888-9bd3d48c206a",
    "name": "Ogden",
    "state_id": "e26a17cf-9410-407b-b276-87f62cf28aed"
  },
  {
    "id": "fb463caa-7536-4dd0-822b-13a3dfc43f31",
    "name": "Olathe",
    "state_id": "e26a17cf-9410-407b-b276-87f62cf28aed"
  },
  {
    "id": "3d4e21a2-86dc-4b36-a370-285bb0f2deca",
    "name": "Osage City",
    "state_id": "e26a17cf-9410-407b-b276-87f62cf28aed"
  },
  {
    "id": "c08a3b03-898b-4aaa-a754-3a4ced512bc8",
    "name": "Osage County",
    "state_id": "e26a17cf-9410-407b-b276-87f62cf28aed"
  },
  {
    "id": "4eb7a60c-959c-4d17-b7fb-658d6c98698b",
    "name": "Osawatomie",
    "state_id": "e26a17cf-9410-407b-b276-87f62cf28aed"
  },
  {
    "id": "6d4ac2ff-d914-48a3-9b1e-d82b5754f699",
    "name": "Osborne",
    "state_id": "e26a17cf-9410-407b-b276-87f62cf28aed"
  },
  {
    "id": "c6b21053-3d99-452e-a432-1491520ca966",
    "name": "Osborne County",
    "state_id": "e26a17cf-9410-407b-b276-87f62cf28aed"
  },
  {
    "id": "a934ed44-89c5-4fe8-b4c8-6c649b87c271",
    "name": "Oskaloosa",
    "state_id": "e26a17cf-9410-407b-b276-87f62cf28aed"
  },
  {
    "id": "16ac21a9-eb81-429b-b3fb-c2fa27f2389f",
    "name": "Oswego",
    "state_id": "e26a17cf-9410-407b-b276-87f62cf28aed"
  },
  {
    "id": "790dbff3-0443-4358-8e13-bebc42472946",
    "name": "Ottawa",
    "state_id": "e26a17cf-9410-407b-b276-87f62cf28aed"
  },
  {
    "id": "e03a26ba-5f0a-48ee-8252-db838173bdf9",
    "name": "Ottawa County",
    "state_id": "e26a17cf-9410-407b-b276-87f62cf28aed"
  },
  {
    "id": "5c60e142-5103-41a5-9dd8-52281cf817a7",
    "name": "Overbrook",
    "state_id": "e26a17cf-9410-407b-b276-87f62cf28aed"
  },
  {
    "id": "bab1272c-6f30-4044-83b4-59b1b24d55e2",
    "name": "Overland Park",
    "state_id": "e26a17cf-9410-407b-b276-87f62cf28aed"
  },
  {
    "id": "aef9e16f-7d9b-43c4-9345-5b9498effc76",
    "name": "Oxford",
    "state_id": "e26a17cf-9410-407b-b276-87f62cf28aed"
  },
  {
    "id": "a673c6e0-b6fa-4d16-bb2a-0f5c5b47b25e",
    "name": "Paola",
    "state_id": "e26a17cf-9410-407b-b276-87f62cf28aed"
  },
  {
    "id": "67536ffc-4835-4944-a04c-fc5d3bfa4842",
    "name": "Park City",
    "state_id": "e26a17cf-9410-407b-b276-87f62cf28aed"
  },
  {
    "id": "4c97f20d-f4f7-4436-8405-07fc6fc6140d",
    "name": "Parsons",
    "state_id": "e26a17cf-9410-407b-b276-87f62cf28aed"
  },
  {
    "id": "39878a77-493d-4dd3-a202-4797b76f73cd",
    "name": "Pawnee County",
    "state_id": "e26a17cf-9410-407b-b276-87f62cf28aed"
  },
  {
    "id": "d5c5c4d9-34fc-488a-baf0-0815b1f577fe",
    "name": "Peabody",
    "state_id": "e26a17cf-9410-407b-b276-87f62cf28aed"
  },
  {
    "id": "badbbdbb-42ec-48f7-86d8-19bffe9c9581",
    "name": "Phillips County",
    "state_id": "e26a17cf-9410-407b-b276-87f62cf28aed"
  },
  {
    "id": "e509a8ab-c00d-4301-af44-d6fbe7f46367",
    "name": "Phillipsburg",
    "state_id": "e26a17cf-9410-407b-b276-87f62cf28aed"
  },
  {
    "id": "e2914c21-a1dc-4d9e-9bed-1bf31d417fc9",
    "name": "Pittsburg",
    "state_id": "e26a17cf-9410-407b-b276-87f62cf28aed"
  },
  {
    "id": "d5622058-42b5-4a13-a421-7dcf9a30374a",
    "name": "Plains",
    "state_id": "e26a17cf-9410-407b-b276-87f62cf28aed"
  },
  {
    "id": "ab25c853-4e12-40b0-b6da-5d9d3d9279b1",
    "name": "Plainville",
    "state_id": "e26a17cf-9410-407b-b276-87f62cf28aed"
  },
  {
    "id": "aaf37790-61ad-4844-bb98-50c22812ad2e",
    "name": "Pleasanton",
    "state_id": "e26a17cf-9410-407b-b276-87f62cf28aed"
  },
  {
    "id": "41ed7039-ac58-4726-97b6-62e498a615ff",
    "name": "Pottawatomie County",
    "state_id": "e26a17cf-9410-407b-b276-87f62cf28aed"
  },
  {
    "id": "23831b35-b647-4bca-8f5e-0707037ff133",
    "name": "Prairie Village",
    "state_id": "e26a17cf-9410-407b-b276-87f62cf28aed"
  },
  {
    "id": "316a1491-bbc3-4324-87d4-5e442f0757aa",
    "name": "Pratt",
    "state_id": "e26a17cf-9410-407b-b276-87f62cf28aed"
  },
  {
    "id": "79ccc068-674e-4016-b850-40b30493b4a8",
    "name": "Pratt County",
    "state_id": "e26a17cf-9410-407b-b276-87f62cf28aed"
  },
  {
    "id": "2ba8aef4-8343-4bd5-89d7-1e521925c0d5",
    "name": "Rawlins County",
    "state_id": "e26a17cf-9410-407b-b276-87f62cf28aed"
  },
  {
    "id": "5eca09a0-c32e-4777-8b90-7ecac5dc5f48",
    "name": "Reno County",
    "state_id": "e26a17cf-9410-407b-b276-87f62cf28aed"
  },
  {
    "id": "6995fa12-965f-4855-81e2-b69e4a7e1cfe",
    "name": "Republic County",
    "state_id": "e26a17cf-9410-407b-b276-87f62cf28aed"
  },
  {
    "id": "9ecb6067-99f8-4fd3-ad14-31afe18a22f7",
    "name": "Rice County",
    "state_id": "e26a17cf-9410-407b-b276-87f62cf28aed"
  },
  {
    "id": "9ea7e824-7bd2-4a1b-b46f-3c7b225bc981",
    "name": "Riley County",
    "state_id": "e26a17cf-9410-407b-b276-87f62cf28aed"
  },
  {
    "id": "a5046a6a-f12f-4954-af77-0efc011cd71c",
    "name": "Roeland Park",
    "state_id": "e26a17cf-9410-407b-b276-87f62cf28aed"
  },
  {
    "id": "d8d0aba8-f993-4663-9ecb-995f2b43b54a",
    "name": "Rooks County",
    "state_id": "e26a17cf-9410-407b-b276-87f62cf28aed"
  },
  {
    "id": "b2a36bf7-a0b6-42cd-9b93-9d416815f252",
    "name": "Rose Hill",
    "state_id": "e26a17cf-9410-407b-b276-87f62cf28aed"
  },
  {
    "id": "27f64ee5-cdc2-4cac-9038-4ec4ef342bb4",
    "name": "Rossville",
    "state_id": "e26a17cf-9410-407b-b276-87f62cf28aed"
  },
  {
    "id": "adad5580-7092-41b8-811e-509dd010f9d1",
    "name": "Rush County",
    "state_id": "e26a17cf-9410-407b-b276-87f62cf28aed"
  },
  {
    "id": "eaf1a296-4dd5-47bb-9f38-bbc0a49f0eb6",
    "name": "Russell",
    "state_id": "e26a17cf-9410-407b-b276-87f62cf28aed"
  },
  {
    "id": "25bd1545-45d0-4976-866b-3e8eb50030cb",
    "name": "Russell County",
    "state_id": "e26a17cf-9410-407b-b276-87f62cf28aed"
  },
  {
    "id": "8cce759b-bc8b-466f-8837-d4856371d873",
    "name": "Sabetha",
    "state_id": "e26a17cf-9410-407b-b276-87f62cf28aed"
  },
  {
    "id": "47193909-579f-4c2a-aca8-461952609a46",
    "name": "Saint Francis",
    "state_id": "e26a17cf-9410-407b-b276-87f62cf28aed"
  },
  {
    "id": "57bf87d6-d75d-4fc5-9205-3cf0c128441c",
    "name": "Saint John",
    "state_id": "e26a17cf-9410-407b-b276-87f62cf28aed"
  },
  {
    "id": "19c59f92-1eeb-4cbe-abde-d08c086ede74",
    "name": "Saint Marys",
    "state_id": "e26a17cf-9410-407b-b276-87f62cf28aed"
  },
  {
    "id": "57901348-4aef-4449-9f78-1c9d7574e0b7",
    "name": "Salina",
    "state_id": "e26a17cf-9410-407b-b276-87f62cf28aed"
  },
  {
    "id": "43731a40-5fe4-472b-ac8d-9eab5a20ff41",
    "name": "Saline County",
    "state_id": "e26a17cf-9410-407b-b276-87f62cf28aed"
  },
  {
    "id": "bf2b7c86-a726-4c1d-8687-54fac7c81f05",
    "name": "Satanta",
    "state_id": "e26a17cf-9410-407b-b276-87f62cf28aed"
  },
  {
    "id": "2acb1b5d-7287-49e9-afa4-e00513423c67",
    "name": "Scott City",
    "state_id": "e26a17cf-9410-407b-b276-87f62cf28aed"
  },
  {
    "id": "617cbe2d-beb7-42b7-a6f7-c9e8c814959a",
    "name": "Scott County",
    "state_id": "e26a17cf-9410-407b-b276-87f62cf28aed"
  },
  {
    "id": "504fa21c-b5a4-4cdf-bfac-31e61674ddb2",
    "name": "Sedan",
    "state_id": "e26a17cf-9410-407b-b276-87f62cf28aed"
  },
  {
    "id": "50c3305a-e5b0-4e9b-8bb2-95aec09f3e7a",
    "name": "Sedgwick",
    "state_id": "e26a17cf-9410-407b-b276-87f62cf28aed"
  },
  {
    "id": "0702d4cd-138b-4ca0-8b80-0f277e90c533",
    "name": "Sedgwick County",
    "state_id": "e26a17cf-9410-407b-b276-87f62cf28aed"
  },
  {
    "id": "6393da88-680f-4143-a858-2c03842f0e67",
    "name": "Seneca",
    "state_id": "e26a17cf-9410-407b-b276-87f62cf28aed"
  },
  {
    "id": "a7ec2611-7e53-4aca-8417-20e64f04a99c",
    "name": "Seward County",
    "state_id": "e26a17cf-9410-407b-b276-87f62cf28aed"
  },
  {
    "id": "c77c7e58-e3e1-4257-833e-e3524320ed1b",
    "name": "Sharon Springs",
    "state_id": "e26a17cf-9410-407b-b276-87f62cf28aed"
  },
  {
    "id": "5a2c95cc-dcc6-45fc-a650-1b9bd6abcd43",
    "name": "Shawnee",
    "state_id": "e26a17cf-9410-407b-b276-87f62cf28aed"
  },
  {
    "id": "3b6ac052-6a3b-49ab-b95b-a7d502789d40",
    "name": "Shawnee County",
    "state_id": "e26a17cf-9410-407b-b276-87f62cf28aed"
  },
  {
    "id": "ae83557d-6fdd-4f04-96bd-9094ae9d96b0",
    "name": "Sheridan County",
    "state_id": "e26a17cf-9410-407b-b276-87f62cf28aed"
  },
  {
    "id": "a39cada8-34ec-4267-9b6f-ac7c6909d826",
    "name": "Sherman County",
    "state_id": "e26a17cf-9410-407b-b276-87f62cf28aed"
  },
  {
    "id": "0d4e974b-38aa-4865-9893-07fac8290e66",
    "name": "Silver Lake",
    "state_id": "e26a17cf-9410-407b-b276-87f62cf28aed"
  },
  {
    "id": "e7a7079c-9e99-46aa-85c9-ee12cc3d76ed",
    "name": "Smith Center",
    "state_id": "e26a17cf-9410-407b-b276-87f62cf28aed"
  },
  {
    "id": "9cff5dd5-0402-4560-bb92-3b4ac890f4f5",
    "name": "Smith County",
    "state_id": "e26a17cf-9410-407b-b276-87f62cf28aed"
  },
  {
    "id": "6d0bae3f-8cb0-43e6-9601-71d4b2bf6deb",
    "name": "Solomon",
    "state_id": "e26a17cf-9410-407b-b276-87f62cf28aed"
  },
  {
    "id": "713f34cc-16c5-4cde-ad22-a078ea979fe7",
    "name": "South Hutchinson",
    "state_id": "e26a17cf-9410-407b-b276-87f62cf28aed"
  },
  {
    "id": "b0880651-bbeb-4a79-a938-19d1d450ba80",
    "name": "Spring Hill",
    "state_id": "e26a17cf-9410-407b-b276-87f62cf28aed"
  },
  {
    "id": "d1e9ecb9-8b46-4818-80fe-6325eb00d7f9",
    "name": "Stafford County",
    "state_id": "e26a17cf-9410-407b-b276-87f62cf28aed"
  },
  {
    "id": "d3a44f8f-518a-4f97-b24b-ba975d6b926a",
    "name": "Stanton County",
    "state_id": "e26a17cf-9410-407b-b276-87f62cf28aed"
  },
  {
    "id": "fa435ac3-7da1-41df-b1f4-e07d5636b314",
    "name": "Sterling",
    "state_id": "e26a17cf-9410-407b-b276-87f62cf28aed"
  },
  {
    "id": "52f4ade7-fc20-4d07-9e50-d976b3f7bfb8",
    "name": "Stevens County",
    "state_id": "e26a17cf-9410-407b-b276-87f62cf28aed"
  },
  {
    "id": "efea64e0-3f86-4cef-9daa-8e6aa46d1e9b",
    "name": "Stockton",
    "state_id": "e26a17cf-9410-407b-b276-87f62cf28aed"
  },
  {
    "id": "c70d655d-aff5-4e71-9200-3b68e3cae226",
    "name": "Sublette",
    "state_id": "e26a17cf-9410-407b-b276-87f62cf28aed"
  },
  {
    "id": "d372c549-8780-41b5-b0ba-e8a86104d74a",
    "name": "Sumner County",
    "state_id": "e26a17cf-9410-407b-b276-87f62cf28aed"
  },
  {
    "id": "ad3c3d40-208c-4d4d-bfc3-ea788154ea3e",
    "name": "Syracuse",
    "state_id": "e26a17cf-9410-407b-b276-87f62cf28aed"
  },
  {
    "id": "c982fd22-19e0-45a8-89b9-b0c4033694e9",
    "name": "Thomas County",
    "state_id": "e26a17cf-9410-407b-b276-87f62cf28aed"
  },
  {
    "id": "b98477c4-825b-4b9e-8df9-ef98ca7ad38b",
    "name": "Tonganoxie",
    "state_id": "e26a17cf-9410-407b-b276-87f62cf28aed"
  },
  {
    "id": "be72d2f5-507e-46f2-88ec-bc9bfc18b333",
    "name": "Topeka",
    "state_id": "e26a17cf-9410-407b-b276-87f62cf28aed"
  },
  {
    "id": "cc9acb5b-e16e-4ebe-8277-8036ad3601ff",
    "name": "Towanda",
    "state_id": "e26a17cf-9410-407b-b276-87f62cf28aed"
  },
  {
    "id": "c537df1f-f922-421b-8f4b-464cc3026d40",
    "name": "Trego County",
    "state_id": "e26a17cf-9410-407b-b276-87f62cf28aed"
  },
  {
    "id": "53d57ac5-8c02-41c0-8c5b-dc5d1303b09f",
    "name": "Tribune",
    "state_id": "e26a17cf-9410-407b-b276-87f62cf28aed"
  },
  {
    "id": "579627c4-0b82-486d-bf18-b2db4f4918a1",
    "name": "Troy",
    "state_id": "e26a17cf-9410-407b-b276-87f62cf28aed"
  },
  {
    "id": "8a2a68b2-ef4e-4004-a26f-d8596ca06371",
    "name": "Ulysses",
    "state_id": "e26a17cf-9410-407b-b276-87f62cf28aed"
  },
  {
    "id": "f8169f1a-6ad7-4a9f-b38a-4e0f144a56d3",
    "name": "Valley Center",
    "state_id": "e26a17cf-9410-407b-b276-87f62cf28aed"
  },
  {
    "id": "5e4e8d9a-a6dc-401b-bdde-a4d813cc1b46",
    "name": "Valley Falls",
    "state_id": "e26a17cf-9410-407b-b276-87f62cf28aed"
  },
  {
    "id": "0c40ad1d-5136-4f93-a4ac-e148be6cfe49",
    "name": "Victoria",
    "state_id": "e26a17cf-9410-407b-b276-87f62cf28aed"
  },
  {
    "id": "dcb01eaf-17f8-43b0-b922-7221f32013ff",
    "name": "Wabaunsee County",
    "state_id": "e26a17cf-9410-407b-b276-87f62cf28aed"
  },
  {
    "id": "c4b6a762-ca87-4bdf-a226-7f02ac95aefb",
    "name": "WaKeeney",
    "state_id": "e26a17cf-9410-407b-b276-87f62cf28aed"
  },
  {
    "id": "56f7766c-326a-4902-bd7e-f626f04e8129",
    "name": "Wallace County",
    "state_id": "e26a17cf-9410-407b-b276-87f62cf28aed"
  },
  {
    "id": "b7999414-1efd-4135-9110-c1c4bc84b8c6",
    "name": "Wamego",
    "state_id": "e26a17cf-9410-407b-b276-87f62cf28aed"
  },
  {
    "id": "0600f253-85d0-461d-9ce1-e8ce6660ae27",
    "name": "Washington",
    "state_id": "e26a17cf-9410-407b-b276-87f62cf28aed"
  },
  {
    "id": "10094cdb-3f95-4786-8de1-353e97e62860",
    "name": "Washington County",
    "state_id": "e26a17cf-9410-407b-b276-87f62cf28aed"
  },
  {
    "id": "fa13840b-3017-4b9d-b780-ca7b0aca7392",
    "name": "Wathena",
    "state_id": "e26a17cf-9410-407b-b276-87f62cf28aed"
  },
  {
    "id": "f1ab7ec2-796c-4d4e-bee9-7cc448385316",
    "name": "Wellington",
    "state_id": "e26a17cf-9410-407b-b276-87f62cf28aed"
  },
  {
    "id": "ca3fc216-e68b-479e-8b52-31f4a738d78d",
    "name": "Wellsville",
    "state_id": "e26a17cf-9410-407b-b276-87f62cf28aed"
  },
  {
    "id": "808e4963-470f-4988-abe3-9c2c071bd4e6",
    "name": "Westmoreland",
    "state_id": "e26a17cf-9410-407b-b276-87f62cf28aed"
  },
  {
    "id": "106a13b4-38b5-429e-9c5c-2b6eae567f59",
    "name": "Westwood",
    "state_id": "e26a17cf-9410-407b-b276-87f62cf28aed"
  },
  {
    "id": "f8bf9aa8-bada-4347-8f0c-4020d7a3fcb4",
    "name": "Wichita",
    "state_id": "e26a17cf-9410-407b-b276-87f62cf28aed"
  },
  {
    "id": "283c0d35-321f-4c25-b5b7-0f9bb8c83f0e",
    "name": "Wichita County",
    "state_id": "e26a17cf-9410-407b-b276-87f62cf28aed"
  },
  {
    "id": "e53794c7-7c8d-4c62-8e9a-58bbdd5ff954",
    "name": "Wilson County",
    "state_id": "e26a17cf-9410-407b-b276-87f62cf28aed"
  },
  {
    "id": "a2bf6e1d-dba1-47b2-8c1b-03aaa0934fc4",
    "name": "Winfield",
    "state_id": "e26a17cf-9410-407b-b276-87f62cf28aed"
  },
  {
    "id": "34942f9c-ad86-435f-9278-91a5ecc6d7e6",
    "name": "Woodson County",
    "state_id": "e26a17cf-9410-407b-b276-87f62cf28aed"
  },
  {
    "id": "78c64351-eca4-41b7-a18d-7666ff552d76",
    "name": "Wyandotte County",
    "state_id": "e26a17cf-9410-407b-b276-87f62cf28aed"
  },
  {
    "id": "8c5389e6-9606-4fe9-8dd7-da2869c018b5",
    "name": "Yates Center",
    "state_id": "e26a17cf-9410-407b-b276-87f62cf28aed"
  }
]