[
  {
    "id": "70e275b6-bbf8-46eb-9775-efb62b0f5809",
    "name": "Atlit",
    "state_id": "e291fdeb-8eeb-4086-a737-7722c9afe641"
  },
  {
    "id": "f2f3b865-634c-48aa-837c-b46f13dbfd28",
    "name": "Caesarea",
    "state_id": "e291fdeb-8eeb-4086-a737-7722c9afe641"
  },
  {
    "id": "4bf479fd-6e30-40c6-8cf9-a26a793ec301",
    "name": "Daliyat al Karmel",
    "state_id": "e291fdeb-8eeb-4086-a737-7722c9afe641"
  },
  {
    "id": "6074cc44-e744-4d9c-9604-fdff1148b8d9",
    "name": "El Fureidīs",
    "state_id": "e291fdeb-8eeb-4086-a737-7722c9afe641"
  },
  {
    "id": "361aa8a2-eb5c-4145-99e4-6fcc99582bfa",
    "name": "Hadera",
    "state_id": "e291fdeb-8eeb-4086-a737-7722c9afe641"
  },
  {
    "id": "0cca86a9-bf69-4ba0-9bac-f0d997029066",
    "name": "Haifa",
    "state_id": "e291fdeb-8eeb-4086-a737-7722c9afe641"
  },
  {
    "id": "7300f1d5-2dc2-4e5b-81fc-a98ed8ff0f12",
    "name": "Ibṭīn",
    "state_id": "e291fdeb-8eeb-4086-a737-7722c9afe641"
  },
  {
    "id": "5c63140c-d860-4e68-a81e-b85e7df19b22",
    "name": "Nesher",
    "state_id": "e291fdeb-8eeb-4086-a737-7722c9afe641"
  },
  {
    "id": "96c658aa-f2ea-4108-8a32-bbdcde454ba0",
    "name": "Qiryat Ata",
    "state_id": "e291fdeb-8eeb-4086-a737-7722c9afe641"
  },
  {
    "id": "31ebadb3-4ede-4455-b5e1-cc82d70088fb",
    "name": "Qiryat Bialik",
    "state_id": "e291fdeb-8eeb-4086-a737-7722c9afe641"
  },
  {
    "id": "77583608-a522-43d9-8d6d-a6fc4c179dce",
    "name": "Qiryat Moẕqin",
    "state_id": "e291fdeb-8eeb-4086-a737-7722c9afe641"
  },
  {
    "id": "b4bec614-753b-437d-9c8d-0ff69ac8b82c",
    "name": "Qiryat Yam",
    "state_id": "e291fdeb-8eeb-4086-a737-7722c9afe641"
  },
  {
    "id": "2bf6e35a-ce83-4935-9a23-ec3d086d8447",
    "name": "Rekhasim",
    "state_id": "e291fdeb-8eeb-4086-a737-7722c9afe641"
  },
  {
    "id": "f69373f0-bf56-4132-a437-bafa4c346452",
    "name": "Tirat Karmel",
    "state_id": "e291fdeb-8eeb-4086-a737-7722c9afe641"
  },
  {
    "id": "1cea077d-bbb4-4a23-a438-c67e15a6921e",
    "name": "Umm el Faḥm",
    "state_id": "e291fdeb-8eeb-4086-a737-7722c9afe641"
  }
]