[
  {
    "id": "18da7489-7f6c-47a0-ab42-0db7bb85e602",
    "name": "Espargos",
    "state_id": "e2bbd507-faff-42a1-8dfc-20f90697927b"
  },
  {
    "id": "4b456cb0-1858-44e2-9c4a-109f7f717e62",
    "name": "Santa Maria",
    "state_id": "e2bbd507-faff-42a1-8dfc-20f90697927b"
  }
]