[
  {
    "id": "d8ec9510-4645-4233-838d-e87189565fca",
    "name": "Halsua",
    "state_id": "e49e3563-c5db-4704-9c3a-f23bde618f65"
  },
  {
    "id": "4451e0be-f1be-48f9-8fac-b3f12401e508",
    "name": "Kälviä",
    "state_id": "e49e3563-c5db-4704-9c3a-f23bde618f65"
  },
  {
    "id": "8910edf8-00e6-4297-b711-d8b870718f40",
    "name": "Kannus",
    "state_id": "e49e3563-c5db-4704-9c3a-f23bde618f65"
  },
  {
    "id": "afc6189c-5d51-4ada-871e-3193f03d3ccf",
    "name": "Kaustinen",
    "state_id": "e49e3563-c5db-4704-9c3a-f23bde618f65"
  },
  {
    "id": "af1c442f-1b8d-46d0-9d7c-3c96648c8794",
    "name": "Kokkola",
    "state_id": "e49e3563-c5db-4704-9c3a-f23bde618f65"
  },
  {
    "id": "d5e3c776-bdcb-41f6-a49a-d66ba4c53046",
    "name": "Lestijärvi",
    "state_id": "e49e3563-c5db-4704-9c3a-f23bde618f65"
  },
  {
    "id": "9dc86672-cdb1-468b-bd8a-70d7f88f032f",
    "name": "Lohtaja",
    "state_id": "e49e3563-c5db-4704-9c3a-f23bde618f65"
  },
  {
    "id": "a51c3251-e5b1-4dbd-9f12-eec14e2193fc",
    "name": "Perho",
    "state_id": "e49e3563-c5db-4704-9c3a-f23bde618f65"
  },
  {
    "id": "6d8b9301-d7ab-4ff0-ac0f-472f1dc46a10",
    "name": "Toholampi",
    "state_id": "e49e3563-c5db-4704-9c3a-f23bde618f65"
  },
  {
    "id": "c2134165-3ddc-4517-b936-c47f6b259e60",
    "name": "Ullava",
    "state_id": "e49e3563-c5db-4704-9c3a-f23bde618f65"
  },
  {
    "id": "cce5507c-0e9f-4aa1-890e-ed9d73c1b478",
    "name": "Veteli",
    "state_id": "e49e3563-c5db-4704-9c3a-f23bde618f65"
  }
]