[
  {
    "id": "7b8a7a38-0503-4c63-be5e-bab89295a55e",
    "name": "Goudomp Department",
    "state_id": "e622b8e9-f9b9-49dc-973e-f09ca5769d96"
  },
  {
    "id": "8a86c686-125d-48d8-a941-6b730a33d922",
    "name": "Sédhiou",
    "state_id": "e622b8e9-f9b9-49dc-973e-f09ca5769d96"
  }
]