[
  {
    "id": "2aa30b7f-04f6-4027-b1df-7b9da4f1091b",
    "name": "Ansongo",
    "state_id": "e658a32e-4a14-4087-affa-a6b535f24983"
  },
  {
    "id": "bb593343-f001-4146-be3f-eed2ba07039d",
    "name": "Cercle de Bourem",
    "state_id": "e658a32e-4a14-4087-affa-a6b535f24983"
  },
  {
    "id": "4adf4010-8586-4172-8e46-fe60839bc0b2",
    "name": "Gao",
    "state_id": "e658a32e-4a14-4087-affa-a6b535f24983"
  },
  {
    "id": "0cee56b1-e6ce-4ee9-bbf0-9f10f339af19",
    "name": "Gao Cercle",
    "state_id": "e658a32e-4a14-4087-affa-a6b535f24983"
  },
  {
    "id": "4ddc93b7-fa90-4284-930b-47f96cc683fa",
    "name": "Inékar",
    "state_id": "e658a32e-4a14-4087-affa-a6b535f24983"
  }
]