[
  {
    "id": "183825e7-5d4d-442a-819a-692a5fc50b4e",
    "name": "Angol",
    "state_id": "e72046fc-6c1e-4b42-821a-e108a396e5a4"
  },
  {
    "id": "679d2144-2938-4737-ba37-0f6c6af3874a",
    "name": "Carahue",
    "state_id": "e72046fc-6c1e-4b42-821a-e108a396e5a4"
  },
  {
    "id": "e7e9b845-4972-4490-a23b-7474d5138eee",
    "name": "Cholchol",
    "state_id": "e72046fc-6c1e-4b42-821a-e108a396e5a4"
  },
  {
    "id": "f4ddcab0-606f-46f3-ae60-dc7bbf366083",
    "name": "Collipulli",
    "state_id": "e72046fc-6c1e-4b42-821a-e108a396e5a4"
  },
  {
    "id": "258ad087-0532-4bd3-ae27-19741cb74976",
    "name": "Cunco",
    "state_id": "e72046fc-6c1e-4b42-821a-e108a396e5a4"
  },
  {
    "id": "27d1b623-274d-4225-a0a0-e3dd0ab3983c",
    "name": "Curacautín",
    "state_id": "e72046fc-6c1e-4b42-821a-e108a396e5a4"
  },
  {
    "id": "8587cf42-e0e4-438f-b03a-e36f47d67a35",
    "name": "Curarrehue",
    "state_id": "e72046fc-6c1e-4b42-821a-e108a396e5a4"
  },
  {
    "id": "f329aa96-ae5c-4b28-8793-ed1b49febff3",
    "name": "Ercilla",
    "state_id": "e72046fc-6c1e-4b42-821a-e108a396e5a4"
  },
  {
    "id": "46457015-12c1-4592-b67b-a8a3d28bf2a9",
    "name": "Freire",
    "state_id": "e72046fc-6c1e-4b42-821a-e108a396e5a4"
  },
  {
    "id": "79ad071d-0571-43fe-9d2f-ecead15c4e1c",
    "name": "Galvarino",
    "state_id": "e72046fc-6c1e-4b42-821a-e108a396e5a4"
  },
  {
    "id": "dd8ef5cc-4635-4ad2-88c4-70d63b24737f",
    "name": "Gorbea",
    "state_id": "e72046fc-6c1e-4b42-821a-e108a396e5a4"
  },
  {
    "id": "19f32d00-1599-49b4-acba-744bbcd5c9f6",
    "name": "Lautaro",
    "state_id": "e72046fc-6c1e-4b42-821a-e108a396e5a4"
  },
  {
    "id": "cfa8d450-63fe-4795-b681-5667070a3177",
    "name": "Loncoche",
    "state_id": "e72046fc-6c1e-4b42-821a-e108a396e5a4"
  },
  {
    "id": "c0dac796-57a0-4620-914e-0c852b59f809",
    "name": "Lonquimay",
    "state_id": "e72046fc-6c1e-4b42-821a-e108a396e5a4"
  },
  {
    "id": "76ca5b5b-9022-4b26-9423-d36fed7fb6f7",
    "name": "Los Sauces",
    "state_id": "e72046fc-6c1e-4b42-821a-e108a396e5a4"
  },
  {
    "id": "bfe5f52e-f8ec-49b0-870e-87c698a42773",
    "name": "Lumaco",
    "state_id": "e72046fc-6c1e-4b42-821a-e108a396e5a4"
  },
  {
    "id": "81ae2b6e-0fcf-40c6-bf57-63c877d3363d",
    "name": "Melipeuco",
    "state_id": "e72046fc-6c1e-4b42-821a-e108a396e5a4"
  },
  {
    "id": "611c296f-1cc2-4af5-adff-af8907c111ff",
    "name": "Nueva Imperial",
    "state_id": "e72046fc-6c1e-4b42-821a-e108a396e5a4"
  },
  {
    "id": "5c857e56-a44f-40d3-a9f4-037ac61d800a",
    "name": "Padre Las Casas",
    "state_id": "e72046fc-6c1e-4b42-821a-e108a396e5a4"
  },
  {
    "id": "201beca7-5175-4bee-a94f-69e53d8fc6d0",
    "name": "Perquenco",
    "state_id": "e72046fc-6c1e-4b42-821a-e108a396e5a4"
  },
  {
    "id": "93388bf8-387e-4766-bc11-579b08d20039",
    "name": "Pitrufquén",
    "state_id": "e72046fc-6c1e-4b42-821a-e108a396e5a4"
  },
  {
    "id": "4d2e1464-580d-44eb-bc68-1f61ed5a023d",
    "name": "Pucón",
    "state_id": "e72046fc-6c1e-4b42-821a-e108a396e5a4"
  },
  {
    "id": "21ac54dc-f810-4943-b5fb-a615d2d6b8c8",
    "name": "Purén",
    "state_id": "e72046fc-6c1e-4b42-821a-e108a396e5a4"
  },
  {
    "id": "7a4d3921-4605-4291-89c5-d6dbe81d56f8",
    "name": "Renaico",
    "state_id": "e72046fc-6c1e-4b42-821a-e108a396e5a4"
  },
  {
    "id": "cbbc0139-02ed-40db-b9f4-606475af896d",
    "name": "Saavedra",
    "state_id": "e72046fc-6c1e-4b42-821a-e108a396e5a4"
  },
  {
    "id": "9a99480c-52d1-43a6-9f4d-645a67c6141d",
    "name": "Temuco",
    "state_id": "e72046fc-6c1e-4b42-821a-e108a396e5a4"
  },
  {
    "id": "c67f21e6-4446-4c8a-a57d-c0ae7e126b37",
    "name": "Teodoro Schmidt",
    "state_id": "e72046fc-6c1e-4b42-821a-e108a396e5a4"
  },
  {
    "id": "93bf0fad-3e34-4071-b5e5-baca708b996d",
    "name": "Toltén",
    "state_id": "e72046fc-6c1e-4b42-821a-e108a396e5a4"
  },
  {
    "id": "33bb67bb-7321-4e9b-96de-202bc2341462",
    "name": "Traiguén",
    "state_id": "e72046fc-6c1e-4b42-821a-e108a396e5a4"
  },
  {
    "id": "648980fa-36e7-44cc-8057-73036d83c927",
    "name": "Victoria",
    "state_id": "e72046fc-6c1e-4b42-821a-e108a396e5a4"
  },
  {
    "id": "7cf77105-69fa-4211-95cb-f72318347066",
    "name": "Vilcún",
    "state_id": "e72046fc-6c1e-4b42-821a-e108a396e5a4"
  },
  {
    "id": "5b50b0c3-9d50-4e15-8309-783824525401",
    "name": "Villarrica",
    "state_id": "e72046fc-6c1e-4b42-821a-e108a396e5a4"
  }
]