[
  {
    "id": "ba807608-acdb-4412-9f6f-e782f1c6c80a",
    "name": "Ash Shaţrah",
    "state_id": "e74ead3e-36bb-4bb4-8412-d48b77499996"
  },
  {
    "id": "3be3b974-1d33-4560-8ed7-9c22a9653291",
    "name": "Nāḩiyat al Fuhūd",
    "state_id": "e74ead3e-36bb-4bb4-8412-d48b77499996"
  },
  {
    "id": "74822a05-76e2-430e-b310-e5f63869c80d",
    "name": "Nasiriyah",
    "state_id": "e74ead3e-36bb-4bb4-8412-d48b77499996"
  }
]