[
  {
    "id": "de416777-422e-4466-8499-962eebb72932",
    "name": "Krško",
    "state_id": "e7733f06-8b8f-4405-986e-a91a02970bdb"
  },
  {
    "id": "d4697003-b0f2-44b8-9931-ccb2aed8703b",
    "name": "Leskovec pri Krškem",
    "state_id": "e7733f06-8b8f-4405-986e-a91a02970bdb"
  },
  {
    "id": "38d378c5-fa1f-4d76-86d2-981a26f1ce01",
    "name": "Senovo",
    "state_id": "e7733f06-8b8f-4405-986e-a91a02970bdb"
  }
]