[
  {
    "id": "3c219e9b-5c72-45dd-9de6-533fd3efe47d",
    "name": "Naro Moru",
    "state_id": "e77f1c7e-973f-409f-89b3-9fe5bc275863"
  },
  {
    "id": "ec53dd35-d448-4d18-8c64-d820125fcf8d",
    "name": "Nyeri",
    "state_id": "e77f1c7e-973f-409f-89b3-9fe5bc275863"
  },
  {
    "id": "88025d78-d7cb-43bc-81e4-2a5b76a3bd40",
    "name": "Othaya",
    "state_id": "e77f1c7e-973f-409f-89b3-9fe5bc275863"
  }
]