[
  {
    "id": "09dfb1b6-854d-44ce-b148-261de9714982",
    "name": "Baracoa",
    "state_id": "e7807379-763a-4151-8749-c2685a217cfd"
  },
  {
    "id": "8334568e-134a-4207-8f45-324d309d6d61",
    "name": "Guantánamo",
    "state_id": "e7807379-763a-4151-8749-c2685a217cfd"
  },
  {
    "id": "b312d305-b167-4ed9-8a4d-09380b66ba18",
    "name": "Maisí",
    "state_id": "e7807379-763a-4151-8749-c2685a217cfd"
  },
  {
    "id": "94399018-3ca4-49d4-af7d-7c93d0b47354",
    "name": "Municipio de Guantánamo",
    "state_id": "e7807379-763a-4151-8749-c2685a217cfd"
  },
  {
    "id": "7b4fa37f-858e-40d1-8100-69d2ef9027c8",
    "name": "Río Guayabal de Yateras",
    "state_id": "e7807379-763a-4151-8749-c2685a217cfd"
  },
  {
    "id": "6f310659-b822-47c3-b4d4-8a61863bf018",
    "name": "San Antonio del Sur",
    "state_id": "e7807379-763a-4151-8749-c2685a217cfd"
  }
]