[
  {
    "id": "889bf134-9cfb-40d8-a8c2-309eb2861530",
    "name": "Ciudad Sandino",
    "state_id": "e821fc93-8eb0-4104-b8ba-0c3cf155bea6"
  },
  {
    "id": "27dadc55-c933-4d0d-a190-28d8a8b7e1c6",
    "name": "El Crucero",
    "state_id": "e821fc93-8eb0-4104-b8ba-0c3cf155bea6"
  },
  {
    "id": "2c796cea-b7b7-411a-a856-cfee457da56f",
    "name": "Managua",
    "state_id": "e821fc93-8eb0-4104-b8ba-0c3cf155bea6"
  },
  {
    "id": "9afa00e0-7baf-4db5-bfb8-1db6c88130a2",
    "name": "Masachapa",
    "state_id": "e821fc93-8eb0-4104-b8ba-0c3cf155bea6"
  },
  {
    "id": "77a5112e-96b1-419c-ada0-45484734221b",
    "name": "San Rafael del Sur",
    "state_id": "e821fc93-8eb0-4104-b8ba-0c3cf155bea6"
  },
  {
    "id": "a0da1973-c756-41ac-a806-5821c71faf37",
    "name": "Ticuantepe",
    "state_id": "e821fc93-8eb0-4104-b8ba-0c3cf155bea6"
  },
  {
    "id": "a6815ca1-ba29-426b-9907-70a904753400",
    "name": "Tipitapa",
    "state_id": "e821fc93-8eb0-4104-b8ba-0c3cf155bea6"
  },
  {
    "id": "f41c7664-0722-4c62-84d0-2673a62d8195",
    "name": "Valle San Francisco",
    "state_id": "e821fc93-8eb0-4104-b8ba-0c3cf155bea6"
  },
  {
    "id": "f75930e9-f4a0-4a3f-a4aa-8623a8c7e5fb",
    "name": "Villa El Carmen",
    "state_id": "e821fc93-8eb0-4104-b8ba-0c3cf155bea6"
  }
]