[
  {
    "id": "f99974b5-3859-4681-95b5-4aaa60f84175",
    "name": "Bonabéri",
    "state_id": "e8328d03-0371-4ee6-9254-6d2d0f724f4c"
  },
  {
    "id": "9fcd45ff-a2ee-4fc8-932c-e82541953e22",
    "name": "Diang",
    "state_id": "e8328d03-0371-4ee6-9254-6d2d0f724f4c"
  },
  {
    "id": "0b62e9ef-5d15-46a0-88eb-dbb20310ae0f",
    "name": "Dibombari",
    "state_id": "e8328d03-0371-4ee6-9254-6d2d0f724f4c"
  },
  {
    "id": "dc6e093d-6fa7-41b7-ac4e-6f27754a4bd3",
    "name": "Dizangué",
    "state_id": "e8328d03-0371-4ee6-9254-6d2d0f724f4c"
  },
  {
    "id": "fafae9f7-75af-4606-bac8-67f068cc7929",
    "name": "Douala",
    "state_id": "e8328d03-0371-4ee6-9254-6d2d0f724f4c"
  },
  {
    "id": "5c010d19-ac1f-4986-8c2d-10c463ee74ea",
    "name": "Edéa",
    "state_id": "e8328d03-0371-4ee6-9254-6d2d0f724f4c"
  },
  {
    "id": "b407c9e3-04ad-40a9-ab91-8af8b9205005",
    "name": "Loum",
    "state_id": "e8328d03-0371-4ee6-9254-6d2d0f724f4c"
  },
  {
    "id": "cb34e474-a351-4a58-8cf3-5d6a18f8efb8",
    "name": "Manjo",
    "state_id": "e8328d03-0371-4ee6-9254-6d2d0f724f4c"
  },
  {
    "id": "5765c3f9-a6a1-4f48-8135-db96fd706e6b",
    "name": "Mbanga",
    "state_id": "e8328d03-0371-4ee6-9254-6d2d0f724f4c"
  },
  {
    "id": "13b39c4e-b7b4-4eb5-a799-9faf79e280d0",
    "name": "Melong",
    "state_id": "e8328d03-0371-4ee6-9254-6d2d0f724f4c"
  },
  {
    "id": "2b5a31d3-29b4-4687-aaea-21e8c784becd",
    "name": "Mouanko",
    "state_id": "e8328d03-0371-4ee6-9254-6d2d0f724f4c"
  },
  {
    "id": "fb038080-f664-477b-b322-b05244e2e25e",
    "name": "Ndom",
    "state_id": "e8328d03-0371-4ee6-9254-6d2d0f724f4c"
  },
  {
    "id": "78d916c2-09ac-4e94-8e7b-b9cdcde4b171",
    "name": "Ngambé",
    "state_id": "e8328d03-0371-4ee6-9254-6d2d0f724f4c"
  },
  {
    "id": "c0afa19c-83e4-41a8-82ad-c631ad4278ca",
    "name": "Nkongsamba",
    "state_id": "e8328d03-0371-4ee6-9254-6d2d0f724f4c"
  },
  {
    "id": "457c88cf-42f2-44cf-bf16-16c95f191c53",
    "name": "Penja",
    "state_id": "e8328d03-0371-4ee6-9254-6d2d0f724f4c"
  },
  {
    "id": "9bdeba04-b6ec-40b8-ae47-9d0957fbc8de",
    "name": "Yabassi",
    "state_id": "e8328d03-0371-4ee6-9254-6d2d0f724f4c"
  }
]