[
  {
    "id": "71aebdb1-8d79-4ced-904c-27b2613a0c8e",
    "name": "Aïn Touta",
    "state_id": "e8dbd408-d823-4e02-8044-e26670beec64"
  },
  {
    "id": "72933fdd-b0f6-444d-9a9b-b031e3956f95",
    "name": "Arris",
    "state_id": "e8dbd408-d823-4e02-8044-e26670beec64"
  },
  {
    "id": "d7005907-aebf-4688-a64c-13a67726173e",
    "name": "Barika",
    "state_id": "e8dbd408-d823-4e02-8044-e26670beec64"
  },
  {
    "id": "905370b1-45a6-42a5-81f7-96c19f198371",
    "name": "Batna",
    "state_id": "e8dbd408-d823-4e02-8044-e26670beec64"
  },
  {
    "id": "95503397-60de-4bf7-bf6c-95507acc97ca",
    "name": "Boumagueur",
    "state_id": "e8dbd408-d823-4e02-8044-e26670beec64"
  },
  {
    "id": "dd536e98-5b18-4740-9a11-60f0d7ab8b30",
    "name": "Merouana",
    "state_id": "e8dbd408-d823-4e02-8044-e26670beec64"
  },
  {
    "id": "7e8ccf50-5664-4b99-b96a-07eeef6d3d71",
    "name": "Râs el Aïoun",
    "state_id": "e8dbd408-d823-4e02-8044-e26670beec64"
  },
  {
    "id": "4ddefdbd-30a1-4780-bd87-fc91b5f5a3a3",
    "name": "Tazoult-Lambese",
    "state_id": "e8dbd408-d823-4e02-8044-e26670beec64"
  }
]