[
  {
    "id": "c3117890-7557-42c2-ba75-36858aa6e9a3",
    "name": "Adlay",
    "state_id": "ea0682e0-b647-4e32-90a6-7c8424371529"
  },
  {
    "id": "468a6d88-3497-4fb3-a976-7e5f14ae3f64",
    "name": "Agay",
    "state_id": "ea0682e0-b647-4e32-90a6-7c8424371529"
  },
  {
    "id": "8f9efaaa-93a1-4853-8135-e20e29e7650b",
    "name": "Alegria",
    "state_id": "ea0682e0-b647-4e32-90a6-7c8424371529"
  },
  {
    "id": "2a30a733-0ffc-4dc4-b72a-108fb2ba449a",
    "name": "Alubijid",
    "state_id": "ea0682e0-b647-4e32-90a6-7c8424371529"
  },
  {
    "id": "02633a66-f9d3-47db-aa28-dc87c390637f",
    "name": "Amaga",
    "state_id": "ea0682e0-b647-4e32-90a6-7c8424371529"
  },
  {
    "id": "96a684b3-db6d-44c5-a1d6-2c6da935d299",
    "name": "Anticala",
    "state_id": "ea0682e0-b647-4e32-90a6-7c8424371529"
  },
  {
    "id": "7bdc9f2f-38a3-4024-9083-0cebf93d1cc5",
    "name": "Aras-asan",
    "state_id": "ea0682e0-b647-4e32-90a6-7c8424371529"
  },
  {
    "id": "3344b8fe-b208-470d-9459-71db17c64659",
    "name": "Aurora",
    "state_id": "ea0682e0-b647-4e32-90a6-7c8424371529"
  },
  {
    "id": "b4a9fef8-d9dd-4b12-b35c-1b91c725b515",
    "name": "Bacolod",
    "state_id": "ea0682e0-b647-4e32-90a6-7c8424371529"
  },
  {
    "id": "f4455682-ac24-46dd-af0d-924e25d1555f",
    "name": "Bacuag",
    "state_id": "ea0682e0-b647-4e32-90a6-7c8424371529"
  },
  {
    "id": "ef132f35-0522-4a73-a4c7-f6cbfb19d6fe",
    "name": "Bah-Bah",
    "state_id": "ea0682e0-b647-4e32-90a6-7c8424371529"
  },
  {
    "id": "77e77930-5643-4cd3-aec3-d87726c5acce",
    "name": "Balangbalang",
    "state_id": "ea0682e0-b647-4e32-90a6-7c8424371529"
  },
  {
    "id": "b1d47c8c-0393-483c-be89-4ec55a244912",
    "name": "Bancasi",
    "state_id": "ea0682e0-b647-4e32-90a6-7c8424371529"
  },
  {
    "id": "a45883f1-89f3-44ea-bd4f-fd6505475110",
    "name": "Bangonay",
    "state_id": "ea0682e0-b647-4e32-90a6-7c8424371529"
  },
  {
    "id": "77be585d-db3f-4258-8496-4188b706d3c7",
    "name": "Barcelona",
    "state_id": "ea0682e0-b647-4e32-90a6-7c8424371529"
  },
  {
    "id": "fb9d36da-3c9f-46c4-8224-c6d16a2efa63",
    "name": "Barobo",
    "state_id": "ea0682e0-b647-4e32-90a6-7c8424371529"
  },
  {
    "id": "5e900829-5d87-4bd4-95a3-d195fd06f70a",
    "name": "Basa",
    "state_id": "ea0682e0-b647-4e32-90a6-7c8424371529"
  },
  {
    "id": "da4c671b-c18c-417c-b307-a47a13feb011",
    "name": "Basag",
    "state_id": "ea0682e0-b647-4e32-90a6-7c8424371529"
  },
  {
    "id": "73e5fb90-3cff-4b25-b524-2e70b6289985",
    "name": "Basilisa",
    "state_id": "ea0682e0-b647-4e32-90a6-7c8424371529"
  },
  {
    "id": "5acb7462-2392-47b7-8b6b-39ca5bcb39c0",
    "name": "Bayabas",
    "state_id": "ea0682e0-b647-4e32-90a6-7c8424371529"
  },
  {
    "id": "b8cb84e1-1928-48e0-b667-c2929d5f3bb8",
    "name": "Bayugan",
    "state_id": "ea0682e0-b647-4e32-90a6-7c8424371529"
  },
  {
    "id": "da22fac4-e6b7-41c2-844a-cf298b63a477",
    "name": "Bigaan",
    "state_id": "ea0682e0-b647-4e32-90a6-7c8424371529"
  },
  {
    "id": "90b72faf-c510-4126-838a-6021294ce005",
    "name": "Binucayan",
    "state_id": "ea0682e0-b647-4e32-90a6-7c8424371529"
  },
  {
    "id": "d135b7d2-5d46-4a22-aad7-71adca1d4450",
    "name": "Bislig",
    "state_id": "ea0682e0-b647-4e32-90a6-7c8424371529"
  },
  {
    "id": "6921b79a-02aa-4f7b-8a22-7e5a98e2b259",
    "name": "Borbon",
    "state_id": "ea0682e0-b647-4e32-90a6-7c8424371529"
  },
  {
    "id": "ec8c7644-65f8-475a-8a33-df3479ff8717",
    "name": "Buenavista",
    "state_id": "ea0682e0-b647-4e32-90a6-7c8424371529"
  },
  {
    "id": "da0c0ec3-82e7-4496-b597-259dd9e8c806",
    "name": "Bunawan",
    "state_id": "ea0682e0-b647-4e32-90a6-7c8424371529"
  },
  {
    "id": "d00fc1d4-e7c9-4772-bd72-70d98286b765",
    "name": "Burgos",
    "state_id": "ea0682e0-b647-4e32-90a6-7c8424371529"
  },
  {
    "id": "d53dbcd3-7ff3-48b9-b1e9-503ae5881ebc",
    "name": "Butuan",
    "state_id": "ea0682e0-b647-4e32-90a6-7c8424371529"
  },
  {
    "id": "58df1e2d-ee4f-4cc2-aa7a-bee5fc75a3e0",
    "name": "Cabadbaran",
    "state_id": "ea0682e0-b647-4e32-90a6-7c8424371529"
  },
  {
    "id": "e3efdb7a-5b86-4671-a6cc-173d974ea1df",
    "name": "Cagdianao",
    "state_id": "ea0682e0-b647-4e32-90a6-7c8424371529"
  },
  {
    "id": "a36225c4-b6d9-43ef-a67a-fd50d25b80c3",
    "name": "Cagwait",
    "state_id": "ea0682e0-b647-4e32-90a6-7c8424371529"
  },
  {
    "id": "b4898ee7-eec7-4c07-9936-5d9a6d4cf52f",
    "name": "Calamba",
    "state_id": "ea0682e0-b647-4e32-90a6-7c8424371529"
  },
  {
    "id": "68a95fd9-9a3f-4a4d-9b80-b439193c951b",
    "name": "Caloc-an",
    "state_id": "ea0682e0-b647-4e32-90a6-7c8424371529"
  },
  {
    "id": "c29fa3a0-8cd3-43fe-a05f-2b82d3f5e022",
    "name": "Cantapoy",
    "state_id": "ea0682e0-b647-4e32-90a6-7c8424371529"
  },
  {
    "id": "8dee17dd-9c24-4095-b7eb-e86af1a41b10",
    "name": "Cantilan",
    "state_id": "ea0682e0-b647-4e32-90a6-7c8424371529"
  },
  {
    "id": "5137075d-2971-4b3a-acbe-1d79d36d483c",
    "name": "Capalayan",
    "state_id": "ea0682e0-b647-4e32-90a6-7c8424371529"
  },
  {
    "id": "a8e2bc23-5495-4c53-9efd-dbfa5a1cee94",
    "name": "Carmen",
    "state_id": "ea0682e0-b647-4e32-90a6-7c8424371529"
  },
  {
    "id": "a067c506-c6b4-4bbc-8133-56167a9866de",
    "name": "Carrascal",
    "state_id": "ea0682e0-b647-4e32-90a6-7c8424371529"
  },
  {
    "id": "bfd4f1da-ddd7-4c10-8711-04a9fb241bea",
    "name": "Causwagan",
    "state_id": "ea0682e0-b647-4e32-90a6-7c8424371529"
  },
  {
    "id": "e53f607c-c8c1-4549-95a2-69e80f71c295",
    "name": "Claver",
    "state_id": "ea0682e0-b647-4e32-90a6-7c8424371529"
  },
  {
    "id": "81864b49-8a52-4374-9987-d03b79c1a61e",
    "name": "Comagascas",
    "state_id": "ea0682e0-b647-4e32-90a6-7c8424371529"
  },
  {
    "id": "a63c0362-f916-469d-9f18-82d1b88ca5c5",
    "name": "Cortes",
    "state_id": "ea0682e0-b647-4e32-90a6-7c8424371529"
  },
  {
    "id": "9bec730b-56ed-42fa-97f8-b679b2fd8a1a",
    "name": "Cuevas",
    "state_id": "ea0682e0-b647-4e32-90a6-7c8424371529"
  },
  {
    "id": "abb45b3d-85c0-4ca4-aec9-8e638a64262e",
    "name": "Culit",
    "state_id": "ea0682e0-b647-4e32-90a6-7c8424371529"
  },
  {
    "id": "366c1cf1-cd66-477f-9b4b-c23eb1ab0377",
    "name": "Dapa",
    "state_id": "ea0682e0-b647-4e32-90a6-7c8424371529"
  },
  {
    "id": "95a5762c-8a80-46ba-bed4-2e900b2b1624",
    "name": "Del Carmen, Surigao del Norte",
    "state_id": "ea0682e0-b647-4e32-90a6-7c8424371529"
  },
  {
    "id": "aab6c006-1f99-4ae1-a341-edec0dee82c3",
    "name": "Del Pilar",
    "state_id": "ea0682e0-b647-4e32-90a6-7c8424371529"
  },
  {
    "id": "27e93070-6db8-47f7-8099-353f917b13d7",
    "name": "Dinagat",
    "state_id": "ea0682e0-b647-4e32-90a6-7c8424371529"
  },
  {
    "id": "c011c37e-bf6d-48a0-aafc-a7ae840827b6",
    "name": "Dinagat Islands",
    "state_id": "ea0682e0-b647-4e32-90a6-7c8424371529"
  },
  {
    "id": "9edc611d-25a6-4433-b52e-7fb7fb039482",
    "name": "Esperanza",
    "state_id": "ea0682e0-b647-4e32-90a6-7c8424371529"
  },
  {
    "id": "19b9657b-5606-4795-a11f-c5e68463dcf7",
    "name": "Gamut",
    "state_id": "ea0682e0-b647-4e32-90a6-7c8424371529"
  },
  {
    "id": "b1edabac-88d7-483a-ac02-608bf75f871b",
    "name": "General Luna",
    "state_id": "ea0682e0-b647-4e32-90a6-7c8424371529"
  },
  {
    "id": "85274a60-374e-4840-926a-a00211c7ed7b",
    "name": "Gigaquit",
    "state_id": "ea0682e0-b647-4e32-90a6-7c8424371529"
  },
  {
    "id": "b7e6cfbb-2f92-49b8-9cac-b5353a5944dc",
    "name": "Guadalupe",
    "state_id": "ea0682e0-b647-4e32-90a6-7c8424371529"
  },
  {
    "id": "6d205279-618d-46f2-a3a2-d10131fa7f7c",
    "name": "Guinabsan",
    "state_id": "ea0682e0-b647-4e32-90a6-7c8424371529"
  },
  {
    "id": "a47e4ded-b861-402c-9856-1c4c50ff9fbe",
    "name": "Hinatuan",
    "state_id": "ea0682e0-b647-4e32-90a6-7c8424371529"
  },
  {
    "id": "6cdfd448-8321-44bb-bd5d-08689cf8a6ba",
    "name": "Ipil",
    "state_id": "ea0682e0-b647-4e32-90a6-7c8424371529"
  },
  {
    "id": "9ed4679f-f96f-4249-8554-442b76737193",
    "name": "Jabonga",
    "state_id": "ea0682e0-b647-4e32-90a6-7c8424371529"
  },
  {
    "id": "87082c2b-498a-4974-ac73-fde8d4d682b5",
    "name": "Jagupit",
    "state_id": "ea0682e0-b647-4e32-90a6-7c8424371529"
  },
  {
    "id": "bf5c53ba-de47-417f-b6eb-c36960b09c05",
    "name": "Javier",
    "state_id": "ea0682e0-b647-4e32-90a6-7c8424371529"
  },
  {
    "id": "0aede4b0-062d-4f14-b174-7d304a34ca17",
    "name": "Kauswagan",
    "state_id": "ea0682e0-b647-4e32-90a6-7c8424371529"
  },
  {
    "id": "58a2cee9-73ee-4982-bfe3-560436c0fff2",
    "name": "Kinabhangan",
    "state_id": "ea0682e0-b647-4e32-90a6-7c8424371529"
  },
  {
    "id": "deb7ad2b-4368-452c-9c70-0066312ff6d2",
    "name": "Kitcharao",
    "state_id": "ea0682e0-b647-4e32-90a6-7c8424371529"
  },
  {
    "id": "e0a3b685-ef2e-4415-aa72-2cd2ad279bf9",
    "name": "La Paz",
    "state_id": "ea0682e0-b647-4e32-90a6-7c8424371529"
  },
  {
    "id": "42f86a74-d659-4c10-9798-5939017f1a07",
    "name": "La Union",
    "state_id": "ea0682e0-b647-4e32-90a6-7c8424371529"
  },
  {
    "id": "80749c3b-53e5-435b-b331-740437a235f4",
    "name": "Lanuza",
    "state_id": "ea0682e0-b647-4e32-90a6-7c8424371529"
  },
  {
    "id": "2d9d60b5-9425-48ca-834a-cb7f756acfc0",
    "name": "Lapinigan",
    "state_id": "ea0682e0-b647-4e32-90a6-7c8424371529"
  },
  {
    "id": "248c6c49-1c84-4d9c-86f9-fa0a0e57fd6f",
    "name": "Lianga",
    "state_id": "ea0682e0-b647-4e32-90a6-7c8424371529"
  },
  {
    "id": "fa561177-8714-494a-98c2-8289d87e8621",
    "name": "Libas",
    "state_id": "ea0682e0-b647-4e32-90a6-7c8424371529"
  },
  {
    "id": "e82c5f57-e4e8-4572-b87d-b71d18c717b0",
    "name": "Libertad",
    "state_id": "ea0682e0-b647-4e32-90a6-7c8424371529"
  },
  {
    "id": "117c94ce-8bc4-4338-9488-e5b096933a9c",
    "name": "Libjo",
    "state_id": "ea0682e0-b647-4e32-90a6-7c8424371529"
  },
  {
    "id": "64d81c49-38df-42b8-99a5-47d092c90c6d",
    "name": "Lingig",
    "state_id": "ea0682e0-b647-4e32-90a6-7c8424371529"
  },
  {
    "id": "69f5b0de-0b41-4a40-8d7a-ce8ec1b97c61",
    "name": "Lombocan",
    "state_id": "ea0682e0-b647-4e32-90a6-7c8424371529"
  },
  {
    "id": "0903afce-f22b-4113-874d-2b32171915af",
    "name": "Loreto",
    "state_id": "ea0682e0-b647-4e32-90a6-7c8424371529"
  },
  {
    "id": "9b2b83c7-4ebd-4172-9a70-2d6a25a31436",
    "name": "Los Angeles",
    "state_id": "ea0682e0-b647-4e32-90a6-7c8424371529"
  },
  {
    "id": "d0c66736-8147-47af-8bf0-09c6f8cbea32",
    "name": "Los Arcos",
    "state_id": "ea0682e0-b647-4e32-90a6-7c8424371529"
  },
  {
    "id": "a4d41b60-a640-4d1b-bd8a-8b8cee47a921",
    "name": "Loyola",
    "state_id": "ea0682e0-b647-4e32-90a6-7c8424371529"
  },
  {
    "id": "bddfc9de-e069-4ad6-a527-32f7e23fe07a",
    "name": "Luna",
    "state_id": "ea0682e0-b647-4e32-90a6-7c8424371529"
  },
  {
    "id": "91a86e32-0312-4431-abda-98a54446258d",
    "name": "Mabahin",
    "state_id": "ea0682e0-b647-4e32-90a6-7c8424371529"
  },
  {
    "id": "0338c9b9-f305-47e6-aacc-07e10180f725",
    "name": "Mabua",
    "state_id": "ea0682e0-b647-4e32-90a6-7c8424371529"
  },
  {
    "id": "ca787236-8f29-48f3-bc42-e6cc1adf8965",
    "name": "Madrid",
    "state_id": "ea0682e0-b647-4e32-90a6-7c8424371529"
  },
  {
    "id": "af84ddc4-6d39-409a-801f-f63e50f350a7",
    "name": "Magallanes",
    "state_id": "ea0682e0-b647-4e32-90a6-7c8424371529"
  },
  {
    "id": "e7ee520b-72a3-4e11-a916-f705c26d9aca",
    "name": "Mainit",
    "state_id": "ea0682e0-b647-4e32-90a6-7c8424371529"
  },
  {
    "id": "8cab1c21-1522-4e05-873a-f479aca8d80b",
    "name": "Malimono",
    "state_id": "ea0682e0-b647-4e32-90a6-7c8424371529"
  },
  {
    "id": "0ce40c03-ecf1-45f2-b284-5f3747ccf83d",
    "name": "Manapa",
    "state_id": "ea0682e0-b647-4e32-90a6-7c8424371529"
  },
  {
    "id": "fce03bd8-def2-4a2a-b666-2236e8bea9f0",
    "name": "Marihatag",
    "state_id": "ea0682e0-b647-4e32-90a6-7c8424371529"
  },
  {
    "id": "650bf0b7-52d0-4491-92e2-8ab5482562f9",
    "name": "Matabao",
    "state_id": "ea0682e0-b647-4e32-90a6-7c8424371529"
  },
  {
    "id": "f5bcaca7-8005-401b-bf22-f16e29192d5e",
    "name": "Mati",
    "state_id": "ea0682e0-b647-4e32-90a6-7c8424371529"
  },
  {
    "id": "75034cff-3e34-4c81-a75b-b94771dbe4b1",
    "name": "Maygatasan",
    "state_id": "ea0682e0-b647-4e32-90a6-7c8424371529"
  },
  {
    "id": "0febcb30-f50d-4911-a1e2-d3812f6e9c7f",
    "name": "Nasipit",
    "state_id": "ea0682e0-b647-4e32-90a6-7c8424371529"
  },
  {
    "id": "3f0587df-7645-40d1-a1fd-4da3b0a816eb",
    "name": "Panikian",
    "state_id": "ea0682e0-b647-4e32-90a6-7c8424371529"
  },
  {
    "id": "802c756a-230e-4346-a7f8-5ad3279df98d",
    "name": "Parang",
    "state_id": "ea0682e0-b647-4e32-90a6-7c8424371529"
  },
  {
    "id": "20a36514-e8bc-4f76-a0ab-761b83539391",
    "name": "Patin-ay",
    "state_id": "ea0682e0-b647-4e32-90a6-7c8424371529"
  },
  {
    "id": "ab42b6d7-901e-47aa-bc3e-cb8f6af762d9",
    "name": "Pilar",
    "state_id": "ea0682e0-b647-4e32-90a6-7c8424371529"
  },
  {
    "id": "b775cfa0-9219-4aa6-bf2b-76a88dfff24e",
    "name": "Placer",
    "state_id": "ea0682e0-b647-4e32-90a6-7c8424371529"
  },
  {
    "id": "0fc7f83b-6b9b-4b9b-8689-2fd58240410b",
    "name": "Prosperidad",
    "state_id": "ea0682e0-b647-4e32-90a6-7c8424371529"
  },
  {
    "id": "a2b1dab7-2a03-46d7-9d75-a216d9e82d87",
    "name": "Province of Agusan del Norte",
    "state_id": "ea0682e0-b647-4e32-90a6-7c8424371529"
  },
  {
    "id": "5be4f83c-34d6-468f-ae54-96fc729100e9",
    "name": "Province of Agusan del Sur",
    "state_id": "ea0682e0-b647-4e32-90a6-7c8424371529"
  },
  {
    "id": "17942cf3-e2a4-4923-8102-1cdfd85eda85",
    "name": "Province of Surigao del Norte",
    "state_id": "ea0682e0-b647-4e32-90a6-7c8424371529"
  },
  {
    "id": "c68ff445-d18e-467b-8d04-50dfeb172ab0",
    "name": "Province of Surigao del Sur",
    "state_id": "ea0682e0-b647-4e32-90a6-7c8424371529"
  },
  {
    "id": "c33e7bd7-83cb-4b89-b675-d2dcf2558b32",
    "name": "Punta",
    "state_id": "ea0682e0-b647-4e32-90a6-7c8424371529"
  },
  {
    "id": "a50d2eab-4469-47c1-be18-085f414ef8ed",
    "name": "Rizal",
    "state_id": "ea0682e0-b647-4e32-90a6-7c8424371529"
  },
  {
    "id": "f0e93cd2-5533-41d6-b2fc-d3870e36ff7b",
    "name": "Salvacion",
    "state_id": "ea0682e0-b647-4e32-90a6-7c8424371529"
  },
  {
    "id": "69ffe7da-f3d1-4d2e-af31-8ea390b3daeb",
    "name": "San Benito",
    "state_id": "ea0682e0-b647-4e32-90a6-7c8424371529"
  },
  {
    "id": "f668ffd4-51de-4b3b-aa0f-f94bc6a48c60",
    "name": "San Francisco",
    "state_id": "ea0682e0-b647-4e32-90a6-7c8424371529"
  },
  {
    "id": "834f1778-3465-427e-b91b-a6aff35d1320",
    "name": "San Isidro",
    "state_id": "ea0682e0-b647-4e32-90a6-7c8424371529"
  },
  {
    "id": "822ec73d-f70e-43fc-94a6-b8075a6db7bd",
    "name": "San Luis",
    "state_id": "ea0682e0-b647-4e32-90a6-7c8424371529"
  },
  {
    "id": "4ba8c55f-01fc-44b9-bd81-45f9fc61b448",
    "name": "San Miguel",
    "state_id": "ea0682e0-b647-4e32-90a6-7c8424371529"
  },
  {
    "id": "0db16062-c970-4197-8def-b18661c6c741",
    "name": "Sanghan",
    "state_id": "ea0682e0-b647-4e32-90a6-7c8424371529"
  },
  {
    "id": "c92d9a64-036c-44a4-9d22-3f7c80a3f27e",
    "name": "Santa Ana",
    "state_id": "ea0682e0-b647-4e32-90a6-7c8424371529"
  },
  {
    "id": "c9a83c31-089a-42f8-abf4-e43e6bafe9eb",
    "name": "Santa Josefa",
    "state_id": "ea0682e0-b647-4e32-90a6-7c8424371529"
  },
  {
    "id": "f1a130f5-4b70-4bd1-9ee6-2854d9e28a87",
    "name": "Santa Maria",
    "state_id": "ea0682e0-b647-4e32-90a6-7c8424371529"
  },
  {
    "id": "03e94920-facb-45b5-bcf4-8bd9e6ee87d1",
    "name": "Santa Monica",
    "state_id": "ea0682e0-b647-4e32-90a6-7c8424371529"
  },
  {
    "id": "a7f7c16b-3240-4910-838f-17a8e5e5e250",
    "name": "Santo Tomas",
    "state_id": "ea0682e0-b647-4e32-90a6-7c8424371529"
  },
  {
    "id": "51c7113d-5c35-4ab5-9a08-e45523a9d73a",
    "name": "Sibagat",
    "state_id": "ea0682e0-b647-4e32-90a6-7c8424371529"
  },
  {
    "id": "c454f4b7-882b-4b4f-813a-cd3729a11f3f",
    "name": "Sinubong",
    "state_id": "ea0682e0-b647-4e32-90a6-7c8424371529"
  },
  {
    "id": "5019c864-72cf-4b01-b02d-dbc15af5aba2",
    "name": "Sison",
    "state_id": "ea0682e0-b647-4e32-90a6-7c8424371529"
  },
  {
    "id": "139083a9-cbb9-488c-a121-1b979ebc0724",
    "name": "Socorro",
    "state_id": "ea0682e0-b647-4e32-90a6-7c8424371529"
  },
  {
    "id": "a1b66017-eec3-4e4f-88a1-66bd09cbe4f3",
    "name": "Surigao",
    "state_id": "ea0682e0-b647-4e32-90a6-7c8424371529"
  },
  {
    "id": "bdbbe2e9-83ae-4be5-9913-e520834f041b",
    "name": "Tagana-an",
    "state_id": "ea0682e0-b647-4e32-90a6-7c8424371529"
  },
  {
    "id": "9700b8b0-8c2e-4322-833f-c5d429f4f2f8",
    "name": "Tagbina",
    "state_id": "ea0682e0-b647-4e32-90a6-7c8424371529"
  },
  {
    "id": "4c2a61b1-35f0-4075-8e4f-d8bb788c5e6d",
    "name": "Tagcatong",
    "state_id": "ea0682e0-b647-4e32-90a6-7c8424371529"
  },
  {
    "id": "a93c6a77-7cd1-40ca-b13d-57bb53f0e2ab",
    "name": "Tago",
    "state_id": "ea0682e0-b647-4e32-90a6-7c8424371529"
  },
  {
    "id": "2d49438b-9388-4b6c-bdf2-5dea1fe767ae",
    "name": "Talacogon",
    "state_id": "ea0682e0-b647-4e32-90a6-7c8424371529"
  },
  {
    "id": "521a52ac-56cc-4d2d-9d95-f11a09373fd7",
    "name": "Taligaman",
    "state_id": "ea0682e0-b647-4e32-90a6-7c8424371529"
  },
  {
    "id": "1704ec23-9124-480e-9e08-01fedcec78e7",
    "name": "Talisay",
    "state_id": "ea0682e0-b647-4e32-90a6-7c8424371529"
  },
  {
    "id": "d2f6d130-2dc3-4eab-b05e-244fa410fc64",
    "name": "Tandag",
    "state_id": "ea0682e0-b647-4e32-90a6-7c8424371529"
  },
  {
    "id": "f73716c1-124b-45f9-9e62-5f9504118af0",
    "name": "Tidman",
    "state_id": "ea0682e0-b647-4e32-90a6-7c8424371529"
  },
  {
    "id": "91b0e893-4059-46e9-8b73-f792fefd1cdd",
    "name": "Tigao",
    "state_id": "ea0682e0-b647-4e32-90a6-7c8424371529"
  },
  {
    "id": "1a61267c-e7d2-49f7-90d1-3ff14b6e2c94",
    "name": "Trento",
    "state_id": "ea0682e0-b647-4e32-90a6-7c8424371529"
  },
  {
    "id": "21e26d26-1197-47b2-bba6-672e362ce043",
    "name": "Tubajon",
    "state_id": "ea0682e0-b647-4e32-90a6-7c8424371529"
  },
  {
    "id": "c77fb240-5f8e-4c82-a622-703d3cddc337",
    "name": "Tubay",
    "state_id": "ea0682e0-b647-4e32-90a6-7c8424371529"
  },
  {
    "id": "31cb9096-1356-4079-b7f6-52bb47e864a7",
    "name": "Tubod",
    "state_id": "ea0682e0-b647-4e32-90a6-7c8424371529"
  },
  {
    "id": "2a393c4b-7878-4787-ba29-279956ee5157",
    "name": "Tungao",
    "state_id": "ea0682e0-b647-4e32-90a6-7c8424371529"
  },
  {
    "id": "60977fd4-ab11-46e5-9629-9be71f66e8b8",
    "name": "Unidad",
    "state_id": "ea0682e0-b647-4e32-90a6-7c8424371529"
  },
  {
    "id": "7334f356-0586-425d-9e90-683230e3c513",
    "name": "Union",
    "state_id": "ea0682e0-b647-4e32-90a6-7c8424371529"
  },
  {
    "id": "2e474fe9-1d86-4bea-844b-195bec5b8820",
    "name": "Veruela",
    "state_id": "ea0682e0-b647-4e32-90a6-7c8424371529"
  }
]