[
  {
    "id": "ef08312f-8c43-4b80-81f8-62f6bde56a0a",
    "name": "Ala",
    "state_id": "eae8070f-6092-4a11-8ed2-b511c4901456"
  },
  {
    "id": "fb276a51-85ea-460e-b705-e6d96793119c",
    "name": "Albiano",
    "state_id": "eae8070f-6092-4a11-8ed2-b511c4901456"
  },
  {
    "id": "c0e085ad-736d-4d6b-91d2-1d0a55e3e2ea",
    "name": "Aldeno",
    "state_id": "eae8070f-6092-4a11-8ed2-b511c4901456"
  },
  {
    "id": "dc780d1b-bf36-4b9a-8783-d112d6348589",
    "name": "Aldino",
    "state_id": "eae8070f-6092-4a11-8ed2-b511c4901456"
  },
  {
    "id": "d1e739a5-c3fb-458b-b5f7-613ad5e4dca9",
    "name": "Amblar",
    "state_id": "eae8070f-6092-4a11-8ed2-b511c4901456"
  },
  {
    "id": "6cb0f052-f85a-4be4-8566-78553273c8ac",
    "name": "Andalo",
    "state_id": "eae8070f-6092-4a11-8ed2-b511c4901456"
  },
  {
    "id": "0e77a8d8-a00d-46c7-b3db-69a2047a4bca",
    "name": "Andriano",
    "state_id": "eae8070f-6092-4a11-8ed2-b511c4901456"
  },
  {
    "id": "dc44f50c-8e06-4795-a992-f9abfac3d98c",
    "name": "Anterivo",
    "state_id": "eae8070f-6092-4a11-8ed2-b511c4901456"
  },
  {
    "id": "9513df7d-7a47-4805-95d8-61800190153f",
    "name": "Arco",
    "state_id": "eae8070f-6092-4a11-8ed2-b511c4901456"
  },
  {
    "id": "8fbab422-fd68-43d9-a99f-c55fba0a7ba2",
    "name": "Avelengo",
    "state_id": "eae8070f-6092-4a11-8ed2-b511c4901456"
  },
  {
    "id": "cad32014-fb47-4d3a-8c92-6df3519f7e66",
    "name": "Avio",
    "state_id": "eae8070f-6092-4a11-8ed2-b511c4901456"
  },
  {
    "id": "e54ebebc-b58a-4408-8776-1e9de9f16c79",
    "name": "Badia",
    "state_id": "eae8070f-6092-4a11-8ed2-b511c4901456"
  },
  {
    "id": "51145c98-af06-4f8b-bfcc-a6ca692b072d",
    "name": "Barbiano - Barbian",
    "state_id": "eae8070f-6092-4a11-8ed2-b511c4901456"
  },
  {
    "id": "35533dfe-1d21-4e55-a695-be4ac6208a89",
    "name": "Baselga di Pinè",
    "state_id": "eae8070f-6092-4a11-8ed2-b511c4901456"
  },
  {
    "id": "9f46d9f5-e027-4b6d-a18a-a8adae5acd30",
    "name": "Bersone",
    "state_id": "eae8070f-6092-4a11-8ed2-b511c4901456"
  },
  {
    "id": "70a7f1e7-fc61-45d9-8595-ab9944890250",
    "name": "Besenello",
    "state_id": "eae8070f-6092-4a11-8ed2-b511c4901456"
  },
  {
    "id": "137e2712-4c26-4f89-af18-1204239343f2",
    "name": "Bieno",
    "state_id": "eae8070f-6092-4a11-8ed2-b511c4901456"
  },
  {
    "id": "b38be7ba-80f4-4749-a739-2ec94f83734c",
    "name": "Bleggio Superiore",
    "state_id": "eae8070f-6092-4a11-8ed2-b511c4901456"
  },
  {
    "id": "cda2edc8-d8d9-4444-a25a-be9e733f57ab",
    "name": "Bocenago",
    "state_id": "eae8070f-6092-4a11-8ed2-b511c4901456"
  },
  {
    "id": "a5dae4f9-1800-41af-84a4-8448ba77f203",
    "name": "Bolbeno",
    "state_id": "eae8070f-6092-4a11-8ed2-b511c4901456"
  },
  {
    "id": "fb23152c-4065-4fe7-be16-d1aeca4f209f",
    "name": "Bolognano-Vignole",
    "state_id": "eae8070f-6092-4a11-8ed2-b511c4901456"
  },
  {
    "id": "8a59dfb5-aef6-4228-96d9-c71ce4b1ce25",
    "name": "Bolzano",
    "state_id": "eae8070f-6092-4a11-8ed2-b511c4901456"
  },
  {
    "id": "5f7986ca-e059-4898-8e34-fa84d9a2e2e3",
    "name": "Bondo",
    "state_id": "eae8070f-6092-4a11-8ed2-b511c4901456"
  },
  {
    "id": "41c3ef64-fd8a-4c52-bfd2-b78de7424bff",
    "name": "Bondone",
    "state_id": "eae8070f-6092-4a11-8ed2-b511c4901456"
  },
  {
    "id": "229ed852-a7d0-4256-8c04-22a305ca5195",
    "name": "Borgo Valsugana",
    "state_id": "eae8070f-6092-4a11-8ed2-b511c4901456"
  },
  {
    "id": "2ff4dd8c-6df5-4249-94b2-66b8f6cda232",
    "name": "Bosentino-Migazzone",
    "state_id": "eae8070f-6092-4a11-8ed2-b511c4901456"
  },
  {
    "id": "886fed0c-f2e8-4297-a2b4-618091839d10",
    "name": "Braies",
    "state_id": "eae8070f-6092-4a11-8ed2-b511c4901456"
  },
  {
    "id": "24e1fedc-2b47-405c-a650-9bf241bd4fdd",
    "name": "Breguzzo",
    "state_id": "eae8070f-6092-4a11-8ed2-b511c4901456"
  },
  {
    "id": "c6b21958-805e-41e8-89f9-9b58412d507d",
    "name": "Brennero - Brenner",
    "state_id": "eae8070f-6092-4a11-8ed2-b511c4901456"
  },
  {
    "id": "bd9dda50-9d30-4bad-be2b-18882092f401",
    "name": "Brentonico",
    "state_id": "eae8070f-6092-4a11-8ed2-b511c4901456"
  },
  {
    "id": "f218874c-6c61-402d-ab5c-5376940ad650",
    "name": "Bresimo",
    "state_id": "eae8070f-6092-4a11-8ed2-b511c4901456"
  },
  {
    "id": "1ce0364d-35d3-4c44-81a8-074e1b74246d",
    "name": "Bressanone",
    "state_id": "eae8070f-6092-4a11-8ed2-b511c4901456"
  },
  {
    "id": "8b31851b-42be-4693-9454-473911812271",
    "name": "Brez",
    "state_id": "eae8070f-6092-4a11-8ed2-b511c4901456"
  },
  {
    "id": "e4119b9e-68af-4140-962d-a92cbbac3004",
    "name": "Brione",
    "state_id": "eae8070f-6092-4a11-8ed2-b511c4901456"
  },
  {
    "id": "e83a320c-7792-4ebd-a7eb-c1a994fd39c7",
    "name": "Bronzolo",
    "state_id": "eae8070f-6092-4a11-8ed2-b511c4901456"
  },
  {
    "id": "5b1dedae-24e0-4f1d-bd98-6bbf1ee86c3b",
    "name": "Brunico",
    "state_id": "eae8070f-6092-4a11-8ed2-b511c4901456"
  },
  {
    "id": "7f01e704-708b-4e61-aed3-16dc1ffb835f",
    "name": "Caderzone Terme",
    "state_id": "eae8070f-6092-4a11-8ed2-b511c4901456"
  },
  {
    "id": "40759f37-890d-4b32-8090-db73c7f27eec",
    "name": "Cadine",
    "state_id": "eae8070f-6092-4a11-8ed2-b511c4901456"
  },
  {
    "id": "d80cadc6-c2b9-48ac-a23c-aa78136a8140",
    "name": "Cadipietra",
    "state_id": "eae8070f-6092-4a11-8ed2-b511c4901456"
  },
  {
    "id": "a73e8e33-43dd-4274-b478-c0e1a9c0d1a6",
    "name": "Cagnò",
    "state_id": "eae8070f-6092-4a11-8ed2-b511c4901456"
  },
  {
    "id": "6b32774d-0bd1-4e9e-a1fc-c7049888d18d",
    "name": "Caines",
    "state_id": "eae8070f-6092-4a11-8ed2-b511c4901456"
  },
  {
    "id": "38f7b554-4a9a-4aea-b219-4838eb831a6d",
    "name": "Caines - Kuens",
    "state_id": "eae8070f-6092-4a11-8ed2-b511c4901456"
  },
  {
    "id": "faaacaff-8360-430e-9477-03ca3bb89d0e",
    "name": "Calavino",
    "state_id": "eae8070f-6092-4a11-8ed2-b511c4901456"
  },
  {
    "id": "f43e6dbc-d802-42fb-acea-7c2ea5246ee0",
    "name": "Calceranica al Lago",
    "state_id": "eae8070f-6092-4a11-8ed2-b511c4901456"
  },
  {
    "id": "fdef5dd9-b830-4e59-93cf-5d3e66353077",
    "name": "Caldaro sulla Strada del Vino",
    "state_id": "eae8070f-6092-4a11-8ed2-b511c4901456"
  },
  {
    "id": "93211531-0b05-40ff-9b07-fa9228d61615",
    "name": "Caldes",
    "state_id": "eae8070f-6092-4a11-8ed2-b511c4901456"
  },
  {
    "id": "76d79f34-a12a-4845-b566-1b978f19b896",
    "name": "Caldonazzo",
    "state_id": "eae8070f-6092-4a11-8ed2-b511c4901456"
  },
  {
    "id": "d4c77f04-f33e-49bc-a14f-9b5ca7c2c23e",
    "name": "Calliano",
    "state_id": "eae8070f-6092-4a11-8ed2-b511c4901456"
  },
  {
    "id": "75c6b215-bfcb-4e27-aa57-ef7a5c7c57c6",
    "name": "Campitello di Fassa",
    "state_id": "eae8070f-6092-4a11-8ed2-b511c4901456"
  },
  {
    "id": "8643e863-3282-4a8d-8bcf-63f8a6e01346",
    "name": "Campo di Trens",
    "state_id": "eae8070f-6092-4a11-8ed2-b511c4901456"
  },
  {
    "id": "49aed897-a6a5-4322-9e75-dd760f638849",
    "name": "Campo Tures",
    "state_id": "eae8070f-6092-4a11-8ed2-b511c4901456"
  },
  {
    "id": "004d3c7e-2c4a-40ee-ad12-dacb867ac850",
    "name": "Campodenno",
    "state_id": "eae8070f-6092-4a11-8ed2-b511c4901456"
  },
  {
    "id": "5313b0b8-a627-4b5c-a607-35091ccc8c67",
    "name": "Canal San Bovo",
    "state_id": "eae8070f-6092-4a11-8ed2-b511c4901456"
  },
  {
    "id": "7bd2192b-b0c1-48a3-a0a0-2c2e6439966e",
    "name": "Canazei",
    "state_id": "eae8070f-6092-4a11-8ed2-b511c4901456"
  },
  {
    "id": "fc9be87f-ce48-45fd-932d-7ebd6f2ff945",
    "name": "Capriana",
    "state_id": "eae8070f-6092-4a11-8ed2-b511c4901456"
  },
  {
    "id": "76a55a1b-87f4-401c-8c2d-8a3d5f8e53d6",
    "name": "Carano",
    "state_id": "eae8070f-6092-4a11-8ed2-b511c4901456"
  },
  {
    "id": "1154dfe2-eb11-42d9-8638-cb0b637e5c2d",
    "name": "Cardano",
    "state_id": "eae8070f-6092-4a11-8ed2-b511c4901456"
  },
  {
    "id": "3e9fd9f7-e069-490d-8ea6-176f31c01fd3",
    "name": "Carisolo",
    "state_id": "eae8070f-6092-4a11-8ed2-b511c4901456"
  },
  {
    "id": "3585ed07-ddae-42b3-94e6-329131297089",
    "name": "Carzano",
    "state_id": "eae8070f-6092-4a11-8ed2-b511c4901456"
  },
  {
    "id": "38a31b77-6e10-49ae-9787-6b7347018aa9",
    "name": "Castel Condino",
    "state_id": "eae8070f-6092-4a11-8ed2-b511c4901456"
  },
  {
    "id": "3f206182-de7c-47ed-b7a1-3a8f3e20aa31",
    "name": "Castelbello",
    "state_id": "eae8070f-6092-4a11-8ed2-b511c4901456"
  },
  {
    "id": "177175a6-9a2a-4614-a0d9-93b8a46d12be",
    "name": "Castelbello-Ciardes - Kastelbell-Tschars",
    "state_id": "eae8070f-6092-4a11-8ed2-b511c4901456"
  },
  {
    "id": "d27570fc-ee78-48f8-a3c3-44c4ce87161a",
    "name": "Castelfondo",
    "state_id": "eae8070f-6092-4a11-8ed2-b511c4901456"
  },
  {
    "id": "da19941f-b772-499c-bc79-cff817f100ca",
    "name": "Castello Molina di Fiemme",
    "state_id": "eae8070f-6092-4a11-8ed2-b511c4901456"
  },
  {
    "id": "0fa7d6cf-d0ae-4efa-aa35-2dab33fc22b2",
    "name": "Castello Tesino",
    "state_id": "eae8070f-6092-4a11-8ed2-b511c4901456"
  },
  {
    "id": "e7391098-214c-43c0-8689-d275a17ee326",
    "name": "Castelnuovo",
    "state_id": "eae8070f-6092-4a11-8ed2-b511c4901456"
  },
  {
    "id": "3f408412-831e-48d6-abc0-927185555a9a",
    "name": "Castelrotto",
    "state_id": "eae8070f-6092-4a11-8ed2-b511c4901456"
  },
  {
    "id": "f434ecf8-b156-42fa-ba37-6b9583be94cf",
    "name": "Cavalese",
    "state_id": "eae8070f-6092-4a11-8ed2-b511c4901456"
  },
  {
    "id": "8e656be9-f81b-4424-8c3c-0d0d8cf2fde0",
    "name": "Cavareno",
    "state_id": "eae8070f-6092-4a11-8ed2-b511c4901456"
  },
  {
    "id": "d57e299c-b5bf-4f55-804c-1987cbda4415",
    "name": "Cavedago",
    "state_id": "eae8070f-6092-4a11-8ed2-b511c4901456"
  },
  {
    "id": "a269d39b-fe5a-4f85-a9df-017f10a92560",
    "name": "Cavedine",
    "state_id": "eae8070f-6092-4a11-8ed2-b511c4901456"
  },
  {
    "id": "74e6dde3-4dd6-4921-b087-4d840178c680",
    "name": "Cavizzana",
    "state_id": "eae8070f-6092-4a11-8ed2-b511c4901456"
  },
  {
    "id": "34a2dddc-608a-426b-81f8-9675f49695e3",
    "name": "Cembra",
    "state_id": "eae8070f-6092-4a11-8ed2-b511c4901456"
  },
  {
    "id": "c09cd618-cf0b-4f8f-93b3-4fce93105e3b",
    "name": "Centa San Nicolò",
    "state_id": "eae8070f-6092-4a11-8ed2-b511c4901456"
  },
  {
    "id": "c9428a76-c709-48fb-9b65-dbf95bd6e251",
    "name": "Centrale",
    "state_id": "eae8070f-6092-4a11-8ed2-b511c4901456"
  },
  {
    "id": "376f6fee-b736-4ba8-a142-e4d2e0259b70",
    "name": "Cermes",
    "state_id": "eae8070f-6092-4a11-8ed2-b511c4901456"
  },
  {
    "id": "d1b3044d-e9f2-40d7-8ad4-2404f7976fa4",
    "name": "Certosa",
    "state_id": "eae8070f-6092-4a11-8ed2-b511c4901456"
  },
  {
    "id": "0ac15356-bfa4-4322-9612-4db680b24e56",
    "name": "Chienes",
    "state_id": "eae8070f-6092-4a11-8ed2-b511c4901456"
  },
  {
    "id": "250775a3-057c-43a2-b9f9-8787de2969dd",
    "name": "Chiusa",
    "state_id": "eae8070f-6092-4a11-8ed2-b511c4901456"
  },
  {
    "id": "71461464-ff1f-43b1-94ab-e5eda9427799",
    "name": "Cimego",
    "state_id": "eae8070f-6092-4a11-8ed2-b511c4901456"
  },
  {
    "id": "ee5d3a7a-faab-4d52-9367-4ff245150fa1",
    "name": "Cimoneri",
    "state_id": "eae8070f-6092-4a11-8ed2-b511c4901456"
  },
  {
    "id": "d0ee9734-c06f-4e30-9800-056592fbb7df",
    "name": "Cinte Tesino",
    "state_id": "eae8070f-6092-4a11-8ed2-b511c4901456"
  },
  {
    "id": "a906f3f8-80e1-40b9-bcd8-fd33b41eba50",
    "name": "Cis",
    "state_id": "eae8070f-6092-4a11-8ed2-b511c4901456"
  },
  {
    "id": "9e526b10-3e22-4171-9cd2-edf129b02aea",
    "name": "Civezzano",
    "state_id": "eae8070f-6092-4a11-8ed2-b511c4901456"
  },
  {
    "id": "491965c4-eb08-4397-8782-002d10a0d3e0",
    "name": "Cles",
    "state_id": "eae8070f-6092-4a11-8ed2-b511c4901456"
  },
  {
    "id": "08ad48b6-a662-47e8-9348-b318defa575f",
    "name": "Cloz",
    "state_id": "eae8070f-6092-4a11-8ed2-b511c4901456"
  },
  {
    "id": "6a20a827-6f4d-4f6f-a1b7-9532b084db28",
    "name": "Cogolo",
    "state_id": "eae8070f-6092-4a11-8ed2-b511c4901456"
  },
  {
    "id": "467fb57b-2d40-47db-b3b5-200ad182262d",
    "name": "Collalbo",
    "state_id": "eae8070f-6092-4a11-8ed2-b511c4901456"
  },
  {
    "id": "2a089623-71b6-459a-accf-fd20c369caed",
    "name": "Colle Isarco",
    "state_id": "eae8070f-6092-4a11-8ed2-b511c4901456"
  },
  {
    "id": "fd9852ad-268a-4609-a196-c5f58800c0d1",
    "name": "Commezzadura",
    "state_id": "eae8070f-6092-4a11-8ed2-b511c4901456"
  },
  {
    "id": "8a678283-63c4-4c67-a12a-a312f41090dd",
    "name": "Condino",
    "state_id": "eae8070f-6092-4a11-8ed2-b511c4901456"
  },
  {
    "id": "63d101c4-b0cb-458b-9372-ee19e9aa7fcf",
    "name": "Coredo",
    "state_id": "eae8070f-6092-4a11-8ed2-b511c4901456"
  },
  {
    "id": "3afd8d25-5e63-4c0e-b96b-3d5fa45d6b54",
    "name": "Cornaiano",
    "state_id": "eae8070f-6092-4a11-8ed2-b511c4901456"
  },
  {
    "id": "e4e90c2e-cb2a-4f71-a350-58c68f03c078",
    "name": "Cornedo All'Isarco",
    "state_id": "eae8070f-6092-4a11-8ed2-b511c4901456"
  },
  {
    "id": "93a9f17c-171f-4146-9fb7-dd83ee056ff2",
    "name": "Cortaccia sulla Strada del Vino",
    "state_id": "eae8070f-6092-4a11-8ed2-b511c4901456"
  },
  {
    "id": "7b522102-3010-40aa-96a9-694e63b657bd",
    "name": "Cortina sulla Strada del Vino",
    "state_id": "eae8070f-6092-4a11-8ed2-b511c4901456"
  },
  {
    "id": "a89ce7cf-078f-4e52-b7e4-1cab2c506f51",
    "name": "Corvara in Badia",
    "state_id": "eae8070f-6092-4a11-8ed2-b511c4901456"
  },
  {
    "id": "33f96019-a7bb-4862-a4c9-798c065ce4c2",
    "name": "Covelo",
    "state_id": "eae8070f-6092-4a11-8ed2-b511c4901456"
  },
  {
    "id": "6cbf8849-c77f-49dd-8edb-fae3d5306978",
    "name": "Creto",
    "state_id": "eae8070f-6092-4a11-8ed2-b511c4901456"
  },
  {
    "id": "c3e43659-e464-4d72-8965-119356741dc7",
    "name": "Croviana",
    "state_id": "eae8070f-6092-4a11-8ed2-b511c4901456"
  },
  {
    "id": "805536d0-5123-49dc-ba1d-cf622c16b53f",
    "name": "Cunevo",
    "state_id": "eae8070f-6092-4a11-8ed2-b511c4901456"
  },
  {
    "id": "bfed3f2c-902a-4dd1-99cb-fe6bbb665113",
    "name": "Curon Venosta",
    "state_id": "eae8070f-6092-4a11-8ed2-b511c4901456"
  },
  {
    "id": "2cfacbcd-326f-4198-af47-eda50c888587",
    "name": "Daiano",
    "state_id": "eae8070f-6092-4a11-8ed2-b511c4901456"
  },
  {
    "id": "9de4f710-f81d-4ba2-befc-abd76470ad8c",
    "name": "Dambel",
    "state_id": "eae8070f-6092-4a11-8ed2-b511c4901456"
  },
  {
    "id": "87f1cea5-1fee-4e8f-8009-54acc592cad8",
    "name": "Daone",
    "state_id": "eae8070f-6092-4a11-8ed2-b511c4901456"
  },
  {
    "id": "1f9f36bb-539d-4e2c-97f1-0c7397fa3416",
    "name": "Denno",
    "state_id": "eae8070f-6092-4a11-8ed2-b511c4901456"
  },
  {
    "id": "32b02062-b533-46e6-8a5a-0b96123d2963",
    "name": "Dimaro",
    "state_id": "eae8070f-6092-4a11-8ed2-b511c4901456"
  },
  {
    "id": "093ba616-6828-443a-81a0-30d72da608f2",
    "name": "Dobbiaco",
    "state_id": "eae8070f-6092-4a11-8ed2-b511c4901456"
  },
  {
    "id": "724abf86-3176-44ed-8568-92f561f340b0",
    "name": "Don",
    "state_id": "eae8070f-6092-4a11-8ed2-b511c4901456"
  },
  {
    "id": "4fbf36eb-469f-4a60-ad38-9b9cc3919cf7",
    "name": "Dorsino",
    "state_id": "eae8070f-6092-4a11-8ed2-b511c4901456"
  },
  {
    "id": "86ae6a59-6d75-4108-8c66-e661ef0a4777",
    "name": "Drena",
    "state_id": "eae8070f-6092-4a11-8ed2-b511c4901456"
  },
  {
    "id": "6e164992-8e0e-434d-be8a-e57e11ab36ff",
    "name": "Dro",
    "state_id": "eae8070f-6092-4a11-8ed2-b511c4901456"
  },
  {
    "id": "5680b718-3609-41ab-96b9-56d77f2a558a",
    "name": "Egna",
    "state_id": "eae8070f-6092-4a11-8ed2-b511c4901456"
  },
  {
    "id": "1f99be9a-2db9-4e25-abf5-408c8ac0cba1",
    "name": "Faedo",
    "state_id": "eae8070f-6092-4a11-8ed2-b511c4901456"
  },
  {
    "id": "bb18207d-7b74-4f02-a508-9a959b8de867",
    "name": "Fai della Paganella",
    "state_id": "eae8070f-6092-4a11-8ed2-b511c4901456"
  },
  {
    "id": "b37b401d-3752-4cbb-af86-d3fd664df64d",
    "name": "Falzes",
    "state_id": "eae8070f-6092-4a11-8ed2-b511c4901456"
  },
  {
    "id": "6f7373b8-7050-43b5-aa4d-8a73affa7adf",
    "name": "Faver",
    "state_id": "eae8070f-6092-4a11-8ed2-b511c4901456"
  },
  {
    "id": "6a8035d2-0f39-4be3-88f4-a799382c6222",
    "name": "Fiavè",
    "state_id": "eae8070f-6092-4a11-8ed2-b511c4901456"
  },
  {
    "id": "1c2dab0c-de1c-48f8-904d-08413a279678",
    "name": "Fiè Allo Sciliar",
    "state_id": "eae8070f-6092-4a11-8ed2-b511c4901456"
  },
  {
    "id": "0fb3d49f-1fc8-4253-9557-0a3ba9f2ed33",
    "name": "Fiera di Primiero",
    "state_id": "eae8070f-6092-4a11-8ed2-b511c4901456"
  },
  {
    "id": "dbef59cb-695d-499d-b7a6-5688120b42f0",
    "name": "Fierozzo",
    "state_id": "eae8070f-6092-4a11-8ed2-b511c4901456"
  },
  {
    "id": "651bcde7-025e-4a71-8a4e-9163d0ad43f5",
    "name": "Flavon",
    "state_id": "eae8070f-6092-4a11-8ed2-b511c4901456"
  },
  {
    "id": "cce0ce25-9bbe-4309-99bd-6e93c2843917",
    "name": "Folgaria",
    "state_id": "eae8070f-6092-4a11-8ed2-b511c4901456"
  },
  {
    "id": "0cc8f66a-2513-4866-85ad-789cc869f970",
    "name": "Fondo",
    "state_id": "eae8070f-6092-4a11-8ed2-b511c4901456"
  },
  {
    "id": "3c914d20-92e4-45fd-bad1-e307569e6883",
    "name": "Fontana Nuova-Bevia",
    "state_id": "eae8070f-6092-4a11-8ed2-b511c4901456"
  },
  {
    "id": "8c7dfb0d-6f95-4e1c-a5de-2f2771e7eb13",
    "name": "Fornace",
    "state_id": "eae8070f-6092-4a11-8ed2-b511c4901456"
  },
  {
    "id": "094fa470-6fbb-4026-93bc-180ae072c22e",
    "name": "Fortezza",
    "state_id": "eae8070f-6092-4a11-8ed2-b511c4901456"
  },
  {
    "id": "00ea9c1c-57a6-4eb6-b140-67e2ff8d25ab",
    "name": "Frassilongo",
    "state_id": "eae8070f-6092-4a11-8ed2-b511c4901456"
  },
  {
    "id": "6e9a35ab-171a-4cae-b297-5e47275d8174",
    "name": "Fraviano",
    "state_id": "eae8070f-6092-4a11-8ed2-b511c4901456"
  },
  {
    "id": "79a284f1-022e-495d-98c5-992eb55a2ce9",
    "name": "Funes - Villnoess",
    "state_id": "eae8070f-6092-4a11-8ed2-b511c4901456"
  },
  {
    "id": "c8cca935-9a66-46b5-a3dd-cf03edaadad5",
    "name": "Gais",
    "state_id": "eae8070f-6092-4a11-8ed2-b511c4901456"
  },
  {
    "id": "4e2c8c54-7f47-4bb9-8903-328234904d95",
    "name": "Ganda",
    "state_id": "eae8070f-6092-4a11-8ed2-b511c4901456"
  },
  {
    "id": "a585d187-9135-47fa-aa6b-9ccf112b4a6f",
    "name": "Gargazzone",
    "state_id": "eae8070f-6092-4a11-8ed2-b511c4901456"
  },
  {
    "id": "2003aad7-e018-41c2-91d3-d282762f4eb7",
    "name": "Garniga Nuova",
    "state_id": "eae8070f-6092-4a11-8ed2-b511c4901456"
  },
  {
    "id": "975483b2-a282-4385-b6fc-36817160a2fa",
    "name": "Gionghi-Cappella",
    "state_id": "eae8070f-6092-4a11-8ed2-b511c4901456"
  },
  {
    "id": "2d8a000b-b62c-49a8-9635-8191c2843c78",
    "name": "Giovo",
    "state_id": "eae8070f-6092-4a11-8ed2-b511c4901456"
  },
  {
    "id": "5249a3da-df2b-40da-ac7f-2bcfc5213c52",
    "name": "Giustino",
    "state_id": "eae8070f-6092-4a11-8ed2-b511c4901456"
  },
  {
    "id": "87ba4976-7cc4-4907-ab6d-ca15b78c8abb",
    "name": "Glorenza",
    "state_id": "eae8070f-6092-4a11-8ed2-b511c4901456"
  },
  {
    "id": "c30f3ba6-f282-4274-8e19-3130c5b1cba0",
    "name": "Grauno",
    "state_id": "eae8070f-6092-4a11-8ed2-b511c4901456"
  },
  {
    "id": "6b82c775-6c49-4ec4-8162-e30c1aaa51d0",
    "name": "Grigno",
    "state_id": "eae8070f-6092-4a11-8ed2-b511c4901456"
  },
  {
    "id": "98087bd1-6fed-4805-a85b-6d9e5294a1c8",
    "name": "Grumes",
    "state_id": "eae8070f-6092-4a11-8ed2-b511c4901456"
  },
  {
    "id": "9e44332a-6be1-4dad-bd9b-0c4c18d0c5a1",
    "name": "Imer",
    "state_id": "eae8070f-6092-4a11-8ed2-b511c4901456"
  },
  {
    "id": "7df313eb-0cc0-4fdd-aca6-854436797d4c",
    "name": "Isera",
    "state_id": "eae8070f-6092-4a11-8ed2-b511c4901456"
  },
  {
    "id": "266175e1-1b2c-4b40-9c84-41658c71357a",
    "name": "La Valle - Wengen",
    "state_id": "eae8070f-6092-4a11-8ed2-b511c4901456"
  },
  {
    "id": "352d841b-e114-491d-897f-e4c94e1f3967",
    "name": "Laces",
    "state_id": "eae8070f-6092-4a11-8ed2-b511c4901456"
  },
  {
    "id": "395e7ba7-ca7b-4210-a847-b895181f5724",
    "name": "Laghetti",
    "state_id": "eae8070f-6092-4a11-8ed2-b511c4901456"
  },
  {
    "id": "ac48d6d7-55db-4d19-84f5-a873e070d849",
    "name": "Lagundo",
    "state_id": "eae8070f-6092-4a11-8ed2-b511c4901456"
  },
  {
    "id": "e77cd2e7-e97e-4952-b4b6-2b8bf1891c00",
    "name": "Laion",
    "state_id": "eae8070f-6092-4a11-8ed2-b511c4901456"
  },
  {
    "id": "ed179fdd-a229-4cf9-ba9c-1e20feb47da6",
    "name": "Laives",
    "state_id": "eae8070f-6092-4a11-8ed2-b511c4901456"
  },
  {
    "id": "c786c4a6-b508-4901-b5b2-3d2dbb772f52",
    "name": "Lana",
    "state_id": "eae8070f-6092-4a11-8ed2-b511c4901456"
  },
  {
    "id": "f2a15c0d-c076-46e6-8f8e-af5f3dde19e6",
    "name": "Lardaro",
    "state_id": "eae8070f-6092-4a11-8ed2-b511c4901456"
  },
  {
    "id": "0f682b01-26fe-4378-91c2-4dc604b6e7a3",
    "name": "Lasa",
    "state_id": "eae8070f-6092-4a11-8ed2-b511c4901456"
  },
  {
    "id": "a2d20a38-dad8-4a70-9282-bf01ee50a0d2",
    "name": "Lases",
    "state_id": "eae8070f-6092-4a11-8ed2-b511c4901456"
  },
  {
    "id": "ef7317c8-c21d-45bb-85dd-449a7b1c0bc1",
    "name": "Lasino",
    "state_id": "eae8070f-6092-4a11-8ed2-b511c4901456"
  },
  {
    "id": "cd358b43-9149-42d2-a584-a6b85651b3b0",
    "name": "Lauregno",
    "state_id": "eae8070f-6092-4a11-8ed2-b511c4901456"
  },
  {
    "id": "46ea4711-043c-4ec1-9e9c-858a88da9b96",
    "name": "Lavis",
    "state_id": "eae8070f-6092-4a11-8ed2-b511c4901456"
  },
  {
    "id": "869d70af-0e74-4f2e-a84d-15a049c391e2",
    "name": "Leone-Santa Elisabetta",
    "state_id": "eae8070f-6092-4a11-8ed2-b511c4901456"
  },
  {
    "id": "53816043-7071-47f6-b894-7b811e26c487",
    "name": "Levico Terme",
    "state_id": "eae8070f-6092-4a11-8ed2-b511c4901456"
  },
  {
    "id": "a4ad932d-b502-49cd-95bd-8020a94a9f81",
    "name": "Lisignago",
    "state_id": "eae8070f-6092-4a11-8ed2-b511c4901456"
  },
  {
    "id": "473ca21e-b37a-4410-819a-f4617e362aa9",
    "name": "Livo",
    "state_id": "eae8070f-6092-4a11-8ed2-b511c4901456"
  },
  {
    "id": "1306e2b3-1e72-4074-b6dc-15c03ddd3bf8",
    "name": "Lodrone-Darzo",
    "state_id": "eae8070f-6092-4a11-8ed2-b511c4901456"
  },
  {
    "id": "89c96093-45c1-451b-a10e-61abccf607fd",
    "name": "Lona-Lases",
    "state_id": "eae8070f-6092-4a11-8ed2-b511c4901456"
  },
  {
    "id": "1d1a0069-de45-48d6-b6d5-a0a4a8a4e6ae",
    "name": "Luserna",
    "state_id": "eae8070f-6092-4a11-8ed2-b511c4901456"
  },
  {
    "id": "e16761f1-6f30-4038-a378-05b14f1ceb9e",
    "name": "Luson - Luesen",
    "state_id": "eae8070f-6092-4a11-8ed2-b511c4901456"
  },
  {
    "id": "8f6e7bd1-b009-45d8-99b7-069b1af1b4b1",
    "name": "Madrano-Canzolino",
    "state_id": "eae8070f-6092-4a11-8ed2-b511c4901456"
  },
  {
    "id": "5cf280d9-50e2-4e14-8b46-fc90f6fd7932",
    "name": "Magrè sulla Strada del Vino",
    "state_id": "eae8070f-6092-4a11-8ed2-b511c4901456"
  },
  {
    "id": "d128733e-3ea4-46bf-a82e-1401e4d67c60",
    "name": "Malè",
    "state_id": "eae8070f-6092-4a11-8ed2-b511c4901456"
  },
  {
    "id": "3178fb17-6256-452d-9a79-cbc2654fc5d8",
    "name": "Malles Venosta",
    "state_id": "eae8070f-6092-4a11-8ed2-b511c4901456"
  },
  {
    "id": "6fdebb4d-e53e-4a65-9c90-3ddac1463eec",
    "name": "Malosco",
    "state_id": "eae8070f-6092-4a11-8ed2-b511c4901456"
  },
  {
    "id": "74bdf5c9-ff61-4589-b0d0-8d0455241dab",
    "name": "Marco",
    "state_id": "eae8070f-6092-4a11-8ed2-b511c4901456"
  },
  {
    "id": "d6c3d6f5-9aba-4325-86c3-26151a9ac360",
    "name": "Marlengo",
    "state_id": "eae8070f-6092-4a11-8ed2-b511c4901456"
  },
  {
    "id": "00aa072c-2339-4b51-8a9c-e122fc408d5f",
    "name": "Massimeno",
    "state_id": "eae8070f-6092-4a11-8ed2-b511c4901456"
  },
  {
    "id": "f826054f-cdd0-4330-9edb-1360a20f5c60",
    "name": "Mattarello",
    "state_id": "eae8070f-6092-4a11-8ed2-b511c4901456"
  },
  {
    "id": "4103412f-310c-4678-8487-5356848ad2a0",
    "name": "Mazzin",
    "state_id": "eae8070f-6092-4a11-8ed2-b511c4901456"
  },
  {
    "id": "c1591864-2828-4e35-b9e4-5e0dae2af02d",
    "name": "Meano",
    "state_id": "eae8070f-6092-4a11-8ed2-b511c4901456"
  },
  {
    "id": "8d651b1b-0d76-4a44-a973-4e2778e7ef3a",
    "name": "Meiern",
    "state_id": "eae8070f-6092-4a11-8ed2-b511c4901456"
  },
  {
    "id": "db28a745-0788-47a5-bd4c-586f7647a731",
    "name": "Meltina",
    "state_id": "eae8070f-6092-4a11-8ed2-b511c4901456"
  },
  {
    "id": "5a0a3dd1-bb4d-4fae-a4cb-2f573a056f47",
    "name": "Merano",
    "state_id": "eae8070f-6092-4a11-8ed2-b511c4901456"
  },
  {
    "id": "951260d9-9b54-41f5-8641-07cd0c7bb2d3",
    "name": "Mezzana",
    "state_id": "eae8070f-6092-4a11-8ed2-b511c4901456"
  },
  {
    "id": "63a2be22-8145-4845-8549-79ea04118851",
    "name": "Mezzano",
    "state_id": "eae8070f-6092-4a11-8ed2-b511c4901456"
  },
  {
    "id": "2a42ab08-23ca-45f9-a53b-1dc3788aaa42",
    "name": "Mezzocorona",
    "state_id": "eae8070f-6092-4a11-8ed2-b511c4901456"
  },
  {
    "id": "80daea3e-69bd-46d0-8270-7064937bf88a",
    "name": "Mezzolombardo",
    "state_id": "eae8070f-6092-4a11-8ed2-b511c4901456"
  },
  {
    "id": "a9175113-a4c1-4b9e-84c2-60150611a64b",
    "name": "Miola di Pinè",
    "state_id": "eae8070f-6092-4a11-8ed2-b511c4901456"
  },
  {
    "id": "268a4511-db47-4be6-abb6-6ba912e31266",
    "name": "Moena",
    "state_id": "eae8070f-6092-4a11-8ed2-b511c4901456"
  },
  {
    "id": "fddd8806-25f2-45a0-bd6c-1356e1c332ec",
    "name": "Molina di Ledro",
    "state_id": "eae8070f-6092-4a11-8ed2-b511c4901456"
  },
  {
    "id": "00398787-6457-4228-9e52-edd71fae8617",
    "name": "Molveno",
    "state_id": "eae8070f-6092-4a11-8ed2-b511c4901456"
  },
  {
    "id": "b2f7131a-166f-401f-9e6b-dd82da8bdd42",
    "name": "Monclassico",
    "state_id": "eae8070f-6092-4a11-8ed2-b511c4901456"
  },
  {
    "id": "7c5cac89-e9e0-4d38-aa0a-f4ddbfefc1db",
    "name": "Monguelfo",
    "state_id": "eae8070f-6092-4a11-8ed2-b511c4901456"
  },
  {
    "id": "83a3dc1f-c24d-444b-a8d1-8ae53c1ccbb8",
    "name": "Montagna",
    "state_id": "eae8070f-6092-4a11-8ed2-b511c4901456"
  },
  {
    "id": "90f1f12a-393b-49ac-b909-3afbd838abeb",
    "name": "Montagne",
    "state_id": "eae8070f-6092-4a11-8ed2-b511c4901456"
  },
  {
    "id": "e4011703-df0b-4f96-b89f-d32e6c35376a",
    "name": "Mori",
    "state_id": "eae8070f-6092-4a11-8ed2-b511c4901456"
  },
  {
    "id": "e6c6e003-c0d5-47e2-a3a2-e19bab15bd77",
    "name": "Moscheri",
    "state_id": "eae8070f-6092-4a11-8ed2-b511c4901456"
  },
  {
    "id": "89f61f25-d256-4946-9fa5-f8202b801a75",
    "name": "Moso in Passiria",
    "state_id": "eae8070f-6092-4a11-8ed2-b511c4901456"
  },
  {
    "id": "b7a114e9-835f-4b82-be86-4c94011c3bda",
    "name": "Mühlen in Taufers",
    "state_id": "eae8070f-6092-4a11-8ed2-b511c4901456"
  },
  {
    "id": "1f64cfcd-8412-4257-9086-dc3f2870c13b",
    "name": "Nago-Torbole",
    "state_id": "eae8070f-6092-4a11-8ed2-b511c4901456"
  },
  {
    "id": "43abed0b-8b82-4806-95ec-96dc3d35381d",
    "name": "Nalles",
    "state_id": "eae8070f-6092-4a11-8ed2-b511c4901456"
  },
  {
    "id": "ede886bc-e117-4498-b310-bcf47c398e01",
    "name": "Nanno",
    "state_id": "eae8070f-6092-4a11-8ed2-b511c4901456"
  },
  {
    "id": "fb51d0f9-ad2d-42c6-91bb-8671928e9b24",
    "name": "Naturno",
    "state_id": "eae8070f-6092-4a11-8ed2-b511c4901456"
  },
  {
    "id": "e5a11123-2bbf-44f0-9526-85424c2d6bbf",
    "name": "Nave San Rocco",
    "state_id": "eae8070f-6092-4a11-8ed2-b511c4901456"
  },
  {
    "id": "f730e2c8-3729-4602-b893-2847ce83f457",
    "name": "Naz-Sciaves - Natz-Schabs",
    "state_id": "eae8070f-6092-4a11-8ed2-b511c4901456"
  },
  {
    "id": "db0863d9-0bf6-4e57-a0b7-9131a17b5797",
    "name": "Nogaredo",
    "state_id": "eae8070f-6092-4a11-8ed2-b511c4901456"
  },
  {
    "id": "bc532537-bbf1-4d2e-ac2b-6e70d5c8ff9f",
    "name": "Nomi",
    "state_id": "eae8070f-6092-4a11-8ed2-b511c4901456"
  },
  {
    "id": "041978db-6ca4-48dd-a670-b576a8102e2d",
    "name": "Nova Levante",
    "state_id": "eae8070f-6092-4a11-8ed2-b511c4901456"
  },
  {
    "id": "f0695b40-9082-4491-962d-c2217cd2b87c",
    "name": "Nova Ponente",
    "state_id": "eae8070f-6092-4a11-8ed2-b511c4901456"
  },
  {
    "id": "fa7b7cb2-a265-47d0-a5df-da05f316bde2",
    "name": "Novaledo",
    "state_id": "eae8070f-6092-4a11-8ed2-b511c4901456"
  },
  {
    "id": "2cf9ab91-80b9-40a3-a90c-86accdadcfc4",
    "name": "Ora",
    "state_id": "eae8070f-6092-4a11-8ed2-b511c4901456"
  },
  {
    "id": "aaf7f885-a051-4b7e-90a7-ec1f87782069",
    "name": "Ortisei",
    "state_id": "eae8070f-6092-4a11-8ed2-b511c4901456"
  },
  {
    "id": "c7ddf1f5-5ea5-496c-b2c6-22be98aa7063",
    "name": "Ospedaletto",
    "state_id": "eae8070f-6092-4a11-8ed2-b511c4901456"
  },
  {
    "id": "3fbdabe3-469a-4baa-a6b4-ed2f2aaed813",
    "name": "Ossana",
    "state_id": "eae8070f-6092-4a11-8ed2-b511c4901456"
  },
  {
    "id": "55f838fd-c2f8-47ea-8996-70a022897c68",
    "name": "Padergnone",
    "state_id": "eae8070f-6092-4a11-8ed2-b511c4901456"
  },
  {
    "id": "4899aab5-0e1c-4b2b-8dc1-9adadaa6be76",
    "name": "Palù del Fersina",
    "state_id": "eae8070f-6092-4a11-8ed2-b511c4901456"
  },
  {
    "id": "0a6c3fd0-2674-48b9-ac13-c54c59b40307",
    "name": "Panchià",
    "state_id": "eae8070f-6092-4a11-8ed2-b511c4901456"
  },
  {
    "id": "94392877-5174-4797-8a08-0e6a3538dc39",
    "name": "Parcines",
    "state_id": "eae8070f-6092-4a11-8ed2-b511c4901456"
  },
  {
    "id": "26c6e764-c29e-4a75-aa2e-63654828ea09",
    "name": "Pellizzano",
    "state_id": "eae8070f-6092-4a11-8ed2-b511c4901456"
  },
  {
    "id": "40720ff5-88d7-4c1f-8310-b3641996de0b",
    "name": "Pelugo",
    "state_id": "eae8070f-6092-4a11-8ed2-b511c4901456"
  },
  {
    "id": "5f8f55b1-e54d-4ad3-bafd-67e0f724b304",
    "name": "Perca",
    "state_id": "eae8070f-6092-4a11-8ed2-b511c4901456"
  },
  {
    "id": "ded98b47-d866-43cb-b289-b2cf456120d9",
    "name": "Pergine Valsugana",
    "state_id": "eae8070f-6092-4a11-8ed2-b511c4901456"
  },
  {
    "id": "6e68dfd9-6e40-4fa5-a021-b0361ba5cea6",
    "name": "Piazza",
    "state_id": "eae8070f-6092-4a11-8ed2-b511c4901456"
  },
  {
    "id": "39f9bbf8-0d17-46b2-84dd-c3ba1e87c96c",
    "name": "Pietramurata",
    "state_id": "eae8070f-6092-4a11-8ed2-b511c4901456"
  },
  {
    "id": "e85bdf4f-62e6-4497-baeb-56c5dc4837f4",
    "name": "Pieve di Bono",
    "state_id": "eae8070f-6092-4a11-8ed2-b511c4901456"
  },
  {
    "id": "719c9633-0934-44ac-860b-3f830f511d0c",
    "name": "Pieve di Ledro",
    "state_id": "eae8070f-6092-4a11-8ed2-b511c4901456"
  },
  {
    "id": "0aa28b3b-337c-46bb-8c46-30ca53885eb4",
    "name": "Pieve Tesino",
    "state_id": "eae8070f-6092-4a11-8ed2-b511c4901456"
  },
  {
    "id": "20b0c49d-029b-4d3e-b6f5-def0cfb55d08",
    "name": "Pineta",
    "state_id": "eae8070f-6092-4a11-8ed2-b511c4901456"
  },
  {
    "id": "3b8f335a-d363-4d5e-ae71-3977c5bb280d",
    "name": "Pinzolo",
    "state_id": "eae8070f-6092-4a11-8ed2-b511c4901456"
  },
  {
    "id": "068a79ac-3938-48db-bf31-0e253395aade",
    "name": "Plaus",
    "state_id": "eae8070f-6092-4a11-8ed2-b511c4901456"
  },
  {
    "id": "5d13560a-7412-4e8e-acb0-1e22834d4cec",
    "name": "Pomarolo",
    "state_id": "eae8070f-6092-4a11-8ed2-b511c4901456"
  },
  {
    "id": "c12028af-8182-46a1-bb60-70bd386ed5bc",
    "name": "Ponte Arche",
    "state_id": "eae8070f-6092-4a11-8ed2-b511c4901456"
  },
  {
    "id": "87020c1d-967e-4c25-a0ff-16a7cea70ecd",
    "name": "Ponte Gardena",
    "state_id": "eae8070f-6092-4a11-8ed2-b511c4901456"
  },
  {
    "id": "ab8f9748-ae32-4501-83c6-f55bc174fc7e",
    "name": "Postal",
    "state_id": "eae8070f-6092-4a11-8ed2-b511c4901456"
  },
  {
    "id": "4ef1c632-64d5-486f-ac33-032c63f17c60",
    "name": "Povo",
    "state_id": "eae8070f-6092-4a11-8ed2-b511c4901456"
  },
  {
    "id": "bbd3dbda-8cd0-4e5a-804c-575a9d36a7ea",
    "name": "Pozza di Fassa",
    "state_id": "eae8070f-6092-4a11-8ed2-b511c4901456"
  },
  {
    "id": "b953aeea-6855-4320-9878-93324f1eec44",
    "name": "Praso",
    "state_id": "eae8070f-6092-4a11-8ed2-b511c4901456"
  },
  {
    "id": "ecf43ae5-7ee6-4275-a712-ac5447f470b4",
    "name": "Prati",
    "state_id": "eae8070f-6092-4a11-8ed2-b511c4901456"
  },
  {
    "id": "0e778b91-bd9f-4020-a4c7-9adacd6724dc",
    "name": "Prato Allo Stelvio",
    "state_id": "eae8070f-6092-4a11-8ed2-b511c4901456"
  },
  {
    "id": "8a038806-ee1d-4934-8594-e96db5b7cb2b",
    "name": "Predazzo",
    "state_id": "eae8070f-6092-4a11-8ed2-b511c4901456"
  },
  {
    "id": "9438fd07-82ad-4f0d-b9fa-d43d6be7eb38",
    "name": "Predoi",
    "state_id": "eae8070f-6092-4a11-8ed2-b511c4901456"
  },
  {
    "id": "9d527d9b-fe29-494f-8a76-efac5e0c6fdf",
    "name": "Preore",
    "state_id": "eae8070f-6092-4a11-8ed2-b511c4901456"
  },
  {
    "id": "58f8f820-45da-4ed7-9529-70b76e700a3b",
    "name": "Prezzo",
    "state_id": "eae8070f-6092-4a11-8ed2-b511c4901456"
  },
  {
    "id": "45cdf4e8-4d1c-4339-bd3d-a5326205af6f",
    "name": "Proves - Proveis",
    "state_id": "eae8070f-6092-4a11-8ed2-b511c4901456"
  },
  {
    "id": "3f0ac1af-9553-4f0d-a12a-ae395a28f862",
    "name": "Provincia autonoma di Trento",
    "state_id": "eae8070f-6092-4a11-8ed2-b511c4901456"
  },
  {
    "id": "d81ff0d5-0031-4c86-a921-0404823964e9",
    "name": "Rabbi Fonti",
    "state_id": "eae8070f-6092-4a11-8ed2-b511c4901456"
  },
  {
    "id": "4cbd8a04-af6d-4704-a948-b8878e4f5c68",
    "name": "Rablà",
    "state_id": "eae8070f-6092-4a11-8ed2-b511c4901456"
  },
  {
    "id": "131a4adf-dcb2-4c3e-972c-080972e4e388",
    "name": "Racines",
    "state_id": "eae8070f-6092-4a11-8ed2-b511c4901456"
  },
  {
    "id": "7de6c818-34e6-4a2a-bbeb-80fdbefad50d",
    "name": "Racines - Ratschings",
    "state_id": "eae8070f-6092-4a11-8ed2-b511c4901456"
  },
  {
    "id": "698b82cb-f8f9-459b-86a4-45a0184c0d86",
    "name": "Ragoli",
    "state_id": "eae8070f-6092-4a11-8ed2-b511c4901456"
  },
  {
    "id": "1f0f2264-61bf-4504-9ac7-caaa8a503ccd",
    "name": "Rasun Anterselva - Rasen-Antholz",
    "state_id": "eae8070f-6092-4a11-8ed2-b511c4901456"
  },
  {
    "id": "77ed5164-d0ae-4f72-8ef3-a8176baa53de",
    "name": "Ravina",
    "state_id": "eae8070f-6092-4a11-8ed2-b511c4901456"
  },
  {
    "id": "27550e9d-ba4d-4011-90e2-5dd50110ff82",
    "name": "Renon - Ritten",
    "state_id": "eae8070f-6092-4a11-8ed2-b511c4901456"
  },
  {
    "id": "490dfe1a-1aef-4368-b5f5-15808e19664e",
    "name": "Revò",
    "state_id": "eae8070f-6092-4a11-8ed2-b511c4901456"
  },
  {
    "id": "ecd1c31a-4f74-4da2-8d1e-be718119a8e4",
    "name": "Ried",
    "state_id": "eae8070f-6092-4a11-8ed2-b511c4901456"
  },
  {
    "id": "c79028e3-f058-44a5-b27c-481dbf5e48f7",
    "name": "Rifiano",
    "state_id": "eae8070f-6092-4a11-8ed2-b511c4901456"
  },
  {
    "id": "cea67b0b-1d3e-4c53-a0ba-a61886f9c85a",
    "name": "Rio di Pusteria",
    "state_id": "eae8070f-6092-4a11-8ed2-b511c4901456"
  },
  {
    "id": "4ca3db32-d951-4017-ae73-55a179357771",
    "name": "Riscone",
    "state_id": "eae8070f-6092-4a11-8ed2-b511c4901456"
  },
  {
    "id": "e0fa3a28-5c2a-4c9f-a2dd-aa2763ac18b0",
    "name": "Riva del Garda",
    "state_id": "eae8070f-6092-4a11-8ed2-b511c4901456"
  },
  {
    "id": "836e2eee-b96e-44a4-b9d6-214456e11af7",
    "name": "Rodengo",
    "state_id": "eae8070f-6092-4a11-8ed2-b511c4901456"
  },
  {
    "id": "8500eb9e-878f-4ba5-8b93-d83d43882a87",
    "name": "Rodengo - Rodeneck",
    "state_id": "eae8070f-6092-4a11-8ed2-b511c4901456"
  },
  {
    "id": "a6842db5-96c7-47f8-895f-d806efc8134a",
    "name": "Romagnano",
    "state_id": "eae8070f-6092-4a11-8ed2-b511c4901456"
  },
  {
    "id": "3ad4f305-ec48-47de-a05c-3d91a7956c4b",
    "name": "Romallo",
    "state_id": "eae8070f-6092-4a11-8ed2-b511c4901456"
  },
  {
    "id": "00e45ef9-60aa-478d-b6a3-d530798d2ac2",
    "name": "Romeno",
    "state_id": "eae8070f-6092-4a11-8ed2-b511c4901456"
  },
  {
    "id": "34368ab3-281b-4b20-9d60-7109267818c7",
    "name": "Roncegno",
    "state_id": "eae8070f-6092-4a11-8ed2-b511c4901456"
  },
  {
    "id": "e9c29d69-a0dd-4a31-8f71-e3cb162d4271",
    "name": "Ronchi Valsugana",
    "state_id": "eae8070f-6092-4a11-8ed2-b511c4901456"
  },
  {
    "id": "2c5e6fcc-c256-4fa3-9cd5-14d545841c76",
    "name": "Roncone",
    "state_id": "eae8070f-6092-4a11-8ed2-b511c4901456"
  },
  {
    "id": "310257a5-4403-47e6-98fd-f394b0646f88",
    "name": "Ronzo-Chienis",
    "state_id": "eae8070f-6092-4a11-8ed2-b511c4901456"
  },
  {
    "id": "d02fd081-e8a6-4613-b000-bfd6ccbb883c",
    "name": "Ronzone",
    "state_id": "eae8070f-6092-4a11-8ed2-b511c4901456"
  },
  {
    "id": "8e8071dd-d8a2-4438-a158-47b77129fb72",
    "name": "Roverè della Luna",
    "state_id": "eae8070f-6092-4a11-8ed2-b511c4901456"
  },
  {
    "id": "06245c79-4a79-4afe-ae04-82fbcc3380a5",
    "name": "Rovereto",
    "state_id": "eae8070f-6092-4a11-8ed2-b511c4901456"
  },
  {
    "id": "c0edae90-1b4f-43ee-bb22-59bd1bd9868d",
    "name": "Ruffrè",
    "state_id": "eae8070f-6092-4a11-8ed2-b511c4901456"
  },
  {
    "id": "0b276b52-04f4-4df8-adf6-4c35e1144b71",
    "name": "Rumo",
    "state_id": "eae8070f-6092-4a11-8ed2-b511c4901456"
  },
  {
    "id": "df6b075f-2bf6-4765-afcc-3ef9339c20f9",
    "name": "Sabbionara",
    "state_id": "eae8070f-6092-4a11-8ed2-b511c4901456"
  },
  {
    "id": "985fd804-9d00-4c72-8126-154d61c89c6e",
    "name": "Sagron Mis",
    "state_id": "eae8070f-6092-4a11-8ed2-b511c4901456"
  },
  {
    "id": "bb49490a-2ad0-4ee6-ad22-e7741d2bb2cc",
    "name": "Salorno",
    "state_id": "eae8070f-6092-4a11-8ed2-b511c4901456"
  },
  {
    "id": "6e95b9b5-8847-4f4c-97ce-229fb80c0204",
    "name": "Samone",
    "state_id": "eae8070f-6092-4a11-8ed2-b511c4901456"
  },
  {
    "id": "374576a7-9022-4f91-8899-29444c04eac8",
    "name": "San Bernardo",
    "state_id": "eae8070f-6092-4a11-8ed2-b511c4901456"
  },
  {
    "id": "052d08f3-e425-4676-b9b7-b592bd124a92",
    "name": "San Candido",
    "state_id": "eae8070f-6092-4a11-8ed2-b511c4901456"
  },
  {
    "id": "7533930c-8a70-422a-a36b-bf2dcb86fea9",
    "name": "San Felice",
    "state_id": "eae8070f-6092-4a11-8ed2-b511c4901456"
  },
  {
    "id": "01a9237f-6317-4e70-8f36-90a0a0eaabf1",
    "name": "San Genesio",
    "state_id": "eae8070f-6092-4a11-8ed2-b511c4901456"
  },
  {
    "id": "33e033e4-927c-4657-910d-fc6bfea05902",
    "name": "San Genesio Atesino",
    "state_id": "eae8070f-6092-4a11-8ed2-b511c4901456"
  },
  {
    "id": "76ee6d60-60c2-4c75-8f02-1290f107da90",
    "name": "San Giacomo",
    "state_id": "eae8070f-6092-4a11-8ed2-b511c4901456"
  },
  {
    "id": "e180c16f-013f-484a-88f0-cc4b53b98805",
    "name": "San Leonardo in Passiria",
    "state_id": "eae8070f-6092-4a11-8ed2-b511c4901456"
  },
  {
    "id": "8b73fd8a-c046-42b6-b7f3-4b6838fb848c",
    "name": "San Lorenzo di Sebato",
    "state_id": "eae8070f-6092-4a11-8ed2-b511c4901456"
  },
  {
    "id": "75606617-f5ee-45e0-9602-bcfa90c0f93d",
    "name": "San Lorenzo in Banale",
    "state_id": "eae8070f-6092-4a11-8ed2-b511c4901456"
  },
  {
    "id": "18516fee-8111-483f-b493-ecf12e192cdc",
    "name": "San Martino",
    "state_id": "eae8070f-6092-4a11-8ed2-b511c4901456"
  },
  {
    "id": "b60cf154-96d7-4252-adde-b85abcfca48c",
    "name": "San Martino in Badia",
    "state_id": "eae8070f-6092-4a11-8ed2-b511c4901456"
  },
  {
    "id": "d9691948-b94b-4902-ad4e-c703bdfa7ebf",
    "name": "San Martino in Passiria",
    "state_id": "eae8070f-6092-4a11-8ed2-b511c4901456"
  },
  {
    "id": "c2379d8a-8d4a-4a2f-a340-8a6c5fe9bfc2",
    "name": "San Michele",
    "state_id": "eae8070f-6092-4a11-8ed2-b511c4901456"
  },
  {
    "id": "8a42a369-57d8-46a1-b9e1-71690bacf5ae",
    "name": "San Michele All'Adige",
    "state_id": "eae8070f-6092-4a11-8ed2-b511c4901456"
  },
  {
    "id": "b294598b-baee-4e48-bbdb-95d6a65698a8",
    "name": "San Pancrazio",
    "state_id": "eae8070f-6092-4a11-8ed2-b511c4901456"
  },
  {
    "id": "a614acb3-32c9-40ad-8221-8fbb79170c54",
    "name": "San Paolo",
    "state_id": "eae8070f-6092-4a11-8ed2-b511c4901456"
  },
  {
    "id": "a73abbe2-688d-4373-a7f9-6e614f6e3631",
    "name": "San Pietro",
    "state_id": "eae8070f-6092-4a11-8ed2-b511c4901456"
  },
  {
    "id": "c4b743ad-a1b0-4ba2-a1ed-b6433a8408f8",
    "name": "San Vigilio",
    "state_id": "eae8070f-6092-4a11-8ed2-b511c4901456"
  },
  {
    "id": "19db68ed-d1b5-4137-a9fa-e1103572afaf",
    "name": "Sant'Orsola",
    "state_id": "eae8070f-6092-4a11-8ed2-b511c4901456"
  },
  {
    "id": "28a8ca82-b1f2-4765-9b5b-d12a28dfcbf3",
    "name": "Sant'Orsola Terme",
    "state_id": "eae8070f-6092-4a11-8ed2-b511c4901456"
  },
  {
    "id": "73b45c4d-c70e-4a16-8879-0b1f71f4cee8",
    "name": "Santa Cristina Valgardena",
    "state_id": "eae8070f-6092-4a11-8ed2-b511c4901456"
  },
  {
    "id": "1c6da064-f612-4db2-8e5a-3c565910d9d9",
    "name": "Santa Valburga",
    "state_id": "eae8070f-6092-4a11-8ed2-b511c4901456"
  },
  {
    "id": "8af57743-0def-405f-9231-7636a9065fb0",
    "name": "Sanzeno",
    "state_id": "eae8070f-6092-4a11-8ed2-b511c4901456"
  },
  {
    "id": "1e90cec3-7d8c-446f-b52c-e3ec29c0043b",
    "name": "Sarentino",
    "state_id": "eae8070f-6092-4a11-8ed2-b511c4901456"
  },
  {
    "id": "d94d044c-fad3-46f9-b9ea-42baf595d4be",
    "name": "Sarnonico",
    "state_id": "eae8070f-6092-4a11-8ed2-b511c4901456"
  },
  {
    "id": "0f39875d-d56d-40fc-aea6-2d5414db5180",
    "name": "Scena",
    "state_id": "eae8070f-6092-4a11-8ed2-b511c4901456"
  },
  {
    "id": "a9fe61b3-3ce4-4cdb-90fd-4ca9ed22cd18",
    "name": "Scena - Schenna",
    "state_id": "eae8070f-6092-4a11-8ed2-b511c4901456"
  },
  {
    "id": "003bd1f3-f7bb-475e-998a-4e4d48e4ecf7",
    "name": "Sciaves",
    "state_id": "eae8070f-6092-4a11-8ed2-b511c4901456"
  },
  {
    "id": "00c8c097-7cef-43fa-8c39-3648aaf06c7e",
    "name": "Scurelle",
    "state_id": "eae8070f-6092-4a11-8ed2-b511c4901456"
  },
  {
    "id": "6d7fa088-299e-4ca4-81a8-f96492e68d5f",
    "name": "Segonzano",
    "state_id": "eae8070f-6092-4a11-8ed2-b511c4901456"
  },
  {
    "id": "8a9df392-640f-423b-9146-cecb50684b36",
    "name": "Selva",
    "state_id": "eae8070f-6092-4a11-8ed2-b511c4901456"
  },
  {
    "id": "aa30266f-5a2e-4ee7-b28c-8018198be40c",
    "name": "Selva dei Molini",
    "state_id": "eae8070f-6092-4a11-8ed2-b511c4901456"
  },
  {
    "id": "b2b817f1-09eb-4c87-b48d-ab32a55b80f7",
    "name": "Senale",
    "state_id": "eae8070f-6092-4a11-8ed2-b511c4901456"
  },
  {
    "id": "71beadb3-3551-4a53-8139-e4bbdc009f9a",
    "name": "Senales",
    "state_id": "eae8070f-6092-4a11-8ed2-b511c4901456"
  },
  {
    "id": "cade4999-b8a0-473d-ae06-0ec2bf76bb18",
    "name": "Sesto",
    "state_id": "eae8070f-6092-4a11-8ed2-b511c4901456"
  },
  {
    "id": "fb746684-1ae3-45ea-933c-7b39aaecd4f6",
    "name": "Sfruz",
    "state_id": "eae8070f-6092-4a11-8ed2-b511c4901456"
  },
  {
    "id": "497cd3b5-31c2-48ff-a753-d98c13351006",
    "name": "Silandro",
    "state_id": "eae8070f-6092-4a11-8ed2-b511c4901456"
  },
  {
    "id": "6a568161-376c-4477-bc52-9f9aba532f04",
    "name": "Sinigo",
    "state_id": "eae8070f-6092-4a11-8ed2-b511c4901456"
  },
  {
    "id": "63a2a322-38bb-4efd-859e-fe4f04e534bb",
    "name": "Siror",
    "state_id": "eae8070f-6092-4a11-8ed2-b511c4901456"
  },
  {
    "id": "6427f7cb-83c2-4bbc-aef5-7931134c9e5d",
    "name": "Siusi",
    "state_id": "eae8070f-6092-4a11-8ed2-b511c4901456"
  },
  {
    "id": "fff6b69f-e593-4d03-941b-c1b06609e527",
    "name": "Sluderno",
    "state_id": "eae8070f-6092-4a11-8ed2-b511c4901456"
  },
  {
    "id": "3b0b1a2e-2500-43a5-909f-c78afdecf713",
    "name": "Smarano",
    "state_id": "eae8070f-6092-4a11-8ed2-b511c4901456"
  },
  {
    "id": "6a6a36db-f4d5-4208-9532-5090e9c24d53",
    "name": "Soprabolzano",
    "state_id": "eae8070f-6092-4a11-8ed2-b511c4901456"
  },
  {
    "id": "c33b3895-3bd7-42e7-ae12-057775326ff3",
    "name": "Soraga",
    "state_id": "eae8070f-6092-4a11-8ed2-b511c4901456"
  },
  {
    "id": "d1ec4ec9-5991-43e3-9d8c-4146c9772293",
    "name": "Sover",
    "state_id": "eae8070f-6092-4a11-8ed2-b511c4901456"
  },
  {
    "id": "4edcea50-3b24-4954-aa00-535d67d794a3",
    "name": "Spera",
    "state_id": "eae8070f-6092-4a11-8ed2-b511c4901456"
  },
  {
    "id": "0c08effe-5b9f-41cf-88ff-ccfd0d1daf55",
    "name": "Spiazzo",
    "state_id": "eae8070f-6092-4a11-8ed2-b511c4901456"
  },
  {
    "id": "36c53e1d-266f-47d7-813c-6504f10947de",
    "name": "Spormaggiore",
    "state_id": "eae8070f-6092-4a11-8ed2-b511c4901456"
  },
  {
    "id": "6fc69e7b-9f2e-4c79-9e50-56469ff3c6d7",
    "name": "Sporminore",
    "state_id": "eae8070f-6092-4a11-8ed2-b511c4901456"
  },
  {
    "id": "2674be79-b590-451c-9853-491647d13bd5",
    "name": "Stanghe",
    "state_id": "eae8070f-6092-4a11-8ed2-b511c4901456"
  },
  {
    "id": "4e7cfa0a-4b0b-4bdd-8f61-e5b7e52ab5be",
    "name": "Stelvio",
    "state_id": "eae8070f-6092-4a11-8ed2-b511c4901456"
  },
  {
    "id": "a5770c3d-883f-46ef-917d-04004b60efec",
    "name": "Stenico",
    "state_id": "eae8070f-6092-4a11-8ed2-b511c4901456"
  },
  {
    "id": "342770a5-6c7e-44b5-92fa-2dc48f4dccd4",
    "name": "Storo",
    "state_id": "eae8070f-6092-4a11-8ed2-b511c4901456"
  },
  {
    "id": "992a0c8f-6a6e-4b98-946e-6615629c1e76",
    "name": "Strembo",
    "state_id": "eae8070f-6092-4a11-8ed2-b511c4901456"
  },
  {
    "id": "4ed352db-faeb-46b1-92ab-9dcd05c79039",
    "name": "Strigno",
    "state_id": "eae8070f-6092-4a11-8ed2-b511c4901456"
  },
  {
    "id": "4618e77b-6212-4011-9097-b1cb776eb39b",
    "name": "Taio",
    "state_id": "eae8070f-6092-4a11-8ed2-b511c4901456"
  },
  {
    "id": "f93ff253-5b7f-4d2b-8290-10915e5ad88d",
    "name": "Tassullo",
    "state_id": "eae8070f-6092-4a11-8ed2-b511c4901456"
  },
  {
    "id": "203e0d14-d05b-4d34-8930-6a10fecfc029",
    "name": "Telve",
    "state_id": "eae8070f-6092-4a11-8ed2-b511c4901456"
  },
  {
    "id": "24e60186-f46a-47a6-b9ee-e23a1fdb7c97",
    "name": "Telve di Sopra",
    "state_id": "eae8070f-6092-4a11-8ed2-b511c4901456"
  },
  {
    "id": "ffe98fe4-cbbf-49d9-8fb8-57ebd0cb4182",
    "name": "Tenna",
    "state_id": "eae8070f-6092-4a11-8ed2-b511c4901456"
  },
  {
    "id": "db988064-6aa5-4d98-b724-3b0671b4cb46",
    "name": "Tenno",
    "state_id": "eae8070f-6092-4a11-8ed2-b511c4901456"
  },
  {
    "id": "22012ac7-f078-4a71-adf6-9cca19338c3e",
    "name": "Terento",
    "state_id": "eae8070f-6092-4a11-8ed2-b511c4901456"
  },
  {
    "id": "4264d33d-3b8d-48ac-8067-750b198a7448",
    "name": "Terlago",
    "state_id": "eae8070f-6092-4a11-8ed2-b511c4901456"
  },
  {
    "id": "f3b70a15-16e0-48d6-9410-5648206f6938",
    "name": "Terlano",
    "state_id": "eae8070f-6092-4a11-8ed2-b511c4901456"
  },
  {
    "id": "5565ba44-ed47-4204-a57f-b86812c2d963",
    "name": "Termeno",
    "state_id": "eae8070f-6092-4a11-8ed2-b511c4901456"
  },
  {
    "id": "f66ecec3-7dfd-43dd-a69e-604cd048c92d",
    "name": "Terragnolo",
    "state_id": "eae8070f-6092-4a11-8ed2-b511c4901456"
  },
  {
    "id": "96ab1b1d-83e1-4af7-a53a-bff2157e1f11",
    "name": "Terres",
    "state_id": "eae8070f-6092-4a11-8ed2-b511c4901456"
  },
  {
    "id": "434fd49f-51f4-4202-9488-89348acdd648",
    "name": "Terzolas",
    "state_id": "eae8070f-6092-4a11-8ed2-b511c4901456"
  },
  {
    "id": "30b6aa26-0800-411c-94f0-fd432cc3b1bb",
    "name": "Tesero",
    "state_id": "eae8070f-6092-4a11-8ed2-b511c4901456"
  },
  {
    "id": "c2c904c1-8478-4354-8f00-fc74a90888db",
    "name": "Tesimo",
    "state_id": "eae8070f-6092-4a11-8ed2-b511c4901456"
  },
  {
    "id": "91b29ad0-a772-417d-bf93-d0ba79afadf0",
    "name": "Tione di Trento",
    "state_id": "eae8070f-6092-4a11-8ed2-b511c4901456"
  },
  {
    "id": "0f59a03c-f5bb-400d-9ca1-001315116d67",
    "name": "Tires",
    "state_id": "eae8070f-6092-4a11-8ed2-b511c4901456"
  },
  {
    "id": "32c37c86-efb0-4de6-9cb7-27d80a56acc4",
    "name": "Tirolo",
    "state_id": "eae8070f-6092-4a11-8ed2-b511c4901456"
  },
  {
    "id": "1d0243d5-16dc-49a7-92e1-7ab9fade3b3e",
    "name": "Tonadico",
    "state_id": "eae8070f-6092-4a11-8ed2-b511c4901456"
  },
  {
    "id": "22568007-6e19-47f7-9d26-45d4f5172252",
    "name": "Torcegno",
    "state_id": "eae8070f-6092-4a11-8ed2-b511c4901456"
  },
  {
    "id": "bcd2400c-788f-4f07-b114-3463403a35c7",
    "name": "Trambileno",
    "state_id": "eae8070f-6092-4a11-8ed2-b511c4901456"
  },
  {
    "id": "fda29ef5-1c79-4764-bd3c-a16b1d2acf7d",
    "name": "Transacqua",
    "state_id": "eae8070f-6092-4a11-8ed2-b511c4901456"
  },
  {
    "id": "0a05d75b-bbd5-48da-b952-3475f1ebcbe0",
    "name": "Trento",
    "state_id": "eae8070f-6092-4a11-8ed2-b511c4901456"
  },
  {
    "id": "42c0623f-ad24-4728-bf82-1d2d032a1da5",
    "name": "Tres",
    "state_id": "eae8070f-6092-4a11-8ed2-b511c4901456"
  },
  {
    "id": "0e3494db-7553-4163-9525-9b3892b23d56",
    "name": "Trodena",
    "state_id": "eae8070f-6092-4a11-8ed2-b511c4901456"
  },
  {
    "id": "00d86447-8e4b-4fa8-b816-0d55481ef5cd",
    "name": "Tubre",
    "state_id": "eae8070f-6092-4a11-8ed2-b511c4901456"
  },
  {
    "id": "2c9e4704-4201-47eb-ab8e-85c186d6c670",
    "name": "Tuenno",
    "state_id": "eae8070f-6092-4a11-8ed2-b511c4901456"
  },
  {
    "id": "3be557bf-9e96-4d85-9d1c-33b65deeecc5",
    "name": "Ultimo - Ulten",
    "state_id": "eae8070f-6092-4a11-8ed2-b511c4901456"
  },
  {
    "id": "dc4b307f-55fb-4087-9b0e-d2e67e7669bb",
    "name": "Vadena",
    "state_id": "eae8070f-6092-4a11-8ed2-b511c4901456"
  },
  {
    "id": "f78b067a-da63-46cd-b6bb-52961c717f72",
    "name": "Valda",
    "state_id": "eae8070f-6092-4a11-8ed2-b511c4901456"
  },
  {
    "id": "136ba971-9518-4b5d-93f8-498436be8ef4",
    "name": "Valdaora di Mezzo",
    "state_id": "eae8070f-6092-4a11-8ed2-b511c4901456"
  },
  {
    "id": "8b54c36c-8ebb-4db4-93de-e0b187b679d7",
    "name": "Valfloriana",
    "state_id": "eae8070f-6092-4a11-8ed2-b511c4901456"
  },
  {
    "id": "6c8e608e-a2cf-4172-ab44-53e109a5a476",
    "name": "Vallarsa",
    "state_id": "eae8070f-6092-4a11-8ed2-b511c4901456"
  },
  {
    "id": "2d1923cb-771b-4266-8f22-39a0e2f32c0c",
    "name": "Valle Aurina - Ahrntal",
    "state_id": "eae8070f-6092-4a11-8ed2-b511c4901456"
  },
  {
    "id": "53bf1c06-271f-4f19-9159-5c471eee0845",
    "name": "Valle di Casies - Gsies",
    "state_id": "eae8070f-6092-4a11-8ed2-b511c4901456"
  },
  {
    "id": "66a4e2f0-9002-4133-b1dc-19a890676a51",
    "name": "Vandoies - Vintl",
    "state_id": "eae8070f-6092-4a11-8ed2-b511c4901456"
  },
  {
    "id": "8307eb92-914d-4c1f-a7ef-93805b7026f9",
    "name": "Vandoies di Sotto",
    "state_id": "eae8070f-6092-4a11-8ed2-b511c4901456"
  },
  {
    "id": "7c3e09d5-4ed2-4cac-9e9e-23750c855af4",
    "name": "Varena",
    "state_id": "eae8070f-6092-4a11-8ed2-b511c4901456"
  },
  {
    "id": "c2b592d1-f47f-4451-b060-23fab01fef7b",
    "name": "Varna",
    "state_id": "eae8070f-6092-4a11-8ed2-b511c4901456"
  },
  {
    "id": "c451d314-b47d-4aa1-a1ed-ab3435debc43",
    "name": "Vattaro",
    "state_id": "eae8070f-6092-4a11-8ed2-b511c4901456"
  },
  {
    "id": "a6a0dc05-ffb7-4171-8100-0ae5e6956a30",
    "name": "Velturno",
    "state_id": "eae8070f-6092-4a11-8ed2-b511c4901456"
  },
  {
    "id": "03b59d4e-7089-461c-8aea-603a6e18bd19",
    "name": "Verano",
    "state_id": "eae8070f-6092-4a11-8ed2-b511c4901456"
  },
  {
    "id": "f3fa9764-1eb2-4313-bbcb-687a9fd60d8c",
    "name": "Verano - Voeran",
    "state_id": "eae8070f-6092-4a11-8ed2-b511c4901456"
  },
  {
    "id": "a25a9583-0468-4e3c-8bf9-c999caf73a83",
    "name": "Verla",
    "state_id": "eae8070f-6092-4a11-8ed2-b511c4901456"
  },
  {
    "id": "caeb61f1-4cf9-4e8f-b5ce-1c0b714a42fd",
    "name": "Vermiglio",
    "state_id": "eae8070f-6092-4a11-8ed2-b511c4901456"
  },
  {
    "id": "39281116-b8f4-4527-954f-7b8e4b5f0e7d",
    "name": "Vervò",
    "state_id": "eae8070f-6092-4a11-8ed2-b511c4901456"
  },
  {
    "id": "55ed512c-fe46-4453-a475-410ba097dff5",
    "name": "Vezzano",
    "state_id": "eae8070f-6092-4a11-8ed2-b511c4901456"
  },
  {
    "id": "58664622-30b7-4924-80bf-634b2181b5ff",
    "name": "Vignola",
    "state_id": "eae8070f-6092-4a11-8ed2-b511c4901456"
  },
  {
    "id": "54570bc3-ef3f-48d7-bbe4-a273cc7143b4",
    "name": "Vigo di Fassa",
    "state_id": "eae8070f-6092-4a11-8ed2-b511c4901456"
  },
  {
    "id": "c91bc7a4-d15f-4de5-a98e-61b449c5de07",
    "name": "Vigo di Ton",
    "state_id": "eae8070f-6092-4a11-8ed2-b511c4901456"
  },
  {
    "id": "3100b439-fa16-4245-9438-b62dee750e89",
    "name": "Vigolo Vattaro",
    "state_id": "eae8070f-6092-4a11-8ed2-b511c4901456"
  },
  {
    "id": "1826cea9-2fc6-4bf6-92c2-0ae59bcd14ea",
    "name": "Villa",
    "state_id": "eae8070f-6092-4a11-8ed2-b511c4901456"
  },
  {
    "id": "01ef1416-57fa-4960-9b63-5b035c31e8d4",
    "name": "Villa Lagarina",
    "state_id": "eae8070f-6092-4a11-8ed2-b511c4901456"
  },
  {
    "id": "56524f07-1e14-4924-876f-0a1c275e44e0",
    "name": "Villa Rendena",
    "state_id": "eae8070f-6092-4a11-8ed2-b511c4901456"
  },
  {
    "id": "bb71e318-1071-40a1-a28d-243ea3ef889b",
    "name": "Villa-Agnedo",
    "state_id": "eae8070f-6092-4a11-8ed2-b511c4901456"
  },
  {
    "id": "a31888e6-3d04-4670-8f0a-c137470f0e36",
    "name": "Villabassa",
    "state_id": "eae8070f-6092-4a11-8ed2-b511c4901456"
  },
  {
    "id": "f3f6386d-7a23-4731-9675-9b7795d6edc2",
    "name": "Villandro",
    "state_id": "eae8070f-6092-4a11-8ed2-b511c4901456"
  },
  {
    "id": "d4e0fbcd-de25-4432-8bdd-6fdb644c0475",
    "name": "Villandro - Villanders",
    "state_id": "eae8070f-6092-4a11-8ed2-b511c4901456"
  },
  {
    "id": "1b1d612e-cb04-4d04-b3cd-eecdf4e0f4fb",
    "name": "Vipiteno",
    "state_id": "eae8070f-6092-4a11-8ed2-b511c4901456"
  },
  {
    "id": "5bdbf44d-ab71-4a5b-9cae-221f355384bd",
    "name": "Volano",
    "state_id": "eae8070f-6092-4a11-8ed2-b511c4901456"
  },
  {
    "id": "3707fcd5-7704-4a28-99f4-83537632f1bb",
    "name": "Zambana",
    "state_id": "eae8070f-6092-4a11-8ed2-b511c4901456"
  },
  {
    "id": "76b72957-65b7-4053-8a8b-704207ce77fd",
    "name": "Ziano di Fiemme",
    "state_id": "eae8070f-6092-4a11-8ed2-b511c4901456"
  },
  {
    "id": "dafe6108-d60d-4d4f-bbfd-1e167cd864aa",
    "name": "Zuclo",
    "state_id": "eae8070f-6092-4a11-8ed2-b511c4901456"
  }
]