[
  {
    "id": "0ee77aed-72cb-4a90-92cd-ca30d6454575",
    "name": "Boysun",
    "state_id": "eb7600f6-84ca-4ce7-9314-5791695bc1df"
  },
  {
    "id": "b8d1b16b-0b57-4251-ab35-d6ade3db9177",
    "name": "Denov",
    "state_id": "eb7600f6-84ca-4ce7-9314-5791695bc1df"
  },
  {
    "id": "8b2e8039-b0fb-491a-b214-9a673e91d3f5",
    "name": "Sho‘rchi",
    "state_id": "eb7600f6-84ca-4ce7-9314-5791695bc1df"
  },
  {
    "id": "ced5e499-8098-4446-8d89-8f987c4842b7",
    "name": "Tirmiz",
    "state_id": "eb7600f6-84ca-4ce7-9314-5791695bc1df"
  }
]