[
  {
    "id": "fa851f76-b22c-4a01-860f-0fa7a3cd002a",
    "name": "Alagir",
    "state_id": "ec462b20-3145-49d3-9378-bebf6008245d"
  },
  {
    "id": "9d04ad3f-0fe5-4071-b8bd-13eb7d4e30e4",
    "name": "Alagirskiy Rayon",
    "state_id": "ec462b20-3145-49d3-9378-bebf6008245d"
  },
  {
    "id": "dfa766b2-a63f-4414-8abe-0248d613f183",
    "name": "Ardon",
    "state_id": "ec462b20-3145-49d3-9378-bebf6008245d"
  },
  {
    "id": "b3349c88-0ced-4046-8f96-0df4caa0b4b1",
    "name": "Arkhonskaya",
    "state_id": "ec462b20-3145-49d3-9378-bebf6008245d"
  },
  {
    "id": "669ba42b-1547-4f30-aeea-d92d5cba1020",
    "name": "Beslan",
    "state_id": "ec462b20-3145-49d3-9378-bebf6008245d"
  },
  {
    "id": "f345ea0e-c7e1-430d-a1c1-efb87f882eaa",
    "name": "Chermen",
    "state_id": "ec462b20-3145-49d3-9378-bebf6008245d"
  },
  {
    "id": "b16c1c66-f543-4258-b535-8e080df76d27",
    "name": "Chikola",
    "state_id": "ec462b20-3145-49d3-9378-bebf6008245d"
  },
  {
    "id": "268875f2-9c72-4b1c-8ef9-485371ccdef8",
    "name": "Dachnoye",
    "state_id": "ec462b20-3145-49d3-9378-bebf6008245d"
  },
  {
    "id": "dd420c76-a2ed-4160-b6d2-5793e54e5e87",
    "name": "Digora",
    "state_id": "ec462b20-3145-49d3-9378-bebf6008245d"
  },
  {
    "id": "d41887de-59a1-4b1a-af21-9f64ea1a9817",
    "name": "Digorskiy Rayon",
    "state_id": "ec462b20-3145-49d3-9378-bebf6008245d"
  },
  {
    "id": "d6aadfb8-6937-4f73-93ba-80ff01a0552a",
    "name": "Gizel’",
    "state_id": "ec462b20-3145-49d3-9378-bebf6008245d"
  },
  {
    "id": "2f4ef3e1-16fa-4505-ac97-1bc825c9577b",
    "name": "Irafskiy Rayon",
    "state_id": "ec462b20-3145-49d3-9378-bebf6008245d"
  },
  {
    "id": "92f0f321-c01f-41b9-bfa5-c04f101b2769",
    "name": "Kambileyevskoye",
    "state_id": "ec462b20-3145-49d3-9378-bebf6008245d"
  },
  {
    "id": "896aba45-afc1-4bbf-8e85-626670f4ad3d",
    "name": "Kardzhin",
    "state_id": "ec462b20-3145-49d3-9378-bebf6008245d"
  },
  {
    "id": "28186e26-66bd-43ee-b418-b1dbae63534d",
    "name": "Khumalag",
    "state_id": "ec462b20-3145-49d3-9378-bebf6008245d"
  },
  {
    "id": "d4e6385e-0c63-47c7-9d38-e9f3f1d56390",
    "name": "Kirovskiy Rayon",
    "state_id": "ec462b20-3145-49d3-9378-bebf6008245d"
  },
  {
    "id": "c78b72fa-bdcd-4ff9-a3d1-daae2180cb27",
    "name": "Kizlyar",
    "state_id": "ec462b20-3145-49d3-9378-bebf6008245d"
  },
  {
    "id": "ca8685ec-e00b-4aa2-99d5-bbfedb9ef954",
    "name": "Mikhaylovskoye",
    "state_id": "ec462b20-3145-49d3-9378-bebf6008245d"
  },
  {
    "id": "76e86db1-67fd-48bc-b8b5-47bac0cae9a5",
    "name": "Mizur",
    "state_id": "ec462b20-3145-49d3-9378-bebf6008245d"
  },
  {
    "id": "fc97abd9-ff44-47ef-8e56-60144a8011f7",
    "name": "Mozdok",
    "state_id": "ec462b20-3145-49d3-9378-bebf6008245d"
  },
  {
    "id": "94abaa53-39ae-45d9-85bb-92ed6dfa264e",
    "name": "Nogir",
    "state_id": "ec462b20-3145-49d3-9378-bebf6008245d"
  },
  {
    "id": "ee6e1b44-6d3f-4f0b-8703-8bbdfd76fb12",
    "name": "Pavlodol’skaya",
    "state_id": "ec462b20-3145-49d3-9378-bebf6008245d"
  },
  {
    "id": "a13b8ae0-16e4-4751-8789-0b8ea12ec727",
    "name": "Pravoberezhnyy Rayon",
    "state_id": "ec462b20-3145-49d3-9378-bebf6008245d"
  },
  {
    "id": "50345a1d-fada-4624-832c-6c53e00c3b56",
    "name": "Prigorodnyy Rayon",
    "state_id": "ec462b20-3145-49d3-9378-bebf6008245d"
  },
  {
    "id": "9c2ff861-972e-45b8-8dac-12c737a362ea",
    "name": "Sunzha",
    "state_id": "ec462b20-3145-49d3-9378-bebf6008245d"
  },
  {
    "id": "f1269e71-4463-4dc2-b0b9-b32b9bd35970",
    "name": "Tarskoye",
    "state_id": "ec462b20-3145-49d3-9378-bebf6008245d"
  },
  {
    "id": "d4f24d21-6071-46b5-8cfd-2a51e3796ca0",
    "name": "Terskaya",
    "state_id": "ec462b20-3145-49d3-9378-bebf6008245d"
  },
  {
    "id": "bb14c868-ed1e-4be4-bcb3-90ba819dd7a8",
    "name": "Troitskoye",
    "state_id": "ec462b20-3145-49d3-9378-bebf6008245d"
  },
  {
    "id": "5fd39ccc-342a-4f20-a714-08e9b890a973",
    "name": "Verkhniy Fiagdon",
    "state_id": "ec462b20-3145-49d3-9378-bebf6008245d"
  },
  {
    "id": "da889a69-d51a-486a-a1c4-38ae43378ac5",
    "name": "Vladikavkaz",
    "state_id": "ec462b20-3145-49d3-9378-bebf6008245d"
  },
  {
    "id": "c32ee7d9-dc91-490c-8070-2392c58f3730",
    "name": "Zmeyskaya",
    "state_id": "ec462b20-3145-49d3-9378-bebf6008245d"
  }
]