[
  {
    "id": "55631dd3-c4e7-4c5e-bb10-53b74c8a2589",
    "name": "Attapeu",
    "state_id": "ec5bafb6-3d16-4ad0-a158-d28be2ea1671"
  },
  {
    "id": "314c2088-b92b-419b-a57d-82016568416b",
    "name": "Muang Phouvong",
    "state_id": "ec5bafb6-3d16-4ad0-a158-d28be2ea1671"
  },
  {
    "id": "c3712f3e-6cf9-4494-b5c5-2ce2ebf10043",
    "name": "Muang Samakhixai",
    "state_id": "ec5bafb6-3d16-4ad0-a158-d28be2ea1671"
  },
  {
    "id": "530d06c5-bdec-40b4-82de-11ba8f463ec9",
    "name": "Muang Sanamxai",
    "state_id": "ec5bafb6-3d16-4ad0-a158-d28be2ea1671"
  },
  {
    "id": "7fc150d0-56de-45be-b4f9-3a4bc245e462",
    "name": "Muang Sanxai",
    "state_id": "ec5bafb6-3d16-4ad0-a158-d28be2ea1671"
  },
  {
    "id": "60955910-f46a-44c9-8fee-9f7c613064d3",
    "name": "Muang Xaiséttha",
    "state_id": "ec5bafb6-3d16-4ad0-a158-d28be2ea1671"
  }
]