[
  {
    "id": "6b9b6711-89b5-4ffa-ac67-d595680f6622",
    "name": "Bouaflé",
    "state_id": "ec94617b-af06-4b8e-8ac8-e277b7e98c8e"
  },
  {
    "id": "4972b104-7985-46f0-aa56-0a3e80e8f82e",
    "name": "Daloa",
    "state_id": "ec94617b-af06-4b8e-8ac8-e277b7e98c8e"
  },
  {
    "id": "decc106a-a45c-4ecc-8dd6-27c452a36510",
    "name": "Haut-Sassandra",
    "state_id": "ec94617b-af06-4b8e-8ac8-e277b7e98c8e"
  },
  {
    "id": "b7a60163-8e8f-4b75-8956-a620d46a7ed3",
    "name": "Issia",
    "state_id": "ec94617b-af06-4b8e-8ac8-e277b7e98c8e"
  },
  {
    "id": "60a1f6e5-7aaa-4a13-beba-81f842dae0be",
    "name": "Marahoué",
    "state_id": "ec94617b-af06-4b8e-8ac8-e277b7e98c8e"
  },
  {
    "id": "f2ae6436-a058-47c6-9b3d-6dc6ab87aec8",
    "name": "Vavoua",
    "state_id": "ec94617b-af06-4b8e-8ac8-e277b7e98c8e"
  },
  {
    "id": "734289ef-30ff-4005-9950-1c4d95db8ca9",
    "name": "Zuénoula",
    "state_id": "ec94617b-af06-4b8e-8ac8-e277b7e98c8e"
  }
]