[
  {
    "id": "446477eb-ad92-4453-9587-1259bad17975",
    "name": "Hietalahti",
    "state_id": "eca83756-f7b5-44bc-b40f-9d2455f4c386"
  },
  {
    "id": "2a4d2fbd-fc0d-49e1-9a93-522a157167e8",
    "name": "Isokyrö",
    "state_id": "eca83756-f7b5-44bc-b40f-9d2455f4c386"
  },
  {
    "id": "d658d563-c8e0-4ba9-9135-28c43f47a770",
    "name": "Jakobstad",
    "state_id": "eca83756-f7b5-44bc-b40f-9d2455f4c386"
  },
  {
    "id": "eaf1221f-778f-4b5e-9af9-77b017a1e301",
    "name": "Kaskinen",
    "state_id": "eca83756-f7b5-44bc-b40f-9d2455f4c386"
  },
  {
    "id": "291d444d-b332-451b-b8b1-615004b855e9",
    "name": "Korsholm",
    "state_id": "eca83756-f7b5-44bc-b40f-9d2455f4c386"
  },
  {
    "id": "f06436b8-0d00-4cf8-99cc-c0b5ae61e6b9",
    "name": "Korsnäs",
    "state_id": "eca83756-f7b5-44bc-b40f-9d2455f4c386"
  },
  {
    "id": "a539bfc1-2635-4154-86bc-7f0da25dc966",
    "name": "Kristinestad",
    "state_id": "eca83756-f7b5-44bc-b40f-9d2455f4c386"
  },
  {
    "id": "6b6c2d0b-21ce-4ca2-ad15-3c183a99ccad",
    "name": "Kronoby",
    "state_id": "eca83756-f7b5-44bc-b40f-9d2455f4c386"
  },
  {
    "id": "1e552e02-9214-468a-a6a8-26756f51a0b8",
    "name": "Laihia",
    "state_id": "eca83756-f7b5-44bc-b40f-9d2455f4c386"
  },
  {
    "id": "b0cc84bc-7adc-47b7-9de4-d8688228a25f",
    "name": "Larsmo",
    "state_id": "eca83756-f7b5-44bc-b40f-9d2455f4c386"
  },
  {
    "id": "2ad209bb-155f-4ecc-8fde-f9ee55fca8fb",
    "name": "Malax",
    "state_id": "eca83756-f7b5-44bc-b40f-9d2455f4c386"
  },
  {
    "id": "e6757aaa-9c36-4832-97cf-7ede5426503c",
    "name": "Nykarleby",
    "state_id": "eca83756-f7b5-44bc-b40f-9d2455f4c386"
  },
  {
    "id": "b6c76256-db66-4299-a58c-7dcd10e66953",
    "name": "Oravais",
    "state_id": "eca83756-f7b5-44bc-b40f-9d2455f4c386"
  },
  {
    "id": "72237054-e224-48b5-b77a-36a7270db344",
    "name": "Pedersöre",
    "state_id": "eca83756-f7b5-44bc-b40f-9d2455f4c386"
  },
  {
    "id": "e055f38d-f14e-4f84-8ddd-72ed9c72d451",
    "name": "Replot",
    "state_id": "eca83756-f7b5-44bc-b40f-9d2455f4c386"
  },
  {
    "id": "b8ed4436-fdc5-49c5-aa16-14720d347a84",
    "name": "Ristinummi",
    "state_id": "eca83756-f7b5-44bc-b40f-9d2455f4c386"
  },
  {
    "id": "e6f951e2-ffe8-4acb-bb97-47d769c173bc",
    "name": "Teeriniemi",
    "state_id": "eca83756-f7b5-44bc-b40f-9d2455f4c386"
  },
  {
    "id": "ce8c28fc-c57e-4469-999b-9f7c17ff240a",
    "name": "Vaasa",
    "state_id": "eca83756-f7b5-44bc-b40f-9d2455f4c386"
  },
  {
    "id": "e9675311-4d0c-4434-b35d-29bcc809e4a3",
    "name": "Vähäkyrö",
    "state_id": "eca83756-f7b5-44bc-b40f-9d2455f4c386"
  },
  {
    "id": "fd29e3cf-b47c-46ef-9d8a-087d5a282ab7",
    "name": "Vörå",
    "state_id": "eca83756-f7b5-44bc-b40f-9d2455f4c386"
  }
]