[
  {
    "id": "3d17096d-2541-4b29-a428-40ee4d40359b",
    "name": "Bangassou",
    "state_id": "ecca4cbe-ad5d-4aee-bd3e-5d8444f0b6aa"
  },
  {
    "id": "e69fb7cd-dbe4-4a25-ae6b-8d5a6ad17d61",
    "name": "Gambo",
    "state_id": "ecca4cbe-ad5d-4aee-bd3e-5d8444f0b6aa"
  },
  {
    "id": "2d6612d8-6ab4-4691-8ba1-7887c7eed5a9",
    "name": "Ouango",
    "state_id": "ecca4cbe-ad5d-4aee-bd3e-5d8444f0b6aa"
  },
  {
    "id": "3beabbfb-6dc7-47fe-a59b-7b9afb9cd2a7",
    "name": "Rafai",
    "state_id": "ecca4cbe-ad5d-4aee-bd3e-5d8444f0b6aa"
  }
]