[
  {
    "id": "57f23378-246d-4c35-9f1a-3596255fbda5",
    "name": "Agualeguas",
    "state_id": "ed74e820-128f-472e-9b5c-fc3beb6f4153"
  },
  {
    "id": "d0ae0b23-1160-4dbb-bd60-4e134974733d",
    "name": "Alianza Real",
    "state_id": "ed74e820-128f-472e-9b5c-fc3beb6f4153"
  },
  {
    "id": "b09d9ebf-df4c-43c6-bc07-04dcf7272b97",
    "name": "Anáhuac",
    "state_id": "ed74e820-128f-472e-9b5c-fc3beb6f4153"
  },
  {
    "id": "88dd0d20-48b2-42cb-be27-6498d60f48e8",
    "name": "Aramberri",
    "state_id": "ed74e820-128f-472e-9b5c-fc3beb6f4153"
  },
  {
    "id": "a6944f09-7f5a-41a2-a6cd-cc19424df112",
    "name": "Artemio Treviño",
    "state_id": "ed74e820-128f-472e-9b5c-fc3beb6f4153"
  },
  {
    "id": "f20b8d1e-7d24-4cd1-8b53-00616032f1d7",
    "name": "Bosques de San Pedro",
    "state_id": "ed74e820-128f-472e-9b5c-fc3beb6f4153"
  },
  {
    "id": "7a9dab70-2e8c-41fe-963d-2f020166a14f",
    "name": "Buena Vista",
    "state_id": "ed74e820-128f-472e-9b5c-fc3beb6f4153"
  },
  {
    "id": "3c99ccf8-13b3-4038-a679-0695238f3978",
    "name": "Bustamante",
    "state_id": "ed74e820-128f-472e-9b5c-fc3beb6f4153"
  },
  {
    "id": "7e7bc444-e25d-4601-9391-cbb0379ee34d",
    "name": "Cadereyta",
    "state_id": "ed74e820-128f-472e-9b5c-fc3beb6f4153"
  },
  {
    "id": "719a2f78-b6b8-4be6-9cc5-8064535a3d02",
    "name": "Cadereyta Jiménez",
    "state_id": "ed74e820-128f-472e-9b5c-fc3beb6f4153"
  },
  {
    "id": "86a42b21-74ef-4d9b-88b2-eb42a14a8297",
    "name": "Carmen",
    "state_id": "ed74e820-128f-472e-9b5c-fc3beb6f4153"
  },
  {
    "id": "785804e2-8389-43b7-b06e-49032e223687",
    "name": "Catarino Rodríguez",
    "state_id": "ed74e820-128f-472e-9b5c-fc3beb6f4153"
  },
  {
    "id": "026649d9-7532-4ce1-9171-94fb9b59bd86",
    "name": "Cerralvo",
    "state_id": "ed74e820-128f-472e-9b5c-fc3beb6f4153"
  },
  {
    "id": "b43c6964-d180-4e03-9a3e-483fac7ea265",
    "name": "China",
    "state_id": "ed74e820-128f-472e-9b5c-fc3beb6f4153"
  },
  {
    "id": "5cce8280-3892-4b96-afd2-fc5370b3bbd5",
    "name": "Ciénega de Flores",
    "state_id": "ed74e820-128f-472e-9b5c-fc3beb6f4153"
  },
  {
    "id": "77bdb148-e5be-417d-b89f-e8595be54d04",
    "name": "Ciudad Apodaca",
    "state_id": "ed74e820-128f-472e-9b5c-fc3beb6f4153"
  },
  {
    "id": "ecc361cc-a84f-4bfd-871e-3446f36d872b",
    "name": "Ciudad Benito Juárez",
    "state_id": "ed74e820-128f-472e-9b5c-fc3beb6f4153"
  },
  {
    "id": "8af32781-d02f-4bab-bc80-51490c3fe9a0",
    "name": "Ciudad Cerralvo",
    "state_id": "ed74e820-128f-472e-9b5c-fc3beb6f4153"
  },
  {
    "id": "707d2d75-4464-4517-963e-6c07a2746a96",
    "name": "Ciudad de Allende",
    "state_id": "ed74e820-128f-472e-9b5c-fc3beb6f4153"
  },
  {
    "id": "6b26d99e-0f2f-42ad-ab3f-e952b4de72f9",
    "name": "Ciudad de Villaldama",
    "state_id": "ed74e820-128f-472e-9b5c-fc3beb6f4153"
  },
  {
    "id": "5b3a3b11-f6b0-48e2-87d7-f77b380d9f57",
    "name": "Ciudad General Escobedo",
    "state_id": "ed74e820-128f-472e-9b5c-fc3beb6f4153"
  },
  {
    "id": "65090902-f89e-41a3-856e-a66648ebba3a",
    "name": "Ciudad General Terán",
    "state_id": "ed74e820-128f-472e-9b5c-fc3beb6f4153"
  },
  {
    "id": "efe6d2a4-0b65-440e-a79b-d96612e267c3",
    "name": "Ciudad Sabinas Hidalgo",
    "state_id": "ed74e820-128f-472e-9b5c-fc3beb6f4153"
  },
  {
    "id": "f6ae80d8-4d4a-499b-9ebe-aa0ca5343cab",
    "name": "Ciudad Satélite del Norte",
    "state_id": "ed74e820-128f-472e-9b5c-fc3beb6f4153"
  },
  {
    "id": "b8a6676d-23a5-423d-b445-9af2c4c6d9eb",
    "name": "Colinas del Aeropuerto",
    "state_id": "ed74e820-128f-472e-9b5c-fc3beb6f4153"
  },
  {
    "id": "9780d97e-0d95-4799-89f4-306f23834f2e",
    "name": "Congregación Calles",
    "state_id": "ed74e820-128f-472e-9b5c-fc3beb6f4153"
  },
  {
    "id": "5f709230-e0c5-4875-8221-f09ae144067c",
    "name": "Doctor Arroyo",
    "state_id": "ed74e820-128f-472e-9b5c-fc3beb6f4153"
  },
  {
    "id": "3864c9ac-0a86-4433-af4a-5f1d29bfb03b",
    "name": "Doctor Coss",
    "state_id": "ed74e820-128f-472e-9b5c-fc3beb6f4153"
  },
  {
    "id": "0f43223c-c21e-46c7-88b8-0b3ad02206d5",
    "name": "Doctor González",
    "state_id": "ed74e820-128f-472e-9b5c-fc3beb6f4153"
  },
  {
    "id": "bc80fef2-fd62-4fba-8897-4cf398a0eca6",
    "name": "Emiliano Zapata",
    "state_id": "ed74e820-128f-472e-9b5c-fc3beb6f4153"
  },
  {
    "id": "59029d8d-0518-4d6a-a24c-975954935079",
    "name": "Entronque Laredo-Salinas Victoria",
    "state_id": "ed74e820-128f-472e-9b5c-fc3beb6f4153"
  },
  {
    "id": "1dc3fa00-917e-436a-8f3d-18bacc2799fd",
    "name": "Fraccionamiento Cosmópolis Octavo Sector",
    "state_id": "ed74e820-128f-472e-9b5c-fc3beb6f4153"
  },
  {
    "id": "320e02c0-c8e2-4b9a-b92a-2e9588b281f9",
    "name": "Fraccionamiento Misión de San Javier",
    "state_id": "ed74e820-128f-472e-9b5c-fc3beb6f4153"
  },
  {
    "id": "ddcf4fbd-6cb9-4385-9600-3fbabf8fb4ca",
    "name": "Fraccionamiento Real Palmas",
    "state_id": "ed74e820-128f-472e-9b5c-fc3beb6f4153"
  },
  {
    "id": "2afce7e5-528c-4b89-b4fc-2b12a27dd098",
    "name": "Galeana",
    "state_id": "ed74e820-128f-472e-9b5c-fc3beb6f4153"
  },
  {
    "id": "f462fc20-c72b-4c8a-b2f1-d6ac409528d9",
    "name": "García",
    "state_id": "ed74e820-128f-472e-9b5c-fc3beb6f4153"
  },
  {
    "id": "66e780aa-5308-4dca-8d49-4683fc5d5120",
    "name": "General Bravo",
    "state_id": "ed74e820-128f-472e-9b5c-fc3beb6f4153"
  },
  {
    "id": "698a5a27-6d54-4b42-aace-64748038834e",
    "name": "General Zuazua",
    "state_id": "ed74e820-128f-472e-9b5c-fc3beb6f4153"
  },
  {
    "id": "ccc2eaba-5912-493b-899f-b8d294e7f1ce",
    "name": "Guadalupe",
    "state_id": "ed74e820-128f-472e-9b5c-fc3beb6f4153"
  },
  {
    "id": "ded54cc8-6aa6-4b96-85cb-0599a4c90bd3",
    "name": "Hacienda San Pedro",
    "state_id": "ed74e820-128f-472e-9b5c-fc3beb6f4153"
  },
  {
    "id": "d438e18d-7b6e-4c55-836e-9d6ce64ff544",
    "name": "Héctor Caballero",
    "state_id": "ed74e820-128f-472e-9b5c-fc3beb6f4153"
  },
  {
    "id": "af8dfe83-fd85-4d44-bdd2-7f415299f3b5",
    "name": "Hualahuises",
    "state_id": "ed74e820-128f-472e-9b5c-fc3beb6f4153"
  },
  {
    "id": "015b80ff-ae41-4cf9-84b7-c2e48f484285",
    "name": "Iturbide",
    "state_id": "ed74e820-128f-472e-9b5c-fc3beb6f4153"
  },
  {
    "id": "d35bad12-a0ff-4f23-b5b4-7cbfe96cbcaf",
    "name": "Jardines de la Silla (Jardines)",
    "state_id": "ed74e820-128f-472e-9b5c-fc3beb6f4153"
  },
  {
    "id": "e0ffe3d0-ef20-4b55-8bac-bfb97ebbb71b",
    "name": "La Ascensión",
    "state_id": "ed74e820-128f-472e-9b5c-fc3beb6f4153"
  },
  {
    "id": "22a1e7b0-9a9e-428a-8d37-ed278f015c45",
    "name": "Ladrillera (Entronque Pesquería)",
    "state_id": "ed74e820-128f-472e-9b5c-fc3beb6f4153"
  },
  {
    "id": "2895e429-02d9-4873-90df-e6e6f51af547",
    "name": "Lampazos de Naranjo",
    "state_id": "ed74e820-128f-472e-9b5c-fc3beb6f4153"
  },
  {
    "id": "71fb6e0c-292c-48e9-b1eb-18fb421e4a3f",
    "name": "Las Torres",
    "state_id": "ed74e820-128f-472e-9b5c-fc3beb6f4153"
  },
  {
    "id": "a624a95a-16ae-4a8d-88ba-2eaf47249aaa",
    "name": "Las Torres de Guadalupe",
    "state_id": "ed74e820-128f-472e-9b5c-fc3beb6f4153"
  },
  {
    "id": "27f090ef-2723-4540-9f94-670f15e631a3",
    "name": "Linares",
    "state_id": "ed74e820-128f-472e-9b5c-fc3beb6f4153"
  },
  {
    "id": "5c97f4f2-183b-44c0-bfd8-f90fbe9573b4",
    "name": "Loma la Paz",
    "state_id": "ed74e820-128f-472e-9b5c-fc3beb6f4153"
  },
  {
    "id": "46617c29-3c85-44d7-ae53-4e2e1c5a420d",
    "name": "Lomas de San Martín",
    "state_id": "ed74e820-128f-472e-9b5c-fc3beb6f4153"
  },
  {
    "id": "dc0a22ec-5fa0-4852-9c71-537e5bd9271a",
    "name": "Los Parques",
    "state_id": "ed74e820-128f-472e-9b5c-fc3beb6f4153"
  },
  {
    "id": "dc92c73a-4ccf-42e2-acf9-8f92425d82ae",
    "name": "Los Ramones",
    "state_id": "ed74e820-128f-472e-9b5c-fc3beb6f4153"
  },
  {
    "id": "b7b7e9f0-f418-459b-bd82-03544d8bfbee",
    "name": "Marín",
    "state_id": "ed74e820-128f-472e-9b5c-fc3beb6f4153"
  },
  {
    "id": "fd89d0c1-0efb-4f03-89c6-bbf7bb2996e3",
    "name": "Mazatlan",
    "state_id": "ed74e820-128f-472e-9b5c-fc3beb6f4153"
  },
  {
    "id": "5f40499c-8cf0-4078-aab5-e1e8e1ace3ad",
    "name": "Mina",
    "state_id": "ed74e820-128f-472e-9b5c-fc3beb6f4153"
  },
  {
    "id": "022832c6-a8c6-4250-9b3d-18be5823e2d9",
    "name": "Misión San Pablo",
    "state_id": "ed74e820-128f-472e-9b5c-fc3beb6f4153"
  },
  {
    "id": "d8f08379-0914-42c1-8e42-393a524c8647",
    "name": "Mitras Poniente",
    "state_id": "ed74e820-128f-472e-9b5c-fc3beb6f4153"
  },
  {
    "id": "87694b1e-67f7-4ff7-85b5-cb93c1912fd2",
    "name": "Monclova Primer Sector",
    "state_id": "ed74e820-128f-472e-9b5c-fc3beb6f4153"
  },
  {
    "id": "a741085d-dd5b-4ed7-8983-3f55e18914eb",
    "name": "Monclova Segundo Sector",
    "state_id": "ed74e820-128f-472e-9b5c-fc3beb6f4153"
  },
  {
    "id": "e36e5873-1cee-44a6-b8b4-c2711d5204cc",
    "name": "Monte Kristal",
    "state_id": "ed74e820-128f-472e-9b5c-fc3beb6f4153"
  },
  {
    "id": "64464d5b-a8ec-40a9-8717-988df35db81f",
    "name": "Montemorelos",
    "state_id": "ed74e820-128f-472e-9b5c-fc3beb6f4153"
  },
  {
    "id": "d233cba1-bedc-4113-9bfc-3a4d23b1a6d7",
    "name": "Monterrey",
    "state_id": "ed74e820-128f-472e-9b5c-fc3beb6f4153"
  },
  {
    "id": "476bc5f4-a94e-4742-83dd-8185a94491c3",
    "name": "Parás",
    "state_id": "ed74e820-128f-472e-9b5c-fc3beb6f4153"
  },
  {
    "id": "a8637290-4660-4481-b720-1aa4cabb2771",
    "name": "Parque Industrial Ciudad Mitras",
    "state_id": "ed74e820-128f-472e-9b5c-fc3beb6f4153"
  },
  {
    "id": "81b3f7ca-cae9-4709-8c90-7dc15c104638",
    "name": "Paseo de San Javier",
    "state_id": "ed74e820-128f-472e-9b5c-fc3beb6f4153"
  },
  {
    "id": "abeac880-4642-4d01-b0e5-f5cab8dcc015",
    "name": "Pesquería",
    "state_id": "ed74e820-128f-472e-9b5c-fc3beb6f4153"
  },
  {
    "id": "6f48a30b-3e56-4841-a5b2-0c4b54552382",
    "name": "Portal de las Salinas",
    "state_id": "ed74e820-128f-472e-9b5c-fc3beb6f4153"
  },
  {
    "id": "029e4f84-f109-4c42-8dd5-1e5e17d109f6",
    "name": "Praderas de San Francisco",
    "state_id": "ed74e820-128f-472e-9b5c-fc3beb6f4153"
  },
  {
    "id": "eae04338-c953-4599-8ee5-577490592a25",
    "name": "Prados de Santa Rosa",
    "state_id": "ed74e820-128f-472e-9b5c-fc3beb6f4153"
  },
  {
    "id": "a95144fb-ef6e-4742-9bf7-4459aef15bf1",
    "name": "Pueblo Nuevo",
    "state_id": "ed74e820-128f-472e-9b5c-fc3beb6f4153"
  },
  {
    "id": "775ba9ea-69cb-4941-a401-399dffb1315b",
    "name": "Rayones",
    "state_id": "ed74e820-128f-472e-9b5c-fc3beb6f4153"
  },
  {
    "id": "da79e1cc-4b82-48d8-800d-106bbcb511f4",
    "name": "Real del Sol",
    "state_id": "ed74e820-128f-472e-9b5c-fc3beb6f4153"
  },
  {
    "id": "4dc79d44-a155-4420-a6c6-336061a1dab8",
    "name": "Río Verde",
    "state_id": "ed74e820-128f-472e-9b5c-fc3beb6f4153"
  },
  {
    "id": "da6d2e1e-3866-49d2-9eb1-ab6da861c981",
    "name": "Salinas Victoria",
    "state_id": "ed74e820-128f-472e-9b5c-fc3beb6f4153"
  },
  {
    "id": "dace6a24-484a-469a-bdae-47fc80ce440f",
    "name": "San Antonio",
    "state_id": "ed74e820-128f-472e-9b5c-fc3beb6f4153"
  },
  {
    "id": "7e44cd57-dba8-4f14-9010-1ca33274321e",
    "name": "San José de Raíces",
    "state_id": "ed74e820-128f-472e-9b5c-fc3beb6f4153"
  },
  {
    "id": "adf276ad-f643-41ca-9721-ee6969a024aa",
    "name": "San Juan",
    "state_id": "ed74e820-128f-472e-9b5c-fc3beb6f4153"
  },
  {
    "id": "c817f2cd-9d8b-430e-bf67-0ee34f531f8f",
    "name": "San Nicolás de los Garza",
    "state_id": "ed74e820-128f-472e-9b5c-fc3beb6f4153"
  },
  {
    "id": "d4f974b3-d26e-45be-aa39-d87f7a1fe050",
    "name": "San Pedro Garza Garcia",
    "state_id": "ed74e820-128f-472e-9b5c-fc3beb6f4153"
  },
  {
    "id": "62b72d97-56b3-4a25-ae8a-a604f1793893",
    "name": "San Rafael",
    "state_id": "ed74e820-128f-472e-9b5c-fc3beb6f4153"
  },
  {
    "id": "1c9f666d-edec-46d2-a148-8da4fdbdafbd",
    "name": "Santa Rosa",
    "state_id": "ed74e820-128f-472e-9b5c-fc3beb6f4153"
  },
  {
    "id": "1a04845e-2414-489e-b06c-1eb097867d10",
    "name": "Santiago",
    "state_id": "ed74e820-128f-472e-9b5c-fc3beb6f4153"
  },
  {
    "id": "ead178ea-667d-488a-8a47-ca04bcc0e40f",
    "name": "Simeprodeso (Colectivo Nuevo)",
    "state_id": "ed74e820-128f-472e-9b5c-fc3beb6f4153"
  },
  {
    "id": "5de5f884-753d-449a-b19b-d5cbe09dc293",
    "name": "Unión Agropecuarios Lázaro Cárdenas del Norte",
    "state_id": "ed74e820-128f-472e-9b5c-fc3beb6f4153"
  },
  {
    "id": "1977bb40-df2b-4622-89c2-f29089345c38",
    "name": "Valle de Juárez",
    "state_id": "ed74e820-128f-472e-9b5c-fc3beb6f4153"
  },
  {
    "id": "503c0445-3a99-4781-9d6b-3ac8dac84b72",
    "name": "Valle de Lincoln",
    "state_id": "ed74e820-128f-472e-9b5c-fc3beb6f4153"
  },
  {
    "id": "e6ee2085-cbc3-4059-8444-f524d6753e09",
    "name": "Valle de Vaquerías",
    "state_id": "ed74e820-128f-472e-9b5c-fc3beb6f4153"
  },
  {
    "id": "7b00ddaa-fa8d-4d4f-a62f-9cff3a68490d",
    "name": "Vallecillo",
    "state_id": "ed74e820-128f-472e-9b5c-fc3beb6f4153"
  },
  {
    "id": "6fe6485e-8d75-4438-b8e1-8a98e16f39bc",
    "name": "Villaldama",
    "state_id": "ed74e820-128f-472e-9b5c-fc3beb6f4153"
  },
  {
    "id": "6dffc449-7947-4054-9ad4-e4fbfbc6de6d",
    "name": "Villas de Alcalá",
    "state_id": "ed74e820-128f-472e-9b5c-fc3beb6f4153"
  }
]