[
  {
    "id": "8940de2b-3fe7-434e-aa42-b5a349c024a0",
    "name": "Acatenango",
    "state_id": "edffa059-35e6-402d-a9c7-1e105d83b5d0"
  },
  {
    "id": "1a9eae6e-98ec-48b9-bd3c-77a1863f77e3",
    "name": "Chimaltenango",
    "state_id": "edffa059-35e6-402d-a9c7-1e105d83b5d0"
  },
  {
    "id": "6bf1132d-72b5-4ad3-b8b8-11a372420738",
    "name": "Comalapa",
    "state_id": "edffa059-35e6-402d-a9c7-1e105d83b5d0"
  },
  {
    "id": "b24da5f0-bba0-4de3-b2ae-a6a3bad508a5",
    "name": "El Tejar",
    "state_id": "edffa059-35e6-402d-a9c7-1e105d83b5d0"
  },
  {
    "id": "f4f469ec-1242-4cda-a318-8f141439c9eb",
    "name": "Parramos",
    "state_id": "edffa059-35e6-402d-a9c7-1e105d83b5d0"
  },
  {
    "id": "340d3c57-d23f-4003-8570-760b15704899",
    "name": "Patzicía",
    "state_id": "edffa059-35e6-402d-a9c7-1e105d83b5d0"
  },
  {
    "id": "49971bd3-98d6-46f4-a593-a75099e8ba70",
    "name": "Patzún",
    "state_id": "edffa059-35e6-402d-a9c7-1e105d83b5d0"
  },
  {
    "id": "ce25870a-3a39-4f1f-a9ba-c28d5336e899",
    "name": "Pochuta",
    "state_id": "edffa059-35e6-402d-a9c7-1e105d83b5d0"
  },
  {
    "id": "8ee32ab4-517e-42a4-b9db-a0d34d8f3b21",
    "name": "San Andrés Itzapa",
    "state_id": "edffa059-35e6-402d-a9c7-1e105d83b5d0"
  },
  {
    "id": "f6edead7-0f6b-4201-9a27-b185abff27cc",
    "name": "San José Poaquil",
    "state_id": "edffa059-35e6-402d-a9c7-1e105d83b5d0"
  },
  {
    "id": "4417e7f8-b661-4762-81d1-53203f59169c",
    "name": "San Martín Jilotepeque",
    "state_id": "edffa059-35e6-402d-a9c7-1e105d83b5d0"
  },
  {
    "id": "f23586ec-3cf4-4c0e-b6ab-a97873605c52",
    "name": "Santa Apolonia",
    "state_id": "edffa059-35e6-402d-a9c7-1e105d83b5d0"
  },
  {
    "id": "f91ba6c5-4f98-4579-8f2e-47e9e70b9312",
    "name": "Santa Cruz Balanyá",
    "state_id": "edffa059-35e6-402d-a9c7-1e105d83b5d0"
  },
  {
    "id": "2da1a7b7-d794-44bb-a549-007a87565c22",
    "name": "Tecpán Guatemala",
    "state_id": "edffa059-35e6-402d-a9c7-1e105d83b5d0"
  },
  {
    "id": "817f704e-308d-4354-9fd2-66f39c0dbc04",
    "name": "Yepocapa",
    "state_id": "edffa059-35e6-402d-a9c7-1e105d83b5d0"
  },
  {
    "id": "73854abb-4db7-4680-93d1-817732b1a15f",
    "name": "Zaragoza",
    "state_id": "edffa059-35e6-402d-a9c7-1e105d83b5d0"
  }
]