[
  {
    "id": "80ec97b1-e0ef-421d-aa39-8ac42ec273d4",
    "name": "Danilovgrad",
    "state_id": "ee1e8159-405b-4c8b-bc5d-29655892e3b8"
  },
  {
    "id": "246b4ea6-a379-4ab5-9b3e-6bc40ee2abd0",
    "name": "Spuž",
    "state_id": "ee1e8159-405b-4c8b-bc5d-29655892e3b8"
  }
]