[
  {
    "id": "3fa87dd6-df28-4c70-ac28-a8230e02d135",
    "name": "Amphoe Don Tan",
    "state_id": "ee605ee6-ec71-437b-b8dd-08d1b1d6482e"
  },
  {
    "id": "5b0df6a5-7af6-4a92-a724-0d42c31b0783",
    "name": "Amphoe Dong Luang",
    "state_id": "ee605ee6-ec71-437b-b8dd-08d1b1d6482e"
  },
  {
    "id": "c561e535-5f81-4a37-9dea-9fa3ef52bca6",
    "name": "Amphoe Khamcha-i",
    "state_id": "ee605ee6-ec71-437b-b8dd-08d1b1d6482e"
  },
  {
    "id": "be1073a8-5f7d-4979-8d5c-8517defd2dc6",
    "name": "Amphoe Mueang Mukdahan",
    "state_id": "ee605ee6-ec71-437b-b8dd-08d1b1d6482e"
  },
  {
    "id": "340d61e8-6618-4d47-ae95-b5179d17dfaa",
    "name": "Amphoe Nikhom Kham Soi",
    "state_id": "ee605ee6-ec71-437b-b8dd-08d1b1d6482e"
  },
  {
    "id": "768b9d41-0d23-490f-ac02-770b2f63b187",
    "name": "Amphoe Nong Sung",
    "state_id": "ee605ee6-ec71-437b-b8dd-08d1b1d6482e"
  },
  {
    "id": "75813ffb-edec-443a-a7d9-5ff136dcb495",
    "name": "Amphoe Wan Yai",
    "state_id": "ee605ee6-ec71-437b-b8dd-08d1b1d6482e"
  },
  {
    "id": "8df88db5-9ec4-48bd-8ac0-2eb6a0a6fdb2",
    "name": "Mukdahan",
    "state_id": "ee605ee6-ec71-437b-b8dd-08d1b1d6482e"
  }
]