[
  {
    "id": "b690353d-d68b-4515-a234-563d72259d76",
    "name": "Aachen",
    "state_id": "ee65d6d8-bfd1-43f2-b528-9d4b9b193273"
  },
  {
    "id": "3bdd4e81-894b-4aae-9c37-d5f0ed2f15ee",
    "name": "Ahaus",
    "state_id": "ee65d6d8-bfd1-43f2-b528-9d4b9b193273"
  },
  {
    "id": "e0e49205-b885-496f-bd6f-0077aafaacf9",
    "name": "Ahlen",
    "state_id": "ee65d6d8-bfd1-43f2-b528-9d4b9b193273"
  },
  {
    "id": "fbf97712-0782-4456-965b-b8a1260ce66a",
    "name": "Aldenhoven",
    "state_id": "ee65d6d8-bfd1-43f2-b528-9d4b9b193273"
  },
  {
    "id": "25c2be90-625c-421e-9c5a-e08d42932e50",
    "name": "Alfter",
    "state_id": "ee65d6d8-bfd1-43f2-b528-9d4b9b193273"
  },
  {
    "id": "d25ddedc-f07c-4a15-a7ac-aafcceccae38",
    "name": "Alpen",
    "state_id": "ee65d6d8-bfd1-43f2-b528-9d4b9b193273"
  },
  {
    "id": "f0b785f7-fa11-436d-86bf-a7ccea2885f0",
    "name": "Alsdorf",
    "state_id": "ee65d6d8-bfd1-43f2-b528-9d4b9b193273"
  },
  {
    "id": "d69d7196-3c8b-4ffe-b701-6703eda58e19",
    "name": "Altena",
    "state_id": "ee65d6d8-bfd1-43f2-b528-9d4b9b193273"
  },
  {
    "id": "9e0f358b-97bc-4d41-ab55-e7519132c627",
    "name": "Altenbeken",
    "state_id": "ee65d6d8-bfd1-43f2-b528-9d4b9b193273"
  },
  {
    "id": "3b609eba-53ba-48b1-b777-b94ab329c78a",
    "name": "Altenberge",
    "state_id": "ee65d6d8-bfd1-43f2-b528-9d4b9b193273"
  },
  {
    "id": "7c0683ca-4d88-44ee-a3cf-8ebfdd88c826",
    "name": "Altenbüren",
    "state_id": "ee65d6d8-bfd1-43f2-b528-9d4b9b193273"
  },
  {
    "id": "507af582-963b-43c9-b759-14d1b40d1cb1",
    "name": "Altstadt Nord",
    "state_id": "ee65d6d8-bfd1-43f2-b528-9d4b9b193273"
  },
  {
    "id": "2deb9fef-9852-47d8-b586-9afb539bde5c",
    "name": "Altstadt Sud",
    "state_id": "ee65d6d8-bfd1-43f2-b528-9d4b9b193273"
  },
  {
    "id": "ab52daeb-29f3-4660-91d5-54f6adff8a06",
    "name": "Anröchte",
    "state_id": "ee65d6d8-bfd1-43f2-b528-9d4b9b193273"
  },
  {
    "id": "c62ddaef-7f5e-4a4f-99b7-67854a64c066",
    "name": "Arnsberg",
    "state_id": "ee65d6d8-bfd1-43f2-b528-9d4b9b193273"
  },
  {
    "id": "fccd6d29-18db-4607-9bf1-0804069bdf58",
    "name": "Ascheberg",
    "state_id": "ee65d6d8-bfd1-43f2-b528-9d4b9b193273"
  },
  {
    "id": "bca107da-d700-47c2-8101-b3c2fcdab630",
    "name": "Attendorn",
    "state_id": "ee65d6d8-bfd1-43f2-b528-9d4b9b193273"
  },
  {
    "id": "6dc260ad-21ab-4c1e-a137-7034ec574e20",
    "name": "Augustdorf",
    "state_id": "ee65d6d8-bfd1-43f2-b528-9d4b9b193273"
  },
  {
    "id": "9aa82a0c-342e-4997-9afb-7c467915f89a",
    "name": "Bad Berleburg",
    "state_id": "ee65d6d8-bfd1-43f2-b528-9d4b9b193273"
  },
  {
    "id": "50980562-f17b-4494-9b6b-d34b43ca9125",
    "name": "Bad Driburg",
    "state_id": "ee65d6d8-bfd1-43f2-b528-9d4b9b193273"
  },
  {
    "id": "b8824216-603b-4b08-a10e-3f0e0b05f942",
    "name": "Bad Fredeburg",
    "state_id": "ee65d6d8-bfd1-43f2-b528-9d4b9b193273"
  },
  {
    "id": "46ad4583-7ed3-4327-8aaa-8d3cb5e0afbe",
    "name": "Bad Holzhausen",
    "state_id": "ee65d6d8-bfd1-43f2-b528-9d4b9b193273"
  },
  {
    "id": "45b38d08-8e2b-4cad-b5b8-fe7ad8a16e06",
    "name": "Bad Honnef",
    "state_id": "ee65d6d8-bfd1-43f2-b528-9d4b9b193273"
  },
  {
    "id": "a06d28fa-1550-42c3-b618-afe39fc7a442",
    "name": "Bad Laasphe",
    "state_id": "ee65d6d8-bfd1-43f2-b528-9d4b9b193273"
  },
  {
    "id": "0ca4392b-a728-43ca-b6ed-c7c75ab9c669",
    "name": "Bad Lippspringe",
    "state_id": "ee65d6d8-bfd1-43f2-b528-9d4b9b193273"
  },
  {
    "id": "7b570638-f8fb-4c07-a639-4241cd320a36",
    "name": "Bad Meinberg",
    "state_id": "ee65d6d8-bfd1-43f2-b528-9d4b9b193273"
  },
  {
    "id": "93a2df63-6cc6-405c-ba8f-5f11b5147b5c",
    "name": "Bad Münstereifel",
    "state_id": "ee65d6d8-bfd1-43f2-b528-9d4b9b193273"
  },
  {
    "id": "123f9dcb-fea0-4a0c-a73b-581407d6de96",
    "name": "Bad Oeynhausen",
    "state_id": "ee65d6d8-bfd1-43f2-b528-9d4b9b193273"
  },
  {
    "id": "0204285f-1190-49b1-ad2d-3c9440ee0d2e",
    "name": "Bad Salzuflen",
    "state_id": "ee65d6d8-bfd1-43f2-b528-9d4b9b193273"
  },
  {
    "id": "54e57914-5346-4940-89f3-f0d43649d77f",
    "name": "Bad Sassendorf",
    "state_id": "ee65d6d8-bfd1-43f2-b528-9d4b9b193273"
  },
  {
    "id": "31261d5f-7ac5-47c0-b205-007333ea7a51",
    "name": "Baesweiler",
    "state_id": "ee65d6d8-bfd1-43f2-b528-9d4b9b193273"
  },
  {
    "id": "5f0da1b9-f9be-4ace-b81c-8fbd5c83af07",
    "name": "Balve",
    "state_id": "ee65d6d8-bfd1-43f2-b528-9d4b9b193273"
  },
  {
    "id": "1e44761a-48c9-4384-b1eb-1ad2d3c3c7a0",
    "name": "Bamenohl",
    "state_id": "ee65d6d8-bfd1-43f2-b528-9d4b9b193273"
  },
  {
    "id": "751380d1-62cd-4e8e-a8c9-5333c2040738",
    "name": "Barntrup",
    "state_id": "ee65d6d8-bfd1-43f2-b528-9d4b9b193273"
  },
  {
    "id": "a4470bad-5f77-42de-8b2b-d2da94473b59",
    "name": "Bayenthal",
    "state_id": "ee65d6d8-bfd1-43f2-b528-9d4b9b193273"
  },
  {
    "id": "c934c33b-b818-475f-addc-39576ee3a0c5",
    "name": "Beckum",
    "state_id": "ee65d6d8-bfd1-43f2-b528-9d4b9b193273"
  },
  {
    "id": "8a72cac6-a802-4d72-acf5-56a5e9fab372",
    "name": "Bedburg",
    "state_id": "ee65d6d8-bfd1-43f2-b528-9d4b9b193273"
  },
  {
    "id": "01cebb53-ce27-45e6-99b2-59a8c1e7f928",
    "name": "Beelen",
    "state_id": "ee65d6d8-bfd1-43f2-b528-9d4b9b193273"
  },
  {
    "id": "46cbef26-d668-4f5d-ad71-9c258bfd049d",
    "name": "Bergheim",
    "state_id": "ee65d6d8-bfd1-43f2-b528-9d4b9b193273"
  },
  {
    "id": "5c6a9c9c-d0fe-4ceb-99e5-2b27aef2ba19",
    "name": "Bergisch Gladbach",
    "state_id": "ee65d6d8-bfd1-43f2-b528-9d4b9b193273"
  },
  {
    "id": "3ec4d4ed-1dc4-42da-b6ca-41526b1ddb66",
    "name": "Bergkamen",
    "state_id": "ee65d6d8-bfd1-43f2-b528-9d4b9b193273"
  },
  {
    "id": "f0a479e6-e932-4fe6-84d0-20938792ddc9",
    "name": "Bergneustadt",
    "state_id": "ee65d6d8-bfd1-43f2-b528-9d4b9b193273"
  },
  {
    "id": "26782285-0ddb-4352-879c-ead7eb05394e",
    "name": "Bestwig",
    "state_id": "ee65d6d8-bfd1-43f2-b528-9d4b9b193273"
  },
  {
    "id": "10f4f28b-4d7a-4483-8970-b07096098d11",
    "name": "Beverungen",
    "state_id": "ee65d6d8-bfd1-43f2-b528-9d4b9b193273"
  },
  {
    "id": "f8b00b5d-a98e-4542-acf3-1cd61c3bcbc8",
    "name": "Bielefeld",
    "state_id": "ee65d6d8-bfd1-43f2-b528-9d4b9b193273"
  },
  {
    "id": "850f7bb4-eab1-48fe-8405-3ecda803aa93",
    "name": "Bilderstoeckchen",
    "state_id": "ee65d6d8-bfd1-43f2-b528-9d4b9b193273"
  },
  {
    "id": "e72fcb3b-fe70-4119-a547-a7ebe77c4940",
    "name": "Billerbeck",
    "state_id": "ee65d6d8-bfd1-43f2-b528-9d4b9b193273"
  },
  {
    "id": "baa8e21f-7e03-43ed-a6f8-39b2aaee10f3",
    "name": "Birgte",
    "state_id": "ee65d6d8-bfd1-43f2-b528-9d4b9b193273"
  },
  {
    "id": "66c6307a-9e0f-427c-b1b1-2cc10333d055",
    "name": "Blankenheim",
    "state_id": "ee65d6d8-bfd1-43f2-b528-9d4b9b193273"
  },
  {
    "id": "82f78da9-9624-4ed7-967e-8b1c416c1975",
    "name": "Blomberg",
    "state_id": "ee65d6d8-bfd1-43f2-b528-9d4b9b193273"
  },
  {
    "id": "c49f1b3e-2eec-487a-80d5-3d9698e05f39",
    "name": "Bocholt",
    "state_id": "ee65d6d8-bfd1-43f2-b528-9d4b9b193273"
  },
  {
    "id": "e1586c9c-0dbf-4c12-8b76-54ee49114365",
    "name": "Bochum",
    "state_id": "ee65d6d8-bfd1-43f2-b528-9d4b9b193273"
  },
  {
    "id": "d1d5e00b-9c56-4ae1-8d30-dee06cf56068",
    "name": "Bochum-Hordel",
    "state_id": "ee65d6d8-bfd1-43f2-b528-9d4b9b193273"
  },
  {
    "id": "06ff2a42-6fe6-40a8-a47b-6f8b4a092484",
    "name": "Bönen",
    "state_id": "ee65d6d8-bfd1-43f2-b528-9d4b9b193273"
  },
  {
    "id": "751e8e8b-a928-4726-8a19-78f2511e91e8",
    "name": "Bonn",
    "state_id": "ee65d6d8-bfd1-43f2-b528-9d4b9b193273"
  },
  {
    "id": "9e2baa5d-6cef-4f11-9261-65676edf138c",
    "name": "Borgentreich",
    "state_id": "ee65d6d8-bfd1-43f2-b528-9d4b9b193273"
  },
  {
    "id": "7a5f0b34-12d9-4656-92d0-a60c99361661",
    "name": "Borgholzhausen",
    "state_id": "ee65d6d8-bfd1-43f2-b528-9d4b9b193273"
  },
  {
    "id": "14874565-49f7-468e-b408-ffe62be68e95",
    "name": "Borken",
    "state_id": "ee65d6d8-bfd1-43f2-b528-9d4b9b193273"
  },
  {
    "id": "87cffe02-4141-4cfd-9fbf-2789eceaa834",
    "name": "Bornheim",
    "state_id": "ee65d6d8-bfd1-43f2-b528-9d4b9b193273"
  },
  {
    "id": "4999f243-3e1e-4a34-b181-42ebfa3385bf",
    "name": "Bottrop",
    "state_id": "ee65d6d8-bfd1-43f2-b528-9d4b9b193273"
  },
  {
    "id": "b715df40-9aab-4d6a-b8df-7876896c1739",
    "name": "Brakel",
    "state_id": "ee65d6d8-bfd1-43f2-b528-9d4b9b193273"
  },
  {
    "id": "017c021f-d812-4b2e-8286-2cf65a595b08",
    "name": "Breckerfeld",
    "state_id": "ee65d6d8-bfd1-43f2-b528-9d4b9b193273"
  },
  {
    "id": "4d01478e-1f76-41bd-930b-cf9f6dda763a",
    "name": "Brilon",
    "state_id": "ee65d6d8-bfd1-43f2-b528-9d4b9b193273"
  },
  {
    "id": "17af93e8-0d1f-468f-bb9a-7dbdb4780549",
    "name": "Brüggen",
    "state_id": "ee65d6d8-bfd1-43f2-b528-9d4b9b193273"
  },
  {
    "id": "7bf2e0af-b9ec-4e68-b6ca-3fa3e078c6b9",
    "name": "Brühl",
    "state_id": "ee65d6d8-bfd1-43f2-b528-9d4b9b193273"
  },
  {
    "id": "255d3f09-0045-46ec-b602-b776d8e07b8c",
    "name": "Buchforst",
    "state_id": "ee65d6d8-bfd1-43f2-b528-9d4b9b193273"
  },
  {
    "id": "9464f666-c30c-4512-814d-937d75099dfe",
    "name": "Buchheim",
    "state_id": "ee65d6d8-bfd1-43f2-b528-9d4b9b193273"
  },
  {
    "id": "77a1d44e-e141-46aa-86e9-ea9e47eb0357",
    "name": "Bünde",
    "state_id": "ee65d6d8-bfd1-43f2-b528-9d4b9b193273"
  },
  {
    "id": "ee657613-c623-4ffc-8bb1-62a219c8cbf0",
    "name": "Burbach",
    "state_id": "ee65d6d8-bfd1-43f2-b528-9d4b9b193273"
  },
  {
    "id": "0de0ca82-17e4-4ee5-922a-2c182a99404b",
    "name": "Büren",
    "state_id": "ee65d6d8-bfd1-43f2-b528-9d4b9b193273"
  },
  {
    "id": "d60cdcd5-054c-478b-85af-cc4e4b5e692e",
    "name": "Burscheid",
    "state_id": "ee65d6d8-bfd1-43f2-b528-9d4b9b193273"
  },
  {
    "id": "54b9eea7-d819-4dbb-b37e-32ebf2b4dd90",
    "name": "Castrop-Rauxel",
    "state_id": "ee65d6d8-bfd1-43f2-b528-9d4b9b193273"
  },
  {
    "id": "e800199b-f702-4d94-b550-cd9210d049e2",
    "name": "Coesfeld",
    "state_id": "ee65d6d8-bfd1-43f2-b528-9d4b9b193273"
  },
  {
    "id": "7ad61d64-d616-42e3-a973-fd50cf7a72a5",
    "name": "Dahlem",
    "state_id": "ee65d6d8-bfd1-43f2-b528-9d4b9b193273"
  },
  {
    "id": "3dee33ca-ee86-4a0b-9084-9be659742fc4",
    "name": "Datteln",
    "state_id": "ee65d6d8-bfd1-43f2-b528-9d4b9b193273"
  },
  {
    "id": "891689c6-6184-446d-af22-c01079fcc8a5",
    "name": "Delbrück",
    "state_id": "ee65d6d8-bfd1-43f2-b528-9d4b9b193273"
  },
  {
    "id": "fae68761-01cb-414a-b804-0907884d536b",
    "name": "Detmold",
    "state_id": "ee65d6d8-bfd1-43f2-b528-9d4b9b193273"
  },
  {
    "id": "a92a02ee-d7fc-4270-81db-01ab9a2fd3f2",
    "name": "Deutz",
    "state_id": "ee65d6d8-bfd1-43f2-b528-9d4b9b193273"
  },
  {
    "id": "0e260fb3-346a-46e2-8385-f05fcd785a1e",
    "name": "Dinslaken",
    "state_id": "ee65d6d8-bfd1-43f2-b528-9d4b9b193273"
  },
  {
    "id": "3a9c3dea-d800-442a-bd08-c0182696b1c7",
    "name": "Dörentrup",
    "state_id": "ee65d6d8-bfd1-43f2-b528-9d4b9b193273"
  },
  {
    "id": "649abe5c-63ce-4681-8d6b-48f970a4202b",
    "name": "Dormagen",
    "state_id": "ee65d6d8-bfd1-43f2-b528-9d4b9b193273"
  },
  {
    "id": "acc45c67-7a2e-41ba-90b9-b69bea06f9b0",
    "name": "Dorsten",
    "state_id": "ee65d6d8-bfd1-43f2-b528-9d4b9b193273"
  },
  {
    "id": "434f2979-081e-41cb-9c14-bb95d7c5109c",
    "name": "Dortmund",
    "state_id": "ee65d6d8-bfd1-43f2-b528-9d4b9b193273"
  },
  {
    "id": "210549a4-583b-404e-bbdf-d412a9e3e06f",
    "name": "Dreierwalde",
    "state_id": "ee65d6d8-bfd1-43f2-b528-9d4b9b193273"
  },
  {
    "id": "4a727c13-4037-4591-904e-92b0fce251bd",
    "name": "Drensteinfurt",
    "state_id": "ee65d6d8-bfd1-43f2-b528-9d4b9b193273"
  },
  {
    "id": "a67b3366-03c7-4691-9279-5f62aceb0ecd",
    "name": "Drolshagen",
    "state_id": "ee65d6d8-bfd1-43f2-b528-9d4b9b193273"
  },
  {
    "id": "2358072a-8fcd-421a-a29e-d60ff50f16e2",
    "name": "Duisburg",
    "state_id": "ee65d6d8-bfd1-43f2-b528-9d4b9b193273"
  },
  {
    "id": "8b8db99e-92aa-4ebe-9c56-62d8f875dc17",
    "name": "Dülmen",
    "state_id": "ee65d6d8-bfd1-43f2-b528-9d4b9b193273"
  },
  {
    "id": "91ba8564-4402-48f3-89d3-5850d4479a52",
    "name": "Düren",
    "state_id": "ee65d6d8-bfd1-43f2-b528-9d4b9b193273"
  },
  {
    "id": "ebd19c97-e4ca-4285-a0d8-e7a4baa73b44",
    "name": "Düsseldorf",
    "state_id": "ee65d6d8-bfd1-43f2-b528-9d4b9b193273"
  },
  {
    "id": "136a231d-e32c-4eee-893d-5745cde40c12",
    "name": "Düsseldorf District",
    "state_id": "ee65d6d8-bfd1-43f2-b528-9d4b9b193273"
  },
  {
    "id": "c8b56b05-3fc5-4052-abef-d7db4b9f6673",
    "name": "Düsseldorf-Pempelfort",
    "state_id": "ee65d6d8-bfd1-43f2-b528-9d4b9b193273"
  },
  {
    "id": "b8094252-af9a-4703-a64c-1403dadbe905",
    "name": "Eil",
    "state_id": "ee65d6d8-bfd1-43f2-b528-9d4b9b193273"
  },
  {
    "id": "fda42bc3-6304-4c6a-97db-f58895ec5fd1",
    "name": "Eitorf",
    "state_id": "ee65d6d8-bfd1-43f2-b528-9d4b9b193273"
  },
  {
    "id": "f408026e-1ab9-41fc-8a37-697c2419a306",
    "name": "Elsdorf",
    "state_id": "ee65d6d8-bfd1-43f2-b528-9d4b9b193273"
  },
  {
    "id": "83b17446-2a31-487b-ba29-85ceb2429d7e",
    "name": "Emmerich",
    "state_id": "ee65d6d8-bfd1-43f2-b528-9d4b9b193273"
  },
  {
    "id": "ca632711-c065-4749-a26f-4d385a0e885f",
    "name": "Emsdetten",
    "state_id": "ee65d6d8-bfd1-43f2-b528-9d4b9b193273"
  },
  {
    "id": "c30eb6d1-6a1e-4ae4-a09f-0e46e4ef0f75",
    "name": "Engelskirchen",
    "state_id": "ee65d6d8-bfd1-43f2-b528-9d4b9b193273"
  },
  {
    "id": "463c0cf7-2b3e-4ce6-a494-085be76c57cb",
    "name": "Enger",
    "state_id": "ee65d6d8-bfd1-43f2-b528-9d4b9b193273"
  },
  {
    "id": "70503db8-f204-4594-aba0-ddfe2798f855",
    "name": "Ennepetal",
    "state_id": "ee65d6d8-bfd1-43f2-b528-9d4b9b193273"
  },
  {
    "id": "3c1318b5-52c5-48a1-bafe-f375e5da53f5",
    "name": "Ennigerloh",
    "state_id": "ee65d6d8-bfd1-43f2-b528-9d4b9b193273"
  },
  {
    "id": "67a1f638-9b30-48ed-9883-c64b2ab88c82",
    "name": "Erftstadt",
    "state_id": "ee65d6d8-bfd1-43f2-b528-9d4b9b193273"
  },
  {
    "id": "a9a3ca11-b9bf-4e76-840e-77a84c24ae16",
    "name": "Erkelenz",
    "state_id": "ee65d6d8-bfd1-43f2-b528-9d4b9b193273"
  },
  {
    "id": "29a342c2-88f7-4f04-8bb0-0edb78facb06",
    "name": "Erkrath",
    "state_id": "ee65d6d8-bfd1-43f2-b528-9d4b9b193273"
  },
  {
    "id": "9353c6c4-f268-4a86-8214-af5065f7ddd0",
    "name": "Erndtebrück",
    "state_id": "ee65d6d8-bfd1-43f2-b528-9d4b9b193273"
  },
  {
    "id": "457f29ec-c067-414f-a5e1-32c084187d36",
    "name": "Erwitte",
    "state_id": "ee65d6d8-bfd1-43f2-b528-9d4b9b193273"
  },
  {
    "id": "568b6360-b0a6-46d0-9fb5-9a8b417c40ac",
    "name": "Eschweiler",
    "state_id": "ee65d6d8-bfd1-43f2-b528-9d4b9b193273"
  },
  {
    "id": "2031230d-c1c9-481b-8d9a-f2746d78ba10",
    "name": "Eslohe",
    "state_id": "ee65d6d8-bfd1-43f2-b528-9d4b9b193273"
  },
  {
    "id": "d0e84afa-288d-48f0-9bd6-a24620b6bc3b",
    "name": "Espelkamp",
    "state_id": "ee65d6d8-bfd1-43f2-b528-9d4b9b193273"
  },
  {
    "id": "303f3256-8ad0-411c-b0e6-c87774c5270a",
    "name": "Essen",
    "state_id": "ee65d6d8-bfd1-43f2-b528-9d4b9b193273"
  },
  {
    "id": "7824da58-c4d0-4b88-90be-268b8373b57a",
    "name": "Euskirchen",
    "state_id": "ee65d6d8-bfd1-43f2-b528-9d4b9b193273"
  },
  {
    "id": "904ecd1f-ab2f-4ddd-ab19-56313de9e287",
    "name": "Everswinkel",
    "state_id": "ee65d6d8-bfd1-43f2-b528-9d4b9b193273"
  },
  {
    "id": "dbd4f6e8-44ae-4178-b923-de20875c23c0",
    "name": "Finnentrop",
    "state_id": "ee65d6d8-bfd1-43f2-b528-9d4b9b193273"
  },
  {
    "id": "61091aa8-0f6c-4fac-a4de-514c2d83d1dd",
    "name": "Frechen",
    "state_id": "ee65d6d8-bfd1-43f2-b528-9d4b9b193273"
  },
  {
    "id": "cb7664d6-ceb6-4577-86ee-a570c13d1cb1",
    "name": "Freudenberg",
    "state_id": "ee65d6d8-bfd1-43f2-b528-9d4b9b193273"
  },
  {
    "id": "61a770f6-a3b0-4956-b61f-f77c7162b270",
    "name": "Fröndenberg",
    "state_id": "ee65d6d8-bfd1-43f2-b528-9d4b9b193273"
  },
  {
    "id": "7728c82e-16cc-467f-8a88-d232c6b131a7",
    "name": "Gangelt",
    "state_id": "ee65d6d8-bfd1-43f2-b528-9d4b9b193273"
  },
  {
    "id": "7285576a-7efb-4d33-874b-d647e3bb08df",
    "name": "Geilenkirchen",
    "state_id": "ee65d6d8-bfd1-43f2-b528-9d4b9b193273"
  },
  {
    "id": "a8d55114-d89a-4531-95d6-fd89de9c0560",
    "name": "Geldern",
    "state_id": "ee65d6d8-bfd1-43f2-b528-9d4b9b193273"
  },
  {
    "id": "78deafe8-d5f2-4e00-a593-acb998777d69",
    "name": "Gelsenkirchen",
    "state_id": "ee65d6d8-bfd1-43f2-b528-9d4b9b193273"
  },
  {
    "id": "6dc618d6-e242-453b-ad9b-a51071ee4f94",
    "name": "Gescher",
    "state_id": "ee65d6d8-bfd1-43f2-b528-9d4b9b193273"
  },
  {
    "id": "70cb68e3-0419-444f-9cdf-ddc661f0fc84",
    "name": "Geseke",
    "state_id": "ee65d6d8-bfd1-43f2-b528-9d4b9b193273"
  },
  {
    "id": "5ef4eec7-5d91-4e64-952e-351f83b14918",
    "name": "Gevelsberg",
    "state_id": "ee65d6d8-bfd1-43f2-b528-9d4b9b193273"
  },
  {
    "id": "90914910-ea58-497e-8cde-6cb449c67c05",
    "name": "Gladbeck",
    "state_id": "ee65d6d8-bfd1-43f2-b528-9d4b9b193273"
  },
  {
    "id": "5a4ebce5-40e6-4a6d-9d96-845372b85175",
    "name": "Goch",
    "state_id": "ee65d6d8-bfd1-43f2-b528-9d4b9b193273"
  },
  {
    "id": "c501491e-62ca-4d38-8e76-e2094b7a20e7",
    "name": "Grefrath",
    "state_id": "ee65d6d8-bfd1-43f2-b528-9d4b9b193273"
  },
  {
    "id": "5719050b-e1a2-47a4-8b16-b691683a69c7",
    "name": "Gremberghoven",
    "state_id": "ee65d6d8-bfd1-43f2-b528-9d4b9b193273"
  },
  {
    "id": "8e178875-1dc1-4286-af0b-410c65031cae",
    "name": "Greven",
    "state_id": "ee65d6d8-bfd1-43f2-b528-9d4b9b193273"
  },
  {
    "id": "822467c6-64d0-4a41-8064-aadc73b55fa7",
    "name": "Grevenbroich",
    "state_id": "ee65d6d8-bfd1-43f2-b528-9d4b9b193273"
  },
  {
    "id": "7f6c29c6-b86b-4419-a5b7-1426a45eda4f",
    "name": "Gronau",
    "state_id": "ee65d6d8-bfd1-43f2-b528-9d4b9b193273"
  },
  {
    "id": "7fed19fa-92a2-4ee7-ae0d-7d20c1ac9a1a",
    "name": "Gummersbach",
    "state_id": "ee65d6d8-bfd1-43f2-b528-9d4b9b193273"
  },
  {
    "id": "851f3889-2de9-4487-a7b7-40bca68a419b",
    "name": "Gütersloh",
    "state_id": "ee65d6d8-bfd1-43f2-b528-9d4b9b193273"
  },
  {
    "id": "b5bede15-342c-432b-b014-9700cc7058ff",
    "name": "Haan",
    "state_id": "ee65d6d8-bfd1-43f2-b528-9d4b9b193273"
  },
  {
    "id": "05b425d6-0bb7-4534-a2c8-a4f195b675ef",
    "name": "Hagen",
    "state_id": "ee65d6d8-bfd1-43f2-b528-9d4b9b193273"
  },
  {
    "id": "6538d00b-01df-41c4-904d-6656c3d35715",
    "name": "Halle",
    "state_id": "ee65d6d8-bfd1-43f2-b528-9d4b9b193273"
  },
  {
    "id": "5fcc2f6a-cc8c-476b-ae3e-523e319ad3e2",
    "name": "Hallenberg",
    "state_id": "ee65d6d8-bfd1-43f2-b528-9d4b9b193273"
  },
  {
    "id": "ac981312-e345-4886-9098-b67b9a53ea2e",
    "name": "Haltern am See",
    "state_id": "ee65d6d8-bfd1-43f2-b528-9d4b9b193273"
  },
  {
    "id": "601896fe-d773-4923-b6e2-9ad1e47a824b",
    "name": "Halver",
    "state_id": "ee65d6d8-bfd1-43f2-b528-9d4b9b193273"
  },
  {
    "id": "61e05287-456d-44f8-9344-6e2860eb6e1d",
    "name": "Hamm",
    "state_id": "ee65d6d8-bfd1-43f2-b528-9d4b9b193273"
  },
  {
    "id": "26655fbf-978d-4322-ac36-555cebf84738",
    "name": "Hamminkeln",
    "state_id": "ee65d6d8-bfd1-43f2-b528-9d4b9b193273"
  },
  {
    "id": "9ef82ebb-3f6a-44c3-a93f-6b9f163d5805",
    "name": "Harsewinkel",
    "state_id": "ee65d6d8-bfd1-43f2-b528-9d4b9b193273"
  },
  {
    "id": "ba22fa4a-72a4-46a1-be12-da94b5028099",
    "name": "Hattingen",
    "state_id": "ee65d6d8-bfd1-43f2-b528-9d4b9b193273"
  },
  {
    "id": "13963ea5-1c07-4ad1-b2c3-9e28b0626b85",
    "name": "Havixbeck",
    "state_id": "ee65d6d8-bfd1-43f2-b528-9d4b9b193273"
  },
  {
    "id": "2a06deef-b6ca-47db-9d7f-b610f9dec503",
    "name": "Heek",
    "state_id": "ee65d6d8-bfd1-43f2-b528-9d4b9b193273"
  },
  {
    "id": "db8dcead-f66d-43a0-8d5a-a0aa74fc0abb",
    "name": "Heiden",
    "state_id": "ee65d6d8-bfd1-43f2-b528-9d4b9b193273"
  },
  {
    "id": "f756e262-b224-4ea7-860c-7657a44eb27f",
    "name": "Heiligenhaus",
    "state_id": "ee65d6d8-bfd1-43f2-b528-9d4b9b193273"
  },
  {
    "id": "af29e267-087d-4ab0-8f47-60cf3a19ec77",
    "name": "Heimbach",
    "state_id": "ee65d6d8-bfd1-43f2-b528-9d4b9b193273"
  },
  {
    "id": "f48d0420-5208-4287-a371-a74f5375adeb",
    "name": "Heinsberg",
    "state_id": "ee65d6d8-bfd1-43f2-b528-9d4b9b193273"
  },
  {
    "id": "2a093a7a-9fbc-448d-9585-23d749b57389",
    "name": "Hellenthal",
    "state_id": "ee65d6d8-bfd1-43f2-b528-9d4b9b193273"
  },
  {
    "id": "1992621d-ca02-4862-94ea-abb240ba63a9",
    "name": "Hemer",
    "state_id": "ee65d6d8-bfd1-43f2-b528-9d4b9b193273"
  },
  {
    "id": "a84050c5-5c16-45a8-a633-603b60b741ae",
    "name": "Hennef",
    "state_id": "ee65d6d8-bfd1-43f2-b528-9d4b9b193273"
  },
  {
    "id": "db89cb28-4b90-4a5b-9562-d281a18dd0a5",
    "name": "Herdecke",
    "state_id": "ee65d6d8-bfd1-43f2-b528-9d4b9b193273"
  },
  {
    "id": "81cca963-80cd-4127-90ba-a3bcce7c0c9c",
    "name": "Herford",
    "state_id": "ee65d6d8-bfd1-43f2-b528-9d4b9b193273"
  },
  {
    "id": "d05f9e38-2ba6-4cd8-b9d3-1031d875afca",
    "name": "Herne",
    "state_id": "ee65d6d8-bfd1-43f2-b528-9d4b9b193273"
  },
  {
    "id": "be4a5869-99ff-4ff9-b9a1-3905c2031043",
    "name": "Herscheid",
    "state_id": "ee65d6d8-bfd1-43f2-b528-9d4b9b193273"
  },
  {
    "id": "31f08327-7b95-4511-8844-ce2e0e89d60d",
    "name": "Herten",
    "state_id": "ee65d6d8-bfd1-43f2-b528-9d4b9b193273"
  },
  {
    "id": "a101ba4a-d251-4588-8cda-d802fedf6bd1",
    "name": "Herzogenrath",
    "state_id": "ee65d6d8-bfd1-43f2-b528-9d4b9b193273"
  },
  {
    "id": "5f3c8466-44a5-4aa2-ae95-cdedb189eedb",
    "name": "Hiddenhausen",
    "state_id": "ee65d6d8-bfd1-43f2-b528-9d4b9b193273"
  },
  {
    "id": "a5fa3416-b81f-4dac-bd39-f302a529c356",
    "name": "Hilchenbach",
    "state_id": "ee65d6d8-bfd1-43f2-b528-9d4b9b193273"
  },
  {
    "id": "1c5d3668-8ec1-4122-815f-a664a194c458",
    "name": "Hilden",
    "state_id": "ee65d6d8-bfd1-43f2-b528-9d4b9b193273"
  },
  {
    "id": "a99121f4-3ad6-4431-bdaa-881afb576d9c",
    "name": "Hille",
    "state_id": "ee65d6d8-bfd1-43f2-b528-9d4b9b193273"
  },
  {
    "id": "884ee582-7356-4b63-8ceb-33a119a59d11",
    "name": "Hochfeld",
    "state_id": "ee65d6d8-bfd1-43f2-b528-9d4b9b193273"
  },
  {
    "id": "1836ce5e-7ae8-44ad-a72d-7ee636d47352",
    "name": "Höhenberg",
    "state_id": "ee65d6d8-bfd1-43f2-b528-9d4b9b193273"
  },
  {
    "id": "dbe6f84d-ae9c-4523-9e58-3ed4bf0ab99c",
    "name": "Holzwickede",
    "state_id": "ee65d6d8-bfd1-43f2-b528-9d4b9b193273"
  },
  {
    "id": "7f63aa20-d499-413e-bf9a-e44befe20386",
    "name": "Hordel",
    "state_id": "ee65d6d8-bfd1-43f2-b528-9d4b9b193273"
  },
  {
    "id": "d511bb27-84a4-48d8-ba3a-6d0ef47b17e6",
    "name": "Horn",
    "state_id": "ee65d6d8-bfd1-43f2-b528-9d4b9b193273"
  },
  {
    "id": "2b21b57b-058f-4f4b-b547-a8fec528a350",
    "name": "Hörstel",
    "state_id": "ee65d6d8-bfd1-43f2-b528-9d4b9b193273"
  },
  {
    "id": "63ba8ea2-8961-4cd4-8137-1fefe97249e7",
    "name": "Horstmar",
    "state_id": "ee65d6d8-bfd1-43f2-b528-9d4b9b193273"
  },
  {
    "id": "e171d47f-2caf-45b3-95a9-8b247279eb4a",
    "name": "Hövelhof",
    "state_id": "ee65d6d8-bfd1-43f2-b528-9d4b9b193273"
  },
  {
    "id": "a7fce8b3-6473-4753-8408-cdc9dbfe6208",
    "name": "Höxter",
    "state_id": "ee65d6d8-bfd1-43f2-b528-9d4b9b193273"
  },
  {
    "id": "f1f4c777-634b-4282-8c3f-6b41509bd35e",
    "name": "Hückelhoven",
    "state_id": "ee65d6d8-bfd1-43f2-b528-9d4b9b193273"
  },
  {
    "id": "5eebee2c-fd18-4f74-9bdd-46e898347254",
    "name": "Hückeswagen",
    "state_id": "ee65d6d8-bfd1-43f2-b528-9d4b9b193273"
  },
  {
    "id": "5799a77a-84c1-40f2-8f4a-0a93e0763424",
    "name": "Hüllhorst",
    "state_id": "ee65d6d8-bfd1-43f2-b528-9d4b9b193273"
  },
  {
    "id": "3eec475d-a226-4d55-bf87-9e04495a904a",
    "name": "Humboldtkolonie",
    "state_id": "ee65d6d8-bfd1-43f2-b528-9d4b9b193273"
  },
  {
    "id": "e0d0cddc-eb8b-448f-bb76-d24d83081d4c",
    "name": "Hünxe",
    "state_id": "ee65d6d8-bfd1-43f2-b528-9d4b9b193273"
  },
  {
    "id": "c1c24914-72e1-49fc-936e-1198aa3f59ea",
    "name": "Hürtgenwald",
    "state_id": "ee65d6d8-bfd1-43f2-b528-9d4b9b193273"
  },
  {
    "id": "a4849044-1829-4c94-97be-1613a1f2d04d",
    "name": "Hürth",
    "state_id": "ee65d6d8-bfd1-43f2-b528-9d4b9b193273"
  },
  {
    "id": "70d9b1a3-b621-485c-8281-9168fb296238",
    "name": "Ibbenbüren",
    "state_id": "ee65d6d8-bfd1-43f2-b528-9d4b9b193273"
  },
  {
    "id": "934fa3c6-ac56-4add-93e4-19e9078a29f5",
    "name": "Inden",
    "state_id": "ee65d6d8-bfd1-43f2-b528-9d4b9b193273"
  },
  {
    "id": "e5274e13-4338-41fb-bec6-ec4c2e1b23b4",
    "name": "Iserlohn",
    "state_id": "ee65d6d8-bfd1-43f2-b528-9d4b9b193273"
  },
  {
    "id": "dcb94c7e-936b-4927-90ca-919797030173",
    "name": "Isselburg",
    "state_id": "ee65d6d8-bfd1-43f2-b528-9d4b9b193273"
  },
  {
    "id": "eb412481-d5ce-4c61-9a7c-1afab6a7d65a",
    "name": "Issum",
    "state_id": "ee65d6d8-bfd1-43f2-b528-9d4b9b193273"
  },
  {
    "id": "b02b542e-3de7-4970-9837-5f1c975a8680",
    "name": "Jüchen",
    "state_id": "ee65d6d8-bfd1-43f2-b528-9d4b9b193273"
  },
  {
    "id": "f306c9c6-de6d-4d95-9806-631a1a5ed48d",
    "name": "Jülich",
    "state_id": "ee65d6d8-bfd1-43f2-b528-9d4b9b193273"
  },
  {
    "id": "9085fdbd-efc1-4595-a59d-5ec58b73d7ae",
    "name": "Kaarst",
    "state_id": "ee65d6d8-bfd1-43f2-b528-9d4b9b193273"
  },
  {
    "id": "f362a32b-65a4-4c18-b712-341152e76002",
    "name": "Kalk",
    "state_id": "ee65d6d8-bfd1-43f2-b528-9d4b9b193273"
  },
  {
    "id": "91f72a34-f689-4f5d-b027-0e828ac18514",
    "name": "Kalkar",
    "state_id": "ee65d6d8-bfd1-43f2-b528-9d4b9b193273"
  },
  {
    "id": "4cbb3c84-ce71-42b9-890f-c07f0e80d4a8",
    "name": "Kall",
    "state_id": "ee65d6d8-bfd1-43f2-b528-9d4b9b193273"
  },
  {
    "id": "895f0aea-98d2-41fc-9af8-4385ed41f95b",
    "name": "Kamen",
    "state_id": "ee65d6d8-bfd1-43f2-b528-9d4b9b193273"
  },
  {
    "id": "f9ba127c-a478-493a-9692-fb0c4fea9977",
    "name": "Kamp-Lintfort",
    "state_id": "ee65d6d8-bfd1-43f2-b528-9d4b9b193273"
  },
  {
    "id": "2b875d2d-c2c6-451f-a685-0e9becebceaf",
    "name": "Kempen",
    "state_id": "ee65d6d8-bfd1-43f2-b528-9d4b9b193273"
  },
  {
    "id": "257e57ab-ce0c-479c-960c-6a52710a974c",
    "name": "Kerpen",
    "state_id": "ee65d6d8-bfd1-43f2-b528-9d4b9b193273"
  },
  {
    "id": "3e92d119-6eea-4f3b-b060-2db73b7214e8",
    "name": "Kevelaer",
    "state_id": "ee65d6d8-bfd1-43f2-b528-9d4b9b193273"
  },
  {
    "id": "8ae1aba2-650f-49e3-8bc1-8a6d355ca22c",
    "name": "Kierspe",
    "state_id": "ee65d6d8-bfd1-43f2-b528-9d4b9b193273"
  },
  {
    "id": "a0c42894-be57-45a1-836f-1f36474be8d3",
    "name": "Kirchhundem",
    "state_id": "ee65d6d8-bfd1-43f2-b528-9d4b9b193273"
  },
  {
    "id": "603613e4-abe8-425e-9a47-805e2296dc88",
    "name": "Kirchlengern",
    "state_id": "ee65d6d8-bfd1-43f2-b528-9d4b9b193273"
  },
  {
    "id": "9d2c8bb7-6e62-4c61-a2e5-8ebe750c451e",
    "name": "Klein Reken",
    "state_id": "ee65d6d8-bfd1-43f2-b528-9d4b9b193273"
  },
  {
    "id": "ef28707c-1cfa-4c3a-8593-1c33eac109f3",
    "name": "Kleve",
    "state_id": "ee65d6d8-bfd1-43f2-b528-9d4b9b193273"
  },
  {
    "id": "7592a0cd-c4ab-42a4-841d-65ea68c8a45b",
    "name": "Köln",
    "state_id": "ee65d6d8-bfd1-43f2-b528-9d4b9b193273"
  },
  {
    "id": "b284ccab-c28e-4415-a6d3-189edf927191",
    "name": "Königswinter",
    "state_id": "ee65d6d8-bfd1-43f2-b528-9d4b9b193273"
  },
  {
    "id": "162521d3-253e-400c-a0c3-511e910e6460",
    "name": "Korschenbroich",
    "state_id": "ee65d6d8-bfd1-43f2-b528-9d4b9b193273"
  },
  {
    "id": "54125b26-ebb4-4869-b017-a95f703d7c6e",
    "name": "Kranenburg",
    "state_id": "ee65d6d8-bfd1-43f2-b528-9d4b9b193273"
  },
  {
    "id": "689a4772-2f13-4ec0-a620-81fbcd7227ea",
    "name": "Krefeld",
    "state_id": "ee65d6d8-bfd1-43f2-b528-9d4b9b193273"
  },
  {
    "id": "c2cef0a7-c68e-492a-99d5-4141d43e6eb3",
    "name": "Kreuzau",
    "state_id": "ee65d6d8-bfd1-43f2-b528-9d4b9b193273"
  },
  {
    "id": "d9e36082-e5f3-4cf3-a708-399cbd36abf0",
    "name": "Kreuztal",
    "state_id": "ee65d6d8-bfd1-43f2-b528-9d4b9b193273"
  },
  {
    "id": "be68d0e7-608f-4f35-97f0-6160dd481a9e",
    "name": "Kürten",
    "state_id": "ee65d6d8-bfd1-43f2-b528-9d4b9b193273"
  },
  {
    "id": "08da42ac-4994-4313-8baf-b0458ef04613",
    "name": "Ladbergen",
    "state_id": "ee65d6d8-bfd1-43f2-b528-9d4b9b193273"
  },
  {
    "id": "468a57ad-6303-4653-9879-313709d761ce",
    "name": "Laer",
    "state_id": "ee65d6d8-bfd1-43f2-b528-9d4b9b193273"
  },
  {
    "id": "0b96f815-f668-4ac7-ae08-09344f12bed5",
    "name": "Lage",
    "state_id": "ee65d6d8-bfd1-43f2-b528-9d4b9b193273"
  },
  {
    "id": "f3d83804-954f-4b16-831f-beeea43463f3",
    "name": "Langenberg",
    "state_id": "ee65d6d8-bfd1-43f2-b528-9d4b9b193273"
  },
  {
    "id": "5cf24565-30ba-4499-b229-923f6ba6c04b",
    "name": "Langenfeld",
    "state_id": "ee65d6d8-bfd1-43f2-b528-9d4b9b193273"
  },
  {
    "id": "541e4fc9-ab99-4d1a-868e-3a02e0613daf",
    "name": "Langerwehe",
    "state_id": "ee65d6d8-bfd1-43f2-b528-9d4b9b193273"
  },
  {
    "id": "1c9a51d9-48e8-43bb-90e5-dedd4eb8c0de",
    "name": "Lanstrop",
    "state_id": "ee65d6d8-bfd1-43f2-b528-9d4b9b193273"
  },
  {
    "id": "b06fb770-7c99-4b97-90ff-affde27285a8",
    "name": "Legden",
    "state_id": "ee65d6d8-bfd1-43f2-b528-9d4b9b193273"
  },
  {
    "id": "f70190ee-3d19-4fb2-a697-8d7d0ea50c83",
    "name": "Leichlingen",
    "state_id": "ee65d6d8-bfd1-43f2-b528-9d4b9b193273"
  },
  {
    "id": "e2e5b40b-939e-4c23-a4ee-2736c79d37cb",
    "name": "Lemgo",
    "state_id": "ee65d6d8-bfd1-43f2-b528-9d4b9b193273"
  },
  {
    "id": "802e2dd0-6e3d-4f12-b62c-04ba04125dc0",
    "name": "Lengerich",
    "state_id": "ee65d6d8-bfd1-43f2-b528-9d4b9b193273"
  },
  {
    "id": "0473f832-4110-4950-a5ad-8cd6725bdbf8",
    "name": "Lennestadt",
    "state_id": "ee65d6d8-bfd1-43f2-b528-9d4b9b193273"
  },
  {
    "id": "4d2c70cc-4026-4e5a-8dbe-0b51ac70253f",
    "name": "Leopoldshöhe",
    "state_id": "ee65d6d8-bfd1-43f2-b528-9d4b9b193273"
  },
  {
    "id": "a4e696ea-bf2f-43f0-9391-230dcafc20e1",
    "name": "Leverkusen",
    "state_id": "ee65d6d8-bfd1-43f2-b528-9d4b9b193273"
  },
  {
    "id": "e4a8265a-2824-448d-b4a8-6847b6fa7a52",
    "name": "Lichtenau",
    "state_id": "ee65d6d8-bfd1-43f2-b528-9d4b9b193273"
  },
  {
    "id": "9a6baf21-97f0-4d18-84ea-872c17381c7e",
    "name": "Lienen",
    "state_id": "ee65d6d8-bfd1-43f2-b528-9d4b9b193273"
  },
  {
    "id": "f7c7d5f4-b5e5-4418-a57e-d8f452a9af96",
    "name": "Lindlar",
    "state_id": "ee65d6d8-bfd1-43f2-b528-9d4b9b193273"
  },
  {
    "id": "41157092-a578-4437-9b89-4a9c1c390724",
    "name": "Linnich",
    "state_id": "ee65d6d8-bfd1-43f2-b528-9d4b9b193273"
  },
  {
    "id": "e795cc59-2c18-4ed0-a1ba-de766c3951d2",
    "name": "Lippstadt",
    "state_id": "ee65d6d8-bfd1-43f2-b528-9d4b9b193273"
  },
  {
    "id": "bc24d1cb-b8e1-4b53-8daa-6d34d317f415",
    "name": "Lohmar",
    "state_id": "ee65d6d8-bfd1-43f2-b528-9d4b9b193273"
  },
  {
    "id": "49674bc3-2703-4ec3-8842-347bf643e4ee",
    "name": "Löhne",
    "state_id": "ee65d6d8-bfd1-43f2-b528-9d4b9b193273"
  },
  {
    "id": "45c70529-bfb1-4d0f-bb8e-0782711a686a",
    "name": "Lotte",
    "state_id": "ee65d6d8-bfd1-43f2-b528-9d4b9b193273"
  },
  {
    "id": "948bf8d6-6a51-46fe-9d93-1ac81d28ebe9",
    "name": "Lübbecke",
    "state_id": "ee65d6d8-bfd1-43f2-b528-9d4b9b193273"
  },
  {
    "id": "e59b0225-f6b0-46f0-a18f-830919f1525c",
    "name": "Lüdenscheid",
    "state_id": "ee65d6d8-bfd1-43f2-b528-9d4b9b193273"
  },
  {
    "id": "776b0e65-e4fb-49c0-aaaa-8aac76e17368",
    "name": "Lüdinghausen",
    "state_id": "ee65d6d8-bfd1-43f2-b528-9d4b9b193273"
  },
  {
    "id": "64fbd918-7601-4958-9219-0149cb5ec94b",
    "name": "Lügde",
    "state_id": "ee65d6d8-bfd1-43f2-b528-9d4b9b193273"
  },
  {
    "id": "697346b1-85a2-48f1-8393-42d6d6ccfd28",
    "name": "Lünen",
    "state_id": "ee65d6d8-bfd1-43f2-b528-9d4b9b193273"
  },
  {
    "id": "4aab852b-c9dd-486d-a2c4-0a0098040484",
    "name": "Marienheide",
    "state_id": "ee65d6d8-bfd1-43f2-b528-9d4b9b193273"
  },
  {
    "id": "256d4a0f-3d3e-41ec-bb69-bc6cf9e9f49e",
    "name": "Marl",
    "state_id": "ee65d6d8-bfd1-43f2-b528-9d4b9b193273"
  },
  {
    "id": "79a0ac9c-3b15-4d3d-b6fc-958a5de47bbd",
    "name": "Marsberg",
    "state_id": "ee65d6d8-bfd1-43f2-b528-9d4b9b193273"
  },
  {
    "id": "244520b0-b98f-4073-959a-388edffecf8a",
    "name": "Mechernich",
    "state_id": "ee65d6d8-bfd1-43f2-b528-9d4b9b193273"
  },
  {
    "id": "346a1989-3c6b-499b-a5df-b5083b9017c0",
    "name": "Meckenheim",
    "state_id": "ee65d6d8-bfd1-43f2-b528-9d4b9b193273"
  },
  {
    "id": "b99b45f7-83ab-4eb9-8354-594f98c10274",
    "name": "Medebach",
    "state_id": "ee65d6d8-bfd1-43f2-b528-9d4b9b193273"
  },
  {
    "id": "b982ec43-a5d5-46c4-91e1-3cec44955991",
    "name": "Meerbusch",
    "state_id": "ee65d6d8-bfd1-43f2-b528-9d4b9b193273"
  },
  {
    "id": "73f19f3e-c3b2-4245-9d7a-0fdcebedfbb4",
    "name": "Mehrhoog",
    "state_id": "ee65d6d8-bfd1-43f2-b528-9d4b9b193273"
  },
  {
    "id": "d972fd08-5ce7-4cca-80e4-752bded51af4",
    "name": "Meiderich",
    "state_id": "ee65d6d8-bfd1-43f2-b528-9d4b9b193273"
  },
  {
    "id": "78fd6b06-5640-4e40-a534-daa22c08ee4b",
    "name": "Meinerzhagen",
    "state_id": "ee65d6d8-bfd1-43f2-b528-9d4b9b193273"
  },
  {
    "id": "123a534d-02fc-4ac0-bb7f-61e9ddcf64f6",
    "name": "Menden",
    "state_id": "ee65d6d8-bfd1-43f2-b528-9d4b9b193273"
  },
  {
    "id": "21df903b-cf27-451b-b052-61684ba3a4bb",
    "name": "Mengenich",
    "state_id": "ee65d6d8-bfd1-43f2-b528-9d4b9b193273"
  },
  {
    "id": "741308c1-c31c-4cf6-8a66-dcbe2ae2d205",
    "name": "Meschede",
    "state_id": "ee65d6d8-bfd1-43f2-b528-9d4b9b193273"
  },
  {
    "id": "c144916f-cc75-46cb-a12c-5554539fb531",
    "name": "Metelen",
    "state_id": "ee65d6d8-bfd1-43f2-b528-9d4b9b193273"
  },
  {
    "id": "ebf5e9cd-2ed9-4ff4-8cc0-55f0f19f2013",
    "name": "Mettingen",
    "state_id": "ee65d6d8-bfd1-43f2-b528-9d4b9b193273"
  },
  {
    "id": "d2f8d917-99c0-4135-b44f-53ac5c60466f",
    "name": "Mettmann",
    "state_id": "ee65d6d8-bfd1-43f2-b528-9d4b9b193273"
  },
  {
    "id": "0c1348bd-4260-4eb6-8848-ce600cdafc57",
    "name": "Minden",
    "state_id": "ee65d6d8-bfd1-43f2-b528-9d4b9b193273"
  },
  {
    "id": "1ffbe30b-45f8-4e25-9cc0-c466cb1008d6",
    "name": "Moers",
    "state_id": "ee65d6d8-bfd1-43f2-b528-9d4b9b193273"
  },
  {
    "id": "f54f124d-6457-4a79-9170-56c091dc7675",
    "name": "Möhnesee",
    "state_id": "ee65d6d8-bfd1-43f2-b528-9d4b9b193273"
  },
  {
    "id": "df917afd-ae5b-48ab-a438-712a7b432b40",
    "name": "Mönchengladbach",
    "state_id": "ee65d6d8-bfd1-43f2-b528-9d4b9b193273"
  },
  {
    "id": "41597158-aa97-4fe5-84b3-ce718577b69e",
    "name": "Monheim am Rhein",
    "state_id": "ee65d6d8-bfd1-43f2-b528-9d4b9b193273"
  },
  {
    "id": "8f5ad8ed-d19d-4d7d-87b2-e899c9bcb8bd",
    "name": "Monschau",
    "state_id": "ee65d6d8-bfd1-43f2-b528-9d4b9b193273"
  },
  {
    "id": "fd5c4377-5adc-441d-b326-6ac43c8fdbb1",
    "name": "Morsbach",
    "state_id": "ee65d6d8-bfd1-43f2-b528-9d4b9b193273"
  },
  {
    "id": "c1e29127-483a-43dd-958d-9069a17bed46",
    "name": "Much",
    "state_id": "ee65d6d8-bfd1-43f2-b528-9d4b9b193273"
  },
  {
    "id": "761d587b-4755-4877-b57c-e570a644aeb4",
    "name": "Mülheim",
    "state_id": "ee65d6d8-bfd1-43f2-b528-9d4b9b193273"
  },
  {
    "id": "8a2b75a9-c3de-402b-b573-1519e9349f78",
    "name": "Münster",
    "state_id": "ee65d6d8-bfd1-43f2-b528-9d4b9b193273"
  },
  {
    "id": "8e75d84d-9123-44bf-a2da-f3e656da690a",
    "name": "Nachrodt-Wiblingwerde",
    "state_id": "ee65d6d8-bfd1-43f2-b528-9d4b9b193273"
  },
  {
    "id": "dfb76d61-5518-458e-8aa3-eaa0145109f0",
    "name": "Netphen",
    "state_id": "ee65d6d8-bfd1-43f2-b528-9d4b9b193273"
  },
  {
    "id": "d2ef1aff-4c6f-45da-8beb-0ebce3baba29",
    "name": "Nettersheim",
    "state_id": "ee65d6d8-bfd1-43f2-b528-9d4b9b193273"
  },
  {
    "id": "cdac57f0-ef3a-465b-bc56-193ab6ca8d8b",
    "name": "Nettetal",
    "state_id": "ee65d6d8-bfd1-43f2-b528-9d4b9b193273"
  },
  {
    "id": "6d99d39c-cb97-42a8-b88a-5d627f070549",
    "name": "Neu-Pattern",
    "state_id": "ee65d6d8-bfd1-43f2-b528-9d4b9b193273"
  },
  {
    "id": "2a9dc1d1-68c4-45a0-86e6-e09bf7c96889",
    "name": "Neubrück",
    "state_id": "ee65d6d8-bfd1-43f2-b528-9d4b9b193273"
  },
  {
    "id": "dd1f9991-b378-4181-bb94-902dffc22acc",
    "name": "Neuehrenfeld",
    "state_id": "ee65d6d8-bfd1-43f2-b528-9d4b9b193273"
  },
  {
    "id": "0d83a757-3eeb-4a4d-b70f-b50567ed9f8d",
    "name": "Neuenkirchen",
    "state_id": "ee65d6d8-bfd1-43f2-b528-9d4b9b193273"
  },
  {
    "id": "86812483-e80d-4988-b6be-034253d0c01c",
    "name": "Neuenrade",
    "state_id": "ee65d6d8-bfd1-43f2-b528-9d4b9b193273"
  },
  {
    "id": "cae75037-dc74-4ef5-9647-644a05a1383e",
    "name": "Neunkirchen",
    "state_id": "ee65d6d8-bfd1-43f2-b528-9d4b9b193273"
  },
  {
    "id": "4997ee29-1dab-4b9e-b665-3d0026e27814",
    "name": "Neuss",
    "state_id": "ee65d6d8-bfd1-43f2-b528-9d4b9b193273"
  },
  {
    "id": "78cbc62c-8407-42d8-860e-b875d914a6b6",
    "name": "Neustadt/Nord",
    "state_id": "ee65d6d8-bfd1-43f2-b528-9d4b9b193273"
  },
  {
    "id": "6d39c48b-1e4e-4124-87eb-7b0c5d2ea89b",
    "name": "Neustadt/Süd",
    "state_id": "ee65d6d8-bfd1-43f2-b528-9d4b9b193273"
  },
  {
    "id": "1c5300d9-7f29-4807-aafb-024735c47a2b",
    "name": "Nideggen",
    "state_id": "ee65d6d8-bfd1-43f2-b528-9d4b9b193273"
  },
  {
    "id": "4fe2ec21-3edc-4881-adf6-82bdede94216",
    "name": "Niederkassel",
    "state_id": "ee65d6d8-bfd1-43f2-b528-9d4b9b193273"
  },
  {
    "id": "2694b5bc-a72a-42eb-b335-95aac055d31f",
    "name": "Niederkrüchten",
    "state_id": "ee65d6d8-bfd1-43f2-b528-9d4b9b193273"
  },
  {
    "id": "ecb543db-1d3d-4a63-8543-0907f15941a9",
    "name": "Niedermerz",
    "state_id": "ee65d6d8-bfd1-43f2-b528-9d4b9b193273"
  },
  {
    "id": "2acff521-2c33-40a5-b74c-c2fac18e2e9f",
    "name": "Niederzier",
    "state_id": "ee65d6d8-bfd1-43f2-b528-9d4b9b193273"
  },
  {
    "id": "a85ed261-4c82-4443-ac51-797b2748e24a",
    "name": "Nieheim",
    "state_id": "ee65d6d8-bfd1-43f2-b528-9d4b9b193273"
  },
  {
    "id": "14d21d69-1565-4132-94c9-a7c43c165193",
    "name": "Nippes",
    "state_id": "ee65d6d8-bfd1-43f2-b528-9d4b9b193273"
  },
  {
    "id": "5ffdd8b0-7938-4553-9079-d0bda95c9849",
    "name": "Nordkirchen",
    "state_id": "ee65d6d8-bfd1-43f2-b528-9d4b9b193273"
  },
  {
    "id": "76817d2d-3b40-4518-8fa4-77627f2f3426",
    "name": "Nordwalde",
    "state_id": "ee65d6d8-bfd1-43f2-b528-9d4b9b193273"
  },
  {
    "id": "3232e0d3-f006-4fe0-8968-1261e03b82c5",
    "name": "Nörvenich",
    "state_id": "ee65d6d8-bfd1-43f2-b528-9d4b9b193273"
  },
  {
    "id": "3082504d-9132-4c30-b5e6-1c7fbc8d7f59",
    "name": "Nottuln",
    "state_id": "ee65d6d8-bfd1-43f2-b528-9d4b9b193273"
  },
  {
    "id": "318753b0-1d74-46e1-9fa1-dcd4e00a811d",
    "name": "Nümbrecht",
    "state_id": "ee65d6d8-bfd1-43f2-b528-9d4b9b193273"
  },
  {
    "id": "d31fad4d-dc6c-4e4a-882e-d451e1c2a45b",
    "name": "Oberhausen",
    "state_id": "ee65d6d8-bfd1-43f2-b528-9d4b9b193273"
  },
  {
    "id": "f433475d-c37b-4485-8689-7b7af6895476",
    "name": "Obernbeck",
    "state_id": "ee65d6d8-bfd1-43f2-b528-9d4b9b193273"
  },
  {
    "id": "29cd1a65-02a1-4486-a1cb-bfc66e97802c",
    "name": "Ochtrup",
    "state_id": "ee65d6d8-bfd1-43f2-b528-9d4b9b193273"
  },
  {
    "id": "021df92d-5b7e-4eec-9aa5-245a2eb1993c",
    "name": "Odenthal",
    "state_id": "ee65d6d8-bfd1-43f2-b528-9d4b9b193273"
  },
  {
    "id": "2dcbf16a-afe1-4929-a7c0-d8d510c62a37",
    "name": "Oelde",
    "state_id": "ee65d6d8-bfd1-43f2-b528-9d4b9b193273"
  },
  {
    "id": "67f5daa4-f277-43ef-b3cb-e91b1042eca4",
    "name": "Oer-Erkenschwick",
    "state_id": "ee65d6d8-bfd1-43f2-b528-9d4b9b193273"
  },
  {
    "id": "de65795b-093a-4970-8c54-852e0c3d0682",
    "name": "Oerlinghausen",
    "state_id": "ee65d6d8-bfd1-43f2-b528-9d4b9b193273"
  },
  {
    "id": "1b9b05cd-87cd-46f0-bf20-50384bc11b6d",
    "name": "Olfen",
    "state_id": "ee65d6d8-bfd1-43f2-b528-9d4b9b193273"
  },
  {
    "id": "43a2c2f1-91e9-4c6c-9d10-21c7f68b290e",
    "name": "Olpe",
    "state_id": "ee65d6d8-bfd1-43f2-b528-9d4b9b193273"
  },
  {
    "id": "d6a24a96-e4fb-4f5f-b780-bc4217b4460e",
    "name": "Olsberg",
    "state_id": "ee65d6d8-bfd1-43f2-b528-9d4b9b193273"
  },
  {
    "id": "d8cc1def-57e4-4ee8-95d0-d9a4d2bd7114",
    "name": "Opladen",
    "state_id": "ee65d6d8-bfd1-43f2-b528-9d4b9b193273"
  },
  {
    "id": "1815161c-342b-40b5-8641-ed88e84869bf",
    "name": "Ossendorf",
    "state_id": "ee65d6d8-bfd1-43f2-b528-9d4b9b193273"
  },
  {
    "id": "f3421b34-5fe5-4d85-b72d-315a0036e4c7",
    "name": "Ostbevern",
    "state_id": "ee65d6d8-bfd1-43f2-b528-9d4b9b193273"
  },
  {
    "id": "10444708-4152-4b50-94c4-4e2ca165c629",
    "name": "Ostheim",
    "state_id": "ee65d6d8-bfd1-43f2-b528-9d4b9b193273"
  },
  {
    "id": "06c0fcec-c8df-45b7-a2a2-f23b8373a04d",
    "name": "Overath",
    "state_id": "ee65d6d8-bfd1-43f2-b528-9d4b9b193273"
  },
  {
    "id": "e608f3dc-e1fc-42fb-b3fc-84fc6d9b23f7",
    "name": "Paderborn",
    "state_id": "ee65d6d8-bfd1-43f2-b528-9d4b9b193273"
  },
  {
    "id": "c0092da0-636b-484e-abc3-b9c4b6ec2f75",
    "name": "Petershagen",
    "state_id": "ee65d6d8-bfd1-43f2-b528-9d4b9b193273"
  },
  {
    "id": "33123099-9181-4d8a-8313-6b7cd14c6490",
    "name": "Plettenberg",
    "state_id": "ee65d6d8-bfd1-43f2-b528-9d4b9b193273"
  },
  {
    "id": "8cdf993e-9bf7-4284-a989-b7ddd869423b",
    "name": "Poll",
    "state_id": "ee65d6d8-bfd1-43f2-b528-9d4b9b193273"
  },
  {
    "id": "ea620cec-9082-428b-af66-42b17bd52c80",
    "name": "Porta Westfalica",
    "state_id": "ee65d6d8-bfd1-43f2-b528-9d4b9b193273"
  },
  {
    "id": "e77aac8c-a114-484c-9bd9-e8364c28edb9",
    "name": "Porz am Rhein",
    "state_id": "ee65d6d8-bfd1-43f2-b528-9d4b9b193273"
  },
  {
    "id": "c6ad9dfc-e7ec-4b2a-8c28-bfc0c84cece9",
    "name": "Preußisch Oldendorf",
    "state_id": "ee65d6d8-bfd1-43f2-b528-9d4b9b193273"
  },
  {
    "id": "7253a61c-ecb9-4d04-b6d6-7c7508b85d04",
    "name": "Pulheim",
    "state_id": "ee65d6d8-bfd1-43f2-b528-9d4b9b193273"
  },
  {
    "id": "72aba701-0dc9-4f5f-877f-eda6f9c4ac77",
    "name": "Radevormwald",
    "state_id": "ee65d6d8-bfd1-43f2-b528-9d4b9b193273"
  },
  {
    "id": "ea468811-393f-401d-a42b-036ec978b122",
    "name": "Raesfeld",
    "state_id": "ee65d6d8-bfd1-43f2-b528-9d4b9b193273"
  },
  {
    "id": "893469f1-18d5-4549-9af9-095dcb924502",
    "name": "Rahden",
    "state_id": "ee65d6d8-bfd1-43f2-b528-9d4b9b193273"
  },
  {
    "id": "c29fe52c-e936-46e1-b0b3-53533df03db3",
    "name": "Rath",
    "state_id": "ee65d6d8-bfd1-43f2-b528-9d4b9b193273"
  },
  {
    "id": "001415ea-6a04-4b00-b604-b16f2d66b5c9",
    "name": "Ratingen",
    "state_id": "ee65d6d8-bfd1-43f2-b528-9d4b9b193273"
  },
  {
    "id": "fccfb182-833a-442f-a089-0523d8b59206",
    "name": "Recke",
    "state_id": "ee65d6d8-bfd1-43f2-b528-9d4b9b193273"
  },
  {
    "id": "519a2950-9377-475e-bac6-2533fed812ac",
    "name": "Recklinghausen",
    "state_id": "ee65d6d8-bfd1-43f2-b528-9d4b9b193273"
  },
  {
    "id": "9c4cbfe1-1119-4440-9b60-261758ba9cde",
    "name": "Rees",
    "state_id": "ee65d6d8-bfd1-43f2-b528-9d4b9b193273"
  },
  {
    "id": "f7a7c791-7aee-4393-87d7-ec5484997d53",
    "name": "Regierungsbezirk Arnsberg",
    "state_id": "ee65d6d8-bfd1-43f2-b528-9d4b9b193273"
  },
  {
    "id": "0413bce2-bbfa-47f6-a913-20256c5770f5",
    "name": "Regierungsbezirk Detmold",
    "state_id": "ee65d6d8-bfd1-43f2-b528-9d4b9b193273"
  },
  {
    "id": "64eee0ae-7c37-4327-8a8d-5b149dfefd15",
    "name": "Regierungsbezirk Köln",
    "state_id": "ee65d6d8-bfd1-43f2-b528-9d4b9b193273"
  },
  {
    "id": "3deced68-e6e0-4009-821f-e6e4e994e096",
    "name": "Regierungsbezirk Münster",
    "state_id": "ee65d6d8-bfd1-43f2-b528-9d4b9b193273"
  },
  {
    "id": "8da8cf67-9dbb-4c67-9e29-e685ad1953cd",
    "name": "Remscheid",
    "state_id": "ee65d6d8-bfd1-43f2-b528-9d4b9b193273"
  },
  {
    "id": "884a6c8e-5342-4a0d-9b22-1ff6ec055f4a",
    "name": "Rheda-Wiedenbrück",
    "state_id": "ee65d6d8-bfd1-43f2-b528-9d4b9b193273"
  },
  {
    "id": "ad765f7a-50b8-4123-b068-96f24ab8fe7a",
    "name": "Rhede",
    "state_id": "ee65d6d8-bfd1-43f2-b528-9d4b9b193273"
  },
  {
    "id": "1a376414-73d6-4a70-bc2c-7bbd7dc4b3c0",
    "name": "Rheinbach",
    "state_id": "ee65d6d8-bfd1-43f2-b528-9d4b9b193273"
  },
  {
    "id": "2b6bc963-54f4-480f-b4a8-801dc08916b8",
    "name": "Rheinberg",
    "state_id": "ee65d6d8-bfd1-43f2-b528-9d4b9b193273"
  },
  {
    "id": "18e2e2a4-79a6-4e72-aa5b-f4993776ddf1",
    "name": "Rheine",
    "state_id": "ee65d6d8-bfd1-43f2-b528-9d4b9b193273"
  },
  {
    "id": "349122e3-fd1c-4e4a-b716-013d43e9f943",
    "name": "Rheurdt",
    "state_id": "ee65d6d8-bfd1-43f2-b528-9d4b9b193273"
  },
  {
    "id": "2e759f60-36b9-4620-92be-51ad27470638",
    "name": "Riehl",
    "state_id": "ee65d6d8-bfd1-43f2-b528-9d4b9b193273"
  },
  {
    "id": "782b41f0-befb-4da7-b209-6125d44f2e05",
    "name": "Rietberg",
    "state_id": "ee65d6d8-bfd1-43f2-b528-9d4b9b193273"
  },
  {
    "id": "816584f5-c0b6-4643-af13-aa76e38b6606",
    "name": "Rödinghausen",
    "state_id": "ee65d6d8-bfd1-43f2-b528-9d4b9b193273"
  },
  {
    "id": "70658e02-5f69-4239-9de0-802f53f2c1e4",
    "name": "Roetgen",
    "state_id": "ee65d6d8-bfd1-43f2-b528-9d4b9b193273"
  },
  {
    "id": "ebbf65c3-02d2-4ccb-b61b-2de2dc642892",
    "name": "Rommerskirchen",
    "state_id": "ee65d6d8-bfd1-43f2-b528-9d4b9b193273"
  },
  {
    "id": "024aa10d-383e-4d59-b7c1-332765388fe7",
    "name": "Rösrath",
    "state_id": "ee65d6d8-bfd1-43f2-b528-9d4b9b193273"
  },
  {
    "id": "4be7299f-7d99-4560-844d-8d0ee12fee98",
    "name": "Ruppichteroth",
    "state_id": "ee65d6d8-bfd1-43f2-b528-9d4b9b193273"
  },
  {
    "id": "f0aec632-3bb6-48b5-9873-1d1ce9b5626c",
    "name": "Rüthen",
    "state_id": "ee65d6d8-bfd1-43f2-b528-9d4b9b193273"
  },
  {
    "id": "d93acc6f-5eba-4a15-b576-a51e24b67a32",
    "name": "Saerbeck",
    "state_id": "ee65d6d8-bfd1-43f2-b528-9d4b9b193273"
  },
  {
    "id": "6fef2822-d9cb-4272-b517-19298fd0ef68",
    "name": "Salzkotten",
    "state_id": "ee65d6d8-bfd1-43f2-b528-9d4b9b193273"
  },
  {
    "id": "98bcdfcb-8359-4bf8-ad2d-1b77ebeedf26",
    "name": "Sankt Augustin",
    "state_id": "ee65d6d8-bfd1-43f2-b528-9d4b9b193273"
  },
  {
    "id": "272db6c1-9ce2-4a0f-bbe7-d66f62c8ca43",
    "name": "Sassenberg",
    "state_id": "ee65d6d8-bfd1-43f2-b528-9d4b9b193273"
  },
  {
    "id": "2349da54-0c59-4473-8292-313cb73f25c1",
    "name": "Schalksmühle",
    "state_id": "ee65d6d8-bfd1-43f2-b528-9d4b9b193273"
  },
  {
    "id": "b75e90f5-18af-45d3-a6fe-8b6a13ec7641",
    "name": "Schermbeck",
    "state_id": "ee65d6d8-bfd1-43f2-b528-9d4b9b193273"
  },
  {
    "id": "7e01ca86-9bb1-408c-9f39-9de11df187cc",
    "name": "Schieder-Schwalenberg",
    "state_id": "ee65d6d8-bfd1-43f2-b528-9d4b9b193273"
  },
  {
    "id": "d05e24bf-dc83-49c6-91c3-8966aa0fa9d7",
    "name": "Schlangen",
    "state_id": "ee65d6d8-bfd1-43f2-b528-9d4b9b193273"
  },
  {
    "id": "e18bf440-5684-43c2-bdc9-20d03890a19e",
    "name": "Schleiden",
    "state_id": "ee65d6d8-bfd1-43f2-b528-9d4b9b193273"
  },
  {
    "id": "09a0227e-7723-4673-94e2-1580b5ff82cd",
    "name": "Schmallenberg",
    "state_id": "ee65d6d8-bfd1-43f2-b528-9d4b9b193273"
  },
  {
    "id": "0f01d6f3-679c-4add-81d5-be5c672f7ff2",
    "name": "Schöppingen",
    "state_id": "ee65d6d8-bfd1-43f2-b528-9d4b9b193273"
  },
  {
    "id": "271cee95-67fc-4bfb-9bac-6e1fa9343290",
    "name": "Schwalmtal",
    "state_id": "ee65d6d8-bfd1-43f2-b528-9d4b9b193273"
  },
  {
    "id": "8afab8a7-63f3-4f49-92f3-e3f471cd26a2",
    "name": "Schwelm",
    "state_id": "ee65d6d8-bfd1-43f2-b528-9d4b9b193273"
  },
  {
    "id": "8aa2b50c-86b8-4ad7-9160-eee18adb6be1",
    "name": "Schwerte",
    "state_id": "ee65d6d8-bfd1-43f2-b528-9d4b9b193273"
  },
  {
    "id": "0bf10dc7-c11d-4fd0-b84b-2c600bddad8a",
    "name": "Selm",
    "state_id": "ee65d6d8-bfd1-43f2-b528-9d4b9b193273"
  },
  {
    "id": "222d80ff-8528-46dc-8451-9ed3fe46431e",
    "name": "Senden",
    "state_id": "ee65d6d8-bfd1-43f2-b528-9d4b9b193273"
  },
  {
    "id": "81eebd96-4b57-4864-9402-a3708e7fbf10",
    "name": "Sendenhorst",
    "state_id": "ee65d6d8-bfd1-43f2-b528-9d4b9b193273"
  },
  {
    "id": "633125b6-adbb-4a7d-abbe-c32e920e3d10",
    "name": "Siegburg",
    "state_id": "ee65d6d8-bfd1-43f2-b528-9d4b9b193273"
  },
  {
    "id": "195ee2a7-73a4-47a7-b1f3-cffec01f1372",
    "name": "Siegen",
    "state_id": "ee65d6d8-bfd1-43f2-b528-9d4b9b193273"
  },
  {
    "id": "7619fec3-e62c-48af-837e-e9f20e511960",
    "name": "Siersdorf",
    "state_id": "ee65d6d8-bfd1-43f2-b528-9d4b9b193273"
  },
  {
    "id": "cb965413-54df-4b50-89af-18484973f524",
    "name": "Simmerath",
    "state_id": "ee65d6d8-bfd1-43f2-b528-9d4b9b193273"
  },
  {
    "id": "ae3b145d-a219-4e06-9ec8-7c8733d698de",
    "name": "Sinnersdorf",
    "state_id": "ee65d6d8-bfd1-43f2-b528-9d4b9b193273"
  },
  {
    "id": "cfb2068b-70d0-48b9-93a9-7b7c4a683b1b",
    "name": "Soest",
    "state_id": "ee65d6d8-bfd1-43f2-b528-9d4b9b193273"
  },
  {
    "id": "f31953a9-274c-4c06-a4c1-f74a4643ae29",
    "name": "Solingen",
    "state_id": "ee65d6d8-bfd1-43f2-b528-9d4b9b193273"
  },
  {
    "id": "77c60ba2-b917-4035-8c71-92b67feaf433",
    "name": "Sonsbeck",
    "state_id": "ee65d6d8-bfd1-43f2-b528-9d4b9b193273"
  },
  {
    "id": "3fd39f8c-a169-4c74-a935-839cbfadcf48",
    "name": "Spenge",
    "state_id": "ee65d6d8-bfd1-43f2-b528-9d4b9b193273"
  },
  {
    "id": "c6bad1b2-d803-4eec-bfb8-61515f6a5cb1",
    "name": "Sprockhövel",
    "state_id": "ee65d6d8-bfd1-43f2-b528-9d4b9b193273"
  },
  {
    "id": "ffa1d32a-9f51-4736-86a4-5e3490d77856",
    "name": "Stadtlohn",
    "state_id": "ee65d6d8-bfd1-43f2-b528-9d4b9b193273"
  },
  {
    "id": "d7720863-3b79-4924-9fec-486b9e8685d4",
    "name": "Steinfurt",
    "state_id": "ee65d6d8-bfd1-43f2-b528-9d4b9b193273"
  },
  {
    "id": "fa8c6a92-939a-4a00-bf3f-4e31768f6e56",
    "name": "Steinhagen",
    "state_id": "ee65d6d8-bfd1-43f2-b528-9d4b9b193273"
  },
  {
    "id": "a4424936-fff2-49b1-aa74-2fd8fe50f534",
    "name": "Steinheim",
    "state_id": "ee65d6d8-bfd1-43f2-b528-9d4b9b193273"
  },
  {
    "id": "800f04a1-6a74-4cb8-b944-32c1d5f82970",
    "name": "Stolberg",
    "state_id": "ee65d6d8-bfd1-43f2-b528-9d4b9b193273"
  },
  {
    "id": "d0dd95af-6cef-496d-ba37-38698fb081c9",
    "name": "Stoßdorf",
    "state_id": "ee65d6d8-bfd1-43f2-b528-9d4b9b193273"
  },
  {
    "id": "8cd45900-f26a-447c-b39c-362cc5ec0e82",
    "name": "Straelen",
    "state_id": "ee65d6d8-bfd1-43f2-b528-9d4b9b193273"
  },
  {
    "id": "5a09b980-1f6d-4a16-8120-c819ecec7aa5",
    "name": "Südlohn",
    "state_id": "ee65d6d8-bfd1-43f2-b528-9d4b9b193273"
  },
  {
    "id": "aac47f08-f79f-484e-9ba3-d9d89613d7fe",
    "name": "Sundern",
    "state_id": "ee65d6d8-bfd1-43f2-b528-9d4b9b193273"
  },
  {
    "id": "1ed36726-16aa-4bf3-9e8e-b005cb99ffd7",
    "name": "Tecklenburg",
    "state_id": "ee65d6d8-bfd1-43f2-b528-9d4b9b193273"
  },
  {
    "id": "984aa7f5-c49a-47fb-9bac-6528d9264c9f",
    "name": "Telgte",
    "state_id": "ee65d6d8-bfd1-43f2-b528-9d4b9b193273"
  },
  {
    "id": "3684e47c-e98f-45fc-84d3-0a42c0ead373",
    "name": "Titz",
    "state_id": "ee65d6d8-bfd1-43f2-b528-9d4b9b193273"
  },
  {
    "id": "a671640f-d4ac-48b4-9f3a-8603ca8a7784",
    "name": "Tönisvorst",
    "state_id": "ee65d6d8-bfd1-43f2-b528-9d4b9b193273"
  },
  {
    "id": "73848fd6-0412-4876-a33d-417adf16c211",
    "name": "Troisdorf",
    "state_id": "ee65d6d8-bfd1-43f2-b528-9d4b9b193273"
  },
  {
    "id": "5182ce61-fa9b-4cef-bff7-84db21c972cb",
    "name": "Türnich",
    "state_id": "ee65d6d8-bfd1-43f2-b528-9d4b9b193273"
  },
  {
    "id": "9412bd28-b2fb-4f70-91b0-46903c182f64",
    "name": "Übach-Palenberg",
    "state_id": "ee65d6d8-bfd1-43f2-b528-9d4b9b193273"
  },
  {
    "id": "32e83966-584f-4d1c-b4d2-51523e428dfb",
    "name": "Uedem",
    "state_id": "ee65d6d8-bfd1-43f2-b528-9d4b9b193273"
  },
  {
    "id": "c0f75cfd-5bf1-47b1-b5f6-11bfbe0f2256",
    "name": "Unna",
    "state_id": "ee65d6d8-bfd1-43f2-b528-9d4b9b193273"
  },
  {
    "id": "79f56df8-3c7b-46a4-a13c-548bbe00caf1",
    "name": "Velbert",
    "state_id": "ee65d6d8-bfd1-43f2-b528-9d4b9b193273"
  },
  {
    "id": "5e413e1d-206a-4dd1-a9b3-0a65862e506c",
    "name": "Velen",
    "state_id": "ee65d6d8-bfd1-43f2-b528-9d4b9b193273"
  },
  {
    "id": "48c9bb3c-5408-484d-a38f-05c9559ba130",
    "name": "Verl",
    "state_id": "ee65d6d8-bfd1-43f2-b528-9d4b9b193273"
  },
  {
    "id": "c65a59fa-e809-416a-8f2c-aab9d6154596",
    "name": "Versmold",
    "state_id": "ee65d6d8-bfd1-43f2-b528-9d4b9b193273"
  },
  {
    "id": "42a80241-0c5b-4cb3-9e81-021749c1e3ed",
    "name": "Vettweiß",
    "state_id": "ee65d6d8-bfd1-43f2-b528-9d4b9b193273"
  },
  {
    "id": "10f6028a-1740-45af-82e2-a5f321b81f55",
    "name": "Viersen",
    "state_id": "ee65d6d8-bfd1-43f2-b528-9d4b9b193273"
  },
  {
    "id": "d3a3985c-8ee1-456e-8e3e-d4297f6707c2",
    "name": "Vlotho",
    "state_id": "ee65d6d8-bfd1-43f2-b528-9d4b9b193273"
  },
  {
    "id": "ac9c79f0-6bdb-4401-9a0d-803f46fe6315",
    "name": "Voerde",
    "state_id": "ee65d6d8-bfd1-43f2-b528-9d4b9b193273"
  },
  {
    "id": "479999f4-d1bb-4139-9fcd-923b53872b1c",
    "name": "Vreden",
    "state_id": "ee65d6d8-bfd1-43f2-b528-9d4b9b193273"
  },
  {
    "id": "f6e0467c-50a8-4758-8eca-89aff715d9cf",
    "name": "Wachtberg",
    "state_id": "ee65d6d8-bfd1-43f2-b528-9d4b9b193273"
  },
  {
    "id": "6754c938-ed96-446f-8df7-f885b2132cc6",
    "name": "Wachtendonk",
    "state_id": "ee65d6d8-bfd1-43f2-b528-9d4b9b193273"
  },
  {
    "id": "7f8730f2-81e7-4ea2-ada2-9dff339ce318",
    "name": "Wadersloh",
    "state_id": "ee65d6d8-bfd1-43f2-b528-9d4b9b193273"
  },
  {
    "id": "63492bcb-0886-4941-b1a9-8e6b73e6d51d",
    "name": "Wahn-Heide",
    "state_id": "ee65d6d8-bfd1-43f2-b528-9d4b9b193273"
  },
  {
    "id": "1d851523-d95f-41ff-946b-2bd116ca050c",
    "name": "Waldbröl",
    "state_id": "ee65d6d8-bfd1-43f2-b528-9d4b9b193273"
  },
  {
    "id": "942ed565-5d43-42d8-b03b-23e2f89858b0",
    "name": "Waldfeucht",
    "state_id": "ee65d6d8-bfd1-43f2-b528-9d4b9b193273"
  },
  {
    "id": "4b1ececa-535f-4b76-94f9-0901b686aabb",
    "name": "Waltrop",
    "state_id": "ee65d6d8-bfd1-43f2-b528-9d4b9b193273"
  },
  {
    "id": "41ad9ecb-6d3e-4eae-b2ea-a35636a92215",
    "name": "Warburg",
    "state_id": "ee65d6d8-bfd1-43f2-b528-9d4b9b193273"
  },
  {
    "id": "c112e91c-a4da-4219-9943-a623e189afdc",
    "name": "Warendorf",
    "state_id": "ee65d6d8-bfd1-43f2-b528-9d4b9b193273"
  },
  {
    "id": "0518bb81-dff8-43b8-b895-591dd9828766",
    "name": "Warstein",
    "state_id": "ee65d6d8-bfd1-43f2-b528-9d4b9b193273"
  },
  {
    "id": "40a16618-e776-4761-9ad0-1d838020199a",
    "name": "Wassenberg",
    "state_id": "ee65d6d8-bfd1-43f2-b528-9d4b9b193273"
  },
  {
    "id": "30e655b4-8539-4744-a268-5051272208e8",
    "name": "Weeze",
    "state_id": "ee65d6d8-bfd1-43f2-b528-9d4b9b193273"
  },
  {
    "id": "7af809de-dc8b-4791-964b-ff621804a846",
    "name": "Wegberg",
    "state_id": "ee65d6d8-bfd1-43f2-b528-9d4b9b193273"
  },
  {
    "id": "c55f478d-efa8-4e10-bbd1-177e35d07f32",
    "name": "Weilerswist",
    "state_id": "ee65d6d8-bfd1-43f2-b528-9d4b9b193273"
  },
  {
    "id": "066563fd-4f55-4310-a73e-2f9c4311aab0",
    "name": "Welver",
    "state_id": "ee65d6d8-bfd1-43f2-b528-9d4b9b193273"
  },
  {
    "id": "aba86132-a662-4bb7-af0b-b15593b07f04",
    "name": "Wenden",
    "state_id": "ee65d6d8-bfd1-43f2-b528-9d4b9b193273"
  },
  {
    "id": "086bb890-aafc-487d-9d5d-e0eb93c24954",
    "name": "Werdohl",
    "state_id": "ee65d6d8-bfd1-43f2-b528-9d4b9b193273"
  },
  {
    "id": "2ae347c0-38cb-453d-8bf5-e170eafb2a99",
    "name": "Werl",
    "state_id": "ee65d6d8-bfd1-43f2-b528-9d4b9b193273"
  },
  {
    "id": "a3c6ad43-4d5a-413d-9391-14ffb98820ef",
    "name": "Wermelskirchen",
    "state_id": "ee65d6d8-bfd1-43f2-b528-9d4b9b193273"
  },
  {
    "id": "fda543d5-dbfb-45e9-b3c6-b0712df58026",
    "name": "Werne",
    "state_id": "ee65d6d8-bfd1-43f2-b528-9d4b9b193273"
  },
  {
    "id": "bd039097-8fb6-4e76-b147-340350ed61d1",
    "name": "Werther",
    "state_id": "ee65d6d8-bfd1-43f2-b528-9d4b9b193273"
  },
  {
    "id": "9c01231a-7279-4a74-b5ea-b5c24c8322a8",
    "name": "Wesel",
    "state_id": "ee65d6d8-bfd1-43f2-b528-9d4b9b193273"
  },
  {
    "id": "a8b6b00e-6ea2-4153-bdde-edceac54654a",
    "name": "Wesseling",
    "state_id": "ee65d6d8-bfd1-43f2-b528-9d4b9b193273"
  },
  {
    "id": "b1c9378a-add5-42be-8e47-2080267fd4c9",
    "name": "Westerkappeln",
    "state_id": "ee65d6d8-bfd1-43f2-b528-9d4b9b193273"
  },
  {
    "id": "14c0f67f-788e-4599-b2e9-9583effe831e",
    "name": "Wetter (Ruhr)",
    "state_id": "ee65d6d8-bfd1-43f2-b528-9d4b9b193273"
  },
  {
    "id": "f43085af-89ff-48ba-97c9-dc241840383d",
    "name": "Wettringen",
    "state_id": "ee65d6d8-bfd1-43f2-b528-9d4b9b193273"
  },
  {
    "id": "2106b1aa-a314-4241-92b0-e1e9e65b0ef0",
    "name": "Wickede",
    "state_id": "ee65d6d8-bfd1-43f2-b528-9d4b9b193273"
  },
  {
    "id": "8d78f44d-bfd3-47c8-a015-c09c7a055484",
    "name": "Wiehl",
    "state_id": "ee65d6d8-bfd1-43f2-b528-9d4b9b193273"
  },
  {
    "id": "a7b3f307-c1f0-485d-b53b-3d393a7ae31f",
    "name": "Willebadessen",
    "state_id": "ee65d6d8-bfd1-43f2-b528-9d4b9b193273"
  },
  {
    "id": "cd99253b-0849-4350-906d-3d786efd3511",
    "name": "Willich",
    "state_id": "ee65d6d8-bfd1-43f2-b528-9d4b9b193273"
  },
  {
    "id": "e0e13ab5-4bd5-4991-ba57-1a707565f084",
    "name": "Wilnsdorf",
    "state_id": "ee65d6d8-bfd1-43f2-b528-9d4b9b193273"
  },
  {
    "id": "da0a586c-8507-45d2-a11a-1c71b471ca74",
    "name": "Winterberg",
    "state_id": "ee65d6d8-bfd1-43f2-b528-9d4b9b193273"
  },
  {
    "id": "daa3cca5-2ac4-4bbc-b623-81c736aeb4f1",
    "name": "Wipperfürth",
    "state_id": "ee65d6d8-bfd1-43f2-b528-9d4b9b193273"
  },
  {
    "id": "6bcd1197-e1e2-4df1-85fe-89d2e4a66627",
    "name": "Witten",
    "state_id": "ee65d6d8-bfd1-43f2-b528-9d4b9b193273"
  },
  {
    "id": "3fc143d5-dbae-469e-9846-bb13c4ca620c",
    "name": "Wülfrath",
    "state_id": "ee65d6d8-bfd1-43f2-b528-9d4b9b193273"
  },
  {
    "id": "9fc05f67-e26c-46bf-bf17-42cf7d7d536a",
    "name": "Wünnenberg",
    "state_id": "ee65d6d8-bfd1-43f2-b528-9d4b9b193273"
  },
  {
    "id": "51e09d0a-3dd5-4e31-ace7-822624b30705",
    "name": "Wuppertal",
    "state_id": "ee65d6d8-bfd1-43f2-b528-9d4b9b193273"
  },
  {
    "id": "40cc1621-e388-4d90-bc2e-0b3412ad683a",
    "name": "Würselen",
    "state_id": "ee65d6d8-bfd1-43f2-b528-9d4b9b193273"
  },
  {
    "id": "215b700e-6fe1-498d-aa99-319d956839df",
    "name": "Xanten",
    "state_id": "ee65d6d8-bfd1-43f2-b528-9d4b9b193273"
  },
  {
    "id": "d33abc42-0618-40cd-8ec8-048bc6e493dc",
    "name": "Zulpich",
    "state_id": "ee65d6d8-bfd1-43f2-b528-9d4b9b193273"
  }
]