[
  {
    "id": "2af908ee-68ae-4d10-b44a-52ac7c979923",
    "name": "Al Khums",
    "state_id": "f03892a3-1249-4f7d-956b-c0c4df5089ee"
  },
  {
    "id": "a0744b2a-77f5-4506-847b-c58e365db0c1",
    "name": "Masallātah",
    "state_id": "f03892a3-1249-4f7d-956b-c0c4df5089ee"
  },
  {
    "id": "a092647d-136d-46b6-ab1b-7b8be90fe576",
    "name": "Tarhuna",
    "state_id": "f03892a3-1249-4f7d-956b-c0c4df5089ee"
  }
]