[
  {
    "id": "1a9354ca-9d9e-4a10-b6a0-6fa92dcf7bba",
    "name": "Agapovka",
    "state_id": "f1621e63-b1d1-4d6a-87de-5b858413889b"
  },
  {
    "id": "4f7b788e-99e8-4c9d-9bc4-b60f97665eb6",
    "name": "Agapovskiy Rayon",
    "state_id": "f1621e63-b1d1-4d6a-87de-5b858413889b"
  },
  {
    "id": "65fdc430-8a1a-412a-8285-427a46aad9eb",
    "name": "Argayash",
    "state_id": "f1621e63-b1d1-4d6a-87de-5b858413889b"
  },
  {
    "id": "0ab6a692-6b7d-484a-a352-8c3edf0a8ae8",
    "name": "Asha",
    "state_id": "f1621e63-b1d1-4d6a-87de-5b858413889b"
  },
  {
    "id": "1c1e5f08-dfd1-465c-b39b-843a6bce6d37",
    "name": "Ashinskiy Rayon",
    "state_id": "f1621e63-b1d1-4d6a-87de-5b858413889b"
  },
  {
    "id": "b27a8459-ef4a-4caa-83bd-f803d65a7aa3",
    "name": "Bakal",
    "state_id": "f1621e63-b1d1-4d6a-87de-5b858413889b"
  },
  {
    "id": "eb7b2c43-457b-438a-b5e0-43e9290523a4",
    "name": "Bazhovo",
    "state_id": "f1621e63-b1d1-4d6a-87de-5b858413889b"
  },
  {
    "id": "69ee80ba-ecb3-42a0-a585-c6c5cfc679f6",
    "name": "Berdyaush",
    "state_id": "f1621e63-b1d1-4d6a-87de-5b858413889b"
  },
  {
    "id": "40172cf0-38ee-4424-b7e7-265c65fff2d1",
    "name": "Bobrovka",
    "state_id": "f1621e63-b1d1-4d6a-87de-5b858413889b"
  },
  {
    "id": "b42b748e-8f54-4f8f-a052-b203e855d382",
    "name": "Bredy",
    "state_id": "f1621e63-b1d1-4d6a-87de-5b858413889b"
  },
  {
    "id": "307ff1b5-e0fa-45ec-9f2c-600dd92f6cbc",
    "name": "Brodokalmak",
    "state_id": "f1621e63-b1d1-4d6a-87de-5b858413889b"
  },
  {
    "id": "816e0171-f5d1-4bc6-ab13-bc749e59ff0f",
    "name": "Chebarkul’",
    "state_id": "f1621e63-b1d1-4d6a-87de-5b858413889b"
  },
  {
    "id": "8b0be77a-371c-4e06-a9bb-561890dcb557",
    "name": "Chebarkul’skiy Rayon",
    "state_id": "f1621e63-b1d1-4d6a-87de-5b858413889b"
  },
  {
    "id": "dbc205c0-df01-475c-bd7e-177532baacea",
    "name": "Chelyabinsk",
    "state_id": "f1621e63-b1d1-4d6a-87de-5b858413889b"
  },
  {
    "id": "d3dc81e0-3b95-45c7-a26d-672f3a4e82cb",
    "name": "Cheremshanka",
    "state_id": "f1621e63-b1d1-4d6a-87de-5b858413889b"
  },
  {
    "id": "fc284154-3cee-489b-b365-7c361f71e856",
    "name": "Chesma",
    "state_id": "f1621e63-b1d1-4d6a-87de-5b858413889b"
  },
  {
    "id": "c28de2c7-5ea5-47d9-b701-a7e93d4647fb",
    "name": "Dolgoderevenskoye",
    "state_id": "f1621e63-b1d1-4d6a-87de-5b858413889b"
  },
  {
    "id": "1fba11f6-4dfb-4950-ab9f-2eafd98a71c6",
    "name": "Fershampenuaz",
    "state_id": "f1621e63-b1d1-4d6a-87de-5b858413889b"
  },
  {
    "id": "3f95bdc5-7322-493e-b8f4-abea66132758",
    "name": "Gornyak",
    "state_id": "f1621e63-b1d1-4d6a-87de-5b858413889b"
  },
  {
    "id": "efcec651-62ed-40b7-81ff-b771992a10d9",
    "name": "Gorod Chelyabinsk",
    "state_id": "f1621e63-b1d1-4d6a-87de-5b858413889b"
  },
  {
    "id": "8c105bb3-2da2-403b-afb4-3172b32b3fe1",
    "name": "Kanashevo",
    "state_id": "f1621e63-b1d1-4d6a-87de-5b858413889b"
  },
  {
    "id": "0f1f7cc5-6dfa-4d15-bbcd-ab1fc2951b61",
    "name": "Karabash",
    "state_id": "f1621e63-b1d1-4d6a-87de-5b858413889b"
  },
  {
    "id": "16610187-e360-471d-a793-e4040c6b657d",
    "name": "Kartalinskiy Rayon",
    "state_id": "f1621e63-b1d1-4d6a-87de-5b858413889b"
  },
  {
    "id": "253aa7b3-4019-448e-b400-62931410a389",
    "name": "Kartaly",
    "state_id": "f1621e63-b1d1-4d6a-87de-5b858413889b"
  },
  {
    "id": "a0356ab2-ebe5-477b-b4d1-58dbc72f432d",
    "name": "Kasli",
    "state_id": "f1621e63-b1d1-4d6a-87de-5b858413889b"
  },
  {
    "id": "e576045c-4c40-4ce3-ba74-17f4ab00c12c",
    "name": "Katav-Ivanovsk",
    "state_id": "f1621e63-b1d1-4d6a-87de-5b858413889b"
  },
  {
    "id": "e9d0c9dc-8eed-47cf-bd2b-144038b27810",
    "name": "Katav-Ivanovskiy Rayon",
    "state_id": "f1621e63-b1d1-4d6a-87de-5b858413889b"
  },
  {
    "id": "4baf2cbc-eb6a-4687-8a41-6fb4d8781b63",
    "name": "Kizil’skiy Rayon",
    "state_id": "f1621e63-b1d1-4d6a-87de-5b858413889b"
  },
  {
    "id": "20348985-58a1-4d63-8adf-4f863e243c38",
    "name": "Kopeysk",
    "state_id": "f1621e63-b1d1-4d6a-87de-5b858413889b"
  },
  {
    "id": "753a902a-2d6b-4090-b418-c82cda696af8",
    "name": "Korkino",
    "state_id": "f1621e63-b1d1-4d6a-87de-5b858413889b"
  },
  {
    "id": "53f83fcc-de79-40e4-8d52-42c6d3450af6",
    "name": "Koyelga",
    "state_id": "f1621e63-b1d1-4d6a-87de-5b858413889b"
  },
  {
    "id": "390cf05d-053f-439e-8b95-51db5b376ccd",
    "name": "Krasnogorskiy",
    "state_id": "f1621e63-b1d1-4d6a-87de-5b858413889b"
  },
  {
    "id": "c10a31da-466d-414b-a4fa-e7b24b1857bd",
    "name": "Kropachëvo",
    "state_id": "f1621e63-b1d1-4d6a-87de-5b858413889b"
  },
  {
    "id": "b99defe7-9baa-4510-bd4e-4f8cb590647f",
    "name": "Kunashak",
    "state_id": "f1621e63-b1d1-4d6a-87de-5b858413889b"
  },
  {
    "id": "be04e1dd-653e-4880-8d21-8c8e5071f325",
    "name": "Kusa",
    "state_id": "f1621e63-b1d1-4d6a-87de-5b858413889b"
  },
  {
    "id": "fea66c0e-f582-4f0b-9c50-686fc95d7ffc",
    "name": "Kyshtym",
    "state_id": "f1621e63-b1d1-4d6a-87de-5b858413889b"
  },
  {
    "id": "5ff285d6-718b-46a4-be08-adab346a4c15",
    "name": "Leninsk",
    "state_id": "f1621e63-b1d1-4d6a-87de-5b858413889b"
  },
  {
    "id": "08dbdb1b-2c84-449e-8275-c7b9111ae634",
    "name": "Lokomotivnyy",
    "state_id": "f1621e63-b1d1-4d6a-87de-5b858413889b"
  },
  {
    "id": "7baed33f-b300-4ddb-a2ab-6a8c2b00b794",
    "name": "Magnitka",
    "state_id": "f1621e63-b1d1-4d6a-87de-5b858413889b"
  },
  {
    "id": "403407e0-f321-403b-a72d-9890e27050ce",
    "name": "Magnitogorsk",
    "state_id": "f1621e63-b1d1-4d6a-87de-5b858413889b"
  },
  {
    "id": "944be8f3-34ea-492a-bd7f-784d3df5e5be",
    "name": "Mezhevoy",
    "state_id": "f1621e63-b1d1-4d6a-87de-5b858413889b"
  },
  {
    "id": "147fd9be-2c96-427b-871a-8b9c7547a174",
    "name": "Miass",
    "state_id": "f1621e63-b1d1-4d6a-87de-5b858413889b"
  },
  {
    "id": "3eeff251-6114-4498-b3d6-b77dd0c29b8a",
    "name": "Miasskoye",
    "state_id": "f1621e63-b1d1-4d6a-87de-5b858413889b"
  },
  {
    "id": "0228b68c-d32d-4e41-af71-7427aeb22509",
    "name": "Muslyumovo",
    "state_id": "f1621e63-b1d1-4d6a-87de-5b858413889b"
  },
  {
    "id": "dedb0b29-7baa-436b-a21d-1cddcf8eddec",
    "name": "Nagaybakskiy Rayon",
    "state_id": "f1621e63-b1d1-4d6a-87de-5b858413889b"
  },
  {
    "id": "cbd7e160-7f6d-4869-9636-81eba4e9f2d0",
    "name": "Nizhniy Ufaley",
    "state_id": "f1621e63-b1d1-4d6a-87de-5b858413889b"
  },
  {
    "id": "cd3c44e7-dab5-4fa1-b6b2-09c1f37ae3c5",
    "name": "Novogornyy",
    "state_id": "f1621e63-b1d1-4d6a-87de-5b858413889b"
  },
  {
    "id": "ad15a07b-34a3-407a-bace-2c5d7097d5c9",
    "name": "Novosineglazovskiy",
    "state_id": "f1621e63-b1d1-4d6a-87de-5b858413889b"
  },
  {
    "id": "3c109f47-e6e1-4d65-ad50-45b07d8f650f",
    "name": "Nyazepetrovsk",
    "state_id": "f1621e63-b1d1-4d6a-87de-5b858413889b"
  },
  {
    "id": "494191b4-48df-425e-8c3b-d07d9eb7f16c",
    "name": "Nyazepetrovskiy Rayon",
    "state_id": "f1621e63-b1d1-4d6a-87de-5b858413889b"
  },
  {
    "id": "b25697ba-3ed5-484a-b569-d9a77af13455",
    "name": "Oktyabr’skiy Rayon",
    "state_id": "f1621e63-b1d1-4d6a-87de-5b858413889b"
  },
  {
    "id": "fb535bac-d7cd-4431-ac35-e2eb8cc452f3",
    "name": "Ozersk",
    "state_id": "f1621e63-b1d1-4d6a-87de-5b858413889b"
  },
  {
    "id": "989cb4cf-8009-41a6-ae77-d51fd089ee9c",
    "name": "Parizh",
    "state_id": "f1621e63-b1d1-4d6a-87de-5b858413889b"
  },
  {
    "id": "345fb72f-b477-4b88-b186-48a162c82daa",
    "name": "Plast",
    "state_id": "f1621e63-b1d1-4d6a-87de-5b858413889b"
  },
  {
    "id": "b0c3d5de-4613-478a-9109-53b7df23eb6c",
    "name": "Poletayevo",
    "state_id": "f1621e63-b1d1-4d6a-87de-5b858413889b"
  },
  {
    "id": "c7e16cdc-28fa-4f78-95a1-111645dc46d0",
    "name": "Potanino",
    "state_id": "f1621e63-b1d1-4d6a-87de-5b858413889b"
  },
  {
    "id": "54f28bcc-6a20-4579-adf4-c09513ccc1f3",
    "name": "Roshchino",
    "state_id": "f1621e63-b1d1-4d6a-87de-5b858413889b"
  },
  {
    "id": "f475b612-3004-48c8-bf49-8370538bcdbc",
    "name": "Roza",
    "state_id": "f1621e63-b1d1-4d6a-87de-5b858413889b"
  },
  {
    "id": "cd054719-027c-4cff-a0e6-5705d853a0fc",
    "name": "Sargazy",
    "state_id": "f1621e63-b1d1-4d6a-87de-5b858413889b"
  },
  {
    "id": "e02b1101-823f-4f53-b77e-29d85bf70464",
    "name": "Satka",
    "state_id": "f1621e63-b1d1-4d6a-87de-5b858413889b"
  },
  {
    "id": "d8f2903d-653a-4fb3-b3b3-ea66781d1303",
    "name": "Satkinskiy Rayon",
    "state_id": "f1621e63-b1d1-4d6a-87de-5b858413889b"
  },
  {
    "id": "aab2a545-606f-4ff3-aa29-30738c23faf5",
    "name": "Selezyan",
    "state_id": "f1621e63-b1d1-4d6a-87de-5b858413889b"
  },
  {
    "id": "17c74ade-7d6d-4bfb-bdaf-5c712b962c40",
    "name": "Sim",
    "state_id": "f1621e63-b1d1-4d6a-87de-5b858413889b"
  },
  {
    "id": "0de0f0ae-a0e9-428e-a33a-5fe7d23dbd9c",
    "name": "Snezhinsk",
    "state_id": "f1621e63-b1d1-4d6a-87de-5b858413889b"
  },
  {
    "id": "27007ef7-0b78-4585-b798-8ac74ac323ab",
    "name": "Sosnovskiy Rayon",
    "state_id": "f1621e63-b1d1-4d6a-87de-5b858413889b"
  },
  {
    "id": "a7902e92-b648-4c7f-8476-745edd1b9f12",
    "name": "Starokamyshinsk",
    "state_id": "f1621e63-b1d1-4d6a-87de-5b858413889b"
  },
  {
    "id": "07b05bfd-d867-4f9a-819b-64d23c650a49",
    "name": "Syrostan",
    "state_id": "f1621e63-b1d1-4d6a-87de-5b858413889b"
  },
  {
    "id": "604561c7-5cac-4981-9aab-e49b2c79f012",
    "name": "Tayginka",
    "state_id": "f1621e63-b1d1-4d6a-87de-5b858413889b"
  },
  {
    "id": "78cabe8f-b48b-4ca6-99a5-376e80147e9e",
    "name": "Timiryazevskiy",
    "state_id": "f1621e63-b1d1-4d6a-87de-5b858413889b"
  },
  {
    "id": "9a2d7b92-f9ce-43f3-aaaf-dda1c86e5702",
    "name": "Trëkhgornyy",
    "state_id": "f1621e63-b1d1-4d6a-87de-5b858413889b"
  },
  {
    "id": "60919bef-a27e-4721-8ffd-2e1d422ff213",
    "name": "Troitsk",
    "state_id": "f1621e63-b1d1-4d6a-87de-5b858413889b"
  },
  {
    "id": "9c455f9a-8499-4aba-9d94-ad448a048f55",
    "name": "Turgoyak",
    "state_id": "f1621e63-b1d1-4d6a-87de-5b858413889b"
  },
  {
    "id": "f1c8d30a-fa70-438e-aa67-9ce9898bd1e2",
    "name": "Tyubuk",
    "state_id": "f1621e63-b1d1-4d6a-87de-5b858413889b"
  },
  {
    "id": "b110d631-729c-4aa7-8de3-96e2bd604fb6",
    "name": "Ust’-Bagaryak",
    "state_id": "f1621e63-b1d1-4d6a-87de-5b858413889b"
  },
  {
    "id": "ffadaf7a-92a2-4ac3-8b21-5755b0e79e37",
    "name": "Ust’-Katav",
    "state_id": "f1621e63-b1d1-4d6a-87de-5b858413889b"
  },
  {
    "id": "6a2cc355-071e-46a2-86a6-e4f3ed73b1e9",
    "name": "Uvel’skiy",
    "state_id": "f1621e63-b1d1-4d6a-87de-5b858413889b"
  },
  {
    "id": "5def8274-112f-4416-9d66-63eba65a640d",
    "name": "Uvel’skiy Rayon",
    "state_id": "f1621e63-b1d1-4d6a-87de-5b858413889b"
  },
  {
    "id": "f78a2d29-5b10-4747-81aa-27e5d41b5aac",
    "name": "Uyskiy Rayon",
    "state_id": "f1621e63-b1d1-4d6a-87de-5b858413889b"
  },
  {
    "id": "a65a5d8a-90b4-4555-b9d6-24970742bbb6",
    "name": "Uyskoye",
    "state_id": "f1621e63-b1d1-4d6a-87de-5b858413889b"
  },
  {
    "id": "fc88b05f-53cf-4c02-9cf4-7186b751e2a4",
    "name": "Vakhrushevo",
    "state_id": "f1621e63-b1d1-4d6a-87de-5b858413889b"
  },
  {
    "id": "c84040ce-41eb-4f80-b4cc-4091f52179fa",
    "name": "Varna",
    "state_id": "f1621e63-b1d1-4d6a-87de-5b858413889b"
  },
  {
    "id": "74757a16-67f1-4b47-9080-774b9e029735",
    "name": "Varnenskiy Rayon",
    "state_id": "f1621e63-b1d1-4d6a-87de-5b858413889b"
  },
  {
    "id": "70454d9d-d8e4-43c7-bebf-aeea4c156970",
    "name": "Velikopetrovka",
    "state_id": "f1621e63-b1d1-4d6a-87de-5b858413889b"
  },
  {
    "id": "40089c5a-61c7-46cd-8eb6-a1833e041fc7",
    "name": "Verkhneural’sk",
    "state_id": "f1621e63-b1d1-4d6a-87de-5b858413889b"
  },
  {
    "id": "09b67d23-8dd2-4f5c-875d-0fe19c1d7f7b",
    "name": "Verkhniy Ufaley",
    "state_id": "f1621e63-b1d1-4d6a-87de-5b858413889b"
  },
  {
    "id": "b82eba1b-f3bd-405c-a46b-be86ede958c2",
    "name": "Vishnëvogorsk",
    "state_id": "f1621e63-b1d1-4d6a-87de-5b858413889b"
  },
  {
    "id": "22920d2f-98c8-4502-980c-28a08b3870d6",
    "name": "Vyazovaya",
    "state_id": "f1621e63-b1d1-4d6a-87de-5b858413889b"
  },
  {
    "id": "a2121623-8872-40cd-a1be-224514926ff6",
    "name": "Yemanzhelinka",
    "state_id": "f1621e63-b1d1-4d6a-87de-5b858413889b"
  },
  {
    "id": "838044d6-a635-4423-b17f-520420e2d50e",
    "name": "Yemanzhelinsk",
    "state_id": "f1621e63-b1d1-4d6a-87de-5b858413889b"
  },
  {
    "id": "78759914-a9d3-4bbd-8c90-2b9f156e377d",
    "name": "Yetkul’",
    "state_id": "f1621e63-b1d1-4d6a-87de-5b858413889b"
  },
  {
    "id": "1b1f595d-e90b-42e3-b23b-c1a1a1b991e4",
    "name": "Yuryuzan’",
    "state_id": "f1621e63-b1d1-4d6a-87de-5b858413889b"
  },
  {
    "id": "cca85ee0-1f9b-454f-bf06-ed2a9d02fad2",
    "name": "Yuzhnoural’sk",
    "state_id": "f1621e63-b1d1-4d6a-87de-5b858413889b"
  },
  {
    "id": "b19756f5-666a-4f4d-a18a-c7f6d36fd292",
    "name": "Zheleznodorozhnyy",
    "state_id": "f1621e63-b1d1-4d6a-87de-5b858413889b"
  },
  {
    "id": "d0c1cd92-1635-41d5-812d-efd2eacca2a8",
    "name": "Zlatoust",
    "state_id": "f1621e63-b1d1-4d6a-87de-5b858413889b"
  }
]