[
  {
    "id": "d9704df1-9595-466a-bcf6-61c42a745b15",
    "name": "Calibishie",
    "state_id": "f24cf90b-fff4-4350-9e56-2e6e31635186"
  },
  {
    "id": "40d20d44-4042-4a7d-81e1-4c5e68472cd2",
    "name": "Marigot",
    "state_id": "f24cf90b-fff4-4350-9e56-2e6e31635186"
  },
  {
    "id": "b3554663-2397-4185-9ad7-d525a67d1b9c",
    "name": "Wesley",
    "state_id": "f24cf90b-fff4-4350-9e56-2e6e31635186"
  },
  {
    "id": "ee5dbe44-c13d-4231-b463-9c9dc0071868",
    "name": "Woodford Hill",
    "state_id": "f24cf90b-fff4-4350-9e56-2e6e31635186"
  }
]