[
  {
    "id": "993a8857-6d3c-49b4-9b8e-5ced85a5b889",
    "name": "Belén",
    "state_id": "f3290c69-96da-4ac9-bbca-405703a16c83"
  },
  {
    "id": "6eccf65c-6940-465b-8164-98a151e0449c",
    "name": "Concepción",
    "state_id": "f3290c69-96da-4ac9-bbca-405703a16c83"
  },
  {
    "id": "c0f2bf2a-ee7d-4036-8ba6-f83ac6153f72",
    "name": "Horqueta",
    "state_id": "f3290c69-96da-4ac9-bbca-405703a16c83"
  }
]