[
  {
    "id": "00c81a1f-6b80-481d-9619-e0beea921180",
    "name": "Huaquillas",
    "state_id": "f36012b4-7c21-4cd2-9c89-29c8063c698b"
  },
  {
    "id": "d80c0067-521a-4d32-a826-081d4d4e3010",
    "name": "Machala",
    "state_id": "f36012b4-7c21-4cd2-9c89-29c8063c698b"
  },
  {
    "id": "8284c69a-6dce-4961-a447-70bfe158f59b",
    "name": "Pasaje",
    "state_id": "f36012b4-7c21-4cd2-9c89-29c8063c698b"
  },
  {
    "id": "366c4b56-6b2d-4f44-897e-12cba756690c",
    "name": "Piñas",
    "state_id": "f36012b4-7c21-4cd2-9c89-29c8063c698b"
  },
  {
    "id": "433f9111-c477-43c9-84a6-fb689a89921b",
    "name": "Portovelo",
    "state_id": "f36012b4-7c21-4cd2-9c89-29c8063c698b"
  },
  {
    "id": "51e08a6d-8a19-416f-a47c-22ecda2459a0",
    "name": "Puerto Bolívar",
    "state_id": "f36012b4-7c21-4cd2-9c89-29c8063c698b"
  },
  {
    "id": "e43b825a-592f-416f-939d-a888aa44001c",
    "name": "Santa Rosa",
    "state_id": "f36012b4-7c21-4cd2-9c89-29c8063c698b"
  },
  {
    "id": "7f15b2c7-6f04-4c48-9ee8-2ce750de6e8b",
    "name": "Zaruma",
    "state_id": "f36012b4-7c21-4cd2-9c89-29c8063c698b"
  }
]