[
  {
    "id": "9088d0cb-d2bc-46c1-9979-4e2631fef465",
    "name": "Barda",
    "state_id": "f39362c7-971d-4ece-bd39-66cda26f2795"
  },
  {
    "id": "dd53eb01-b22f-423a-9c5b-f1c234b13bd2",
    "name": "Samuxlu",
    "state_id": "f39362c7-971d-4ece-bd39-66cda26f2795"
  }
]