[
  {
    "id": "de69f032-c5c2-4f4c-af1c-60a36c6c9cae",
    "name": "Aktobe",
    "state_id": "f4abcd96-1ec9-41e3-aa3f-ed12b4d308dc"
  },
  {
    "id": "7f04fb7d-8910-4bbc-a7c9-9cdcbfa1f69f",
    "name": "Batamshinskiy",
    "state_id": "f4abcd96-1ec9-41e3-aa3f-ed12b4d308dc"
  },
  {
    "id": "00a94fff-e49b-473f-9f01-0649c0d644c2",
    "name": "Bayganin",
    "state_id": "f4abcd96-1ec9-41e3-aa3f-ed12b4d308dc"
  },
  {
    "id": "8fb169dc-9c9a-44ea-8d68-124347225326",
    "name": "Embi",
    "state_id": "f4abcd96-1ec9-41e3-aa3f-ed12b4d308dc"
  },
  {
    "id": "78321d2d-bd3c-48e9-bf45-4eced397a24b",
    "name": "Kandyagash",
    "state_id": "f4abcd96-1ec9-41e3-aa3f-ed12b4d308dc"
  },
  {
    "id": "0868a97c-0b9c-481a-8106-638c69454d27",
    "name": "Khromtau",
    "state_id": "f4abcd96-1ec9-41e3-aa3f-ed12b4d308dc"
  },
  {
    "id": "5cdfe3e7-1c29-4efc-946f-313c21e37663",
    "name": "Martuk",
    "state_id": "f4abcd96-1ec9-41e3-aa3f-ed12b4d308dc"
  },
  {
    "id": "63cdd03f-ce75-426d-afad-3e96199dbcb5",
    "name": "Shalqar",
    "state_id": "f4abcd96-1ec9-41e3-aa3f-ed12b4d308dc"
  },
  {
    "id": "7d14c9a9-8f34-46a9-9ed2-cc438870687b",
    "name": "Shubarkuduk",
    "state_id": "f4abcd96-1ec9-41e3-aa3f-ed12b4d308dc"
  },
  {
    "id": "f03c36b0-913c-4acf-a8c9-230ca5097a63",
    "name": "Shubarshi",
    "state_id": "f4abcd96-1ec9-41e3-aa3f-ed12b4d308dc"
  },
  {
    "id": "b1582da7-7b5e-4b9e-9576-962ef1a540c1",
    "name": "Temir",
    "state_id": "f4abcd96-1ec9-41e3-aa3f-ed12b4d308dc"
  },
  {
    "id": "6c2c429b-aa75-4c1d-aac8-b2169ba57436",
    "name": "Yrghyz",
    "state_id": "f4abcd96-1ec9-41e3-aa3f-ed12b4d308dc"
  }
]