[
  {
    "id": "86547788-b650-4015-a92f-ae7be1d1de08",
    "name": "Ardino",
    "state_id": "f4db7ac1-768d-483f-b339-aa21bbc3150c"
  },
  {
    "id": "b6f3d479-8c9a-41b2-a5e8-02187006cd63",
    "name": "Dzhebel",
    "state_id": "f4db7ac1-768d-483f-b339-aa21bbc3150c"
  },
  {
    "id": "f84a6b34-0e0c-48dc-9a68-b94f4911dafa",
    "name": "Kardzhali",
    "state_id": "f4db7ac1-768d-483f-b339-aa21bbc3150c"
  },
  {
    "id": "10aafdb6-e02c-424b-bc77-9a34d3f4f056",
    "name": "Kirkovo",
    "state_id": "f4db7ac1-768d-483f-b339-aa21bbc3150c"
  },
  {
    "id": "0b5e085d-881b-4349-a338-5d8ab17e01df",
    "name": "Krumovgrad",
    "state_id": "f4db7ac1-768d-483f-b339-aa21bbc3150c"
  },
  {
    "id": "095a6c03-b2c5-49b5-aff2-59310a35dc3a",
    "name": "Obshtina Ardino",
    "state_id": "f4db7ac1-768d-483f-b339-aa21bbc3150c"
  },
  {
    "id": "f4ce147a-d514-4370-96f1-13fd728d81ad",
    "name": "Obshtina Chernoochene",
    "state_id": "f4db7ac1-768d-483f-b339-aa21bbc3150c"
  },
  {
    "id": "b7e107f6-0463-4ce6-a120-0d654c6c3c51",
    "name": "Obshtina Dzhebel",
    "state_id": "f4db7ac1-768d-483f-b339-aa21bbc3150c"
  },
  {
    "id": "42b93685-887f-4bca-a0bd-f1f46a37fac3",
    "name": "Obshtina Kardzhali",
    "state_id": "f4db7ac1-768d-483f-b339-aa21bbc3150c"
  },
  {
    "id": "70feccf5-0a19-4f0c-8483-3fd643dea793",
    "name": "Obshtina Kirkovo",
    "state_id": "f4db7ac1-768d-483f-b339-aa21bbc3150c"
  },
  {
    "id": "375c8b20-b3a5-4177-bd28-be1e6e5199a1",
    "name": "Obshtina Momchilgrad",
    "state_id": "f4db7ac1-768d-483f-b339-aa21bbc3150c"
  }
]