[
  {
    "id": "be8bb2e7-9ffd-4258-b3e9-a80ad2ea057e",
    "name": "Mahaut",
    "state_id": "f4df1a6c-10cf-4356-b723-ffe46354b8e2"
  },
  {
    "id": "f3a8efe1-a48e-42c1-bfc9-baf18576c26a",
    "name": "Pont Cassé",
    "state_id": "f4df1a6c-10cf-4356-b723-ffe46354b8e2"
  }
]