[
  {
    "id": "affd37ec-0b08-4ed5-9743-c1643d6297ec",
    "name": "Kerċem",
    "state_id": "f552069a-dd1e-4ba4-a19d-55be38057a80"
  },
  {
    "id": "9e801cf4-eb9a-4511-a348-3c22da56eb7c",
    "name": "Marsaskala",
    "state_id": "f552069a-dd1e-4ba4-a19d-55be38057a80"
  }
]