[
  {
    "id": "6686f14f-85c3-4089-9dbf-5d4b88b93380",
    "name": "Bosilovo",
    "state_id": "f6123680-1f48-41ba-9679-3286b882ab35"
  },
  {
    "id": "a2302887-9374-4f78-b001-162a8955f185",
    "name": "Ilovica",
    "state_id": "f6123680-1f48-41ba-9679-3286b882ab35"
  },
  {
    "id": "3b0e0694-fd46-4528-bf68-16352f51d485",
    "name": "Sekirnik",
    "state_id": "f6123680-1f48-41ba-9679-3286b882ab35"
  }
]