[
  {
    "id": "61c578fb-4861-4912-8b5d-d244e736f157",
    "name": "Chiayi",
    "state_id": "f7027c47-8563-41d8-941f-552cca097b2a"
  },
  {
    "id": "0c67ebf1-2b0b-4b21-af64-447b8c402014",
    "name": "Pizitou",
    "state_id": "f7027c47-8563-41d8-941f-552cca097b2a"
  }
]