[
  {
    "id": "2953d123-15e8-442e-ae6f-001965f88e23",
    "name": "Baruta",
    "state_id": "f7bc47c0-0ea7-45fe-bd83-7b58b26eefde"
  },
  {
    "id": "1a2ce10e-b530-4fc3-90c0-b8b1e628dc11",
    "name": "Carrizal",
    "state_id": "f7bc47c0-0ea7-45fe-bd83-7b58b26eefde"
  },
  {
    "id": "b4e3b455-9773-45a2-b434-65fd2c8612d1",
    "name": "Caucaguita",
    "state_id": "f7bc47c0-0ea7-45fe-bd83-7b58b26eefde"
  },
  {
    "id": "6f131106-6023-4c6f-956e-de2f8f7df0c6",
    "name": "Caucagüito",
    "state_id": "f7bc47c0-0ea7-45fe-bd83-7b58b26eefde"
  },
  {
    "id": "06d142d7-6060-4655-93bf-657732a862a6",
    "name": "Chacao",
    "state_id": "f7bc47c0-0ea7-45fe-bd83-7b58b26eefde"
  },
  {
    "id": "701f24e2-393d-400b-9fe6-01fdfdae421b",
    "name": "Charallave",
    "state_id": "f7bc47c0-0ea7-45fe-bd83-7b58b26eefde"
  },
  {
    "id": "52b60bea-4df8-48d4-9e3f-b9441a02dab1",
    "name": "Cúa",
    "state_id": "f7bc47c0-0ea7-45fe-bd83-7b58b26eefde"
  },
  {
    "id": "83a3a2dd-c8b1-4011-a3f4-241f15162d9a",
    "name": "El Cafetal",
    "state_id": "f7bc47c0-0ea7-45fe-bd83-7b58b26eefde"
  },
  {
    "id": "dfc56370-db94-422b-aece-57b22ec55b46",
    "name": "El Hatillo",
    "state_id": "f7bc47c0-0ea7-45fe-bd83-7b58b26eefde"
  },
  {
    "id": "1fefd2ea-36bb-4b88-975a-b6b342714a1e",
    "name": "Guarenas",
    "state_id": "f7bc47c0-0ea7-45fe-bd83-7b58b26eefde"
  },
  {
    "id": "0f5c7a27-d12e-4952-9571-b379c013d02a",
    "name": "Guatire",
    "state_id": "f7bc47c0-0ea7-45fe-bd83-7b58b26eefde"
  },
  {
    "id": "2673c928-4ccb-47bf-940b-f85718a38082",
    "name": "La Dolorita",
    "state_id": "f7bc47c0-0ea7-45fe-bd83-7b58b26eefde"
  },
  {
    "id": "a6c59a37-9322-4640-9f7a-0cc7f3ae1a0f",
    "name": "Los Dos Caminos",
    "state_id": "f7bc47c0-0ea7-45fe-bd83-7b58b26eefde"
  },
  {
    "id": "d71541b9-5824-437e-aedc-0c91c3c034b6",
    "name": "Los Teques",
    "state_id": "f7bc47c0-0ea7-45fe-bd83-7b58b26eefde"
  },
  {
    "id": "413e951e-4602-4b07-af64-0d6999a859b8",
    "name": "Ocumare del Tuy",
    "state_id": "f7bc47c0-0ea7-45fe-bd83-7b58b26eefde"
  },
  {
    "id": "eb13433f-62f2-4d05-b031-e39d1cec8c83",
    "name": "Petare",
    "state_id": "f7bc47c0-0ea7-45fe-bd83-7b58b26eefde"
  },
  {
    "id": "001a9dd8-59db-419f-8c36-27263fa24444",
    "name": "San Antonio de Los Altos",
    "state_id": "f7bc47c0-0ea7-45fe-bd83-7b58b26eefde"
  },
  {
    "id": "a550168a-7d71-4d33-8f8a-bcbb4cd9b329",
    "name": "Santa Teresa del Tuy",
    "state_id": "f7bc47c0-0ea7-45fe-bd83-7b58b26eefde"
  }
]