[
  {
    "id": "7214d991-4c5e-4e13-9464-ef8da52e0956",
    "name": "Araouane",
    "state_id": "f86e2094-7083-49a5-af48-d0403f640545"
  },
  {
    "id": "e630d928-fe5a-44ff-a365-c22c72586d89",
    "name": "Cercle de Goundam",
    "state_id": "f86e2094-7083-49a5-af48-d0403f640545"
  },
  {
    "id": "e6f13f8f-9fc5-48fb-b30c-f765b0b11600",
    "name": "Dire",
    "state_id": "f86e2094-7083-49a5-af48-d0403f640545"
  },
  {
    "id": "8c2081d5-8ad3-4d78-8acd-ea5830b0e6da",
    "name": "Goundam",
    "state_id": "f86e2094-7083-49a5-af48-d0403f640545"
  },
  {
    "id": "a2655d3e-5ef1-43d9-a989-8e79b5af0411",
    "name": "Gourma-Rharous Cercle",
    "state_id": "f86e2094-7083-49a5-af48-d0403f640545"
  },
  {
    "id": "dd96b7d9-bed1-44bb-be49-f1826aa48dcb",
    "name": "Niafunké",
    "state_id": "f86e2094-7083-49a5-af48-d0403f640545"
  },
  {
    "id": "8df9698e-3271-417a-acc7-ad13b96b9a76",
    "name": "Timbuktu",
    "state_id": "f86e2094-7083-49a5-af48-d0403f640545"
  }
]