[
  {
    "id": "4648426e-6a72-44cf-a2b3-dc073121e569",
    "name": "Brightwater",
    "state_id": "f9103430-c9f2-4911-bbc1-03262f1be9e1"
  },
  {
    "id": "6257fd36-beea-4499-8de9-47e8e4ba7658",
    "name": "Mapua",
    "state_id": "f9103430-c9f2-4911-bbc1-03262f1be9e1"
  },
  {
    "id": "990d7df2-c244-479e-b3d1-8cf5bc72c4b6",
    "name": "Motueka",
    "state_id": "f9103430-c9f2-4911-bbc1-03262f1be9e1"
  },
  {
    "id": "f5e01d52-a7c2-4c84-86f8-c6ec287bf825",
    "name": "Richmond",
    "state_id": "f9103430-c9f2-4911-bbc1-03262f1be9e1"
  },
  {
    "id": "18416f59-a43d-49b1-af51-ad13ac23f56d",
    "name": "Takaka",
    "state_id": "f9103430-c9f2-4911-bbc1-03262f1be9e1"
  },
  {
    "id": "412089b2-34f0-49c8-973d-5053e36fb279",
    "name": "Wakefield",
    "state_id": "f9103430-c9f2-4911-bbc1-03262f1be9e1"
  }
]