[
  {
    "id": "7cc649b4-f189-441b-8f58-e1065472209f",
    "name": "Inyonga",
    "state_id": "f9902cb8-eaaa-48db-ac97-786bbf53195a"
  },
  {
    "id": "9f9e98e5-3ae2-4cce-85c9-d71031933846",
    "name": "Karema",
    "state_id": "f9902cb8-eaaa-48db-ac97-786bbf53195a"
  },
  {
    "id": "b3f13745-31be-439c-9812-56ca764e3820",
    "name": "Mpanda",
    "state_id": "f9902cb8-eaaa-48db-ac97-786bbf53195a"
  },
  {
    "id": "48d384c5-3348-4c9f-854d-cb33289e5307",
    "name": "Usevia",
    "state_id": "f9902cb8-eaaa-48db-ac97-786bbf53195a"
  }
]