[
  {
    "id": "da7a73d6-7354-405e-9bca-0165309261d3",
    "name": "Boconó",
    "state_id": "fb53f245-15c2-4ae0-9044-ec6d32b7438a"
  },
  {
    "id": "84825b1c-2084-4297-8ef6-5703f932d4f1",
    "name": "Municipio Pampanito",
    "state_id": "fb53f245-15c2-4ae0-9044-ec6d32b7438a"
  },
  {
    "id": "2bad5bc7-3b4e-4fac-899f-20a7cc99c7ec",
    "name": "Municipio San Rafael de Carvajal",
    "state_id": "fb53f245-15c2-4ae0-9044-ec6d32b7438a"
  },
  {
    "id": "616c27ee-bd21-4fa9-809a-ff501aeb5e91",
    "name": "Trujillo",
    "state_id": "fb53f245-15c2-4ae0-9044-ec6d32b7438a"
  },
  {
    "id": "65038008-e226-452c-addd-39640b584b44",
    "name": "Valera",
    "state_id": "fb53f245-15c2-4ae0-9044-ec6d32b7438a"
  }
]