[
  {
    "id": "5bc46982-8c3c-4cbe-8046-e5d028aa2f15",
    "name": "Douz",
    "state_id": "fb8ecaea-412a-4299-8543-ad9af48162f6"
  },
  {
    "id": "45770fbc-045c-4c17-b97e-4894b77c00f6",
    "name": "El Golaa",
    "state_id": "fb8ecaea-412a-4299-8543-ad9af48162f6"
  },
  {
    "id": "9bbec2db-c4b0-48ea-bbda-7614dffd9a4d",
    "name": "Jemna",
    "state_id": "fb8ecaea-412a-4299-8543-ad9af48162f6"
  },
  {
    "id": "4383a0b2-b5bc-408b-969f-d4e9eee5fa13",
    "name": "Kebili",
    "state_id": "fb8ecaea-412a-4299-8543-ad9af48162f6"
  }
]