[
  {
    "id": "94a7d524-a89c-465d-ae2c-5f730b2ceefd",
    "name": "Georgetown",
    "state_id": "fc15dff9-e720-4a24-81fd-7f51758142df"
  },
  {
    "id": "33596012-79ae-49c7-994b-ad76734f4118",
    "name": "Mahaica Village",
    "state_id": "fc15dff9-e720-4a24-81fd-7f51758142df"
  }
]