[
  {
    "id": "36c7fa1f-cdb3-4a2b-be85-de7b9ccccf59",
    "name": "Amphoe Amphawa",
    "state_id": "fd380205-ff8e-49ac-b415-789d2973d076"
  },
  {
    "id": "41bccae6-c3a1-466f-824a-637e0a9c9635",
    "name": "Amphoe Bang Khonthi",
    "state_id": "fd380205-ff8e-49ac-b415-789d2973d076"
  },
  {
    "id": "8f60f7c0-a501-4ee2-a460-aeb2152b3190",
    "name": "Amphoe Mueang Samut Songkhram",
    "state_id": "fd380205-ff8e-49ac-b415-789d2973d076"
  },
  {
    "id": "60e89f8d-acfe-48d0-aee3-bd2a4820ea47",
    "name": "Samut Songkhram",
    "state_id": "fd380205-ff8e-49ac-b415-789d2973d076"
  }
]