[
  {
    "id": "71188910-6727-4885-b1f6-95441924c629",
    "name": "Aizawl",
    "state_id": "fdb8f02e-41ba-4986-84d0-7f91b31952b0"
  },
  {
    "id": "89a369af-4f38-49e0-91f0-7aa1a54ebe1d",
    "name": "Champhai",
    "state_id": "fdb8f02e-41ba-4986-84d0-7f91b31952b0"
  },
  {
    "id": "ab13f973-1859-457a-bbb4-3b9d6e6b9751",
    "name": "Darlawn",
    "state_id": "fdb8f02e-41ba-4986-84d0-7f91b31952b0"
  },
  {
    "id": "3de8a0e7-5845-471f-9c5a-78fb6513706f",
    "name": "Khawhai",
    "state_id": "fdb8f02e-41ba-4986-84d0-7f91b31952b0"
  },
  {
    "id": "2cf46696-720e-4d13-ab31-29973961e5cb",
    "name": "Kolasib",
    "state_id": "fdb8f02e-41ba-4986-84d0-7f91b31952b0"
  },
  {
    "id": "633af7ca-df76-461e-95bf-cdf258157702",
    "name": "Kolasib district",
    "state_id": "fdb8f02e-41ba-4986-84d0-7f91b31952b0"
  },
  {
    "id": "7c0db3e3-098d-45a3-96f3-772f6120aadf",
    "name": "Lawngtlai",
    "state_id": "fdb8f02e-41ba-4986-84d0-7f91b31952b0"
  },
  {
    "id": "e85d5c1a-c190-464a-b570-03d80a9a4a39",
    "name": "Lunglei",
    "state_id": "fdb8f02e-41ba-4986-84d0-7f91b31952b0"
  },
  {
    "id": "d19fb2e8-50ea-4070-8268-c51b6efd7f85",
    "name": "Mamit",
    "state_id": "fdb8f02e-41ba-4986-84d0-7f91b31952b0"
  },
  {
    "id": "13885a75-dd9b-4c0b-99e6-3b0c65ccc658",
    "name": "North Vanlaiphai",
    "state_id": "fdb8f02e-41ba-4986-84d0-7f91b31952b0"
  },
  {
    "id": "c234ecc3-7790-4bd7-9b3a-b9f9cbab1c44",
    "name": "Saiha",
    "state_id": "fdb8f02e-41ba-4986-84d0-7f91b31952b0"
  },
  {
    "id": "f4af7a01-ccfa-4fb9-b280-4e25a379430b",
    "name": "Sairang",
    "state_id": "fdb8f02e-41ba-4986-84d0-7f91b31952b0"
  },
  {
    "id": "935f9abe-0b72-4e2a-b330-a82602b963f4",
    "name": "Saitlaw",
    "state_id": "fdb8f02e-41ba-4986-84d0-7f91b31952b0"
  },
  {
    "id": "d4aa013b-27fc-43a1-887f-1c5c97bf694e",
    "name": "Serchhip",
    "state_id": "fdb8f02e-41ba-4986-84d0-7f91b31952b0"
  },
  {
    "id": "6e8108aa-9462-4dd8-b4cb-363081c8629d",
    "name": "Thenzawl",
    "state_id": "fdb8f02e-41ba-4986-84d0-7f91b31952b0"
  }
]