[
  {
    "id": "46fcffa5-6e4c-463f-8c2f-b65a92dc4a7c",
    "name": "Andreapol’",
    "state_id": "fe41444d-126c-4536-9485-bc091e083da1"
  },
  {
    "id": "a3f7ca59-2d72-4ede-b4eb-06d1a8573aca",
    "name": "Andreapol’skiy Rayon",
    "state_id": "fe41444d-126c-4536-9485-bc091e083da1"
  },
  {
    "id": "93344494-eac0-4247-9921-8327d0d34b0d",
    "name": "Bel’skiy Rayon",
    "state_id": "fe41444d-126c-4536-9485-bc091e083da1"
  },
  {
    "id": "f824af02-e202-4f05-8459-24cd451ac88d",
    "name": "Belyy",
    "state_id": "fe41444d-126c-4536-9485-bc091e083da1"
  },
  {
    "id": "392814e5-3fdc-42d7-abd0-0d816e9a0638",
    "name": "Belyy Gorodok",
    "state_id": "fe41444d-126c-4536-9485-bc091e083da1"
  },
  {
    "id": "58606056-53c5-4031-80d3-29749e7f3db7",
    "name": "Berezayka",
    "state_id": "fe41444d-126c-4536-9485-bc091e083da1"
  },
  {
    "id": "669c1280-50ff-4f33-97ce-9c13a00211a2",
    "name": "Bernovo",
    "state_id": "fe41444d-126c-4536-9485-bc091e083da1"
  },
  {
    "id": "073d434a-3bbd-485b-8a3e-43f7584ecfa1",
    "name": "Bezhetsk",
    "state_id": "fe41444d-126c-4536-9485-bc091e083da1"
  },
  {
    "id": "6acf6210-7000-4929-8336-06d399f722d0",
    "name": "Bezhetskiy Rayon",
    "state_id": "fe41444d-126c-4536-9485-bc091e083da1"
  },
  {
    "id": "e894c96c-b579-4007-9206-9cdd4a762b24",
    "name": "Bologovskiy Rayon",
    "state_id": "fe41444d-126c-4536-9485-bc091e083da1"
  },
  {
    "id": "400fb40d-432e-4681-9ef3-1cd8a47010bd",
    "name": "Bologoye",
    "state_id": "fe41444d-126c-4536-9485-bc091e083da1"
  },
  {
    "id": "16f50e65-7a1d-4e5a-9b40-8ed981a176fd",
    "name": "Bologoye-4",
    "state_id": "fe41444d-126c-4536-9485-bc091e083da1"
  },
  {
    "id": "87ff266b-7990-4930-bece-46d0c170d99c",
    "name": "Emmaus",
    "state_id": "fe41444d-126c-4536-9485-bc091e083da1"
  },
  {
    "id": "7ac76783-60c7-4967-bd9e-2838924c2c7b",
    "name": "Firovo",
    "state_id": "fe41444d-126c-4536-9485-bc091e083da1"
  },
  {
    "id": "38ff12d6-bfeb-484b-8f89-c54157268d0a",
    "name": "Firovskiy Rayon",
    "state_id": "fe41444d-126c-4536-9485-bc091e083da1"
  },
  {
    "id": "f6b9ae0a-940c-4349-8c19-c40e3f1720ad",
    "name": "Gorodnya",
    "state_id": "fe41444d-126c-4536-9485-bc091e083da1"
  },
  {
    "id": "af54f706-eae3-4529-8ded-dfe17cfdef54",
    "name": "Il’inskoye",
    "state_id": "fe41444d-126c-4536-9485-bc091e083da1"
  },
  {
    "id": "48d0cc67-9ea2-4646-94bc-988d0a5f2f46",
    "name": "Izoplit",
    "state_id": "fe41444d-126c-4536-9485-bc091e083da1"
  },
  {
    "id": "d0353cc9-8ab7-4cc2-be33-6e089315b313",
    "name": "Kalashnikovo",
    "state_id": "fe41444d-126c-4536-9485-bc091e083da1"
  },
  {
    "id": "2077773e-5b18-473a-801a-849a5f0f587e",
    "name": "Kalininskiy Rayon",
    "state_id": "fe41444d-126c-4536-9485-bc091e083da1"
  },
  {
    "id": "8b4f30fb-20af-40a2-a6a0-4df8b4759c55",
    "name": "Kalyazin",
    "state_id": "fe41444d-126c-4536-9485-bc091e083da1"
  },
  {
    "id": "eeedd278-0692-448e-98ee-9568592a95d1",
    "name": "Kalyazinskiy Rayon",
    "state_id": "fe41444d-126c-4536-9485-bc091e083da1"
  },
  {
    "id": "b82c1c4b-4b54-4fcf-a83a-4d44c7596949",
    "name": "Kashin",
    "state_id": "fe41444d-126c-4536-9485-bc091e083da1"
  },
  {
    "id": "28022300-41ef-45ff-8132-2c4b22991062",
    "name": "Kashinskiy Rayon",
    "state_id": "fe41444d-126c-4536-9485-bc091e083da1"
  },
  {
    "id": "ec86e1c7-c472-409c-a96f-6edb3cd63f6f",
    "name": "Kesova Gora",
    "state_id": "fe41444d-126c-4536-9485-bc091e083da1"
  },
  {
    "id": "c7b9fbbb-2616-43ff-8bbb-bf066ced20c7",
    "name": "Kesovogorskiy Rayon",
    "state_id": "fe41444d-126c-4536-9485-bc091e083da1"
  },
  {
    "id": "1df42e4d-3fe3-4f80-ba15-93f18853a917",
    "name": "Kimrskiy Rayon",
    "state_id": "fe41444d-126c-4536-9485-bc091e083da1"
  },
  {
    "id": "952493c8-3e22-4ddd-b6eb-346782992b99",
    "name": "Kimry",
    "state_id": "fe41444d-126c-4536-9485-bc091e083da1"
  },
  {
    "id": "5884fc00-1dff-4f6e-b170-222e9286678b",
    "name": "Konakovo",
    "state_id": "fe41444d-126c-4536-9485-bc091e083da1"
  },
  {
    "id": "326f5079-2def-4308-a3a1-786a2979a88b",
    "name": "Konakovskiy Rayon",
    "state_id": "fe41444d-126c-4536-9485-bc091e083da1"
  },
  {
    "id": "03a57b9a-681e-4e8d-a042-4a18404c30e2",
    "name": "Kozlovo",
    "state_id": "fe41444d-126c-4536-9485-bc091e083da1"
  },
  {
    "id": "7a662f1b-6baf-43ce-96b5-505b6ba2e393",
    "name": "Krasnokholmskiy Rayon",
    "state_id": "fe41444d-126c-4536-9485-bc091e083da1"
  },
  {
    "id": "d8e0fad5-23e0-42d8-a428-180316121592",
    "name": "Krasnomayskiy",
    "state_id": "fe41444d-126c-4536-9485-bc091e083da1"
  },
  {
    "id": "f6599705-8243-4bc6-9ad2-7ba73d60cc55",
    "name": "Krasnyy Kholm",
    "state_id": "fe41444d-126c-4536-9485-bc091e083da1"
  },
  {
    "id": "a6e89e09-31e1-44f5-be4d-8bea1bb9cccd",
    "name": "Kuvshinovo",
    "state_id": "fe41444d-126c-4536-9485-bc091e083da1"
  },
  {
    "id": "13f28a31-00b5-43e6-8c6a-04bef555675c",
    "name": "Kuvshinovskiy Rayon",
    "state_id": "fe41444d-126c-4536-9485-bc091e083da1"
  },
  {
    "id": "92f8872b-2bdf-4ff6-81d8-f0086dbf30c6",
    "name": "Kuzhenkino",
    "state_id": "fe41444d-126c-4536-9485-bc091e083da1"
  },
  {
    "id": "df450cda-72e5-40d3-8a5b-0b83c0536a54",
    "name": "Lesnoy Rayon",
    "state_id": "fe41444d-126c-4536-9485-bc091e083da1"
  },
  {
    "id": "b13547cd-98e6-4e96-8ce6-ba96e2c68a1f",
    "name": "Lesnoye",
    "state_id": "fe41444d-126c-4536-9485-bc091e083da1"
  },
  {
    "id": "7128fb9c-aa9a-4098-a67c-f85e06181478",
    "name": "Likhoslavl’",
    "state_id": "fe41444d-126c-4536-9485-bc091e083da1"
  },
  {
    "id": "fc9892c3-ed51-4c2c-847d-4de55f90a671",
    "name": "Likhoslavl’skiy Rayon",
    "state_id": "fe41444d-126c-4536-9485-bc091e083da1"
  },
  {
    "id": "b5e41779-db8b-4af4-a863-79b43305ac43",
    "name": "Maksatikha",
    "state_id": "fe41444d-126c-4536-9485-bc091e083da1"
  },
  {
    "id": "8e2652a5-6fb8-490e-beab-19f5df14eeed",
    "name": "Maksatikhinskiy Rayon",
    "state_id": "fe41444d-126c-4536-9485-bc091e083da1"
  },
  {
    "id": "ab949345-cc71-4e7e-91af-79904467bbb4",
    "name": "Molokovo",
    "state_id": "fe41444d-126c-4536-9485-bc091e083da1"
  },
  {
    "id": "bfd43db4-cad7-4767-8264-ba7054416358",
    "name": "Nelidovo",
    "state_id": "fe41444d-126c-4536-9485-bc091e083da1"
  },
  {
    "id": "9233ed8a-38cd-4ca8-adef-b843de800338",
    "name": "Novozavidovskiy",
    "state_id": "fe41444d-126c-4536-9485-bc091e083da1"
  },
  {
    "id": "d44ee1d3-0ab0-4b67-aab8-49a901725264",
    "name": "Olenino",
    "state_id": "fe41444d-126c-4536-9485-bc091e083da1"
  },
  {
    "id": "ce3d1049-7f36-4759-9bc6-552dbbc86e17",
    "name": "Orsha",
    "state_id": "fe41444d-126c-4536-9485-bc091e083da1"
  },
  {
    "id": "4a7ffc5b-2853-4527-9bde-085957c22c3f",
    "name": "Ostashkov",
    "state_id": "fe41444d-126c-4536-9485-bc091e083da1"
  },
  {
    "id": "a6c51fa7-acc5-41af-acce-7fde89bdd46e",
    "name": "Ostashkovskiy Rayon",
    "state_id": "fe41444d-126c-4536-9485-bc091e083da1"
  },
  {
    "id": "1777f6de-bb36-4d49-8626-f2484064f6af",
    "name": "Peno",
    "state_id": "fe41444d-126c-4536-9485-bc091e083da1"
  },
  {
    "id": "c2c99270-d246-489e-a9b8-f6cd2a183c38",
    "name": "Penovskiy Rayon",
    "state_id": "fe41444d-126c-4536-9485-bc091e083da1"
  },
  {
    "id": "19d47655-0ac4-446d-8566-6a0bbb8a861c",
    "name": "Radchenko",
    "state_id": "fe41444d-126c-4536-9485-bc091e083da1"
  },
  {
    "id": "ec6da09e-e6b3-40a4-b5bc-8a8919847720",
    "name": "Rameshki",
    "state_id": "fe41444d-126c-4536-9485-bc091e083da1"
  },
  {
    "id": "15dbf214-520b-41ff-bb24-a2d83bf6dd63",
    "name": "Rameshkovskiy Rayon",
    "state_id": "fe41444d-126c-4536-9485-bc091e083da1"
  },
  {
    "id": "78bb70f9-3b63-47b3-ae0b-dcea0abf9ae7",
    "name": "Redkino",
    "state_id": "fe41444d-126c-4536-9485-bc091e083da1"
  },
  {
    "id": "bb2a596d-3a76-4735-b0b1-1fb359e7d1d3",
    "name": "Rzhev",
    "state_id": "fe41444d-126c-4536-9485-bc091e083da1"
  },
  {
    "id": "a6946822-0442-4fb6-bc87-9ba47fbd8f62",
    "name": "Sakharovo",
    "state_id": "fe41444d-126c-4536-9485-bc091e083da1"
  },
  {
    "id": "c1f4c5d4-4257-4139-935a-50f363ea7a82",
    "name": "Sandovo",
    "state_id": "fe41444d-126c-4536-9485-bc091e083da1"
  },
  {
    "id": "8ee1fa4d-0b2b-430d-8513-f3adc500e6ed",
    "name": "Sandovskiy Rayon",
    "state_id": "fe41444d-126c-4536-9485-bc091e083da1"
  },
  {
    "id": "4c17094b-6763-4466-88b0-2ba950378587",
    "name": "Selishche",
    "state_id": "fe41444d-126c-4536-9485-bc091e083da1"
  },
  {
    "id": "9666f4f1-0278-4d19-99cc-779165124bae",
    "name": "Selizharovo",
    "state_id": "fe41444d-126c-4536-9485-bc091e083da1"
  },
  {
    "id": "b6d2f6c9-b7de-4fbb-a832-e8098d72ae34",
    "name": "Selizharovskiy Rayon",
    "state_id": "fe41444d-126c-4536-9485-bc091e083da1"
  },
  {
    "id": "052228a8-bb2f-47e8-9453-0e79074c183f",
    "name": "Sonkovo",
    "state_id": "fe41444d-126c-4536-9485-bc091e083da1"
  },
  {
    "id": "83f187cf-bde2-47ae-b707-39233654a356",
    "name": "Spirovo",
    "state_id": "fe41444d-126c-4536-9485-bc091e083da1"
  },
  {
    "id": "52245feb-7ac9-4dea-98a9-268c2f03ffbd",
    "name": "Spirovskiy Rayon",
    "state_id": "fe41444d-126c-4536-9485-bc091e083da1"
  },
  {
    "id": "0fdf86f5-0153-49ff-9993-e559f55758b1",
    "name": "Stantsia Staritsa",
    "state_id": "fe41444d-126c-4536-9485-bc091e083da1"
  },
  {
    "id": "7ed9084f-b5ae-4cc9-8727-bbab87956eea",
    "name": "Staraya Toropa",
    "state_id": "fe41444d-126c-4536-9485-bc091e083da1"
  },
  {
    "id": "e819f0b8-2451-426f-9016-3ae4cded1e8f",
    "name": "Staritsa",
    "state_id": "fe41444d-126c-4536-9485-bc091e083da1"
  },
  {
    "id": "15fbfd25-cd70-4c64-9c05-ded24299817e",
    "name": "Staritskiy Rayon",
    "state_id": "fe41444d-126c-4536-9485-bc091e083da1"
  },
  {
    "id": "6203cf96-02ac-48e9-b533-72dcaf0d7f9d",
    "name": "Toropets",
    "state_id": "fe41444d-126c-4536-9485-bc091e083da1"
  },
  {
    "id": "c2ab77ec-1a82-42e5-b5e7-8a6469eb54e6",
    "name": "Toropetskiy Rayon",
    "state_id": "fe41444d-126c-4536-9485-bc091e083da1"
  },
  {
    "id": "0f8c7791-964a-4071-a701-85ff759446ec",
    "name": "Torzhok",
    "state_id": "fe41444d-126c-4536-9485-bc091e083da1"
  },
  {
    "id": "d02fbf27-9b52-4d6c-a5cc-4c516de55bb2",
    "name": "Torzhokskiy Rayon",
    "state_id": "fe41444d-126c-4536-9485-bc091e083da1"
  },
  {
    "id": "3c042e34-a051-4263-90dc-39bce8a53036",
    "name": "Tver",
    "state_id": "fe41444d-126c-4536-9485-bc091e083da1"
  },
  {
    "id": "9a40e86b-8830-48f3-8787-33882027c8bf",
    "name": "Udomlya",
    "state_id": "fe41444d-126c-4536-9485-bc091e083da1"
  },
  {
    "id": "6ee90824-18d7-4d23-9be8-b4c796223acb",
    "name": "Vasil’yevskiy Mokh",
    "state_id": "fe41444d-126c-4536-9485-bc091e083da1"
  },
  {
    "id": "241493d9-baae-44a9-a4b9-4b6453c4e033",
    "name": "Velikooktyabr’skiy",
    "state_id": "fe41444d-126c-4536-9485-bc091e083da1"
  },
  {
    "id": "6a210b84-04b0-4ad6-ab9d-9d1c7a966955",
    "name": "Ves’yegonsk",
    "state_id": "fe41444d-126c-4536-9485-bc091e083da1"
  },
  {
    "id": "ea1f94a8-d6bc-4916-b13b-143b86692c57",
    "name": "Ves’yegonskiy Rayon",
    "state_id": "fe41444d-126c-4536-9485-bc091e083da1"
  },
  {
    "id": "aa7ab21a-9c72-49f6-9323-0ad6412b039f",
    "name": "Vydropuzhsk",
    "state_id": "fe41444d-126c-4536-9485-bc091e083da1"
  },
  {
    "id": "3804c592-9ab1-4c78-a6fa-b45fb044dc9d",
    "name": "Vypolzovo",
    "state_id": "fe41444d-126c-4536-9485-bc091e083da1"
  },
  {
    "id": "51ef28fe-e2e8-49eb-b3d2-e10a029adbb9",
    "name": "Vyshnevolotskiy Rayon",
    "state_id": "fe41444d-126c-4536-9485-bc091e083da1"
  },
  {
    "id": "64ca7873-6b5a-475f-aeb0-0e0141538187",
    "name": "Vyshniy Volochëk",
    "state_id": "fe41444d-126c-4536-9485-bc091e083da1"
  },
  {
    "id": "0a23554c-2a30-49eb-90b1-049567a356df",
    "name": "Zapadnaya Dvina",
    "state_id": "fe41444d-126c-4536-9485-bc091e083da1"
  },
  {
    "id": "0f83bdf5-ffa9-45fa-8403-60c37f0cb44d",
    "name": "Zavidovo",
    "state_id": "fe41444d-126c-4536-9485-bc091e083da1"
  },
  {
    "id": "4b3de23d-bd02-46b6-8810-b0ee1caa9e84",
    "name": "Zharkovskiy",
    "state_id": "fe41444d-126c-4536-9485-bc091e083da1"
  },
  {
    "id": "67dc64b5-b8f5-4453-bb52-b860296d973b",
    "name": "Zubtsov",
    "state_id": "fe41444d-126c-4536-9485-bc091e083da1"
  },
  {
    "id": "37705881-1256-44ce-9f87-f09d3e7baa7c",
    "name": "Zubtsovskiy Rayon",
    "state_id": "fe41444d-126c-4536-9485-bc091e083da1"
  }
]