[
  {
    "id": "5ae04172-49aa-425e-9f5f-c708487e85de",
    "name": "Acari",
    "state_id": "fef98589-4f5c-4128-92e0-da1665268806"
  },
  {
    "id": "e859ed66-ce0f-4168-80e3-265ce2410e23",
    "name": "Açu",
    "state_id": "fef98589-4f5c-4128-92e0-da1665268806"
  },
  {
    "id": "b24aee9f-497a-453c-aeac-dfbcd71f91b2",
    "name": "Afonso Bezerra",
    "state_id": "fef98589-4f5c-4128-92e0-da1665268806"
  },
  {
    "id": "5b8a50bb-616f-47b8-9985-be7af7fb14d4",
    "name": "Água Nova",
    "state_id": "fef98589-4f5c-4128-92e0-da1665268806"
  },
  {
    "id": "0b23f2d5-8e7e-43bc-bda3-bf0511f11d64",
    "name": "Alexandria",
    "state_id": "fef98589-4f5c-4128-92e0-da1665268806"
  },
  {
    "id": "52e2fe06-dc7e-4fe6-9cff-e24ad839fb1f",
    "name": "Almino Afonso",
    "state_id": "fef98589-4f5c-4128-92e0-da1665268806"
  },
  {
    "id": "8ee8c768-2b43-4bf3-9400-574c1e831ac0",
    "name": "Alto do Rodrigues",
    "state_id": "fef98589-4f5c-4128-92e0-da1665268806"
  },
  {
    "id": "d781bc77-3df3-4c67-9a1b-0fd60b578280",
    "name": "Angicos",
    "state_id": "fef98589-4f5c-4128-92e0-da1665268806"
  },
  {
    "id": "231477cb-e670-4ccc-9a7d-b26f14c92519",
    "name": "Antônio Martins",
    "state_id": "fef98589-4f5c-4128-92e0-da1665268806"
  },
  {
    "id": "5479e4c2-6f40-463b-b6cb-4c8f7f77f912",
    "name": "Apodi",
    "state_id": "fef98589-4f5c-4128-92e0-da1665268806"
  },
  {
    "id": "435ed4ce-222f-43a0-9af3-c677c19519bb",
    "name": "Areia Branca",
    "state_id": "fef98589-4f5c-4128-92e0-da1665268806"
  },
  {
    "id": "d066f028-24b6-472c-a9d2-5203c4a579da",
    "name": "Arês",
    "state_id": "fef98589-4f5c-4128-92e0-da1665268806"
  },
  {
    "id": "51e4d9ce-4b2e-41f1-b12a-d52eebf46e08",
    "name": "Augusto Severo",
    "state_id": "fef98589-4f5c-4128-92e0-da1665268806"
  },
  {
    "id": "92744929-7eb5-40e5-9fac-2ac7e4a96737",
    "name": "Baía Formosa",
    "state_id": "fef98589-4f5c-4128-92e0-da1665268806"
  },
  {
    "id": "5a7ea8f1-46b2-4bad-91fc-c7bd7afe4dbc",
    "name": "Baraúna",
    "state_id": "fef98589-4f5c-4128-92e0-da1665268806"
  },
  {
    "id": "eac5880b-0ac7-4393-8ce0-55953f3f2f21",
    "name": "Barcelona",
    "state_id": "fef98589-4f5c-4128-92e0-da1665268806"
  },
  {
    "id": "aa4debe0-7ae5-4e3d-a539-26bea2f6798b",
    "name": "Bento Fernandes",
    "state_id": "fef98589-4f5c-4128-92e0-da1665268806"
  },
  {
    "id": "3c305a84-6eb3-4cfe-91ef-041151b33502",
    "name": "Bodó",
    "state_id": "fef98589-4f5c-4128-92e0-da1665268806"
  },
  {
    "id": "6c53d4a6-da37-4993-a801-98c8c2ee2974",
    "name": "Bom Jesus",
    "state_id": "fef98589-4f5c-4128-92e0-da1665268806"
  },
  {
    "id": "76ce4abe-88ed-4524-b2e6-45ce28c9e66f",
    "name": "Brejinho",
    "state_id": "fef98589-4f5c-4128-92e0-da1665268806"
  },
  {
    "id": "661d0256-4273-4069-a265-0a93afbdb66a",
    "name": "Caiçara do Norte",
    "state_id": "fef98589-4f5c-4128-92e0-da1665268806"
  },
  {
    "id": "1bbc3f12-a3cd-4d0c-81a7-bea8316390d8",
    "name": "Caiçara do Rio do Vento",
    "state_id": "fef98589-4f5c-4128-92e0-da1665268806"
  },
  {
    "id": "c9bc3ad1-9d99-46f9-8bb1-c723618f55f7",
    "name": "Caicó",
    "state_id": "fef98589-4f5c-4128-92e0-da1665268806"
  },
  {
    "id": "41a14fc6-7c35-4611-80f6-f6e188ab6df0",
    "name": "Campo Redondo",
    "state_id": "fef98589-4f5c-4128-92e0-da1665268806"
  },
  {
    "id": "ec2fcfb8-1aa3-40dd-8569-c39f5e9070c7",
    "name": "Canguaretama",
    "state_id": "fef98589-4f5c-4128-92e0-da1665268806"
  },
  {
    "id": "e533c78c-28ab-4146-964a-c419ba17bffa",
    "name": "Caraúbas",
    "state_id": "fef98589-4f5c-4128-92e0-da1665268806"
  },
  {
    "id": "71e0da7d-7163-4bec-94c9-18d52b806e73",
    "name": "Carnaúba dos Dantas",
    "state_id": "fef98589-4f5c-4128-92e0-da1665268806"
  },
  {
    "id": "72764ee2-8803-4b31-a4e3-8e13e6994166",
    "name": "Carnaubais",
    "state_id": "fef98589-4f5c-4128-92e0-da1665268806"
  },
  {
    "id": "35752b51-ae3d-4385-868c-dcff9fd0bac2",
    "name": "Ceará Mirim",
    "state_id": "fef98589-4f5c-4128-92e0-da1665268806"
  },
  {
    "id": "319018c2-c45e-4f63-be01-54203428f248",
    "name": "Ceará-Mirim",
    "state_id": "fef98589-4f5c-4128-92e0-da1665268806"
  },
  {
    "id": "022f5fef-6a0d-4afb-9ab5-ee2b378611a7",
    "name": "Cerro Corá",
    "state_id": "fef98589-4f5c-4128-92e0-da1665268806"
  },
  {
    "id": "7ee4f9db-c0dd-4390-b6ef-14f18821237c",
    "name": "Coronel Ezequiel",
    "state_id": "fef98589-4f5c-4128-92e0-da1665268806"
  },
  {
    "id": "c943c4a8-9cef-4bf6-9303-970914d3020b",
    "name": "Coronel João Pessoa",
    "state_id": "fef98589-4f5c-4128-92e0-da1665268806"
  },
  {
    "id": "cd085eb8-cf96-4939-948e-41e32cf34470",
    "name": "Cruzeta",
    "state_id": "fef98589-4f5c-4128-92e0-da1665268806"
  },
  {
    "id": "50d61ad8-0925-44b4-83a2-3d0d1966c518",
    "name": "Currais Novos",
    "state_id": "fef98589-4f5c-4128-92e0-da1665268806"
  },
  {
    "id": "60a96277-abb5-4748-b869-d711866342a1",
    "name": "Doutor Severiano",
    "state_id": "fef98589-4f5c-4128-92e0-da1665268806"
  },
  {
    "id": "939e82ce-1f9c-4433-a46c-70e47498ec62",
    "name": "Encanto",
    "state_id": "fef98589-4f5c-4128-92e0-da1665268806"
  },
  {
    "id": "38c6ee0d-f353-4cb9-8842-4a7a5d6a9a0d",
    "name": "Equador",
    "state_id": "fef98589-4f5c-4128-92e0-da1665268806"
  },
  {
    "id": "f00fa9ed-6efd-4754-b9b0-31e7bb93bd97",
    "name": "Espírito Santo",
    "state_id": "fef98589-4f5c-4128-92e0-da1665268806"
  },
  {
    "id": "39b7e79e-85f6-4583-b45e-a56e85527b6d",
    "name": "Extremoz",
    "state_id": "fef98589-4f5c-4128-92e0-da1665268806"
  },
  {
    "id": "9eac7626-d014-4ca3-8042-43948d9de660",
    "name": "Felipe Guerra",
    "state_id": "fef98589-4f5c-4128-92e0-da1665268806"
  },
  {
    "id": "fddfa4e5-67be-4651-b2df-01f23c802cd6",
    "name": "Fernando Pedroza",
    "state_id": "fef98589-4f5c-4128-92e0-da1665268806"
  },
  {
    "id": "88bc10fb-bb91-4d19-9d88-b78261d24597",
    "name": "Florânia",
    "state_id": "fef98589-4f5c-4128-92e0-da1665268806"
  },
  {
    "id": "6a7e0fc0-57e5-4516-92ca-ee5676b0d4d2",
    "name": "Francisco Dantas",
    "state_id": "fef98589-4f5c-4128-92e0-da1665268806"
  },
  {
    "id": "adbda7a3-c806-4dc1-bbee-4239d79b7a61",
    "name": "Frutuoso Gomes",
    "state_id": "fef98589-4f5c-4128-92e0-da1665268806"
  },
  {
    "id": "2a7d047f-969e-4f4c-a275-882f787883f7",
    "name": "Galinhos",
    "state_id": "fef98589-4f5c-4128-92e0-da1665268806"
  },
  {
    "id": "473c26ea-7913-45cb-95c9-4af63ef2fd48",
    "name": "Goianinha",
    "state_id": "fef98589-4f5c-4128-92e0-da1665268806"
  },
  {
    "id": "49c9bb03-1366-4250-bc66-34179bf8638e",
    "name": "Governador Dix Sept Rosado",
    "state_id": "fef98589-4f5c-4128-92e0-da1665268806"
  },
  {
    "id": "088414a0-f3a3-40c0-8424-3a8053747095",
    "name": "Governador Dix-Sept Rosado",
    "state_id": "fef98589-4f5c-4128-92e0-da1665268806"
  },
  {
    "id": "457cacaa-829e-4581-821f-cd2b52628301",
    "name": "Grossos",
    "state_id": "fef98589-4f5c-4128-92e0-da1665268806"
  },
  {
    "id": "79c0a06d-192e-4e87-9023-658f3e61433f",
    "name": "Guamaré",
    "state_id": "fef98589-4f5c-4128-92e0-da1665268806"
  },
  {
    "id": "77c02b44-d7b5-4e03-b1d9-15f1ca81f9da",
    "name": "Ielmo Marinho",
    "state_id": "fef98589-4f5c-4128-92e0-da1665268806"
  },
  {
    "id": "1e2b473b-2018-4c31-abb7-3ac67deb0acb",
    "name": "Ipanguaçu",
    "state_id": "fef98589-4f5c-4128-92e0-da1665268806"
  },
  {
    "id": "388bb724-6ee9-4cd6-8ccd-4521128000c0",
    "name": "Ipueira",
    "state_id": "fef98589-4f5c-4128-92e0-da1665268806"
  },
  {
    "id": "00ef5fe3-42cf-4591-a470-21e9193285ff",
    "name": "Itajá",
    "state_id": "fef98589-4f5c-4128-92e0-da1665268806"
  },
  {
    "id": "2bc4d74a-3800-497d-a67e-1ae4f61d787e",
    "name": "Itaú",
    "state_id": "fef98589-4f5c-4128-92e0-da1665268806"
  },
  {
    "id": "f8438a7b-bff2-4783-ac88-b64e93cb6431",
    "name": "Jaçanã",
    "state_id": "fef98589-4f5c-4128-92e0-da1665268806"
  },
  {
    "id": "dcf23624-7758-4c37-bd41-a909ad685067",
    "name": "Jandaíra",
    "state_id": "fef98589-4f5c-4128-92e0-da1665268806"
  },
  {
    "id": "703fcf33-b235-4f41-9cf3-8fff9d64c2ff",
    "name": "Janduís",
    "state_id": "fef98589-4f5c-4128-92e0-da1665268806"
  },
  {
    "id": "deddc867-2ff1-4c10-964b-1de8d4e91257",
    "name": "Januário Cicco",
    "state_id": "fef98589-4f5c-4128-92e0-da1665268806"
  },
  {
    "id": "17b6be84-a7f8-4e86-9026-bfb2c3519a91",
    "name": "Japi",
    "state_id": "fef98589-4f5c-4128-92e0-da1665268806"
  },
  {
    "id": "928dbfbd-0edc-44bb-b457-4d0f727554ba",
    "name": "Jardim de Angicos",
    "state_id": "fef98589-4f5c-4128-92e0-da1665268806"
  },
  {
    "id": "9b64910a-0219-494e-9faf-58b2be042159",
    "name": "Jardim de Piranhas",
    "state_id": "fef98589-4f5c-4128-92e0-da1665268806"
  },
  {
    "id": "aa75de5b-81d4-4490-836c-434ec1f2c7e3",
    "name": "Jardim do Seridó",
    "state_id": "fef98589-4f5c-4128-92e0-da1665268806"
  },
  {
    "id": "f642e6e5-65fb-409a-9022-5e9e0acde67c",
    "name": "João Câmara",
    "state_id": "fef98589-4f5c-4128-92e0-da1665268806"
  },
  {
    "id": "2c11ea67-8d4c-4807-a878-2aae197de4ad",
    "name": "João Dias",
    "state_id": "fef98589-4f5c-4128-92e0-da1665268806"
  },
  {
    "id": "b310fa61-bf6a-4a14-aa3a-6d0044e802e2",
    "name": "José da Penha",
    "state_id": "fef98589-4f5c-4128-92e0-da1665268806"
  },
  {
    "id": "eca5781c-822e-47af-a4d8-77cf637576f5",
    "name": "Jucurutu",
    "state_id": "fef98589-4f5c-4128-92e0-da1665268806"
  },
  {
    "id": "2d7984f7-5a95-4524-be98-b09785a36390",
    "name": "Jundiá",
    "state_id": "fef98589-4f5c-4128-92e0-da1665268806"
  },
  {
    "id": "d350e4f9-5ad1-44fe-8ff2-e90761ccc3a6",
    "name": "Lagoa d'Anta",
    "state_id": "fef98589-4f5c-4128-92e0-da1665268806"
  },
  {
    "id": "8bee7d5b-d5d6-454f-a4a9-d46f48a40119",
    "name": "Lagoa de Pedras",
    "state_id": "fef98589-4f5c-4128-92e0-da1665268806"
  },
  {
    "id": "227357fd-f4b9-4c0b-b066-9b1df4f6471e",
    "name": "Lagoa de Velhos",
    "state_id": "fef98589-4f5c-4128-92e0-da1665268806"
  },
  {
    "id": "6d111d3c-78d5-42a4-a982-b7fd13b1e5f2",
    "name": "Lagoa Nova",
    "state_id": "fef98589-4f5c-4128-92e0-da1665268806"
  },
  {
    "id": "bc00a036-d08e-4388-94e9-696866c5eb6c",
    "name": "Lagoa Salgada",
    "state_id": "fef98589-4f5c-4128-92e0-da1665268806"
  },
  {
    "id": "0d371829-6b28-4ee2-a410-dcd7f78fe77c",
    "name": "Lajes",
    "state_id": "fef98589-4f5c-4128-92e0-da1665268806"
  },
  {
    "id": "c736cae2-6016-4797-af91-f445026daa89",
    "name": "Lajes Pintadas",
    "state_id": "fef98589-4f5c-4128-92e0-da1665268806"
  },
  {
    "id": "f1926777-1515-4292-8d3d-6f0b686e1f8a",
    "name": "Lucrécia",
    "state_id": "fef98589-4f5c-4128-92e0-da1665268806"
  },
  {
    "id": "de30ddaf-1be5-4b0a-b2aa-3546cb641ebe",
    "name": "Luís Gomes",
    "state_id": "fef98589-4f5c-4128-92e0-da1665268806"
  },
  {
    "id": "5407d6c7-c313-4d5d-b271-cf9bb6056b19",
    "name": "Macaíba",
    "state_id": "fef98589-4f5c-4128-92e0-da1665268806"
  },
  {
    "id": "ef1141be-d553-4e77-af21-98ab57fe37f7",
    "name": "Macau",
    "state_id": "fef98589-4f5c-4128-92e0-da1665268806"
  },
  {
    "id": "649e3e9a-081a-4de9-b0d2-e1d3eedbb7e2",
    "name": "Major Sales",
    "state_id": "fef98589-4f5c-4128-92e0-da1665268806"
  },
  {
    "id": "ae6d3441-8c61-4f0b-b4d8-450534898417",
    "name": "Marcelino Vieira",
    "state_id": "fef98589-4f5c-4128-92e0-da1665268806"
  },
  {
    "id": "c0158792-0ada-4741-9791-c60f98016eec",
    "name": "Martins",
    "state_id": "fef98589-4f5c-4128-92e0-da1665268806"
  },
  {
    "id": "82d5b3b5-446a-471a-b7ff-d42d292e0510",
    "name": "Maxaranguape",
    "state_id": "fef98589-4f5c-4128-92e0-da1665268806"
  },
  {
    "id": "c5875cb1-ff8b-4c07-aa59-29d5e171d404",
    "name": "Messias Targino",
    "state_id": "fef98589-4f5c-4128-92e0-da1665268806"
  },
  {
    "id": "cc11c81f-2743-4eba-a39d-7a90455ba3d4",
    "name": "Montanhas",
    "state_id": "fef98589-4f5c-4128-92e0-da1665268806"
  },
  {
    "id": "7a592ec4-7953-4f84-b37b-8b96048b782e",
    "name": "Monte Alegre",
    "state_id": "fef98589-4f5c-4128-92e0-da1665268806"
  },
  {
    "id": "d4c60fb7-90a7-40df-a177-110c4c35efaa",
    "name": "Monte das Gameleiras",
    "state_id": "fef98589-4f5c-4128-92e0-da1665268806"
  },
  {
    "id": "002ea268-7a0f-47c1-a795-e01bb741cdb6",
    "name": "Mossoró",
    "state_id": "fef98589-4f5c-4128-92e0-da1665268806"
  },
  {
    "id": "2481269c-9b18-4372-8689-c41bbc440358",
    "name": "Natal",
    "state_id": "fef98589-4f5c-4128-92e0-da1665268806"
  },
  {
    "id": "307ddc1d-b970-46dd-b8ef-f670a0b60ab6",
    "name": "Nísia Floresta",
    "state_id": "fef98589-4f5c-4128-92e0-da1665268806"
  },
  {
    "id": "33b3e23f-a816-4949-8700-91f4bd14579d",
    "name": "Nova Cruz",
    "state_id": "fef98589-4f5c-4128-92e0-da1665268806"
  },
  {
    "id": "fe8a8924-0ea6-4548-8a60-f82b3c27d7be",
    "name": "Olho-d'Água do Borges",
    "state_id": "fef98589-4f5c-4128-92e0-da1665268806"
  },
  {
    "id": "f118895f-8cdc-4f16-82ef-ebd58c39af65",
    "name": "Ouro Branco",
    "state_id": "fef98589-4f5c-4128-92e0-da1665268806"
  },
  {
    "id": "7d9cd7bd-72b2-4da1-bff8-221d64e8cd1e",
    "name": "Paraná",
    "state_id": "fef98589-4f5c-4128-92e0-da1665268806"
  },
  {
    "id": "bbb51525-5b94-4e98-bd11-7eda26d19ed9",
    "name": "Paraú",
    "state_id": "fef98589-4f5c-4128-92e0-da1665268806"
  },
  {
    "id": "28a11900-e155-4f2d-9337-4f119da60b8b",
    "name": "Parazinho",
    "state_id": "fef98589-4f5c-4128-92e0-da1665268806"
  },
  {
    "id": "92391859-8814-4242-94b0-ea353b3d3eef",
    "name": "Parelhas",
    "state_id": "fef98589-4f5c-4128-92e0-da1665268806"
  },
  {
    "id": "e839627e-5a64-47be-98ef-5148094a5f19",
    "name": "Parnamirim",
    "state_id": "fef98589-4f5c-4128-92e0-da1665268806"
  },
  {
    "id": "ddebd5d2-3424-412e-bc72-e66386d5299e",
    "name": "Passa e Fica",
    "state_id": "fef98589-4f5c-4128-92e0-da1665268806"
  },
  {
    "id": "4b0806ed-a4a6-4ea3-9796-a96de7b22027",
    "name": "Passagem",
    "state_id": "fef98589-4f5c-4128-92e0-da1665268806"
  },
  {
    "id": "2dabfec4-c622-4121-b04e-3f200e7268ea",
    "name": "Patu",
    "state_id": "fef98589-4f5c-4128-92e0-da1665268806"
  },
  {
    "id": "aa907338-12d5-4c5c-b2ef-0f478d0a4587",
    "name": "Pau dos Ferros",
    "state_id": "fef98589-4f5c-4128-92e0-da1665268806"
  },
  {
    "id": "ac411fee-7292-4cd4-b3d7-ba9040f1d742",
    "name": "Pedra Grande",
    "state_id": "fef98589-4f5c-4128-92e0-da1665268806"
  },
  {
    "id": "9e80deca-f573-4aae-9159-3283f5747467",
    "name": "Pedra Preta",
    "state_id": "fef98589-4f5c-4128-92e0-da1665268806"
  },
  {
    "id": "29c71bb4-c80c-452c-921f-b85f631655fa",
    "name": "Pedro Avelino",
    "state_id": "fef98589-4f5c-4128-92e0-da1665268806"
  },
  {
    "id": "d78a6b63-9245-4117-8eae-3e5c99d1f3e2",
    "name": "Pedro Velho",
    "state_id": "fef98589-4f5c-4128-92e0-da1665268806"
  },
  {
    "id": "a02557bf-c2c2-45ca-afb4-cef4696e1758",
    "name": "Pendências",
    "state_id": "fef98589-4f5c-4128-92e0-da1665268806"
  },
  {
    "id": "7c67eced-017b-480d-9bc4-bc29636aaa5c",
    "name": "Pilões",
    "state_id": "fef98589-4f5c-4128-92e0-da1665268806"
  },
  {
    "id": "e31b1257-5243-4e82-8b54-a3a20276df61",
    "name": "Poço Branco",
    "state_id": "fef98589-4f5c-4128-92e0-da1665268806"
  },
  {
    "id": "00b75361-b955-43e1-a6fc-302ccbfd099d",
    "name": "Portalegre",
    "state_id": "fef98589-4f5c-4128-92e0-da1665268806"
  },
  {
    "id": "629ceccd-49d1-4312-b625-8d66a5b683d3",
    "name": "Porto do Mangue",
    "state_id": "fef98589-4f5c-4128-92e0-da1665268806"
  },
  {
    "id": "bafa27db-1feb-4e0c-84c9-733fba1df069",
    "name": "Pureza",
    "state_id": "fef98589-4f5c-4128-92e0-da1665268806"
  },
  {
    "id": "5fe61a78-6842-4192-8d42-b0c16a5cf688",
    "name": "Rafael Fernandes",
    "state_id": "fef98589-4f5c-4128-92e0-da1665268806"
  },
  {
    "id": "35ef4f2e-ba77-4875-b680-5b9b0d43377b",
    "name": "Rafael Godeiro",
    "state_id": "fef98589-4f5c-4128-92e0-da1665268806"
  },
  {
    "id": "e79bde08-438c-4c3c-82dc-6ff088d253d4",
    "name": "Riacho da Cruz",
    "state_id": "fef98589-4f5c-4128-92e0-da1665268806"
  },
  {
    "id": "78644c29-bc8d-4cf3-88b4-9d8eae8c8756",
    "name": "Riacho de Santana",
    "state_id": "fef98589-4f5c-4128-92e0-da1665268806"
  },
  {
    "id": "9b24292e-c554-4449-a4ea-98f4193cdd79",
    "name": "Riachuelo",
    "state_id": "fef98589-4f5c-4128-92e0-da1665268806"
  },
  {
    "id": "b8007f78-833a-4456-81c4-6c28265d0cfe",
    "name": "Rio do Fogo",
    "state_id": "fef98589-4f5c-4128-92e0-da1665268806"
  },
  {
    "id": "68f78157-0cbc-47db-a462-00154c2dd63a",
    "name": "Rodolfo Fernandes",
    "state_id": "fef98589-4f5c-4128-92e0-da1665268806"
  },
  {
    "id": "1f1461ce-2687-439b-9ff7-6db88b8cbc3f",
    "name": "Ruy Barbosa",
    "state_id": "fef98589-4f5c-4128-92e0-da1665268806"
  },
  {
    "id": "8052e40f-bc46-4297-9d22-ace0f6255e88",
    "name": "Santa Cruz",
    "state_id": "fef98589-4f5c-4128-92e0-da1665268806"
  },
  {
    "id": "77ec4b9c-a48b-4112-8604-5c2297f34cf9",
    "name": "Santa Maria",
    "state_id": "fef98589-4f5c-4128-92e0-da1665268806"
  },
  {
    "id": "0418b813-4d3f-469c-93bc-2f8fa011c27c",
    "name": "Santana do Matos",
    "state_id": "fef98589-4f5c-4128-92e0-da1665268806"
  },
  {
    "id": "16de9ba0-8b9b-475a-b2ff-f63841d13894",
    "name": "Santana do Seridó",
    "state_id": "fef98589-4f5c-4128-92e0-da1665268806"
  },
  {
    "id": "1d1e67b2-e3c6-41e9-9cc7-02387d7c35d6",
    "name": "Santo Antônio",
    "state_id": "fef98589-4f5c-4128-92e0-da1665268806"
  },
  {
    "id": "83bba44e-7474-4548-a437-5376639b399c",
    "name": "São Bento do Norte",
    "state_id": "fef98589-4f5c-4128-92e0-da1665268806"
  },
  {
    "id": "f346f0b0-4201-4644-949b-5515cbcb2b10",
    "name": "São Bento do Trairí",
    "state_id": "fef98589-4f5c-4128-92e0-da1665268806"
  },
  {
    "id": "fbceb44f-c473-45f2-a011-26cee7fa98f3",
    "name": "São Fernando",
    "state_id": "fef98589-4f5c-4128-92e0-da1665268806"
  },
  {
    "id": "ffb02739-c442-4e18-8c19-c3e0c2b98e59",
    "name": "São Francisco do Oeste",
    "state_id": "fef98589-4f5c-4128-92e0-da1665268806"
  },
  {
    "id": "c26ec313-eb2f-4e41-8767-ebd1c1401227",
    "name": "São Gonçalo do Amarante",
    "state_id": "fef98589-4f5c-4128-92e0-da1665268806"
  },
  {
    "id": "43b0d680-70bb-4188-99cd-006400dc605e",
    "name": "São João do Sabugi",
    "state_id": "fef98589-4f5c-4128-92e0-da1665268806"
  },
  {
    "id": "98ea27d2-8334-464f-8fdf-92937f883994",
    "name": "São José de Mipibu",
    "state_id": "fef98589-4f5c-4128-92e0-da1665268806"
  },
  {
    "id": "4dbb999e-006a-4efd-8c96-4c29eb57bce5",
    "name": "São José do Campestre",
    "state_id": "fef98589-4f5c-4128-92e0-da1665268806"
  },
  {
    "id": "b9170f4a-4046-4450-b14f-ad073a0ae548",
    "name": "São José do Seridó",
    "state_id": "fef98589-4f5c-4128-92e0-da1665268806"
  },
  {
    "id": "ad2b9643-2817-4339-9b05-09bc7dee06e8",
    "name": "São Miguel",
    "state_id": "fef98589-4f5c-4128-92e0-da1665268806"
  },
  {
    "id": "06445d54-9aca-4d80-81a9-60d9459316f7",
    "name": "São Miguel do Gostoso",
    "state_id": "fef98589-4f5c-4128-92e0-da1665268806"
  },
  {
    "id": "7a5ea194-a5b8-48e2-ae74-03087a2c8cac",
    "name": "São Paulo do Potengi",
    "state_id": "fef98589-4f5c-4128-92e0-da1665268806"
  },
  {
    "id": "7170f345-7411-4949-85c1-e99a8d08d8b5",
    "name": "São Pedro",
    "state_id": "fef98589-4f5c-4128-92e0-da1665268806"
  },
  {
    "id": "5f6dec03-f967-44b4-a4cf-f330f2ce99d2",
    "name": "São Rafael",
    "state_id": "fef98589-4f5c-4128-92e0-da1665268806"
  },
  {
    "id": "d4fb62df-3db3-4ee2-a097-b66badfe12ee",
    "name": "São Tomé",
    "state_id": "fef98589-4f5c-4128-92e0-da1665268806"
  },
  {
    "id": "3260cf80-64de-4c16-8e8f-a0174e38c111",
    "name": "São Vicente",
    "state_id": "fef98589-4f5c-4128-92e0-da1665268806"
  },
  {
    "id": "53689593-c548-4122-be9b-3c1e7c5024a6",
    "name": "Senador Elói de Souza",
    "state_id": "fef98589-4f5c-4128-92e0-da1665268806"
  },
  {
    "id": "63facd0f-fc69-4556-af06-0faee023b406",
    "name": "Senador Georgino Avelino",
    "state_id": "fef98589-4f5c-4128-92e0-da1665268806"
  },
  {
    "id": "32f7a354-2c9b-441f-b487-c30613f0c038",
    "name": "Serra Caiada",
    "state_id": "fef98589-4f5c-4128-92e0-da1665268806"
  },
  {
    "id": "8586b102-adb7-4632-b667-3b31f878e27d",
    "name": "Serra de São Bento",
    "state_id": "fef98589-4f5c-4128-92e0-da1665268806"
  },
  {
    "id": "bf187d50-edc4-48e0-b96d-d5b3e8798d4d",
    "name": "Serra do Mel",
    "state_id": "fef98589-4f5c-4128-92e0-da1665268806"
  },
  {
    "id": "c6b39b6c-b471-452b-acd0-cefd321b334d",
    "name": "Serra Negra do Norte",
    "state_id": "fef98589-4f5c-4128-92e0-da1665268806"
  },
  {
    "id": "3ac8e660-b766-4db8-9893-b912ebfd035b",
    "name": "Serrinha",
    "state_id": "fef98589-4f5c-4128-92e0-da1665268806"
  },
  {
    "id": "0bc526f2-3140-477d-9321-2ea2d49a6634",
    "name": "Serrinha dos Pintos",
    "state_id": "fef98589-4f5c-4128-92e0-da1665268806"
  },
  {
    "id": "332957ac-e8f5-48ad-876b-d09e4e2c35be",
    "name": "Severiano Melo",
    "state_id": "fef98589-4f5c-4128-92e0-da1665268806"
  },
  {
    "id": "ab788f7e-ca91-4a13-8918-eee604ec3b79",
    "name": "Sítio Novo",
    "state_id": "fef98589-4f5c-4128-92e0-da1665268806"
  },
  {
    "id": "bf66453e-28d3-4793-ab75-d9eeca8c2f3a",
    "name": "Taboleiro Grande",
    "state_id": "fef98589-4f5c-4128-92e0-da1665268806"
  },
  {
    "id": "6602b3ac-891d-4374-b7fd-49b5a6459e5f",
    "name": "Taipu",
    "state_id": "fef98589-4f5c-4128-92e0-da1665268806"
  },
  {
    "id": "f2d3365b-3662-4da7-a28e-3b97aa677b58",
    "name": "Tangará",
    "state_id": "fef98589-4f5c-4128-92e0-da1665268806"
  },
  {
    "id": "66dbfebc-3aea-459f-84cf-a3f0d34c4385",
    "name": "Tenente Ananias",
    "state_id": "fef98589-4f5c-4128-92e0-da1665268806"
  },
  {
    "id": "74623fa7-7737-4f46-a6e9-5b697051edf7",
    "name": "Tenente Laurentino Cruz",
    "state_id": "fef98589-4f5c-4128-92e0-da1665268806"
  },
  {
    "id": "c768fc2d-9a91-4ad5-a042-7fbdb3298ebe",
    "name": "Tibau",
    "state_id": "fef98589-4f5c-4128-92e0-da1665268806"
  },
  {
    "id": "c06ff9d9-5301-4371-a0f5-5128839d7ae1",
    "name": "Tibau do Sul",
    "state_id": "fef98589-4f5c-4128-92e0-da1665268806"
  },
  {
    "id": "1502fa4f-199c-48d2-a56c-3bf2dde7e1e5",
    "name": "Timbaúba dos Batistas",
    "state_id": "fef98589-4f5c-4128-92e0-da1665268806"
  },
  {
    "id": "e9ca19e9-3c27-4daa-afe3-6d524754fc49",
    "name": "Touros",
    "state_id": "fef98589-4f5c-4128-92e0-da1665268806"
  },
  {
    "id": "4b5dd678-7b2c-4b84-a4a4-6e1221f5e97f",
    "name": "Triunfo Potiguar",
    "state_id": "fef98589-4f5c-4128-92e0-da1665268806"
  },
  {
    "id": "ad293ff7-9479-4642-b322-c8567ad56f5e",
    "name": "Umarizal",
    "state_id": "fef98589-4f5c-4128-92e0-da1665268806"
  },
  {
    "id": "6ce0d91d-81cd-4fda-b32c-f825e94671dd",
    "name": "Upanema",
    "state_id": "fef98589-4f5c-4128-92e0-da1665268806"
  },
  {
    "id": "b3057499-2d93-443c-87c7-4b0a65e40146",
    "name": "Várzea",
    "state_id": "fef98589-4f5c-4128-92e0-da1665268806"
  },
  {
    "id": "8e265230-5d2e-4b0e-8b59-3cb95f905654",
    "name": "Venha-Ver",
    "state_id": "fef98589-4f5c-4128-92e0-da1665268806"
  },
  {
    "id": "4e3c2ece-7084-4edb-b537-784161972df3",
    "name": "Vera Cruz",
    "state_id": "fef98589-4f5c-4128-92e0-da1665268806"
  },
  {
    "id": "50160bc4-d835-48ff-89e9-d1746aaadad5",
    "name": "Viçosa",
    "state_id": "fef98589-4f5c-4128-92e0-da1665268806"
  },
  {
    "id": "6279d623-5cb2-4814-82d1-0117c56e5f6d",
    "name": "Vila Flor",
    "state_id": "fef98589-4f5c-4128-92e0-da1665268806"
  }
]