[
  {
    "id": "b76c63cd-5a24-4d0c-b955-89619831814d",
    "name": "Bashkia Devoll",
    "state_id": "ff2cb6b1-1ac3-4471-9307-518882ee67ca"
  },
  {
    "id": "a13188ff-ca91-41e7-b4a6-b273271e2e4d",
    "name": "Bashkia Kolonjë",
    "state_id": "ff2cb6b1-1ac3-4471-9307-518882ee67ca"
  },
  {
    "id": "bc2fac46-f1d5-47a1-b768-4addb5ede341",
    "name": "Bashkia Maliq",
    "state_id": "ff2cb6b1-1ac3-4471-9307-518882ee67ca"
  },
  {
    "id": "a1b4cb2f-0dd4-4af9-8c76-e148e177aa3c",
    "name": "Bashkia Pustec",
    "state_id": "ff2cb6b1-1ac3-4471-9307-518882ee67ca"
  },
  {
    "id": "164077a4-42b4-4512-9982-425744976e77",
    "name": "Bilisht",
    "state_id": "ff2cb6b1-1ac3-4471-9307-518882ee67ca"
  },
  {
    "id": "1c310054-77a9-422b-a953-10eae797f4d6",
    "name": "Ersekë",
    "state_id": "ff2cb6b1-1ac3-4471-9307-518882ee67ca"
  },
  {
    "id": "cad0fdca-ebe3-47d2-920e-05314d3e4e23",
    "name": "Korçë",
    "state_id": "ff2cb6b1-1ac3-4471-9307-518882ee67ca"
  },
  {
    "id": "2673767b-9158-4775-b8b1-3694ca89969f",
    "name": "Leskovik",
    "state_id": "ff2cb6b1-1ac3-4471-9307-518882ee67ca"
  },
  {
    "id": "3a8d7cb9-645e-4f11-a114-c60bc1c84bf3",
    "name": "Libonik",
    "state_id": "ff2cb6b1-1ac3-4471-9307-518882ee67ca"
  },
  {
    "id": "b55353a9-3620-4f40-91ee-a6e34a1d88e0",
    "name": "Maliq",
    "state_id": "ff2cb6b1-1ac3-4471-9307-518882ee67ca"
  },
  {
    "id": "f914e9ea-c3a2-43ee-8ca3-361cff8ddb3f",
    "name": "Mborje",
    "state_id": "ff2cb6b1-1ac3-4471-9307-518882ee67ca"
  },
  {
    "id": "eaa0715a-4462-47b7-86f5-77b5e717b97f",
    "name": "Pogradec",
    "state_id": "ff2cb6b1-1ac3-4471-9307-518882ee67ca"
  },
  {
    "id": "9ebce4a7-c7bd-48e0-89ac-1c9623543d44",
    "name": "Rrethi i Devollit",
    "state_id": "ff2cb6b1-1ac3-4471-9307-518882ee67ca"
  },
  {
    "id": "82a11d41-f1d2-4b72-ba27-85edd17df395",
    "name": "Rrethi i Kolonjës",
    "state_id": "ff2cb6b1-1ac3-4471-9307-518882ee67ca"
  },
  {
    "id": "a933d7c5-7871-4830-858b-d651c1a74189",
    "name": "Velçan",
    "state_id": "ff2cb6b1-1ac3-4471-9307-518882ee67ca"
  },
  {
    "id": "4060542c-f8a5-44d8-951b-b321c38fbe08",
    "name": "Voskopojë",
    "state_id": "ff2cb6b1-1ac3-4471-9307-518882ee67ca"
  }
]