[
  {
    "id": "205aa1c6-b475-46ca-ae33-98a9d43eec12",
    "name": "31 de Octubre",
    "state_id": "ffd87493-85b6-4f55-b08d-f6b34479109a"
  },
  {
    "id": "b28bb6d1-9447-48f3-bd0a-cd7c788dfe6e",
    "name": "Aconchi",
    "state_id": "ffd87493-85b6-4f55-b08d-f6b34479109a"
  },
  {
    "id": "8249c9d3-ddea-4de7-a993-0af7992dd07f",
    "name": "Aduana del Sásabe",
    "state_id": "ffd87493-85b6-4f55-b08d-f6b34479109a"
  },
  {
    "id": "dfea8442-917e-4e45-923d-ed8e84345284",
    "name": "Agiabampo Uno",
    "state_id": "ffd87493-85b6-4f55-b08d-f6b34479109a"
  },
  {
    "id": "12189728-6900-4885-ac0e-1f97e45c1780",
    "name": "Agua Prieta",
    "state_id": "ffd87493-85b6-4f55-b08d-f6b34479109a"
  },
  {
    "id": "f0023db5-5bd3-4750-9470-ca93c0238a87",
    "name": "Álamos",
    "state_id": "ffd87493-85b6-4f55-b08d-f6b34479109a"
  },
  {
    "id": "3c61bd07-26ba-4953-9287-5ce939101f0b",
    "name": "Allende",
    "state_id": "ffd87493-85b6-4f55-b08d-f6b34479109a"
  },
  {
    "id": "248e8592-5d7e-422e-ba7b-0c967e0b444c",
    "name": "Antonio Rosales",
    "state_id": "ffd87493-85b6-4f55-b08d-f6b34479109a"
  },
  {
    "id": "df96f092-f2ed-4b0a-b45f-10b69fd15451",
    "name": "Arivechi",
    "state_id": "ffd87493-85b6-4f55-b08d-f6b34479109a"
  },
  {
    "id": "2e115efc-58c9-4073-9dd2-023d1133d54a",
    "name": "Arizpe",
    "state_id": "ffd87493-85b6-4f55-b08d-f6b34479109a"
  },
  {
    "id": "46475184-1995-4563-8c9d-ef86455a4b0b",
    "name": "Atil",
    "state_id": "ffd87493-85b6-4f55-b08d-f6b34479109a"
  },
  {
    "id": "705f04e6-3839-481a-812e-f6bd80b06db2",
    "name": "Bacabachi",
    "state_id": "ffd87493-85b6-4f55-b08d-f6b34479109a"
  },
  {
    "id": "38020c40-a4a2-4e77-831f-dcedf74822ed",
    "name": "Bacadéhuachi",
    "state_id": "ffd87493-85b6-4f55-b08d-f6b34479109a"
  },
  {
    "id": "a8ea9b9e-8d92-4c0c-9d3f-49d84418d6c1",
    "name": "Bacame Nuevo",
    "state_id": "ffd87493-85b6-4f55-b08d-f6b34479109a"
  },
  {
    "id": "b9ec653f-895d-4497-825b-da6833c25b07",
    "name": "Bacanora",
    "state_id": "ffd87493-85b6-4f55-b08d-f6b34479109a"
  },
  {
    "id": "800720d1-8796-40c9-9a12-f29891e040b3",
    "name": "Bacerac",
    "state_id": "ffd87493-85b6-4f55-b08d-f6b34479109a"
  },
  {
    "id": "c5b4b08c-c438-4292-9a9d-0c19b6612c6c",
    "name": "Bacobampo",
    "state_id": "ffd87493-85b6-4f55-b08d-f6b34479109a"
  },
  {
    "id": "65461f6e-69bc-4d86-98fc-568b2ddd67a6",
    "name": "Bácum",
    "state_id": "ffd87493-85b6-4f55-b08d-f6b34479109a"
  },
  {
    "id": "d018c18d-e197-4c3f-a431-c7a366e76db1",
    "name": "Bahía de Kino",
    "state_id": "ffd87493-85b6-4f55-b08d-f6b34479109a"
  },
  {
    "id": "0197dfdf-13ac-4a4c-8568-58f6a3d82279",
    "name": "Bahía de Lobos",
    "state_id": "ffd87493-85b6-4f55-b08d-f6b34479109a"
  },
  {
    "id": "c8a946af-7528-448b-a20e-3fe5a70630b7",
    "name": "Basconcobe",
    "state_id": "ffd87493-85b6-4f55-b08d-f6b34479109a"
  },
  {
    "id": "f42d02a0-3be0-42a1-8ce1-192bad592931",
    "name": "Bavispe",
    "state_id": "ffd87493-85b6-4f55-b08d-f6b34479109a"
  },
  {
    "id": "61a3f2c8-5ebb-4a3b-83d5-adcdaff6d470",
    "name": "Benjamín Hill",
    "state_id": "ffd87493-85b6-4f55-b08d-f6b34479109a"
  },
  {
    "id": "107f6a9d-f4d7-49f6-ad1e-7a46e674dc20",
    "name": "Buaysiacobe",
    "state_id": "ffd87493-85b6-4f55-b08d-f6b34479109a"
  },
  {
    "id": "69f3fc9f-9bb7-442a-b5da-e5f729a5442b",
    "name": "Buayums",
    "state_id": "ffd87493-85b6-4f55-b08d-f6b34479109a"
  },
  {
    "id": "9b6c9654-82ea-45ea-b4e7-b09c89f262dd",
    "name": "Campo Carretero",
    "state_id": "ffd87493-85b6-4f55-b08d-f6b34479109a"
  },
  {
    "id": "59ace96a-125a-488c-b51b-b1796fa48804",
    "name": "Campo Sesenta",
    "state_id": "ffd87493-85b6-4f55-b08d-f6b34479109a"
  },
  {
    "id": "f30ccbe9-541e-47e1-a942-3e58abf58112",
    "name": "Cananea",
    "state_id": "ffd87493-85b6-4f55-b08d-f6b34479109a"
  },
  {
    "id": "7848c5b0-e74a-4c80-a44b-1d5cca090642",
    "name": "Carbo",
    "state_id": "ffd87493-85b6-4f55-b08d-f6b34479109a"
  },
  {
    "id": "1b33fd97-1563-4069-a562-16960c5008b3",
    "name": "Centro de Readaptación Social Nuevo",
    "state_id": "ffd87493-85b6-4f55-b08d-f6b34479109a"
  },
  {
    "id": "a078e531-9a36-4e0c-97f3-906ad3ecd32e",
    "name": "Chucarit",
    "state_id": "ffd87493-85b6-4f55-b08d-f6b34479109a"
  },
  {
    "id": "d03e3256-360f-4d62-b758-33bad3b1a8c8",
    "name": "Ciudad Obregón",
    "state_id": "ffd87493-85b6-4f55-b08d-f6b34479109a"
  },
  {
    "id": "3a23b87d-98f1-410e-b77e-bb9db655202d",
    "name": "Cocorit",
    "state_id": "ffd87493-85b6-4f55-b08d-f6b34479109a"
  },
  {
    "id": "abc5e2d2-6e72-45e0-8a2f-e3e731f85eea",
    "name": "Cuauhtémoc (Campo Cinco)",
    "state_id": "ffd87493-85b6-4f55-b08d-f6b34479109a"
  },
  {
    "id": "dcd1bb85-148d-456f-885e-cf75a3cd91a4",
    "name": "Cucurpe",
    "state_id": "ffd87493-85b6-4f55-b08d-f6b34479109a"
  },
  {
    "id": "0c05de12-f4a8-4f7c-bc4e-f559392ceb08",
    "name": "Cumpas",
    "state_id": "ffd87493-85b6-4f55-b08d-f6b34479109a"
  },
  {
    "id": "d1a29c6a-b647-40a0-852c-56c8be9ab444",
    "name": "Ejido Lagunitas",
    "state_id": "ffd87493-85b6-4f55-b08d-f6b34479109a"
  },
  {
    "id": "6fc99994-8c9d-490d-9ac2-f428bd7f7ccc",
    "name": "El Coyote",
    "state_id": "ffd87493-85b6-4f55-b08d-f6b34479109a"
  },
  {
    "id": "5bfd0ccb-fc9a-48ba-8040-12c29943f98b",
    "name": "El Diamante (La Retranca)",
    "state_id": "ffd87493-85b6-4f55-b08d-f6b34479109a"
  },
  {
    "id": "b16ae3cf-4c8c-47ee-8241-9de0323f9e5d",
    "name": "El Paredoncito",
    "state_id": "ffd87493-85b6-4f55-b08d-f6b34479109a"
  },
  {
    "id": "366ab4d7-c822-45cd-b426-8b48cff13daf",
    "name": "El Recodo",
    "state_id": "ffd87493-85b6-4f55-b08d-f6b34479109a"
  },
  {
    "id": "e614fab1-7fca-40bf-ae65-72f2eb512e95",
    "name": "El Rodeo",
    "state_id": "ffd87493-85b6-4f55-b08d-f6b34479109a"
  },
  {
    "id": "69694950-db2f-44d9-a180-ca0870c13540",
    "name": "El Sahuaral",
    "state_id": "ffd87493-85b6-4f55-b08d-f6b34479109a"
  },
  {
    "id": "9d7bb71d-2b4c-40b5-913d-53be1f56d1db",
    "name": "El Saneal",
    "state_id": "ffd87493-85b6-4f55-b08d-f6b34479109a"
  },
  {
    "id": "24c15ab5-0765-4252-91dd-27c22d8d324d",
    "name": "El Siviral (Jigica)",
    "state_id": "ffd87493-85b6-4f55-b08d-f6b34479109a"
  },
  {
    "id": "4b0a7737-7f84-422e-b207-1e0903d2c2e8",
    "name": "El Tobarito",
    "state_id": "ffd87493-85b6-4f55-b08d-f6b34479109a"
  },
  {
    "id": "6cd9db42-3e21-485e-b02e-3369402a1f56",
    "name": "Empalme",
    "state_id": "ffd87493-85b6-4f55-b08d-f6b34479109a"
  },
  {
    "id": "45b137e1-df3d-4ddd-a530-43254c06ec3a",
    "name": "Esperanza",
    "state_id": "ffd87493-85b6-4f55-b08d-f6b34479109a"
  },
  {
    "id": "974e6d37-0bb8-4658-96bb-fdbdba3013eb",
    "name": "Esqueda",
    "state_id": "ffd87493-85b6-4f55-b08d-f6b34479109a"
  },
  {
    "id": "5a0bbc2c-70c8-441d-8de9-835bf2ff7389",
    "name": "Estación Corral",
    "state_id": "ffd87493-85b6-4f55-b08d-f6b34479109a"
  },
  {
    "id": "5b786c53-c6d4-4e69-862b-618f65e93395",
    "name": "Estación Llano",
    "state_id": "ffd87493-85b6-4f55-b08d-f6b34479109a"
  },
  {
    "id": "85abb351-56d2-4269-8634-c1bee52777ec",
    "name": "Estación Zamora",
    "state_id": "ffd87493-85b6-4f55-b08d-f6b34479109a"
  },
  {
    "id": "4c4c2d65-efb9-41b0-9b41-4de823c0b2a8",
    "name": "Etchojoa",
    "state_id": "ffd87493-85b6-4f55-b08d-f6b34479109a"
  },
  {
    "id": "1b9374c5-c770-434a-9aae-b64c158b4932",
    "name": "Etchoropo",
    "state_id": "ffd87493-85b6-4f55-b08d-f6b34479109a"
  },
  {
    "id": "a0e26c8f-8232-448e-be16-b9c05aac71e6",
    "name": "Francisco Javier Mina",
    "state_id": "ffd87493-85b6-4f55-b08d-f6b34479109a"
  },
  {
    "id": "ce796e37-5241-4c19-9655-f8b41d792831",
    "name": "Fronteras",
    "state_id": "ffd87493-85b6-4f55-b08d-f6b34479109a"
  },
  {
    "id": "e7115d2e-7513-4705-9314-53c34a74092b",
    "name": "Golfo de Santa Clara",
    "state_id": "ffd87493-85b6-4f55-b08d-f6b34479109a"
  },
  {
    "id": "5e8ad402-d533-4023-abb2-f3c88a2e59a3",
    "name": "Granados",
    "state_id": "ffd87493-85b6-4f55-b08d-f6b34479109a"
  },
  {
    "id": "e86774c1-2bf6-4208-94bf-5b3220c6670b",
    "name": "Guásimas (De Belem)",
    "state_id": "ffd87493-85b6-4f55-b08d-f6b34479109a"
  },
  {
    "id": "771c7c1f-7411-46bd-a799-ddf661960a0f",
    "name": "Guaymitas",
    "state_id": "ffd87493-85b6-4f55-b08d-f6b34479109a"
  },
  {
    "id": "661ffaed-833d-4109-96d6-49dfb9fa58d6",
    "name": "Hermosillo",
    "state_id": "ffd87493-85b6-4f55-b08d-f6b34479109a"
  },
  {
    "id": "ef6817e1-c51a-4bd4-b58d-d51129d32cc4",
    "name": "Heroica Caborca",
    "state_id": "ffd87493-85b6-4f55-b08d-f6b34479109a"
  },
  {
    "id": "2072f404-ab28-4b6b-845b-1d6f06722c5a",
    "name": "Heroica Guaymas",
    "state_id": "ffd87493-85b6-4f55-b08d-f6b34479109a"
  },
  {
    "id": "6f883a14-cf20-4036-a871-d01b79b1cc36",
    "name": "Huachinera",
    "state_id": "ffd87493-85b6-4f55-b08d-f6b34479109a"
  },
  {
    "id": "4a1c87b9-570c-4dc6-b92c-3f0348ab94c8",
    "name": "Huásabas",
    "state_id": "ffd87493-85b6-4f55-b08d-f6b34479109a"
  },
  {
    "id": "5de4ec46-9330-40f4-ae89-b7b44e043c31",
    "name": "Huatabampo",
    "state_id": "ffd87493-85b6-4f55-b08d-f6b34479109a"
  },
  {
    "id": "29c21411-76e9-46d4-bc7c-b264b1ef5c7e",
    "name": "Huépac",
    "state_id": "ffd87493-85b6-4f55-b08d-f6b34479109a"
  },
  {
    "id": "ce235f24-1f8d-4cac-adff-72694f075fac",
    "name": "Imuris",
    "state_id": "ffd87493-85b6-4f55-b08d-f6b34479109a"
  },
  {
    "id": "9956df1c-d9e8-44b6-843f-4327e5b69db3",
    "name": "Islita",
    "state_id": "ffd87493-85b6-4f55-b08d-f6b34479109a"
  },
  {
    "id": "05a05725-08ae-478b-8414-44eb487a43fc",
    "name": "Jecopaco",
    "state_id": "ffd87493-85b6-4f55-b08d-f6b34479109a"
  },
  {
    "id": "727cae49-eaed-4bd9-9fbe-6cb0876c439c",
    "name": "Jitonhueca",
    "state_id": "ffd87493-85b6-4f55-b08d-f6b34479109a"
  },
  {
    "id": "3c6e1084-1354-43dc-85da-8bfc9b94af3c",
    "name": "José María Morelos y Pavón",
    "state_id": "ffd87493-85b6-4f55-b08d-f6b34479109a"
  },
  {
    "id": "86ebc430-9abb-4826-a940-c6a4ad23a266",
    "name": "Juraré",
    "state_id": "ffd87493-85b6-4f55-b08d-f6b34479109a"
  },
  {
    "id": "f7929f1a-3981-4f02-a201-87901d6bba70",
    "name": "La Bocana",
    "state_id": "ffd87493-85b6-4f55-b08d-f6b34479109a"
  },
  {
    "id": "19fd3bc5-168b-40ef-8e5a-a872204365b3",
    "name": "La Colorada",
    "state_id": "ffd87493-85b6-4f55-b08d-f6b34479109a"
  },
  {
    "id": "604f5219-91ee-4c3f-80b2-377949031845",
    "name": "La Libertad",
    "state_id": "ffd87493-85b6-4f55-b08d-f6b34479109a"
  },
  {
    "id": "55b07de7-fea5-4a4a-bfb6-319df9715aac",
    "name": "La Mesa",
    "state_id": "ffd87493-85b6-4f55-b08d-f6b34479109a"
  },
  {
    "id": "4d2fa059-c4a1-4dfb-bd41-d7eca8077867",
    "name": "La Palma",
    "state_id": "ffd87493-85b6-4f55-b08d-f6b34479109a"
  },
  {
    "id": "cb196601-cc55-4244-a0bc-00c54cb558c8",
    "name": "La Providencia",
    "state_id": "ffd87493-85b6-4f55-b08d-f6b34479109a"
  },
  {
    "id": "8102696c-ef8d-4767-8ff3-759432880e33",
    "name": "La Unión",
    "state_id": "ffd87493-85b6-4f55-b08d-f6b34479109a"
  },
  {
    "id": "0ba866ce-570b-43c9-bb78-9f76daec9567",
    "name": "La Victoria",
    "state_id": "ffd87493-85b6-4f55-b08d-f6b34479109a"
  },
  {
    "id": "b7208af1-d885-4923-9c79-285a3924bab0",
    "name": "Las Bocas",
    "state_id": "ffd87493-85b6-4f55-b08d-f6b34479109a"
  },
  {
    "id": "1c08b449-abe1-4607-aa79-5d632ec6310d",
    "name": "Las Mercedes [Agropecuaria]",
    "state_id": "ffd87493-85b6-4f55-b08d-f6b34479109a"
  },
  {
    "id": "edb77352-3a92-48d9-9017-5f4a6b9a77ef",
    "name": "Loma de Bácum",
    "state_id": "ffd87493-85b6-4f55-b08d-f6b34479109a"
  },
  {
    "id": "932a686f-af9c-4648-b846-2f0cdd488ad9",
    "name": "Loma de Guamúchil",
    "state_id": "ffd87493-85b6-4f55-b08d-f6b34479109a"
  },
  {
    "id": "784fb776-c2c5-4726-8b24-f1a21249866c",
    "name": "Loma del Refugio",
    "state_id": "ffd87493-85b6-4f55-b08d-f6b34479109a"
  },
  {
    "id": "7664478d-88bb-4232-9e0a-78b8df239316",
    "name": "Los Bahuises",
    "state_id": "ffd87493-85b6-4f55-b08d-f6b34479109a"
  },
  {
    "id": "10bf015d-a6b1-416c-8b7a-e1fb57a43478",
    "name": "Los Hoyos",
    "state_id": "ffd87493-85b6-4f55-b08d-f6b34479109a"
  },
  {
    "id": "72c55fd0-767f-4234-89e5-fe2ddec9688b",
    "name": "Magdalena de Kino",
    "state_id": "ffd87493-85b6-4f55-b08d-f6b34479109a"
  },
  {
    "id": "afec6933-4deb-4a70-8e09-922465f5a089",
    "name": "Marte R. Gómez (Tobarito)",
    "state_id": "ffd87493-85b6-4f55-b08d-f6b34479109a"
  },
  {
    "id": "950060ec-e0cf-467c-9bae-1a56eb716abf",
    "name": "Masiaca",
    "state_id": "ffd87493-85b6-4f55-b08d-f6b34479109a"
  },
  {
    "id": "7c248445-99f1-4ea9-b73c-df503ec1a4d6",
    "name": "Mazatán",
    "state_id": "ffd87493-85b6-4f55-b08d-f6b34479109a"
  },
  {
    "id": "57ef9ac3-a171-4089-83f5-64480bc7c5c8",
    "name": "Mi Patria es Primero",
    "state_id": "ffd87493-85b6-4f55-b08d-f6b34479109a"
  },
  {
    "id": "0fe46082-3f6e-4cca-b53a-87fb39784260",
    "name": "Miguel Alemán (La Doce)",
    "state_id": "ffd87493-85b6-4f55-b08d-f6b34479109a"
  },
  {
    "id": "06f67d23-febf-4415-929f-f7379f6c9e1e",
    "name": "Milpillas",
    "state_id": "ffd87493-85b6-4f55-b08d-f6b34479109a"
  },
  {
    "id": "091b70b0-c831-4726-a387-c87cc45c4842",
    "name": "Moctezuma",
    "state_id": "ffd87493-85b6-4f55-b08d-f6b34479109a"
  },
  {
    "id": "b40938f5-9c63-4f7e-adc4-62bb5d4bdbcf",
    "name": "Molino de Camou",
    "state_id": "ffd87493-85b6-4f55-b08d-f6b34479109a"
  },
  {
    "id": "0849acf4-0abe-422a-9cb3-651faf8cfdc7",
    "name": "Mora Villalobos",
    "state_id": "ffd87493-85b6-4f55-b08d-f6b34479109a"
  },
  {
    "id": "e3e33e9e-d09d-4b61-8bbe-9ede5dcfdf8b",
    "name": "Moroncarit",
    "state_id": "ffd87493-85b6-4f55-b08d-f6b34479109a"
  },
  {
    "id": "e8089ed7-d822-4cc3-a73f-4312fc3c1a75",
    "name": "Naco",
    "state_id": "ffd87493-85b6-4f55-b08d-f6b34479109a"
  },
  {
    "id": "fcdeb3e4-1f70-48d3-802a-e2e5679ce24b",
    "name": "Nácori Chico",
    "state_id": "ffd87493-85b6-4f55-b08d-f6b34479109a"
  },
  {
    "id": "a29c3210-0008-4c31-830c-ef591fa9a20f",
    "name": "Nacozari de García",
    "state_id": "ffd87493-85b6-4f55-b08d-f6b34479109a"
  },
  {
    "id": "82fc2d07-56fc-4c0e-9aa2-07cfb09d8e54",
    "name": "Nacozari Viejo",
    "state_id": "ffd87493-85b6-4f55-b08d-f6b34479109a"
  },
  {
    "id": "e13da100-0dea-4a40-a27a-97c2cb06d943",
    "name": "Navojoa",
    "state_id": "ffd87493-85b6-4f55-b08d-f6b34479109a"
  },
  {
    "id": "64f21086-77ba-4d59-95d7-abb56d810766",
    "name": "Nogales",
    "state_id": "ffd87493-85b6-4f55-b08d-f6b34479109a"
  },
  {
    "id": "d2ea612e-6bff-4f33-a3cd-d950e7451c9b",
    "name": "Nuevo Michoacán (Estación Riíto)",
    "state_id": "ffd87493-85b6-4f55-b08d-f6b34479109a"
  },
  {
    "id": "de779554-34be-40ea-a314-ed10d25218dc",
    "name": "Onavas",
    "state_id": "ffd87493-85b6-4f55-b08d-f6b34479109a"
  },
  {
    "id": "ad7103bd-e0ee-46e1-b32b-7ff2e747929a",
    "name": "Opodepe",
    "state_id": "ffd87493-85b6-4f55-b08d-f6b34479109a"
  },
  {
    "id": "2dcee52f-8824-40d9-b791-f4d0eb13d750",
    "name": "Oquitoa",
    "state_id": "ffd87493-85b6-4f55-b08d-f6b34479109a"
  },
  {
    "id": "bef53834-6372-4a8f-a22c-cd63343501af",
    "name": "Ortiz",
    "state_id": "ffd87493-85b6-4f55-b08d-f6b34479109a"
  },
  {
    "id": "8bf8c186-ecc2-48f1-8e02-99d9bfe218d3",
    "name": "Paredón Colorado",
    "state_id": "ffd87493-85b6-4f55-b08d-f6b34479109a"
  },
  {
    "id": "7148dda3-14bc-43cb-bc51-9f292fa5f7f0",
    "name": "Pesqueira",
    "state_id": "ffd87493-85b6-4f55-b08d-f6b34479109a"
  },
  {
    "id": "022caf1e-7dc5-4eb2-b8fd-67a3a5f50c08",
    "name": "Pitiquito",
    "state_id": "ffd87493-85b6-4f55-b08d-f6b34479109a"
  },
  {
    "id": "bda8ce80-a98e-4aa5-a7b1-b1ce5deb20d9",
    "name": "Plutarco Elías Calles (La Y Griega)",
    "state_id": "ffd87493-85b6-4f55-b08d-f6b34479109a"
  },
  {
    "id": "8a74f85e-e981-4254-b74c-7245925f2a90",
    "name": "Potam",
    "state_id": "ffd87493-85b6-4f55-b08d-f6b34479109a"
  },
  {
    "id": "412dbf3c-9de1-4279-8dc4-d56481136fcd",
    "name": "Pozo Dulce",
    "state_id": "ffd87493-85b6-4f55-b08d-f6b34479109a"
  },
  {
    "id": "0c9b28cc-20eb-4e16-bf25-af0ed985eebf",
    "name": "Primero de Mayo",
    "state_id": "ffd87493-85b6-4f55-b08d-f6b34479109a"
  },
  {
    "id": "2657141f-5171-4bfa-8918-9ad1a5ed230a",
    "name": "Progreso (Campo 47)",
    "state_id": "ffd87493-85b6-4f55-b08d-f6b34479109a"
  },
  {
    "id": "09fb4468-c2b4-4db4-925e-f7f31fb005f6",
    "name": "Providencia",
    "state_id": "ffd87493-85b6-4f55-b08d-f6b34479109a"
  },
  {
    "id": "55f90a5e-bbbd-424d-9718-5b90f3b39693",
    "name": "Pueblo Mayo",
    "state_id": "ffd87493-85b6-4f55-b08d-f6b34479109a"
  },
  {
    "id": "1bbb0b7d-415b-4923-a203-3dfaacfc8364",
    "name": "Pueblo Yaqui",
    "state_id": "ffd87493-85b6-4f55-b08d-f6b34479109a"
  },
  {
    "id": "84ea581a-fd0e-4eb7-9421-ceb3e1aea13b",
    "name": "Puerto Peñasco",
    "state_id": "ffd87493-85b6-4f55-b08d-f6b34479109a"
  },
  {
    "id": "9c33f527-5a18-4faf-baa3-6a50ed7c84b8",
    "name": "Querobabi",
    "state_id": "ffd87493-85b6-4f55-b08d-f6b34479109a"
  },
  {
    "id": "56297ed1-d212-4f1c-9fdc-d9920c0954ba",
    "name": "Quetchehueca",
    "state_id": "ffd87493-85b6-4f55-b08d-f6b34479109a"
  },
  {
    "id": "6a1625d2-f54b-4c5c-9c1e-b21c45e5f155",
    "name": "Quiriego",
    "state_id": "ffd87493-85b6-4f55-b08d-f6b34479109a"
  },
  {
    "id": "075586e6-1a07-462f-92fd-f5c2ebffc03d",
    "name": "Rayón",
    "state_id": "ffd87493-85b6-4f55-b08d-f6b34479109a"
  },
  {
    "id": "909f7eb2-6efa-4966-ac5a-e751a833f05e",
    "name": "Rosales",
    "state_id": "ffd87493-85b6-4f55-b08d-f6b34479109a"
  },
  {
    "id": "c468c0bd-ff0a-4438-8762-92ecc51b8b7f",
    "name": "Rosario",
    "state_id": "ffd87493-85b6-4f55-b08d-f6b34479109a"
  },
  {
    "id": "cdd85482-3e76-48c2-88b8-09b8b8ff1547",
    "name": "Sahuaral de Otero",
    "state_id": "ffd87493-85b6-4f55-b08d-f6b34479109a"
  },
  {
    "id": "e4e8e262-f55d-4111-b279-ca39abb591e7",
    "name": "Sahuaripa",
    "state_id": "ffd87493-85b6-4f55-b08d-f6b34479109a"
  },
  {
    "id": "b7dde743-52c3-45ed-a268-45e2b9928555",
    "name": "San Bernardo",
    "state_id": "ffd87493-85b6-4f55-b08d-f6b34479109a"
  },
  {
    "id": "74684c60-fffe-4c96-9887-200920c4c25b",
    "name": "San Carlos",
    "state_id": "ffd87493-85b6-4f55-b08d-f6b34479109a"
  },
  {
    "id": "02363364-91a9-45f7-b8fe-8da7a3b75a86",
    "name": "San Ignacio",
    "state_id": "ffd87493-85b6-4f55-b08d-f6b34479109a"
  },
  {
    "id": "fe80d58f-1134-4d86-9d7c-b363003c5e12",
    "name": "San Ignacio Río Muerto",
    "state_id": "ffd87493-85b6-4f55-b08d-f6b34479109a"
  },
  {
    "id": "bfac8178-2871-43d1-bef0-ed6750120df6",
    "name": "San José de Bacum",
    "state_id": "ffd87493-85b6-4f55-b08d-f6b34479109a"
  },
  {
    "id": "0d0d325a-6cd4-493f-b57e-6fe4f3f2c666",
    "name": "San José de Guaymas",
    "state_id": "ffd87493-85b6-4f55-b08d-f6b34479109a"
  },
  {
    "id": "c6925246-7f3c-489d-9e7c-8f8c49f182ff",
    "name": "San Luis Río Colorado",
    "state_id": "ffd87493-85b6-4f55-b08d-f6b34479109a"
  },
  {
    "id": "549b3671-21d9-473a-bfac-7b2a7978fa06",
    "name": "San Miguel de Horcasitas",
    "state_id": "ffd87493-85b6-4f55-b08d-f6b34479109a"
  },
  {
    "id": "4bca5a0c-b2a4-4d6d-af16-1eab1be01494",
    "name": "San Pedro de la Cueva",
    "state_id": "ffd87493-85b6-4f55-b08d-f6b34479109a"
  },
  {
    "id": "4507031c-925f-4cad-8c33-1f69ee344928",
    "name": "San Pedro Río Mayo",
    "state_id": "ffd87493-85b6-4f55-b08d-f6b34479109a"
  },
  {
    "id": "53bffbfb-a587-40cf-9d3d-5903cd267685",
    "name": "Santa Ana",
    "state_id": "ffd87493-85b6-4f55-b08d-f6b34479109a"
  },
  {
    "id": "81695e99-0872-4800-9991-6c62b697e363",
    "name": "Santa Cruz",
    "state_id": "ffd87493-85b6-4f55-b08d-f6b34479109a"
  },
  {
    "id": "867822e9-0e1d-4399-9ab8-2c6fc5b1c09c",
    "name": "Santa María de Guaymas",
    "state_id": "ffd87493-85b6-4f55-b08d-f6b34479109a"
  },
  {
    "id": "2382aaa7-c0fa-47a5-aea5-03697a0a15b0",
    "name": "Santa María del Buáraje",
    "state_id": "ffd87493-85b6-4f55-b08d-f6b34479109a"
  },
  {
    "id": "a9040270-ef38-4348-9183-c84e31728891",
    "name": "Sáric",
    "state_id": "ffd87493-85b6-4f55-b08d-f6b34479109a"
  },
  {
    "id": "774e01e7-62d1-4d63-89ed-79c0642b1f5d",
    "name": "Sinahuiza",
    "state_id": "ffd87493-85b6-4f55-b08d-f6b34479109a"
  },
  {
    "id": "0659bc5a-1e2e-483a-93d4-9c3e5b615752",
    "name": "Siviral",
    "state_id": "ffd87493-85b6-4f55-b08d-f6b34479109a"
  },
  {
    "id": "21e6e775-27e6-4d03-9c98-0a4076f0ac91",
    "name": "Sonoita",
    "state_id": "ffd87493-85b6-4f55-b08d-f6b34479109a"
  },
  {
    "id": "e2929439-13e5-4ac5-8cb2-ce76dc4ca14c",
    "name": "Soyopa",
    "state_id": "ffd87493-85b6-4f55-b08d-f6b34479109a"
  },
  {
    "id": "dd6c3f8e-eb03-45d2-916b-881c5c8665fa",
    "name": "Suaqui Grande",
    "state_id": "ffd87493-85b6-4f55-b08d-f6b34479109a"
  },
  {
    "id": "3a10af13-879b-452a-8a61-75de8014e562",
    "name": "Tepache",
    "state_id": "ffd87493-85b6-4f55-b08d-f6b34479109a"
  },
  {
    "id": "7bd2ce59-8f12-4c54-a5a7-67c7d28c56c8",
    "name": "Tierra Blanca",
    "state_id": "ffd87493-85b6-4f55-b08d-f6b34479109a"
  },
  {
    "id": "af4a65ea-a591-4593-b45c-8691688b0803",
    "name": "Tubutama",
    "state_id": "ffd87493-85b6-4f55-b08d-f6b34479109a"
  },
  {
    "id": "328b2105-9062-48e6-9389-f4465401c5c0",
    "name": "Ures",
    "state_id": "ffd87493-85b6-4f55-b08d-f6b34479109a"
  },
  {
    "id": "2de7c4cb-5abc-4e7e-90d6-4635dd3c153e",
    "name": "Vicam",
    "state_id": "ffd87493-85b6-4f55-b08d-f6b34479109a"
  },
  {
    "id": "904aeb35-a800-4826-81e0-9765d5a672e6",
    "name": "Vicente Guerrero",
    "state_id": "ffd87493-85b6-4f55-b08d-f6b34479109a"
  },
  {
    "id": "ab6d49cf-9464-4903-85ee-9d374d7ce5e8",
    "name": "Villa Hidalgo",
    "state_id": "ffd87493-85b6-4f55-b08d-f6b34479109a"
  },
  {
    "id": "dcd55aad-baf7-4ae2-9a84-b1fa706034ec",
    "name": "Villa Juárez",
    "state_id": "ffd87493-85b6-4f55-b08d-f6b34479109a"
  },
  {
    "id": "1eaaa463-7105-4db4-8589-58bc6192877f",
    "name": "Villa Pesqueira",
    "state_id": "ffd87493-85b6-4f55-b08d-f6b34479109a"
  },
  {
    "id": "0a4367d2-31d6-4a85-9d6c-b81df28481fa",
    "name": "Yavaros",
    "state_id": "ffd87493-85b6-4f55-b08d-f6b34479109a"
  }
]