[
  {
    "id": "bba77d82-08eb-43d9-8895-fab89fcb5d08",
    "name": "Ahafo",
    "code": "AF",
    "country_id": "0752f0fb-d545-44c6-9000-ace5e087659a"
  },
  {
    "id": "9aa634b6-ed01-4b03-b93e-5cef90d916c0",
    "name": "Ashanti",
    "code": "AH",
    "country_id": "0752f0fb-d545-44c6-9000-ace5e087659a"
  },
  {
    "id": "03989f9c-fc4a-4a43-a07e-5b6c7b47ebb3",
    "name": "Bono",
    "code": "BO",
    "country_id": "0752f0fb-d545-44c6-9000-ace5e087659a"
  },
  {
    "id": "0d87e410-f4cf-4506-8bbf-19eba1ec1fd6",
    "name": "Bono East",
    "code": "BE",
    "country_id": "0752f0fb-d545-44c6-9000-ace5e087659a"
  },
  {
    "id": "a88c9287-5411-40b0-8b46-87ae6416f4ee",
    "name": "Central",
    "code": "CP",
    "country_id": "0752f0fb-d545-44c6-9000-ace5e087659a"
  },
  {
    "id": "223c4bb8-b122-4f20-a434-6fb7ea63b18f",
    "name": "Eastern",
    "code": "EP",
    "country_id": "0752f0fb-d545-44c6-9000-ace5e087659a"
  },
  {
    "id": "a649683b-a56c-44a4-a8b4-ad5aec3d6c97",
    "name": "Greater Accra",
    "code": "AA",
    "country_id": "0752f0fb-d545-44c6-9000-ace5e087659a"
  },
  {
    "id": "b6b7a3e5-5286-4dd9-8844-c7e3afd6f944",
    "name": "North East",
    "code": "NE",
    "country_id": "0752f0fb-d545-44c6-9000-ace5e087659a"
  },
  {
    "id": "11aee576-1916-4210-a383-49923aab8b1b",
    "name": "Northern",
    "code": "NP",
    "country_id": "0752f0fb-d545-44c6-9000-ace5e087659a"
  },
  {
    "id": "0a60bb23-3a3d-4fd9-8f06-5a92e64882be",
    "name": "Oti",
    "code": "OT",
    "country_id": "0752f0fb-d545-44c6-9000-ace5e087659a"
  },
  {
    "id": "d4acc681-8a31-49d5-b0ad-2549b8709b3b",
    "name": "Savannah",
    "code": "SV",
    "country_id": "0752f0fb-d545-44c6-9000-ace5e087659a"
  },
  {
    "id": "fed3bc79-7af0-4f56-ad4a-f091f4dcbe25",
    "name": "Upper East",
    "code": "UE",
    "country_id": "0752f0fb-d545-44c6-9000-ace5e087659a"
  },
  {
    "id": "e49d95ea-8e53-4153-98c4-b6d9f22bf99b",
    "name": "Upper West",
    "code": "UW",
    "country_id": "0752f0fb-d545-44c6-9000-ace5e087659a"
  },
  {
    "id": "a9c8c6dc-dc53-41c4-a3ae-d796da541349",
    "name": "Volta",
    "code": "TV",
    "country_id": "0752f0fb-d545-44c6-9000-ace5e087659a"
  },
  {
    "id": "1cc76812-3ef9-4c5b-a1b8-5983c7fd2f52",
    "name": "Western",
    "code": "WP",
    "country_id": "0752f0fb-d545-44c6-9000-ace5e087659a"
  },
  {
    "id": "3646c4b1-922b-4c5b-b7f3-f170aecdb408",
    "name": "Western North",
    "code": "WN",
    "country_id": "0752f0fb-d545-44c6-9000-ace5e087659a"
  }
]