[
  {
    "id": "ded7704b-8830-4dc1-a61a-03bf8ac21ee0",
    "name": "Aberdeen",
    "code": "ABE",
    "country_id": "08ae2625-77f8-4751-98a9-d2a9092c03fa"
  },
  {
    "id": "617f6b8f-5903-40d3-b408-dd0206a146fb",
    "name": "Aberdeenshire",
    "code": "ABD",
    "country_id": "08ae2625-77f8-4751-98a9-d2a9092c03fa"
  },
  {
    "id": "cd751faa-c9dd-40b4-a511-47c71bd8395d",
    "name": "Angus",
    "code": "ANS",
    "country_id": "08ae2625-77f8-4751-98a9-d2a9092c03fa"
  },
  {
    "id": "00c2bef3-f295-49af-a230-262516384a94",
    "name": "Antrim",
    "code": "ANT",
    "country_id": "08ae2625-77f8-4751-98a9-d2a9092c03fa"
  },
  {
    "id": "45fe03fa-b65c-4d25-a088-abbca932a89f",
    "name": "Antrim and Newtownabbey",
    "code": "ANN",
    "country_id": "08ae2625-77f8-4751-98a9-d2a9092c03fa"
  },
  {
    "id": "8ea60b63-9207-4cca-9b78-c776f3eefa96",
    "name": "Ards",
    "code": "ARD",
    "country_id": "08ae2625-77f8-4751-98a9-d2a9092c03fa"
  },
  {
    "id": "f04b4657-b485-45d0-a11f-f99385a70e3e",
    "name": "Ards and North Down",
    "code": "AND",
    "country_id": "08ae2625-77f8-4751-98a9-d2a9092c03fa"
  },
  {
    "id": "2aee1d98-24ef-4997-ae14-564434c98d35",
    "name": "Argyll and Bute",
    "code": "AGB",
    "country_id": "08ae2625-77f8-4751-98a9-d2a9092c03fa"
  },
  {
    "id": "89bbf990-73bc-4c6e-8e95-aa6e39ff6191",
    "name": "Armagh City and District Council",
    "code": "ARM",
    "country_id": "08ae2625-77f8-4751-98a9-d2a9092c03fa"
  },
  {
    "id": "d3af4674-f599-4931-b3e5-bb43e3312f98",
    "name": "Armagh, Banbridge and Craigavon",
    "code": "ABC",
    "country_id": "08ae2625-77f8-4751-98a9-d2a9092c03fa"
  },
  {
    "id": "8dc636e4-f6b5-4d28-8a0e-0b59db0091b7",
    "name": "Ascension Island",
    "code": "SH-AC",
    "country_id": "08ae2625-77f8-4751-98a9-d2a9092c03fa"
  },
  {
    "id": "af2dab6f-0d8e-4087-9249-7936377d1c8d",
    "name": "Ballymena Borough",
    "code": "BLA",
    "country_id": "08ae2625-77f8-4751-98a9-d2a9092c03fa"
  },
  {
    "id": "7c7bbebe-11b8-4399-ae81-6a8a0514e87c",
    "name": "Ballymoney",
    "code": "BLY",
    "country_id": "08ae2625-77f8-4751-98a9-d2a9092c03fa"
  },
  {
    "id": "7453d6d2-97ca-4e9f-a217-889b5088cbd0",
    "name": "Banbridge",
    "code": "BNB",
    "country_id": "08ae2625-77f8-4751-98a9-d2a9092c03fa"
  },
  {
    "id": "7d50596f-659c-47f6-b921-805b23d4bbc2",
    "name": "Barnsley",
    "code": "BNS",
    "country_id": "08ae2625-77f8-4751-98a9-d2a9092c03fa"
  },
  {
    "id": "dfcc1068-c8e1-476a-994a-bd97b73dafc0",
    "name": "Bath and North East Somerset",
    "code": "BAS",
    "country_id": "08ae2625-77f8-4751-98a9-d2a9092c03fa"
  },
  {
    "id": "ffeae701-4116-414e-87de-c01c35b1f5b2",
    "name": "Bedford",
    "code": "BDF",
    "country_id": "08ae2625-77f8-4751-98a9-d2a9092c03fa"
  },
  {
    "id": "13ae5a0d-843b-4538-af39-4097607aadec",
    "name": "Belfast district",
    "code": "BFS",
    "country_id": "08ae2625-77f8-4751-98a9-d2a9092c03fa"
  },
  {
    "id": "902f3194-829c-492b-9848-5a173a84a5ff",
    "name": "Birmingham",
    "code": "BIR",
    "country_id": "08ae2625-77f8-4751-98a9-d2a9092c03fa"
  },
  {
    "id": "079e1c68-17bd-490a-beca-3a70cf7466e6",
    "name": "Blackburn with Darwen",
    "code": "BBD",
    "country_id": "08ae2625-77f8-4751-98a9-d2a9092c03fa"
  },
  {
    "id": "b9388ffd-9d2d-47f9-a2be-4ebe88c9220a",
    "name": "Blackpool",
    "code": "BPL",
    "country_id": "08ae2625-77f8-4751-98a9-d2a9092c03fa"
  },
  {
    "id": "0331aa24-e235-46bc-8680-9fc45214362e",
    "name": "Blaenau Gwent County Borough",
    "code": "BGW",
    "country_id": "08ae2625-77f8-4751-98a9-d2a9092c03fa"
  },
  {
    "id": "0c9c0943-8512-4d8b-a586-78dc5f346ca5",
    "name": "Bolton",
    "code": "BOL",
    "country_id": "08ae2625-77f8-4751-98a9-d2a9092c03fa"
  },
  {
    "id": "75191057-991b-4dcd-9e70-c69639eaa113",
    "name": "Bournemouth",
    "code": "BMH",
    "country_id": "08ae2625-77f8-4751-98a9-d2a9092c03fa"
  },
  {
    "id": "866428ed-0858-49d1-8ba5-a70b4c141115",
    "name": "Bracknell Forest",
    "code": "BRC",
    "country_id": "08ae2625-77f8-4751-98a9-d2a9092c03fa"
  },
  {
    "id": "0e796814-6990-4346-9450-6d5f47a4cfea",
    "name": "Bradford",
    "code": "BRD",
    "country_id": "08ae2625-77f8-4751-98a9-d2a9092c03fa"
  },
  {
    "id": "80a3336b-2f2a-49ab-9c51-8b2a82291315",
    "name": "Bridgend County Borough",
    "code": "BGE",
    "country_id": "08ae2625-77f8-4751-98a9-d2a9092c03fa"
  },
  {
    "id": "526281d6-9b8d-432e-a82e-6f974665e633",
    "name": "Brighton and Hove",
    "code": "BNH",
    "country_id": "08ae2625-77f8-4751-98a9-d2a9092c03fa"
  },
  {
    "id": "a13cb098-9fda-40ae-81b4-6749d4f5eb69",
    "name": "Buckinghamshire",
    "code": "BKM",
    "country_id": "08ae2625-77f8-4751-98a9-d2a9092c03fa"
  },
  {
    "id": "c06eea38-6929-45b6-aef4-b37a5e708565",
    "name": "Bury",
    "code": "BUR",
    "country_id": "08ae2625-77f8-4751-98a9-d2a9092c03fa"
  },
  {
    "id": "ef1a89ff-b31e-4119-b60a-ffb2bd67015f",
    "name": "Caerphilly County Borough",
    "code": "CAY",
    "country_id": "08ae2625-77f8-4751-98a9-d2a9092c03fa"
  },
  {
    "id": "c6b5ca03-eeac-4cce-a54c-095b39b1fde2",
    "name": "Calderdale",
    "code": "CLD",
    "country_id": "08ae2625-77f8-4751-98a9-d2a9092c03fa"
  },
  {
    "id": "b5a8a812-43a2-413d-bc83-30ad850197af",
    "name": "Cambridgeshire",
    "code": "CAM",
    "country_id": "08ae2625-77f8-4751-98a9-d2a9092c03fa"
  },
  {
    "id": "3f75d358-86e1-4237-8565-f59e28a9bab8",
    "name": "Carmarthenshire",
    "code": "CMN",
    "country_id": "08ae2625-77f8-4751-98a9-d2a9092c03fa"
  },
  {
    "id": "65a9c875-ef4a-4b90-b9a2-94a8da455b13",
    "name": "Carrickfergus Borough Council",
    "code": "CKF",
    "country_id": "08ae2625-77f8-4751-98a9-d2a9092c03fa"
  },
  {
    "id": "50ff83f4-45bb-450d-ad6f-78b44d4d7a2f",
    "name": "Castlereagh",
    "code": "CSR",
    "country_id": "08ae2625-77f8-4751-98a9-d2a9092c03fa"
  },
  {
    "id": "86c26cf7-4128-4493-b233-87bd8d358dcc",
    "name": "Causeway Coast and Glens",
    "code": "CCG",
    "country_id": "08ae2625-77f8-4751-98a9-d2a9092c03fa"
  },
  {
    "id": "36547f55-d7ea-4e4d-a74e-2e688f5fb516",
    "name": "Central Bedfordshire",
    "code": "CBF",
    "country_id": "08ae2625-77f8-4751-98a9-d2a9092c03fa"
  },
  {
    "id": "a7ad221f-d893-461c-99c0-0cb6e1d134e2",
    "name": "Ceredigion",
    "code": "CGN",
    "country_id": "08ae2625-77f8-4751-98a9-d2a9092c03fa"
  },
  {
    "id": "88855742-7499-4b23-a1ed-a6f85d94aadf",
    "name": "Cheshire East",
    "code": "CHE",
    "country_id": "08ae2625-77f8-4751-98a9-d2a9092c03fa"
  },
  {
    "id": "c08b4507-e278-43ae-a3c1-fbd9f1fb7728",
    "name": "Cheshire West and Chester",
    "code": "CHW",
    "country_id": "08ae2625-77f8-4751-98a9-d2a9092c03fa"
  },
  {
    "id": "45fb798c-5243-464d-bf23-2e593e6477ac",
    "name": "City and County of Cardiff",
    "code": "CRF",
    "country_id": "08ae2625-77f8-4751-98a9-d2a9092c03fa"
  },
  {
    "id": "2b3a6fce-efb0-4715-b3db-7be63be5effc",
    "name": "City and County of Swansea",
    "code": "SWA",
    "country_id": "08ae2625-77f8-4751-98a9-d2a9092c03fa"
  },
  {
    "id": "3cbc48fc-19a9-488a-a7e9-3d31edaa9997",
    "name": "City of Bristol",
    "code": "BST",
    "country_id": "08ae2625-77f8-4751-98a9-d2a9092c03fa"
  },
  {
    "id": "9263ca62-857d-4e0e-9bc2-d5c09582bde5",
    "name": "City of Derby",
    "code": "DER",
    "country_id": "08ae2625-77f8-4751-98a9-d2a9092c03fa"
  },
  {
    "id": "a55b7a39-08ee-4adc-accc-4f4719f91fce",
    "name": "City of Kingston upon Hull",
    "code": "KHL",
    "country_id": "08ae2625-77f8-4751-98a9-d2a9092c03fa"
  },
  {
    "id": "51639065-8c0a-46a0-a9eb-db265126b2c5",
    "name": "City of Leicester",
    "code": "LCE",
    "country_id": "08ae2625-77f8-4751-98a9-d2a9092c03fa"
  },
  {
    "id": "b7382465-b989-4b05-ac4a-77842d1dd1cb",
    "name": "City of London",
    "code": "LND",
    "country_id": "08ae2625-77f8-4751-98a9-d2a9092c03fa"
  },
  {
    "id": "ebf7145e-7347-426c-a2da-ff2570c4b474",
    "name": "City of Nottingham",
    "code": "NGM",
    "country_id": "08ae2625-77f8-4751-98a9-d2a9092c03fa"
  },
  {
    "id": "5185cdb7-3d9e-4d36-98c6-f68a4ed4e8d1",
    "name": "City of Peterborough",
    "code": "PTE",
    "country_id": "08ae2625-77f8-4751-98a9-d2a9092c03fa"
  },
  {
    "id": "11e323ea-4178-4543-939b-d4fc8a2abcb4",
    "name": "City of Plymouth",
    "code": "PLY",
    "country_id": "08ae2625-77f8-4751-98a9-d2a9092c03fa"
  },
  {
    "id": "433b7393-e96a-4f77-8b2b-36ca04b12bbc",
    "name": "City of Portsmouth",
    "code": "POR",
    "country_id": "08ae2625-77f8-4751-98a9-d2a9092c03fa"
  },
  {
    "id": "2fe60269-f20e-4315-8521-7c201c60f43c",
    "name": "City of Southampton",
    "code": "STH",
    "country_id": "08ae2625-77f8-4751-98a9-d2a9092c03fa"
  },
  {
    "id": "514658fd-1d4b-4c13-847a-3a6003df5a96",
    "name": "City of Stoke-on-Trent",
    "code": "STE",
    "country_id": "08ae2625-77f8-4751-98a9-d2a9092c03fa"
  },
  {
    "id": "d05b6b94-557e-4e5e-8826-a925db4f485e",
    "name": "City of Sunderland",
    "code": "SND",
    "country_id": "08ae2625-77f8-4751-98a9-d2a9092c03fa"
  },
  {
    "id": "46477752-e66c-4764-819b-5dd808eb7f2a",
    "name": "City of Westminster",
    "code": "WSM",
    "country_id": "08ae2625-77f8-4751-98a9-d2a9092c03fa"
  },
  {
    "id": "30e34a48-ebc6-4195-bf77-ba4e27a9e9d8",
    "name": "City of Wolverhampton",
    "code": "WLV",
    "country_id": "08ae2625-77f8-4751-98a9-d2a9092c03fa"
  },
  {
    "id": "ae4f7612-a086-4cfc-8e1e-20369a77d6c8",
    "name": "City of York",
    "code": "YOR",
    "country_id": "08ae2625-77f8-4751-98a9-d2a9092c03fa"
  },
  {
    "id": "1b661af3-b5e6-493d-82ea-fa16bc50770a",
    "name": "Clackmannanshire",
    "code": "CLK",
    "country_id": "08ae2625-77f8-4751-98a9-d2a9092c03fa"
  },
  {
    "id": "a24aaad4-4b28-4cab-aa7f-017d9fffcba6",
    "name": "Coleraine Borough Council",
    "code": "CLR",
    "country_id": "08ae2625-77f8-4751-98a9-d2a9092c03fa"
  },
  {
    "id": "e25c101a-c923-4919-a5d2-8e89461e8be5",
    "name": "Conwy County Borough",
    "code": "CWY",
    "country_id": "08ae2625-77f8-4751-98a9-d2a9092c03fa"
  },
  {
    "id": "2da626b4-2916-4527-a29f-3fa491852460",
    "name": "Cookstown District Council",
    "code": "CKT",
    "country_id": "08ae2625-77f8-4751-98a9-d2a9092c03fa"
  },
  {
    "id": "d487c043-95c7-48de-9490-6ab1e49b73a2",
    "name": "Cornwall",
    "code": "CON",
    "country_id": "08ae2625-77f8-4751-98a9-d2a9092c03fa"
  },
  {
    "id": "6a9e0fe9-dd48-4483-83c1-ac25a3300e42",
    "name": "County Durham",
    "code": "DUR",
    "country_id": "08ae2625-77f8-4751-98a9-d2a9092c03fa"
  },
  {
    "id": "07c9066a-daff-4a0f-bb25-f541712303ac",
    "name": "Coventry",
    "code": "COV",
    "country_id": "08ae2625-77f8-4751-98a9-d2a9092c03fa"
  },
  {
    "id": "021a375e-35c7-4ff6-930f-1a165df08ce7",
    "name": "Craigavon Borough Council",
    "code": "CGV",
    "country_id": "08ae2625-77f8-4751-98a9-d2a9092c03fa"
  },
  {
    "id": "a94b74e5-2da0-4dde-8ce2-0e8e9b8d79b2",
    "name": "Cumbria",
    "code": "CMA",
    "country_id": "08ae2625-77f8-4751-98a9-d2a9092c03fa"
  },
  {
    "id": "aa29af1a-b5b1-4cc4-8fa4-0749560e43cf",
    "name": "Darlington",
    "code": "DAL",
    "country_id": "08ae2625-77f8-4751-98a9-d2a9092c03fa"
  },
  {
    "id": "2bb9aa0b-6708-4264-b80f-8ed06723078f",
    "name": "Denbighshire",
    "code": "DEN",
    "country_id": "08ae2625-77f8-4751-98a9-d2a9092c03fa"
  },
  {
    "id": "50b2aa46-6604-45c8-9a3e-fae9aefe0a9a",
    "name": "Derbyshire",
    "code": "DBY",
    "country_id": "08ae2625-77f8-4751-98a9-d2a9092c03fa"
  },
  {
    "id": "98a5621b-66fc-418c-ba75-c4d80b8ae319",
    "name": "Derry City and Strabane",
    "code": "DRS",
    "country_id": "08ae2625-77f8-4751-98a9-d2a9092c03fa"
  },
  {
    "id": "1124b930-aa6a-4d10-a437-3f2404c6ba45",
    "name": "Derry City Council",
    "code": "DRY",
    "country_id": "08ae2625-77f8-4751-98a9-d2a9092c03fa"
  },
  {
    "id": "c37e57e9-01e3-4562-9bf4-1bc24b41f4ca",
    "name": "Devon",
    "code": "DEV",
    "country_id": "08ae2625-77f8-4751-98a9-d2a9092c03fa"
  },
  {
    "id": "b8b86d54-6924-458a-8535-b9da94a7954b",
    "name": "Doncaster",
    "code": "DNC",
    "country_id": "08ae2625-77f8-4751-98a9-d2a9092c03fa"
  },
  {
    "id": "290682e5-d9a9-4f3e-937d-1725f0f3e386",
    "name": "Dorset",
    "code": "DOR",
    "country_id": "08ae2625-77f8-4751-98a9-d2a9092c03fa"
  },
  {
    "id": "ea74e95c-76d0-4dc2-a330-534861719ce5",
    "name": "Down District Council",
    "code": "DOW",
    "country_id": "08ae2625-77f8-4751-98a9-d2a9092c03fa"
  },
  {
    "id": "75f317cd-34fa-4ced-b737-605eb691d6e8",
    "name": "Dudley",
    "code": "DUD",
    "country_id": "08ae2625-77f8-4751-98a9-d2a9092c03fa"
  },
  {
    "id": "110e3324-0aad-4b8a-a489-a62cf5e888e0",
    "name": "Dumfries and Galloway",
    "code": "DGY",
    "country_id": "08ae2625-77f8-4751-98a9-d2a9092c03fa"
  },
  {
    "id": "e3b5c50f-1b92-43b6-8c8e-8d7851d6cc00",
    "name": "Dundee",
    "code": "DND",
    "country_id": "08ae2625-77f8-4751-98a9-d2a9092c03fa"
  },
  {
    "id": "87908327-5d4f-4b20-a3a2-e380db6d866e",
    "name": "Dungannon and South Tyrone Borough Council",
    "code": "DGN",
    "country_id": "08ae2625-77f8-4751-98a9-d2a9092c03fa"
  },
  {
    "id": "18088320-5d93-42f4-86db-b1e6efe58199",
    "name": "East Ayrshire",
    "code": "EAY",
    "country_id": "08ae2625-77f8-4751-98a9-d2a9092c03fa"
  },
  {
    "id": "50ac354d-5fed-43c7-ab75-5c1de3775f93",
    "name": "East Dunbartonshire",
    "code": "EDU",
    "country_id": "08ae2625-77f8-4751-98a9-d2a9092c03fa"
  },
  {
    "id": "656ff4ef-c198-4fe7-9ae4-a1c52462db91",
    "name": "East Lothian",
    "code": "ELN",
    "country_id": "08ae2625-77f8-4751-98a9-d2a9092c03fa"
  },
  {
    "id": "6e601a1a-5adb-4be7-b447-5231d69ee36e",
    "name": "East Renfrewshire",
    "code": "ERW",
    "country_id": "08ae2625-77f8-4751-98a9-d2a9092c03fa"
  },
  {
    "id": "8302f326-7180-48a9-b97d-e2f95c6349c1",
    "name": "East Riding of Yorkshire",
    "code": "ERY",
    "country_id": "08ae2625-77f8-4751-98a9-d2a9092c03fa"
  },
  {
    "id": "7abd1585-7320-476f-a394-d7d56bca3136",
    "name": "East Sussex",
    "code": "ESX",
    "country_id": "08ae2625-77f8-4751-98a9-d2a9092c03fa"
  },
  {
    "id": "3acf4e28-4b46-48a7-bf4e-8096919a959c",
    "name": "Edinburgh",
    "code": "EDH",
    "country_id": "08ae2625-77f8-4751-98a9-d2a9092c03fa"
  },
  {
    "id": "5d5ec1b8-f3f4-4d5a-b679-a4f1c0f188de",
    "name": "England",
    "code": "ENG",
    "country_id": "08ae2625-77f8-4751-98a9-d2a9092c03fa"
  },
  {
    "id": "1f4d0ccd-8229-46bf-8c79-c6a88482ac04",
    "name": "Essex",
    "code": "ESS",
    "country_id": "08ae2625-77f8-4751-98a9-d2a9092c03fa"
  },
  {
    "id": "370b414d-4dc1-42da-b94e-cdbd26994a23",
    "name": "Falkirk",
    "code": "FAL",
    "country_id": "08ae2625-77f8-4751-98a9-d2a9092c03fa"
  },
  {
    "id": "eaf10976-ed59-4830-aa07-6641ae4bb5ef",
    "name": "Fermanagh and Omagh",
    "code": "FMO",
    "country_id": "08ae2625-77f8-4751-98a9-d2a9092c03fa"
  },
  {
    "id": "122a7eba-5ecd-4074-b0ff-faa546323424",
    "name": "Fermanagh District Council",
    "code": "FER",
    "country_id": "08ae2625-77f8-4751-98a9-d2a9092c03fa"
  },
  {
    "id": "cf3faa42-e1ce-43b8-a13c-925042fbcc23",
    "name": "Fife",
    "code": "FIF",
    "country_id": "08ae2625-77f8-4751-98a9-d2a9092c03fa"
  },
  {
    "id": "9ee46e42-a06a-4b28-ac74-16da03c01339",
    "name": "Flintshire",
    "code": "FLN",
    "country_id": "08ae2625-77f8-4751-98a9-d2a9092c03fa"
  },
  {
    "id": "6dcaeddc-3128-4f61-a88d-0d95d0c1a796",
    "name": "Gateshead",
    "code": "GAT",
    "country_id": "08ae2625-77f8-4751-98a9-d2a9092c03fa"
  },
  {
    "id": "4154d733-a634-4544-bbc6-dda2ef7a51f5",
    "name": "Glasgow",
    "code": "GLG",
    "country_id": "08ae2625-77f8-4751-98a9-d2a9092c03fa"
  },
  {
    "id": "ff270b62-05ef-4fa9-8b85-84c5c1d57cfc",
    "name": "Gloucestershire",
    "code": "GLS",
    "country_id": "08ae2625-77f8-4751-98a9-d2a9092c03fa"
  },
  {
    "id": "8ec3869e-2c63-4717-87e7-10a0cd8cdb47",
    "name": "Gwynedd",
    "code": "GWN",
    "country_id": "08ae2625-77f8-4751-98a9-d2a9092c03fa"
  },
  {
    "id": "966f053d-fd8a-43a1-884d-624fb9116190",
    "name": "Halton",
    "code": "HAL",
    "country_id": "08ae2625-77f8-4751-98a9-d2a9092c03fa"
  },
  {
    "id": "1d02d09a-686d-48ce-9a05-7a5358e6b2c8",
    "name": "Hampshire",
    "code": "HAM",
    "country_id": "08ae2625-77f8-4751-98a9-d2a9092c03fa"
  },
  {
    "id": "89e0bfe2-124a-47ac-a89a-c62669eeac87",
    "name": "Hartlepool",
    "code": "HPL",
    "country_id": "08ae2625-77f8-4751-98a9-d2a9092c03fa"
  },
  {
    "id": "fa799fe9-02fd-4aa6-80b8-2bbd3c70e970",
    "name": "Herefordshire",
    "code": "HEF",
    "country_id": "08ae2625-77f8-4751-98a9-d2a9092c03fa"
  },
  {
    "id": "29fbe877-da51-47ae-b497-792d47f9ff08",
    "name": "Hertfordshire",
    "code": "HRT",
    "country_id": "08ae2625-77f8-4751-98a9-d2a9092c03fa"
  },
  {
    "id": "e50b598b-7b2e-4785-a6bd-37cd9bbfd0e6",
    "name": "Highland",
    "code": "HLD",
    "country_id": "08ae2625-77f8-4751-98a9-d2a9092c03fa"
  },
  {
    "id": "6261aaaa-c8bf-49b7-8131-9ddc6fb39e51",
    "name": "Inverclyde",
    "code": "IVC",
    "country_id": "08ae2625-77f8-4751-98a9-d2a9092c03fa"
  },
  {
    "id": "a10b17a0-22a3-4adc-9a92-eff0afa80fac",
    "name": "Isle of Wight",
    "code": "IOW",
    "country_id": "08ae2625-77f8-4751-98a9-d2a9092c03fa"
  },
  {
    "id": "a43ab5c6-8944-4c39-8047-c6704e70478f",
    "name": "Isles of Scilly",
    "code": "IOS",
    "country_id": "08ae2625-77f8-4751-98a9-d2a9092c03fa"
  },
  {
    "id": "4888ca3f-795a-4f4b-aae7-10f9e9eea686",
    "name": "Kent",
    "code": "KEN",
    "country_id": "08ae2625-77f8-4751-98a9-d2a9092c03fa"
  },
  {
    "id": "1cb19da1-1796-4fc5-b25a-ac724fd9806d",
    "name": "Kirklees",
    "code": "KIR",
    "country_id": "08ae2625-77f8-4751-98a9-d2a9092c03fa"
  },
  {
    "id": "906d9562-d05c-4543-a9d8-7b1e42792da2",
    "name": "Knowsley",
    "code": "KWL",
    "country_id": "08ae2625-77f8-4751-98a9-d2a9092c03fa"
  },
  {
    "id": "218d0966-67be-4c6c-9f6d-a0ee03a0dbcf",
    "name": "Lancashire",
    "code": "LAN",
    "country_id": "08ae2625-77f8-4751-98a9-d2a9092c03fa"
  },
  {
    "id": "2b0c64b5-5fc4-4d6e-ad57-1033edd439ed",
    "name": "Larne Borough Council",
    "code": "LRN",
    "country_id": "08ae2625-77f8-4751-98a9-d2a9092c03fa"
  },
  {
    "id": "e11f7ca1-7316-487e-bbc4-4010e6d6f74c",
    "name": "Leeds",
    "code": "LDS",
    "country_id": "08ae2625-77f8-4751-98a9-d2a9092c03fa"
  },
  {
    "id": "0478e4a3-0900-4b31-bfe8-4b14d5c95a30",
    "name": "Leicestershire",
    "code": "LEC",
    "country_id": "08ae2625-77f8-4751-98a9-d2a9092c03fa"
  },
  {
    "id": "e9f0e34b-f6cb-449c-9a68-9e462d460b2a",
    "name": "Limavady Borough Council",
    "code": "LMV",
    "country_id": "08ae2625-77f8-4751-98a9-d2a9092c03fa"
  },
  {
    "id": "684cb678-329a-4a2f-b70f-dc1f341e1366",
    "name": "Lincolnshire",
    "code": "LIN",
    "country_id": "08ae2625-77f8-4751-98a9-d2a9092c03fa"
  },
  {
    "id": "330db16e-6ae4-455b-b4f6-f07ed2e78590",
    "name": "Lisburn and Castlereagh",
    "code": "LBC",
    "country_id": "08ae2625-77f8-4751-98a9-d2a9092c03fa"
  },
  {
    "id": "da4f5c0a-5cf2-4696-89f6-bc6c48b3cc26",
    "name": "Lisburn City Council",
    "code": "LSB",
    "country_id": "08ae2625-77f8-4751-98a9-d2a9092c03fa"
  },
  {
    "id": "7db4c610-bb01-416b-975c-290f309310f1",
    "name": "Liverpool",
    "code": "LIV",
    "country_id": "08ae2625-77f8-4751-98a9-d2a9092c03fa"
  },
  {
    "id": "85c4f777-920d-4c8b-9ac5-a30d65ab64b1",
    "name": "London Borough of Barking and Dagenham",
    "code": "BDG",
    "country_id": "08ae2625-77f8-4751-98a9-d2a9092c03fa"
  },
  {
    "id": "bc85aad1-3706-4681-9333-407dcc8648b9",
    "name": "London Borough of Barnet",
    "code": "BNE",
    "country_id": "08ae2625-77f8-4751-98a9-d2a9092c03fa"
  },
  {
    "id": "3618faaf-18e5-4c4a-9861-b40c1857c609",
    "name": "London Borough of Bexley",
    "code": "BEX",
    "country_id": "08ae2625-77f8-4751-98a9-d2a9092c03fa"
  },
  {
    "id": "64939380-5a75-41b1-b6d7-3eafd1840b3e",
    "name": "London Borough of Brent",
    "code": "BEN",
    "country_id": "08ae2625-77f8-4751-98a9-d2a9092c03fa"
  },
  {
    "id": "0e774301-88fc-401d-a8d0-58b878b04cfd",
    "name": "London Borough of Bromley",
    "code": "BRY",
    "country_id": "08ae2625-77f8-4751-98a9-d2a9092c03fa"
  },
  {
    "id": "ed6c767b-decb-444c-98b3-ead50019213f",
    "name": "London Borough of Camden",
    "code": "CMD",
    "country_id": "08ae2625-77f8-4751-98a9-d2a9092c03fa"
  },
  {
    "id": "7e4ddf6f-85d6-4415-a803-459d43bae5fe",
    "name": "London Borough of Croydon",
    "code": "CRY",
    "country_id": "08ae2625-77f8-4751-98a9-d2a9092c03fa"
  },
  {
    "id": "1bb0e38d-9aa9-45a9-a527-fc265ed132c7",
    "name": "London Borough of Ealing",
    "code": "EAL",
    "country_id": "08ae2625-77f8-4751-98a9-d2a9092c03fa"
  },
  {
    "id": "01baf9e0-c0d5-4bc0-ae5f-81ea350d9a4f",
    "name": "London Borough of Enfield",
    "code": "ENF",
    "country_id": "08ae2625-77f8-4751-98a9-d2a9092c03fa"
  },
  {
    "id": "1668a946-8885-4e72-87f1-8a33936741da",
    "name": "London Borough of Hackney",
    "code": "HCK",
    "country_id": "08ae2625-77f8-4751-98a9-d2a9092c03fa"
  },
  {
    "id": "5a0205fd-7d8a-46ef-a00d-c632a6c23296",
    "name": "London Borough of Hammersmith and Fulham",
    "code": "HMF",
    "country_id": "08ae2625-77f8-4751-98a9-d2a9092c03fa"
  },
  {
    "id": "1586fdd9-07c9-498d-b324-71a123fdff50",
    "name": "London Borough of Haringey",
    "code": "HRY",
    "country_id": "08ae2625-77f8-4751-98a9-d2a9092c03fa"
  },
  {
    "id": "42334314-f3b9-43cc-802c-72075bff2044",
    "name": "London Borough of Harrow",
    "code": "HRW",
    "country_id": "08ae2625-77f8-4751-98a9-d2a9092c03fa"
  },
  {
    "id": "9a660e0b-df99-43db-ad1c-8510c098e5af",
    "name": "London Borough of Havering",
    "code": "HAV",
    "country_id": "08ae2625-77f8-4751-98a9-d2a9092c03fa"
  },
  {
    "id": "5e1f32a7-6571-497d-8cd6-e117ee84f883",
    "name": "London Borough of Hillingdon",
    "code": "HIL",
    "country_id": "08ae2625-77f8-4751-98a9-d2a9092c03fa"
  },
  {
    "id": "f13d4863-bf62-4a44-9a8b-62c87e0ea871",
    "name": "London Borough of Hounslow",
    "code": "HNS",
    "country_id": "08ae2625-77f8-4751-98a9-d2a9092c03fa"
  },
  {
    "id": "3b5bbccb-42ce-40cf-a25d-afc2587b9783",
    "name": "London Borough of Islington",
    "code": "ISL",
    "country_id": "08ae2625-77f8-4751-98a9-d2a9092c03fa"
  },
  {
    "id": "378aaf0c-a788-4812-9cc0-e88da7ba98bf",
    "name": "London Borough of Lambeth",
    "code": "LBH",
    "country_id": "08ae2625-77f8-4751-98a9-d2a9092c03fa"
  },
  {
    "id": "6753fa47-0b43-4a80-947c-f5d75997875f",
    "name": "London Borough of Lewisham",
    "code": "LEW",
    "country_id": "08ae2625-77f8-4751-98a9-d2a9092c03fa"
  },
  {
    "id": "ff9896a7-eea2-4b04-b9cf-b231c7667d74",
    "name": "London Borough of Merton",
    "code": "MRT",
    "country_id": "08ae2625-77f8-4751-98a9-d2a9092c03fa"
  },
  {
    "id": "ff3225f7-c873-4145-a2bc-19cf3ec341ed",
    "name": "London Borough of Newham",
    "code": "NWM",
    "country_id": "08ae2625-77f8-4751-98a9-d2a9092c03fa"
  },
  {
    "id": "ab11f1cd-2724-454e-a583-74b4d8d6a00a",
    "name": "London Borough of Redbridge",
    "code": "RDB",
    "country_id": "08ae2625-77f8-4751-98a9-d2a9092c03fa"
  },
  {
    "id": "02fc8346-cd96-4a4c-a84a-7026dc6c00e2",
    "name": "London Borough of Richmond upon Thames",
    "code": "RIC",
    "country_id": "08ae2625-77f8-4751-98a9-d2a9092c03fa"
  },
  {
    "id": "2247c709-5d50-4d0f-9208-2d6f41483877",
    "name": "London Borough of Southwark",
    "code": "SWK",
    "country_id": "08ae2625-77f8-4751-98a9-d2a9092c03fa"
  },
  {
    "id": "523de524-2102-4488-8e6e-053de8dd20c1",
    "name": "London Borough of Sutton",
    "code": "STN",
    "country_id": "08ae2625-77f8-4751-98a9-d2a9092c03fa"
  },
  {
    "id": "245d989b-ed61-4393-bcb3-125bd2e9d828",
    "name": "London Borough of Tower Hamlets",
    "code": "TWH",
    "country_id": "08ae2625-77f8-4751-98a9-d2a9092c03fa"
  },
  {
    "id": "830a7685-0bd6-46b9-a7ee-3c51be0ee68c",
    "name": "London Borough of Waltham Forest",
    "code": "WFT",
    "country_id": "08ae2625-77f8-4751-98a9-d2a9092c03fa"
  },
  {
    "id": "7a145d55-7a36-42b4-8de5-a35daa2ffd6f",
    "name": "London Borough of Wandsworth",
    "code": "WND",
    "country_id": "08ae2625-77f8-4751-98a9-d2a9092c03fa"
  },
  {
    "id": "d7fe3383-442f-46cb-b241-1e099be2c619",
    "name": "Magherafelt District Council",
    "code": "MFT",
    "country_id": "08ae2625-77f8-4751-98a9-d2a9092c03fa"
  },
  {
    "id": "60f9cf81-9077-4643-836e-c6bf861c3d2e",
    "name": "Manchester",
    "code": "MAN",
    "country_id": "08ae2625-77f8-4751-98a9-d2a9092c03fa"
  },
  {
    "id": "9f64f4e4-94d1-4022-8e77-d3983743323e",
    "name": "Medway",
    "code": "MDW",
    "country_id": "08ae2625-77f8-4751-98a9-d2a9092c03fa"
  },
  {
    "id": "28866a16-6c61-4030-b0a2-bf7afc0b0d4b",
    "name": "Merthyr Tydfil County Borough",
    "code": "MTY",
    "country_id": "08ae2625-77f8-4751-98a9-d2a9092c03fa"
  },
  {
    "id": "f0097013-d4f4-4ce9-b39b-7583e3b46e73",
    "name": "Metropolitan Borough of Wigan",
    "code": "WGN",
    "country_id": "08ae2625-77f8-4751-98a9-d2a9092c03fa"
  },
  {
    "id": "89eb7732-171f-4dfb-82e9-d80be8f903b7",
    "name": "Mid and East Antrim",
    "code": "MEA",
    "country_id": "08ae2625-77f8-4751-98a9-d2a9092c03fa"
  },
  {
    "id": "b3de3fe7-d93e-4274-b618-5359bbe8b292",
    "name": "Mid Ulster",
    "code": "MUL",
    "country_id": "08ae2625-77f8-4751-98a9-d2a9092c03fa"
  },
  {
    "id": "58289a15-09c6-4efc-93a5-9fe06a724e22",
    "name": "Middlesbrough",
    "code": "MDB",
    "country_id": "08ae2625-77f8-4751-98a9-d2a9092c03fa"
  },
  {
    "id": "6b49a22a-53a0-4316-8d2e-4668d381dc34",
    "name": "Midlothian",
    "code": "MLN",
    "country_id": "08ae2625-77f8-4751-98a9-d2a9092c03fa"
  },
  {
    "id": "b1584d08-81df-4347-8138-5fca7666f2bc",
    "name": "Milton Keynes",
    "code": "MIK",
    "country_id": "08ae2625-77f8-4751-98a9-d2a9092c03fa"
  },
  {
    "id": "d9f73621-8b2a-4bec-a985-1024c4b47889",
    "name": "Monmouthshire",
    "code": "MON",
    "country_id": "08ae2625-77f8-4751-98a9-d2a9092c03fa"
  },
  {
    "id": "12d39afe-3b3f-4508-bb38-6d0fc7f972e4",
    "name": "Moray",
    "code": "MRY",
    "country_id": "08ae2625-77f8-4751-98a9-d2a9092c03fa"
  },
  {
    "id": "4b7ca505-f2c4-4cb4-ae9c-cba3b4021d29",
    "name": "Moyle District Council",
    "code": "MYL",
    "country_id": "08ae2625-77f8-4751-98a9-d2a9092c03fa"
  },
  {
    "id": "25d36a88-fcf1-4593-9ce3-cc9ce6f9a566",
    "name": "Neath Port Talbot County Borough",
    "code": "NTL",
    "country_id": "08ae2625-77f8-4751-98a9-d2a9092c03fa"
  },
  {
    "id": "258daa06-b81f-41cc-a200-afa6bb7536e5",
    "name": "Newcastle upon Tyne",
    "code": "NET",
    "country_id": "08ae2625-77f8-4751-98a9-d2a9092c03fa"
  },
  {
    "id": "c15a99a6-142f-45e1-804f-a515ad3553ce",
    "name": "Newport",
    "code": "NWP",
    "country_id": "08ae2625-77f8-4751-98a9-d2a9092c03fa"
  },
  {
    "id": "0e9227af-92be-452b-8d8f-3122b147891f",
    "name": "Newry and Mourne District Council",
    "code": "NYM",
    "country_id": "08ae2625-77f8-4751-98a9-d2a9092c03fa"
  },
  {
    "id": "90c94d87-fb98-41dd-a384-a018a8960ab1",
    "name": "Newry, Mourne and Down",
    "code": "NMD",
    "country_id": "08ae2625-77f8-4751-98a9-d2a9092c03fa"
  },
  {
    "id": "7862bd0f-66f2-4228-8cda-eceeeebb90db",
    "name": "Newtownabbey Borough Council",
    "code": "NTA",
    "country_id": "08ae2625-77f8-4751-98a9-d2a9092c03fa"
  },
  {
    "id": "a1e36fad-aa5e-4b28-b73c-d4fe494bd923",
    "name": "Norfolk",
    "code": "NFK",
    "country_id": "08ae2625-77f8-4751-98a9-d2a9092c03fa"
  },
  {
    "id": "a155d2a7-353d-4233-98c0-51f072210bf7",
    "name": "North Ayrshire",
    "code": "NAY",
    "country_id": "08ae2625-77f8-4751-98a9-d2a9092c03fa"
  },
  {
    "id": "93583f5b-0182-4490-b45b-a545ed9f98f9",
    "name": "North Down Borough Council",
    "code": "NDN",
    "country_id": "08ae2625-77f8-4751-98a9-d2a9092c03fa"
  },
  {
    "id": "cbeb8f58-bb8b-4120-ad87-007ddf22adb1",
    "name": "North East Lincolnshire",
    "code": "NEL",
    "country_id": "08ae2625-77f8-4751-98a9-d2a9092c03fa"
  },
  {
    "id": "c3ab6153-207f-4044-a394-1c81ea475d45",
    "name": "North Lanarkshire",
    "code": "NLK",
    "country_id": "08ae2625-77f8-4751-98a9-d2a9092c03fa"
  },
  {
    "id": "393a19f9-38e5-4e0f-8a85-ba1c4f29f6f1",
    "name": "North Lincolnshire",
    "code": "NLN",
    "country_id": "08ae2625-77f8-4751-98a9-d2a9092c03fa"
  },
  {
    "id": "22cd669f-4fb8-45a4-b4d6-7dbd434c3880",
    "name": "North Somerset",
    "code": "NSM",
    "country_id": "08ae2625-77f8-4751-98a9-d2a9092c03fa"
  },
  {
    "id": "348f4d1f-ac58-450f-abe6-c5e04672200f",
    "name": "North Tyneside",
    "code": "NTY",
    "country_id": "08ae2625-77f8-4751-98a9-d2a9092c03fa"
  },
  {
    "id": "5281f0c1-78d0-4dbf-9e17-9ed889bbc38d",
    "name": "North Yorkshire",
    "code": "NYK",
    "country_id": "08ae2625-77f8-4751-98a9-d2a9092c03fa"
  },
  {
    "id": "aef4b4d8-7c32-48b7-8f24-5d895eda6b0e",
    "name": "Northamptonshire",
    "code": "NTH",
    "country_id": "08ae2625-77f8-4751-98a9-d2a9092c03fa"
  },
  {
    "id": "0e67bc6d-3355-429f-90b5-d6108c5cdd06",
    "name": "Northern Ireland",
    "code": "NIR",
    "country_id": "08ae2625-77f8-4751-98a9-d2a9092c03fa"
  },
  {
    "id": "32502769-4655-41fc-8924-35c01ead4418",
    "name": "Northumberland",
    "code": "NBL",
    "country_id": "08ae2625-77f8-4751-98a9-d2a9092c03fa"
  },
  {
    "id": "9b5db23d-34a7-45e8-9904-37b95e301435",
    "name": "Nottinghamshire",
    "code": "NTT",
    "country_id": "08ae2625-77f8-4751-98a9-d2a9092c03fa"
  },
  {
    "id": "eb1f7bef-3486-46e9-aba2-ce4ab4a86c78",
    "name": "Oldham",
    "code": "OLD",
    "country_id": "08ae2625-77f8-4751-98a9-d2a9092c03fa"
  },
  {
    "id": "4f297c0f-a1c3-43d8-8647-94c2ddef2fb3",
    "name": "Omagh District Council",
    "code": "OMH",
    "country_id": "08ae2625-77f8-4751-98a9-d2a9092c03fa"
  },
  {
    "id": "0bd43d45-b676-4b55-908f-e0f790f580e5",
    "name": "Orkney Islands",
    "code": "ORK",
    "country_id": "08ae2625-77f8-4751-98a9-d2a9092c03fa"
  },
  {
    "id": "3ec2e352-b252-492d-9750-019c86c44794",
    "name": "Outer Hebrides",
    "code": "ELS",
    "country_id": "08ae2625-77f8-4751-98a9-d2a9092c03fa"
  },
  {
    "id": "497e8a41-ec02-4691-8cb0-ad6b87ad2c39",
    "name": "Oxfordshire",
    "code": "OXF",
    "country_id": "08ae2625-77f8-4751-98a9-d2a9092c03fa"
  },
  {
    "id": "6537ace8-88a6-4549-9015-4f8c365ad326",
    "name": "Pembrokeshire",
    "code": "PEM",
    "country_id": "08ae2625-77f8-4751-98a9-d2a9092c03fa"
  },
  {
    "id": "b0b80761-1bdd-4541-9a0b-4b03a47f4d01",
    "name": "Perth and Kinross",
    "code": "PKN",
    "country_id": "08ae2625-77f8-4751-98a9-d2a9092c03fa"
  },
  {
    "id": "92f8b840-d03d-46f0-84c8-7c4fb8499d32",
    "name": "Poole",
    "code": "POL",
    "country_id": "08ae2625-77f8-4751-98a9-d2a9092c03fa"
  },
  {
    "id": "b96b0182-43c1-4758-bc53-ade6873a0777",
    "name": "Powys",
    "code": "POW",
    "country_id": "08ae2625-77f8-4751-98a9-d2a9092c03fa"
  },
  {
    "id": "02c20662-f4be-4829-bfd2-c38d418a6c94",
    "name": "Reading",
    "code": "RDG",
    "country_id": "08ae2625-77f8-4751-98a9-d2a9092c03fa"
  },
  {
    "id": "a3a4b95f-8bcc-4d46-b4cf-626475a3d2b2",
    "name": "Redcar and Cleveland",
    "code": "RCC",
    "country_id": "08ae2625-77f8-4751-98a9-d2a9092c03fa"
  },
  {
    "id": "82da2e37-e486-4d4e-986b-91df2d2c1cdc",
    "name": "Renfrewshire",
    "code": "RFW",
    "country_id": "08ae2625-77f8-4751-98a9-d2a9092c03fa"
  },
  {
    "id": "61a0dc3b-362d-4ad3-82a2-e4f1cf2b3dae",
    "name": "Rhondda Cynon Taf",
    "code": "RCT",
    "country_id": "08ae2625-77f8-4751-98a9-d2a9092c03fa"
  },
  {
    "id": "c8ee102d-bdb2-4497-8f48-e75fba7a8400",
    "name": "Rochdale",
    "code": "RCH",
    "country_id": "08ae2625-77f8-4751-98a9-d2a9092c03fa"
  },
  {
    "id": "00fed36f-e578-4a46-9a6f-4a0f44f0d131",
    "name": "Rotherham",
    "code": "ROT",
    "country_id": "08ae2625-77f8-4751-98a9-d2a9092c03fa"
  },
  {
    "id": "29539725-1d7e-497b-8af9-9b8401b880cf",
    "name": "Royal Borough of Greenwich",
    "code": "GRE",
    "country_id": "08ae2625-77f8-4751-98a9-d2a9092c03fa"
  },
  {
    "id": "00680ad0-45b3-4c06-819f-2fbc19748768",
    "name": "Royal Borough of Kensington and Chelsea",
    "code": "KEC",
    "country_id": "08ae2625-77f8-4751-98a9-d2a9092c03fa"
  },
  {
    "id": "87c174bb-0119-4cda-ab4c-0da254fab606",
    "name": "Royal Borough of Kingston upon Thames",
    "code": "KTT",
    "country_id": "08ae2625-77f8-4751-98a9-d2a9092c03fa"
  },
  {
    "id": "ffd2d3ee-3adc-4db8-9eb2-b5d216f0dd32",
    "name": "Rutland",
    "code": "RUT",
    "country_id": "08ae2625-77f8-4751-98a9-d2a9092c03fa"
  },
  {
    "id": "487558db-a7f1-4595-af78-74bf5a824bf2",
    "name": "Saint Helena",
    "code": "SH-HL",
    "country_id": "08ae2625-77f8-4751-98a9-d2a9092c03fa"
  },
  {
    "id": "c41fecf6-fe01-4481-9fc1-74baa689e648",
    "name": "Salford",
    "code": "SLF",
    "country_id": "08ae2625-77f8-4751-98a9-d2a9092c03fa"
  },
  {
    "id": "ed0460fa-7a07-4c25-b8ba-bd0c196a4413",
    "name": "Sandwell",
    "code": "SAW",
    "country_id": "08ae2625-77f8-4751-98a9-d2a9092c03fa"
  },
  {
    "id": "79c7f2e2-dcb9-46d5-9f65-0d26483f5d14",
    "name": "Scotland",
    "code": "SCT",
    "country_id": "08ae2625-77f8-4751-98a9-d2a9092c03fa"
  },
  {
    "id": "314e7c7e-3831-4a65-8a1e-ef9f86b3a48d",
    "name": "Scottish Borders",
    "code": "SCB",
    "country_id": "08ae2625-77f8-4751-98a9-d2a9092c03fa"
  },
  {
    "id": "1dde961c-75d2-458d-bd0c-409173b901e6",
    "name": "Sefton",
    "code": "SFT",
    "country_id": "08ae2625-77f8-4751-98a9-d2a9092c03fa"
  },
  {
    "id": "f8d8551a-a7b9-4198-bdda-0a138ce86889",
    "name": "Sheffield",
    "code": "SHF",
    "country_id": "08ae2625-77f8-4751-98a9-d2a9092c03fa"
  },
  {
    "id": "e8e01e8e-6061-451b-82bf-c6d5e16f041a",
    "name": "Shetland Islands",
    "code": "ZET",
    "country_id": "08ae2625-77f8-4751-98a9-d2a9092c03fa"
  },
  {
    "id": "170fd78c-8d2e-4cbc-b8fd-a121540abcad",
    "name": "Shropshire",
    "code": "SHR",
    "country_id": "08ae2625-77f8-4751-98a9-d2a9092c03fa"
  },
  {
    "id": "a8c7866b-5e92-4a50-b5df-36fd10761695",
    "name": "Slough",
    "code": "SLG",
    "country_id": "08ae2625-77f8-4751-98a9-d2a9092c03fa"
  },
  {
    "id": "9513dce3-901f-459d-8c80-67faa8036cfb",
    "name": "Solihull",
    "code": "SOL",
    "country_id": "08ae2625-77f8-4751-98a9-d2a9092c03fa"
  },
  {
    "id": "4b25d03f-b49c-4151-8c79-13d9b3c89a49",
    "name": "Somerset",
    "code": "SOM",
    "country_id": "08ae2625-77f8-4751-98a9-d2a9092c03fa"
  },
  {
    "id": "1b159a3e-fbed-4c00-ab67-243ff571a5da",
    "name": "South Ayrshire",
    "code": "SAY",
    "country_id": "08ae2625-77f8-4751-98a9-d2a9092c03fa"
  },
  {
    "id": "d0d54a11-6f33-45e5-8d29-925f85a70257",
    "name": "South Gloucestershire",
    "code": "SGC",
    "country_id": "08ae2625-77f8-4751-98a9-d2a9092c03fa"
  },
  {
    "id": "b77d13dd-a9a3-495b-9c41-8cef3e7742f6",
    "name": "South Lanarkshire",
    "code": "SLK",
    "country_id": "08ae2625-77f8-4751-98a9-d2a9092c03fa"
  },
  {
    "id": "908da695-40a5-4ec7-90bd-32d0e034711c",
    "name": "South Tyneside",
    "code": "STY",
    "country_id": "08ae2625-77f8-4751-98a9-d2a9092c03fa"
  },
  {
    "id": "61d26121-6597-4532-90e6-24b575aa8f3d",
    "name": "Southend-on-Sea",
    "code": "SOS",
    "country_id": "08ae2625-77f8-4751-98a9-d2a9092c03fa"
  },
  {
    "id": "4a1e5c8b-2093-4387-96b4-aa29930a9edc",
    "name": "St Helens",
    "code": "SHN",
    "country_id": "08ae2625-77f8-4751-98a9-d2a9092c03fa"
  },
  {
    "id": "89f9c91f-3ea8-4d2f-aadb-8ad388e81483",
    "name": "Staffordshire",
    "code": "STS",
    "country_id": "08ae2625-77f8-4751-98a9-d2a9092c03fa"
  },
  {
    "id": "9e959275-6e36-4e93-857c-6b69686fee49",
    "name": "Stirling",
    "code": "STG",
    "country_id": "08ae2625-77f8-4751-98a9-d2a9092c03fa"
  },
  {
    "id": "5a5660e4-526e-40e9-b32d-8212cc6b1a03",
    "name": "Stockport",
    "code": "SKP",
    "country_id": "08ae2625-77f8-4751-98a9-d2a9092c03fa"
  },
  {
    "id": "97630ce6-f5f8-49b1-8401-9eab8dfebaa4",
    "name": "Stockton-on-Tees",
    "code": "STT",
    "country_id": "08ae2625-77f8-4751-98a9-d2a9092c03fa"
  },
  {
    "id": "6e81b0f4-cd73-4392-9521-6c0ce55c2eb2",
    "name": "Strabane District Council",
    "code": "STB",
    "country_id": "08ae2625-77f8-4751-98a9-d2a9092c03fa"
  },
  {
    "id": "7a05c9e1-151a-49ad-974d-9074a7aae0da",
    "name": "Suffolk",
    "code": "SFK",
    "country_id": "08ae2625-77f8-4751-98a9-d2a9092c03fa"
  },
  {
    "id": "4dc85641-3f0d-4ffb-bb3c-1c683d42cf6e",
    "name": "Surrey",
    "code": "SRY",
    "country_id": "08ae2625-77f8-4751-98a9-d2a9092c03fa"
  },
  {
    "id": "baa4e8d3-8cc4-4583-a353-9252941f4168",
    "name": "Swindon",
    "code": "SWD",
    "country_id": "08ae2625-77f8-4751-98a9-d2a9092c03fa"
  },
  {
    "id": "ce9526b4-4784-4f30-b86a-0499b3cb066c",
    "name": "Tameside",
    "code": "TAM",
    "country_id": "08ae2625-77f8-4751-98a9-d2a9092c03fa"
  },
  {
    "id": "8bf778fd-e1a5-4e41-b332-00a3a2f808b8",
    "name": "Telford and Wrekin",
    "code": "TFW",
    "country_id": "08ae2625-77f8-4751-98a9-d2a9092c03fa"
  },
  {
    "id": "04691228-4e41-4bd3-82fe-eb500ffa3c65",
    "name": "Thurrock",
    "code": "THR",
    "country_id": "08ae2625-77f8-4751-98a9-d2a9092c03fa"
  },
  {
    "id": "901905b0-b45f-42fe-a9df-08aeb17489bd",
    "name": "Torbay",
    "code": "TOB",
    "country_id": "08ae2625-77f8-4751-98a9-d2a9092c03fa"
  },
  {
    "id": "a1a99bb0-da5b-4754-8f51-77516ffcb34f",
    "name": "Torfaen",
    "code": "TOF",
    "country_id": "08ae2625-77f8-4751-98a9-d2a9092c03fa"
  },
  {
    "id": "318871c0-2993-44b3-98f8-cefe33f83d59",
    "name": "Trafford",
    "code": "TRF",
    "country_id": "08ae2625-77f8-4751-98a9-d2a9092c03fa"
  },
  {
    "id": "7cb18cb3-0365-4128-bb43-bbbdb2451668",
    "name": "United Kingdom",
    "code": "UKM",
    "country_id": "08ae2625-77f8-4751-98a9-d2a9092c03fa"
  },
  {
    "id": "7946298e-c90f-40aa-aad7-0c424b81f260",
    "name": "Vale of Glamorgan",
    "code": "VGL",
    "country_id": "08ae2625-77f8-4751-98a9-d2a9092c03fa"
  },
  {
    "id": "ab5588d0-889a-4feb-b4b7-cb9cc36af719",
    "name": "Wakefield",
    "code": "WKF",
    "country_id": "08ae2625-77f8-4751-98a9-d2a9092c03fa"
  },
  {
    "id": "5db930e7-52b4-4189-b776-767ccad1e1f5",
    "name": "Wales",
    "code": "WLS",
    "country_id": "08ae2625-77f8-4751-98a9-d2a9092c03fa"
  },
  {
    "id": "1764230f-ccab-4ccc-b142-6bf133b1063e",
    "name": "Walsall",
    "code": "WLL",
    "country_id": "08ae2625-77f8-4751-98a9-d2a9092c03fa"
  },
  {
    "id": "dd683a20-fc11-45ff-8c8b-faece03a02cc",
    "name": "Warrington",
    "code": "WRT",
    "country_id": "08ae2625-77f8-4751-98a9-d2a9092c03fa"
  },
  {
    "id": "94137fb9-fe2c-4c91-9ab2-831bf17b74ee",
    "name": "Warwickshire",
    "code": "WAR",
    "country_id": "08ae2625-77f8-4751-98a9-d2a9092c03fa"
  },
  {
    "id": "73c5a519-a310-40d1-bfde-e1163b18509f",
    "name": "West Berkshire",
    "code": "WBK",
    "country_id": "08ae2625-77f8-4751-98a9-d2a9092c03fa"
  },
  {
    "id": "7403c28c-82c8-45de-b73d-24b1392c4d4c",
    "name": "West Dunbartonshire",
    "code": "WDU",
    "country_id": "08ae2625-77f8-4751-98a9-d2a9092c03fa"
  },
  {
    "id": "1542c26c-86a5-47e1-abf2-c3ad7dc7aead",
    "name": "West Lothian",
    "code": "WLN",
    "country_id": "08ae2625-77f8-4751-98a9-d2a9092c03fa"
  },
  {
    "id": "5e8db1c0-edb6-4605-b9ee-6ac8a58d7ba1",
    "name": "West Sussex",
    "code": "WSX",
    "country_id": "08ae2625-77f8-4751-98a9-d2a9092c03fa"
  },
  {
    "id": "89ac4115-cc8e-40f6-bad0-4b5e7243229a",
    "name": "Wiltshire",
    "code": "WIL",
    "country_id": "08ae2625-77f8-4751-98a9-d2a9092c03fa"
  },
  {
    "id": "cb3f5bcc-e343-4547-a253-3111ae8b70ec",
    "name": "Windsor and Maidenhead",
    "code": "WNM",
    "country_id": "08ae2625-77f8-4751-98a9-d2a9092c03fa"
  },
  {
    "id": "f464972c-7b82-434e-b333-dc853ceba95c",
    "name": "Wirral",
    "code": "WRL",
    "country_id": "08ae2625-77f8-4751-98a9-d2a9092c03fa"
  },
  {
    "id": "e8e4487c-ec1d-403b-b2c2-2605e31b4be3",
    "name": "Wokingham",
    "code": "WOK",
    "country_id": "08ae2625-77f8-4751-98a9-d2a9092c03fa"
  },
  {
    "id": "6ca2cf5f-5a4d-44d3-af4a-c7c08ed369ea",
    "name": "Worcestershire",
    "code": "WOR",
    "country_id": "08ae2625-77f8-4751-98a9-d2a9092c03fa"
  },
  {
    "id": "7d119f7a-4f9c-4a25-874c-da14b3b35202",
    "name": "Wrexham County Borough",
    "code": "WRX",
    "country_id": "08ae2625-77f8-4751-98a9-d2a9092c03fa"
  }
]