[
  {
    "id": "27af557d-5247-49e3-a5be-763f8e93dfcc",
    "name": "Altai Krai",
    "code": "ALT",
    "country_id": "0ca912bc-e55f-4cf1-8fd9-d1daac4c11a0"
  },
  {
    "id": "4cb3ad8e-9426-48bb-b38e-72cf6e24570f",
    "name": "Altai Republic",
    "code": "AL",
    "country_id": "0ca912bc-e55f-4cf1-8fd9-d1daac4c11a0"
  },
  {
    "id": "6a924e26-4e17-4a44-8f33-b2ebcc09165a",
    "name": "Amur Oblast",
    "code": "AMU",
    "country_id": "0ca912bc-e55f-4cf1-8fd9-d1daac4c11a0"
  },
  {
    "id": "847c966f-49b7-43ce-bfb1-c1c8d15d0cc5",
    "name": "Arkhangelsk",
    "code": "ARK",
    "country_id": "0ca912bc-e55f-4cf1-8fd9-d1daac4c11a0"
  },
  {
    "id": "3c10ea3d-6561-4a7a-95d9-6fcd1c0caf1e",
    "name": "Astrakhan Oblast",
    "code": "AST",
    "country_id": "0ca912bc-e55f-4cf1-8fd9-d1daac4c11a0"
  },
  {
    "id": "43be1973-efa7-48bc-bda9-4fb6676ded75",
    "name": "Belgorod Oblast",
    "code": "BEL",
    "country_id": "0ca912bc-e55f-4cf1-8fd9-d1daac4c11a0"
  },
  {
    "id": "439f0625-c256-47ba-b767-3de152e1c952",
    "name": "Bryansk Oblast",
    "code": "BRY",
    "country_id": "0ca912bc-e55f-4cf1-8fd9-d1daac4c11a0"
  },
  {
    "id": "ad4a39be-1b06-438c-967e-5d5089f7e2ae",
    "name": "Chechen Republic",
    "code": "CE",
    "country_id": "0ca912bc-e55f-4cf1-8fd9-d1daac4c11a0"
  },
  {
    "id": "f1621e63-b1d1-4d6a-87de-5b858413889b",
    "name": "Chelyabinsk Oblast",
    "code": "CHE",
    "country_id": "0ca912bc-e55f-4cf1-8fd9-d1daac4c11a0"
  },
  {
    "id": "43314f25-8379-453c-9cd7-58f954c1c49f",
    "name": "Chukotka Autonomous Okrug",
    "code": "CHU",
    "country_id": "0ca912bc-e55f-4cf1-8fd9-d1daac4c11a0"
  },
  {
    "id": "db6d37d5-16ae-47ae-9805-927395079edd",
    "name": "Chuvash Republic",
    "code": "CU",
    "country_id": "0ca912bc-e55f-4cf1-8fd9-d1daac4c11a0"
  },
  {
    "id": "f99f8fae-a21f-4782-a543-96923bc9a352",
    "name": "Irkutsk",
    "code": "IRK",
    "country_id": "0ca912bc-e55f-4cf1-8fd9-d1daac4c11a0"
  },
  {
    "id": "f59a2f27-30b2-4a85-afbc-e7b4b68b36d1",
    "name": "Ivanovo Oblast",
    "code": "IVA",
    "country_id": "0ca912bc-e55f-4cf1-8fd9-d1daac4c11a0"
  },
  {
    "id": "7fae9205-bcfb-4a01-afc4-155878e8c125",
    "name": "Jewish Autonomous Oblast",
    "code": "YEV",
    "country_id": "0ca912bc-e55f-4cf1-8fd9-d1daac4c11a0"
  },
  {
    "id": "9df42363-2640-429f-8567-8a31806f7b97",
    "name": "Kabardino-Balkar Republic",
    "code": "KB",
    "country_id": "0ca912bc-e55f-4cf1-8fd9-d1daac4c11a0"
  },
  {
    "id": "761dd238-bd4d-4373-a899-98f632617d8c",
    "name": "Kaliningrad",
    "code": "KGD",
    "country_id": "0ca912bc-e55f-4cf1-8fd9-d1daac4c11a0"
  },
  {
    "id": "65e9020a-081f-4ddb-838c-883a128f3edf",
    "name": "Kaluga Oblast",
    "code": "KLU",
    "country_id": "0ca912bc-e55f-4cf1-8fd9-d1daac4c11a0"
  },
  {
    "id": "2ea4a95a-b00e-4936-928a-69253d27a86c",
    "name": "Kamchatka Krai",
    "code": "KAM",
    "country_id": "0ca912bc-e55f-4cf1-8fd9-d1daac4c11a0"
  },
  {
    "id": "17aa6b8f-c2c1-403a-8100-9390ad365158",
    "name": "Karachay-Cherkess Republic",
    "code": "KC",
    "country_id": "0ca912bc-e55f-4cf1-8fd9-d1daac4c11a0"
  },
  {
    "id": "319e66ac-e461-41c6-a1fb-b3219bfae829",
    "name": "Kemerovo Oblast",
    "code": "KEM",
    "country_id": "0ca912bc-e55f-4cf1-8fd9-d1daac4c11a0"
  },
  {
    "id": "2b2bc65e-7460-4502-9eea-8666d25a3040",
    "name": "Khabarovsk Krai",
    "code": "KHA",
    "country_id": "0ca912bc-e55f-4cf1-8fd9-d1daac4c11a0"
  },
  {
    "id": "03e545aa-5fb3-4688-a415-852c571039ea",
    "name": "Khanty-Mansi Autonomous Okrug",
    "code": "KHM",
    "country_id": "0ca912bc-e55f-4cf1-8fd9-d1daac4c11a0"
  },
  {
    "id": "3a100f49-c47c-4996-9cf0-09f351885cc0",
    "name": "Kirov Oblast",
    "code": "KIR",
    "country_id": "0ca912bc-e55f-4cf1-8fd9-d1daac4c11a0"
  },
  {
    "id": "9514f1d9-6aaf-4db3-9a6b-c91d4e6370a9",
    "name": "Komi Republic",
    "code": "KO",
    "country_id": "0ca912bc-e55f-4cf1-8fd9-d1daac4c11a0"
  },
  {
    "id": "177536ab-846d-444a-b7fc-04c81d15c899",
    "name": "Kostroma Oblast",
    "code": "KOS",
    "country_id": "0ca912bc-e55f-4cf1-8fd9-d1daac4c11a0"
  },
  {
    "id": "5cbaaabc-e2f6-47c1-8d2f-1c0801f6e575",
    "name": "Krasnodar Krai",
    "code": "KDA",
    "country_id": "0ca912bc-e55f-4cf1-8fd9-d1daac4c11a0"
  },
  {
    "id": "6490ef33-df02-4053-9af2-968cabd94ab6",
    "name": "Krasnoyarsk Krai",
    "code": "KYA",
    "country_id": "0ca912bc-e55f-4cf1-8fd9-d1daac4c11a0"
  },
  {
    "id": "43d0c3be-24f0-4cd8-b141-6d72a6f5f004",
    "name": "Kurgan Oblast",
    "code": "KGN",
    "country_id": "0ca912bc-e55f-4cf1-8fd9-d1daac4c11a0"
  },
  {
    "id": "cb1ae5b9-23a1-4a7a-8ae2-81baeb9b4931",
    "name": "Kursk Oblast",
    "code": "KRS",
    "country_id": "0ca912bc-e55f-4cf1-8fd9-d1daac4c11a0"
  },
  {
    "id": "54d8dda6-601a-4504-8726-19ee826f6a6c",
    "name": "Leningrad Oblast",
    "code": "LEN",
    "country_id": "0ca912bc-e55f-4cf1-8fd9-d1daac4c11a0"
  },
  {
    "id": "f023aca9-dd86-4096-a2b6-c03e98ae0af3",
    "name": "Lipetsk Oblast",
    "code": "LIP",
    "country_id": "0ca912bc-e55f-4cf1-8fd9-d1daac4c11a0"
  },
  {
    "id": "ae7b75c7-4b4a-427c-b183-2a1638677bd3",
    "name": "Magadan Oblast",
    "code": "MAG",
    "country_id": "0ca912bc-e55f-4cf1-8fd9-d1daac4c11a0"
  },
  {
    "id": "9d73bbbf-1747-4dbf-8179-0eb2370fe118",
    "name": "Mari El Republic",
    "code": "ME",
    "country_id": "0ca912bc-e55f-4cf1-8fd9-d1daac4c11a0"
  },
  {
    "id": "c23ea847-f8ed-44c9-9d50-b2bb29e00935",
    "name": "Moscow",
    "code": "MOW",
    "country_id": "0ca912bc-e55f-4cf1-8fd9-d1daac4c11a0"
  },
  {
    "id": "54c2a988-a2b2-4d4f-9c0f-2d03c16e3cb8",
    "name": "Moscow Oblast",
    "code": "MOS",
    "country_id": "0ca912bc-e55f-4cf1-8fd9-d1daac4c11a0"
  },
  {
    "id": "066c3c68-057b-4ab3-8cd7-18bd95770282",
    "name": "Murmansk Oblast",
    "code": "MUR",
    "country_id": "0ca912bc-e55f-4cf1-8fd9-d1daac4c11a0"
  },
  {
    "id": "328c8dbd-f3ba-4679-bd2b-5fd5559b6830",
    "name": "Nenets Autonomous Okrug",
    "code": "NEN",
    "country_id": "0ca912bc-e55f-4cf1-8fd9-d1daac4c11a0"
  },
  {
    "id": "4bfca9ed-af3c-4ae1-8484-a20c53be9c8e",
    "name": "Nizhny Novgorod Oblast",
    "code": "NIZ",
    "country_id": "0ca912bc-e55f-4cf1-8fd9-d1daac4c11a0"
  },
  {
    "id": "04a7633e-eab4-4b56-9c2c-543d2ba6eb8a",
    "name": "Novgorod Oblast",
    "code": "NGR",
    "country_id": "0ca912bc-e55f-4cf1-8fd9-d1daac4c11a0"
  },
  {
    "id": "1cae94b9-681f-422f-822a-d3befce04100",
    "name": "Novosibirsk",
    "code": "NVS",
    "country_id": "0ca912bc-e55f-4cf1-8fd9-d1daac4c11a0"
  },
  {
    "id": "4e2f230f-0cef-4379-bd41-4104e03277f1",
    "name": "Omsk Oblast",
    "code": "OMS",
    "country_id": "0ca912bc-e55f-4cf1-8fd9-d1daac4c11a0"
  },
  {
    "id": "690d67ef-ddba-49cc-9d36-e0106e931eee",
    "name": "Orenburg Oblast",
    "code": "ORE",
    "country_id": "0ca912bc-e55f-4cf1-8fd9-d1daac4c11a0"
  },
  {
    "id": "c2ce18e2-e7a8-4ea2-94ce-f0203041de8c",
    "name": "Oryol Oblast",
    "code": "ORL",
    "country_id": "0ca912bc-e55f-4cf1-8fd9-d1daac4c11a0"
  },
  {
    "id": "5dc11ed8-416a-4f40-b540-4702e7de92c4",
    "name": "Penza Oblast",
    "code": "PNZ",
    "country_id": "0ca912bc-e55f-4cf1-8fd9-d1daac4c11a0"
  },
  {
    "id": "cb7b093d-df3c-46cf-9bfa-f141fce09287",
    "name": "Perm Krai",
    "code": "PER",
    "country_id": "0ca912bc-e55f-4cf1-8fd9-d1daac4c11a0"
  },
  {
    "id": "0cb3a2bf-cbc4-489f-8dfb-94b1f8324e9b",
    "name": "Primorsky Krai",
    "code": "PRI",
    "country_id": "0ca912bc-e55f-4cf1-8fd9-d1daac4c11a0"
  },
  {
    "id": "2a06aac1-6714-4fa0-8ca3-7ed1650697bb",
    "name": "Pskov Oblast",
    "code": "PSK",
    "country_id": "0ca912bc-e55f-4cf1-8fd9-d1daac4c11a0"
  },
  {
    "id": "8d062651-63cc-4c41-bbd8-503e0d09c9f7",
    "name": "Republic of Adygea",
    "code": "AD",
    "country_id": "0ca912bc-e55f-4cf1-8fd9-d1daac4c11a0"
  },
  {
    "id": "2abd3c24-0453-4008-ab7c-df5387a21875",
    "name": "Republic of Bashkortostan",
    "code": "BA",
    "country_id": "0ca912bc-e55f-4cf1-8fd9-d1daac4c11a0"
  },
  {
    "id": "2ae8fddc-8711-4f2a-ad59-aa078e6ab9b2",
    "name": "Republic of Buryatia",
    "code": "BU",
    "country_id": "0ca912bc-e55f-4cf1-8fd9-d1daac4c11a0"
  },
  {
    "id": "5e956629-a4d0-4c3f-b521-02411e55e43b",
    "name": "Republic of Dagestan",
    "code": "DA",
    "country_id": "0ca912bc-e55f-4cf1-8fd9-d1daac4c11a0"
  },
  {
    "id": "a94c093c-f0e1-4bd8-a83d-de7ce6cd2996",
    "name": "Republic of Ingushetia",
    "code": "IN",
    "country_id": "0ca912bc-e55f-4cf1-8fd9-d1daac4c11a0"
  },
  {
    "id": "bff8baae-a881-4b36-92a4-ea9aad376b99",
    "name": "Republic of Kalmykia",
    "code": "KL",
    "country_id": "0ca912bc-e55f-4cf1-8fd9-d1daac4c11a0"
  },
  {
    "id": "6ab42df6-8be6-4d59-b415-5950a9c5f8c1",
    "name": "Republic of Karelia",
    "code": "KR",
    "country_id": "0ca912bc-e55f-4cf1-8fd9-d1daac4c11a0"
  },
  {
    "id": "9a0a234d-c20a-4dba-8c53-6064066d8000",
    "name": "Republic of Khakassia",
    "code": "KK",
    "country_id": "0ca912bc-e55f-4cf1-8fd9-d1daac4c11a0"
  },
  {
    "id": "a9cd313d-8e56-49d4-b335-26d7b46846d6",
    "name": "Republic of Mordovia",
    "code": "MO",
    "country_id": "0ca912bc-e55f-4cf1-8fd9-d1daac4c11a0"
  },
  {
    "id": "ec462b20-3145-49d3-9378-bebf6008245d",
    "name": "Republic of North Ossetia-Alania",
    "code": "SE",
    "country_id": "0ca912bc-e55f-4cf1-8fd9-d1daac4c11a0"
  },
  {
    "id": "2bd8e98d-e9af-4f57-a03d-3eb2fc5e234b",
    "name": "Republic of Tatarstan",
    "code": "TA",
    "country_id": "0ca912bc-e55f-4cf1-8fd9-d1daac4c11a0"
  },
  {
    "id": "6efa672e-1f56-470b-bba0-d0e0f58b22e6",
    "name": "Rostov Oblast",
    "code": "ROS",
    "country_id": "0ca912bc-e55f-4cf1-8fd9-d1daac4c11a0"
  },
  {
    "id": "7a5b3401-4128-4975-bd27-ef0516188c37",
    "name": "Ryazan Oblast",
    "code": "RYA",
    "country_id": "0ca912bc-e55f-4cf1-8fd9-d1daac4c11a0"
  },
  {
    "id": "92c5c3c4-dbdd-4caa-acd9-5217353ac389",
    "name": "Saint Petersburg",
    "code": "SPE",
    "country_id": "0ca912bc-e55f-4cf1-8fd9-d1daac4c11a0"
  },
  {
    "id": "67fdc7ba-e026-4de5-9a88-75d00b6ed1e5",
    "name": "Sakha Republic",
    "code": "SA",
    "country_id": "0ca912bc-e55f-4cf1-8fd9-d1daac4c11a0"
  },
  {
    "id": "c0b7458e-19ef-4e03-b229-b3b656d1ced2",
    "name": "Sakhalin",
    "code": "SAK",
    "country_id": "0ca912bc-e55f-4cf1-8fd9-d1daac4c11a0"
  },
  {
    "id": "f8f6d174-a8d8-4515-9567-a8063917a04c",
    "name": "Samara Oblast",
    "code": "SAM",
    "country_id": "0ca912bc-e55f-4cf1-8fd9-d1daac4c11a0"
  },
  {
    "id": "c0bb86e5-4319-4215-a3bd-ca1121e17646",
    "name": "Saratov Oblast",
    "code": "SAR",
    "country_id": "0ca912bc-e55f-4cf1-8fd9-d1daac4c11a0"
  },
  {
    "id": "22cc95e2-e7aa-4fc7-9e35-a1224ad05d0b",
    "name": "Sevastopol",
    "code": "UA-40",
    "country_id": "0ca912bc-e55f-4cf1-8fd9-d1daac4c11a0"
  },
  {
    "id": "edeb11bc-b6b7-429a-9cbe-91e9106089a3",
    "name": "Smolensk Oblast",
    "code": "SMO",
    "country_id": "0ca912bc-e55f-4cf1-8fd9-d1daac4c11a0"
  },
  {
    "id": "f45d24a2-4764-4bfa-95df-4db158acef4a",
    "name": "Stavropol Krai",
    "code": "STA",
    "country_id": "0ca912bc-e55f-4cf1-8fd9-d1daac4c11a0"
  },
  {
    "id": "c78c9329-4e4c-4a74-bd80-9106581f33b7",
    "name": "Sverdlovsk",
    "code": "SVE",
    "country_id": "0ca912bc-e55f-4cf1-8fd9-d1daac4c11a0"
  },
  {
    "id": "4bd51768-33ae-4bc8-9c3c-5cbf9db375dd",
    "name": "Tambov Oblast",
    "code": "TAM",
    "country_id": "0ca912bc-e55f-4cf1-8fd9-d1daac4c11a0"
  },
  {
    "id": "77f77ce7-a8f0-4ae9-9f5a-e18d4ff21079",
    "name": "Tomsk Oblast",
    "code": "TOM",
    "country_id": "0ca912bc-e55f-4cf1-8fd9-d1daac4c11a0"
  },
  {
    "id": "fe730c06-e2f2-4b26-b40d-56d75347b5c1",
    "name": "Tula Oblast",
    "code": "TUL",
    "country_id": "0ca912bc-e55f-4cf1-8fd9-d1daac4c11a0"
  },
  {
    "id": "6395bd19-16a3-45a4-8dff-9344023127c7",
    "name": "Tuva Republic",
    "code": "TY",
    "country_id": "0ca912bc-e55f-4cf1-8fd9-d1daac4c11a0"
  },
  {
    "id": "fe41444d-126c-4536-9485-bc091e083da1",
    "name": "Tver Oblast",
    "code": "TVE",
    "country_id": "0ca912bc-e55f-4cf1-8fd9-d1daac4c11a0"
  },
  {
    "id": "b0386440-4e10-4f43-986b-63ed43c1f8e6",
    "name": "Tyumen Oblast",
    "code": "TYU",
    "country_id": "0ca912bc-e55f-4cf1-8fd9-d1daac4c11a0"
  },
  {
    "id": "f86e6495-2415-4529-ac3f-6c8fac53b75e",
    "name": "Udmurt Republic",
    "code": "UD",
    "country_id": "0ca912bc-e55f-4cf1-8fd9-d1daac4c11a0"
  },
  {
    "id": "b368da7f-064d-4a29-b0a9-90dcbccf808f",
    "name": "Ulyanovsk Oblast",
    "code": "ULY",
    "country_id": "0ca912bc-e55f-4cf1-8fd9-d1daac4c11a0"
  },
  {
    "id": "e2adb0fb-b496-442f-8e2e-234b44496cbd",
    "name": "Vladimir Oblast",
    "code": "VLA",
    "country_id": "0ca912bc-e55f-4cf1-8fd9-d1daac4c11a0"
  },
  {
    "id": "d2310936-c020-4825-ab10-0ab08914b2ec",
    "name": "Volgograd Oblast",
    "code": "VGG",
    "country_id": "0ca912bc-e55f-4cf1-8fd9-d1daac4c11a0"
  },
  {
    "id": "ae5b8823-5e2f-448b-8583-531867f4fc56",
    "name": "Vologda Oblast",
    "code": "VLG",
    "country_id": "0ca912bc-e55f-4cf1-8fd9-d1daac4c11a0"
  },
  {
    "id": "eb20b8a6-b81c-447b-88ca-a41e03d232e2",
    "name": "Voronezh Oblast",
    "code": "VOR",
    "country_id": "0ca912bc-e55f-4cf1-8fd9-d1daac4c11a0"
  },
  {
    "id": "9e6ea2c8-6039-4bc3-b15f-4c459c60121c",
    "name": "Yamalo-Nenets Autonomous Okrug",
    "code": "YAN",
    "country_id": "0ca912bc-e55f-4cf1-8fd9-d1daac4c11a0"
  },
  {
    "id": "897a32fd-0e44-4f59-af56-9e6f506fbd16",
    "name": "Yaroslavl Oblast",
    "code": "YAR",
    "country_id": "0ca912bc-e55f-4cf1-8fd9-d1daac4c11a0"
  },
  {
    "id": "9e5a8ce0-6d16-410e-823f-80822c4efc91",
    "name": "Zabaykalsky Krai",
    "code": "ZAB",
    "country_id": "0ca912bc-e55f-4cf1-8fd9-d1daac4c11a0"
  }
]