[
  {
    "id": "a5f958a3-e368-456a-b400-cefcd0928b56",
    "name": "Canton of Capellen",
    "code": "CA",
    "country_id": "0e4148c0-f377-4139-823e-12ce9d28e629"
  },
  {
    "id": "eea7f693-e997-4c35-b5d0-53f06a8a9ac5",
    "name": "Canton of Clervaux",
    "code": "CL",
    "country_id": "0e4148c0-f377-4139-823e-12ce9d28e629"
  },
  {
    "id": "5346eae5-652a-48d5-bc79-48b723407f97",
    "name": "Canton of Diekirch",
    "code": "DI",
    "country_id": "0e4148c0-f377-4139-823e-12ce9d28e629"
  },
  {
    "id": "22640209-8482-4f43-b2f5-b0a015ac2ed4",
    "name": "Canton of Echternach",
    "code": "EC",
    "country_id": "0e4148c0-f377-4139-823e-12ce9d28e629"
  },
  {
    "id": "a5604fb9-448f-483f-90d4-08ac70da4f34",
    "name": "Canton of Esch-sur-Alzette",
    "code": "ES",
    "country_id": "0e4148c0-f377-4139-823e-12ce9d28e629"
  },
  {
    "id": "3910929b-5dc4-4eae-916b-39805803feb5",
    "name": "Canton of Grevenmacher",
    "code": "GR",
    "country_id": "0e4148c0-f377-4139-823e-12ce9d28e629"
  },
  {
    "id": "f88c8bcd-a633-4fb3-896c-4e3734208cb6",
    "name": "Canton of Luxembourg",
    "code": "LU",
    "country_id": "0e4148c0-f377-4139-823e-12ce9d28e629"
  },
  {
    "id": "f093e69b-ee13-4a77-bbb8-fb19b51ca8af",
    "name": "Canton of Mersch",
    "code": "ME",
    "country_id": "0e4148c0-f377-4139-823e-12ce9d28e629"
  },
  {
    "id": "b208048d-609e-4cc1-a2a6-015e2870606f",
    "name": "Canton of Redange",
    "code": "RD",
    "country_id": "0e4148c0-f377-4139-823e-12ce9d28e629"
  },
  {
    "id": "26f41dda-b7e9-4ce1-83bc-ba1d3f840eed",
    "name": "Canton of Remich",
    "code": "RM",
    "country_id": "0e4148c0-f377-4139-823e-12ce9d28e629"
  },
  {
    "id": "b130114e-ebab-41a0-ba7c-1719782d759f",
    "name": "Canton of Vianden",
    "code": "VD",
    "country_id": "0e4148c0-f377-4139-823e-12ce9d28e629"
  },
  {
    "id": "585adddc-e75b-441a-9dfd-4f2924e6cb0c",
    "name": "Canton of Wiltz",
    "code": "WI",
    "country_id": "0e4148c0-f377-4139-823e-12ce9d28e629"
  },
  {
    "id": "33cbd816-15a1-4e1e-8eff-3362761027ea",
    "name": "Diekirch District",
    "code": "D",
    "country_id": "0e4148c0-f377-4139-823e-12ce9d28e629"
  },
  {
    "id": "3b603fbb-8bb3-4670-84a4-a9fcca9e9729",
    "name": "Grevenmacher District",
    "code": "G",
    "country_id": "0e4148c0-f377-4139-823e-12ce9d28e629"
  },
  {
    "id": "236870e3-bf1f-4501-982e-6e06d6c8e724",
    "name": "Luxembourg District",
    "code": "L",
    "country_id": "0e4148c0-f377-4139-823e-12ce9d28e629"
  }
]