[
  {
    "id": "0ece2bd1-0e3b-4bb7-acda-9eaf45688341",
    "name": "Anseba Region",
    "code": "AN",
    "country_id": "21a96a33-7db6-4e16-81ae-f606518c95c8"
  },
  {
    "id": "cad81731-8ced-4971-84b3-8f147f465482",
    "name": "Debub Region",
    "code": "DU",
    "country_id": "21a96a33-7db6-4e16-81ae-f606518c95c8"
  },
  {
    "id": "e893bf35-bbee-4663-9518-723611847e5b",
    "name": "Gash-Barka Region",
    "code": "GB",
    "country_id": "21a96a33-7db6-4e16-81ae-f606518c95c8"
  },
  {
    "id": "c7719573-95a3-4b50-9b87-05f3dc6b2b50",
    "name": "Maekel Region",
    "code": "MA",
    "country_id": "21a96a33-7db6-4e16-81ae-f606518c95c8"
  },
  {
    "id": "855178d3-65af-4c8f-8517-aa8283b5f8a4",
    "name": "Northern Red Sea Region",
    "code": "SK",
    "country_id": "21a96a33-7db6-4e16-81ae-f606518c95c8"
  },
  {
    "id": "1ef9c999-7c56-4e75-a945-7325f3a61795",
    "name": "Southern Red Sea Region",
    "code": "DK",
    "country_id": "21a96a33-7db6-4e16-81ae-f606518c95c8"
  }
]