[
  {
    "id": "0a11de27-00ca-482b-bf9d-6a252dcccb66",
    "name": "Al Ahmadi Governorate",
    "code": "AH",
    "country_id": "2b3398d1-be99-4753-a368-acc873ad0c38"
  },
  {
    "id": "814f022f-829c-4ac7-a819-5d0f88b27e07",
    "name": "Al Farwaniyah Governorate",
    "code": "FA",
    "country_id": "2b3398d1-be99-4753-a368-acc873ad0c38"
  },
  {
    "id": "6b9ad43c-04c3-4ef3-947c-31c16f70b850",
    "name": "Al Jahra Governorate",
    "code": "JA",
    "country_id": "2b3398d1-be99-4753-a368-acc873ad0c38"
  },
  {
    "id": "c55ab107-e305-4aa0-888e-a894e909c89a",
    "name": "Capital Governorate",
    "code": "KU",
    "country_id": "2b3398d1-be99-4753-a368-acc873ad0c38"
  },
  {
    "id": "a7a1ea08-0cd8-4dda-8bb2-e34405c0befe",
    "name": "Hawalli Governorate",
    "code": "HA",
    "country_id": "2b3398d1-be99-4753-a368-acc873ad0c38"
  },
  {
    "id": "bc9c2a83-b8cb-4a67-b806-93f01fb4d09c",
    "name": "Mubarak Al-Kabeer Governorate",
    "code": "MU",
    "country_id": "2b3398d1-be99-4753-a368-acc873ad0c38"
  }
]