[
  {
    "id": "b07bc67d-7796-4114-afe1-6bad5b79a605",
    "name": "Aichi Prefecture",
    "code": "23",
    "country_id": "32c61588-f0c6-4a68-bef7-0e0de4a852c8"
  },
  {
    "id": "93eb01d6-9500-446c-a0e9-b0200747d6e3",
    "name": "Akita Prefecture",
    "code": "05",
    "country_id": "32c61588-f0c6-4a68-bef7-0e0de4a852c8"
  },
  {
    "id": "1c2d1993-d96d-4980-9f4c-4e4f4b53578e",
    "name": "Aomori Prefecture",
    "code": "02",
    "country_id": "32c61588-f0c6-4a68-bef7-0e0de4a852c8"
  },
  {
    "id": "09d0dab5-4573-4f9b-8692-52d2252272ff",
    "name": "Chiba Prefecture",
    "code": "12",
    "country_id": "32c61588-f0c6-4a68-bef7-0e0de4a852c8"
  },
  {
    "id": "d3a15447-4783-48f3-a986-2aa4209db87c",
    "name": "Ehime Prefecture",
    "code": "38",
    "country_id": "32c61588-f0c6-4a68-bef7-0e0de4a852c8"
  },
  {
    "id": "2b38e93d-8bc0-4dd2-bd56-9ea78d143bc5",
    "name": "Fukui Prefecture",
    "code": "18",
    "country_id": "32c61588-f0c6-4a68-bef7-0e0de4a852c8"
  },
  {
    "id": "20bfadb3-e84b-4471-a486-de2a8945a5ff",
    "name": "Fukuoka Prefecture",
    "code": "40",
    "country_id": "32c61588-f0c6-4a68-bef7-0e0de4a852c8"
  },
  {
    "id": "9aff08c5-3ea3-4cc4-952b-cd21e05944ac",
    "name": "Fukushima Prefecture",
    "code": "07",
    "country_id": "32c61588-f0c6-4a68-bef7-0e0de4a852c8"
  },
  {
    "id": "761a8d22-e242-4d2c-a131-60969d9ee02d",
    "name": "Gifu Prefecture",
    "code": "21",
    "country_id": "32c61588-f0c6-4a68-bef7-0e0de4a852c8"
  },
  {
    "id": "e7633393-f68b-4240-99e4-fc8609cf4b75",
    "name": "Gunma Prefecture",
    "code": "10",
    "country_id": "32c61588-f0c6-4a68-bef7-0e0de4a852c8"
  },
  {
    "id": "22654763-b18d-4666-a15e-af80770a5686",
    "name": "Hiroshima Prefecture",
    "code": "34",
    "country_id": "32c61588-f0c6-4a68-bef7-0e0de4a852c8"
  },
  {
    "id": "d8a492af-5ab4-4706-9b36-a24295d4c47e",
    "name": "Hokkaidō Prefecture",
    "code": "01",
    "country_id": "32c61588-f0c6-4a68-bef7-0e0de4a852c8"
  },
  {
    "id": "3b61e69d-3d10-4b1e-860b-52809d89b5d8",
    "name": "Hyōgo Prefecture",
    "code": "28",
    "country_id": "32c61588-f0c6-4a68-bef7-0e0de4a852c8"
  },
  {
    "id": "5acf9b5a-60b1-467a-857f-864afbae3bdc",
    "name": "Ibaraki Prefecture",
    "code": "08",
    "country_id": "32c61588-f0c6-4a68-bef7-0e0de4a852c8"
  },
  {
    "id": "e7d9e48b-36c6-430e-8202-ca86732a553e",
    "name": "Ishikawa Prefecture",
    "code": "17",
    "country_id": "32c61588-f0c6-4a68-bef7-0e0de4a852c8"
  },
  {
    "id": "0ff01e2b-08ab-4c76-9bb9-7a287fe115f4",
    "name": "Iwate Prefecture",
    "code": "03",
    "country_id": "32c61588-f0c6-4a68-bef7-0e0de4a852c8"
  },
  {
    "id": "1d33133d-a782-4e06-a796-7f63384c690f",
    "name": "Kagawa Prefecture",
    "code": "37",
    "country_id": "32c61588-f0c6-4a68-bef7-0e0de4a852c8"
  },
  {
    "id": "950d24bb-8707-481d-a12c-6fe815ec3563",
    "name": "Kagoshima Prefecture",
    "code": "46",
    "country_id": "32c61588-f0c6-4a68-bef7-0e0de4a852c8"
  },
  {
    "id": "6516df40-912d-4ba3-96b6-801f748c7062",
    "name": "Kanagawa Prefecture",
    "code": "14",
    "country_id": "32c61588-f0c6-4a68-bef7-0e0de4a852c8"
  },
  {
    "id": "3ac8468d-0d1f-4677-ae56-4157daeaf4b3",
    "name": "Kōchi Prefecture",
    "code": "39",
    "country_id": "32c61588-f0c6-4a68-bef7-0e0de4a852c8"
  },
  {
    "id": "9c097217-921a-4002-885a-93ffb78ad707",
    "name": "Kumamoto Prefecture",
    "code": "43",
    "country_id": "32c61588-f0c6-4a68-bef7-0e0de4a852c8"
  },
  {
    "id": "b6abe019-769e-43be-8b6e-75c2ea5fbcf7",
    "name": "Kyōto Prefecture",
    "code": "26",
    "country_id": "32c61588-f0c6-4a68-bef7-0e0de4a852c8"
  },
  {
    "id": "fc6698dd-4d73-4861-a247-186e7a0c34cf",
    "name": "Mie Prefecture",
    "code": "24",
    "country_id": "32c61588-f0c6-4a68-bef7-0e0de4a852c8"
  },
  {
    "id": "6942307a-9a5c-4bd9-82ca-f5067314de2f",
    "name": "Miyagi Prefecture",
    "code": "04",
    "country_id": "32c61588-f0c6-4a68-bef7-0e0de4a852c8"
  },
  {
    "id": "e3ce93f2-8e96-4d2a-a529-0f6bd8f84755",
    "name": "Miyazaki Prefecture",
    "code": "45",
    "country_id": "32c61588-f0c6-4a68-bef7-0e0de4a852c8"
  },
  {
    "id": "242f65c4-85bb-4a0d-9b9c-647e24df5ac3",
    "name": "Nagano Prefecture",
    "code": "20",
    "country_id": "32c61588-f0c6-4a68-bef7-0e0de4a852c8"
  },
  {
    "id": "dc8085d4-11ca-4679-87c5-c29bf0b4f81f",
    "name": "Nagasaki Prefecture",
    "code": "42",
    "country_id": "32c61588-f0c6-4a68-bef7-0e0de4a852c8"
  },
  {
    "id": "4fb4b023-961b-46ae-aed9-f3d616e9e6f9",
    "name": "Nara Prefecture",
    "code": "29",
    "country_id": "32c61588-f0c6-4a68-bef7-0e0de4a852c8"
  },
  {
    "id": "7041b4b7-fba6-4431-8566-b09332b26dd0",
    "name": "Niigata Prefecture",
    "code": "15",
    "country_id": "32c61588-f0c6-4a68-bef7-0e0de4a852c8"
  },
  {
    "id": "e98bb3d7-7b0e-41a3-a84c-8b47ccf70294",
    "name": "Ōita Prefecture",
    "code": "44",
    "country_id": "32c61588-f0c6-4a68-bef7-0e0de4a852c8"
  },
  {
    "id": "1572f42b-0360-4697-84f7-711ad180c69f",
    "name": "Okayama Prefecture",
    "code": "33",
    "country_id": "32c61588-f0c6-4a68-bef7-0e0de4a852c8"
  },
  {
    "id": "42c7cb8c-02c4-463e-9bdf-0b1e7dac4c0d",
    "name": "Okinawa Prefecture",
    "code": "47",
    "country_id": "32c61588-f0c6-4a68-bef7-0e0de4a852c8"
  },
  {
    "id": "0d8efe90-6e53-455c-afd7-56d3899bcf4a",
    "name": "Ōsaka Prefecture",
    "code": "27",
    "country_id": "32c61588-f0c6-4a68-bef7-0e0de4a852c8"
  },
  {
    "id": "57002d68-a176-460e-ad00-2ce764886cc0",
    "name": "Saga Prefecture",
    "code": "41",
    "country_id": "32c61588-f0c6-4a68-bef7-0e0de4a852c8"
  },
  {
    "id": "92e42d5e-c831-4285-a3a9-b671c11e60e7",
    "name": "Saitama Prefecture",
    "code": "11",
    "country_id": "32c61588-f0c6-4a68-bef7-0e0de4a852c8"
  },
  {
    "id": "b1970b2f-cd21-49d3-83d9-8cfeb4782586",
    "name": "Shiga Prefecture",
    "code": "25",
    "country_id": "32c61588-f0c6-4a68-bef7-0e0de4a852c8"
  },
  {
    "id": "69149093-af70-4bae-a9fc-15767e96550d",
    "name": "Shimane Prefecture",
    "code": "32",
    "country_id": "32c61588-f0c6-4a68-bef7-0e0de4a852c8"
  },
  {
    "id": "ba4594d2-9093-4e7a-b213-f3c56344cdb9",
    "name": "Shizuoka Prefecture",
    "code": "22",
    "country_id": "32c61588-f0c6-4a68-bef7-0e0de4a852c8"
  },
  {
    "id": "008628d0-c8de-45e0-984e-b65c352c0bb6",
    "name": "Tochigi Prefecture",
    "code": "09",
    "country_id": "32c61588-f0c6-4a68-bef7-0e0de4a852c8"
  },
  {
    "id": "d2c8cd1a-4ba9-4d10-9d33-0b5ee4702109",
    "name": "Tokushima Prefecture",
    "code": "36",
    "country_id": "32c61588-f0c6-4a68-bef7-0e0de4a852c8"
  },
  {
    "id": "b5001308-c144-4416-9c30-e2f01510dac0",
    "name": "Tokyo",
    "code": "13",
    "country_id": "32c61588-f0c6-4a68-bef7-0e0de4a852c8"
  },
  {
    "id": "561a6bb1-071b-46a4-aedb-39dad97a14b8",
    "name": "Tottori Prefecture",
    "code": "31",
    "country_id": "32c61588-f0c6-4a68-bef7-0e0de4a852c8"
  },
  {
    "id": "778718d9-e0fd-4faf-8c4c-13b3707b63a5",
    "name": "Toyama Prefecture",
    "code": "16",
    "country_id": "32c61588-f0c6-4a68-bef7-0e0de4a852c8"
  },
  {
    "id": "7f6ee7e4-dda4-4a84-a763-692daec7c70b",
    "name": "Wakayama Prefecture",
    "code": "30",
    "country_id": "32c61588-f0c6-4a68-bef7-0e0de4a852c8"
  },
  {
    "id": "b25ee7e6-0fec-41f3-b69b-410f69550d74",
    "name": "Yamagata Prefecture",
    "code": "06",
    "country_id": "32c61588-f0c6-4a68-bef7-0e0de4a852c8"
  },
  {
    "id": "ecd35a64-9acd-4d0f-b3c6-c4340a869526",
    "name": "Yamaguchi Prefecture",
    "code": "35",
    "country_id": "32c61588-f0c6-4a68-bef7-0e0de4a852c8"
  },
  {
    "id": "61e51a8a-450b-4976-9dc1-e8bd2d7acd6f",
    "name": "Yamanashi Prefecture",
    "code": "19",
    "country_id": "32c61588-f0c6-4a68-bef7-0e0de4a852c8"
  }
]