[
  {
    "id": "f9beb8c5-f7d0-4906-a7d1-9be023e060fc",
    "name": "Bjelovar-Bilogora County",
    "code": "07",
    "country_id": "397b439c-55cb-471b-aa8f-1f19bce2e594"
  },
  {
    "id": "12dc3d96-0fc9-461f-9106-36fa677168e2",
    "name": "Brod-Posavina County",
    "code": "12",
    "country_id": "397b439c-55cb-471b-aa8f-1f19bce2e594"
  },
  {
    "id": "0a71a0fc-bc70-4eb2-a7db-fd10684ff92a",
    "name": "Dubrovnik-Neretva County",
    "code": "19",
    "country_id": "397b439c-55cb-471b-aa8f-1f19bce2e594"
  },
  {
    "id": "d25f76ad-3e0f-43f3-90ae-762416252804",
    "name": "Istria County",
    "code": "18",
    "country_id": "397b439c-55cb-471b-aa8f-1f19bce2e594"
  },
  {
    "id": "69d53169-1386-4acc-bb79-46d5638527b6",
    "name": "Karlovac County",
    "code": "05",
    "country_id": "397b439c-55cb-471b-aa8f-1f19bce2e594"
  },
  {
    "id": "aece2ff4-5ca4-4597-b35e-f58c3fc5bbcf",
    "name": "Koprivnica-Križevci County",
    "code": "06",
    "country_id": "397b439c-55cb-471b-aa8f-1f19bce2e594"
  },
  {
    "id": "93ad5ec6-2adf-40df-8511-e9038c35274e",
    "name": "Krapina-Zagorje County",
    "code": "02",
    "country_id": "397b439c-55cb-471b-aa8f-1f19bce2e594"
  },
  {
    "id": "d3f924dd-8a7c-43ea-9860-9350cd635008",
    "name": "Lika-Senj County",
    "code": "09",
    "country_id": "397b439c-55cb-471b-aa8f-1f19bce2e594"
  },
  {
    "id": "b9ad2238-1bc6-48e0-9e5d-7b9f8d300d1d",
    "name": "Međimurje County",
    "code": "20",
    "country_id": "397b439c-55cb-471b-aa8f-1f19bce2e594"
  },
  {
    "id": "76041fd8-e5c3-4ade-8c3d-abdd7de7c277",
    "name": "Osijek-Baranja County",
    "code": "14",
    "country_id": "397b439c-55cb-471b-aa8f-1f19bce2e594"
  },
  {
    "id": "34ca3b82-575a-40c4-8eb1-e01ad5e5b958",
    "name": "Požega-Slavonia County",
    "code": "11",
    "country_id": "397b439c-55cb-471b-aa8f-1f19bce2e594"
  },
  {
    "id": "18a2bde5-ba90-42af-b65b-eb8bcba77d3f",
    "name": "Primorje-Gorski Kotar County",
    "code": "08",
    "country_id": "397b439c-55cb-471b-aa8f-1f19bce2e594"
  },
  {
    "id": "50ef3107-0c3c-4768-9d95-ec496f25e4e6",
    "name": "Šibenik-Knin County",
    "code": "15",
    "country_id": "397b439c-55cb-471b-aa8f-1f19bce2e594"
  },
  {
    "id": "23776db9-36bb-48fe-8a75-ef9060f23999",
    "name": "Sisak-Moslavina County",
    "code": "03",
    "country_id": "397b439c-55cb-471b-aa8f-1f19bce2e594"
  },
  {
    "id": "b220ee12-b0e8-4800-8f2e-e99f9456bc42",
    "name": "Split-Dalmatia County",
    "code": "17",
    "country_id": "397b439c-55cb-471b-aa8f-1f19bce2e594"
  },
  {
    "id": "15366a38-4004-4cd1-b757-c6d2e931f3b8",
    "name": "Varaždin County",
    "code": "05",
    "country_id": "397b439c-55cb-471b-aa8f-1f19bce2e594"
  },
  {
    "id": "235c4718-5c94-420b-97fa-c6ed0c64ec8d",
    "name": "Virovitica-Podravina County",
    "code": "10",
    "country_id": "397b439c-55cb-471b-aa8f-1f19bce2e594"
  },
  {
    "id": "4f15a008-731b-4328-94d6-b91e9617713e",
    "name": "Vukovar-Syrmia County",
    "code": "16",
    "country_id": "397b439c-55cb-471b-aa8f-1f19bce2e594"
  },
  {
    "id": "86f399ba-cfca-4146-9a58-bc9e7bd6d72b",
    "name": "Zadar County",
    "code": "13",
    "country_id": "397b439c-55cb-471b-aa8f-1f19bce2e594"
  },
  {
    "id": "29d431d8-f821-4e30-a217-6b487fa73c6d",
    "name": "Zagreb",
    "code": "21",
    "country_id": "397b439c-55cb-471b-aa8f-1f19bce2e594"
  },
  {
    "id": "b15e93bf-2ae0-41a1-b630-9c0a101a67bb",
    "name": "Zagreb County",
    "code": "01",
    "country_id": "397b439c-55cb-471b-aa8f-1f19bce2e594"
  }
]