[
  {
    "id": "362427a0-56fb-430e-a452-582688271891",
    "name": "Attard",
    "code": "01",
    "country_id": "3f230c86-d74a-4415-91e3-1dd1d97d63fe"
  },
  {
    "id": "b4f48c15-dd03-4333-968d-9f3ef78476c0",
    "name": "Balzan",
    "code": "02",
    "country_id": "3f230c86-d74a-4415-91e3-1dd1d97d63fe"
  },
  {
    "id": "73171e2a-cf2c-4e37-afbd-eb4c6c146f8a",
    "name": "Birgu",
    "code": "03",
    "country_id": "3f230c86-d74a-4415-91e3-1dd1d97d63fe"
  },
  {
    "id": "30706123-5346-4d75-9b89-5bfc11ab6ad0",
    "name": "Birkirkara",
    "code": "04",
    "country_id": "3f230c86-d74a-4415-91e3-1dd1d97d63fe"
  },
  {
    "id": "a4bfcb5c-32b0-48dc-8f4a-f298f7e93874",
    "name": "Birżebbuġa",
    "code": "05",
    "country_id": "3f230c86-d74a-4415-91e3-1dd1d97d63fe"
  },
  {
    "id": "50adaf75-6a41-4d20-ab1d-7e5c4ce1f27e",
    "name": "Cospicua",
    "code": "06",
    "country_id": "3f230c86-d74a-4415-91e3-1dd1d97d63fe"
  },
  {
    "id": "241c2787-7c18-407a-b1cc-3568d7e64947",
    "name": "Dingli",
    "code": "07",
    "country_id": "3f230c86-d74a-4415-91e3-1dd1d97d63fe"
  },
  {
    "id": "70e460d5-c828-4c1e-94a4-a09ed17671dd",
    "name": "Fgura",
    "code": "08",
    "country_id": "3f230c86-d74a-4415-91e3-1dd1d97d63fe"
  },
  {
    "id": "12b782a3-5c5b-42fe-b1d9-bba47ee299be",
    "name": "Floriana",
    "code": "09",
    "country_id": "3f230c86-d74a-4415-91e3-1dd1d97d63fe"
  },
  {
    "id": "0c3fa3e0-8ec5-484a-94a6-b3571f9c333f",
    "name": "Fontana",
    "code": "10",
    "country_id": "3f230c86-d74a-4415-91e3-1dd1d97d63fe"
  },
  {
    "id": "d8eb866b-96ad-4c11-a540-3e9e93019832",
    "name": "Għajnsielem",
    "code": "13",
    "country_id": "3f230c86-d74a-4415-91e3-1dd1d97d63fe"
  },
  {
    "id": "59894b9e-d9f6-4e82-900e-70a4586637a0",
    "name": "Għarb",
    "code": "14",
    "country_id": "3f230c86-d74a-4415-91e3-1dd1d97d63fe"
  },
  {
    "id": "8f76fe68-07e0-4423-8e33-b290f32bf174",
    "name": "Għargħur",
    "code": "15",
    "country_id": "3f230c86-d74a-4415-91e3-1dd1d97d63fe"
  },
  {
    "id": "629118dc-086d-4b76-949c-2b8b61fb1185",
    "name": "Għasri",
    "code": "16",
    "country_id": "3f230c86-d74a-4415-91e3-1dd1d97d63fe"
  },
  {
    "id": "a152b9e5-fc50-4cb3-9600-b2b5886a03cd",
    "name": "Għaxaq",
    "code": "17",
    "country_id": "3f230c86-d74a-4415-91e3-1dd1d97d63fe"
  },
  {
    "id": "17452dc9-7cc8-47ee-82d9-415be2ec6b66",
    "name": "Gudja",
    "code": "11",
    "country_id": "3f230c86-d74a-4415-91e3-1dd1d97d63fe"
  },
  {
    "id": "9372fa85-f0f8-4073-a50d-667354abdb9e",
    "name": "Gżira",
    "code": "12",
    "country_id": "3f230c86-d74a-4415-91e3-1dd1d97d63fe"
  },
  {
    "id": "b86139e6-e12a-4a7e-84d6-dff8b3eb8384",
    "name": "Ħamrun",
    "code": "18",
    "country_id": "3f230c86-d74a-4415-91e3-1dd1d97d63fe"
  },
  {
    "id": "dcce0cf1-2e99-42a3-9248-10103eb3f009",
    "name": "Iklin",
    "code": "19",
    "country_id": "3f230c86-d74a-4415-91e3-1dd1d97d63fe"
  },
  {
    "id": "370c91d6-8e68-4b40-bb2f-10ddc0a1cabc",
    "name": "Kalkara",
    "code": "21",
    "country_id": "3f230c86-d74a-4415-91e3-1dd1d97d63fe"
  },
  {
    "id": "21375079-021c-425f-b313-52ebcdfa6a8e",
    "name": "Kerċem",
    "code": "22",
    "country_id": "3f230c86-d74a-4415-91e3-1dd1d97d63fe"
  },
  {
    "id": "28db54e3-c74e-46a7-a662-85883ef0efd0",
    "name": "Kirkop",
    "code": "23",
    "country_id": "3f230c86-d74a-4415-91e3-1dd1d97d63fe"
  },
  {
    "id": "6537002a-72d8-4b78-b440-bd1f2f9b7c2e",
    "name": "Lija",
    "code": "24",
    "country_id": "3f230c86-d74a-4415-91e3-1dd1d97d63fe"
  },
  {
    "id": "cdfc0b44-8052-44c3-a4da-5cdda064f667",
    "name": "Luqa",
    "code": "25",
    "country_id": "3f230c86-d74a-4415-91e3-1dd1d97d63fe"
  },
  {
    "id": "cf8075c6-fed1-4105-bff3-ded64cf7bb08",
    "name": "Marsa",
    "code": "26",
    "country_id": "3f230c86-d74a-4415-91e3-1dd1d97d63fe"
  },
  {
    "id": "f552069a-dd1e-4ba4-a19d-55be38057a80",
    "name": "Marsaskala",
    "code": "27",
    "country_id": "3f230c86-d74a-4415-91e3-1dd1d97d63fe"
  },
  {
    "id": "de8ff011-7bec-4c61-9c62-354e13150933",
    "name": "Marsaxlokk",
    "code": "28",
    "country_id": "3f230c86-d74a-4415-91e3-1dd1d97d63fe"
  },
  {
    "id": "7a0fb10b-763a-483c-a0a6-c0bbb0999678",
    "name": "Mdina",
    "code": "29",
    "country_id": "3f230c86-d74a-4415-91e3-1dd1d97d63fe"
  },
  {
    "id": "92e102f7-49cc-492c-aab1-8ad58ffc6f72",
    "name": "Mellieħa",
    "code": "30",
    "country_id": "3f230c86-d74a-4415-91e3-1dd1d97d63fe"
  },
  {
    "id": "7e8c2134-f555-4024-9ebe-0fdef9519367",
    "name": "Mġarr",
    "code": "31",
    "country_id": "3f230c86-d74a-4415-91e3-1dd1d97d63fe"
  },
  {
    "id": "f0c9f937-f77b-422f-919a-31e60ca01a43",
    "name": "Mosta",
    "code": "32",
    "country_id": "3f230c86-d74a-4415-91e3-1dd1d97d63fe"
  },
  {
    "id": "ff84c02c-0120-4d20-a92f-e9f29174d882",
    "name": "Mqabba",
    "code": "33",
    "country_id": "3f230c86-d74a-4415-91e3-1dd1d97d63fe"
  },
  {
    "id": "8a5b65a8-81fe-43f6-bdc2-743d34f71e4d",
    "name": "Msida",
    "code": "34",
    "country_id": "3f230c86-d74a-4415-91e3-1dd1d97d63fe"
  },
  {
    "id": "e0ed3f60-3a85-4027-bff4-950199ef1f18",
    "name": "Mtarfa",
    "code": "35",
    "country_id": "3f230c86-d74a-4415-91e3-1dd1d97d63fe"
  },
  {
    "id": "6db9cf5f-cd35-4053-9e89-fa2558c1877a",
    "name": "Munxar",
    "code": "36",
    "country_id": "3f230c86-d74a-4415-91e3-1dd1d97d63fe"
  },
  {
    "id": "61247fd6-1a28-4db4-bb81-536a97d7bd6a",
    "name": "Nadur",
    "code": "37",
    "country_id": "3f230c86-d74a-4415-91e3-1dd1d97d63fe"
  },
  {
    "id": "32e6f071-da6d-4452-b705-789716337425",
    "name": "Naxxar",
    "code": "38",
    "country_id": "3f230c86-d74a-4415-91e3-1dd1d97d63fe"
  },
  {
    "id": "2ccf1caa-92de-479e-8145-491fe22dc831",
    "name": "Paola",
    "code": "39",
    "country_id": "3f230c86-d74a-4415-91e3-1dd1d97d63fe"
  },
  {
    "id": "fe90dc53-f5e0-4551-85a6-b50e19b696fe",
    "name": "Pembroke",
    "code": "40",
    "country_id": "3f230c86-d74a-4415-91e3-1dd1d97d63fe"
  },
  {
    "id": "92a5027a-f307-479f-935d-d6b909aa1225",
    "name": "Pietà",
    "code": "41",
    "country_id": "3f230c86-d74a-4415-91e3-1dd1d97d63fe"
  },
  {
    "id": "af4ee458-50ba-4d74-852d-453b03f226f3",
    "name": "Qala",
    "code": "42",
    "country_id": "3f230c86-d74a-4415-91e3-1dd1d97d63fe"
  },
  {
    "id": "06b83ea3-4b7b-4895-ad20-27223cd7d56e",
    "name": "Qormi",
    "code": "43",
    "country_id": "3f230c86-d74a-4415-91e3-1dd1d97d63fe"
  },
  {
    "id": "3d60c190-34a0-4495-86bd-8e9521c8cc1e",
    "name": "Qrendi",
    "code": "44",
    "country_id": "3f230c86-d74a-4415-91e3-1dd1d97d63fe"
  },
  {
    "id": "307c996f-b10e-401f-9819-b5276ee3c721",
    "name": "Rabat",
    "code": "46",
    "country_id": "3f230c86-d74a-4415-91e3-1dd1d97d63fe"
  },
  {
    "id": "7f190ee9-0b8a-46b5-8d1a-5e9f6494b564",
    "name": "Saint Lawrence",
    "code": "50",
    "country_id": "3f230c86-d74a-4415-91e3-1dd1d97d63fe"
  },
  {
    "id": "e9cd9e12-6be0-401d-a56e-bf1db40b289e",
    "name": "San Ġwann",
    "code": "49",
    "country_id": "3f230c86-d74a-4415-91e3-1dd1d97d63fe"
  },
  {
    "id": "2fcc2372-8814-4b23-a01b-4386e0f6a92f",
    "name": "Sannat",
    "code": "52",
    "country_id": "3f230c86-d74a-4415-91e3-1dd1d97d63fe"
  },
  {
    "id": "7c996401-2f44-43ee-ae76-d2896c446431",
    "name": "Santa Luċija",
    "code": "53",
    "country_id": "3f230c86-d74a-4415-91e3-1dd1d97d63fe"
  },
  {
    "id": "2269800a-4dde-43a0-a1d7-16b1debd130d",
    "name": "Santa Venera",
    "code": "54",
    "country_id": "3f230c86-d74a-4415-91e3-1dd1d97d63fe"
  },
  {
    "id": "9f598bc9-8dad-4db3-b5db-99a1458beb97",
    "name": "Senglea",
    "code": "20",
    "country_id": "3f230c86-d74a-4415-91e3-1dd1d97d63fe"
  },
  {
    "id": "bc3469ff-3b48-4e3d-a5e1-fd5939b330a1",
    "name": "Siġġiewi",
    "code": "55",
    "country_id": "3f230c86-d74a-4415-91e3-1dd1d97d63fe"
  },
  {
    "id": "5c5e95c9-888f-4b99-b7bf-f2dbff721abc",
    "name": "Sliema",
    "code": "56",
    "country_id": "3f230c86-d74a-4415-91e3-1dd1d97d63fe"
  },
  {
    "id": "5771712a-d899-453e-8735-b501e571e4ef",
    "name": "St. Julian's",
    "code": "48",
    "country_id": "3f230c86-d74a-4415-91e3-1dd1d97d63fe"
  },
  {
    "id": "f7a17658-df03-47a8-819c-2b9be9077d0c",
    "name": "St. Paul's Bay",
    "code": "51",
    "country_id": "3f230c86-d74a-4415-91e3-1dd1d97d63fe"
  },
  {
    "id": "5265a5d1-4fac-4641-92bd-940c59368281",
    "name": "Swieqi",
    "code": "57",
    "country_id": "3f230c86-d74a-4415-91e3-1dd1d97d63fe"
  },
  {
    "id": "e175faa1-464f-4af8-a7bd-733cb8c6ead3",
    "name": "Ta' Xbiex",
    "code": "58",
    "country_id": "3f230c86-d74a-4415-91e3-1dd1d97d63fe"
  },
  {
    "id": "9cf83e1e-bf14-4d54-8526-31bc1a5f5714",
    "name": "Tarxien",
    "code": "59",
    "country_id": "3f230c86-d74a-4415-91e3-1dd1d97d63fe"
  },
  {
    "id": "394897f2-3abf-4a02-9d56-367278f41e81",
    "name": "Valletta",
    "code": "60",
    "country_id": "3f230c86-d74a-4415-91e3-1dd1d97d63fe"
  },
  {
    "id": "23cf09b6-10b0-4b08-9492-03930420394f",
    "name": "Victoria",
    "code": "45",
    "country_id": "3f230c86-d74a-4415-91e3-1dd1d97d63fe"
  },
  {
    "id": "768ad129-b5ae-4b28-a6c6-3b5be7711e21",
    "name": "Xagħra",
    "code": "61",
    "country_id": "3f230c86-d74a-4415-91e3-1dd1d97d63fe"
  },
  {
    "id": "9cbd72dd-89a2-4b94-a6ec-1896ef309ed0",
    "name": "Xewkija",
    "code": "62",
    "country_id": "3f230c86-d74a-4415-91e3-1dd1d97d63fe"
  },
  {
    "id": "f21d7c77-5e85-4c44-9f69-a3e8d2c501a6",
    "name": "Xgħajra",
    "code": "63",
    "country_id": "3f230c86-d74a-4415-91e3-1dd1d97d63fe"
  },
  {
    "id": "ca202aa4-65aa-4797-b4eb-89077d680df7",
    "name": "Żabbar",
    "code": "64",
    "country_id": "3f230c86-d74a-4415-91e3-1dd1d97d63fe"
  },
  {
    "id": "e32aa93e-66a4-4521-b91a-cd067b72549f",
    "name": "Żebbuġ Gozo",
    "code": "65",
    "country_id": "3f230c86-d74a-4415-91e3-1dd1d97d63fe"
  },
  {
    "id": "c018e714-db21-4c1f-8d1b-ecdbd806e393",
    "name": "Żebbuġ Malta",
    "code": "66",
    "country_id": "3f230c86-d74a-4415-91e3-1dd1d97d63fe"
  },
  {
    "id": "6e61197c-c28c-438d-9c0f-c906c5819e29",
    "name": "Żejtun",
    "code": "67",
    "country_id": "3f230c86-d74a-4415-91e3-1dd1d97d63fe"
  },
  {
    "id": "913adbf3-83c1-4176-aff6-4690d279ff2c",
    "name": "Żurrieq",
    "code": "68",
    "country_id": "3f230c86-d74a-4415-91e3-1dd1d97d63fe"
  }
]