[
  {
    "id": "abe36012-75c0-4c9d-83fd-48ba9aed423d",
    "name": "Central District",
    "code": "CE",
    "country_id": "451a82ef-9589-4859-a7a5-14cae9886cab"
  },
  {
    "id": "e1948a35-6b3d-4d3f-af7e-437cfcc2e9b1",
    "name": "Ghanzi District",
    "code": "GH",
    "country_id": "451a82ef-9589-4859-a7a5-14cae9886cab"
  },
  {
    "id": "d1b5fcbc-d612-4c8e-a8af-c3b3e8b737d9",
    "name": "Kgalagadi District",
    "code": "KG",
    "country_id": "451a82ef-9589-4859-a7a5-14cae9886cab"
  },
  {
    "id": "e127649e-9c8f-433e-a8f9-dff6bc921191",
    "name": "Kgatleng District",
    "code": "KL",
    "country_id": "451a82ef-9589-4859-a7a5-14cae9886cab"
  },
  {
    "id": "8624a0cd-b674-42c9-8011-1006b8b07ba5",
    "name": "Kweneng District",
    "code": "KW",
    "country_id": "451a82ef-9589-4859-a7a5-14cae9886cab"
  },
  {
    "id": "fb630dce-9506-40f5-8581-6049e514bd5a",
    "name": "Ngamiland",
    "code": "NG",
    "country_id": "451a82ef-9589-4859-a7a5-14cae9886cab"
  },
  {
    "id": "33cf92d1-f783-4ecc-9339-02d1ead3ca98",
    "name": "North-East District",
    "code": "NE",
    "country_id": "451a82ef-9589-4859-a7a5-14cae9886cab"
  },
  {
    "id": "603ec8d7-dc29-45c1-934e-8130c7b48773",
    "name": "North-West District",
    "code": "NW",
    "country_id": "451a82ef-9589-4859-a7a5-14cae9886cab"
  },
  {
    "id": "52a9a733-aee1-4e5d-9391-8c0f56ca3f1c",
    "name": "South-East District",
    "code": "SE",
    "country_id": "451a82ef-9589-4859-a7a5-14cae9886cab"
  },
  {
    "id": "5aa2818b-f3e9-48a0-b598-8102d30436be",
    "name": "Southern District",
    "code": "SO",
    "country_id": "451a82ef-9589-4859-a7a5-14cae9886cab"
  }
]