[
  {
    "id": "c26240ba-b5c4-4532-b2bf-daa8c67c8681",
    "name": "Centrale Region",
    "code": "C",
    "country_id": "49b4b2a7-b00d-41b7-ac25-88686b0797a1"
  },
  {
    "id": "0a907a24-c2fe-43a8-88b8-dd0afa8a42fa",
    "name": "Kara Region",
    "code": "K",
    "country_id": "49b4b2a7-b00d-41b7-ac25-88686b0797a1"
  },
  {
    "id": "293b7c75-2e9c-4388-8e3d-bbb0929c92d0",
    "name": "Maritime",
    "code": "M",
    "country_id": "49b4b2a7-b00d-41b7-ac25-88686b0797a1"
  },
  {
    "id": "c3f8d962-6c02-429f-905e-c43d470f6ae4",
    "name": "Plateaux Region",
    "code": "P",
    "country_id": "49b4b2a7-b00d-41b7-ac25-88686b0797a1"
  },
  {
    "id": "26a236ce-1b49-496f-963c-29e6fbca5e21",
    "name": "Savanes Region",
    "code": "S",
    "country_id": "49b4b2a7-b00d-41b7-ac25-88686b0797a1"
  }
]