[
  {
    "id": "b84c13d3-6cab-401d-b743-1c8e9be848a9",
    "name": "Bougainville",
    "code": "NSB",
    "country_id": "4c8f3e37-a09e-4c7e-a932-836a076cc98a"
  },
  {
    "id": "58ce341d-e280-43d9-82ff-c032bb23fe73",
    "name": "Central Province",
    "code": "CPM",
    "country_id": "4c8f3e37-a09e-4c7e-a932-836a076cc98a"
  },
  {
    "id": "9aa85265-45cf-4eca-8338-bb6b32d444f2",
    "name": "Chimbu Province",
    "code": "CPK",
    "country_id": "4c8f3e37-a09e-4c7e-a932-836a076cc98a"
  },
  {
    "id": "3765a64d-d8d9-4e6e-ab20-99e73b8be560",
    "name": "East New Britain",
    "code": "EBR",
    "country_id": "4c8f3e37-a09e-4c7e-a932-836a076cc98a"
  },
  {
    "id": "c62018ff-770e-4341-ad47-a58dc9c0e6de",
    "name": "Eastern Highlands Province",
    "code": "EHG",
    "country_id": "4c8f3e37-a09e-4c7e-a932-836a076cc98a"
  },
  {
    "id": "ce9fd86e-6ccb-4b6e-966a-7c9d338372d8",
    "name": "Enga Province",
    "code": "EPW",
    "country_id": "4c8f3e37-a09e-4c7e-a932-836a076cc98a"
  },
  {
    "id": "a814674b-327f-4eb9-b17d-ac5620f4581e",
    "name": "Gulf",
    "code": "GPK",
    "country_id": "4c8f3e37-a09e-4c7e-a932-836a076cc98a"
  },
  {
    "id": "0619530a-3591-471e-8abc-ca70849fec36",
    "name": "Hela",
    "code": "HLA",
    "country_id": "4c8f3e37-a09e-4c7e-a932-836a076cc98a"
  },
  {
    "id": "93b7f560-118d-4cd6-ba64-c5df8f3bfbbc",
    "name": "Jiwaka Province",
    "code": "JWK",
    "country_id": "4c8f3e37-a09e-4c7e-a932-836a076cc98a"
  },
  {
    "id": "78999eee-553e-406b-97fb-ac92292dfea8",
    "name": "Madang Province",
    "code": "MPM",
    "country_id": "4c8f3e37-a09e-4c7e-a932-836a076cc98a"
  },
  {
    "id": "64b391eb-a7bd-49a7-a7a5-88904fdb548f",
    "name": "Manus Province",
    "code": "MRL",
    "country_id": "4c8f3e37-a09e-4c7e-a932-836a076cc98a"
  },
  {
    "id": "fa3fe435-3877-440b-8ba2-6e66c5e40d24",
    "name": "Milne Bay Province",
    "code": "MBA",
    "country_id": "4c8f3e37-a09e-4c7e-a932-836a076cc98a"
  },
  {
    "id": "69c12c51-3d49-409e-88fd-34054386d300",
    "name": "Morobe Province",
    "code": "MPL",
    "country_id": "4c8f3e37-a09e-4c7e-a932-836a076cc98a"
  },
  {
    "id": "a86d8dc7-36b9-4b49-85bd-67c665a6dbf6",
    "name": "New Ireland Province",
    "code": "NIK",
    "country_id": "4c8f3e37-a09e-4c7e-a932-836a076cc98a"
  },
  {
    "id": "2e822736-b841-43e8-b7e9-84de230009c1",
    "name": "Oro Province",
    "code": "NPP",
    "country_id": "4c8f3e37-a09e-4c7e-a932-836a076cc98a"
  },
  {
    "id": "3a24bd25-7607-4a2d-889f-7d94e08af657",
    "name": "Port Moresby",
    "code": "NCD",
    "country_id": "4c8f3e37-a09e-4c7e-a932-836a076cc98a"
  },
  {
    "id": "41bc8f51-3c7d-4dba-b5a0-3b70fcbdad51",
    "name": "Sandaun Province",
    "code": "SAN",
    "country_id": "4c8f3e37-a09e-4c7e-a932-836a076cc98a"
  },
  {
    "id": "3fb79f2e-d5e3-452d-bb75-183502660e81",
    "name": "Southern Highlands Province",
    "code": "SHM",
    "country_id": "4c8f3e37-a09e-4c7e-a932-836a076cc98a"
  },
  {
    "id": "9fb4bc20-76a3-43ba-ac36-047ee5d30fa9",
    "name": "West New Britain Province",
    "code": "WBK",
    "country_id": "4c8f3e37-a09e-4c7e-a932-836a076cc98a"
  },
  {
    "id": "3db71afb-ed91-4e96-ac3f-bda1a0c056ca",
    "name": "Western Highlands Province",
    "code": "WHM",
    "country_id": "4c8f3e37-a09e-4c7e-a932-836a076cc98a"
  },
  {
    "id": "29ac90f2-38f7-460e-b07a-e68170f43880",
    "name": "Western Province",
    "code": "WPD",
    "country_id": "4c8f3e37-a09e-4c7e-a932-836a076cc98a"
  }
]