[
  {
    "id": "e06c0897-104f-4a0f-9f7c-dc4cd05ca709",
    "name": "Bagerhat District",
    "code": "05",
    "country_id": "50380021-09c7-459b-a7d1-540e16a98084"
  },
  {
    "id": "922229f7-c33e-476c-93e3-72e88923bd0f",
    "name": "Bahadia",
    "code": "33",
    "country_id": "50380021-09c7-459b-a7d1-540e16a98084"
  },
  {
    "id": "e41ffbc6-0113-4a6b-af40-f022564d1b5f",
    "name": "Bandarban District",
    "code": "01",
    "country_id": "50380021-09c7-459b-a7d1-540e16a98084"
  },
  {
    "id": "b459b328-af00-4e12-850b-44aeaa3826b8",
    "name": "Barguna District",
    "code": "02",
    "country_id": "50380021-09c7-459b-a7d1-540e16a98084"
  },
  {
    "id": "94ca411f-22eb-4aeb-980d-b56cc220c734",
    "name": "Barisal District",
    "code": "06",
    "country_id": "50380021-09c7-459b-a7d1-540e16a98084"
  },
  {
    "id": "c195f2c3-f494-4239-8dd7-be871bc59cea",
    "name": "Barisal Division",
    "code": "A",
    "country_id": "50380021-09c7-459b-a7d1-540e16a98084"
  },
  {
    "id": "76bb2a82-c1fb-4625-acf9-16c1a88b9a32",
    "name": "Bhola District",
    "code": "07",
    "country_id": "50380021-09c7-459b-a7d1-540e16a98084"
  },
  {
    "id": "c728dee6-c87d-4b17-9978-b8420195a816",
    "name": "Bogra District",
    "code": "03",
    "country_id": "50380021-09c7-459b-a7d1-540e16a98084"
  },
  {
    "id": "def96e20-bbe4-4d30-98ec-ce9d5f3536b0",
    "name": "Brahmanbaria District",
    "code": "04",
    "country_id": "50380021-09c7-459b-a7d1-540e16a98084"
  },
  {
    "id": "61a3f6d5-ce8c-4e11-b62d-a9a564cc4dba",
    "name": "Chandpur District",
    "code": "09",
    "country_id": "50380021-09c7-459b-a7d1-540e16a98084"
  },
  {
    "id": "2607c610-ef8f-490c-b2d4-3c68ce3b49b8",
    "name": "Chapai Nawabganj District",
    "code": "45",
    "country_id": "50380021-09c7-459b-a7d1-540e16a98084"
  },
  {
    "id": "2754f5df-95f5-492a-a552-cd3ef7842759",
    "name": "Chittagong District",
    "code": "10",
    "country_id": "50380021-09c7-459b-a7d1-540e16a98084"
  },
  {
    "id": "36f16bc2-4db3-433d-ae91-534d0452ae78",
    "name": "Chittagong Division",
    "code": "B",
    "country_id": "50380021-09c7-459b-a7d1-540e16a98084"
  },
  {
    "id": "b4814cf5-5f46-40c1-a97a-61134a513517",
    "name": "Chuadanga District",
    "code": "12",
    "country_id": "50380021-09c7-459b-a7d1-540e16a98084"
  },
  {
    "id": "62fe8b37-7440-4ce4-8eb3-95f2895113ee",
    "name": "Comilla District",
    "code": "08",
    "country_id": "50380021-09c7-459b-a7d1-540e16a98084"
  },
  {
    "id": "797630f0-237d-4d2c-ba14-c39f5d97997e",
    "name": "Cox's Bazar District",
    "code": "11",
    "country_id": "50380021-09c7-459b-a7d1-540e16a98084"
  },
  {
    "id": "a01c724f-73c3-4dc2-863d-7368a7b187c0",
    "name": "Dhaka District",
    "code": "13",
    "country_id": "50380021-09c7-459b-a7d1-540e16a98084"
  },
  {
    "id": "03442008-e9ef-4181-b83c-9fb3727397ab",
    "name": "Dhaka Division",
    "code": "C",
    "country_id": "50380021-09c7-459b-a7d1-540e16a98084"
  },
  {
    "id": "1f005fc1-fdde-4a62-9ff3-720ba055faf3",
    "name": "Dinajpur District",
    "code": "14",
    "country_id": "50380021-09c7-459b-a7d1-540e16a98084"
  },
  {
    "id": "e85d0b27-3909-479a-9461-62a785d574fa",
    "name": "Faridpur District",
    "code": "15",
    "country_id": "50380021-09c7-459b-a7d1-540e16a98084"
  },
  {
    "id": "f27351f5-02cf-4794-bc66-558646bb5f60",
    "name": "Feni District",
    "code": "16",
    "country_id": "50380021-09c7-459b-a7d1-540e16a98084"
  },
  {
    "id": "82045cd6-7212-4247-b47e-c48417698471",
    "name": "Gaibandha District",
    "code": "19",
    "country_id": "50380021-09c7-459b-a7d1-540e16a98084"
  },
  {
    "id": "ece0842d-686d-4bce-aade-12cf3191e59d",
    "name": "Gazipur District",
    "code": "18",
    "country_id": "50380021-09c7-459b-a7d1-540e16a98084"
  },
  {
    "id": "d29b52d7-89a6-4eea-92f9-1087b08a6b43",
    "name": "Gopalganj District",
    "code": "17",
    "country_id": "50380021-09c7-459b-a7d1-540e16a98084"
  },
  {
    "id": "65d2de50-d77b-40cf-8baf-6732bff55af0",
    "name": "Habiganj District",
    "code": "20",
    "country_id": "50380021-09c7-459b-a7d1-540e16a98084"
  },
  {
    "id": "ab80076a-f9ba-4f9e-a076-1458314cff44",
    "name": "Jamalpur District",
    "code": "21",
    "country_id": "50380021-09c7-459b-a7d1-540e16a98084"
  },
  {
    "id": "d863b092-dd8a-4a00-adc2-a15b824b4de8",
    "name": "Jessore District",
    "code": "22",
    "country_id": "50380021-09c7-459b-a7d1-540e16a98084"
  },
  {
    "id": "8aff1207-1375-4586-971e-b15a71b79728",
    "name": "Jhalokati District",
    "code": "25",
    "country_id": "50380021-09c7-459b-a7d1-540e16a98084"
  },
  {
    "id": "965ef012-1009-4b08-96e5-e423ff076a37",
    "name": "Jhenaidah District",
    "code": "23",
    "country_id": "50380021-09c7-459b-a7d1-540e16a98084"
  },
  {
    "id": "badda0b5-8078-4932-afc0-565e8f43d36a",
    "name": "Joypurhat District",
    "code": "24",
    "country_id": "50380021-09c7-459b-a7d1-540e16a98084"
  },
  {
    "id": "1b4f5cb7-dfb8-49a8-8a18-c0f57f7bbd62",
    "name": "Khagrachari District",
    "code": "29",
    "country_id": "50380021-09c7-459b-a7d1-540e16a98084"
  },
  {
    "id": "0f60af0a-1b57-4019-9c7b-a27cec2f33af",
    "name": "Khulna District",
    "code": "27",
    "country_id": "50380021-09c7-459b-a7d1-540e16a98084"
  },
  {
    "id": "d213bef1-680e-413c-80aa-67040fde902a",
    "name": "Khulna Division",
    "code": "D",
    "country_id": "50380021-09c7-459b-a7d1-540e16a98084"
  },
  {
    "id": "9765345d-95f1-48ed-8fc2-8ee868deeae4",
    "name": "Kishoreganj District",
    "code": "26",
    "country_id": "50380021-09c7-459b-a7d1-540e16a98084"
  },
  {
    "id": "e11f95f4-c3dd-4ea6-b13a-bac133f1c8f2",
    "name": "Kurigram District",
    "code": "28",
    "country_id": "50380021-09c7-459b-a7d1-540e16a98084"
  },
  {
    "id": "e3fc36ad-f8f0-49cc-8397-d7c2b1636cc8",
    "name": "Kushtia District",
    "code": "30",
    "country_id": "50380021-09c7-459b-a7d1-540e16a98084"
  },
  {
    "id": "04620532-1b4d-4471-b9bb-82c7eaf5c4a1",
    "name": "Lakshmipur District",
    "code": "31",
    "country_id": "50380021-09c7-459b-a7d1-540e16a98084"
  },
  {
    "id": "bcf40af2-8814-4676-bb18-03198b307659",
    "name": "Lalmonirhat District",
    "code": "32",
    "country_id": "50380021-09c7-459b-a7d1-540e16a98084"
  },
  {
    "id": "74d7a852-3f7f-408b-ae44-77c20f1aca0e",
    "name": "Madaripur District",
    "code": "36",
    "country_id": "50380021-09c7-459b-a7d1-540e16a98084"
  },
  {
    "id": "9a42f371-9427-4300-b7b8-379718d25992",
    "name": "Meherpur District",
    "code": "39",
    "country_id": "50380021-09c7-459b-a7d1-540e16a98084"
  },
  {
    "id": "6ce835e2-91d3-42ba-95f5-978d7ea4a3bc",
    "name": "Moulvibazar District",
    "code": "38",
    "country_id": "50380021-09c7-459b-a7d1-540e16a98084"
  },
  {
    "id": "3edfa4e9-b336-4cbc-975b-eae77bf19d0d",
    "name": "Munshiganj District",
    "code": "35",
    "country_id": "50380021-09c7-459b-a7d1-540e16a98084"
  },
  {
    "id": "e98601e1-0534-4d37-8dff-53ae1df575bb",
    "name": "Mymensingh District",
    "code": "34",
    "country_id": "50380021-09c7-459b-a7d1-540e16a98084"
  },
  {
    "id": "9e156b11-d30c-419b-942e-4af478721d3f",
    "name": "Mymensingh Division",
    "code": "H",
    "country_id": "50380021-09c7-459b-a7d1-540e16a98084"
  },
  {
    "id": "9420a6d7-9141-40d5-8ffc-da98526fda5d",
    "name": "Naogaon District",
    "code": "48",
    "country_id": "50380021-09c7-459b-a7d1-540e16a98084"
  },
  {
    "id": "b3cf9351-df4e-4e69-aa1c-9bd38e321c0b",
    "name": "Narail District",
    "code": "43",
    "country_id": "50380021-09c7-459b-a7d1-540e16a98084"
  },
  {
    "id": "01b4dc9f-5302-4de2-b5d5-9beefe016a83",
    "name": "Narayanganj District",
    "code": "40",
    "country_id": "50380021-09c7-459b-a7d1-540e16a98084"
  },
  {
    "id": "8cdfda05-1a6e-4e8e-b818-c6f976fad1d0",
    "name": "Natore District",
    "code": "44",
    "country_id": "50380021-09c7-459b-a7d1-540e16a98084"
  },
  {
    "id": "fc64878f-6901-4810-894d-929ac2b9f6ee",
    "name": "Netrokona District",
    "code": "41",
    "country_id": "50380021-09c7-459b-a7d1-540e16a98084"
  },
  {
    "id": "e7c52e87-692f-46e2-87f1-53654dbc497f",
    "name": "Nilphamari District",
    "code": "46",
    "country_id": "50380021-09c7-459b-a7d1-540e16a98084"
  },
  {
    "id": "bfb89f2f-fa8e-4ded-bf55-86a18bebd47c",
    "name": "Noakhali District",
    "code": "47",
    "country_id": "50380021-09c7-459b-a7d1-540e16a98084"
  },
  {
    "id": "0708e7fc-e4da-417f-948f-fad401d672bd",
    "name": "Pabna District",
    "code": "49",
    "country_id": "50380021-09c7-459b-a7d1-540e16a98084"
  },
  {
    "id": "e235ad90-9583-4176-b576-7d0af105575c",
    "name": "Panchagarh District",
    "code": "52",
    "country_id": "50380021-09c7-459b-a7d1-540e16a98084"
  },
  {
    "id": "60962033-ca1f-439a-afdc-cc232817ec52",
    "name": "Patuakhali District",
    "code": "51",
    "country_id": "50380021-09c7-459b-a7d1-540e16a98084"
  },
  {
    "id": "f2be1e43-a114-423e-97b2-a7473eb33b18",
    "name": "Pirojpur District",
    "code": "50",
    "country_id": "50380021-09c7-459b-a7d1-540e16a98084"
  },
  {
    "id": "1799e0d1-58b8-4caf-8ec6-5f16f2edd0a9",
    "name": "Rajbari District",
    "code": "53",
    "country_id": "50380021-09c7-459b-a7d1-540e16a98084"
  },
  {
    "id": "68cf908b-89d0-4dcc-8526-6a01e624a338",
    "name": "Rajshahi District",
    "code": "54",
    "country_id": "50380021-09c7-459b-a7d1-540e16a98084"
  },
  {
    "id": "ca1af1b1-42ea-4915-9529-e7cbf50171bf",
    "name": "Rajshahi Division",
    "code": "E",
    "country_id": "50380021-09c7-459b-a7d1-540e16a98084"
  },
  {
    "id": "45d0b985-3366-474a-9bf8-fad089ca9928",
    "name": "Rangamati Hill District",
    "code": "56",
    "country_id": "50380021-09c7-459b-a7d1-540e16a98084"
  },
  {
    "id": "5474f28e-51b6-4ef3-87cf-c4119734dd58",
    "name": "Rangpur District",
    "code": "55",
    "country_id": "50380021-09c7-459b-a7d1-540e16a98084"
  },
  {
    "id": "f9520298-47df-4626-bec0-9bc49731db13",
    "name": "Rangpur Division",
    "code": "F",
    "country_id": "50380021-09c7-459b-a7d1-540e16a98084"
  },
  {
    "id": "c757fa7b-71b5-4d4c-b392-16148fb4bc06",
    "name": "Satkhira District",
    "code": "58",
    "country_id": "50380021-09c7-459b-a7d1-540e16a98084"
  },
  {
    "id": "9c0ec58f-86c7-470e-af93-a34779bff52f",
    "name": "Shariatpur District",
    "code": "62",
    "country_id": "50380021-09c7-459b-a7d1-540e16a98084"
  },
  {
    "id": "a970b677-c2a4-4562-8e99-3d7190acbe1a",
    "name": "Sherpur District",
    "code": "57",
    "country_id": "50380021-09c7-459b-a7d1-540e16a98084"
  },
  {
    "id": "68443add-ca65-4de8-ba7d-10db5f2c58e7",
    "name": "Sirajganj District",
    "code": "59",
    "country_id": "50380021-09c7-459b-a7d1-540e16a98084"
  },
  {
    "id": "9dfa2d68-f4c0-41fa-a8a9-73a124ea8aa8",
    "name": "Sunamganj District",
    "code": "61",
    "country_id": "50380021-09c7-459b-a7d1-540e16a98084"
  },
  {
    "id": "993fd940-6769-48d5-8801-3600682b9105",
    "name": "Sylhet District",
    "code": "60",
    "country_id": "50380021-09c7-459b-a7d1-540e16a98084"
  },
  {
    "id": "745b4e89-60aa-4804-b58e-2a30517eeb35",
    "name": "Sylhet Division",
    "code": "G",
    "country_id": "50380021-09c7-459b-a7d1-540e16a98084"
  },
  {
    "id": "e2f28556-00bb-4cc3-acc8-66b15e513cae",
    "name": "Tangail District",
    "code": "63",
    "country_id": "50380021-09c7-459b-a7d1-540e16a98084"
  },
  {
    "id": "c2731876-a82f-4fd4-a8ef-e8f5b03a57d3",
    "name": "Thakurgaon District",
    "code": "64",
    "country_id": "50380021-09c7-459b-a7d1-540e16a98084"
  }
]