[
  {
    "id": "6415fbc5-e8bd-4a7b-b10b-f8092ea527b7",
    "name": "Andalusia",
    "code": "AN",
    "country_id": "534f5fe0-c04d-4d52-a037-d9b08f04a07a"
  },
  {
    "id": "3bbde777-6d67-4d1c-8b64-2d84f0158ab5",
    "name": "Aragon",
    "code": "AR",
    "country_id": "534f5fe0-c04d-4d52-a037-d9b08f04a07a"
  },
  {
    "id": "a608485a-ab2f-4509-80d8-b962185b46ed",
    "name": "Asturias",
    "code": "AS",
    "country_id": "534f5fe0-c04d-4d52-a037-d9b08f04a07a"
  },
  {
    "id": "ad56296d-a95e-447d-ab6c-31360712b045",
    "name": "Ávila",
    "code": "AV",
    "country_id": "534f5fe0-c04d-4d52-a037-d9b08f04a07a"
  },
  {
    "id": "70b3bc0a-cccc-48eb-a1cc-dd6ac0aad76f",
    "name": "Balearic Islands",
    "code": "PM",
    "country_id": "534f5fe0-c04d-4d52-a037-d9b08f04a07a"
  },
  {
    "id": "95f621cd-1a95-4092-8ec1-02212463cdb4",
    "name": "Basque Country",
    "code": "PV",
    "country_id": "534f5fe0-c04d-4d52-a037-d9b08f04a07a"
  },
  {
    "id": "3cc52608-eec3-4dda-a8e3-9b080708b4eb",
    "name": "Burgos Province",
    "code": "BU",
    "country_id": "534f5fe0-c04d-4d52-a037-d9b08f04a07a"
  },
  {
    "id": "df9381b7-10d0-4cc4-849d-30788411cf52",
    "name": "Canary Islands",
    "code": "CN",
    "country_id": "534f5fe0-c04d-4d52-a037-d9b08f04a07a"
  },
  {
    "id": "6be2ef27-ab53-45ec-b98c-3603028c3e3b",
    "name": "Cantabria",
    "code": "CB",
    "country_id": "534f5fe0-c04d-4d52-a037-d9b08f04a07a"
  },
  {
    "id": "6900bca9-4797-4499-b6dd-61117f894541",
    "name": "Castile and León",
    "code": "CL",
    "country_id": "534f5fe0-c04d-4d52-a037-d9b08f04a07a"
  },
  {
    "id": "2fccdf65-658b-4d45-b489-2ad8ad880cc1",
    "name": "Castilla La Mancha",
    "code": "CM",
    "country_id": "534f5fe0-c04d-4d52-a037-d9b08f04a07a"
  },
  {
    "id": "f699b322-5393-4697-8117-5cc46c9bfa5d",
    "name": "Catalonia",
    "code": "CT",
    "country_id": "534f5fe0-c04d-4d52-a037-d9b08f04a07a"
  },
  {
    "id": "e82c069d-be8f-4ed2-bdc4-7b21ab40eeb9",
    "name": "Ceuta",
    "code": "CE",
    "country_id": "534f5fe0-c04d-4d52-a037-d9b08f04a07a"
  },
  {
    "id": "d972521d-2ffe-444d-b25e-f07ec8f81ed7",
    "name": "Extremadura",
    "code": "EX",
    "country_id": "534f5fe0-c04d-4d52-a037-d9b08f04a07a"
  },
  {
    "id": "7bdf4de1-ec0c-4e86-980c-a923c8a06628",
    "name": "Galicia",
    "code": "GA",
    "country_id": "534f5fe0-c04d-4d52-a037-d9b08f04a07a"
  },
  {
    "id": "32842e89-43ba-46af-9ebb-c325d5505917",
    "name": "La Rioja",
    "code": "RI",
    "country_id": "534f5fe0-c04d-4d52-a037-d9b08f04a07a"
  },
  {
    "id": "a81e4f51-a3c0-470a-9995-2c18e23129ea",
    "name": "Léon",
    "code": "LE",
    "country_id": "534f5fe0-c04d-4d52-a037-d9b08f04a07a"
  },
  {
    "id": "9c2c1f88-007e-45c9-b2f4-23f25c882e81",
    "name": "Madrid",
    "code": "MD",
    "country_id": "534f5fe0-c04d-4d52-a037-d9b08f04a07a"
  },
  {
    "id": "74237c24-3115-4a6d-b6af-ca0828c397e0",
    "name": "Melilla",
    "code": "ML",
    "country_id": "534f5fe0-c04d-4d52-a037-d9b08f04a07a"
  },
  {
    "id": "309f4b5d-59c8-473e-b555-7f0cf247e928",
    "name": "Murcia",
    "code": "MC",
    "country_id": "534f5fe0-c04d-4d52-a037-d9b08f04a07a"
  },
  {
    "id": "42d8da4f-35a2-4551-a1cd-376bb1ba17e5",
    "name": "Navarra",
    "code": "NC",
    "country_id": "534f5fe0-c04d-4d52-a037-d9b08f04a07a"
  },
  {
    "id": "ff142dcc-36de-49f3-b6eb-5c37c358e0d1",
    "name": "Palencia Province",
    "code": "P",
    "country_id": "534f5fe0-c04d-4d52-a037-d9b08f04a07a"
  },
  {
    "id": "0e76c923-0212-4a34-8beb-39d15790ecc4",
    "name": "Salamanca Province",
    "code": "SA",
    "country_id": "534f5fe0-c04d-4d52-a037-d9b08f04a07a"
  },
  {
    "id": "8f9e84b4-4582-4ba3-abdc-1e1c7140b5f9",
    "name": "Segovia Province",
    "code": "SG",
    "country_id": "534f5fe0-c04d-4d52-a037-d9b08f04a07a"
  },
  {
    "id": "ebca449f-b48f-41ef-8ec3-48265c6961c1",
    "name": "Soria Province",
    "code": "SO",
    "country_id": "534f5fe0-c04d-4d52-a037-d9b08f04a07a"
  },
  {
    "id": "8e91a895-ded5-432f-8d13-7287b4d9dcc3",
    "name": "Valencia",
    "code": "VC",
    "country_id": "534f5fe0-c04d-4d52-a037-d9b08f04a07a"
  },
  {
    "id": "d1824dde-9c6d-43fb-89a0-124292848d04",
    "name": "Valladolid Province",
    "code": "VA",
    "country_id": "534f5fe0-c04d-4d52-a037-d9b08f04a07a"
  },
  {
    "id": "a24d46f4-ba6d-4ee0-99ee-0b4766edc017",
    "name": "Zamora Province",
    "code": "ZA",
    "country_id": "534f5fe0-c04d-4d52-a037-d9b08f04a07a"
  }
]