[
  {
    "id": "0ae54c16-2e5a-4735-ab01-7f450295065b",
    "name": "Aargau",
    "code": "AG",
    "country_id": "5c29e414-6e3a-45f5-b80e-5c86b1e9213c"
  },
  {
    "id": "8bf8eb2a-0868-4303-9cca-50d9834b6503",
    "name": "Appenzell Ausserrhoden",
    "code": "AR",
    "country_id": "5c29e414-6e3a-45f5-b80e-5c86b1e9213c"
  },
  {
    "id": "4c9f8dc2-0dfd-48c9-9681-8b0da0f9343e",
    "name": "Appenzell Innerrhoden",
    "code": "AI",
    "country_id": "5c29e414-6e3a-45f5-b80e-5c86b1e9213c"
  },
  {
    "id": "3bd9b382-e93e-4182-aa85-627951e7781b",
    "name": "Basel-Land",
    "code": "BL",
    "country_id": "5c29e414-6e3a-45f5-b80e-5c86b1e9213c"
  },
  {
    "id": "4ee97e01-d251-4754-9055-c4ce6114a822",
    "name": "Basel-Stadt",
    "code": "BS",
    "country_id": "5c29e414-6e3a-45f5-b80e-5c86b1e9213c"
  },
  {
    "id": "edbeb3fc-687b-4f23-99ae-fca8f1fcf5cb",
    "name": "Bern",
    "code": "BE",
    "country_id": "5c29e414-6e3a-45f5-b80e-5c86b1e9213c"
  },
  {
    "id": "4e6fc57f-6273-4b8d-ae2d-973bfd61abcc",
    "name": "Fribourg",
    "code": "FR",
    "country_id": "5c29e414-6e3a-45f5-b80e-5c86b1e9213c"
  },
  {
    "id": "4f59fe27-f845-4012-9e66-b44014ccc1cc",
    "name": "Geneva",
    "code": "GE",
    "country_id": "5c29e414-6e3a-45f5-b80e-5c86b1e9213c"
  },
  {
    "id": "73812ff4-269a-43f0-89ee-8edebad77e04",
    "name": "Glarus",
    "code": "GL",
    "country_id": "5c29e414-6e3a-45f5-b80e-5c86b1e9213c"
  },
  {
    "id": "1ddb8ff5-b04e-4943-8f99-c57ff26b41a1",
    "name": "Graubünden",
    "code": "GR",
    "country_id": "5c29e414-6e3a-45f5-b80e-5c86b1e9213c"
  },
  {
    "id": "70d10923-67cd-48d3-ac98-27a85f9b4dc7",
    "name": "Jura",
    "code": "JU",
    "country_id": "5c29e414-6e3a-45f5-b80e-5c86b1e9213c"
  },
  {
    "id": "626ba04c-5c5f-494d-9892-d1c5967c4e3d",
    "name": "Lucerne",
    "code": "LU",
    "country_id": "5c29e414-6e3a-45f5-b80e-5c86b1e9213c"
  },
  {
    "id": "297b7964-029a-4752-9f21-6b4bd6794ed0",
    "name": "Neuchâtel",
    "code": "NE",
    "country_id": "5c29e414-6e3a-45f5-b80e-5c86b1e9213c"
  },
  {
    "id": "54a8ce03-cea6-4d07-9d6f-5b846fd91ba6",
    "name": "Nidwalden",
    "code": "NW",
    "country_id": "5c29e414-6e3a-45f5-b80e-5c86b1e9213c"
  },
  {
    "id": "d3796a40-1eb4-4382-86a7-3a49b2ded62c",
    "name": "Obwalden",
    "code": "OW",
    "country_id": "5c29e414-6e3a-45f5-b80e-5c86b1e9213c"
  },
  {
    "id": "b25357b7-cabd-4bf4-9c8f-6880eb7f6f5e",
    "name": "Schaffhausen",
    "code": "SH",
    "country_id": "5c29e414-6e3a-45f5-b80e-5c86b1e9213c"
  },
  {
    "id": "c4ac8120-9708-4d7b-8f83-735b3db24cb9",
    "name": "Schwyz",
    "code": "SZ",
    "country_id": "5c29e414-6e3a-45f5-b80e-5c86b1e9213c"
  },
  {
    "id": "6996803e-21ed-4c19-841a-14744410b98d",
    "name": "Solothurn",
    "code": "SO",
    "country_id": "5c29e414-6e3a-45f5-b80e-5c86b1e9213c"
  },
  {
    "id": "57841157-9f25-41e9-8d6f-1c71cbbb0dff",
    "name": "St. Gallen",
    "code": "SG",
    "country_id": "5c29e414-6e3a-45f5-b80e-5c86b1e9213c"
  },
  {
    "id": "7518f27b-3083-4d0e-a907-80692ea01e59",
    "name": "Thurgau",
    "code": "TG",
    "country_id": "5c29e414-6e3a-45f5-b80e-5c86b1e9213c"
  },
  {
    "id": "0bf9b6a8-6f59-48f7-bf9c-79b8badc895c",
    "name": "Ticino",
    "code": "TI",
    "country_id": "5c29e414-6e3a-45f5-b80e-5c86b1e9213c"
  },
  {
    "id": "dc16f289-abdf-4fa7-b899-a939605eb92c",
    "name": "Uri",
    "code": "UR",
    "country_id": "5c29e414-6e3a-45f5-b80e-5c86b1e9213c"
  },
  {
    "id": "8fa8b64a-de40-4c43-8a0a-421d392ff72e",
    "name": "Valais",
    "code": "VS",
    "country_id": "5c29e414-6e3a-45f5-b80e-5c86b1e9213c"
  },
  {
    "id": "88288c21-9342-4901-b3c9-ede85a7663bd",
    "name": "Vaud",
    "code": "VD",
    "country_id": "5c29e414-6e3a-45f5-b80e-5c86b1e9213c"
  },
  {
    "id": "b5cce5b0-3541-4f37-a348-3d7fa008ac8a",
    "name": "Zug",
    "code": "ZG",
    "country_id": "5c29e414-6e3a-45f5-b80e-5c86b1e9213c"
  },
  {
    "id": "28db2ccd-050e-4678-a4a3-8ee6aadb4135",
    "name": "Zürich",
    "code": "ZH",
    "country_id": "5c29e414-6e3a-45f5-b80e-5c86b1e9213c"
  }
]