[
  {
    "id": "b1ae5c75-c99c-4557-b0b7-91868b4bd63a",
    "name": "Hhohho District",
    "code": "HH",
    "country_id": "5fbf16b5-ca43-4fe1-8887-e568640055cd"
  },
  {
    "id": "691ae478-1d4e-46d6-9a46-35ed4d9ab3dd",
    "name": "Lubombo District",
    "code": "LU",
    "country_id": "5fbf16b5-ca43-4fe1-8887-e568640055cd"
  },
  {
    "id": "1c8642e2-0a70-480c-8edd-d5141a995450",
    "name": "Manzini District",
    "code": "MA",
    "country_id": "5fbf16b5-ca43-4fe1-8887-e568640055cd"
  },
  {
    "id": "5c6d919a-7564-4ff5-8975-58b6a86357b7",
    "name": "Shiselweni District",
    "code": "SH",
    "country_id": "5fbf16b5-ca43-4fe1-8887-e568640055cd"
  }
]