[
  {
    "id": "c8e883a0-f78c-4f0e-9b9b-377fbca0dc3c",
    "name": "Alba",
    "code": "AB",
    "country_id": "60890823-2b4d-4290-beb4-31b14c76ecb0"
  },
  {
    "id": "2a962e9f-3c1a-4843-813c-24ad5ffd743f",
    "name": "Arad County",
    "code": "AR",
    "country_id": "60890823-2b4d-4290-beb4-31b14c76ecb0"
  },
  {
    "id": "42be9c85-7bfb-40a7-9d36-c9ad42e5df75",
    "name": "Arges",
    "code": "AG",
    "country_id": "60890823-2b4d-4290-beb4-31b14c76ecb0"
  },
  {
    "id": "1eb538c7-756d-4de9-9776-a92d52192d6b",
    "name": "Bacău County",
    "code": "BC",
    "country_id": "60890823-2b4d-4290-beb4-31b14c76ecb0"
  },
  {
    "id": "b97f9861-d70b-4ea8-899a-4ca7e79c2283",
    "name": "Bihor County",
    "code": "BH",
    "country_id": "60890823-2b4d-4290-beb4-31b14c76ecb0"
  },
  {
    "id": "cf9a15b8-41d0-43ec-955d-856a848336f9",
    "name": "Bistrița-Năsăud County",
    "code": "BN",
    "country_id": "60890823-2b4d-4290-beb4-31b14c76ecb0"
  },
  {
    "id": "8f8813cd-07a0-4194-994b-138a7c4fe764",
    "name": "Botoșani County",
    "code": "BT",
    "country_id": "60890823-2b4d-4290-beb4-31b14c76ecb0"
  },
  {
    "id": "29132dd9-e3e6-4461-b5b0-0a28be7c3665",
    "name": "Braila",
    "code": "BR",
    "country_id": "60890823-2b4d-4290-beb4-31b14c76ecb0"
  },
  {
    "id": "84b132c1-f053-4acf-9991-33988792375a",
    "name": "Brașov County",
    "code": "BV",
    "country_id": "60890823-2b4d-4290-beb4-31b14c76ecb0"
  },
  {
    "id": "d5e1646d-1f1e-41d8-873e-a788edac3347",
    "name": "Bucharest",
    "code": "B",
    "country_id": "60890823-2b4d-4290-beb4-31b14c76ecb0"
  },
  {
    "id": "4123df1f-b585-4872-9b7f-a133d33f4dbf",
    "name": "Buzău County",
    "code": "BZ",
    "country_id": "60890823-2b4d-4290-beb4-31b14c76ecb0"
  },
  {
    "id": "e75fdbf2-fa5a-42ba-a946-2a5bb33111e2",
    "name": "Călărași County",
    "code": "CL",
    "country_id": "60890823-2b4d-4290-beb4-31b14c76ecb0"
  },
  {
    "id": "d072465b-9a81-4e6f-ae32-e856c636af58",
    "name": "Caraș-Severin County",
    "code": "CS",
    "country_id": "60890823-2b4d-4290-beb4-31b14c76ecb0"
  },
  {
    "id": "18b21e71-6b53-47ec-b639-30e8fd19d972",
    "name": "Cluj County",
    "code": "CJ",
    "country_id": "60890823-2b4d-4290-beb4-31b14c76ecb0"
  },
  {
    "id": "53fa74b4-d51b-4c50-aea4-c133c7ef497c",
    "name": "Constanța County",
    "code": "CT",
    "country_id": "60890823-2b4d-4290-beb4-31b14c76ecb0"
  },
  {
    "id": "dbc3f65b-06fc-4b24-babf-21502e7b9430",
    "name": "Covasna County",
    "code": "CV",
    "country_id": "60890823-2b4d-4290-beb4-31b14c76ecb0"
  },
  {
    "id": "695d3c57-11a3-4991-975c-cbbb0046df1f",
    "name": "Dâmbovița County",
    "code": "DB",
    "country_id": "60890823-2b4d-4290-beb4-31b14c76ecb0"
  },
  {
    "id": "9d7e6f90-af4f-4633-b589-d8f5ed31eb79",
    "name": "Dolj County",
    "code": "DJ",
    "country_id": "60890823-2b4d-4290-beb4-31b14c76ecb0"
  },
  {
    "id": "2d55e907-f0ea-4be8-9667-734fdaf82d34",
    "name": "Galați County",
    "code": "GL",
    "country_id": "60890823-2b4d-4290-beb4-31b14c76ecb0"
  },
  {
    "id": "ef98271c-9220-45cd-bd08-725a07385163",
    "name": "Giurgiu County",
    "code": "GR",
    "country_id": "60890823-2b4d-4290-beb4-31b14c76ecb0"
  },
  {
    "id": "00181893-7531-47d2-ae17-2bf225725730",
    "name": "Gorj County",
    "code": "GJ",
    "country_id": "60890823-2b4d-4290-beb4-31b14c76ecb0"
  },
  {
    "id": "b7d3aa4c-ef0e-438c-b607-20ac6098b20e",
    "name": "Harghita County",
    "code": "HR",
    "country_id": "60890823-2b4d-4290-beb4-31b14c76ecb0"
  },
  {
    "id": "a9b8ce3e-86c2-4cba-a844-acc090ab163f",
    "name": "Hunedoara County",
    "code": "HD",
    "country_id": "60890823-2b4d-4290-beb4-31b14c76ecb0"
  },
  {
    "id": "4e803bef-8490-4832-b907-b3ab582c14d2",
    "name": "Ialomița County",
    "code": "IL",
    "country_id": "60890823-2b4d-4290-beb4-31b14c76ecb0"
  },
  {
    "id": "db5b0d59-25bd-4578-9548-de47b47863c0",
    "name": "Iași County",
    "code": "IS",
    "country_id": "60890823-2b4d-4290-beb4-31b14c76ecb0"
  },
  {
    "id": "4153f005-6ac0-4f76-b15a-b1d72252c53f",
    "name": "Ilfov County",
    "code": "IF",
    "country_id": "60890823-2b4d-4290-beb4-31b14c76ecb0"
  },
  {
    "id": "a0bbd36a-8da0-402b-926c-ea281e4083f4",
    "name": "Maramureș County",
    "code": "MM",
    "country_id": "60890823-2b4d-4290-beb4-31b14c76ecb0"
  },
  {
    "id": "cd2506b1-3101-490c-80b0-f2d550bea39d",
    "name": "Mehedinți County",
    "code": "MH",
    "country_id": "60890823-2b4d-4290-beb4-31b14c76ecb0"
  },
  {
    "id": "4f1772c2-c18c-4e0d-baa3-be3d29b61fcd",
    "name": "Mureș County",
    "code": "MS",
    "country_id": "60890823-2b4d-4290-beb4-31b14c76ecb0"
  },
  {
    "id": "bc519d59-0277-43b5-993c-94f94ecc17c3",
    "name": "Neamț County",
    "code": "NT",
    "country_id": "60890823-2b4d-4290-beb4-31b14c76ecb0"
  },
  {
    "id": "f69f01b4-df17-4fc2-a889-c03bfa0a4030",
    "name": "Olt County",
    "code": "OT",
    "country_id": "60890823-2b4d-4290-beb4-31b14c76ecb0"
  },
  {
    "id": "86a02874-5bc7-4b62-9825-5f39c6d9d322",
    "name": "Prahova County",
    "code": "PH",
    "country_id": "60890823-2b4d-4290-beb4-31b14c76ecb0"
  },
  {
    "id": "e188fd8b-c0d6-486a-b67c-dd7c790c8bcd",
    "name": "Sălaj County",
    "code": "SJ",
    "country_id": "60890823-2b4d-4290-beb4-31b14c76ecb0"
  },
  {
    "id": "6a4dea00-25ed-4fce-9186-a7b7f687798d",
    "name": "Satu Mare County",
    "code": "SM",
    "country_id": "60890823-2b4d-4290-beb4-31b14c76ecb0"
  },
  {
    "id": "3ff08f13-f69a-41f6-a45b-57b199a2710c",
    "name": "Sibiu County",
    "code": "SB",
    "country_id": "60890823-2b4d-4290-beb4-31b14c76ecb0"
  },
  {
    "id": "2d297eed-8dde-48b0-9672-7020a39f62bd",
    "name": "Suceava County",
    "code": "SV",
    "country_id": "60890823-2b4d-4290-beb4-31b14c76ecb0"
  },
  {
    "id": "a78b2f2b-f7d2-404d-9fc4-f6e332130041",
    "name": "Teleorman County",
    "code": "TR",
    "country_id": "60890823-2b4d-4290-beb4-31b14c76ecb0"
  },
  {
    "id": "59044642-5497-4317-9b23-d86a978bee2f",
    "name": "Timiș County",
    "code": "TM",
    "country_id": "60890823-2b4d-4290-beb4-31b14c76ecb0"
  },
  {
    "id": "2c841848-4a6a-4695-a9fa-86193bf91bac",
    "name": "Tulcea County",
    "code": "TL",
    "country_id": "60890823-2b4d-4290-beb4-31b14c76ecb0"
  },
  {
    "id": "218496bd-fa5e-4a9b-abbb-107df1378412",
    "name": "Vâlcea County",
    "code": "VL",
    "country_id": "60890823-2b4d-4290-beb4-31b14c76ecb0"
  },
  {
    "id": "9092cb2f-85fa-4df7-b825-d7208b9b97f7",
    "name": "Vaslui County",
    "code": "VS",
    "country_id": "60890823-2b4d-4290-beb4-31b14c76ecb0"
  },
  {
    "id": "6747ba2d-9711-4fb7-b43e-6bba8f939382",
    "name": "Vrancea County",
    "code": "VN",
    "country_id": "60890823-2b4d-4290-beb4-31b14c76ecb0"
  }
]