[
  {
    "id": "cac9eba2-f261-4d6b-8eb4-8cf8ade84ddd",
    "name": "Badakhshan",
    "code": "BDS",
    "country_id": "63256ad0-007b-49cf-a1d6-1c5edea3f072"
  },
  {
    "id": "4fa96fce-152e-4c36-84bb-efd94e1eb8fe",
    "name": "Badghis",
    "code": "BDG",
    "country_id": "63256ad0-007b-49cf-a1d6-1c5edea3f072"
  },
  {
    "id": "401e8434-32c4-4df2-8792-67ce67826ec1",
    "name": "Baghlan",
    "code": "BGL",
    "country_id": "63256ad0-007b-49cf-a1d6-1c5edea3f072"
  },
  {
    "id": "4cbcb985-7cd3-4925-8ee9-16b4ece52690",
    "name": "Balkh",
    "code": "BAL",
    "country_id": "63256ad0-007b-49cf-a1d6-1c5edea3f072"
  },
  {
    "id": "9c01ef61-26ad-4a2b-a741-a200b8d81791",
    "name": "Bamyan",
    "code": "BAM",
    "country_id": "63256ad0-007b-49cf-a1d6-1c5edea3f072"
  },
  {
    "id": "d4f76989-f811-43c3-ae8e-c747d83cc69a",
    "name": "Daykundi",
    "code": "DAY",
    "country_id": "63256ad0-007b-49cf-a1d6-1c5edea3f072"
  },
  {
    "id": "950c5ea3-4bc0-4140-986b-829a78620058",
    "name": "Farah",
    "code": "FRA",
    "country_id": "63256ad0-007b-49cf-a1d6-1c5edea3f072"
  },
  {
    "id": "8754cb21-cbb6-4f0b-ba72-2576d3ae1866",
    "name": "Faryab",
    "code": "FYB",
    "country_id": "63256ad0-007b-49cf-a1d6-1c5edea3f072"
  },
  {
    "id": "22d89236-e91c-4aab-8aea-b9be78fe08a1",
    "name": "Ghazni",
    "code": "GHA",
    "country_id": "63256ad0-007b-49cf-a1d6-1c5edea3f072"
  },
  {
    "id": "30d7e942-b5b7-40de-b79c-a16c74ca085a",
    "name": "Ghōr",
    "code": "GHO",
    "country_id": "63256ad0-007b-49cf-a1d6-1c5edea3f072"
  },
  {
    "id": "7930e132-15f9-42a3-aaf0-cdfc3fcd28c2",
    "name": "Helmand",
    "code": "HEL",
    "country_id": "63256ad0-007b-49cf-a1d6-1c5edea3f072"
  },
  {
    "id": "f2cc92fa-1c35-4bf1-b13a-60f4d7353907",
    "name": "Herat",
    "code": "HER",
    "country_id": "63256ad0-007b-49cf-a1d6-1c5edea3f072"
  },
  {
    "id": "e0fd7b4e-9cb9-42ae-8dec-4e7ce02039fd",
    "name": "Jowzjan",
    "code": "JOW",
    "country_id": "63256ad0-007b-49cf-a1d6-1c5edea3f072"
  },
  {
    "id": "97d438d2-7737-49a1-84e6-d823fe6d9b86",
    "name": "Kabul",
    "code": "KAB",
    "country_id": "63256ad0-007b-49cf-a1d6-1c5edea3f072"
  },
  {
    "id": "5c728bcc-3fe7-46d7-ab4b-aab09fbf2fc0",
    "name": "Kandahar",
    "code": "KAN",
    "country_id": "63256ad0-007b-49cf-a1d6-1c5edea3f072"
  },
  {
    "id": "66dfd500-da71-460b-9d1b-4333ab837fa9",
    "name": "Kapisa",
    "code": "KAP",
    "country_id": "63256ad0-007b-49cf-a1d6-1c5edea3f072"
  },
  {
    "id": "9ac465ce-8d22-45d3-ae03-4a3aebaff8ed",
    "name": "Khost",
    "code": "KHO",
    "country_id": "63256ad0-007b-49cf-a1d6-1c5edea3f072"
  },
  {
    "id": "f66568bf-8631-4d83-a564-b53da661bc53",
    "name": "Kunar",
    "code": "KNR",
    "country_id": "63256ad0-007b-49cf-a1d6-1c5edea3f072"
  },
  {
    "id": "7e7bdaba-8230-4920-94b9-5da8bf88aa63",
    "name": "Kunduz Province",
    "code": "KDZ",
    "country_id": "63256ad0-007b-49cf-a1d6-1c5edea3f072"
  },
  {
    "id": "16af4616-553b-41c0-9e6c-ad98dc7e9072",
    "name": "Laghman",
    "code": "LAG",
    "country_id": "63256ad0-007b-49cf-a1d6-1c5edea3f072"
  },
  {
    "id": "34025351-af41-4303-a6b8-40b343cd8429",
    "name": "Logar",
    "code": "LOG",
    "country_id": "63256ad0-007b-49cf-a1d6-1c5edea3f072"
  },
  {
    "id": "f7cd72a0-4fbe-4872-aced-af903172ed5c",
    "name": "Nangarhar",
    "code": "NAN",
    "country_id": "63256ad0-007b-49cf-a1d6-1c5edea3f072"
  },
  {
    "id": "dab532ce-ae1b-44c1-a01a-d0d43268f9db",
    "name": "Nimruz",
    "code": "NIM",
    "country_id": "63256ad0-007b-49cf-a1d6-1c5edea3f072"
  },
  {
    "id": "e8c66540-6c01-42b0-8fe1-ad004c3c416d",
    "name": "Nuristan",
    "code": "NUR",
    "country_id": "63256ad0-007b-49cf-a1d6-1c5edea3f072"
  },
  {
    "id": "2fdec629-da6a-4775-adfb-9d095779dba0",
    "name": "Paktia",
    "code": "PIA",
    "country_id": "63256ad0-007b-49cf-a1d6-1c5edea3f072"
  },
  {
    "id": "ad8557fa-2ae7-4681-9c0c-f529abccc866",
    "name": "Paktika",
    "code": "PKA",
    "country_id": "63256ad0-007b-49cf-a1d6-1c5edea3f072"
  },
  {
    "id": "99ab6483-74dd-41d7-bd49-ea3f7d2fb6f0",
    "name": "Panjshir",
    "code": "PAN",
    "country_id": "63256ad0-007b-49cf-a1d6-1c5edea3f072"
  },
  {
    "id": "81d001c8-a562-4c6b-8dc1-6ddf3800dabe",
    "name": "Parwan",
    "code": "PAR",
    "country_id": "63256ad0-007b-49cf-a1d6-1c5edea3f072"
  },
  {
    "id": "0e8275b2-be57-4db8-8f0f-bed28d9330b1",
    "name": "Samangan",
    "code": "SAM",
    "country_id": "63256ad0-007b-49cf-a1d6-1c5edea3f072"
  },
  {
    "id": "b4f0889b-cb40-4843-b0c2-3665f11e8448",
    "name": "Sar-e Pol",
    "code": "SAR",
    "country_id": "63256ad0-007b-49cf-a1d6-1c5edea3f072"
  },
  {
    "id": "6a8b0403-4e1e-4b89-97cf-0036ecd2a80c",
    "name": "Takhar",
    "code": "TAK",
    "country_id": "63256ad0-007b-49cf-a1d6-1c5edea3f072"
  },
  {
    "id": "a9f3e50f-4424-4ea8-8e75-560d3f97b97e",
    "name": "Urozgan",
    "code": "URU",
    "country_id": "63256ad0-007b-49cf-a1d6-1c5edea3f072"
  },
  {
    "id": "012a337b-9f89-481e-8fd9-e35fd829a475",
    "name": "Zabul",
    "code": "ZAB",
    "country_id": "63256ad0-007b-49cf-a1d6-1c5edea3f072"
  }
]