[
  {
    "id": "f60044bd-b6c8-415f-a317-51a90cb8382f",
    "name": "Banská Bystrica Region",
    "code": "BC",
    "country_id": "6941db8b-7b16-441c-aab5-e7cd01a47443"
  },
  {
    "id": "c69bce28-aaf7-4f40-b88f-dc0b00f9c88f",
    "name": "Bratislava Region",
    "code": "BL",
    "country_id": "6941db8b-7b16-441c-aab5-e7cd01a47443"
  },
  {
    "id": "555836ea-8ac9-4f34-a733-a594213d706b",
    "name": "Košice Region",
    "code": "KI",
    "country_id": "6941db8b-7b16-441c-aab5-e7cd01a47443"
  },
  {
    "id": "4f6b5faf-8852-43b7-880f-2a63a25b944a",
    "name": "Nitra Region",
    "code": "NI",
    "country_id": "6941db8b-7b16-441c-aab5-e7cd01a47443"
  },
  {
    "id": "c6e2b432-4940-4080-a3d1-e075e48b9eb0",
    "name": "Prešov Region",
    "code": "PV",
    "country_id": "6941db8b-7b16-441c-aab5-e7cd01a47443"
  },
  {
    "id": "b625bd00-7740-4d5e-ad99-dbc556e4f9dd",
    "name": "Trenčín Region",
    "code": "TC",
    "country_id": "6941db8b-7b16-441c-aab5-e7cd01a47443"
  },
  {
    "id": "16bf1c96-89f9-4827-91a8-d1fa1559fe85",
    "name": "Trnava Region",
    "code": "TA",
    "country_id": "6941db8b-7b16-441c-aab5-e7cd01a47443"
  },
  {
    "id": "82c9c6c4-a1e9-42d9-84fd-e20fa55a387f",
    "name": "Žilina Region",
    "code": "ZI",
    "country_id": "6941db8b-7b16-441c-aab5-e7cd01a47443"
  }
]