[
  {
    "id": "68feea8d-16e7-4689-975d-5c0b30b19462",
    "name": "Australian Capital Territory",
    "code": "ACT",
    "country_id": "70cf4cc1-8482-41fd-8cbe-e86fded606b7"
  },
  {
    "id": "f762e86f-1639-4726-b906-1055c5557e1f",
    "name": "New South Wales",
    "code": "NSW",
    "country_id": "70cf4cc1-8482-41fd-8cbe-e86fded606b7"
  },
  {
    "id": "db484b74-a3c5-4670-8952-dadd9c34e510",
    "name": "Northern Territory",
    "code": "NT",
    "country_id": "70cf4cc1-8482-41fd-8cbe-e86fded606b7"
  },
  {
    "id": "25092722-fa17-47ec-9825-93734bb32e48",
    "name": "Queensland",
    "code": "QLD",
    "country_id": "70cf4cc1-8482-41fd-8cbe-e86fded606b7"
  },
  {
    "id": "061499b6-6bf0-4db7-8a34-27e38dc8db1b",
    "name": "South Australia",
    "code": "SA",
    "country_id": "70cf4cc1-8482-41fd-8cbe-e86fded606b7"
  },
  {
    "id": "ebf41c10-a954-45cc-8dc8-636317e68678",
    "name": "Tasmania",
    "code": "TAS",
    "country_id": "70cf4cc1-8482-41fd-8cbe-e86fded606b7"
  },
  {
    "id": "ac97387f-e3ae-411d-ac0f-a25c230331f1",
    "name": "Victoria",
    "code": "VIC",
    "country_id": "70cf4cc1-8482-41fd-8cbe-e86fded606b7"
  },
  {
    "id": "757cda2a-a3da-4249-a2e5-bd513223252b",
    "name": "Western Australia",
    "code": "WA",
    "country_id": "70cf4cc1-8482-41fd-8cbe-e86fded606b7"
  }
]