[
  {
    "id": "aec34256-4d39-49d6-878d-d7ef79328afb",
    "name": "Ayeyarwady Region",
    "code": "07",
    "country_id": "74c41f82-41d7-442a-8e13-d9026f7c6bb0"
  },
  {
    "id": "998bd316-90f4-4c5e-919b-189c3c8dffba",
    "name": "Bago",
    "code": "02",
    "country_id": "74c41f82-41d7-442a-8e13-d9026f7c6bb0"
  },
  {
    "id": "44c1084e-68bf-4266-a824-106b75981e67",
    "name": "Chin State",
    "code": "14",
    "country_id": "74c41f82-41d7-442a-8e13-d9026f7c6bb0"
  },
  {
    "id": "a937f2f4-708e-4b85-83ca-7993aa15018c",
    "name": "Kachin State",
    "code": "11",
    "country_id": "74c41f82-41d7-442a-8e13-d9026f7c6bb0"
  },
  {
    "id": "a462bbd7-1c2f-462c-a4ff-6b255c379c07",
    "name": "Kayah State",
    "code": "12",
    "country_id": "74c41f82-41d7-442a-8e13-d9026f7c6bb0"
  },
  {
    "id": "2ed27757-1d4f-4b6e-8035-296b681beb26",
    "name": "Kayin State",
    "code": "13",
    "country_id": "74c41f82-41d7-442a-8e13-d9026f7c6bb0"
  },
  {
    "id": "e96f1a7e-9928-4686-aa69-bd8250dd796d",
    "name": "Magway Region",
    "code": "03",
    "country_id": "74c41f82-41d7-442a-8e13-d9026f7c6bb0"
  },
  {
    "id": "a94be234-21a5-4d98-862f-f9094396d2ca",
    "name": "Mandalay Region",
    "code": "04",
    "country_id": "74c41f82-41d7-442a-8e13-d9026f7c6bb0"
  },
  {
    "id": "9deed45a-ec9b-4962-bf09-16569fd7ffeb",
    "name": "Mon State",
    "code": "15",
    "country_id": "74c41f82-41d7-442a-8e13-d9026f7c6bb0"
  },
  {
    "id": "c7148f35-41df-4d0c-9ab0-673eaf00bb5e",
    "name": "Naypyidaw Union Territory",
    "code": "18",
    "country_id": "74c41f82-41d7-442a-8e13-d9026f7c6bb0"
  },
  {
    "id": "9430ad8a-a5af-4a48-92fd-31afc3bca5d5",
    "name": "Rakhine State",
    "code": "16",
    "country_id": "74c41f82-41d7-442a-8e13-d9026f7c6bb0"
  },
  {
    "id": "99062bb1-2057-4703-98be-f43dea1fc0c7",
    "name": "Sagaing Region",
    "code": "01",
    "country_id": "74c41f82-41d7-442a-8e13-d9026f7c6bb0"
  },
  {
    "id": "408a22b9-e263-4c48-997a-83cfecca8760",
    "name": "Shan State",
    "code": "17",
    "country_id": "74c41f82-41d7-442a-8e13-d9026f7c6bb0"
  },
  {
    "id": "19ae20d5-a817-4a77-ab8d-a2b3c7ed5e26",
    "name": "Tanintharyi Region",
    "code": "05",
    "country_id": "74c41f82-41d7-442a-8e13-d9026f7c6bb0"
  },
  {
    "id": "037feaa5-f2fd-4940-8f54-0773c2fe3244",
    "name": "Yangon Region",
    "code": "06",
    "country_id": "74c41f82-41d7-442a-8e13-d9026f7c6bb0"
  }
]