[
  {
    "id": "4b816ac3-3546-4aaa-a485-0df97d8c1c1e",
    "name": "Adrar",
    "code": "01",
    "country_id": "7e276fc2-640a-4905-94b9-2bb19ccd17c3"
  },
  {
    "id": "dafd049d-823b-47f1-94ca-e7e57bf467e5",
    "name": "Aïn Defla",
    "code": "44",
    "country_id": "7e276fc2-640a-4905-94b9-2bb19ccd17c3"
  },
  {
    "id": "68e66257-49e1-41ef-ab77-97f018985c47",
    "name": "Aïn Témouchent",
    "code": "46",
    "country_id": "7e276fc2-640a-4905-94b9-2bb19ccd17c3"
  },
  {
    "id": "d58a894d-f9fd-4a02-9b42-236a8a8098a1",
    "name": "Algiers",
    "code": "16",
    "country_id": "7e276fc2-640a-4905-94b9-2bb19ccd17c3"
  },
  {
    "id": "24d770c8-385c-465e-b6c4-57b1d44225b3",
    "name": "Annaba",
    "code": "23",
    "country_id": "7e276fc2-640a-4905-94b9-2bb19ccd17c3"
  },
  {
    "id": "e8dbd408-d823-4e02-8044-e26670beec64",
    "name": "Batna",
    "code": "05",
    "country_id": "7e276fc2-640a-4905-94b9-2bb19ccd17c3"
  },
  {
    "id": "40655530-315f-4936-998f-8fbfaeb5cc76",
    "name": "Béchar",
    "code": "08",
    "country_id": "7e276fc2-640a-4905-94b9-2bb19ccd17c3"
  },
  {
    "id": "46663cdb-d97d-4556-85ce-ab4b252ec1b3",
    "name": "Béjaïa",
    "code": "06",
    "country_id": "7e276fc2-640a-4905-94b9-2bb19ccd17c3"
  },
  {
    "id": "44b8b55f-96ed-4c4f-ae0c-99e99cf5a06e",
    "name": "Béni Abbès",
    "code": "53",
    "country_id": "7e276fc2-640a-4905-94b9-2bb19ccd17c3"
  },
  {
    "id": "cb77656d-e2bb-4dd3-b062-5e1e5045ff45",
    "name": "Biskra",
    "code": "07",
    "country_id": "7e276fc2-640a-4905-94b9-2bb19ccd17c3"
  },
  {
    "id": "b1d8dda9-7b5b-4962-af67-48ab8741c408",
    "name": "Blida",
    "code": "09",
    "country_id": "7e276fc2-640a-4905-94b9-2bb19ccd17c3"
  },
  {
    "id": "7edd9996-ef4c-4d99-8213-f1b147b6a572",
    "name": "Bordj Baji Mokhtar",
    "code": "52",
    "country_id": "7e276fc2-640a-4905-94b9-2bb19ccd17c3"
  },
  {
    "id": "5d80ad8e-5dff-4337-8716-3b455c7f0b90",
    "name": "Bordj Bou Arréridj",
    "code": "34",
    "country_id": "7e276fc2-640a-4905-94b9-2bb19ccd17c3"
  },
  {
    "id": "d8d5d370-4929-433c-a47e-bb1519f0e6ad",
    "name": "Bouïra",
    "code": "10",
    "country_id": "7e276fc2-640a-4905-94b9-2bb19ccd17c3"
  },
  {
    "id": "02f9c689-2e27-4bba-8561-40ced982b4c2",
    "name": "Boumerdès",
    "code": "35",
    "country_id": "7e276fc2-640a-4905-94b9-2bb19ccd17c3"
  },
  {
    "id": "65b3adad-f6b9-4fac-9b70-77d4025bacba",
    "name": "Chlef",
    "code": "02",
    "country_id": "7e276fc2-640a-4905-94b9-2bb19ccd17c3"
  },
  {
    "id": "048f7b01-b85b-400d-921c-ec952a1f0015",
    "name": "Constantine",
    "code": "25",
    "country_id": "7e276fc2-640a-4905-94b9-2bb19ccd17c3"
  },
  {
    "id": "3389aa3c-68b7-45fe-8c47-54d7ae8aaf6d",
    "name": "Djanet",
    "code": "56",
    "country_id": "7e276fc2-640a-4905-94b9-2bb19ccd17c3"
  },
  {
    "id": "b202a5b6-5c7f-4fbc-87bb-a1f089469936",
    "name": "Djelfa",
    "code": "17",
    "country_id": "7e276fc2-640a-4905-94b9-2bb19ccd17c3"
  },
  {
    "id": "ed94059b-b603-4792-8a41-a439a08ec5e2",
    "name": "El Bayadh",
    "code": "32",
    "country_id": "7e276fc2-640a-4905-94b9-2bb19ccd17c3"
  },
  {
    "id": "c0af8801-6465-49c8-9cc9-3b6f646cbcda",
    "name": "El M'ghair",
    "code": "49",
    "country_id": "7e276fc2-640a-4905-94b9-2bb19ccd17c3"
  },
  {
    "id": "f015eec2-e290-4960-8eb8-5340b69d2bfb",
    "name": "El Menia",
    "code": "50",
    "country_id": "7e276fc2-640a-4905-94b9-2bb19ccd17c3"
  },
  {
    "id": "5aaaf97c-05ce-4ddd-a3db-69ed1215a6d0",
    "name": "El Oued",
    "code": "39",
    "country_id": "7e276fc2-640a-4905-94b9-2bb19ccd17c3"
  },
  {
    "id": "02f1f671-8bcc-4c95-8a53-95720069649c",
    "name": "El Tarf",
    "code": "36",
    "country_id": "7e276fc2-640a-4905-94b9-2bb19ccd17c3"
  },
  {
    "id": "f1672ba9-29d0-4787-aaae-2c68a8b41bac",
    "name": "Ghardaïa",
    "code": "47",
    "country_id": "7e276fc2-640a-4905-94b9-2bb19ccd17c3"
  },
  {
    "id": "38e5fc82-866a-44cd-8ea2-9655c4f625f9",
    "name": "Guelma",
    "code": "24",
    "country_id": "7e276fc2-640a-4905-94b9-2bb19ccd17c3"
  },
  {
    "id": "546156ca-6406-4105-95e9-20056b779786",
    "name": "Illizi",
    "code": "33",
    "country_id": "7e276fc2-640a-4905-94b9-2bb19ccd17c3"
  },
  {
    "id": "0e11c566-e6c7-482d-87c1-0a6e045aa572",
    "name": "In Guezzam",
    "code": "58",
    "country_id": "7e276fc2-640a-4905-94b9-2bb19ccd17c3"
  },
  {
    "id": "40f46f6b-1509-42fa-99cb-1844f2ee471d",
    "name": "In Salah",
    "code": "57",
    "country_id": "7e276fc2-640a-4905-94b9-2bb19ccd17c3"
  },
  {
    "id": "bc11726f-98ac-4b59-9808-9e69f8cc8092",
    "name": "Jijel",
    "code": "18",
    "country_id": "7e276fc2-640a-4905-94b9-2bb19ccd17c3"
  },
  {
    "id": "3b062d87-1677-4420-bd83-26a5070388ac",
    "name": "Khenchela",
    "code": "40",
    "country_id": "7e276fc2-640a-4905-94b9-2bb19ccd17c3"
  },
  {
    "id": "be132473-5702-42b7-ac8d-b7533aa3ee63",
    "name": "Laghouat",
    "code": "03",
    "country_id": "7e276fc2-640a-4905-94b9-2bb19ccd17c3"
  },
  {
    "id": "c9866ef7-c34b-462e-879e-a7cbf8b1c07c",
    "name": "M'Sila",
    "code": "28",
    "country_id": "7e276fc2-640a-4905-94b9-2bb19ccd17c3"
  },
  {
    "id": "2d103356-2cda-4a3b-a052-fbd8f35ad5ce",
    "name": "Mascara",
    "code": "29",
    "country_id": "7e276fc2-640a-4905-94b9-2bb19ccd17c3"
  },
  {
    "id": "b193aa24-4bee-482e-8c57-f90b11cf5274",
    "name": "Médéa",
    "code": "26",
    "country_id": "7e276fc2-640a-4905-94b9-2bb19ccd17c3"
  },
  {
    "id": "aa448c7b-b07e-4873-8cc4-509694db8fe2",
    "name": "Mila",
    "code": "43",
    "country_id": "7e276fc2-640a-4905-94b9-2bb19ccd17c3"
  },
  {
    "id": "2ba2071c-4870-4139-838b-d0f1d9f3bfa7",
    "name": "Mostaganem",
    "code": "27",
    "country_id": "7e276fc2-640a-4905-94b9-2bb19ccd17c3"
  },
  {
    "id": "e043a1b3-9547-4217-873b-123e733cb858",
    "name": "Naama",
    "code": "45",
    "country_id": "7e276fc2-640a-4905-94b9-2bb19ccd17c3"
  },
  {
    "id": "f417902f-ea53-4584-ad04-42d462ef30b6",
    "name": "Oran",
    "code": "31",
    "country_id": "7e276fc2-640a-4905-94b9-2bb19ccd17c3"
  },
  {
    "id": "ea64e0d9-36fd-4829-9767-9115be1f0721",
    "name": "Ouargla",
    "code": "30",
    "country_id": "7e276fc2-640a-4905-94b9-2bb19ccd17c3"
  },
  {
    "id": "7066821d-b4e8-46b9-9141-d1a3c425c5af",
    "name": "Ouled Djellal",
    "code": "51",
    "country_id": "7e276fc2-640a-4905-94b9-2bb19ccd17c3"
  },
  {
    "id": "a878d44b-8f42-4888-b412-40a288c99928",
    "name": "Oum El Bouaghi",
    "code": "04",
    "country_id": "7e276fc2-640a-4905-94b9-2bb19ccd17c3"
  },
  {
    "id": "1ecb6976-653e-48a3-8abc-6c333cffc68a",
    "name": "Relizane",
    "code": "48",
    "country_id": "7e276fc2-640a-4905-94b9-2bb19ccd17c3"
  },
  {
    "id": "3d9aeef0-71c7-4729-8353-2542d155783d",
    "name": "Saïda",
    "code": "20",
    "country_id": "7e276fc2-640a-4905-94b9-2bb19ccd17c3"
  },
  {
    "id": "cd0c7612-ffc7-48af-ba45-06d423447536",
    "name": "Sétif",
    "code": "19",
    "country_id": "7e276fc2-640a-4905-94b9-2bb19ccd17c3"
  },
  {
    "id": "782a1488-1666-4d1d-aa65-a8cc3106893e",
    "name": "Sidi Bel Abbès",
    "code": "22",
    "country_id": "7e276fc2-640a-4905-94b9-2bb19ccd17c3"
  },
  {
    "id": "e8bb0767-c74f-4385-bf1e-f1bb17ed90cb",
    "name": "Skikda",
    "code": "21",
    "country_id": "7e276fc2-640a-4905-94b9-2bb19ccd17c3"
  },
  {
    "id": "8fb592c2-28d8-4b2b-80cd-8e7e0fe6d85a",
    "name": "Souk Ahras",
    "code": "41",
    "country_id": "7e276fc2-640a-4905-94b9-2bb19ccd17c3"
  },
  {
    "id": "dccfe6dc-8b68-4e6c-913a-075a9d1a6c75",
    "name": "Tamanghasset",
    "code": "11",
    "country_id": "7e276fc2-640a-4905-94b9-2bb19ccd17c3"
  },
  {
    "id": "b318dd0a-c95f-4a4a-a1e7-032f2f0f7955",
    "name": "Tébessa",
    "code": "12",
    "country_id": "7e276fc2-640a-4905-94b9-2bb19ccd17c3"
  },
  {
    "id": "10a87090-9f1b-44e2-b24f-3b347f1aa02e",
    "name": "Tiaret",
    "code": "14",
    "country_id": "7e276fc2-640a-4905-94b9-2bb19ccd17c3"
  },
  {
    "id": "7867a3f7-174d-4a96-a803-34be9b2ba95b",
    "name": "Timimoun",
    "code": "54",
    "country_id": "7e276fc2-640a-4905-94b9-2bb19ccd17c3"
  },
  {
    "id": "e02c9bce-4404-46de-ae8f-35aac5ddf593",
    "name": "Tindouf",
    "code": "37",
    "country_id": "7e276fc2-640a-4905-94b9-2bb19ccd17c3"
  },
  {
    "id": "39749ff8-2c07-4bc5-a57b-4439bcc29ae0",
    "name": "Tipasa",
    "code": "42",
    "country_id": "7e276fc2-640a-4905-94b9-2bb19ccd17c3"
  },
  {
    "id": "11cbe39a-3497-4e68-8961-3c921eb0561b",
    "name": "Tissemsilt",
    "code": "38",
    "country_id": "7e276fc2-640a-4905-94b9-2bb19ccd17c3"
  },
  {
    "id": "3caf9f53-a84c-44ee-946a-26fb54fc582e",
    "name": "Tizi Ouzou",
    "code": "15",
    "country_id": "7e276fc2-640a-4905-94b9-2bb19ccd17c3"
  },
  {
    "id": "57dec689-5b89-4e42-b278-0a456880fa4d",
    "name": "Tlemcen",
    "code": "13",
    "country_id": "7e276fc2-640a-4905-94b9-2bb19ccd17c3"
  },
  {
    "id": "28285796-e31c-47fb-b2b3-40e3838df932",
    "name": "Touggourt",
    "code": "55",
    "country_id": "7e276fc2-640a-4905-94b9-2bb19ccd17c3"
  }
]