[
  {
    "id": "7a4a3d98-4d70-42c2-83f6-915a66312cf8",
    "name": "Anjouan",
    "code": "A",
    "country_id": "8d40646e-fb23-41be-ae53-67a668c1d4fe"
  },
  {
    "id": "75ceb8ea-d15f-4dcf-a745-1ff3f7a2de6d",
    "name": "Grande Comore",
    "code": "G",
    "country_id": "8d40646e-fb23-41be-ae53-67a668c1d4fe"
  },
  {
    "id": "f93c5f48-adce-4690-a2c1-fbee703d9d82",
    "name": "Mohéli",
    "code": "M",
    "country_id": "8d40646e-fb23-41be-ae53-67a668c1d4fe"
  }
]