[
  {
    "id": "3f3fad1b-7b41-40a3-816e-69e9ad00c593",
    "name": "Anenii Noi District",
    "code": "AN",
    "country_id": "92f91661-b282-41f3-8dca-5a80890df955"
  },
  {
    "id": "a3c1a9aa-aa95-46ab-ab37-975c283e7439",
    "name": "Bălți Municipality",
    "code": "BA",
    "country_id": "92f91661-b282-41f3-8dca-5a80890df955"
  },
  {
    "id": "68ed6cd5-6012-4eea-a4a5-f1d286a54b4f",
    "name": "Basarabeasca District",
    "code": "BS",
    "country_id": "92f91661-b282-41f3-8dca-5a80890df955"
  },
  {
    "id": "61620008-494f-422c-ae8e-e3071020cbe1",
    "name": "Bender Municipality",
    "code": "BD",
    "country_id": "92f91661-b282-41f3-8dca-5a80890df955"
  },
  {
    "id": "d587d02c-ca13-4446-a7e2-a4ef780274aa",
    "name": "Briceni District",
    "code": "BR",
    "country_id": "92f91661-b282-41f3-8dca-5a80890df955"
  },
  {
    "id": "b8913f89-baf0-4172-88cd-c6cfe03817f4",
    "name": "Cahul District",
    "code": "CA",
    "country_id": "92f91661-b282-41f3-8dca-5a80890df955"
  },
  {
    "id": "dd559ea0-816b-4080-91cd-2fc35159bc89",
    "name": "Călărași District",
    "code": "CL",
    "country_id": "92f91661-b282-41f3-8dca-5a80890df955"
  },
  {
    "id": "bb515c06-9281-4f20-8f05-0856d0996a9b",
    "name": "Cantemir District",
    "code": "CT",
    "country_id": "92f91661-b282-41f3-8dca-5a80890df955"
  },
  {
    "id": "f00c0592-e2f0-4fa4-97af-1adff81f2159",
    "name": "Căușeni District",
    "code": "CS",
    "country_id": "92f91661-b282-41f3-8dca-5a80890df955"
  },
  {
    "id": "781d98bd-7032-4f43-a691-b76be227e1fd",
    "name": "Chișinău Municipality",
    "code": "CU",
    "country_id": "92f91661-b282-41f3-8dca-5a80890df955"
  },
  {
    "id": "e13fa836-2ea5-4458-be10-966b9b6cf8e5",
    "name": "Cimișlia District",
    "code": "CM",
    "country_id": "92f91661-b282-41f3-8dca-5a80890df955"
  },
  {
    "id": "85e3042a-3e7b-45f8-a498-a99ec69f89d0",
    "name": "Criuleni District",
    "code": "CR",
    "country_id": "92f91661-b282-41f3-8dca-5a80890df955"
  },
  {
    "id": "3684ae58-0e33-4835-af87-364d4446c142",
    "name": "Dondușeni District",
    "code": "DO",
    "country_id": "92f91661-b282-41f3-8dca-5a80890df955"
  },
  {
    "id": "571f9dd7-699a-47cb-9627-922269ec0b4c",
    "name": "Drochia District",
    "code": "DR",
    "country_id": "92f91661-b282-41f3-8dca-5a80890df955"
  },
  {
    "id": "a05d9948-1a77-417b-bca0-efac0e4fa2bb",
    "name": "Dubăsari District",
    "code": "DU",
    "country_id": "92f91661-b282-41f3-8dca-5a80890df955"
  },
  {
    "id": "65990ce8-e913-41fe-b9eb-9ac2c815c7b2",
    "name": "Edineț District",
    "code": "ED",
    "country_id": "92f91661-b282-41f3-8dca-5a80890df955"
  },
  {
    "id": "29f7159e-9488-4b9e-b7c3-d4124ad8f846",
    "name": "Fălești District",
    "code": "FA",
    "country_id": "92f91661-b282-41f3-8dca-5a80890df955"
  },
  {
    "id": "074e8af7-179c-45b8-8fbd-15fda5f68608",
    "name": "Florești District",
    "code": "FL",
    "country_id": "92f91661-b282-41f3-8dca-5a80890df955"
  },
  {
    "id": "61cad94c-28d1-4dd1-8553-0d9552eee185",
    "name": "Gagauzia",
    "code": "GA",
    "country_id": "92f91661-b282-41f3-8dca-5a80890df955"
  },
  {
    "id": "6b261837-ab00-4316-b3e5-3126071c53b9",
    "name": "Glodeni District",
    "code": "GL",
    "country_id": "92f91661-b282-41f3-8dca-5a80890df955"
  },
  {
    "id": "289f9c4b-d175-4b2f-bdc3-97331fa4ca43",
    "name": "Hîncești District",
    "code": "HI",
    "country_id": "92f91661-b282-41f3-8dca-5a80890df955"
  },
  {
    "id": "c177d316-d6b3-4faa-9020-6fe4975ea377",
    "name": "Ialoveni District",
    "code": "IA",
    "country_id": "92f91661-b282-41f3-8dca-5a80890df955"
  },
  {
    "id": "8c84f07b-8b0b-4296-854b-075dbd8ad7b4",
    "name": "Nisporeni District",
    "code": "NI",
    "country_id": "92f91661-b282-41f3-8dca-5a80890df955"
  },
  {
    "id": "47a5ea81-85cb-48ed-8fef-d5acb45e5b9d",
    "name": "Ocnița District",
    "code": "OC",
    "country_id": "92f91661-b282-41f3-8dca-5a80890df955"
  },
  {
    "id": "6ade62e6-184d-4f50-8632-8dd6fe686563",
    "name": "Orhei District",
    "code": "OR",
    "country_id": "92f91661-b282-41f3-8dca-5a80890df955"
  },
  {
    "id": "020a3b19-45ff-4df7-a19c-8e735191bbea",
    "name": "Rezina District",
    "code": "RE",
    "country_id": "92f91661-b282-41f3-8dca-5a80890df955"
  },
  {
    "id": "c841bdc5-a431-4b5f-9583-0c88b14250cf",
    "name": "Rîșcani District",
    "code": "RI",
    "country_id": "92f91661-b282-41f3-8dca-5a80890df955"
  },
  {
    "id": "0b0dca7f-f456-4200-a285-8ca77daaf528",
    "name": "Sîngerei District",
    "code": "SI",
    "country_id": "92f91661-b282-41f3-8dca-5a80890df955"
  },
  {
    "id": "c909393e-855d-435b-a9ca-ee052b0438e1",
    "name": "Șoldănești District",
    "code": "SD",
    "country_id": "92f91661-b282-41f3-8dca-5a80890df955"
  },
  {
    "id": "143a86cc-535a-4cfe-a6d5-0e3c9fa4a7b7",
    "name": "Soroca District",
    "code": "SO",
    "country_id": "92f91661-b282-41f3-8dca-5a80890df955"
  },
  {
    "id": "55a9dd79-8268-408e-8d1b-0fd79ae0c3ff",
    "name": "Ștefan Vodă District",
    "code": "SV",
    "country_id": "92f91661-b282-41f3-8dca-5a80890df955"
  },
  {
    "id": "54e1f8ff-d3ef-4731-931c-8951e9f48f06",
    "name": "Strășeni District",
    "code": "ST",
    "country_id": "92f91661-b282-41f3-8dca-5a80890df955"
  },
  {
    "id": "75f038fb-18e1-4549-8105-e9758ffe2483",
    "name": "Taraclia District",
    "code": "TA",
    "country_id": "92f91661-b282-41f3-8dca-5a80890df955"
  },
  {
    "id": "42ce457e-fe88-4f63-af54-30122fa25c0b",
    "name": "Telenești District",
    "code": "TE",
    "country_id": "92f91661-b282-41f3-8dca-5a80890df955"
  },
  {
    "id": "acd48dde-3a2a-4a01-918e-4e31e7eed254",
    "name": "Transnistria autonomous territorial unit",
    "code": "SN",
    "country_id": "92f91661-b282-41f3-8dca-5a80890df955"
  },
  {
    "id": "1f7fa6a1-51c5-4815-b8b8-cfed77c6c657",
    "name": "Ungheni District",
    "code": "UN",
    "country_id": "92f91661-b282-41f3-8dca-5a80890df955"
  }
]