[
  {
    "id": "2edbb15b-0d0b-47d8-b6de-f639c6a9fa59",
    "name": "Ralik Chain",
    "code": "L",
    "country_id": "93d960f6-197c-4e95-8326-74e3f959e873"
  },
  {
    "id": "14a8c9a7-45b2-4cc9-8ea3-e27685370759",
    "name": "Ratak Chain",
    "code": "T",
    "country_id": "93d960f6-197c-4e95-8326-74e3f959e873"
  }
]