[
  {
    "id": "01d63347-6988-4af1-b9ab-0222d0013910",
    "name": "Charlotte Parish",
    "code": "01",
    "country_id": "9a314eeb-1861-4629-be75-a6c15497d480"
  },
  {
    "id": "5c5f0e06-3fe5-4b81-a313-cd7bbf3c48f7",
    "name": "Grenadines Parish",
    "code": "06",
    "country_id": "9a314eeb-1861-4629-be75-a6c15497d480"
  },
  {
    "id": "b749a374-d3c1-465b-89a4-97ed72881e29",
    "name": "Saint Andrew Parish",
    "code": "02",
    "country_id": "9a314eeb-1861-4629-be75-a6c15497d480"
  },
  {
    "id": "ab22bdbc-e581-479b-a18c-07ae59c220c6",
    "name": "Saint David Parish",
    "code": "03",
    "country_id": "9a314eeb-1861-4629-be75-a6c15497d480"
  },
  {
    "id": "e71fdee1-a5e4-47df-bb5d-4fe406d87a16",
    "name": "Saint George Parish",
    "code": "04",
    "country_id": "9a314eeb-1861-4629-be75-a6c15497d480"
  },
  {
    "id": "e0e30b19-3908-4e1e-b1fb-3c3d1741b155",
    "name": "Saint Patrick Parish",
    "code": "05",
    "country_id": "9a314eeb-1861-4629-be75-a6c15497d480"
  }
]