[
  {
    "id": "4b10e629-16d2-4ce3-a406-a98ce61a9b6a",
    "name": "Carlow",
    "code": "CW",
    "country_id": "a7da9c9c-5f57-4c05-8e34-3becc91e347d"
  },
  {
    "id": "7f8855fb-73c0-4959-9999-04c2877cfc3d",
    "name": "Cavan",
    "code": "CN",
    "country_id": "a7da9c9c-5f57-4c05-8e34-3becc91e347d"
  },
  {
    "id": "93441b07-ff0e-4686-bd8c-b3c7b808fd56",
    "name": "Clare",
    "code": "CE",
    "country_id": "a7da9c9c-5f57-4c05-8e34-3becc91e347d"
  },
  {
    "id": "eb70b898-99fd-4c37-93d3-0ba5ba5c9bbd",
    "name": "Connacht",
    "code": "C",
    "country_id": "a7da9c9c-5f57-4c05-8e34-3becc91e347d"
  },
  {
    "id": "0267989e-7db6-43c4-804c-be24f33e5898",
    "name": "Cork",
    "code": "CO",
    "country_id": "a7da9c9c-5f57-4c05-8e34-3becc91e347d"
  },
  {
    "id": "92e6fbea-bd79-42dc-beb7-bc79bd8a8556",
    "name": "Donegal",
    "code": "DL",
    "country_id": "a7da9c9c-5f57-4c05-8e34-3becc91e347d"
  },
  {
    "id": "d5f5366a-67f8-477a-9ec4-37a7a7e254c3",
    "name": "Dublin",
    "code": "D",
    "country_id": "a7da9c9c-5f57-4c05-8e34-3becc91e347d"
  },
  {
    "id": "9d3d11a2-1f9f-4ebc-81ea-541cf2b01595",
    "name": "Galway",
    "code": "G",
    "country_id": "a7da9c9c-5f57-4c05-8e34-3becc91e347d"
  },
  {
    "id": "d55ac654-f8c3-4756-8848-387d8e5121c5",
    "name": "Kerry",
    "code": "KY",
    "country_id": "a7da9c9c-5f57-4c05-8e34-3becc91e347d"
  },
  {
    "id": "a089877b-e376-4708-873c-dfab92340fbe",
    "name": "Kildare",
    "code": "KE",
    "country_id": "a7da9c9c-5f57-4c05-8e34-3becc91e347d"
  },
  {
    "id": "adcd3cc6-547c-4409-b03b-8a77ef7d3591",
    "name": "Kilkenny",
    "code": "KK",
    "country_id": "a7da9c9c-5f57-4c05-8e34-3becc91e347d"
  },
  {
    "id": "552445be-2038-48d7-a666-87fee7f7a2cc",
    "name": "Laois",
    "code": "LS",
    "country_id": "a7da9c9c-5f57-4c05-8e34-3becc91e347d"
  },
  {
    "id": "0ad3fe9a-5870-41da-936b-5e5670a77b06",
    "name": "Leinster",
    "code": "L",
    "country_id": "a7da9c9c-5f57-4c05-8e34-3becc91e347d"
  },
  {
    "id": "4d227a71-04c7-402c-808d-5ffd63abd24f",
    "name": "Limerick",
    "code": "LK",
    "country_id": "a7da9c9c-5f57-4c05-8e34-3becc91e347d"
  },
  {
    "id": "7f69f1e8-cc44-4c14-96ad-5fb7876fa130",
    "name": "Longford",
    "code": "LD",
    "country_id": "a7da9c9c-5f57-4c05-8e34-3becc91e347d"
  },
  {
    "id": "00598e68-5caf-4c3c-b3f8-424408f4c818",
    "name": "Louth",
    "code": "LH",
    "country_id": "a7da9c9c-5f57-4c05-8e34-3becc91e347d"
  },
  {
    "id": "86e71753-e0ba-4ce7-892a-0284353c2d8b",
    "name": "Mayo",
    "code": "MO",
    "country_id": "a7da9c9c-5f57-4c05-8e34-3becc91e347d"
  },
  {
    "id": "9a880746-6390-433f-82cb-650613707eaa",
    "name": "Meath",
    "code": "MH",
    "country_id": "a7da9c9c-5f57-4c05-8e34-3becc91e347d"
  },
  {
    "id": "8c86b3a2-bc3e-4c81-b226-e5d3fb9e0492",
    "name": "Monaghan",
    "code": "MN",
    "country_id": "a7da9c9c-5f57-4c05-8e34-3becc91e347d"
  },
  {
    "id": "1f972830-c7c9-4cb6-bd91-7c4a950c3ca1",
    "name": "Munster",
    "code": "M",
    "country_id": "a7da9c9c-5f57-4c05-8e34-3becc91e347d"
  },
  {
    "id": "95dd8a80-5995-4535-9360-648e4ca2ea35",
    "name": "Offaly",
    "code": "OY",
    "country_id": "a7da9c9c-5f57-4c05-8e34-3becc91e347d"
  },
  {
    "id": "da77452f-61e4-4b3b-82e7-ee659a2af429",
    "name": "Roscommon",
    "code": "RN",
    "country_id": "a7da9c9c-5f57-4c05-8e34-3becc91e347d"
  },
  {
    "id": "4e4f663b-a719-4c6b-9d85-9bb0e145a10a",
    "name": "Sligo",
    "code": "SO",
    "country_id": "a7da9c9c-5f57-4c05-8e34-3becc91e347d"
  },
  {
    "id": "be8e234d-fc9f-4c0a-8902-2ee2c377ec35",
    "name": "Tipperary",
    "code": "TA",
    "country_id": "a7da9c9c-5f57-4c05-8e34-3becc91e347d"
  },
  {
    "id": "c21c6fe7-b441-4e44-95f3-ff5348f1ba00",
    "name": "Ulster",
    "code": "U",
    "country_id": "a7da9c9c-5f57-4c05-8e34-3becc91e347d"
  },
  {
    "id": "951ab365-6170-4832-a814-c4410c942050",
    "name": "Waterford",
    "code": "WD",
    "country_id": "a7da9c9c-5f57-4c05-8e34-3becc91e347d"
  },
  {
    "id": "f139a66d-300d-4860-b934-32291fe42da2",
    "name": "Westmeath",
    "code": "WH",
    "country_id": "a7da9c9c-5f57-4c05-8e34-3becc91e347d"
  },
  {
    "id": "b8eed1d7-ea95-4273-8b29-0f07273df7cb",
    "name": "Wexford",
    "code": "WX",
    "country_id": "a7da9c9c-5f57-4c05-8e34-3becc91e347d"
  },
  {
    "id": "3c94aa2a-0ec1-4de3-8b06-06b449478cab",
    "name": "Wicklow",
    "code": "WW",
    "country_id": "a7da9c9c-5f57-4c05-8e34-3becc91e347d"
  }
]