[
  {
    "id": "4506c245-5865-4469-bb65-1b98d96fb264",
    "name": "Adamawa",
    "code": "AD",
    "country_id": "b343a608-86e8-4fcb-8fc7-15fc5b5bc023"
  },
  {
    "id": "44c5d47c-e2e8-4397-a5d7-5897d077ed63",
    "name": "Centre",
    "code": "CE",
    "country_id": "b343a608-86e8-4fcb-8fc7-15fc5b5bc023"
  },
  {
    "id": "36144f17-a20e-4f1d-aa3b-e4fec53802e6",
    "name": "East",
    "code": "ES",
    "country_id": "b343a608-86e8-4fcb-8fc7-15fc5b5bc023"
  },
  {
    "id": "50e3e451-e748-4596-98a9-6c5c5d3831b2",
    "name": "Far North",
    "code": "EN",
    "country_id": "b343a608-86e8-4fcb-8fc7-15fc5b5bc023"
  },
  {
    "id": "e8328d03-0371-4ee6-9254-6d2d0f724f4c",
    "name": "Littoral",
    "code": "LT",
    "country_id": "b343a608-86e8-4fcb-8fc7-15fc5b5bc023"
  },
  {
    "id": "c004213d-d549-43f4-bbcb-db56baa79c94",
    "name": "North",
    "code": "NO",
    "country_id": "b343a608-86e8-4fcb-8fc7-15fc5b5bc023"
  },
  {
    "id": "66751300-b4ee-4ae8-beb8-5136077f3fcb",
    "name": "Northwest",
    "code": "NW",
    "country_id": "b343a608-86e8-4fcb-8fc7-15fc5b5bc023"
  },
  {
    "id": "42599053-af89-42e1-a58e-fa6896382266",
    "name": "South",
    "code": "SU",
    "country_id": "b343a608-86e8-4fcb-8fc7-15fc5b5bc023"
  },
  {
    "id": "1c89af29-8702-4b94-9215-cc5ab88eb8b6",
    "name": "Southwest",
    "code": "SW",
    "country_id": "b343a608-86e8-4fcb-8fc7-15fc5b5bc023"
  },
  {
    "id": "ad702f0f-86d5-4ea9-85be-72eb0d22028d",
    "name": "West",
    "code": "OU",
    "country_id": "b343a608-86e8-4fcb-8fc7-15fc5b5bc023"
  }
]