[
  {
    "id": "a5a20f90-62ac-470c-b4f6-470eb952c460",
    "name": "Erongo Region",
    "code": "ER",
    "country_id": "b69823a8-ee7a-4448-9701-0673a876205b"
  },
  {
    "id": "eb2fc178-e2f5-4f0f-9b8f-47823edd0c48",
    "name": "Hardap Region",
    "code": "HA",
    "country_id": "b69823a8-ee7a-4448-9701-0673a876205b"
  },
  {
    "id": "b046732e-828b-4dc2-b4ba-9481a9099d73",
    "name": "Karas Region",
    "code": "KA",
    "country_id": "b69823a8-ee7a-4448-9701-0673a876205b"
  },
  {
    "id": "e06781e3-af2b-4045-9f05-3a47741c0b80",
    "name": "Kavango East Region",
    "code": "KE",
    "country_id": "b69823a8-ee7a-4448-9701-0673a876205b"
  },
  {
    "id": "65d0bab9-f652-41b2-a965-faf31f792c8c",
    "name": "Kavango West Region",
    "code": "KW",
    "country_id": "b69823a8-ee7a-4448-9701-0673a876205b"
  },
  {
    "id": "c4480823-0eba-4067-9259-107d74d865b5",
    "name": "Khomas Region",
    "code": "KH",
    "country_id": "b69823a8-ee7a-4448-9701-0673a876205b"
  },
  {
    "id": "4a7b5394-54dd-449f-857e-77e5683dd388",
    "name": "Kunene Region",
    "code": "KU",
    "country_id": "b69823a8-ee7a-4448-9701-0673a876205b"
  },
  {
    "id": "8d1cbe3b-be89-495d-bb9f-57e3c89123c6",
    "name": "Ohangwena Region",
    "code": "OW",
    "country_id": "b69823a8-ee7a-4448-9701-0673a876205b"
  },
  {
    "id": "9e41f05c-9d95-4bee-ac83-1e6823922a95",
    "name": "Omaheke Region",
    "code": "OH",
    "country_id": "b69823a8-ee7a-4448-9701-0673a876205b"
  },
  {
    "id": "15e54ef1-ef2a-4789-8f17-083e94fff954",
    "name": "Omusati Region",
    "code": "OS",
    "country_id": "b69823a8-ee7a-4448-9701-0673a876205b"
  },
  {
    "id": "647f15bf-5974-437a-8e55-5ead72584cee",
    "name": "Oshana Region",
    "code": "ON",
    "country_id": "b69823a8-ee7a-4448-9701-0673a876205b"
  },
  {
    "id": "a703ca32-3229-4ba8-9b8f-00dbdf92f9a0",
    "name": "Oshikoto Region",
    "code": "OT",
    "country_id": "b69823a8-ee7a-4448-9701-0673a876205b"
  },
  {
    "id": "a226870e-cd06-4a24-bb57-350271bbb5f5",
    "name": "Otjozondjupa Region",
    "code": "OD",
    "country_id": "b69823a8-ee7a-4448-9701-0673a876205b"
  },
  {
    "id": "8d85be77-37ea-41c9-ab38-3bf08b78fa44",
    "name": "Zambezi Region",
    "code": "CA",
    "country_id": "b69823a8-ee7a-4448-9701-0673a876205b"
  }
]