[
  {
    "id": "71bbf768-e043-495c-9a40-c3f5496cdfa3",
    "name": "Adjara",
    "code": "AJ",
    "country_id": "b8be8d7f-08d6-47ec-a05f-3eabb64467f2"
  },
  {
    "id": "e54a0d63-caf3-4bf9-b70f-6718966014ea",
    "name": "Autonomous Republic of Abkhazia",
    "code": "AB",
    "country_id": "b8be8d7f-08d6-47ec-a05f-3eabb64467f2"
  },
  {
    "id": "895c98c6-966d-4985-a25b-e500f8da45e4",
    "name": "Guria",
    "code": "GU",
    "country_id": "b8be8d7f-08d6-47ec-a05f-3eabb64467f2"
  },
  {
    "id": "a9d0dcda-64e1-4549-ac1f-94ba3c471f81",
    "name": "Imereti",
    "code": "IM",
    "country_id": "b8be8d7f-08d6-47ec-a05f-3eabb64467f2"
  },
  {
    "id": "f3781927-a9b5-4d00-ba88-f209fa34dd55",
    "name": "Kakheti",
    "code": "KA",
    "country_id": "b8be8d7f-08d6-47ec-a05f-3eabb64467f2"
  },
  {
    "id": "4469821b-39c7-40e3-a412-4639d42ea30c",
    "name": "Khelvachauri Municipality",
    "code": "29",
    "country_id": "b8be8d7f-08d6-47ec-a05f-3eabb64467f2"
  },
  {
    "id": "f15e2eed-92ba-4cd0-a5f8-5022a0dd5f32",
    "name": "Kvemo Kartli",
    "code": "KK",
    "country_id": "b8be8d7f-08d6-47ec-a05f-3eabb64467f2"
  },
  {
    "id": "4e69b5c2-bb7a-41d0-9667-4e5b15b9b2d8",
    "name": "Mtskheta-Mtianeti",
    "code": "MM",
    "country_id": "b8be8d7f-08d6-47ec-a05f-3eabb64467f2"
  },
  {
    "id": "7566ae56-a3ef-4bd3-a845-ff1438aa0e61",
    "name": "Racha-Lechkhumi and Kvemo Svaneti",
    "code": "RL",
    "country_id": "b8be8d7f-08d6-47ec-a05f-3eabb64467f2"
  },
  {
    "id": "332a124a-09cb-4b2b-aea4-e05692008de2",
    "name": "Samegrelo-Zemo Svaneti",
    "code": "SZ",
    "country_id": "b8be8d7f-08d6-47ec-a05f-3eabb64467f2"
  },
  {
    "id": "c79ab860-0910-4235-9b54-ee92cce6b8b3",
    "name": "Samtskhe-Javakheti",
    "code": "SJ",
    "country_id": "b8be8d7f-08d6-47ec-a05f-3eabb64467f2"
  },
  {
    "id": "e288ee41-6d85-4f29-93b3-4c3442df2921",
    "name": "Senaki Municipality",
    "code": "50",
    "country_id": "b8be8d7f-08d6-47ec-a05f-3eabb64467f2"
  },
  {
    "id": "58bd7d10-dbe2-430f-9db9-ef672a421745",
    "name": "Shida Kartli",
    "code": "SK",
    "country_id": "b8be8d7f-08d6-47ec-a05f-3eabb64467f2"
  },
  {
    "id": "73bb8b34-ac82-4151-a5f6-4996864c345c",
    "name": "Tbilisi",
    "code": "TB",
    "country_id": "b8be8d7f-08d6-47ec-a05f-3eabb64467f2"
  }
]