[
  {
    "id": "e1e5e50f-c12d-49a2-9da0-3a4dd99f18cb",
    "name": "Aisén del General Carlos Ibañez del Campo",
    "code": "AI",
    "country_id": "c56813cb-94da-42e2-9082-846b6b0b3746"
  },
  {
    "id": "5272d604-cb7d-4a70-9f93-33b14e58219d",
    "name": "Antofagasta",
    "code": "AN",
    "country_id": "c56813cb-94da-42e2-9082-846b6b0b3746"
  },
  {
    "id": "5c8a1122-1cf7-4c2b-9c5a-fd7a7102707c",
    "name": "Arica y Parinacota",
    "code": "AP",
    "country_id": "c56813cb-94da-42e2-9082-846b6b0b3746"
  },
  {
    "id": "713191f9-76a4-46e4-aefd-ad3d864f2b90",
    "name": "Atacama",
    "code": "AT",
    "country_id": "c56813cb-94da-42e2-9082-846b6b0b3746"
  },
  {
    "id": "6b507ca5-bb68-4889-92e0-116934504c8b",
    "name": "Biobío",
    "code": "BI",
    "country_id": "c56813cb-94da-42e2-9082-846b6b0b3746"
  },
  {
    "id": "753e7ce1-1bad-4733-9f4a-8b34d3a213f4",
    "name": "Coquimbo",
    "code": "CO",
    "country_id": "c56813cb-94da-42e2-9082-846b6b0b3746"
  },
  {
    "id": "e72046fc-6c1e-4b42-821a-e108a396e5a4",
    "name": "La Araucanía",
    "code": "AR",
    "country_id": "c56813cb-94da-42e2-9082-846b6b0b3746"
  },
  {
    "id": "b96fac51-f7eb-4301-a1e5-6d6cbf2e9c67",
    "name": "Libertador General Bernardo O'Higgins",
    "code": "LI",
    "country_id": "c56813cb-94da-42e2-9082-846b6b0b3746"
  },
  {
    "id": "3d1275af-4d68-42c9-84d1-c58438e9b1ec",
    "name": "Los Lagos",
    "code": "LL",
    "country_id": "c56813cb-94da-42e2-9082-846b6b0b3746"
  },
  {
    "id": "21262937-7b53-45a5-b17a-f5d1b20f7aa8",
    "name": "Los Ríos",
    "code": "LR",
    "country_id": "c56813cb-94da-42e2-9082-846b6b0b3746"
  },
  {
    "id": "35f7155b-fd66-4760-b021-c4c1c85a67eb",
    "name": "Magallanes y de la Antártica Chilena",
    "code": "MA",
    "country_id": "c56813cb-94da-42e2-9082-846b6b0b3746"
  },
  {
    "id": "c78fb1d6-dff0-4155-b114-7c42caf56548",
    "name": "Maule",
    "code": "ML",
    "country_id": "c56813cb-94da-42e2-9082-846b6b0b3746"
  },
  {
    "id": "7449a8be-ea04-44be-9097-4de5845b2687",
    "name": "Ñuble",
    "code": "NB",
    "country_id": "c56813cb-94da-42e2-9082-846b6b0b3746"
  },
  {
    "id": "6116c749-76e3-4dfd-993d-c6220d53d572",
    "name": "Región Metropolitana de Santiago",
    "code": "RM",
    "country_id": "c56813cb-94da-42e2-9082-846b6b0b3746"
  },
  {
    "id": "d1ee97f3-b156-43ab-af4a-9869048d3a61",
    "name": "Tarapacá",
    "code": "TA",
    "country_id": "c56813cb-94da-42e2-9082-846b6b0b3746"
  },
  {
    "id": "4779fa81-22e5-4d93-b715-88cb10daab59",
    "name": "Valparaíso",
    "code": "VS",
    "country_id": "c56813cb-94da-42e2-9082-846b6b0b3746"
  }
]