[
  {
    "id": "70cc5602-28e2-411f-9158-54c1a79e1bcb",
    "name": "Bubanza Province",
    "code": "BB",
    "country_id": "c6d3bdc4-5de9-48d0-af2b-11db9951c652"
  },
  {
    "id": "27cdd5a7-880e-4ceb-a1b4-d59d1c5e97f1",
    "name": "Bujumbura Mairie Province",
    "code": "BM",
    "country_id": "c6d3bdc4-5de9-48d0-af2b-11db9951c652"
  },
  {
    "id": "3c5a5eaa-32f7-4080-bf60-31988427d6d4",
    "name": "Bujumbura Rural Province",
    "code": "BL",
    "country_id": "c6d3bdc4-5de9-48d0-af2b-11db9951c652"
  },
  {
    "id": "f259621d-7d22-41fb-9982-1ed0870b7b4b",
    "name": "Bururi Province",
    "code": "BR",
    "country_id": "c6d3bdc4-5de9-48d0-af2b-11db9951c652"
  },
  {
    "id": "bbff72eb-96d2-46b2-8c84-6035b95e3e71",
    "name": "Cankuzo Province",
    "code": "CA",
    "country_id": "c6d3bdc4-5de9-48d0-af2b-11db9951c652"
  },
  {
    "id": "e657e7fe-dc5f-4444-b0ab-7082a7cdb9cb",
    "name": "Cibitoke Province",
    "code": "CI",
    "country_id": "c6d3bdc4-5de9-48d0-af2b-11db9951c652"
  },
  {
    "id": "7e9f6a61-45c2-4f7d-a230-70a70652b0e1",
    "name": "Gitega Province",
    "code": "GI",
    "country_id": "c6d3bdc4-5de9-48d0-af2b-11db9951c652"
  },
  {
    "id": "036e59c8-9e90-43f2-ab63-8621cd8ed068",
    "name": "Karuzi Province",
    "code": "KR",
    "country_id": "c6d3bdc4-5de9-48d0-af2b-11db9951c652"
  },
  {
    "id": "5c3ad919-28f3-42c4-894e-e16e3447f55c",
    "name": "Kayanza Province",
    "code": "KY",
    "country_id": "c6d3bdc4-5de9-48d0-af2b-11db9951c652"
  },
  {
    "id": "b6db7768-2f71-4d7f-848c-a8ce3a9d8687",
    "name": "Kirundo Province",
    "code": "KI",
    "country_id": "c6d3bdc4-5de9-48d0-af2b-11db9951c652"
  },
  {
    "id": "36fb8fe5-b594-4a6e-879d-1afd12d4d8b3",
    "name": "Makamba Province",
    "code": "MA",
    "country_id": "c6d3bdc4-5de9-48d0-af2b-11db9951c652"
  },
  {
    "id": "551bf202-639e-41f5-a249-741d76b46a84",
    "name": "Muramvya Province",
    "code": "MU",
    "country_id": "c6d3bdc4-5de9-48d0-af2b-11db9951c652"
  },
  {
    "id": "56d6bbfc-e69f-4318-b823-35d6e2ae7f1f",
    "name": "Muyinga Province",
    "code": "MY",
    "country_id": "c6d3bdc4-5de9-48d0-af2b-11db9951c652"
  },
  {
    "id": "3ffaa237-5812-402a-a36a-541354b70a2c",
    "name": "Mwaro Province",
    "code": "MW",
    "country_id": "c6d3bdc4-5de9-48d0-af2b-11db9951c652"
  },
  {
    "id": "2d407cbf-6ffb-4876-b2a5-35aa282ad41d",
    "name": "Ngozi Province",
    "code": "NG",
    "country_id": "c6d3bdc4-5de9-48d0-af2b-11db9951c652"
  },
  {
    "id": "7d514cd8-cc09-42b7-834d-6d34af34266b",
    "name": "Rumonge Province",
    "code": "RM",
    "country_id": "c6d3bdc4-5de9-48d0-af2b-11db9951c652"
  },
  {
    "id": "4470fcb6-c963-40e0-8490-ed090f201e67",
    "name": "Rutana Province",
    "code": "RT",
    "country_id": "c6d3bdc4-5de9-48d0-af2b-11db9951c652"
  },
  {
    "id": "3142455e-1245-43c3-a931-4c1f747ee860",
    "name": "Ruyigi Province",
    "code": "RY",
    "country_id": "c6d3bdc4-5de9-48d0-af2b-11db9951c652"
  }
]