[
  {
    "id": "1577dad4-0695-4415-b68d-1b8d4cc92694",
    "name": "Johor",
    "code": "01",
    "country_id": "c8658cd9-a125-4993-ab0f-1da404fa90ad"
  },
  {
    "id": "836c6c7f-79c5-470d-a3e7-5fa0cb137e44",
    "name": "Kedah",
    "code": "02",
    "country_id": "c8658cd9-a125-4993-ab0f-1da404fa90ad"
  },
  {
    "id": "922fa53a-01ca-409b-b18b-6866065709c5",
    "name": "Kelantan",
    "code": "03",
    "country_id": "c8658cd9-a125-4993-ab0f-1da404fa90ad"
  },
  {
    "id": "47974deb-35ae-4ae6-8c3c-e53cd9fd2b86",
    "name": "Kuala Lumpur",
    "code": "14",
    "country_id": "c8658cd9-a125-4993-ab0f-1da404fa90ad"
  },
  {
    "id": "78399b03-fa06-495a-8878-9b6a19c4c7bc",
    "name": "Labuan",
    "code": "15",
    "country_id": "c8658cd9-a125-4993-ab0f-1da404fa90ad"
  },
  {
    "id": "bbf44218-1c46-4e78-832a-06fad1f4e711",
    "name": "Malacca",
    "code": "04",
    "country_id": "c8658cd9-a125-4993-ab0f-1da404fa90ad"
  },
  {
    "id": "7a54b297-3380-48af-9b17-8960b3ed2ff2",
    "name": "Negeri Sembilan",
    "code": "05",
    "country_id": "c8658cd9-a125-4993-ab0f-1da404fa90ad"
  },
  {
    "id": "c03b0433-a308-445f-b013-c7935abf34a7",
    "name": "Pahang",
    "code": "06",
    "country_id": "c8658cd9-a125-4993-ab0f-1da404fa90ad"
  },
  {
    "id": "ff3e9974-8e28-4c51-ad52-d5c9c939c57e",
    "name": "Penang",
    "code": "07",
    "country_id": "c8658cd9-a125-4993-ab0f-1da404fa90ad"
  },
  {
    "id": "0ea45e3f-9d26-42bb-ad44-d251ee06f4c6",
    "name": "Perak",
    "code": "08",
    "country_id": "c8658cd9-a125-4993-ab0f-1da404fa90ad"
  },
  {
    "id": "7a5efda9-afd1-44ce-852e-e4c75986b8d5",
    "name": "Perlis",
    "code": "09",
    "country_id": "c8658cd9-a125-4993-ab0f-1da404fa90ad"
  },
  {
    "id": "736864bb-e452-4e01-b5ce-0c997ae3cef4",
    "name": "Putrajaya",
    "code": "16",
    "country_id": "c8658cd9-a125-4993-ab0f-1da404fa90ad"
  },
  {
    "id": "8905a87e-dfe6-41bd-a384-cf0226cac5bc",
    "name": "Sabah",
    "code": "12",
    "country_id": "c8658cd9-a125-4993-ab0f-1da404fa90ad"
  },
  {
    "id": "cd9e0465-368e-4775-affe-e4a6ae923b21",
    "name": "Sarawak",
    "code": "13",
    "country_id": "c8658cd9-a125-4993-ab0f-1da404fa90ad"
  },
  {
    "id": "b7bea284-c442-4cae-8d6a-4f359e8b7a70",
    "name": "Selangor",
    "code": "10",
    "country_id": "c8658cd9-a125-4993-ab0f-1da404fa90ad"
  },
  {
    "id": "cbe2ebc2-f736-45a8-8c27-d7daeaca1a33",
    "name": "Terengganu",
    "code": "11",
    "country_id": "c8658cd9-a125-4993-ab0f-1da404fa90ad"
  }
]