[
  {
    "id": "d6b3af31-7080-49ea-b292-fb9d68c1fc8c",
    "name": "Banteay Meanchey",
    "code": "1",
    "country_id": "cbb209af-1ce3-4fb2-9c58-e6ed460582af"
  },
  {
    "id": "a29004f1-64ae-4766-a9d0-08594fd4ead8",
    "name": "Battambang",
    "code": "2",
    "country_id": "cbb209af-1ce3-4fb2-9c58-e6ed460582af"
  },
  {
    "id": "e92e94e8-0c66-4bd7-8202-e6735df15f23",
    "name": "Kampong Cham",
    "code": "3",
    "country_id": "cbb209af-1ce3-4fb2-9c58-e6ed460582af"
  },
  {
    "id": "90dcf7cc-0b6e-4f4a-9a9d-8b8f7509d40f",
    "name": "Kampong Chhnang",
    "code": "4",
    "country_id": "cbb209af-1ce3-4fb2-9c58-e6ed460582af"
  },
  {
    "id": "a59c6ba4-07a7-4342-991d-85b2d1a61077",
    "name": "Kampong Speu",
    "code": "5",
    "country_id": "cbb209af-1ce3-4fb2-9c58-e6ed460582af"
  },
  {
    "id": "6fa44333-77ec-4f1b-8f71-84711e0ae01c",
    "name": "Kampong Thom",
    "code": "6",
    "country_id": "cbb209af-1ce3-4fb2-9c58-e6ed460582af"
  },
  {
    "id": "3b8fd66a-bc28-4704-ba0f-9f8676cc7eb6",
    "name": "Kampot",
    "code": "7",
    "country_id": "cbb209af-1ce3-4fb2-9c58-e6ed460582af"
  },
  {
    "id": "f28e1032-0e70-4eff-aa68-0ffd8e27f6d0",
    "name": "Kandal",
    "code": "8",
    "country_id": "cbb209af-1ce3-4fb2-9c58-e6ed460582af"
  },
  {
    "id": "8bc1d2d3-836a-482f-becc-7e1f1f641ee3",
    "name": "Kep",
    "code": "23",
    "country_id": "cbb209af-1ce3-4fb2-9c58-e6ed460582af"
  },
  {
    "id": "e13ded33-3f59-4b79-bd78-6d17c3b0d512",
    "name": "Koh Kong",
    "code": "9",
    "country_id": "cbb209af-1ce3-4fb2-9c58-e6ed460582af"
  },
  {
    "id": "b668a3db-7522-4506-838a-2d46a915e154",
    "name": "Kratie",
    "code": "10",
    "country_id": "cbb209af-1ce3-4fb2-9c58-e6ed460582af"
  },
  {
    "id": "b28de49e-cb77-4071-a98e-2c509371d3a5",
    "name": "Mondulkiri",
    "code": "11",
    "country_id": "cbb209af-1ce3-4fb2-9c58-e6ed460582af"
  },
  {
    "id": "c311ef42-a756-464e-ada2-63e468624bae",
    "name": "Oddar Meanchey",
    "code": "22",
    "country_id": "cbb209af-1ce3-4fb2-9c58-e6ed460582af"
  },
  {
    "id": "5306c78c-2e24-4343-822a-26b4f337355a",
    "name": "Pailin",
    "code": "24",
    "country_id": "cbb209af-1ce3-4fb2-9c58-e6ed460582af"
  },
  {
    "id": "95c724aa-2c7d-4766-88fc-e8c40452181e",
    "name": "Phnom Penh",
    "code": "12",
    "country_id": "cbb209af-1ce3-4fb2-9c58-e6ed460582af"
  },
  {
    "id": "172e4a99-1fe8-4aef-a979-e5e024b6f4a8",
    "name": "Preah Vihear",
    "code": "13",
    "country_id": "cbb209af-1ce3-4fb2-9c58-e6ed460582af"
  },
  {
    "id": "0060e42b-d603-49d8-be3c-3e771539a21a",
    "name": "Prey Veng",
    "code": "14",
    "country_id": "cbb209af-1ce3-4fb2-9c58-e6ed460582af"
  },
  {
    "id": "98406ba2-20bb-44f2-98b3-996b9834465a",
    "name": "Pursat",
    "code": "15",
    "country_id": "cbb209af-1ce3-4fb2-9c58-e6ed460582af"
  },
  {
    "id": "18231859-5fcf-410f-a2de-fa2887c0d8ed",
    "name": "Ratanakiri",
    "code": "16",
    "country_id": "cbb209af-1ce3-4fb2-9c58-e6ed460582af"
  },
  {
    "id": "c67111e1-466c-436c-9929-94d4a78d1677",
    "name": "Siem Reap",
    "code": "17",
    "country_id": "cbb209af-1ce3-4fb2-9c58-e6ed460582af"
  },
  {
    "id": "af9920e7-b498-46d7-8b29-9ba35efc7892",
    "name": "Sihanoukville",
    "code": "18",
    "country_id": "cbb209af-1ce3-4fb2-9c58-e6ed460582af"
  },
  {
    "id": "80141cc8-1181-48d8-91e9-90f42702d439",
    "name": "Stung Treng",
    "code": "19",
    "country_id": "cbb209af-1ce3-4fb2-9c58-e6ed460582af"
  },
  {
    "id": "5e3fc360-d1a4-4ae6-ab6a-4610dafa82f6",
    "name": "Svay Rieng",
    "code": "20",
    "country_id": "cbb209af-1ce3-4fb2-9c58-e6ed460582af"
  },
  {
    "id": "2bea30d7-4903-4796-928b-93dbffe5305f",
    "name": "Takeo",
    "code": "21",
    "country_id": "cbb209af-1ce3-4fb2-9c58-e6ed460582af"
  }
]