[
  {
    "id": "c5e5abb6-091e-4a72-aa71-3f74687df435",
    "name": "Abruzzo",
    "code": "65",
    "country_id": "cd8183fb-5314-4300-b54a-06424b9f14eb"
  },
  {
    "id": "8f21e92d-a75f-4538-b60c-8036b7d1eded",
    "name": "Aosta Valley",
    "code": "23",
    "country_id": "cd8183fb-5314-4300-b54a-06424b9f14eb"
  },
  {
    "id": "c5a2f464-ea22-40b1-b849-85bdc19bb842",
    "name": "Apulia",
    "code": "75",
    "country_id": "cd8183fb-5314-4300-b54a-06424b9f14eb"
  },
  {
    "id": "39a741e1-01e4-4c34-833e-11d8dde666be",
    "name": "Basilicata",
    "code": "77",
    "country_id": "cd8183fb-5314-4300-b54a-06424b9f14eb"
  },
  {
    "id": "1c136ade-6133-49dc-ac99-d436a76a42aa",
    "name": "Benevento Province",
    "code": "BN",
    "country_id": "cd8183fb-5314-4300-b54a-06424b9f14eb"
  },
  {
    "id": "2c6f3cb2-fcd6-4fdc-9197-e7e8e3a1f16e",
    "name": "Calabria",
    "code": "78",
    "country_id": "cd8183fb-5314-4300-b54a-06424b9f14eb"
  },
  {
    "id": "bbfd9966-f0f6-4536-8475-74a011ca722f",
    "name": "Campania",
    "code": "72",
    "country_id": "cd8183fb-5314-4300-b54a-06424b9f14eb"
  },
  {
    "id": "1115d0dc-ea31-41e9-b4b8-08c5d493de9b",
    "name": "Emilia-Romagna",
    "code": "45",
    "country_id": "cd8183fb-5314-4300-b54a-06424b9f14eb"
  },
  {
    "id": "b84b18a2-ae62-494d-99e4-056c40d747c8",
    "name": "Friuli–Venezia Giulia",
    "code": "36",
    "country_id": "cd8183fb-5314-4300-b54a-06424b9f14eb"
  },
  {
    "id": "8d438fed-1223-4689-a8d3-2f424e38be7e",
    "name": "Lazio",
    "code": "62",
    "country_id": "cd8183fb-5314-4300-b54a-06424b9f14eb"
  },
  {
    "id": "931c38cb-4664-4797-8dcf-c12e34553874",
    "name": "Libero consorzio comunale di Agrigento",
    "code": "AG",
    "country_id": "cd8183fb-5314-4300-b54a-06424b9f14eb"
  },
  {
    "id": "a22cf901-4fe6-4709-ae1c-7c01ced53b6a",
    "name": "Libero consorzio comunale di Caltanissetta",
    "code": "CL",
    "country_id": "cd8183fb-5314-4300-b54a-06424b9f14eb"
  },
  {
    "id": "e6485dcf-39a1-48f3-8de1-c87fa0cbd289",
    "name": "Libero consorzio comunale di Enna",
    "code": "EN",
    "country_id": "cd8183fb-5314-4300-b54a-06424b9f14eb"
  },
  {
    "id": "4876eb4a-42c7-4dc5-8f07-6668a7cd7298",
    "name": "Libero consorzio comunale di Ragusa",
    "code": "RG",
    "country_id": "cd8183fb-5314-4300-b54a-06424b9f14eb"
  },
  {
    "id": "047c460d-27ab-4282-abbe-9ae59b59a46e",
    "name": "Libero consorzio comunale di Siracusa",
    "code": "SR",
    "country_id": "cd8183fb-5314-4300-b54a-06424b9f14eb"
  },
  {
    "id": "dfebbee9-8326-4ebf-8b7a-c628e426e595",
    "name": "Libero consorzio comunale di Trapani",
    "code": "TP",
    "country_id": "cd8183fb-5314-4300-b54a-06424b9f14eb"
  },
  {
    "id": "2e837c97-775d-45f4-99cb-7ba29ea88be7",
    "name": "Liguria",
    "code": "42",
    "country_id": "cd8183fb-5314-4300-b54a-06424b9f14eb"
  },
  {
    "id": "1ee37cfd-269b-4630-9bfc-b70e28546ed2",
    "name": "Lombardy",
    "code": "25",
    "country_id": "cd8183fb-5314-4300-b54a-06424b9f14eb"
  },
  {
    "id": "d8298a35-f4c1-4436-9258-3a27a2f8e3b2",
    "name": "Marche",
    "code": "57",
    "country_id": "cd8183fb-5314-4300-b54a-06424b9f14eb"
  },
  {
    "id": "ac6e67a6-79e8-4030-a6dc-62f7c14eee8e",
    "name": "Metropolitan City of Bari",
    "code": "BA",
    "country_id": "cd8183fb-5314-4300-b54a-06424b9f14eb"
  },
  {
    "id": "4905ed7d-0d8a-4260-81a8-cf7f7d149921",
    "name": "Metropolitan City of Bologna",
    "code": "BO",
    "country_id": "cd8183fb-5314-4300-b54a-06424b9f14eb"
  },
  {
    "id": "8a295bb4-e7b1-46a6-b3b7-59a85be625dd",
    "name": "Metropolitan City of Cagliari",
    "code": "CA",
    "country_id": "cd8183fb-5314-4300-b54a-06424b9f14eb"
  },
  {
    "id": "74f78f91-01ca-4aff-aae9-ebe08a5cc4b0",
    "name": "Metropolitan City of Catania",
    "code": "CT",
    "country_id": "cd8183fb-5314-4300-b54a-06424b9f14eb"
  },
  {
    "id": "3f62a2fc-b17a-441b-9cd3-a042996b36e2",
    "name": "Metropolitan City of Florence",
    "code": "FI",
    "country_id": "cd8183fb-5314-4300-b54a-06424b9f14eb"
  },
  {
    "id": "f2f2a4c1-2fec-46f5-8e9c-957564230823",
    "name": "Metropolitan City of Genoa",
    "code": "GE",
    "country_id": "cd8183fb-5314-4300-b54a-06424b9f14eb"
  },
  {
    "id": "e9f61c45-ed02-424c-bb53-54b00e274bb4",
    "name": "Metropolitan City of Messina",
    "code": "ME",
    "country_id": "cd8183fb-5314-4300-b54a-06424b9f14eb"
  },
  {
    "id": "d801c1a3-1259-4c08-bebf-592041c15886",
    "name": "Metropolitan City of Milan",
    "code": "MI",
    "country_id": "cd8183fb-5314-4300-b54a-06424b9f14eb"
  },
  {
    "id": "58820bb5-e741-41c9-aa1f-15e4500ae2b4",
    "name": "Metropolitan City of Naples",
    "code": "NA",
    "country_id": "cd8183fb-5314-4300-b54a-06424b9f14eb"
  },
  {
    "id": "fd108e1a-56b6-4cf8-824b-b180912d6d75",
    "name": "Metropolitan City of Palermo",
    "code": "PA",
    "country_id": "cd8183fb-5314-4300-b54a-06424b9f14eb"
  },
  {
    "id": "db63210c-a23e-47f1-87ef-f44c68e0f2bc",
    "name": "Metropolitan City of Reggio Calabria",
    "code": "RC",
    "country_id": "cd8183fb-5314-4300-b54a-06424b9f14eb"
  },
  {
    "id": "2e3494f5-7452-4630-9bf1-41c2d44bbb45",
    "name": "Metropolitan City of Rome",
    "code": "RM",
    "country_id": "cd8183fb-5314-4300-b54a-06424b9f14eb"
  },
  {
    "id": "2eff7b55-b637-4521-8508-9f7e784c6bd2",
    "name": "Metropolitan City of Turin",
    "code": "TO",
    "country_id": "cd8183fb-5314-4300-b54a-06424b9f14eb"
  },
  {
    "id": "03097a06-8641-48ba-85ac-fbb00427dc30",
    "name": "Metropolitan City of Venice",
    "code": "VE",
    "country_id": "cd8183fb-5314-4300-b54a-06424b9f14eb"
  },
  {
    "id": "e8a7eaa5-3e1c-44ad-a010-86833e182f8e",
    "name": "Molise",
    "code": "67",
    "country_id": "cd8183fb-5314-4300-b54a-06424b9f14eb"
  },
  {
    "id": "b2364a24-5e6d-42ad-ab41-504f76b687b7",
    "name": "Pesaro and Urbino Province",
    "code": "PU",
    "country_id": "cd8183fb-5314-4300-b54a-06424b9f14eb"
  },
  {
    "id": "7b33c2b1-e8ea-466e-ba5a-b7e50c198e8c",
    "name": "Piedmont",
    "code": "21",
    "country_id": "cd8183fb-5314-4300-b54a-06424b9f14eb"
  },
  {
    "id": "3ce838e7-fb85-4d04-8763-e274a1286c65",
    "name": "Province of Alessandria",
    "code": "AL",
    "country_id": "cd8183fb-5314-4300-b54a-06424b9f14eb"
  },
  {
    "id": "55a57b02-fffa-4cd0-99b7-69e9f90037bb",
    "name": "Province of Ancona",
    "code": "AN",
    "country_id": "cd8183fb-5314-4300-b54a-06424b9f14eb"
  },
  {
    "id": "7bf6fa2f-1b01-4b29-bb46-3e3f0956652a",
    "name": "Province of Ascoli Piceno",
    "code": "AP",
    "country_id": "cd8183fb-5314-4300-b54a-06424b9f14eb"
  },
  {
    "id": "e4af1c30-eafe-4889-ad3f-be526dd85019",
    "name": "Province of Asti",
    "code": "AT",
    "country_id": "cd8183fb-5314-4300-b54a-06424b9f14eb"
  },
  {
    "id": "f6392df6-16a4-457c-81de-49a1070d634c",
    "name": "Province of Avellino",
    "code": "AV",
    "country_id": "cd8183fb-5314-4300-b54a-06424b9f14eb"
  },
  {
    "id": "8f1b9eef-83a5-406b-8f54-4d2f55e9725f",
    "name": "Province of Barletta-Andria-Trani",
    "code": "BT",
    "country_id": "cd8183fb-5314-4300-b54a-06424b9f14eb"
  },
  {
    "id": "b6b3cc57-691c-4d03-bd61-cca6c1114741",
    "name": "Province of Belluno",
    "code": "BL",
    "country_id": "cd8183fb-5314-4300-b54a-06424b9f14eb"
  },
  {
    "id": "d23c6fc5-e924-4306-a6f6-c7742107ef5e",
    "name": "Province of Bergamo",
    "code": "BG",
    "country_id": "cd8183fb-5314-4300-b54a-06424b9f14eb"
  },
  {
    "id": "19a51bef-d161-4dc1-b189-f49b3719fe71",
    "name": "Province of Biella",
    "code": "BI",
    "country_id": "cd8183fb-5314-4300-b54a-06424b9f14eb"
  },
  {
    "id": "cc713e41-09fa-4a87-a289-fe74612e8a57",
    "name": "Province of Brescia",
    "code": "BS",
    "country_id": "cd8183fb-5314-4300-b54a-06424b9f14eb"
  },
  {
    "id": "b5bc91f0-04ba-4010-9a14-2e997abaf17a",
    "name": "Province of Brindisi",
    "code": "BR",
    "country_id": "cd8183fb-5314-4300-b54a-06424b9f14eb"
  },
  {
    "id": "edc2b1fa-741c-4ada-8e5d-c30473e8642b",
    "name": "Province of Campobasso",
    "code": "CB",
    "country_id": "cd8183fb-5314-4300-b54a-06424b9f14eb"
  },
  {
    "id": "d52a19e9-6dcf-426f-bd2f-d9f45b6bdcfa",
    "name": "Province of Carbonia-Iglesias",
    "code": "CI",
    "country_id": "cd8183fb-5314-4300-b54a-06424b9f14eb"
  },
  {
    "id": "5b501ec6-d5ae-455f-bb59-4fc0ef81f8da",
    "name": "Province of Caserta",
    "code": "CE",
    "country_id": "cd8183fb-5314-4300-b54a-06424b9f14eb"
  },
  {
    "id": "781c2faa-e88f-4f24-8a32-039d463fbc56",
    "name": "Province of Catanzaro",
    "code": "CZ",
    "country_id": "cd8183fb-5314-4300-b54a-06424b9f14eb"
  },
  {
    "id": "7c3f5691-b318-4c13-8469-0014001efbb2",
    "name": "Province of Chieti",
    "code": "CH",
    "country_id": "cd8183fb-5314-4300-b54a-06424b9f14eb"
  },
  {
    "id": "4fe5acca-1b5f-426b-9597-ff0d947f4254",
    "name": "Province of Como",
    "code": "CO",
    "country_id": "cd8183fb-5314-4300-b54a-06424b9f14eb"
  },
  {
    "id": "dde1c499-1a23-414e-9725-aa70a87b28d9",
    "name": "Province of Cosenza",
    "code": "CS",
    "country_id": "cd8183fb-5314-4300-b54a-06424b9f14eb"
  },
  {
    "id": "b479ac33-b921-48b5-af03-22616815ac7a",
    "name": "Province of Cremona",
    "code": "CR",
    "country_id": "cd8183fb-5314-4300-b54a-06424b9f14eb"
  },
  {
    "id": "ee2487c1-7c93-4db0-8a40-48111b268434",
    "name": "Province of Crotone",
    "code": "KR",
    "country_id": "cd8183fb-5314-4300-b54a-06424b9f14eb"
  },
  {
    "id": "1bd1ae85-7fae-45cc-82ef-7a266b78bdd8",
    "name": "Province of Cuneo",
    "code": "CN",
    "country_id": "cd8183fb-5314-4300-b54a-06424b9f14eb"
  },
  {
    "id": "3876f7b8-22a3-4679-995f-9f0b387aa2e5",
    "name": "Province of Fermo",
    "code": "FM",
    "country_id": "cd8183fb-5314-4300-b54a-06424b9f14eb"
  },
  {
    "id": "7a4164a3-b04e-46d2-8e9b-80dfe6529473",
    "name": "Province of Ferrara",
    "code": "FE",
    "country_id": "cd8183fb-5314-4300-b54a-06424b9f14eb"
  },
  {
    "id": "3f985354-4460-48c0-a2da-b838e6e90a1b",
    "name": "Province of Foggia",
    "code": "FG",
    "country_id": "cd8183fb-5314-4300-b54a-06424b9f14eb"
  },
  {
    "id": "196febb6-2a3a-4a54-8050-d1da1dfa79b0",
    "name": "Province of Forlì-Cesena",
    "code": "FC",
    "country_id": "cd8183fb-5314-4300-b54a-06424b9f14eb"
  },
  {
    "id": "92d0d4ef-3d8f-413e-9c4e-d3338e049903",
    "name": "Province of Frosinone",
    "code": "FR",
    "country_id": "cd8183fb-5314-4300-b54a-06424b9f14eb"
  },
  {
    "id": "627da360-409b-4b2f-b490-1292f8018adf",
    "name": "Province of Gorizia",
    "code": "GO",
    "country_id": "cd8183fb-5314-4300-b54a-06424b9f14eb"
  },
  {
    "id": "ec4819a6-1ace-4894-b098-1b665b56b90b",
    "name": "Province of Grosseto",
    "code": "GR",
    "country_id": "cd8183fb-5314-4300-b54a-06424b9f14eb"
  },
  {
    "id": "d132fbbc-f0a1-4f48-9fb4-24fc8c7fc59b",
    "name": "Province of Imperia",
    "code": "IM",
    "country_id": "cd8183fb-5314-4300-b54a-06424b9f14eb"
  },
  {
    "id": "622c5939-edd0-4d13-8c78-8605f1640383",
    "name": "Province of Isernia",
    "code": "IS",
    "country_id": "cd8183fb-5314-4300-b54a-06424b9f14eb"
  },
  {
    "id": "0d8574f5-76a7-44a5-8130-4b32ca8c441d",
    "name": "Province of L'Aquila",
    "code": "AQ",
    "country_id": "cd8183fb-5314-4300-b54a-06424b9f14eb"
  },
  {
    "id": "92cc4be8-2147-40c1-b8b7-75f246d4348a",
    "name": "Province of La Spezia",
    "code": "SP",
    "country_id": "cd8183fb-5314-4300-b54a-06424b9f14eb"
  },
  {
    "id": "c5cda002-be42-4d19-85a7-25e0f1ca8151",
    "name": "Province of Latina",
    "code": "LT",
    "country_id": "cd8183fb-5314-4300-b54a-06424b9f14eb"
  },
  {
    "id": "628253a8-146a-4fa2-8f62-3cd30b01a113",
    "name": "Province of Lecce",
    "code": "LE",
    "country_id": "cd8183fb-5314-4300-b54a-06424b9f14eb"
  },
  {
    "id": "fdf6dbdc-fb3f-4849-8666-0be941f2efc0",
    "name": "Province of Lecco",
    "code": "LC",
    "country_id": "cd8183fb-5314-4300-b54a-06424b9f14eb"
  },
  {
    "id": "887edb31-3776-4266-aa93-aae66de801f8",
    "name": "Province of Livorno",
    "code": "LI",
    "country_id": "cd8183fb-5314-4300-b54a-06424b9f14eb"
  },
  {
    "id": "e1f5db3f-9701-46b3-bc03-8c36e9f79a18",
    "name": "Province of Lodi",
    "code": "LO",
    "country_id": "cd8183fb-5314-4300-b54a-06424b9f14eb"
  },
  {
    "id": "567d109e-95bd-4472-aff5-50a8c29be23f",
    "name": "Province of Lucca",
    "code": "LU",
    "country_id": "cd8183fb-5314-4300-b54a-06424b9f14eb"
  },
  {
    "id": "38b36302-53fa-4c6d-b235-bc1549c0303d",
    "name": "Province of Macerata",
    "code": "MC",
    "country_id": "cd8183fb-5314-4300-b54a-06424b9f14eb"
  },
  {
    "id": "cdedf58c-0310-4bb0-83e9-b8780ebb2f91",
    "name": "Province of Mantua",
    "code": "MN",
    "country_id": "cd8183fb-5314-4300-b54a-06424b9f14eb"
  },
  {
    "id": "20005fa7-f4aa-4446-8f6d-b20d0224e552",
    "name": "Province of Massa and Carrara",
    "code": "MS",
    "country_id": "cd8183fb-5314-4300-b54a-06424b9f14eb"
  },
  {
    "id": "0ba02ec2-918d-4a52-984c-578f47e39c52",
    "name": "Province of Matera",
    "code": "MT",
    "country_id": "cd8183fb-5314-4300-b54a-06424b9f14eb"
  },
  {
    "id": "38600ac4-7d89-4b01-b160-aa20fb2f20c7",
    "name": "Province of Medio Campidano",
    "code": "VS",
    "country_id": "cd8183fb-5314-4300-b54a-06424b9f14eb"
  },
  {
    "id": "bab789c1-594c-4f6b-b0d6-772ad8d9411f",
    "name": "Province of Modena",
    "code": "MO",
    "country_id": "cd8183fb-5314-4300-b54a-06424b9f14eb"
  },
  {
    "id": "c0675c86-677e-483c-ac35-d7ac34ecdac2",
    "name": "Province of Monza and Brianza",
    "code": "MB",
    "country_id": "cd8183fb-5314-4300-b54a-06424b9f14eb"
  },
  {
    "id": "5edcfce8-d973-47d7-8232-25e46c75e7a2",
    "name": "Province of Novara",
    "code": "NO",
    "country_id": "cd8183fb-5314-4300-b54a-06424b9f14eb"
  },
  {
    "id": "966d6e2c-a904-4455-9956-a69edaa9cbef",
    "name": "Province of Nuoro",
    "code": "NU",
    "country_id": "cd8183fb-5314-4300-b54a-06424b9f14eb"
  },
  {
    "id": "f965c702-b963-483b-adc6-923ab6f90b4c",
    "name": "Province of Ogliastra",
    "code": "OG",
    "country_id": "cd8183fb-5314-4300-b54a-06424b9f14eb"
  },
  {
    "id": "5005f206-7b95-419a-9f53-3806e6b9e16e",
    "name": "Province of Olbia-Tempio",
    "code": "OT",
    "country_id": "cd8183fb-5314-4300-b54a-06424b9f14eb"
  },
  {
    "id": "6821d362-a07d-4ca8-bf9a-214b29b67bff",
    "name": "Province of Oristano",
    "code": "OR",
    "country_id": "cd8183fb-5314-4300-b54a-06424b9f14eb"
  },
  {
    "id": "c67e8197-66ac-4afa-b3f7-870831e08b4d",
    "name": "Province of Padua",
    "code": "PD",
    "country_id": "cd8183fb-5314-4300-b54a-06424b9f14eb"
  },
  {
    "id": "b44aec09-eb88-4115-be69-f5c0747f031f",
    "name": "Province of Parma",
    "code": "PR",
    "country_id": "cd8183fb-5314-4300-b54a-06424b9f14eb"
  },
  {
    "id": "bc750151-5ca9-4f4e-b8e4-6341b00be3bb",
    "name": "Province of Pavia",
    "code": "PV",
    "country_id": "cd8183fb-5314-4300-b54a-06424b9f14eb"
  },
  {
    "id": "a17fc3b3-1f7c-4ff1-a3d8-999202d3e426",
    "name": "Province of Perugia",
    "code": "PG",
    "country_id": "cd8183fb-5314-4300-b54a-06424b9f14eb"
  },
  {
    "id": "2314d39e-f0e5-4791-bebc-7a3dcf0bb12a",
    "name": "Province of Pescara",
    "code": "PE",
    "country_id": "cd8183fb-5314-4300-b54a-06424b9f14eb"
  },
  {
    "id": "8f7d0ada-9e47-4549-91c7-86018d00ca59",
    "name": "Province of Piacenza",
    "code": "PC",
    "country_id": "cd8183fb-5314-4300-b54a-06424b9f14eb"
  },
  {
    "id": "441955ef-1d8f-4086-a8f7-d13b556d9928",
    "name": "Province of Pisa",
    "code": "PI",
    "country_id": "cd8183fb-5314-4300-b54a-06424b9f14eb"
  },
  {
    "id": "54b89ded-8059-4237-8647-c300d6e44fe2",
    "name": "Province of Pistoia",
    "code": "PT",
    "country_id": "cd8183fb-5314-4300-b54a-06424b9f14eb"
  },
  {
    "id": "2db8e770-b680-4b28-8cd6-a03f874768ba",
    "name": "Province of Pordenone",
    "code": "PN",
    "country_id": "cd8183fb-5314-4300-b54a-06424b9f14eb"
  },
  {
    "id": "fee98fb9-3646-4d61-a79e-89af7d92d3f0",
    "name": "Province of Potenza",
    "code": "PZ",
    "country_id": "cd8183fb-5314-4300-b54a-06424b9f14eb"
  },
  {
    "id": "2aab1d4f-211b-48d1-bd5a-5c073d4aec0b",
    "name": "Province of Prato",
    "code": "PO",
    "country_id": "cd8183fb-5314-4300-b54a-06424b9f14eb"
  },
  {
    "id": "e5dd067f-cae6-4f82-8e68-49d2aa9bff53",
    "name": "Province of Ravenna",
    "code": "RA",
    "country_id": "cd8183fb-5314-4300-b54a-06424b9f14eb"
  },
  {
    "id": "c991cb10-e370-4d29-8481-595ff4992a31",
    "name": "Province of Reggio Emilia",
    "code": "RE",
    "country_id": "cd8183fb-5314-4300-b54a-06424b9f14eb"
  },
  {
    "id": "cd9beb1c-0075-4178-bdde-4ba19033e5c5",
    "name": "Province of Rieti",
    "code": "RI",
    "country_id": "cd8183fb-5314-4300-b54a-06424b9f14eb"
  },
  {
    "id": "31a2432b-3246-4ab9-bbaf-7c6c473358b9",
    "name": "Province of Rimini",
    "code": "RN",
    "country_id": "cd8183fb-5314-4300-b54a-06424b9f14eb"
  },
  {
    "id": "847cd53d-bd4a-41aa-817b-3ddb375cb91d",
    "name": "Province of Rovigo",
    "code": "RO",
    "country_id": "cd8183fb-5314-4300-b54a-06424b9f14eb"
  },
  {
    "id": "8c47d96f-badc-4771-b47a-da665e941212",
    "name": "Province of Salerno",
    "code": "SA",
    "country_id": "cd8183fb-5314-4300-b54a-06424b9f14eb"
  },
  {
    "id": "9f679286-535b-48c8-9e4d-c36a4866cd69",
    "name": "Province of Sassari",
    "code": "SS",
    "country_id": "cd8183fb-5314-4300-b54a-06424b9f14eb"
  },
  {
    "id": "a0132347-f2a4-4e65-a045-b9afc9b09233",
    "name": "Province of Savona",
    "code": "SV",
    "country_id": "cd8183fb-5314-4300-b54a-06424b9f14eb"
  },
  {
    "id": "ff7c2f9c-4ed9-4e69-a65e-96777eac919b",
    "name": "Province of Siena",
    "code": "SI",
    "country_id": "cd8183fb-5314-4300-b54a-06424b9f14eb"
  },
  {
    "id": "835e0994-e67b-4724-8ba9-7e8308124bd4",
    "name": "Province of Sondrio",
    "code": "SO",
    "country_id": "cd8183fb-5314-4300-b54a-06424b9f14eb"
  },
  {
    "id": "5ce1ccb5-9f8c-446b-beb0-0c5d25331fed",
    "name": "Province of Taranto",
    "code": "TA",
    "country_id": "cd8183fb-5314-4300-b54a-06424b9f14eb"
  },
  {
    "id": "aa871820-ed1b-4ee5-987c-a2ebf6c0760c",
    "name": "Province of Teramo",
    "code": "TE",
    "country_id": "cd8183fb-5314-4300-b54a-06424b9f14eb"
  },
  {
    "id": "cfa08328-0d0d-4d39-b28a-37ef0e42a4aa",
    "name": "Province of Terni",
    "code": "TR",
    "country_id": "cd8183fb-5314-4300-b54a-06424b9f14eb"
  },
  {
    "id": "427047ac-203d-4c2b-bf10-b6af0cb60e1d",
    "name": "Province of Treviso",
    "code": "TV",
    "country_id": "cd8183fb-5314-4300-b54a-06424b9f14eb"
  },
  {
    "id": "7e6ed217-910f-4f94-b1ae-63702264ac06",
    "name": "Province of Trieste",
    "code": "TS",
    "country_id": "cd8183fb-5314-4300-b54a-06424b9f14eb"
  },
  {
    "id": "8de6ef9f-6c92-456e-af79-5ead3e96c469",
    "name": "Province of Udine",
    "code": "UD",
    "country_id": "cd8183fb-5314-4300-b54a-06424b9f14eb"
  },
  {
    "id": "0a9adfdd-e453-4463-bf3a-7b5f32b6045b",
    "name": "Province of Varese",
    "code": "VA",
    "country_id": "cd8183fb-5314-4300-b54a-06424b9f14eb"
  },
  {
    "id": "1b9e093a-e7ed-48c6-b10c-189acd5f569a",
    "name": "Province of Verbano-Cusio-Ossola",
    "code": "VB",
    "country_id": "cd8183fb-5314-4300-b54a-06424b9f14eb"
  },
  {
    "id": "8e3a954b-7a91-4c83-86ab-c4c30801ad2d",
    "name": "Province of Vercelli",
    "code": "VC",
    "country_id": "cd8183fb-5314-4300-b54a-06424b9f14eb"
  },
  {
    "id": "f632ec76-da8d-4f62-bf48-1d4d9c46803b",
    "name": "Province of Verona",
    "code": "VR",
    "country_id": "cd8183fb-5314-4300-b54a-06424b9f14eb"
  },
  {
    "id": "92d2d0e5-2be7-46fe-9184-4a3678e5d351",
    "name": "Province of Vibo Valentia",
    "code": "VV",
    "country_id": "cd8183fb-5314-4300-b54a-06424b9f14eb"
  },
  {
    "id": "d57e79cd-fb96-47e7-aaba-b5416906ae6e",
    "name": "Province of Vicenza",
    "code": "VI",
    "country_id": "cd8183fb-5314-4300-b54a-06424b9f14eb"
  },
  {
    "id": "44b78c2f-37da-4e0c-b8bc-93e34484756f",
    "name": "Province of Viterbo",
    "code": "VT",
    "country_id": "cd8183fb-5314-4300-b54a-06424b9f14eb"
  },
  {
    "id": "211673f6-f60b-4add-aca7-8453881bad09",
    "name": "Sardinia",
    "code": "88",
    "country_id": "cd8183fb-5314-4300-b54a-06424b9f14eb"
  },
  {
    "id": "d2da63f1-456c-4405-8e5f-605b8139460e",
    "name": "Sicily",
    "code": "82",
    "country_id": "cd8183fb-5314-4300-b54a-06424b9f14eb"
  },
  {
    "id": "d824e1ca-379d-4375-adde-76f0ee3cb903",
    "name": "South Tyrol",
    "code": "BZ",
    "country_id": "cd8183fb-5314-4300-b54a-06424b9f14eb"
  },
  {
    "id": "213c28fa-fb78-47a5-964a-6de21e4f5110",
    "name": "Trentino",
    "code": "TN",
    "country_id": "cd8183fb-5314-4300-b54a-06424b9f14eb"
  },
  {
    "id": "eae8070f-6092-4a11-8ed2-b511c4901456",
    "name": "Trentino-South Tyrol",
    "code": "32",
    "country_id": "cd8183fb-5314-4300-b54a-06424b9f14eb"
  },
  {
    "id": "24e1168a-6635-40cd-a2df-391a7f101510",
    "name": "Tuscany",
    "code": "52",
    "country_id": "cd8183fb-5314-4300-b54a-06424b9f14eb"
  },
  {
    "id": "58602860-ba9b-420f-abef-8b50ca24fcbb",
    "name": "Umbria",
    "code": "55",
    "country_id": "cd8183fb-5314-4300-b54a-06424b9f14eb"
  },
  {
    "id": "f7acee28-facd-4ba9-bf2a-cecbec1d401a",
    "name": "Veneto",
    "code": "34",
    "country_id": "cd8183fb-5314-4300-b54a-06424b9f14eb"
  }
]