[
  {
    "id": "f41bfc3a-20b8-49cc-90ab-872205889a0c",
    "name": "Andrijevica Municipality",
    "code": "01",
    "country_id": "dfdef279-f1c0-4f9a-ab37-cd0ce2552f3a"
  },
  {
    "id": "75209c3a-648c-4960-8693-ac3cff799f51",
    "name": "Bar Municipality",
    "code": "02",
    "country_id": "dfdef279-f1c0-4f9a-ab37-cd0ce2552f3a"
  },
  {
    "id": "75ad67a6-a283-4dd7-91c7-c656a5932752",
    "name": "Berane Municipality",
    "code": "03",
    "country_id": "dfdef279-f1c0-4f9a-ab37-cd0ce2552f3a"
  },
  {
    "id": "251cff87-f51a-4291-924b-273dbd33b73b",
    "name": "Bijelo Polje Municipality",
    "code": "04",
    "country_id": "dfdef279-f1c0-4f9a-ab37-cd0ce2552f3a"
  },
  {
    "id": "2f3ac9b1-4181-40d7-8790-9d020e4ade35",
    "name": "Budva Municipality",
    "code": "05",
    "country_id": "dfdef279-f1c0-4f9a-ab37-cd0ce2552f3a"
  },
  {
    "id": "ee1e8159-405b-4c8b-bc5d-29655892e3b8",
    "name": "Danilovgrad Municipality",
    "code": "07",
    "country_id": "dfdef279-f1c0-4f9a-ab37-cd0ce2552f3a"
  },
  {
    "id": "fb11d8a1-e872-4eb8-8f58-c77feab80cce",
    "name": "Gusinje Municipality",
    "code": "22",
    "country_id": "dfdef279-f1c0-4f9a-ab37-cd0ce2552f3a"
  },
  {
    "id": "739b1403-3299-49d8-8566-4f439a569e4b",
    "name": "Kolašin Municipality",
    "code": "09",
    "country_id": "dfdef279-f1c0-4f9a-ab37-cd0ce2552f3a"
  },
  {
    "id": "e1bdc9b9-0219-4772-a018-227ac5927a4a",
    "name": "Kotor Municipality",
    "code": "10",
    "country_id": "dfdef279-f1c0-4f9a-ab37-cd0ce2552f3a"
  },
  {
    "id": "06a42d19-45c9-48d8-915e-125e0a98b9c8",
    "name": "Mojkovac Municipality",
    "code": "11",
    "country_id": "dfdef279-f1c0-4f9a-ab37-cd0ce2552f3a"
  },
  {
    "id": "d48fe933-ad40-480f-8d3d-75e3f1ccf992",
    "name": "Nikšić Municipality",
    "code": "12",
    "country_id": "dfdef279-f1c0-4f9a-ab37-cd0ce2552f3a"
  },
  {
    "id": "e65c326e-de28-44f5-af81-acfadb705fdd",
    "name": "Old Royal Capital Cetinje",
    "code": "06",
    "country_id": "dfdef279-f1c0-4f9a-ab37-cd0ce2552f3a"
  },
  {
    "id": "2ac3d907-06b8-4286-8d99-f7d46a6d8e41",
    "name": "Petnjica Municipality",
    "code": "23",
    "country_id": "dfdef279-f1c0-4f9a-ab37-cd0ce2552f3a"
  },
  {
    "id": "ebcbb315-cf3c-4405-abd2-a0edaa82490f",
    "name": "Plav Municipality",
    "code": "13",
    "country_id": "dfdef279-f1c0-4f9a-ab37-cd0ce2552f3a"
  },
  {
    "id": "5e98aebc-cf94-43c9-a36d-83ad39d7eca3",
    "name": "Pljevlja Municipality",
    "code": "14",
    "country_id": "dfdef279-f1c0-4f9a-ab37-cd0ce2552f3a"
  },
  {
    "id": "f418b96f-52be-496f-b0a3-b0a5e483875c",
    "name": "Plužine Municipality",
    "code": "15",
    "country_id": "dfdef279-f1c0-4f9a-ab37-cd0ce2552f3a"
  },
  {
    "id": "b8a50502-14bb-4933-9108-b54729dc487b",
    "name": "Podgorica Municipality",
    "code": "16",
    "country_id": "dfdef279-f1c0-4f9a-ab37-cd0ce2552f3a"
  },
  {
    "id": "57602af3-66ed-4467-b843-e5ac3388fd13",
    "name": "Rožaje Municipality",
    "code": "17",
    "country_id": "dfdef279-f1c0-4f9a-ab37-cd0ce2552f3a"
  },
  {
    "id": "c1b78827-d40b-4487-8cc0-1335cec05c6d",
    "name": "Šavnik Municipality",
    "code": "18",
    "country_id": "dfdef279-f1c0-4f9a-ab37-cd0ce2552f3a"
  },
  {
    "id": "9a32d3f2-c759-462b-9383-f7b7bbbfd9d0",
    "name": "Tivat Municipality",
    "code": "19",
    "country_id": "dfdef279-f1c0-4f9a-ab37-cd0ce2552f3a"
  },
  {
    "id": "0172e2d5-8b35-46fe-b2f9-d9bae9a207c6",
    "name": "Ulcinj Municipality",
    "code": "20",
    "country_id": "dfdef279-f1c0-4f9a-ab37-cd0ce2552f3a"
  },
  {
    "id": "ae7ee4b1-c8c2-4a57-b5fe-29ea8154f4ad",
    "name": "Žabljak Municipality",
    "code": "21",
    "country_id": "dfdef279-f1c0-4f9a-ab37-cd0ce2552f3a"
  }
]