[
  {
    "id": "f4943121-6640-4884-b52c-26509eb28672",
    "name": "Akmola Region",
    "code": "AKM",
    "country_id": "e00467b6-8c31-4efa-9e1c-42fd79334d63"
  },
  {
    "id": "f4abcd96-1ec9-41e3-aa3f-ed12b4d308dc",
    "name": "Aktobe Region",
    "code": "AKT",
    "country_id": "e00467b6-8c31-4efa-9e1c-42fd79334d63"
  },
  {
    "id": "3804b0fd-6b74-42c4-a0cf-226a32cfdc32",
    "name": "Almaty",
    "code": "ALA",
    "country_id": "e00467b6-8c31-4efa-9e1c-42fd79334d63"
  },
  {
    "id": "8024ed8a-73d2-47b5-97aa-ef93f439cf6b",
    "name": "Almaty Region",
    "code": "ALM",
    "country_id": "e00467b6-8c31-4efa-9e1c-42fd79334d63"
  },
  {
    "id": "aae72564-0ee3-49a0-8378-27edc7c06349",
    "name": "Atyrau Region",
    "code": "ATY",
    "country_id": "e00467b6-8c31-4efa-9e1c-42fd79334d63"
  },
  {
    "id": "1d3caa48-a797-480d-b3cd-57955a68c17f",
    "name": "Baikonur",
    "code": "BAY",
    "country_id": "e00467b6-8c31-4efa-9e1c-42fd79334d63"
  },
  {
    "id": "76c757bd-9af0-4d98-8f30-21c384b7e08d",
    "name": "East Kazakhstan Region",
    "code": "VOS",
    "country_id": "e00467b6-8c31-4efa-9e1c-42fd79334d63"
  },
  {
    "id": "19dafadb-6063-4cde-b517-ec46aebe522b",
    "name": "Jambyl Region",
    "code": "ZHA",
    "country_id": "e00467b6-8c31-4efa-9e1c-42fd79334d63"
  },
  {
    "id": "139951c4-ef1a-4ef6-8b30-fee82bd1f303",
    "name": "Karaganda Region",
    "code": "KAR",
    "country_id": "e00467b6-8c31-4efa-9e1c-42fd79334d63"
  },
  {
    "id": "29f15c41-9d7c-478e-9e65-cca663bd2fb5",
    "name": "Kostanay Region",
    "code": "KUS",
    "country_id": "e00467b6-8c31-4efa-9e1c-42fd79334d63"
  },
  {
    "id": "84047596-c594-4187-b50c-9ea42075be6f",
    "name": "Kyzylorda Region",
    "code": "KZY",
    "country_id": "e00467b6-8c31-4efa-9e1c-42fd79334d63"
  },
  {
    "id": "c94ae19d-2b87-4c38-9302-a9aa478ef4f0",
    "name": "Mangystau Region",
    "code": "MAN",
    "country_id": "e00467b6-8c31-4efa-9e1c-42fd79334d63"
  },
  {
    "id": "95b00df5-a8c8-484d-8f89-1bec1f4d6bcc",
    "name": "North Kazakhstan Region",
    "code": "SEV",
    "country_id": "e00467b6-8c31-4efa-9e1c-42fd79334d63"
  },
  {
    "id": "52b5888f-e37f-4e49-a485-8053695604af",
    "name": "Nur-Sultan",
    "code": "AST",
    "country_id": "e00467b6-8c31-4efa-9e1c-42fd79334d63"
  },
  {
    "id": "48fb1fa6-3bd6-419a-8793-e48c0da1f83c",
    "name": "Pavlodar Region",
    "code": "PAV",
    "country_id": "e00467b6-8c31-4efa-9e1c-42fd79334d63"
  },
  {
    "id": "3129a251-13cb-49e2-b9e3-2e5b66f3825a",
    "name": "Turkestan Region",
    "code": "YUZ",
    "country_id": "e00467b6-8c31-4efa-9e1c-42fd79334d63"
  },
  {
    "id": "0db069eb-9f96-4d62-bcb7-3d4ceab9a95d",
    "name": "West Kazakhstan Province",
    "code": "ZAP",
    "country_id": "e00467b6-8c31-4efa-9e1c-42fd79334d63"
  }
]