[
  {
    "id": "f2eb0b0e-1f4c-4fe3-9545-c3ce17d66ae4",
    "name": "Bamingui-Bangoran Prefecture",
    "code": "BB",
    "country_id": "e22697b5-f14e-4788-8776-49a80167bd3c"
  },
  {
    "id": "caa86cb1-f1a0-4e7c-a55e-8a0d6e02c29b",
    "name": "Bangui",
    "code": "BGF",
    "country_id": "e22697b5-f14e-4788-8776-49a80167bd3c"
  },
  {
    "id": "72db0e91-0bd2-44b2-986f-e3f86cdf9ee6",
    "name": "Basse-Kotto Prefecture",
    "code": "BK",
    "country_id": "e22697b5-f14e-4788-8776-49a80167bd3c"
  },
  {
    "id": "89c0eef2-ccd2-4eaf-b7e4-2f5f355a9c48",
    "name": "Haut-Mbomou Prefecture",
    "code": "HM",
    "country_id": "e22697b5-f14e-4788-8776-49a80167bd3c"
  },
  {
    "id": "37c73141-424d-4be5-948f-d52e4e9844b2",
    "name": "Haute-Kotto Prefecture",
    "code": "HK",
    "country_id": "e22697b5-f14e-4788-8776-49a80167bd3c"
  },
  {
    "id": "f3b91393-43ee-4e15-a3a6-2cb6013e300e",
    "name": "Kémo Prefecture",
    "code": "KG",
    "country_id": "e22697b5-f14e-4788-8776-49a80167bd3c"
  },
  {
    "id": "57de1f02-450b-4ce3-a8cc-b89dcc652f87",
    "name": "Lobaye Prefecture",
    "code": "LB",
    "country_id": "e22697b5-f14e-4788-8776-49a80167bd3c"
  },
  {
    "id": "93ad69e4-d648-4232-ab36-ebfb053c4e8c",
    "name": "Mambéré-Kadéï",
    "code": "HS",
    "country_id": "e22697b5-f14e-4788-8776-49a80167bd3c"
  },
  {
    "id": "ecca4cbe-ad5d-4aee-bd3e-5d8444f0b6aa",
    "name": "Mbomou Prefecture",
    "code": "MB",
    "country_id": "e22697b5-f14e-4788-8776-49a80167bd3c"
  },
  {
    "id": "4e4e26d6-1127-4d3b-b6d6-c0ab412289c1",
    "name": "Nana-Grébizi Economic Prefecture",
    "code": "KB",
    "country_id": "e22697b5-f14e-4788-8776-49a80167bd3c"
  },
  {
    "id": "46e60799-c8d9-49f6-9820-ffb001c587ff",
    "name": "Nana-Mambéré Prefecture",
    "code": "NM",
    "country_id": "e22697b5-f14e-4788-8776-49a80167bd3c"
  },
  {
    "id": "dd248697-60ec-4280-b87b-dd1f555589b7",
    "name": "Ombella-M'Poko Prefecture",
    "code": "MP",
    "country_id": "e22697b5-f14e-4788-8776-49a80167bd3c"
  },
  {
    "id": "dcd6b81b-4632-4a60-b1c4-841fd1f6dee2",
    "name": "Ouaka Prefecture",
    "code": "UK",
    "country_id": "e22697b5-f14e-4788-8776-49a80167bd3c"
  },
  {
    "id": "6f35026e-fbcf-4345-a0e9-5bcbed141ef9",
    "name": "Ouham Prefecture",
    "code": "AC",
    "country_id": "e22697b5-f14e-4788-8776-49a80167bd3c"
  },
  {
    "id": "a1bfd06a-e49f-4eaa-b507-067ec80f04c6",
    "name": "Ouham-Pendé Prefecture",
    "code": "OP",
    "country_id": "e22697b5-f14e-4788-8776-49a80167bd3c"
  },
  {
    "id": "543fc56b-e229-4492-abc5-a21ace39f3b1",
    "name": "Sangha-Mbaéré",
    "code": "SE",
    "country_id": "e22697b5-f14e-4788-8776-49a80167bd3c"
  },
  {
    "id": "e246395a-9b4f-44aa-a151-a92a6c7ffedf",
    "name": "Vakaga Prefecture",
    "code": "VK",
    "country_id": "e22697b5-f14e-4788-8776-49a80167bd3c"
  }
]