[
  {
    "id": "837da71f-ff75-4717-b331-6dddb2d60fc7",
    "name": "Alto Paraguay Department",
    "code": "16",
    "country_id": "f1f52009-64a8-4d98-b2fb-7a4270ba4489"
  },
  {
    "id": "40bc1131-24c1-40c7-8ec9-65fee63e39fe",
    "name": "Alto Paraná Department",
    "code": "10",
    "country_id": "f1f52009-64a8-4d98-b2fb-7a4270ba4489"
  },
  {
    "id": "5c9ac036-e9f4-4e04-9cd0-0cb06d48eb23",
    "name": "Amambay Department",
    "code": "13",
    "country_id": "f1f52009-64a8-4d98-b2fb-7a4270ba4489"
  },
  {
    "id": "518a3704-7eb5-464c-a993-79c9b45f2ba0",
    "name": "Boquerón Department",
    "code": "19",
    "country_id": "f1f52009-64a8-4d98-b2fb-7a4270ba4489"
  },
  {
    "id": "1ebcc178-ed38-44b6-b08b-ae4654b4735a",
    "name": "Caaguazú",
    "code": "5",
    "country_id": "f1f52009-64a8-4d98-b2fb-7a4270ba4489"
  },
  {
    "id": "f3a98216-3876-41a9-83df-53f06ffaa039",
    "name": "Caazapá",
    "code": "6",
    "country_id": "f1f52009-64a8-4d98-b2fb-7a4270ba4489"
  },
  {
    "id": "375177c4-dde5-4b1c-8466-3ef7da48b6ec",
    "name": "Canindeyú",
    "code": "14",
    "country_id": "f1f52009-64a8-4d98-b2fb-7a4270ba4489"
  },
  {
    "id": "85cea3cc-e3ef-42c9-accf-62cc157df24d",
    "name": "Central Department",
    "code": "11",
    "country_id": "f1f52009-64a8-4d98-b2fb-7a4270ba4489"
  },
  {
    "id": "f3290c69-96da-4ac9-bbca-405703a16c83",
    "name": "Concepción Department",
    "code": "1",
    "country_id": "f1f52009-64a8-4d98-b2fb-7a4270ba4489"
  },
  {
    "id": "c7dd8e1c-c7fc-42b1-b58b-9efbc5bc2dba",
    "name": "Cordillera Department",
    "code": "3",
    "country_id": "f1f52009-64a8-4d98-b2fb-7a4270ba4489"
  },
  {
    "id": "643bc682-ec3f-44d5-a9fd-9c2090100f6c",
    "name": "Guairá Department",
    "code": "4",
    "country_id": "f1f52009-64a8-4d98-b2fb-7a4270ba4489"
  },
  {
    "id": "b5ffcd58-7a42-425b-af3a-3fa1dd037481",
    "name": "Itapúa",
    "code": "7",
    "country_id": "f1f52009-64a8-4d98-b2fb-7a4270ba4489"
  },
  {
    "id": "c590111a-c82c-4c76-b11a-a1dd0e685de5",
    "name": "Misiones Department",
    "code": "8",
    "country_id": "f1f52009-64a8-4d98-b2fb-7a4270ba4489"
  },
  {
    "id": "9ebc94e6-45bc-4dce-84fe-ad03d49189e1",
    "name": "Ñeembucú Department",
    "code": "12",
    "country_id": "f1f52009-64a8-4d98-b2fb-7a4270ba4489"
  },
  {
    "id": "4fab71e5-b002-47a6-86c3-37b47fcefaf5",
    "name": "Paraguarí Department",
    "code": "9",
    "country_id": "f1f52009-64a8-4d98-b2fb-7a4270ba4489"
  },
  {
    "id": "69e55713-68b5-42ab-9b24-6392be4db1c6",
    "name": "Presidente Hayes Department",
    "code": "15",
    "country_id": "f1f52009-64a8-4d98-b2fb-7a4270ba4489"
  },
  {
    "id": "1e8889c3-0b39-47ae-a96f-6f8e61c1d6a3",
    "name": "San Pedro Department",
    "code": "2",
    "country_id": "f1f52009-64a8-4d98-b2fb-7a4270ba4489"
  }
]