[
  {
    "id": "0c5eccb1-0f2c-438a-ac1d-093832236422",
    "name": "Ajdovščina Municipality",
    "code": "001",
    "country_id": "f4fdefcb-a418-4c28-86c8-edaaa00e7d20"
  },
  {
    "id": "0e901797-754b-4bcd-9447-b50746cd71e8",
    "name": "Ankaran Municipality",
    "code": "213",
    "country_id": "f4fdefcb-a418-4c28-86c8-edaaa00e7d20"
  },
  {
    "id": "590fa19d-78a3-41cf-8026-7050acad68e6",
    "name": "Beltinci Municipality",
    "code": "002",
    "country_id": "f4fdefcb-a418-4c28-86c8-edaaa00e7d20"
  },
  {
    "id": "888d1342-375c-4257-9609-989715ef7856",
    "name": "Benedikt Municipality",
    "code": "148",
    "country_id": "f4fdefcb-a418-4c28-86c8-edaaa00e7d20"
  },
  {
    "id": "52b4cc80-4489-4129-904e-e400705c030a",
    "name": "Bistrica ob Sotli Municipality",
    "code": "149",
    "country_id": "f4fdefcb-a418-4c28-86c8-edaaa00e7d20"
  },
  {
    "id": "f0400f93-60a3-4106-9278-e6dc0803f52e",
    "name": "Bled Municipality",
    "code": "003",
    "country_id": "f4fdefcb-a418-4c28-86c8-edaaa00e7d20"
  },
  {
    "id": "b0229be4-5249-4fbd-ae76-006736bb2dc0",
    "name": "Bloke Municipality",
    "code": "150",
    "country_id": "f4fdefcb-a418-4c28-86c8-edaaa00e7d20"
  },
  {
    "id": "33e2fa7a-0c82-440b-8bcc-f87c7c06c3ba",
    "name": "Bohinj Municipality",
    "code": "004",
    "country_id": "f4fdefcb-a418-4c28-86c8-edaaa00e7d20"
  },
  {
    "id": "67c07bc4-3fc5-4387-a62a-f779ab1ac4f9",
    "name": "Borovnica Municipality",
    "code": "005",
    "country_id": "f4fdefcb-a418-4c28-86c8-edaaa00e7d20"
  },
  {
    "id": "4e3195e0-bed1-4d0a-9ca8-d1ada8c1381d",
    "name": "Bovec Municipality",
    "code": "006",
    "country_id": "f4fdefcb-a418-4c28-86c8-edaaa00e7d20"
  },
  {
    "id": "3198cfe3-d1d1-488b-b268-46082251d7a2",
    "name": "Braslovče Municipality",
    "code": "151",
    "country_id": "f4fdefcb-a418-4c28-86c8-edaaa00e7d20"
  },
  {
    "id": "5c998400-d3ca-4d6c-ba23-b8bd9d81bca5",
    "name": "Brda Municipality",
    "code": "007",
    "country_id": "f4fdefcb-a418-4c28-86c8-edaaa00e7d20"
  },
  {
    "id": "bbedb964-72b4-492f-a2fd-fe94c2013efa",
    "name": "Brežice Municipality",
    "code": "009",
    "country_id": "f4fdefcb-a418-4c28-86c8-edaaa00e7d20"
  },
  {
    "id": "85606e30-2f95-4ec9-a59d-02f9223e5a95",
    "name": "Brezovica Municipality",
    "code": "008",
    "country_id": "f4fdefcb-a418-4c28-86c8-edaaa00e7d20"
  },
  {
    "id": "6353b248-a677-461c-90c4-287b6014c733",
    "name": "Cankova Municipality",
    "code": "152",
    "country_id": "f4fdefcb-a418-4c28-86c8-edaaa00e7d20"
  },
  {
    "id": "e0cbcbb1-ad10-4b06-ae98-f88486c9f1d6",
    "name": "Cerklje na Gorenjskem Municipality",
    "code": "012",
    "country_id": "f4fdefcb-a418-4c28-86c8-edaaa00e7d20"
  },
  {
    "id": "f3605188-dbde-4663-8acb-49fc938685f7",
    "name": "Cerknica Municipality",
    "code": "013",
    "country_id": "f4fdefcb-a418-4c28-86c8-edaaa00e7d20"
  },
  {
    "id": "5d718a78-c80e-4406-a4d2-4060a2bc7751",
    "name": "Cerkno Municipality",
    "code": "014",
    "country_id": "f4fdefcb-a418-4c28-86c8-edaaa00e7d20"
  },
  {
    "id": "ce2b898f-8706-4a7d-897e-9c0fcd96c159",
    "name": "Cerkvenjak Municipality",
    "code": "153",
    "country_id": "f4fdefcb-a418-4c28-86c8-edaaa00e7d20"
  },
  {
    "id": "437d083b-1792-4cb4-bb03-bb197d4e6f74",
    "name": "City Municipality of Celje",
    "code": "011",
    "country_id": "f4fdefcb-a418-4c28-86c8-edaaa00e7d20"
  },
  {
    "id": "7606c595-144f-4485-bb0c-47198eb729d2",
    "name": "City Municipality of Novo Mesto",
    "code": "085",
    "country_id": "f4fdefcb-a418-4c28-86c8-edaaa00e7d20"
  },
  {
    "id": "a4fe3e7e-45a5-4b06-8c41-63f73d1e1f6e",
    "name": "Črenšovci Municipality",
    "code": "015",
    "country_id": "f4fdefcb-a418-4c28-86c8-edaaa00e7d20"
  },
  {
    "id": "e5a5e064-b6f3-434f-8bdf-ab09e167aa8c",
    "name": "Črna na Koroškem Municipality",
    "code": "016",
    "country_id": "f4fdefcb-a418-4c28-86c8-edaaa00e7d20"
  },
  {
    "id": "b77b46e0-ef0a-4528-94f2-8728ebf45a5e",
    "name": "Črnomelj Municipality",
    "code": "017",
    "country_id": "f4fdefcb-a418-4c28-86c8-edaaa00e7d20"
  },
  {
    "id": "8a707fb3-63a3-4623-bf0b-ebcae8ab4846",
    "name": "Destrnik Municipality",
    "code": "018",
    "country_id": "f4fdefcb-a418-4c28-86c8-edaaa00e7d20"
  },
  {
    "id": "eb69ac42-8c5f-42d2-b921-7cd8ecf8dcf8",
    "name": "Divača Municipality",
    "code": "019",
    "country_id": "f4fdefcb-a418-4c28-86c8-edaaa00e7d20"
  },
  {
    "id": "12a70798-2c35-4bfb-bee4-6041ecfc216d",
    "name": "Dobje Municipality",
    "code": "154",
    "country_id": "f4fdefcb-a418-4c28-86c8-edaaa00e7d20"
  },
  {
    "id": "986f39e4-5952-4763-b604-5038290d928c",
    "name": "Dobrepolje Municipality",
    "code": "020",
    "country_id": "f4fdefcb-a418-4c28-86c8-edaaa00e7d20"
  },
  {
    "id": "dd595893-658f-415e-bd7b-33b2e0dcf0ca",
    "name": "Dobrna Municipality",
    "code": "155",
    "country_id": "f4fdefcb-a418-4c28-86c8-edaaa00e7d20"
  },
  {
    "id": "f14bc5d7-a745-4100-911a-f4763c7eb752",
    "name": "Dobrova–Polhov Gradec Municipality",
    "code": "021",
    "country_id": "f4fdefcb-a418-4c28-86c8-edaaa00e7d20"
  },
  {
    "id": "eddc8dc8-a833-489a-8338-ea42bcdddc83",
    "name": "Dobrovnik Municipality",
    "code": "156",
    "country_id": "f4fdefcb-a418-4c28-86c8-edaaa00e7d20"
  },
  {
    "id": "1e52292b-8ce6-43d1-a0fa-e110f8f1fd44",
    "name": "Dol pri Ljubljani Municipality",
    "code": "022",
    "country_id": "f4fdefcb-a418-4c28-86c8-edaaa00e7d20"
  },
  {
    "id": "862af43c-f387-4746-ae45-49f5cf88698c",
    "name": "Dolenjske Toplice Municipality",
    "code": "157",
    "country_id": "f4fdefcb-a418-4c28-86c8-edaaa00e7d20"
  },
  {
    "id": "7d862be6-6113-4787-bf54-fbb0e8a15d39",
    "name": "Domžale Municipality",
    "code": "023",
    "country_id": "f4fdefcb-a418-4c28-86c8-edaaa00e7d20"
  },
  {
    "id": "1d696a17-f8f3-4e44-b229-249fd002b499",
    "name": "Dornava Municipality",
    "code": "024",
    "country_id": "f4fdefcb-a418-4c28-86c8-edaaa00e7d20"
  },
  {
    "id": "dfda970a-2c2e-4216-bfe5-6a9a945e9d66",
    "name": "Dravograd Municipality",
    "code": "025",
    "country_id": "f4fdefcb-a418-4c28-86c8-edaaa00e7d20"
  },
  {
    "id": "5aacdad1-6f18-4ef4-833d-745258d1399c",
    "name": "Duplek Municipality",
    "code": "026",
    "country_id": "f4fdefcb-a418-4c28-86c8-edaaa00e7d20"
  },
  {
    "id": "6729b450-1c2e-4986-965c-507d2c282dcc",
    "name": "Gorenja Vas–Poljane Municipality",
    "code": "027",
    "country_id": "f4fdefcb-a418-4c28-86c8-edaaa00e7d20"
  },
  {
    "id": "79671c30-a2a6-4b14-8e9f-da48ef38b60a",
    "name": "Gorišnica Municipality",
    "code": "028",
    "country_id": "f4fdefcb-a418-4c28-86c8-edaaa00e7d20"
  },
  {
    "id": "9d89f348-2820-4b92-b321-a3c641ac89d0",
    "name": "Gorje Municipality",
    "code": "207",
    "country_id": "f4fdefcb-a418-4c28-86c8-edaaa00e7d20"
  },
  {
    "id": "1d77b4b0-415a-431d-950c-a1efc0a1f084",
    "name": "Gornja Radgona Municipality",
    "code": "029",
    "country_id": "f4fdefcb-a418-4c28-86c8-edaaa00e7d20"
  },
  {
    "id": "fd575048-1142-4d88-aca0-1b66db8d88ef",
    "name": "Gornji Grad Municipality",
    "code": "030",
    "country_id": "f4fdefcb-a418-4c28-86c8-edaaa00e7d20"
  },
  {
    "id": "092f0d72-48f5-4750-8329-84f456bb8144",
    "name": "Gornji Petrovci Municipality",
    "code": "031",
    "country_id": "f4fdefcb-a418-4c28-86c8-edaaa00e7d20"
  },
  {
    "id": "5b041ded-11b2-4fff-bd30-4df79183bb0f",
    "name": "Grad Municipality",
    "code": "158",
    "country_id": "f4fdefcb-a418-4c28-86c8-edaaa00e7d20"
  },
  {
    "id": "8f089eb7-e138-4df4-b5d6-c8518c307a17",
    "name": "Grosuplje Municipality",
    "code": "032",
    "country_id": "f4fdefcb-a418-4c28-86c8-edaaa00e7d20"
  },
  {
    "id": "18ced64d-7ae2-4f8c-a872-d315a425c7f0",
    "name": "Hajdina Municipality",
    "code": "159",
    "country_id": "f4fdefcb-a418-4c28-86c8-edaaa00e7d20"
  },
  {
    "id": "77cc7bd1-dd16-4ee9-9d35-a007151a35b3",
    "name": "Hoče–Slivnica Municipality",
    "code": "160",
    "country_id": "f4fdefcb-a418-4c28-86c8-edaaa00e7d20"
  },
  {
    "id": "492cff67-e8b8-4e4d-9cfa-d4505f03768b",
    "name": "Hodoš Municipality",
    "code": "161",
    "country_id": "f4fdefcb-a418-4c28-86c8-edaaa00e7d20"
  },
  {
    "id": "136ad15b-a8b5-4e90-b418-cdacb3bce7fc",
    "name": "Horjul Municipality",
    "code": "162",
    "country_id": "f4fdefcb-a418-4c28-86c8-edaaa00e7d20"
  },
  {
    "id": "e58259ae-ea92-4124-adc3-968cb1ee1577",
    "name": "Hrastnik Municipality",
    "code": "034",
    "country_id": "f4fdefcb-a418-4c28-86c8-edaaa00e7d20"
  },
  {
    "id": "afd202d2-5bb5-4c4b-8af4-14ea722f025d",
    "name": "Hrpelje–Kozina Municipality",
    "code": "035",
    "country_id": "f4fdefcb-a418-4c28-86c8-edaaa00e7d20"
  },
  {
    "id": "4251ef16-7168-4906-8e72-e02c02bb0076",
    "name": "Idrija Municipality",
    "code": "036",
    "country_id": "f4fdefcb-a418-4c28-86c8-edaaa00e7d20"
  },
  {
    "id": "826fb9b8-d392-4a3e-b6b7-150229eda32e",
    "name": "Ig Municipality",
    "code": "037",
    "country_id": "f4fdefcb-a418-4c28-86c8-edaaa00e7d20"
  },
  {
    "id": "5f5a4cd1-9c39-49e7-9104-860b5eecbcf4",
    "name": "Ivančna Gorica Municipality",
    "code": "039",
    "country_id": "f4fdefcb-a418-4c28-86c8-edaaa00e7d20"
  },
  {
    "id": "e24cbccd-cdd0-48e6-b667-e590b11fe3a7",
    "name": "Izola Municipality",
    "code": "040",
    "country_id": "f4fdefcb-a418-4c28-86c8-edaaa00e7d20"
  },
  {
    "id": "fa7f4e22-332a-4946-a246-fc0c7d4c2e0b",
    "name": "Jesenice Municipality",
    "code": "041",
    "country_id": "f4fdefcb-a418-4c28-86c8-edaaa00e7d20"
  },
  {
    "id": "f8d8153d-281a-4b6d-8662-79a1d4efd4c9",
    "name": "Jezersko Municipality",
    "code": "163",
    "country_id": "f4fdefcb-a418-4c28-86c8-edaaa00e7d20"
  },
  {
    "id": "d99df42a-3176-4c7d-8567-e28fd512e022",
    "name": "Juršinci Municipality",
    "code": "042",
    "country_id": "f4fdefcb-a418-4c28-86c8-edaaa00e7d20"
  },
  {
    "id": "22eedfe9-9a34-44d7-955a-3a6af022b082",
    "name": "Kamnik Municipality",
    "code": "043",
    "country_id": "f4fdefcb-a418-4c28-86c8-edaaa00e7d20"
  },
  {
    "id": "cda9a0bb-0315-465e-b737-5511b6ae76ca",
    "name": "Kanal ob Soči Municipality",
    "code": "044",
    "country_id": "f4fdefcb-a418-4c28-86c8-edaaa00e7d20"
  },
  {
    "id": "6d3c4d01-f685-4a34-9dea-fbc3a93685d2",
    "name": "Kidričevo Municipality",
    "code": "045",
    "country_id": "f4fdefcb-a418-4c28-86c8-edaaa00e7d20"
  },
  {
    "id": "8483cfc2-83f3-42fb-acf9-221176b70096",
    "name": "Kobarid Municipality",
    "code": "046",
    "country_id": "f4fdefcb-a418-4c28-86c8-edaaa00e7d20"
  },
  {
    "id": "84080631-f9c4-449e-90b4-4e706ec99c54",
    "name": "Kobilje Municipality",
    "code": "047",
    "country_id": "f4fdefcb-a418-4c28-86c8-edaaa00e7d20"
  },
  {
    "id": "a1e7c5ab-374a-4d30-a77b-1bbcfe0b1f44",
    "name": "Kočevje Municipality",
    "code": "048",
    "country_id": "f4fdefcb-a418-4c28-86c8-edaaa00e7d20"
  },
  {
    "id": "6c9d0022-ef40-4586-aea4-fbdd32e9c045",
    "name": "Komen Municipality",
    "code": "049",
    "country_id": "f4fdefcb-a418-4c28-86c8-edaaa00e7d20"
  },
  {
    "id": "2f5f2604-d9d3-41a3-a910-8f8a05dda5e3",
    "name": "Komenda Municipality",
    "code": "164",
    "country_id": "f4fdefcb-a418-4c28-86c8-edaaa00e7d20"
  },
  {
    "id": "6db6f5b9-e0f0-4883-b131-f5bd62a9eb7b",
    "name": "Koper City Municipality",
    "code": "050",
    "country_id": "f4fdefcb-a418-4c28-86c8-edaaa00e7d20"
  },
  {
    "id": "4afcf106-7af5-441f-96a8-b97ae4788ed1",
    "name": "Kostanjevica na Krki Municipality",
    "code": "197",
    "country_id": "f4fdefcb-a418-4c28-86c8-edaaa00e7d20"
  },
  {
    "id": "f371ed97-0d30-4868-80e5-1d638725dac9",
    "name": "Kostel Municipality",
    "code": "165",
    "country_id": "f4fdefcb-a418-4c28-86c8-edaaa00e7d20"
  },
  {
    "id": "e2a627ab-fa86-436d-a02a-ece317e6702c",
    "name": "Kozje Municipality",
    "code": "051",
    "country_id": "f4fdefcb-a418-4c28-86c8-edaaa00e7d20"
  },
  {
    "id": "45ac5693-3f62-489d-b210-0296f081aa3c",
    "name": "Kranj City Municipality",
    "code": "052",
    "country_id": "f4fdefcb-a418-4c28-86c8-edaaa00e7d20"
  },
  {
    "id": "208f7048-b3eb-4884-9e37-92de565419a0",
    "name": "Kranjska Gora Municipality",
    "code": "053",
    "country_id": "f4fdefcb-a418-4c28-86c8-edaaa00e7d20"
  },
  {
    "id": "2cb0ece2-e229-4e7f-a468-43f682f65c30",
    "name": "Križevci Municipality",
    "code": "166",
    "country_id": "f4fdefcb-a418-4c28-86c8-edaaa00e7d20"
  },
  {
    "id": "4295fff8-ffb0-4f2e-a02b-3ebe54a4c20b",
    "name": "Kungota",
    "code": "055",
    "country_id": "f4fdefcb-a418-4c28-86c8-edaaa00e7d20"
  },
  {
    "id": "f03bed57-0d59-4c7d-a971-7648cedaadd3",
    "name": "Kuzma Municipality",
    "code": "056",
    "country_id": "f4fdefcb-a418-4c28-86c8-edaaa00e7d20"
  },
  {
    "id": "1802b2f0-55d7-4a63-b91a-7582a966ec2d",
    "name": "Laško Municipality",
    "code": "057",
    "country_id": "f4fdefcb-a418-4c28-86c8-edaaa00e7d20"
  },
  {
    "id": "c12394cf-0653-47c5-9192-15b486f8d9a5",
    "name": "Lenart Municipality",
    "code": "058",
    "country_id": "f4fdefcb-a418-4c28-86c8-edaaa00e7d20"
  },
  {
    "id": "6a718479-5469-41d4-a40e-06b214a8f3ef",
    "name": "Lendava Municipality",
    "code": "059",
    "country_id": "f4fdefcb-a418-4c28-86c8-edaaa00e7d20"
  },
  {
    "id": "cd9df4f2-e61c-4b94-a940-0ce0b2f9b7ae",
    "name": "Litija Municipality",
    "code": "060",
    "country_id": "f4fdefcb-a418-4c28-86c8-edaaa00e7d20"
  },
  {
    "id": "70c4169a-c5cc-4653-9012-9928e49fb3bf",
    "name": "Ljubljana City Municipality",
    "code": "061",
    "country_id": "f4fdefcb-a418-4c28-86c8-edaaa00e7d20"
  },
  {
    "id": "493b472d-c2bc-407f-8a69-fd62657485cc",
    "name": "Ljubno Municipality",
    "code": "062",
    "country_id": "f4fdefcb-a418-4c28-86c8-edaaa00e7d20"
  },
  {
    "id": "dda1e7da-1b0c-43cd-adb9-d44332c7ff86",
    "name": "Ljutomer Municipality",
    "code": "063",
    "country_id": "f4fdefcb-a418-4c28-86c8-edaaa00e7d20"
  },
  {
    "id": "ff0d1c89-c868-4db5-b411-2adf7dc348f7",
    "name": "Log–Dragomer Municipality",
    "code": "208",
    "country_id": "f4fdefcb-a418-4c28-86c8-edaaa00e7d20"
  },
  {
    "id": "cbb990df-2f89-4a26-8ae5-b9bb276ccbff",
    "name": "Logatec Municipality",
    "code": "064",
    "country_id": "f4fdefcb-a418-4c28-86c8-edaaa00e7d20"
  },
  {
    "id": "78792e5d-8029-413a-b3d0-cdd9c3022d58",
    "name": "Loška Dolina Municipality",
    "code": "065",
    "country_id": "f4fdefcb-a418-4c28-86c8-edaaa00e7d20"
  },
  {
    "id": "24c7c3e2-0856-4810-91c2-47090020c7ca",
    "name": "Loški Potok Municipality",
    "code": "066",
    "country_id": "f4fdefcb-a418-4c28-86c8-edaaa00e7d20"
  },
  {
    "id": "423ce1a0-8e04-48bf-9f16-dd25eee5ce1e",
    "name": "Lovrenc na Pohorju Municipality",
    "code": "167",
    "country_id": "f4fdefcb-a418-4c28-86c8-edaaa00e7d20"
  },
  {
    "id": "c76c0eda-cd5c-430b-9e70-faa20d80b1ca",
    "name": "Luče Municipality",
    "code": "067",
    "country_id": "f4fdefcb-a418-4c28-86c8-edaaa00e7d20"
  },
  {
    "id": "86b8777d-5baf-470b-9196-a071368198ee",
    "name": "Lukovica Municipality",
    "code": "068",
    "country_id": "f4fdefcb-a418-4c28-86c8-edaaa00e7d20"
  },
  {
    "id": "3b3648ca-92d5-43e9-a313-a8145f849b9a",
    "name": "Majšperk Municipality",
    "code": "069",
    "country_id": "f4fdefcb-a418-4c28-86c8-edaaa00e7d20"
  },
  {
    "id": "265c94d9-97a9-408b-a17c-268cf386b6a4",
    "name": "Makole Municipality",
    "code": "198",
    "country_id": "f4fdefcb-a418-4c28-86c8-edaaa00e7d20"
  },
  {
    "id": "695378be-524a-4231-bd22-1a0ab3eff15e",
    "name": "Maribor City Municipality",
    "code": "070",
    "country_id": "f4fdefcb-a418-4c28-86c8-edaaa00e7d20"
  },
  {
    "id": "c47893de-6a8f-4055-93d1-dbe5eea87285",
    "name": "Markovci Municipality",
    "code": "168",
    "country_id": "f4fdefcb-a418-4c28-86c8-edaaa00e7d20"
  },
  {
    "id": "a4eb3f46-1faf-40cc-817a-011b0edf378f",
    "name": "Medvode Municipality",
    "code": "071",
    "country_id": "f4fdefcb-a418-4c28-86c8-edaaa00e7d20"
  },
  {
    "id": "0fd8bf27-5258-4cf2-acba-f98ba70d82cb",
    "name": "Mengeš Municipality",
    "code": "072",
    "country_id": "f4fdefcb-a418-4c28-86c8-edaaa00e7d20"
  },
  {
    "id": "bfbbb1b3-ede4-4d7d-bd25-b48b8bd14ddc",
    "name": "Metlika Municipality",
    "code": "073",
    "country_id": "f4fdefcb-a418-4c28-86c8-edaaa00e7d20"
  },
  {
    "id": "6005ba57-bd54-4f1c-b231-970041105285",
    "name": "Mežica Municipality",
    "code": "074",
    "country_id": "f4fdefcb-a418-4c28-86c8-edaaa00e7d20"
  },
  {
    "id": "92e7e692-6293-4924-9e44-26f99968cd90",
    "name": "Miklavž na Dravskem Polju Municipality",
    "code": "169",
    "country_id": "f4fdefcb-a418-4c28-86c8-edaaa00e7d20"
  },
  {
    "id": "06ffb38c-26a8-4235-ab2d-91b2e224fb8f",
    "name": "Miren–Kostanjevica Municipality",
    "code": "075",
    "country_id": "f4fdefcb-a418-4c28-86c8-edaaa00e7d20"
  },
  {
    "id": "1b08f1b1-4f17-4ba7-ae79-2c776241ad34",
    "name": "Mirna Municipality",
    "code": "212",
    "country_id": "f4fdefcb-a418-4c28-86c8-edaaa00e7d20"
  },
  {
    "id": "896e803c-cbbc-42fd-9d9d-6fe70b8135f5",
    "name": "Mirna Peč Municipality",
    "code": "170",
    "country_id": "f4fdefcb-a418-4c28-86c8-edaaa00e7d20"
  },
  {
    "id": "5e956eb4-a58b-420c-a798-01c1dba4b63a",
    "name": "Mislinja Municipality",
    "code": "076",
    "country_id": "f4fdefcb-a418-4c28-86c8-edaaa00e7d20"
  },
  {
    "id": "f95cbad6-5533-4461-aac9-aa16d47f8a3c",
    "name": "Mokronog–Trebelno Municipality",
    "code": "199",
    "country_id": "f4fdefcb-a418-4c28-86c8-edaaa00e7d20"
  },
  {
    "id": "880713d3-ad38-44ca-93df-bd206bdbc65f",
    "name": "Moravče Municipality",
    "code": "077",
    "country_id": "f4fdefcb-a418-4c28-86c8-edaaa00e7d20"
  },
  {
    "id": "394e780d-d419-4735-b3f3-f39a3a12a385",
    "name": "Moravske Toplice Municipality",
    "code": "078",
    "country_id": "f4fdefcb-a418-4c28-86c8-edaaa00e7d20"
  },
  {
    "id": "f2e765b7-1ff2-4c6b-bed6-3a41234dde63",
    "name": "Mozirje Municipality",
    "code": "079",
    "country_id": "f4fdefcb-a418-4c28-86c8-edaaa00e7d20"
  },
  {
    "id": "2b0df176-c170-437f-9a9b-4ae1768ba50f",
    "name": "Municipality of Apače",
    "code": "195",
    "country_id": "f4fdefcb-a418-4c28-86c8-edaaa00e7d20"
  },
  {
    "id": "407e8726-d59f-42d5-bb28-81f8e4deaa33",
    "name": "Municipality of Cirkulane",
    "code": "196",
    "country_id": "f4fdefcb-a418-4c28-86c8-edaaa00e7d20"
  },
  {
    "id": "db5e3fd1-df7c-4f30-9a18-81a86dc78f7d",
    "name": "Municipality of Ilirska Bistrica",
    "code": "038",
    "country_id": "f4fdefcb-a418-4c28-86c8-edaaa00e7d20"
  },
  {
    "id": "e7733f06-8b8f-4405-986e-a91a02970bdb",
    "name": "Municipality of Krško",
    "code": "054",
    "country_id": "f4fdefcb-a418-4c28-86c8-edaaa00e7d20"
  },
  {
    "id": "186e2956-8738-43ad-870e-edb6ea941163",
    "name": "Municipality of Škofljica",
    "code": "123",
    "country_id": "f4fdefcb-a418-4c28-86c8-edaaa00e7d20"
  },
  {
    "id": "dbc4f8fc-52aa-47b6-be81-33fabf94a6aa",
    "name": "Murska Sobota City Municipality",
    "code": "080",
    "country_id": "f4fdefcb-a418-4c28-86c8-edaaa00e7d20"
  },
  {
    "id": "cd86a638-c636-4a67-a47c-779205bde65a",
    "name": "Muta Municipality",
    "code": "081",
    "country_id": "f4fdefcb-a418-4c28-86c8-edaaa00e7d20"
  },
  {
    "id": "7bcf0cfb-0e57-42c7-8139-4496106d07c5",
    "name": "Naklo Municipality",
    "code": "082",
    "country_id": "f4fdefcb-a418-4c28-86c8-edaaa00e7d20"
  },
  {
    "id": "df874eaf-6863-49cc-b2b2-9ac394bc279d",
    "name": "Nazarje Municipality",
    "code": "083",
    "country_id": "f4fdefcb-a418-4c28-86c8-edaaa00e7d20"
  },
  {
    "id": "61139730-faac-47bf-b582-0b20755d76e1",
    "name": "Nova Gorica City Municipality",
    "code": "084",
    "country_id": "f4fdefcb-a418-4c28-86c8-edaaa00e7d20"
  },
  {
    "id": "87f17310-c88b-43f2-938e-6b5a90b5b2c8",
    "name": "Odranci Municipality",
    "code": "086",
    "country_id": "f4fdefcb-a418-4c28-86c8-edaaa00e7d20"
  },
  {
    "id": "d6157b6a-c639-4456-bab8-dd7aa9b3ee95",
    "name": "Oplotnica",
    "code": "171",
    "country_id": "f4fdefcb-a418-4c28-86c8-edaaa00e7d20"
  },
  {
    "id": "d549388c-c938-48c7-9b5d-6bcf58ca331c",
    "name": "Ormož Municipality",
    "code": "087",
    "country_id": "f4fdefcb-a418-4c28-86c8-edaaa00e7d20"
  },
  {
    "id": "37cf2815-2603-4321-8c5c-c67175308435",
    "name": "Osilnica Municipality",
    "code": "088",
    "country_id": "f4fdefcb-a418-4c28-86c8-edaaa00e7d20"
  },
  {
    "id": "bc6b44f8-b746-42a4-8957-d73d89619d66",
    "name": "Pesnica Municipality",
    "code": "089",
    "country_id": "f4fdefcb-a418-4c28-86c8-edaaa00e7d20"
  },
  {
    "id": "ee28b76f-f427-4106-9f21-60d6062269ea",
    "name": "Piran Municipality",
    "code": "090",
    "country_id": "f4fdefcb-a418-4c28-86c8-edaaa00e7d20"
  },
  {
    "id": "d8dde9e6-e27c-42b7-a9b4-499c9707d84d",
    "name": "Pivka Municipality",
    "code": "091",
    "country_id": "f4fdefcb-a418-4c28-86c8-edaaa00e7d20"
  },
  {
    "id": "fb396f99-ebe1-4a2b-b2b4-dbd9350929fb",
    "name": "Podčetrtek Municipality",
    "code": "092",
    "country_id": "f4fdefcb-a418-4c28-86c8-edaaa00e7d20"
  },
  {
    "id": "a4596f45-5f17-41ae-ba5e-11a707e6861a",
    "name": "Podlehnik Municipality",
    "code": "172",
    "country_id": "f4fdefcb-a418-4c28-86c8-edaaa00e7d20"
  },
  {
    "id": "132030d9-c525-4797-a794-21c9fcb8b3cb",
    "name": "Podvelka Municipality",
    "code": "093",
    "country_id": "f4fdefcb-a418-4c28-86c8-edaaa00e7d20"
  },
  {
    "id": "130a8310-ab19-4a44-a856-78194a655257",
    "name": "Poljčane Municipality",
    "code": "200",
    "country_id": "f4fdefcb-a418-4c28-86c8-edaaa00e7d20"
  },
  {
    "id": "12f8061c-d4e2-4496-abc6-154ea1b38db3",
    "name": "Polzela Municipality",
    "code": "173",
    "country_id": "f4fdefcb-a418-4c28-86c8-edaaa00e7d20"
  },
  {
    "id": "45e416a9-6c63-4182-ba51-f8165b43172b",
    "name": "Postojna Municipality",
    "code": "094",
    "country_id": "f4fdefcb-a418-4c28-86c8-edaaa00e7d20"
  },
  {
    "id": "63762cde-0ead-4036-b8d5-164d203f8c27",
    "name": "Prebold Municipality",
    "code": "174",
    "country_id": "f4fdefcb-a418-4c28-86c8-edaaa00e7d20"
  },
  {
    "id": "99070a12-b941-45f5-9dcb-d7a87232382c",
    "name": "Preddvor Municipality",
    "code": "095",
    "country_id": "f4fdefcb-a418-4c28-86c8-edaaa00e7d20"
  },
  {
    "id": "02a1a505-6129-42c2-804f-fc7499a768c6",
    "name": "Prevalje Municipality",
    "code": "175",
    "country_id": "f4fdefcb-a418-4c28-86c8-edaaa00e7d20"
  },
  {
    "id": "448ad3ed-db57-4a58-b682-58e36f6f14fe",
    "name": "Ptuj City Municipality",
    "code": "096",
    "country_id": "f4fdefcb-a418-4c28-86c8-edaaa00e7d20"
  },
  {
    "id": "710bb3c0-346f-4ca5-89c6-7172a2315a81",
    "name": "Puconci Municipality",
    "code": "097",
    "country_id": "f4fdefcb-a418-4c28-86c8-edaaa00e7d20"
  },
  {
    "id": "4fb5ff86-5a55-46ad-9d52-7bdcb6dbdf6e",
    "name": "Rače–Fram Municipality",
    "code": "098",
    "country_id": "f4fdefcb-a418-4c28-86c8-edaaa00e7d20"
  },
  {
    "id": "94345b93-6eca-4c21-a14a-d41fd84ee395",
    "name": "Radeče Municipality",
    "code": "099",
    "country_id": "f4fdefcb-a418-4c28-86c8-edaaa00e7d20"
  },
  {
    "id": "5c7ff92b-dbb7-4967-a0cc-88fb24768cd2",
    "name": "Radenci Municipality",
    "code": "100",
    "country_id": "f4fdefcb-a418-4c28-86c8-edaaa00e7d20"
  },
  {
    "id": "1349b70f-aebc-41a4-962e-094ece0476ca",
    "name": "Radlje ob Dravi Municipality",
    "code": "101",
    "country_id": "f4fdefcb-a418-4c28-86c8-edaaa00e7d20"
  },
  {
    "id": "ed0a3539-8c69-46ad-8717-a582a41a154a",
    "name": "Radovljica Municipality",
    "code": "102",
    "country_id": "f4fdefcb-a418-4c28-86c8-edaaa00e7d20"
  },
  {
    "id": "f00a2c93-0401-4d09-973f-97452c2fa0be",
    "name": "Ravne na Koroškem Municipality",
    "code": "103",
    "country_id": "f4fdefcb-a418-4c28-86c8-edaaa00e7d20"
  },
  {
    "id": "bedfb9a6-3047-4ff3-86e4-9e06689c6ffa",
    "name": "Razkrižje Municipality",
    "code": "176",
    "country_id": "f4fdefcb-a418-4c28-86c8-edaaa00e7d20"
  },
  {
    "id": "9584d1bd-8f1f-4ee6-9b6e-4e8e720e0249",
    "name": "Rečica ob Savinji Municipality",
    "code": "209",
    "country_id": "f4fdefcb-a418-4c28-86c8-edaaa00e7d20"
  },
  {
    "id": "10d8f130-3266-4bcf-be6e-6b5080fed5dd",
    "name": "Renče–Vogrsko Municipality",
    "code": "201",
    "country_id": "f4fdefcb-a418-4c28-86c8-edaaa00e7d20"
  },
  {
    "id": "2820df6d-600b-4721-a317-e5d3de2b3c76",
    "name": "Ribnica Municipality",
    "code": "104",
    "country_id": "f4fdefcb-a418-4c28-86c8-edaaa00e7d20"
  },
  {
    "id": "c4093f2e-d760-47dc-8145-e00dc233b699",
    "name": "Ribnica na Pohorju Municipality",
    "code": "177",
    "country_id": "f4fdefcb-a418-4c28-86c8-edaaa00e7d20"
  },
  {
    "id": "b0101845-38bc-4aee-9193-5c3726bb064c",
    "name": "Rogaška Slatina Municipality",
    "code": "106",
    "country_id": "f4fdefcb-a418-4c28-86c8-edaaa00e7d20"
  },
  {
    "id": "b09c9139-2ec7-48bd-af25-81d5a467358d",
    "name": "Rogašovci Municipality",
    "code": "105",
    "country_id": "f4fdefcb-a418-4c28-86c8-edaaa00e7d20"
  },
  {
    "id": "42962efe-e67e-4847-8387-556e541eb845",
    "name": "Rogatec Municipality",
    "code": "107",
    "country_id": "f4fdefcb-a418-4c28-86c8-edaaa00e7d20"
  },
  {
    "id": "e426853e-3ac3-4d5b-94fe-2e60e41a2bf8",
    "name": "Ruše Municipality",
    "code": "108",
    "country_id": "f4fdefcb-a418-4c28-86c8-edaaa00e7d20"
  },
  {
    "id": "e1f51537-bf8a-4fb9-8c78-1ee1b2e7ec54",
    "name": "Šalovci Municipality",
    "code": "033",
    "country_id": "f4fdefcb-a418-4c28-86c8-edaaa00e7d20"
  },
  {
    "id": "87b05aaf-5f54-4b9b-a6d1-2f70beb371e5",
    "name": "Selnica ob Dravi Municipality",
    "code": "178",
    "country_id": "f4fdefcb-a418-4c28-86c8-edaaa00e7d20"
  },
  {
    "id": "e751f5c7-1224-4c18-8560-800dc4ba86e7",
    "name": "Semič Municipality",
    "code": "109",
    "country_id": "f4fdefcb-a418-4c28-86c8-edaaa00e7d20"
  },
  {
    "id": "ce974055-9026-47e4-9e0e-3814a3b489b4",
    "name": "Šempeter–Vrtojba Municipality",
    "code": "183",
    "country_id": "f4fdefcb-a418-4c28-86c8-edaaa00e7d20"
  },
  {
    "id": "f7d965c1-5b0b-4e5b-9500-afa4f24a7cc4",
    "name": "Šenčur Municipality",
    "code": "117",
    "country_id": "f4fdefcb-a418-4c28-86c8-edaaa00e7d20"
  },
  {
    "id": "31128443-c8ae-488a-b6b0-4196218f5e39",
    "name": "Šentilj Municipality",
    "code": "118",
    "country_id": "f4fdefcb-a418-4c28-86c8-edaaa00e7d20"
  },
  {
    "id": "85c73adf-2fc5-476b-b7d9-fbf51f23e91c",
    "name": "Šentjernej Municipality",
    "code": "119",
    "country_id": "f4fdefcb-a418-4c28-86c8-edaaa00e7d20"
  },
  {
    "id": "0d5f9a64-a230-4f15-87c2-ade769d19a59",
    "name": "Šentjur Municipality",
    "code": "120",
    "country_id": "f4fdefcb-a418-4c28-86c8-edaaa00e7d20"
  },
  {
    "id": "ade2257d-31eb-4e4c-be5f-0f35b939ca1d",
    "name": "Šentrupert Municipality",
    "code": "211",
    "country_id": "f4fdefcb-a418-4c28-86c8-edaaa00e7d20"
  },
  {
    "id": "75ff1644-e65a-48da-8ef8-f50b9d24add2",
    "name": "Sevnica Municipality",
    "code": "110",
    "country_id": "f4fdefcb-a418-4c28-86c8-edaaa00e7d20"
  },
  {
    "id": "c5fee6ea-6eee-4df6-b46e-81bfe4593054",
    "name": "Sežana Municipality",
    "code": "111",
    "country_id": "f4fdefcb-a418-4c28-86c8-edaaa00e7d20"
  },
  {
    "id": "f5d94707-a0ce-45c8-a97b-aa0137186845",
    "name": "Škocjan Municipality",
    "code": "121",
    "country_id": "f4fdefcb-a418-4c28-86c8-edaaa00e7d20"
  },
  {
    "id": "e10c71eb-4c92-477d-b433-80af4eff9f2a",
    "name": "Škofja Loka Municipality",
    "code": "122",
    "country_id": "f4fdefcb-a418-4c28-86c8-edaaa00e7d20"
  },
  {
    "id": "2d66e2e0-4989-47c0-98e7-40a2be5ad3bf",
    "name": "Slovenj Gradec City Municipality",
    "code": "112",
    "country_id": "f4fdefcb-a418-4c28-86c8-edaaa00e7d20"
  },
  {
    "id": "52e01e2a-0fb8-400d-95e9-ec58b658a0c5",
    "name": "Slovenska Bistrica Municipality",
    "code": "113",
    "country_id": "f4fdefcb-a418-4c28-86c8-edaaa00e7d20"
  },
  {
    "id": "93039815-cb89-4b51-9bd3-818b18e673b5",
    "name": "Slovenske Konjice Municipality",
    "code": "114",
    "country_id": "f4fdefcb-a418-4c28-86c8-edaaa00e7d20"
  },
  {
    "id": "7d02c3f0-10b4-451a-9de2-ecc38e01de8e",
    "name": "Šmarje pri Jelšah Municipality",
    "code": "124",
    "country_id": "f4fdefcb-a418-4c28-86c8-edaaa00e7d20"
  },
  {
    "id": "8184ee7e-68f3-4ab6-910f-2cd19ed4e1e2",
    "name": "Šmarješke Toplice Municipality",
    "code": "206",
    "country_id": "f4fdefcb-a418-4c28-86c8-edaaa00e7d20"
  },
  {
    "id": "9dc2e431-015b-49e2-8d80-cd5503ecfed9",
    "name": "Šmartno ob Paki Municipality",
    "code": "125",
    "country_id": "f4fdefcb-a418-4c28-86c8-edaaa00e7d20"
  },
  {
    "id": "63f8f7ef-7705-4fea-ad67-aecfbf0bf81d",
    "name": "Šmartno pri Litiji Municipality",
    "code": "194",
    "country_id": "f4fdefcb-a418-4c28-86c8-edaaa00e7d20"
  },
  {
    "id": "ce746e0c-def8-46c7-b131-50a6ae9496eb",
    "name": "Sodražica Municipality",
    "code": "179",
    "country_id": "f4fdefcb-a418-4c28-86c8-edaaa00e7d20"
  },
  {
    "id": "c592ad33-df12-49b7-8c9a-50bbd0ebd6e2",
    "name": "Solčava Municipality",
    "code": "180",
    "country_id": "f4fdefcb-a418-4c28-86c8-edaaa00e7d20"
  },
  {
    "id": "9f39e63b-b214-4d6f-9769-905ac62b5107",
    "name": "Šoštanj Municipality",
    "code": "126",
    "country_id": "f4fdefcb-a418-4c28-86c8-edaaa00e7d20"
  },
  {
    "id": "1c73df42-5188-4af4-b876-fc66a8623d09",
    "name": "Središče ob Dravi",
    "code": "202",
    "country_id": "f4fdefcb-a418-4c28-86c8-edaaa00e7d20"
  },
  {
    "id": "7420bc62-02da-4cf7-97e5-7058ca99858b",
    "name": "Starše Municipality",
    "code": "115",
    "country_id": "f4fdefcb-a418-4c28-86c8-edaaa00e7d20"
  },
  {
    "id": "4aba683d-fd67-435c-b99f-bec3b5427bf4",
    "name": "Štore Municipality",
    "code": "127",
    "country_id": "f4fdefcb-a418-4c28-86c8-edaaa00e7d20"
  },
  {
    "id": "51884278-e209-4cdc-ae47-67a742d60e2d",
    "name": "Straža Municipality",
    "code": "203",
    "country_id": "f4fdefcb-a418-4c28-86c8-edaaa00e7d20"
  },
  {
    "id": "41dc0967-0b08-49a5-8a3a-20943374b071",
    "name": "Sveta Ana Municipality",
    "code": "181",
    "country_id": "f4fdefcb-a418-4c28-86c8-edaaa00e7d20"
  },
  {
    "id": "4cff2f14-b8e2-4a48-b4d8-ecb85886cdab",
    "name": "Sveta Trojica v Slovenskih Goricah Municipality",
    "code": "204",
    "country_id": "f4fdefcb-a418-4c28-86c8-edaaa00e7d20"
  },
  {
    "id": "708dce12-e89a-4d6e-a669-22068bcf9622",
    "name": "Sveti Andraž v Slovenskih Goricah Municipality",
    "code": "182",
    "country_id": "f4fdefcb-a418-4c28-86c8-edaaa00e7d20"
  },
  {
    "id": "c589bbd7-c495-4e8d-bc8c-83992574601e",
    "name": "Sveti Jurij ob Ščavnici Municipality",
    "code": "116",
    "country_id": "f4fdefcb-a418-4c28-86c8-edaaa00e7d20"
  },
  {
    "id": "24ac9685-c8ed-473f-8b42-24d6164dfcc0",
    "name": "Sveti Jurij v Slovenskih Goricah Municipality",
    "code": "210",
    "country_id": "f4fdefcb-a418-4c28-86c8-edaaa00e7d20"
  },
  {
    "id": "7d736790-84c9-403a-90f7-c8f81968f1a5",
    "name": "Sveti Tomaž Municipality",
    "code": "205",
    "country_id": "f4fdefcb-a418-4c28-86c8-edaaa00e7d20"
  },
  {
    "id": "9c7f885c-195d-4b8d-8d25-1828ac5d0f4c",
    "name": "Tabor Municipality",
    "code": "184",
    "country_id": "f4fdefcb-a418-4c28-86c8-edaaa00e7d20"
  },
  {
    "id": "1d55e367-6b9b-47b2-9641-1c5ce89c6def",
    "name": "Tišina Municipality",
    "code": "010",
    "country_id": "f4fdefcb-a418-4c28-86c8-edaaa00e7d20"
  },
  {
    "id": "389067f5-54a9-4182-9312-71ef8db91ddc",
    "name": "Tolmin Municipality",
    "code": "128",
    "country_id": "f4fdefcb-a418-4c28-86c8-edaaa00e7d20"
  },
  {
    "id": "b4d82938-481b-4925-8e9e-907fcf7bfa6e",
    "name": "Trbovlje Municipality",
    "code": "129",
    "country_id": "f4fdefcb-a418-4c28-86c8-edaaa00e7d20"
  },
  {
    "id": "ea37e076-556d-473e-925e-6f4d6e92d8bd",
    "name": "Trebnje Municipality",
    "code": "130",
    "country_id": "f4fdefcb-a418-4c28-86c8-edaaa00e7d20"
  },
  {
    "id": "3cf80b9c-9ef2-45fb-b7fc-da4d20ed2e66",
    "name": "Trnovska Vas Municipality",
    "code": "185",
    "country_id": "f4fdefcb-a418-4c28-86c8-edaaa00e7d20"
  },
  {
    "id": "720626d4-e28f-4a9a-86eb-0a5b10cc918a",
    "name": "Tržič Municipality",
    "code": "131",
    "country_id": "f4fdefcb-a418-4c28-86c8-edaaa00e7d20"
  },
  {
    "id": "2ab66332-eef8-4a21-b81d-d62cc0a6aa60",
    "name": "Trzin Municipality",
    "code": "186",
    "country_id": "f4fdefcb-a418-4c28-86c8-edaaa00e7d20"
  },
  {
    "id": "0d665672-c722-4159-be64-2afcba1a257c",
    "name": "Turnišče Municipality",
    "code": "132",
    "country_id": "f4fdefcb-a418-4c28-86c8-edaaa00e7d20"
  },
  {
    "id": "f61b2a6b-aa82-4ed1-8ca7-277303292f77",
    "name": "Velika Polana Municipality",
    "code": "187",
    "country_id": "f4fdefcb-a418-4c28-86c8-edaaa00e7d20"
  },
  {
    "id": "0a153e98-3172-487d-97f2-de38e0713dea",
    "name": "Velike Lašče Municipality",
    "code": "134",
    "country_id": "f4fdefcb-a418-4c28-86c8-edaaa00e7d20"
  },
  {
    "id": "91e6b5b6-5cbf-44f5-be82-d822b736812b",
    "name": "Veržej Municipality",
    "code": "188",
    "country_id": "f4fdefcb-a418-4c28-86c8-edaaa00e7d20"
  },
  {
    "id": "95a9aece-2c06-4bb4-9fc1-30f7ffab9996",
    "name": "Videm Municipality",
    "code": "135",
    "country_id": "f4fdefcb-a418-4c28-86c8-edaaa00e7d20"
  },
  {
    "id": "c9241f03-8a8b-4d3d-b005-f564ccc43899",
    "name": "Vipava Municipality",
    "code": "136",
    "country_id": "f4fdefcb-a418-4c28-86c8-edaaa00e7d20"
  },
  {
    "id": "8abebe86-952d-473d-a39f-3e57ee36621b",
    "name": "Vitanje Municipality",
    "code": "137",
    "country_id": "f4fdefcb-a418-4c28-86c8-edaaa00e7d20"
  },
  {
    "id": "b165341a-f11f-416b-b151-f38a56f24b47",
    "name": "Vodice Municipality",
    "code": "138",
    "country_id": "f4fdefcb-a418-4c28-86c8-edaaa00e7d20"
  },
  {
    "id": "45e3cfc0-e58d-4bd8-826d-8b142c1d5857",
    "name": "Vojnik Municipality",
    "code": "139",
    "country_id": "f4fdefcb-a418-4c28-86c8-edaaa00e7d20"
  },
  {
    "id": "0c2ad751-48b7-4425-bd04-88b92eb50c0b",
    "name": "Vransko Municipality",
    "code": "189",
    "country_id": "f4fdefcb-a418-4c28-86c8-edaaa00e7d20"
  },
  {
    "id": "2fde1a83-f854-40c9-a738-cbd596303219",
    "name": "Vrhnika Municipality",
    "code": "140",
    "country_id": "f4fdefcb-a418-4c28-86c8-edaaa00e7d20"
  },
  {
    "id": "0f3bb220-5b35-4ddf-a0ae-e26b55fa979a",
    "name": "Vuzenica Municipality",
    "code": "141",
    "country_id": "f4fdefcb-a418-4c28-86c8-edaaa00e7d20"
  },
  {
    "id": "81e48262-29b1-4733-892d-d3906a548dd8",
    "name": "Zagorje ob Savi Municipality",
    "code": "142",
    "country_id": "f4fdefcb-a418-4c28-86c8-edaaa00e7d20"
  },
  {
    "id": "96e0cbc9-f8ef-422c-a685-c0c700a9d0f3",
    "name": "Žalec Municipality",
    "code": "190",
    "country_id": "f4fdefcb-a418-4c28-86c8-edaaa00e7d20"
  },
  {
    "id": "0ca87404-64fe-4ad0-82f5-9723b81b0f1a",
    "name": "Zavrč Municipality",
    "code": "143",
    "country_id": "f4fdefcb-a418-4c28-86c8-edaaa00e7d20"
  },
  {
    "id": "2aa84429-65b1-46e6-983f-54d01dda815e",
    "name": "Železniki Municipality",
    "code": "146",
    "country_id": "f4fdefcb-a418-4c28-86c8-edaaa00e7d20"
  },
  {
    "id": "e37d17dc-57e2-458e-9dc5-6efe22006bb4",
    "name": "Žetale Municipality",
    "code": "191",
    "country_id": "f4fdefcb-a418-4c28-86c8-edaaa00e7d20"
  },
  {
    "id": "d9e5ac1d-186d-4df0-b98d-15b2d953bf85",
    "name": "Žiri Municipality",
    "code": "147",
    "country_id": "f4fdefcb-a418-4c28-86c8-edaaa00e7d20"
  },
  {
    "id": "644b3f8c-a303-4214-8765-e2d4eb445448",
    "name": "Žirovnica Municipality",
    "code": "192",
    "country_id": "f4fdefcb-a418-4c28-86c8-edaaa00e7d20"
  },
  {
    "id": "56990e2a-3d2a-4321-b7df-0d47c2752f59",
    "name": "Zreče Municipality",
    "code": "144",
    "country_id": "f4fdefcb-a418-4c28-86c8-edaaa00e7d20"
  },
  {
    "id": "3f5a8f91-6064-4851-bb14-235db3d018bf",
    "name": "Žužemberk Municipality",
    "code": "193",
    "country_id": "f4fdefcb-a418-4c28-86c8-edaaa00e7d20"
  }
]