[
  {
    "id": "4a72d651-1d04-401e-8ba0-cc5cf4024398",
    "name": "Al Wahat District",
    "code": "WA",
    "country_id": "fc209622-d0ff-40f7-9ba9-62a9718460ec"
  },
  {
    "id": "dfc51dd5-f1bb-478a-8bfd-de1d660e2d42",
    "name": "Benghazi",
    "code": "BA",
    "country_id": "fc209622-d0ff-40f7-9ba9-62a9718460ec"
  },
  {
    "id": "35e763f0-1e22-468d-8e65-89f74d5cb074",
    "name": "Derna District",
    "code": "DR",
    "country_id": "fc209622-d0ff-40f7-9ba9-62a9718460ec"
  },
  {
    "id": "a1c5fea3-9ea6-4bb4-81c5-a5420c6b46db",
    "name": "Ghat District",
    "code": "GT",
    "country_id": "fc209622-d0ff-40f7-9ba9-62a9718460ec"
  },
  {
    "id": "db998eb9-7b34-4862-a417-dc1d29b9792e",
    "name": "Jabal al Akhdar",
    "code": "JA",
    "country_id": "fc209622-d0ff-40f7-9ba9-62a9718460ec"
  },
  {
    "id": "b590f3d6-9dd4-4511-90c5-61bfc2326841",
    "name": "Jabal al Gharbi District",
    "code": "JG",
    "country_id": "fc209622-d0ff-40f7-9ba9-62a9718460ec"
  },
  {
    "id": "3d76e9ee-82ab-4ee3-ac46-9eaceffe8315",
    "name": "Jafara",
    "code": "JI",
    "country_id": "fc209622-d0ff-40f7-9ba9-62a9718460ec"
  },
  {
    "id": "fc89ab4e-c99c-4da4-b053-2dd2e2969623",
    "name": "Jufra",
    "code": "JU",
    "country_id": "fc209622-d0ff-40f7-9ba9-62a9718460ec"
  },
  {
    "id": "174023e5-04ba-4810-ad35-ffdc4e993514",
    "name": "Kufra District",
    "code": "KF",
    "country_id": "fc209622-d0ff-40f7-9ba9-62a9718460ec"
  },
  {
    "id": "dcc0f519-05e4-4915-a808-5c1a31a06924",
    "name": "Marj District",
    "code": "MJ",
    "country_id": "fc209622-d0ff-40f7-9ba9-62a9718460ec"
  },
  {
    "id": "a13b9fba-8c0d-4824-abae-af40eb9980fb",
    "name": "Misrata District",
    "code": "MI",
    "country_id": "fc209622-d0ff-40f7-9ba9-62a9718460ec"
  },
  {
    "id": "f03892a3-1249-4f7d-956b-c0c4df5089ee",
    "name": "Murqub",
    "code": "MB",
    "country_id": "fc209622-d0ff-40f7-9ba9-62a9718460ec"
  },
  {
    "id": "745928aa-2b10-40f0-9db2-3aa9b048a5b2",
    "name": "Murzuq District",
    "code": "MQ",
    "country_id": "fc209622-d0ff-40f7-9ba9-62a9718460ec"
  },
  {
    "id": "03b6f46e-1a93-4a18-b5f2-ac1f2fffd050",
    "name": "Nalut District",
    "code": "NL",
    "country_id": "fc209622-d0ff-40f7-9ba9-62a9718460ec"
  },
  {
    "id": "8ad74323-1b1b-4869-b528-d9081905a342",
    "name": "Nuqat al Khams",
    "code": "NQ",
    "country_id": "fc209622-d0ff-40f7-9ba9-62a9718460ec"
  },
  {
    "id": "4ca395ce-ad3a-4614-bc4c-68ca8575e832",
    "name": "Sabha District",
    "code": "SB",
    "country_id": "fc209622-d0ff-40f7-9ba9-62a9718460ec"
  },
  {
    "id": "fe8b7d0f-94ac-4b43-8e9b-125e01f67b25",
    "name": "Sirte District",
    "code": "SR",
    "country_id": "fc209622-d0ff-40f7-9ba9-62a9718460ec"
  },
  {
    "id": "4477e9d3-7393-49c4-81db-0f4147879d28",
    "name": "Tripoli District",
    "code": "TB",
    "country_id": "fc209622-d0ff-40f7-9ba9-62a9718460ec"
  },
  {
    "id": "72ad85e8-b19d-4553-a710-fc1adf241973",
    "name": "Wadi al Hayaa District",
    "code": "WD",
    "country_id": "fc209622-d0ff-40f7-9ba9-62a9718460ec"
  },
  {
    "id": "1b41582b-5875-41ca-bc5e-de11bb34de9e",
    "name": "Wadi al Shatii District",
    "code": "WS",
    "country_id": "fc209622-d0ff-40f7-9ba9-62a9718460ec"
  },
  {
    "id": "678f2664-8572-4765-9a4f-3b9afaecda18",
    "name": "Zawiya District",
    "code": "ZA",
    "country_id": "fc209622-d0ff-40f7-9ba9-62a9718460ec"
  }
]