[
  {
    "id": 1,
    "name": "Afghanistan",
    "iso": "AF"
  },
  {
    "id": 2,
    "name": "Aland Islands",
    "iso": "AX"
  },
  {
    "id": 3,
    "name": "Albania",
    "iso": "AL"
  },
  {
    "id": 4,
    "name": "Algeria",
    "iso": "DZ"
  },
  {
    "id": 5,
    "name": "American Samoa",
    "iso": "AS"
  },
  {
    "id": 6,
    "name": "Andorra",
    "iso": "AD"
  },
  {
    "id": 7,
    "name": "Angola",
    "iso": "AO"
  },
  {
    "id": 8,
    "name": "Anguilla",
    "iso": "AI"
  },
  {
    "id": 9,
    "name": "Antarctica",
    "iso": "AQ"
  },
  {
    "id": 10,
    "name": "Antigua And Barbuda",
    "iso": "AG"
  },
  {
    "id": 11,
    "name": "Argentina",
    "iso": "AR"
  },
  {
    "id": 12,
    "name": "Armenia",
    "iso": "AM"
  },
  {
    "id": 13,
    "name": "Aruba",
    "iso": "AW"
  },
  {
    "id": 14,
    "name": "Australia",
    "iso": "AU"
  },
  {
    "id": 15,
    "name": "Austria",
    "iso": "AT"
  },
  {
    "id": 16,
    "name": "Azerbaijan",
    "iso": "AZ"
  },
  {
    "id": 18,
    "name": "Bahrain",
    "iso": "BH"
  },
  {
    "id": 19,
    "name": "Bangladesh",
    "iso": "BD"
  },
  {
    "id": 20,
    "name": "Barbados",
    "iso": "BB"
  },
  {
    "id": 21,
    "name": "Belarus",
    "iso": "BY"
  },
  {
    "id": 22,
    "name": "Belgium",
    "iso": "BE"
  },
  {
    "id": 23,
    "name": "Belize",
    "iso": "BZ"
  },
  {
    "id": 24,
    "name": "Benin",
    "iso": "BJ"
  },
  {
    "id": 25,
    "name": "Bermuda",
    "iso": "BM"
  },
  {
    "id": 26,
    "name": "Bhutan",
    "iso": "BT"
  },
  {
    "id": 27,
    "name": "Bolivia",
    "iso": "BO"
  },
  {
    "id": 155,
    "name": "Bonaire, Sint Eustatius and Saba",
    "iso": "BQ"
  },
  {
    "id": 28,
    "name": "Bosnia and Herzegovina",
    "iso": "BA"
  },
  {
    "id": 29,
    "name": "Botswana",
    "iso": "BW"
  },
  {
    "id": 30,
    "name": "Bouvet Island",
    "iso": "BV"
  },
  {
    "id": 31,
    "name": "Brazil",
    "iso": "BR"
  },
  {
    "id": 32,
    "name": "British Indian Ocean Territory",
    "iso": "IO"
  },
  {
    "id": 33,
    "name": "Brunei",
    "iso": "BN"
  },
  {
    "id": 34,
    "name": "Bulgaria",
    "iso": "BG"
  },
  {
    "id": 35,
    "name": "Burkina Faso",
    "iso": "BF"
  },
  {
    "id": 36,
    "name": "Burundi",
    "iso": "BI"
  },
  {
    "id": 37,
    "name": "Cambodia",
    "iso": "KH"
  },
  {
    "id": 38,
    "name": "Cameroon",
    "iso": "CM"
  },
  {
    "id": 39,
    "name": "Canada",
    "iso": "CA"
  },
  {
    "id": 40,
    "name": "Cape Verde",
    "iso": "CV"
  },
  {
    "id": 41,
    "name": "Cayman Islands",
    "iso": "KY"
  },
  {
    "id": 42,
    "name": "Central African Republic",
    "iso": "CF"
  },
  {
    "id": 43,
    "name": "Chad",
    "iso": "TD"
  },
  {
    "id": 44,
    "name": "Chile",
    "iso": "CL"
  },
  {
    "id": 45,
    "name": "China",
    "iso": "CN"
  },
  {
    "id": 46,
    "name": "Christmas Island",
    "iso": "CX"
  },
  {
    "id": 47,
    "name": "Cocos (Keeling) Islands",
    "iso": "CC"
  },
  {
    "id": 48,
    "name": "Colombia",
    "iso": "CO"
  },
  {
    "id": 49,
    "name": "Comoros",
    "iso": "KM"
  },
  {
    "id": 50,
    "name": "Congo",
    "iso": "CG"
  },
  {
    "id": 52,
    "name": "Cook Islands",
    "iso": "CK"
  },
  {
    "id": 53,
    "name": "Costa Rica",
    "iso": "CR"
  },
  {
    "id": 54,
    "name": "Cote D'Ivoire (Ivory Coast)",
    "iso": "CI"
  },
  {
    "id": 55,
    "name": "Croatia",
    "iso": "HR"
  },
  {
    "id": 56,
    "name": "Cuba",
    "iso": "CU"
  },
  {
    "id": 249,
    "name": "Curaçao",
    "iso": "CW"
  },
  {
    "id": 57,
    "name": "Cyprus",
    "iso": "CY"
  },
  {
    "id": 58,
    "name": "Czech Republic",
    "iso": "CZ"
  },
  {
    "id": 51,
    "name": "Democratic Republic of the Congo",
    "iso": "CD"
  },
  {
    "id": 59,
    "name": "Denmark",
    "iso": "DK"
  },
  {
    "id": 60,
    "name": "Djibouti",
    "iso": "DJ"
  },
  {
    "id": 61,
    "name": "Dominica",
    "iso": "DM"
  },
  {
    "id": 62,
    "name": "Dominican Republic",
    "iso": "DO"
  },
  {
    "id": 63,
    "name": "East Timor",
    "iso": "TL"
  },
  {
    "id": 64,
    "name": "Ecuador",
    "iso": "EC"
  },
  {
    "id": 65,
    "name": "Egypt",
    "iso": "EG"
  },
  {
    "id": 66,
    "name": "El Salvador",
    "iso": "SV"
  },
  {
    "id": 67,
    "name": "Equatorial Guinea",
    "iso": "GQ"
  },
  {
    "id": 68,
    "name": "Eritrea",
    "iso": "ER"
  },
  {
    "id": 69,
    "name": "Estonia",
    "iso": "EE"
  },
  {
    "id": 70,
    "name": "Ethiopia",
    "iso": "ET"
  },
  {
    "id": 71,
    "name": "Falkland Islands",
    "iso": "FK"
  },
  {
    "id": 72,
    "name": "Faroe Islands",
    "iso": "FO"
  },
  {
    "id": 73,
    "name": "Fiji Islands",
    "iso": "FJ"
  },
  {
    "id": 74,
    "name": "Finland",
    "iso": "FI"
  },
  {
    "id": 75,
    "name": "France",
    "iso": "FR"
  },
  {
    "id": 76,
    "name": "French Guiana",
    "iso": "GF"
  },
  {
    "id": 77,
    "name": "French Polynesia",
    "iso": "PF"
  },
  {
    "id": 78,
    "name": "French Southern Territories",
    "iso": "TF"
  },
  {
    "id": 79,
    "name": "Gabon",
    "iso": "GA"
  },
  {
    "id": 80,
    "name": "Gambia The",
    "iso": "GM"
  },
  {
    "id": 81,
    "name": "Georgia",
    "iso": "GE"
  },
  {
    "id": 82,
    "name": "Germany",
    "iso": "DE"
  },
  {
    "id": 83,
    "name": "Ghana",
    "iso": "GH"
  },
  {
    "id": 84,
    "name": "Gibraltar",
    "iso": "GI"
  },
  {
    "id": 85,
    "name": "Greece",
    "iso": "GR"
  },
  {
    "id": 86,
    "name": "Greenland",
    "iso": "GL"
  },
  {
    "id": 87,
    "name": "Grenada",
    "iso": "GD"
  },
  {
    "id": 88,
    "name": "Guadeloupe",
    "iso": "GP"
  },
  {
    "id": 89,
    "name": "Guam",
    "iso": "GU"
  },
  {
    "id": 90,
    "name": "Guatemala",
    "iso": "GT"
  },
  {
    "id": 91,
    "name": "Guernsey and Alderney",
    "iso": "GG"
  },
  {
    "id": 92,
    "name": "Guinea",
    "iso": "GN"
  },
  {
    "id": 93,
    "name": "Guinea-Bissau",
    "iso": "GW"
  },
  {
    "id": 94,
    "name": "Guyana",
    "iso": "GY"
  },
  {
    "id": 95,
    "name": "Haiti",
    "iso": "HT"
  },
  {
    "id": 96,
    "name": "Heard Island and McDonald Islands",
    "iso": "HM"
  },
  {
    "id": 97,
    "name": "Honduras",
    "iso": "HN"
  },
  {
    "id": 98,
    "name": "Hong Kong S.A.R.",
    "iso": "HK"
  },
  {
    "id": 99,
    "name": "Hungary",
    "iso": "HU"
  },
  {
    "id": 100,
    "name": "Iceland",
    "iso": "IS"
  },
  {
    "id": 101,
    "name": "India",
    "iso": "IN"
  },
  {
    "id": 102,
    "name": "Indonesia",
    "iso": "ID"
  },
  {
    "id": 103,
    "name": "Iran",
    "iso": "IR"
  },
  {
    "id": 104,
    "name": "Iraq",
    "iso": "IQ"
  },
  {
    "id": 105,
    "name": "Ireland",
    "iso": "IE"
  },
  {
    "id": 106,
    "name": "Israel",
    "iso": "IL"
  },
  {
    "id": 107,
    "name": "Italy",
    "iso": "IT"
  },
  {
    "id": 108,
    "name": "Jamaica",
    "iso": "JM"
  },
  {
    "id": 109,
    "name": "Japan",
    "iso": "JP"
  },
  {
    "id": 110,
    "name": "Jersey",
    "iso": "JE"
  },
  {
    "id": 111,
    "name": "Jordan",
    "iso": "JO"
  },
  {
    "id": 112,
    "name": "Kazakhstan",
    "iso": "KZ"
  },
  {
    "id": 113,
    "name": "Kenya",
    "iso": "KE"
  },
  {
    "id": 114,
    "name": "Kiribati",
    "iso": "KI"
  },
  {
    "id": 248,
    "name": "Kosovo",
    "iso": "XK"
  },
  {
    "id": 117,
    "name": "Kuwait",
    "iso": "KW"
  },
  {
    "id": 118,
    "name": "Kyrgyzstan",
    "iso": "KG"
  },
  {
    "id": 119,
    "name": "Laos",
    "iso": "LA"
  },
  {
    "id": 120,
    "name": "Latvia",
    "iso": "LV"
  },
  {
    "id": 121,
    "name": "Lebanon",
    "iso": "LB"
  },
  {
    "id": 122,
    "name": "Lesotho",
    "iso": "LS"
  },
  {
    "id": 123,
    "name": "Liberia",
    "iso": "LR"
  },
  {
    "id": 124,
    "name": "Libya",
    "iso": "LY"
  },
  {
    "id": 125,
    "name": "Liechtenstein",
    "iso": "LI"
  },
  {
    "id": 126,
    "name": "Lithuania",
    "iso": "LT"
  },
  {
    "id": 127,
    "name": "Luxembourg",
    "iso": "LU"
  },
  {
    "id": 128,
    "name": "Macau S.A.R.",
    "iso": "MO"
  },
  {
    "id": 129,
    "name": "Macedonia",
    "iso": "MK"
  },
  {
    "id": 130,
    "name": "Madagascar",
    "iso": "MG"
  },
  {
    "id": 131,
    "name": "Malawi",
    "iso": "MW"
  },
  {
    "id": 132,
    "name": "Malaysia",
    "iso": "MY"
  },
  {
    "id": 133,
    "name": "Maldives",
    "iso": "MV"
  },
  {
    "id": 134,
    "name": "Mali",
    "iso": "ML"
  },
  {
    "id": 135,
    "name": "Malta",
    "iso": "MT"
  },
  {
    "id": 136,
    "name": "Man (Isle of)",
    "iso": "IM"
  },
  {
    "id": 137,
    "name": "Marshall Islands",
    "iso": "MH"
  },
  {
    "id": 138,
    "name": "Martinique",
    "iso": "MQ"
  },
  {
    "id": 139,
    "name": "Mauritania",
    "iso": "MR"
  },
  {
    "id": 140,
    "name": "Mauritius",
    "iso": "MU"
  },
  {
    "id": 141,
    "name": "Mayotte",
    "iso": "YT"
  },
  {
    "id": 142,
    "name": "Mexico",
    "iso": "MX"
  },
  {
    "id": 143,
    "name": "Micronesia",
    "iso": "FM"
  },
  {
    "id": 144,
    "name": "Moldova",
    "iso": "MD"
  },
  {
    "id": 145,
    "name": "Monaco",
    "iso": "MC"
  },
  {
    "id": 146,
    "name": "Mongolia",
    "iso": "MN"
  },
  {
    "id": 147,
    "name": "Montenegro",
    "iso": "ME"
  },
  {
    "id": 148,
    "name": "Montserrat",
    "iso": "MS"
  },
  {
    "id": 149,
    "name": "Morocco",
    "iso": "MA"
  },
  {
    "id": 150,
    "name": "Mozambique",
    "iso": "MZ"
  },
  {
    "id": 151,
    "name": "Myanmar",
    "iso": "MM"
  },
  {
    "id": 152,
    "name": "Namibia",
    "iso": "NA"
  },
  {
    "id": 153,
    "name": "Nauru",
    "iso": "NR"
  },
  {
    "id": 154,
    "name": "Nepal",
    "iso": "NP"
  },
  {
    "id": 156,
    "name": "Netherlands",
    "iso": "NL"
  },
  {
    "id": 157,
    "name": "New Caledonia",
    "iso": "NC"
  },
  {
    "id": 158,
    "name": "New Zealand",
    "iso": "NZ"
  },
  {
    "id": 159,
    "name": "Nicaragua",
    "iso": "NI"
  },
  {
    "id": 160,
    "name": "Niger",
    "iso": "NE"
  },
  {
    "id": 161,
    "name": "Nigeria",
    "iso": "NG"
  },
  {
    "id": 162,
    "name": "Niue",
    "iso": "NU"
  },
  {
    "id": 163,
    "name": "Norfolk Island",
    "iso": "NF"
  },
  {
    "id": 115,
    "name": "North Korea",
    "iso": "KP"
  },
  {
    "id": 164,
    "name": "Northern Mariana Islands",
    "iso": "MP"
  },
  {
    "id": 165,
    "name": "Norway",
    "iso": "NO"
  },
  {
    "id": 166,
    "name": "Oman",
    "iso": "OM"
  },
  {
    "id": 167,
    "name": "Pakistan",
    "iso": "PK"
  },
  {
    "id": 168,
    "name": "Palau",
    "iso": "PW"
  },
  {
    "id": 169,
    "name": "Palestinian Territory Occupied",
    "iso": "PS"
  },
  {
    "id": 170,
    "name": "Panama",
    "iso": "PA"
  },
  {
    "id": 171,
    "name": "Papua new Guinea",
    "iso": "PG"
  },
  {
    "id": 172,
    "name": "Paraguay",
    "iso": "PY"
  },
  {
    "id": 173,
    "name": "Peru",
    "iso": "PE"
  },
  {
    "id": 174,
    "name": "Philippines",
    "iso": "PH"
  },
  {
    "id": 175,
    "name": "Pitcairn Island",
    "iso": "PN"
  },
  {
    "id": 176,
    "name": "Poland",
    "iso": "PL"
  },
  {
    "id": 177,
    "name": "Portugal",
    "iso": "PT"
  },
  {
    "id": 178,
    "name": "Puerto Rico",
    "iso": "PR"
  },
  {
    "id": 179,
    "name": "Qatar",
    "iso": "QA"
  },
  {
    "id": 180,
    "name": "Reunion",
    "iso": "RE"
  },
  {
    "id": 181,
    "name": "Romania",
    "iso": "RO"
  },
  {
    "id": 182,
    "name": "Russia",
    "iso": "RU"
  },
  {
    "id": 183,
    "name": "Rwanda",
    "iso": "RW"
  },
  {
    "id": 184,
    "name": "Saint Helena",
    "iso": "SH"
  },
  {
    "id": 185,
    "name": "Saint Kitts And Nevis",
    "iso": "KN"
  },
  {
    "id": 186,
    "name": "Saint Lucia",
    "iso": "LC"
  },
  {
    "id": 187,
    "name": "Saint Pierre and Miquelon",
    "iso": "PM"
  },
  {
    "id": 188,
    "name": "Saint Vincent And The Grenadines",
    "iso": "VC"
  },
  {
    "id": 189,
    "name": "Saint-Barthelemy",
    "iso": "BL"
  },
  {
    "id": 190,
    "name": "Saint-Martin (French part)",
    "iso": "MF"
  },
  {
    "id": 191,
    "name": "Samoa",
    "iso": "WS"
  },
  {
    "id": 192,
    "name": "San Marino",
    "iso": "SM"
  },
  {
    "id": 193,
    "name": "Sao Tome and Principe",
    "iso": "ST"
  },
  {
    "id": 194,
    "name": "Saudi Arabia",
    "iso": "SA"
  },
  {
    "id": 195,
    "name": "Senegal",
    "iso": "SN"
  },
  {
    "id": 196,
    "name": "Serbia",
    "iso": "RS"
  },
  {
    "id": 197,
    "name": "Seychelles",
    "iso": "SC"
  },
  {
    "id": 198,
    "name": "Sierra Leone",
    "iso": "SL"
  },
  {
    "id": 199,
    "name": "Singapore",
    "iso": "SG"
  },
  {
    "id": 250,
    "name": "Sint Maarten (Dutch part)",
    "iso": "SX"
  },
  {
    "id": 200,
    "name": "Slovakia",
    "iso": "SK"
  },
  {
    "id": 201,
    "name": "Slovenia",
    "iso": "SI"
  },
  {
    "id": 202,
    "name": "Solomon Islands",
    "iso": "SB"
  },
  {
    "id": 203,
    "name": "Somalia",
    "iso": "SO"
  },
  {
    "id": 204,
    "name": "South Africa",
    "iso": "ZA"
  },
  {
    "id": 205,
    "name": "South Georgia",
    "iso": "GS"
  },
  {
    "id": 116,
    "name": "South Korea",
    "iso": "KR"
  },
  {
    "id": 206,
    "name": "South Sudan",
    "iso": "SS"
  },
  {
    "id": 207,
    "name": "Spain",
    "iso": "ES"
  },
  {
    "id": 208,
    "name": "Sri Lanka",
    "iso": "LK"
  },
  {
    "id": 209,
    "name": "Sudan",
    "iso": "SD"
  },
  {
    "id": 210,
    "name": "Suriname",
    "iso": "SR"
  },
  {
    "id": 211,
    "name": "Svalbard And Jan Mayen Islands",
    "iso": "SJ"
  },
  {
    "id": 212,
    "name": "Swaziland",
    "iso": "SZ"
  },
  {
    "id": 213,
    "name": "Sweden",
    "iso": "SE"
  },
  {
    "id": 214,
    "name": "Switzerland",
    "iso": "CH"
  },
  {
    "id": 215,
    "name": "Syria",
    "iso": "SY"
  },
  {
    "id": 216,
    "name": "Taiwan",
    "iso": "TW"
  },
  {
    "id": 217,
    "name": "Tajikistan",
    "iso": "TJ"
  },
  {
    "id": 218,
    "name": "Tanzania",
    "iso": "TZ"
  },
  {
    "id": 219,
    "name": "Thailand",
    "iso": "TH"
  },
  {
    "id": 17,
    "name": "The Bahamas",
    "iso": "BS"
  },
  {
    "id": 220,
    "name": "Togo",
    "iso": "TG"
  },
  {
    "id": 221,
    "name": "Tokelau",
    "iso": "TK"
  },
  {
    "id": 222,
    "name": "Tonga",
    "iso": "TO"
  },
  {
    "id": 223,
    "name": "Trinidad And Tobago",
    "iso": "TT"
  },
  {
    "id": 224,
    "name": "Tunisia",
    "iso": "TN"
  },
  {
    "id": 225,
    "name": "Turkey",
    "iso": "TR"
  },
  {
    "id": 226,
    "name": "Turkmenistan",
    "iso": "TM"
  },
  {
    "id": 227,
    "name": "Turks And Caicos Islands",
    "iso": "TC"
  },
  {
    "id": 228,
    "name": "Tuvalu",
    "iso": "TV"
  },
  {
    "id": 229,
    "name": "Uganda",
    "iso": "UG"
  },
  {
    "id": 230,
    "name": "Ukraine",
    "iso": "UA"
  },
  {
    "id": 231,
    "name": "United Arab Emirates",
    "iso": "AE"
  },
  {
    "id": 232,
    "name": "United Kingdom",
    "iso": "GB"
  },
  {
    "id": 233,
    "name": "United States",
    "iso": "US"
  },
  {
    "id": 234,
    "name": "United States Minor Outlying Islands",
    "iso": "UM"
  },
  {
    "id": 235,
    "name": "Uruguay",
    "iso": "UY"
  },
  {
    "id": 236,
    "name": "Uzbekistan",
    "iso": "UZ"
  },
  {
    "id": 237,
    "name": "Vanuatu",
    "iso": "VU"
  },
  {
    "id": 238,
    "name": "Vatican City State (Holy See)",
    "iso": "VA"
  },
  {
    "id": 239,
    "name": "Venezuela",
    "iso": "VE"
  },
  {
    "id": 240,
    "name": "Vietnam",
    "iso": "VN"
  },
  {
    "id": 241,
    "name": "Virgin Islands (British)",
    "iso": "VG"
  },
  {
    "id": 242,
    "name": "Virgin Islands (US)",
    "iso": "VI"
  },
  {
    "id": 243,
    "name": "Wallis And Futuna Islands",
    "iso": "WF"
  },
  {
    "id": 244,
    "name": "Western Sahara",
    "iso": "EH"
  },
  {
    "id": 245,
    "name": "Yemen",
    "iso": "YE"
  },
  {
    "id": 246,
    "name": "Zambia",
    "iso": "ZM"
  },
  {
    "id": 247,
    "name": "Zimbabwe",
    "iso": "ZW"
  }
]